{
  "status": 200,
  "page": 1,
  "totalPage": 298,
  "range": "1-12",
  "total": 3573,
  "result": [
    {
      "title": "Globe Launches Game-Changing Roam Surf4All",
      "nonclickable": false,
      "openNewTab": false,
      "borderArticle": "border-color:#0074D9;",
      "borderTopArticle": "border-top-color:#0074D9;",
      "imageListing": "/sites/globe.com.ph/files/content/dam/globe/brie/AboutUs/newsroom/consumer/globe-launches-game-changing-roam-surf4all/thumbnail-listing.jpg",
      "articleUrl": "https://www.globe.com.ph/about-us/newsroom/consumer/globe-launches-game-changing-roam-surf4all.html",
      "columnType": "articles--type-3",
      "typeListing": "article",
      "imageMobile": "/sites/globe.com.ph/files/content/dam/globe/brie/AboutUs/newsroom/consumer/globe-launches-game-changing-roam-surf4all/primary-thumbnail-m.jpg",
      "imageDesktop": "/sites/globe.com.ph/files/content/dam/globe/brie/AboutUs/newsroom/consumer/globe-launches-game-changing-roam-surf4all/primary-thumbnail-d.jpg",
      "description": "Globe launches Roam Surf4All shareable data roaming promo perfect for group travels abroad.",
      "datePosted": "Dec 11, 2023 | 10:36 AM",
      "titleFromTag": "Consumer"
    },
    {
      "title": "Fast Track by RUSH Business Acceleration Program Boosts SME Sales by 62%",
      "nonclickable": false,
      "openNewTab": false,
      "borderArticle": "border-color:#0074D9;",
      "borderTopArticle": "border-top-color:#0074D9;",
      "imageListing": "/sites/globe.com.ph/files/content/dam/globe/brie/About-us/Newsroom/image/Business/fast-track-by-rush-boosts-sme-sales-by-62-percent/thumbnail-listing.jpg",
      "articleUrl": "https://www.globe.com.ph/about-us/newsroom/business/fast-track-by-rush-boosts-sme-sales-by-62-percent.html",
      "columnType": "articles--type-3",
      "typeListing": "article",
      "imageMobile": "/sites/globe.com.ph/files/content/dam/globe/brie/About-us/Newsroom/image/Business/fast-track-by-rush-boosts-sme-sales-by-62-percent/primary-thumbnail-m.jpg",
      "imageDesktop": "/sites/globe.com.ph/files/content/dam/globe/brie/About-us/Newsroom/image/Business/fast-track-by-rush-boosts-sme-sales-by-62-percent/primary-thumbnail-d.jpg",
      "description": "RUSH Technologies reached a groundbreaking achievement for its Fast Track Business Acceleration Program.",
      "datePosted": "Dec 06, 2023 | 10:18 AM",
      "titleFromTag": "Business"
    },
    {
      "title": "#BringBrightness to your Home this Holiday Season with Limited-Time Offer Globe GFiber Plans",
      "nonclickable": false,
      "openNewTab": false,
      "borderArticle": "border-color:#0074D9;",
      "borderTopArticle": "border-top-color:#0074D9;",
      "imageListing": "/sites/globe.com.ph/files/content/dam/globe/brie/AboutUs/newsroom/common/default-consumer-2/default-consumer-thumbnail-listing.jpg",
      "articleUrl": "https://www.globe.com.ph/about-us/newsroom/consumer/bringbrightness-to-your-home-with-gfiber-plans.html",
      "columnType": "articles--type-3",
      "typeListing": "article",
      "imageMobile": "/sites/globe.com.ph/files/content/dam/globe/brie/AboutUs/newsroom/common/default-consumer-2/default-consumer-primary-thumbnail-m.jpg",
      "imageDesktop": "/sites/globe.com.ph/files/content/dam/globe/brie/AboutUs/newsroom/common/default-consumer-2/default-consumer-primary-thumbnail-d.jpg",
      "description": "Globe At Home is spreading the magic this season with limited offer Globe GFiber plans.",
      "datePosted": "Dec 06, 2023 | 10:04 AM",
      "titleFromTag": "Consumer"
    },
    {
      "title": "Globe Records Robust 8% YoY Growth in Corporate Data Business",
      "nonclickable": false,
      "openNewTab": false,
      "borderArticle": "border-color:#0074D9;",
      "borderTopArticle": "border-top-color:#0074D9;",
      "imageListing": "/sites/globe.com.ph/files/content/dam/globe/brie/AboutUs/newsroom/common/default-corporate-tech-3/newsroom-corporate-tech-3-thumbnail-listing.jpg",
      "articleUrl": "https://www.globe.com.ph/about-us/newsroom/corporate/robust-8-percent-yoy-growth-corporate-data-business.html",
      "columnType": "articles--type-3",
      "typeListing": "article",
      "imageMobile": "/sites/globe.com.ph/files/content/dam/globe/brie/AboutUs/newsroom/common/default-corporate-tech-3/newsroom-corporate-tech-3-primary-thumbnail-m.jpg",
      "imageDesktop": "/sites/globe.com.ph/files/content/dam/globe/brie/AboutUs/newsroom/common/default-corporate-tech-3/newsroom-corporate-tech-3-primary-thumbnail-d.jpg",
      "description": "Globe recorded an impressive 8% year-on-year growth for the first nine months of 2023, showing a strong upward trend in its business operations.",
      "datePosted": "Dec 06, 2023 | 10:03 AM",
      "titleFromTag": "Corporate"
    },
    {
      "title": "Globe Group’s AdSpark Wins Two Golds at 2023 Marketing Excellence Awards",
      "nonclickable": false,
      "openNewTab": false,
      "borderArticle": "border-color:#0074D9;",
      "borderTopArticle": "border-top-color:#0074D9;",
      "imageListing": "/sites/globe.com.ph/files/content/dam/globe/brie/AboutUs/newsroom/common/default-corporate-16/corp-default-images-thumbnail-listing.jpg",
      "articleUrl": "https://www.globe.com.ph/about-us/newsroom/corporate/adspark-wins-two-golds-2023-marketing-excellence-awards.html",
      "columnType": "articles--type-3",
      "typeListing": "article",
      "imageMobile": "/sites/globe.com.ph/files/content/dam/globe/brie/AboutUs/newsroom/common/default-corporate-16/corp-default-images-primary-thumbnail-m.jpg",
      "imageDesktop": "/sites/globe.com.ph/files/content/dam/globe/brie/AboutUs/newsroom/common/default-corporate-16/corp-default-images-primary-thumbnail-d.jpg",
      "description": "AdSpark wins two gold awards at the Marketing Excellence Awards (MEA) 2023.",
      "datePosted": "Dec 06, 2023 | 10:02 AM",
      "titleFromTag": "Corporate"
    },
    {
      "title": "Globe’s The Hapag Movement, Lakbay Hibla Unite to Showcase Indigenous Fabric, Community Products",
      "nonclickable": false,
      "openNewTab": false,
      "borderArticle": "border-color:#0074D9;",
      "borderTopArticle": "border-top-color:#0074D9;",
      "imageListing": "/sites/globe.com.ph/files/content/dam/globe/brie/AboutUs/newsroom/common/newsroom-total-globe-default-images-partners/newsroom-total-globe-default-images-partners-3-thumbnail-listing.jpg",
      "articleUrl": "https://www.globe.com.ph/about-us/newsroom/sustainability/globe-lakbay-hibla-unite-to-showcase-indigenous-fabric.html",
      "columnType": "articles--type-3",
      "typeListing": "article",
      "imageMobile": "/sites/globe.com.ph/files/content/dam/globe/brie/AboutUs/newsroom/common/newsroom-total-globe-default-images-partners/newsroom-total-globe-default-images-partners-3-primary-thumbnail-m.jpg",
      "imageDesktop": "/sites/globe.com.ph/files/content/dam/globe/brie/AboutUs/newsroom/common/newsroom-total-globe-default-images-partners/newsroom-total-globe-default-images-partners-3-primary-thumbnail-d.jpg",
      "description": "Globe's The Hapag Movement and Lakbay Hibla unite for a vibrant fashion show honoring Indigenous Peoples Month, showcasing cultural heritage.\r\n\r\n",
      "datePosted": "Dec 06, 2023 | 10:01 AM",
      "titleFromTag": "Sustainability"
    },
    {
      "title": "Globe Launches Sustainability Academy to Propel Suppliers Towards Sustainable Development",
      "nonclickable": false,
      "openNewTab": false,
      "borderArticle": "border-color:#0074D9;",
      "borderTopArticle": "border-top-color:#0074D9;",
      "imageListing": "/sites/globe.com.ph/files/content/dam/globe/brie/AboutUs/newsroom/common/default-corporate-14/corp-default-images-thumbnail-listing.jpg",
      "articleUrl": "https://www.globe.com.ph/about-us/newsroom/sustainability/globe-launches-sustainability-academy.html",
      "columnType": "articles--type-3",
      "typeListing": "article",
      "imageMobile": "/sites/globe.com.ph/files/content/dam/globe/brie/AboutUs/newsroom/common/default-corporate-14/corp-default-images-primary-thumbnail-m.jpg",
      "imageDesktop": "/sites/globe.com.ph/files/content/dam/globe/brie/AboutUs/newsroom/common/default-corporate-14/corp-default-images-primary-thumbnail-d.jpg",
      "description": "Globe introduces the Sustainability Academy to drive suppliers towards sustainable development.",
      "datePosted": "Dec 06, 2023 | 10:01 AM",
      "titleFromTag": "Sustainability"
    },
    {
      "title": "Globe Blocks Over 400k Malicious Sites, New Record Number in 2023",
      "nonclickable": false,
      "openNewTab": false,
      "borderArticle": "border-color:#0074D9;",
      "borderTopArticle": "border-top-color:#0074D9;",
      "imageListing": "/sites/globe.com.ph/files/content/dam/globe/brie/AboutUs/newsroom/common/default-corporate-13/corp-listing-thumbnail.jpg",
      "articleUrl": "https://www.globe.com.ph/about-us/newsroom/corporate/globe-blocks-over-400k-malicious-sites-new-record-number-2023.html",
      "columnType": "articles--type-3",
      "typeListing": "article",
      "imageMobile": "/sites/globe.com.ph/files/content/dam/globe/brie/AboutUs/newsroom/common/default-corporate-13/corp-primary-banner-m.jpg",
      "imageDesktop": "/sites/globe.com.ph/files/content/dam/globe/brie/AboutUs/newsroom/common/default-corporate-13/corp-primary-thumbnail.jpg",
      "description": "Globe achieved a new record by stopping 404,730 sites and links containing child pornography, illegal gambling, online piracy, and other malicious content. ",
      "datePosted": "Dec 06, 2023 | 09:59 AM",
      "titleFromTag": "Corporate"
    },
    {
      "title": "917Ventures’ FundSpace and BPC Lending Inc. Boost Financing Options for MSMEs, Individual Borrowers",
      "nonclickable": false,
      "openNewTab": false,
      "borderArticle": "border-color:#0074D9;",
      "borderTopArticle": "border-top-color:#0074D9;",
      "imageListing": "/sites/globe.com.ph/files/content/dam/globe/brie/AboutUs/newsroom/common/default-partners-2/default-partners-2-thumbnail-listing.jpg",
      "articleUrl": "https://www.globe.com.ph/about-us/newsroom/business/fundspace-bpc-lending-inc-boost-financing-options-for-msmes.html",
      "columnType": "articles--type-3",
      "typeListing": "article",
      "imageMobile": "/sites/globe.com.ph/files/content/dam/globe/brie/AboutUs/newsroom/common/default-partners-2/default-partners-2-primary-thumbnail-m.jpg",
      "imageDesktop": "/sites/globe.com.ph/files/content/dam/globe/brie/AboutUs/newsroom/common/default-partners-2/default-partners-2-primary-thumbnail-d.jpg",
      "description": "FundSpace, BPC Lending Inc. partners to expand personal loans services to MSMEs.",
      "datePosted": "Dec 06, 2023 | 09:57 AM",
      "titleFromTag": "Business"
    },
    {
      "title": "Globe’s Network Infrastructure Stable, 100% Operational Following Hinatuan Quake",
      "nonclickable": false,
      "openNewTab": false,
      "borderArticle": "border-color:#0074D9;",
      "borderTopArticle": "border-top-color:#0074D9;",
      "imageListing": "/sites/globe.com.ph/files/content/dam/globe/brie/AboutUs/newsroom/common/default-corporate-5g-connectivity/thumbnail-listing.jpg",
      "articleUrl": "https://www.globe.com.ph/about-us/newsroom/corporate/network-infrastructure-stable-operational-hinatuan-quake.html",
      "columnType": "articles--type-3",
      "typeListing": "article",
      "imageMobile": "/sites/globe.com.ph/files/content/dam/globe/brie/AboutUs/newsroom/common/default-corporate-5g-connectivity/primary-thumbnail-m.jpg",
      "imageDesktop": "/sites/globe.com.ph/files/content/dam/globe/brie/AboutUs/newsroom/common/default-corporate-5g-connectivity/primary-thumbnail-d.jpg",
      "description": "Globe's Mindanao network infrastructure remains undamaged after the earthquake, ensuring stable connectivity services in the affected areas.",
      "datePosted": "Dec 05, 2023 | 05:13 PM",
      "titleFromTag": "Corporate"
    },
    {
      "title": "KonsultaMD Clinches Gold at DOH Healthy Pilipinas for Partners Awards 2023",
      "nonclickable": false,
      "openNewTab": false,
      "borderArticle": "border-color:#0074D9;",
      "borderTopArticle": "border-top-color:#0074D9;",
      "imageListing": "/sites/globe.com.ph/files/content/dam/globe/brie/AboutUs/newsroom/common/default-awards-1/corp-default-images-thumbnail-listing.jpg",
      "articleUrl": "https://www.globe.com.ph/about-us/newsroom/corporate/konsultamd-clinches-gold-doh-healthy-pilipinas-partners-awards.html",
      "columnType": "articles--type-3",
      "typeListing": "article",
      "imageMobile": "/sites/globe.com.ph/files/content/dam/globe/brie/AboutUs/newsroom/common/default-awards-1/corp-default-images-primary-thumbnail-m.jpg",
      "imageDesktop": "/sites/globe.com.ph/files/content/dam/globe/brie/AboutUs/newsroom/common/default-awards-1/corp-default-images-primary-thumbnail-d.jpg",
      "description": "KonsultaMD, the leading digital health service provider, won gold at the Department of Health's (DoH) Healthy Pilipinas for Partners Awards 2023. ",
      "datePosted": "Nov 30, 2023 | 04:33 PM",
      "titleFromTag": "Corporate"
    },
    {
      "title": "Asticom CEO Honored at 2023 TITAN Women in Business Awards",
      "nonclickable": false,
      "openNewTab": false,
      "borderArticle": "border-color:#0074D9;",
      "borderTopArticle": "border-top-color:#0074D9;",
      "imageListing": "/sites/globe.com.ph/files/content/dam/globe/brie/AboutUs/newsroom/common/default-partners-2/default-partners-2-thumbnail-listing.jpg",
      "articleUrl": "https://www.globe.com.ph/about-us/newsroom/corporate/asticom-ceo-honored-at-2023-titan-women-business-awards.html",
      "columnType": "articles--type-3",
      "typeListing": "article",
      "imageMobile": "/sites/globe.com.ph/files/content/dam/globe/brie/AboutUs/newsroom/common/default-partners-2/default-partners-2-primary-thumbnail-m.jpg",
      "imageDesktop": "/sites/globe.com.ph/files/content/dam/globe/brie/AboutUs/newsroom/common/default-partners-2/default-partners-2-primary-thumbnail-d.jpg",
      "description": "CEO of the Asticom Group of Companies was honored at the TITAN Women in Business Awards 2023. ",
      "datePosted": "Nov 29, 2023 | 10:02 AM",
      "titleFromTag": "Corporate"
    }
  ]
}
