{
  "status": 200,
  "page": 10,
  "totalPage": 298,
  "range": "109-120",
  "total": 3573,
  "result": [
    {
      "title": "Empowering Filipino Creators: Globe Celebrates 917 GDay with Learning Opportunities at G Creator Con",
      "nonclickable": false,
      "openNewTab": false,
      "borderArticle": "border-color:#0074D9;",
      "borderTopArticle": "border-top-color:#0074D9;",
      "imageListing": "/sites/globe.com.ph/files/content/dam/globe/brie/About-us/Newsroom/image/Consumer/globe-celebrates-g-day-learning-opportunities-g-creator-con/thumbnail-listing.jpg",
      "articleUrl": "https://www.globe.com.ph/about-us/newsroom/consumer/globe-celebrates-g-day-learning-opportunities-g-creator-con.html",
      "columnType": "articles--type-3",
      "typeListing": "article",
      "imageMobile": "/sites/globe.com.ph/files/content/dam/globe/brie/About-us/Newsroom/image/Consumer/globe-celebrates-g-day-learning-opportunities-g-creator-con/primary-thumbnail-m.jpg",
      "imageDesktop": "/sites/globe.com.ph/files/content/dam/globe/brie/About-us/Newsroom/image/Consumer/globe-celebrates-g-day-learning-opportunities-g-creator-con/primary-thumbnail-d.jpg",
      "description": "Globe takes the lead in championing Filipino creativity with the first-ever G Creator Con during the much-awaited G Day celebration.",
      "datePosted": "Sep 19, 2023 | 10:20 AM",
      "titleFromTag": "Consumer"
    },
    {
      "title": "Globe Asserts Mobile Roaming Supremacy with 5G Coverage in 72 Countries",
      "nonclickable": false,
      "openNewTab": false,
      "borderArticle": "border-color:#0074D9;",
      "borderTopArticle": "border-top-color:#0074D9;",
      "imageListing": "/sites/globe.com.ph/files/content/dam/globe/brie/AboutUs/newsroom/consumer/globe-asserts-mobile-roaming-supremacy/thumbnail-listing.jpg",
      "articleUrl": "https://www.globe.com.ph/about-us/newsroom/consumer/5g-coverage-72-countries.html",
      "columnType": "articles--type-3",
      "typeListing": "article",
      "imageMobile": "/sites/globe.com.ph/files/content/dam/globe/brie/AboutUs/newsroom/consumer/globe-asserts-mobile-roaming-supremacy/primary-thumbnail-m.jpg",
      "imageDesktop": "/sites/globe.com.ph/files/content/dam/globe/brie/AboutUs/newsroom/consumer/globe-asserts-mobile-roaming-supremacy/primary-thumbnail-d.jpg",
      "description": "Globe expands its 5G roaming services, now covers  72 countries worldwide.",
      "datePosted": "Sep 19, 2023 | 10:18 AM",
      "titleFromTag": "Consumer"
    },
    {
      "title": "Globe’s Mobile Supremacy: A Sum of Many Parts, Undefeated in Multiple Wins",
      "nonclickable": false,
      "openNewTab": false,
      "borderArticle": "border-color:#0074D9;",
      "borderTopArticle": "border-top-color:#0074D9;",
      "imageListing": "/sites/globe.com.ph/files/content/dam/globe/brie/AboutUs/newsroom/common/default-awards-1/corp-default-images-thumbnail-listing.jpg",
      "articleUrl": "https://www.globe.com.ph/about-us/newsroom/corporate/globes-mobile-supremacy.html",
      "columnType": "articles--type-3",
      "typeListing": "article",
      "imageMobile": "/sites/globe.com.ph/files/content/dam/globe/brie/AboutUs/newsroom/common/default-awards-1/corp-default-images-primary-thumbnail-m.jpg",
      "imageDesktop": "/sites/globe.com.ph/files/content/dam/globe/brie/AboutUs/newsroom/common/default-awards-1/corp-default-images-primary-thumbnail-d.jpg",
      "description": "Globe has once again proven its unparalleled dominance in the telco industry with a series of wins that reflect different facets of excellence.",
      "datePosted": "Sep 19, 2023 | 10:17 AM",
      "titleFromTag": "Corporate"
    },
    {
      "title": "Globe Platinum Launches Exclusive Online Portal For Elevated Customer Experience",
      "nonclickable": false,
      "openNewTab": false,
      "borderArticle": "border-color:#0074D9;",
      "borderTopArticle": "border-top-color:#0074D9;",
      "imageListing": "/sites/globe.com.ph/files/content/dam/globe/brie/About-us/Newsroom/image/Consumer/globe-platinum-launches-exclusive-online-portal/thumbnail-listing.jpg",
      "articleUrl": "https://www.globe.com.ph/about-us/newsroom/consumer/globe-platinum-launches-exclusive-online-portal.html",
      "columnType": "articles--type-3",
      "typeListing": "article",
      "imageMobile": "/sites/globe.com.ph/files/content/dam/globe/brie/About-us/Newsroom/image/Consumer/globe-platinum-launches-exclusive-online-portal/primary-thumbnail-m.jpg",
      "imageDesktop": "/sites/globe.com.ph/files/content/dam/globe/brie/About-us/Newsroom/image/Consumer/globe-platinum-launches-exclusive-online-portal/primary-thumbnail-d.jpg",
      "description": "Globe launched The Platinum Series digital hub on September 11, 2023,  elevating customer experience.",
      "datePosted": "Sep 15, 2023 | 10:37 AM",
      "titleFromTag": "Consumer"
    },
    {
      "title": "Globe Advises Customers to Take Precaution Against Scammers Targeting G Music Fest",
      "nonclickable": false,
      "openNewTab": false,
      "borderArticle": "border-color:#0074D9;",
      "borderTopArticle": "border-top-color:#0074D9;",
      "imageListing": "/sites/globe.com.ph/files/content/dam/globe/brie/AboutUs/newsroom/common/default-mobile-3/Newsroom-Total-Globe-Default-Images-Mobile-3-thumbnail-listing.jpg",
      "articleUrl": "https://www.globe.com.ph/about-us/newsroom/consumer/take-precaution-against-scammers-targeting-g-music-fest.html",
      "columnType": "articles--type-3",
      "typeListing": "article",
      "imageMobile": "/sites/globe.com.ph/files/content/dam/globe/brie/AboutUs/newsroom/common/default-mobile-3/Newsroom-Total-Globe-Default-Images-Mobile-3-primary-thumbnail-m.jpg",
      "imageDesktop": "/sites/globe.com.ph/files/content/dam/globe/brie/AboutUs/newsroom/common/default-mobile-3/Newsroom-Total-Globe-Default-Images-Mobile-3-primary-thumbnail-d.jpg",
      "description": "Globe warns customers against scammers targeting G Music Fest, one of key events happening this weekend as part of the 917 G Day celebration. ",
      "datePosted": "Sep 14, 2023 | 03:13 PM",
      "titleFromTag": "Consumer"
    },
    {
      "title": "G Music Fest:  A Symphony of Pinoy Music, Tech, Creativity, Plus Sustainable Practices",
      "nonclickable": false,
      "openNewTab": false,
      "borderArticle": "border-color:#0074D9;",
      "borderTopArticle": "border-top-color:#0074D9;",
      "imageListing": "/sites/globe.com.ph/files/content/dam/globe/brie/About-us/Newsroom/image/Consumer/g-music-fest-pinoy-music-tech-creativity-sustainability/thumbnail-listing.jpg",
      "articleUrl": "https://www.globe.com.ph/about-us/newsroom/consumer/g-music-fest-pinoy-music-tech-creativity-sustainability.html",
      "columnType": "articles--type-3",
      "typeListing": "article",
      "imageMobile": "/sites/globe.com.ph/files/content/dam/globe/brie/About-us/Newsroom/image/Consumer/g-music-fest-pinoy-music-tech-creativity-sustainability/primary-thumbnail-m.jpg",
      "imageDesktop": "/sites/globe.com.ph/files/content/dam/globe/brie/About-us/Newsroom/image/Consumer/g-music-fest-pinoy-music-tech-creativity-sustainability/primary-thumbnail-d.jpg",
      "description": "Globe is elevating the Pinoy festival experience with its 4th G Music Fest on September 16 at the Ayala Circuit Makati Open Grounds.",
      "datePosted": "Sep 14, 2023 | 03:01 PM",
      "titleFromTag": "Consumer"
    },
    {
      "title": "Globe Welcomes New Verification Guidelines from NTC to Improve SIM Registration",
      "nonclickable": false,
      "openNewTab": false,
      "borderArticle": "border-color:#0074D9;",
      "borderTopArticle": "border-top-color:#0074D9;",
      "imageListing": "/sites/globe.com.ph/files/content/dam/globe/brie/AboutUs/newsroom/common/default-total-globe-2/newsroom-total-globe-default-2-thumbnail-listing.jpg",
      "articleUrl": "https://www.globe.com.ph/about-us/newsroom/corporate/globe-welcomes-new-verification-guidelines-from-ntc.html",
      "columnType": "articles--type-3",
      "typeListing": "article",
      "imageMobile": "/sites/globe.com.ph/files/content/dam/globe/brie/AboutUs/newsroom/common/default-total-globe-2/newsroom-total-globe-default-2-primary-thumbnail-m.jpg",
      "imageDesktop": "/sites/globe.com.ph/files/content/dam/globe/brie/AboutUs/newsroom/common/default-total-globe-2/newsroom-total-globe-default-2-primary-thumbnail-d.jpg",
      "description": "Globe welcomes the release of new guidelines from NTC to improve ID verification in SIM registration process.",
      "datePosted": "Sep 13, 2023 | 04:47 PM",
      "titleFromTag": "Corporate"
    },
    {
      "title": "It’s Like You’re There: Sistine Chapel Exhibit Offers Immersive Experience in Sights, Scents and Sound",
      "nonclickable": false,
      "openNewTab": false,
      "borderArticle": "border-color:#0074D9;",
      "borderTopArticle": "border-top-color:#0074D9;",
      "imageListing": "/sites/globe.com.ph/files/content/dam/globe/brie/About-us/Newsroom/image/Consumer/8-18-23/Michelangelo-frescoes-thumbnail-listing.jpg",
      "articleUrl": "https://www.globe.com.ph/about-us/newsroom/sustainability/sistine-chapel-exhibit-offers-immersive-experience.html",
      "columnType": "articles--type-3",
      "typeListing": "article",
      "imageMobile": "/sites/globe.com.ph/files/content/dam/globe/brie/About-us/Newsroom/image/Consumer/8-18-23/Michelangelo-frescoes-primary-thumbnail-m.jpg",
      "imageDesktop": "/sites/globe.com.ph/files/content/dam/globe/brie/About-us/Newsroom/image/Consumer/8-18-23/Michelangelo-frescoes-primary-thumbnail-d.jpg",
      "description": "You can now see “Michelangelo's Sistine Chapel: The Exhibition,” a groundbreaking multi-sensory experience that awaits you at the Estancia Mall.",
      "datePosted": "Sep 13, 2023 | 03:12 PM",
      "titleFromTag": "Sustainability"
    },
    {
      "title": "Globe Extends Roaming Credits, Free Prepaid Load to Customers in Quake-hit Morocco",
      "nonclickable": false,
      "openNewTab": false,
      "borderArticle": "border-color:#0074D9;",
      "borderTopArticle": "border-top-color:#0074D9;",
      "imageListing": "/sites/globe.com.ph/files/content/dam/globe/brie/AboutUs/newsroom/sustainability/globe-extends-roaming-credits/corp-listing-thumbnail.jpg",
      "articleUrl": "https://www.globe.com.ph/about-us/newsroom/sustainability/roaming-credits-free-prepaid-load-customers-quake-hit-morocco.html",
      "columnType": "articles--type-3",
      "typeListing": "article",
      "imageMobile": "/sites/globe.com.ph/files/content/dam/globe/brie/AboutUs/newsroom/sustainability/globe-extends-roaming-credits/corp-primary-banner-m.jpg",
      "imageDesktop": "/sites/globe.com.ph/files/content/dam/globe/brie/AboutUs/newsroom/sustainability/globe-extends-roaming-credits/corp-primary-thumbnail.jpg",
      "description": "Globe is extending free postpaid roaming credits and prepaid load to customers in Morocco after a 6.8-magnitude earthquake struck near the city of Marrakech.",
      "datePosted": "Sep 13, 2023 | 03:10 PM",
      "titleFromTag": "Sustainability"
    },
    {
      "title": "Globe Fires Up 356 New 5G sites, Expands Outdoor Coverage Nationwide",
      "nonclickable": false,
      "openNewTab": false,
      "borderArticle": "border-color:#0074D9;",
      "borderTopArticle": "border-top-color:#0074D9;",
      "imageListing": "/sites/globe.com.ph/files/content/dam/globe/brie/AboutUs/newsroom/common/default-corp-connectivity-1/thumbnail-listing.jpg",
      "articleUrl": "https://www.globe.com.ph/about-us/newsroom/corporate/356-new-5g-sites.html",
      "columnType": "articles--type-3",
      "typeListing": "article",
      "imageMobile": "/sites/globe.com.ph/files/content/dam/globe/brie/AboutUs/newsroom/common/default-corp-connectivity-1/primary-thumbnail-m.jpg",
      "imageDesktop": "/sites/globe.com.ph/files/content/dam/globe/brie/AboutUs/newsroom/common/default-corp-connectivity-1/primary-thumbnail-d.jpg",
      "description": "As of June 2023, Globe has built 356 new 5G sites nationwide, resulting in a 97.44% 5G outdoor coverage in NCR.",
      "datePosted": "Sep 13, 2023 | 03:07 PM",
      "titleFromTag": "Corporate"
    },
    {
      "title": "Globe  Brings Customers Closer to Their Dreams in Month-Long  917 G Day Celebration",
      "nonclickable": false,
      "openNewTab": false,
      "borderArticle": "border-color:#0074D9;",
      "borderTopArticle": "border-top-color:#0074D9;",
      "imageListing": "/sites/globe.com.ph/files/content/dam/globe/brie/About-us/Newsroom/image/Corporate/globe-brings-customers-closer-to-their-dreams-g-day-celebration/thumbnail-listing.jpg",
      "articleUrl": "https://www.globe.com.ph/about-us/newsroom/corporate/globe-brings-customers-closer-to-their-dreams-g-day-celebration.html",
      "columnType": "articles--type-3",
      "typeListing": "article",
      "imageMobile": "/sites/globe.com.ph/files/content/dam/globe/brie/About-us/Newsroom/image/Corporate/globe-brings-customers-closer-to-their-dreams-g-day-celebration/primary-thumbnail-m.jpg",
      "imageDesktop": "/sites/globe.com.ph/files/content/dam/globe/brie/About-us/Newsroom/image/Corporate/globe-brings-customers-closer-to-their-dreams-g-day-celebration/primary-thumbnail-d.jpg",
      "description": "Globe is thanking its customers for their loyalty by bringing together life-enabling tools and rewards in month-long 917 G Day celebration.",
      "datePosted": "Sep 13, 2023 | 03:06 PM",
      "titleFromTag": "Corporate"
    },
    {
      "title": "Anchored on Telco Strength, Globe’s Expansion into Digital Solutions Solves Everyday Pain Points",
      "nonclickable": false,
      "openNewTab": false,
      "borderArticle": "border-color:#0074D9;",
      "borderTopArticle": "border-top-color:#0074D9;",
      "imageListing": "/sites/globe.com.ph/files/content/dam/globe/brie/AboutUs/newsroom/common/default-total-globe-4/total-globe-4-thumbnail-listing.jpg",
      "articleUrl": "https://www.globe.com.ph/about-us/newsroom/corporate/globes-expansion-into-digital-solutions-solves-everyday-pain-points.html",
      "columnType": "articles--type-3",
      "typeListing": "article",
      "imageMobile": "/sites/globe.com.ph/files/content/dam/globe/brie/AboutUs/newsroom/common/default-total-globe-4/total-globe-4-primary-thumbnail-m.jpg",
      "imageDesktop": "/sites/globe.com.ph/files/content/dam/globe/brie/AboutUs/newsroom/common/default-total-globe-4/total-globe-4-primary-thumbnail-d.jpg",
      "description": "Globe offers a diverse range of digital solutions that address daily pain points and enhance the quality of life for Filipinos.",
      "datePosted": "Sep 13, 2023 | 03:05 PM",
      "titleFromTag": "Corporate"
    }
  ]
}
