{
  "status": 200,
  "page": 100,
  "totalPage": 298,
  "range": "1189-1200",
  "total": 3573,
  "result": [
    {
      "title": "Rise of Electric Vehicles Opens up Opportunities for PH to Become a Regional eMobility Player",
      "nonclickable": false,
      "openNewTab": false,
      "borderArticle": "border-color:#0074D9;",
      "borderTopArticle": "border-top-color:#0074D9;",
      "imageListing": "/sites/globe.com.ph/files/content/dam/globe/brie/AboutUs/newsroom/sustainability/electric-vehicles-opportunities-ph-emobility-player/newsroom-sustainability-electric-vehicles-ph-player-thumbnail-listing.jpg",
      "articleUrl": "https://www.globe.com.ph/about-us/newsroom/sustainability/electric-vehicles-opportunities-ph-emobility-player.html",
      "columnType": "articles--type-3",
      "typeListing": "article",
      "imageMobile": "/sites/globe.com.ph/files/content/dam/globe/brie/AboutUs/newsroom/sustainability/electric-vehicles-opportunities-ph-emobility-player/newsroom-sustainability-electric-vehicles-ph-player-thumbnail-m.jpg",
      "imageDesktop": "/sites/globe.com.ph/files/content/dam/globe/brie/AboutUs/newsroom/sustainability/electric-vehicles-opportunities-ph-emobility-player/newsroom-sustainability-electric-vehicles-ph-player-primary-thumbnail-d.jpg",
      "description": "The rise in the adoption of electric vehicles (EVs) has opened up new opportunities for the Philippines to become a player in the regional eMobility space.",
      "datePosted": "Sep 16, 2021 | 11:00 AM",
      "titleFromTag": "Sustainability"
    },
    {
      "title": "Globe’s G Legends Cup: Gaming With Compassion",
      "nonclickable": false,
      "openNewTab": false,
      "borderArticle": "border-color:#0074D9;",
      "borderTopArticle": "border-top-color:#0074D9;",
      "imageListing": "/sites/globe.com.ph/files/content/dam/globe/brie/AboutUs/newsroom/917ventures/g-legends-cup-gaming-compassion/newsroom-consumer-g-legends-cup-thumbnail-listing.jpg",
      "articleUrl": "https://www.globe.com.ph/about-us/newsroom/917ventures/g-legends-cup-gaming-compassion.html",
      "columnType": "articles--type-3",
      "typeListing": "article",
      "imageMobile": "/sites/globe.com.ph/files/content/dam/globe/brie/AboutUs/newsroom/917ventures/g-legends-cup-gaming-compassion/newsroom-consumer-g-legends-cup-primary-thumbnail-m.jpg",
      "imageDesktop": "/sites/globe.com.ph/files/content/dam/globe/brie/AboutUs/newsroom/917ventures/g-legends-cup-gaming-compassion/newsroom-consumer-g-legends-cup-primary-thumbnail-d.jpg",
      "description": "In celebration of National G Day, gamers will not only battle for glory and honor, but also share their winnings with their chosen community beneficiaries.",
      "datePosted": "Sep 15, 2021 | 03:57 PM",
      "titleFromTag": "917Ventures"
    },
    {
      "title": "Globe Studios Actor Wins Coveted Volpi Cup at 78th Venice Film Festival",
      "nonclickable": false,
      "openNewTab": false,
      "borderArticle": "border-color:#0074D9;",
      "borderTopArticle": "border-top-color:#0074D9;",
      "imageListing": "/sites/globe.com.ph/files/content/dam/globe/brie/AboutUs/newsroom/consumer/globe-studios-actor-wins-volpi-cup/newsroom-consumer-globe-actor-wins-volpi-thumbnail-listing.jpg",
      "articleUrl": "https://www.globe.com.ph/about-us/newsroom/consumer/globe-studios-actor-wins-volpi-cup.html",
      "columnType": "articles--type-3",
      "typeListing": "article",
      "imageMobile": "/sites/globe.com.ph/files/content/dam/globe/brie/AboutUs/newsroom/consumer/globe-studios-actor-wins-volpi-cup/newsroom-consumer-globe-actor-wins-volpi-primary-thumbnail-m.jpg",
      "imageDesktop": "/sites/globe.com.ph/files/content/dam/globe/brie/AboutUs/newsroom/consumer/globe-studios-actor-wins-volpi-cup/newsroom-consumer-globe-actor-wins-volpi-primary-thumbnail-d.jpg",
      "description": "Multi-awarded Globe Studios actor John Arcilla took home the Volpi Cup and was hailed the “Best Actor” at the prestigious 78th Venice Film Festival.",
      "datePosted": "Sep 15, 2021 | 03:02 PM",
      "titleFromTag": "Consumer"
    },
    {
      "title": "Globe, Pinas Forward Educate over 2,000 Students on Cybersafety",
      "nonclickable": false,
      "openNewTab": false,
      "borderArticle": "border-color:#0074D9;",
      "borderTopArticle": "border-top-color:#0074D9;",
      "imageListing": "/sites/globe.com.ph/files/content/dam/globe/brie/AboutUs/newsroom/partners/globe-encncourages-support-partners-917-celebration/newsroom-partners-pinas-forward-educates-thumbnail-listing.jpg",
      "articleUrl": "https://www.globe.com.ph/about-us/newsroom/partners/globe-pinas-forward-educate-students-cybersafety.html",
      "columnType": "articles--type-3",
      "typeListing": "article",
      "imageMobile": "/sites/globe.com.ph/files/content/dam/globe/brie/AboutUs/newsroom/partners/globe-encncourages-support-partners-917-celebration/newsroom-partners-pinas-forward-educates-primary-thumbnail-m.jpg",
      "imageDesktop": "/sites/globe.com.ph/files/content/dam/globe/brie/AboutUs/newsroom/partners/globe-encncourages-support-partners-917-celebration/newsroom-partners-pinas-forward-educates-primary-thumbnail-d.jpg",
      "description": "Globe partnered with Pinas Forward to guide students around the country on ways to protect themselves from numerous threats posed by the Internet.",
      "datePosted": "Sep 15, 2021 | 02:30 PM",
      "titleFromTag": "Partners"
    },
    {
      "title": "Globe Empowers over 85M Customers Nationwide, Encourages Support for Community Partners in Biggest-Ever 917 Celebration",
      "nonclickable": false,
      "openNewTab": false,
      "borderArticle": "border-color:#0074D9;",
      "borderTopArticle": "border-top-color:#0074D9;",
      "imageListing": "/sites/globe.com.ph/files/content/dam/globe/brie/AboutUs/newsroom/917ventures/empowers-customers-encourages-support-partners-917-celebration/newsroom-917ventures-globe-encourages-community-thumbnail-listing.jpg",
      "articleUrl": "https://www.globe.com.ph/about-us/newsroom/917ventures/empowers-customers-encourages-support-partners-917-celebration.html",
      "columnType": "articles--type-3",
      "typeListing": "article",
      "imageMobile": "/sites/globe.com.ph/files/content/dam/globe/brie/AboutUs/newsroom/917ventures/empowers-customers-encourages-support-partners-917-celebration/newsroom-917ventures-globe-encourages-community-primary-thumbnail-m.jpg",
      "imageDesktop": "/sites/globe.com.ph/files/content/dam/globe/brie/AboutUs/newsroom/917ventures/empowers-customers-encourages-support-partners-917-celebration/newsroom-917ventures-globe-encourages-community-primary-thumbnail-d.jpg",
      "description": " As a way of giving back to the community, Globe is encouraging its customers to support various advocacies and communities.",
      "datePosted": "Sep 15, 2021 | 01:52 PM",
      "titleFromTag": "917Ventures"
    },
    {
      "title": "G Na Sa Globe At Home Prepaid WiFi This National G Day!",
      "nonclickable": false,
      "openNewTab": false,
      "borderArticle": "border-color:#0074D9;",
      "borderTopArticle": "border-top-color:#0074D9;",
      "imageListing": "/sites/globe.com.ph/files/content/dam/globe/brie/AboutUs/newsroom/consumer/globe-at-home-prepaid-wifi-national-g-day/newsroom-consumer-gah-wifi-g-day-thumbnail-listing.jpg",
      "articleUrl": "https://www.globe.com.ph/about-us/newsroom/consumer/globe-at-home-prepaid-wifi-national-g-day.html",
      "columnType": "articles--type-3",
      "typeListing": "article",
      "imageMobile": "/sites/globe.com.ph/files/content/dam/globe/brie/AboutUs/newsroom/consumer/globe-at-home-prepaid-wifi-national-g-day/newsroom-consumer-gah-wifi-g-day-primary-thumbnail-m.jpg",
      "imageDesktop": "/sites/globe.com.ph/files/content/dam/globe/brie/AboutUs/newsroom/consumer/globe-at-home-prepaid-wifi-national-g-day/newsroom-consumer-gah-wifi-g-day-primary-thumbnail-d.jpg",
      "description": "Exciting promos await loyal Globe customers on National G Day on September 17. Get your Globe At Home Prepaid WiFi with an exclusive discount! ",
      "datePosted": "Sep 15, 2021 | 10:40 AM",
      "titleFromTag": "Consumer"
    },
    {
      "title": "Globe Completes Network Upgrades in Bulacan, Cavite",
      "nonclickable": false,
      "openNewTab": false,
      "borderArticle": "border-color:#0074D9;",
      "borderTopArticle": "border-top-color:#0074D9;",
      "imageListing": "/sites/globe.com.ph/files/content/dam/globe/brie/AboutUs/newsroom/corporate/799-permits-1q-2021-new-towers/default-corporate-9-thumbnail-listing.jpg",
      "articleUrl": "https://www.globe.com.ph/about-us/newsroom/consumer/globe-completes-network-upgrade-bulacan-cavite.html",
      "columnType": "articles--type-3",
      "typeListing": "article",
      "imageMobile": "/sites/globe.com.ph/files/content/dam/globe/brie/AboutUs/newsroom/corporate/799-permits-1q-2021-new-towers/default-corporate-9-primary-thumbnail-m.jpg",
      "imageDesktop": "/sites/globe.com.ph/files/content/dam/globe/brie/AboutUs/newsroom/corporate/799-permits-1q-2021-new-towers/default-corporate-9-primary-thumbnail-d.jpg",
      "description": "Globe recently completed its network upgrade from the 3G network to the new standard of mobile data, 4G LTE, in Bulacan and remaining parts of Cavite.",
      "datePosted": "Sep 15, 2021 | 10:03 AM",
      "titleFromTag": "Consumer"
    },
    {
      "title": "Online Fraud Attempts in Telco Drops by 98.7% – TransUnion",
      "nonclickable": false,
      "openNewTab": false,
      "borderArticle": "border-color:#0074D9;",
      "borderTopArticle": "border-top-color:#0074D9;",
      "imageListing": "/sites/globe.com.ph/files/content/dam/globe/brie/AboutUs/newsroom/corporate/default-business-3/default-business-3-thumbnail-listing.jpg",
      "articleUrl": "https://www.globe.com.ph/about-us/newsroom/corporate/online-fraud-attempts-telco-drop-transunion.html",
      "columnType": "articles--type-3",
      "typeListing": "article",
      "imageMobile": "/sites/globe.com.ph/files/content/dam/globe/brie/AboutUs/newsroom/corporate/default-business-3/default-business-3-primary-thumbnail-m.jpg",
      "imageDesktop": "/sites/globe.com.ph/files/content/dam/globe/brie/AboutUs/newsroom/corporate/default-business-3/default-business-3-primary-thumbnail-d.jpg",
      "description": "Information and insights firm TransUnion reported a 59.4% drop in suspected digital fraud attempts originating from the Philippines in the second quarter.",
      "datePosted": "Sep 14, 2021 | 09:59 AM",
      "titleFromTag": "Corporate"
    },
    {
      "title": "Globe Widens Global 5G Coverage With Australia and Indonesia",
      "nonclickable": false,
      "openNewTab": false,
      "borderArticle": "border-color:#0074D9;",
      "borderTopArticle": "border-top-color:#0074D9;",
      "imageListing": "/sites/globe.com.ph/files/content/dam/globe/brie/AboutUs/newsroom/consumer/globe-5g-coverage-australia-indonesia/newsroom-consumer-widens-5g-australia-indonesia-thumbnail-listing.jpg",
      "articleUrl": "https://www.globe.com.ph/about-us/newsroom/consumer/globe-5g-coverage-australia-indonesia.html",
      "columnType": "articles--type-3",
      "typeListing": "article",
      "imageMobile": "/sites/globe.com.ph/files/content/dam/globe/brie/AboutUs/newsroom/consumer/globe-5g-coverage-australia-indonesia/newsroom-consumer-widens-5g-australia-indonesia-primary-thumbnail-m.jpg",
      "imageDesktop": "/sites/globe.com.ph/files/content/dam/globe/brie/AboutUs/newsroom/consumer/globe-5g-coverage-australia-indonesia/newsroom-consumer-widens-5g-australia-indonesia-primary-thumbnail-d.jpg",
      "description": "Globe further widens its global 5G roaming footprint as it makes the service available in Australia via Vodafone and in Indonesia via Telkomsel.",
      "datePosted": "Sep 14, 2021 | 09:59 AM",
      "titleFromTag": "Consumer"
    },
    {
      "title": "UA&P Taps Globe To Make Academic Collaboration Easier, Keep Online Learning Secure",
      "nonclickable": false,
      "openNewTab": false,
      "borderArticle": "border-color:#0074D9;",
      "borderTopArticle": "border-top-color:#0074D9;",
      "imageListing": "/sites/globe.com.ph/files/content/dam/globe/brie/AboutUs/newsroom/partners/uap-globe-academic-collaboration-online-learning/default-default-3-thumbnail-listing.jpg",
      "articleUrl": "https://www.globe.com.ph/about-us/newsroom/partners/uap-globe-academic-collaboration-online-learning.html",
      "columnType": "articles--type-3",
      "typeListing": "article",
      "imageMobile": "/sites/globe.com.ph/files/content/dam/globe/brie/AboutUs/newsroom/partners/uap-globe-academic-collaboration-online-learning/default-default-3-primary-thumbnail-m.jpg",
      "imageDesktop": "/sites/globe.com.ph/files/content/dam/globe/brie/AboutUs/newsroom/partners/uap-globe-academic-collaboration-online-learning/default-default-3-primary-thumbnail-d.jpg",
      "description": "The University of Asia and the Pacific (UA&P) tapped Globe to boost its online learning system with Google Workspace (GWS) for Education Plus. ",
      "datePosted": "Sep 13, 2021 | 03:26 PM",
      "titleFromTag": "Partners"
    },
    {
      "title": "GCash Honors OFWs With New Financial Solutions",
      "nonclickable": false,
      "openNewTab": false,
      "borderArticle": "border-color:#0074D9;",
      "borderTopArticle": "border-top-color:#0074D9;",
      "imageListing": "/sites/globe.com.ph/files/content/dam/globe/brie/AboutUs/newsroom/consumer/gcash-honors-ofws-new-financial-solutions/newsroom-consumer-gcash-ofws-financial-solutions-thumbnail-listing.jpg",
      "articleUrl": "https://www.globe.com.ph/about-us/newsroom/consumer/gcash-honors-ofws-new-financial-solutions.html",
      "columnType": "articles--type-3",
      "typeListing": "article",
      "imageMobile": "/sites/globe.com.ph/files/content/dam/globe/brie/AboutUs/newsroom/consumer/gcash-honors-ofws-new-financial-solutions/newsroom-consumer-gcash-ofws-financial-solutions-primary-thumbnail-m.jpg",
      "imageDesktop": "/sites/globe.com.ph/files/content/dam/globe/brie/AboutUs/newsroom/consumer/gcash-honors-ofws-new-financial-solutions/newsroom-consumer-gcash-ofws-financial-solutions-primary-thumbnail-d.jpg",
      "description": "GCash, the country’s #1 mobile wallet, seeks to impart knowledge on responsible remittance spending and income management through Globe's GoLearn Program.",
      "datePosted": "Sep 13, 2021 | 12:41 PM",
      "titleFromTag": "Consumer"
    },
    {
      "title": "Globe Takes You to GIFLand!",
      "nonclickable": false,
      "openNewTab": false,
      "borderArticle": "border-color:#0074D9;",
      "borderTopArticle": "border-top-color:#0074D9;",
      "imageListing": "/sites/globe.com.ph/files/content/dam/globe/brie/AboutUs/newsroom/917ventures/globe-gifland/newsroom-917ventures-globe-gifland-thumbnail-listing.jpg",
      "articleUrl": "https://www.globe.com.ph/about-us/newsroom/917ventures/globe-gifland.html",
      "columnType": "articles--type-3",
      "typeListing": "article",
      "imageMobile": "/sites/globe.com.ph/files/content/dam/globe/brie/AboutUs/newsroom/917ventures/globe-gifland/newsroom-917ventures-globe-gifland-primary-thumbnail-m.jpg",
      "imageDesktop": "/sites/globe.com.ph/files/content/dam/globe/brie/AboutUs/newsroom/917ventures/globe-gifland/newsroom-917ventures-globe-gifland-primary-thumbnail-d.jpg",
      "description": "Through its annual 917 Day celebration, Globe continues to reinvent ways to share compassion & care, and provide customers with #SariSaringRewardingExperiences.",
      "datePosted": "Sep 13, 2021 | 12:37 PM",
      "titleFromTag": "917Ventures"
    }
  ]
}
