{
  "status": 200,
  "page": 101,
  "totalPage": 298,
  "range": "1201-1212",
  "total": 3573,
  "result": [
    {
      "title": "Globe’s Digital Services Keep Bacoor Residents Safe, Informed, and Connected",
      "nonclickable": false,
      "openNewTab": false,
      "borderArticle": "border-color:#0074D9;",
      "borderTopArticle": "border-top-color:#0074D9;",
      "imageListing": "/sites/globe.com.ph/files/content/dam/globe/brie/AboutUs/newsroom/consumer/globe-digital-services-bacoor-residents-connected/newsroom-consumer-services-keep-bacoor-connected-thumbnail-listing.jpg",
      "articleUrl": "https://www.globe.com.ph/about-us/newsroom/consumer/globe-digital-services-bacoor-residents-connected.html",
      "columnType": "articles--type-3",
      "typeListing": "article",
      "imageMobile": "/sites/globe.com.ph/files/content/dam/globe/brie/AboutUs/newsroom/consumer/globe-digital-services-bacoor-residents-connected/newsroom-consumer-services-keep-bacoor-connected-primary-thumbnail-m.jpg",
      "imageDesktop": "/sites/globe.com.ph/files/content/dam/globe/brie/AboutUs/newsroom/consumer/globe-digital-services-bacoor-residents-connected/newsroom-consumer-services-keep-bacoor-connected-primary-thumbnail-d.jpg",
      "description": "Globe extends its reliable digital services to the city of Bacoor through GoWiFi, KonekTayo WiFi, and Globe Labs’ SMS API services, as the COVID-19 cases rise.",
      "datePosted": "Sep 10, 2021 | 03:24 PM",
      "titleFromTag": "Consumer"
    },
    {
      "title": "Making Everyday a GDay with Globe Rewards",
      "nonclickable": false,
      "openNewTab": false,
      "borderArticle": "border-color:#0074D9;",
      "borderTopArticle": "border-top-color:#0074D9;",
      "imageListing": "/sites/globe.com.ph/files/content/dam/globe/brie/AboutUs/newsroom/common/default-8/default-corporate-2-thumbnail-listing.jpg",
      "articleUrl": "https://www.globe.com.ph/about-us/newsroom/consumer/making-everyday-gday-globe-rewards.html",
      "columnType": "articles--type-3",
      "typeListing": "article",
      "imageMobile": "/sites/globe.com.ph/files/content/dam/globe/brie/AboutUs/newsroom/common/default-8/default-corporate-2-primary-thumbnail-m.jpg",
      "imageDesktop": "/sites/globe.com.ph/files/content/dam/globe/brie/AboutUs/newsroom/common/default-8/default-corporate-2-primary-thumbnail-d.jpg",
      "description": "A good day, a GDay, is the theme of Globe’s 917 celebration this year and it’s about giving back to their loyal customers through exciting rewards and surprises",
      "datePosted": "Sep 09, 2021 | 12:38 PM",
      "titleFromTag": "Consumer"
    },
    {
      "title": "Globe Readies Disaster Assistance for Typhoon ‘Kiko’",
      "nonclickable": false,
      "openNewTab": false,
      "borderArticle": "border-color:#0074D9;",
      "borderTopArticle": "border-top-color:#0074D9;",
      "imageListing": "/sites/globe.com.ph/files/content/dam/globe/brie/AboutUs/newsroom/common/default-3/corporate-default-7-thumbnail-listing.jpg",
      "articleUrl": "https://www.globe.com.ph/about-us/newsroom/corporate/globe-readies-disaster-assistance-kiko.html",
      "columnType": "articles--type-3",
      "typeListing": "article",
      "imageMobile": "/sites/globe.com.ph/files/content/dam/globe/brie/AboutUs/newsroom/common/default-3/corporate-default-7-primary-thumbnail-m.jpg",
      "imageDesktop": "/sites/globe.com.ph/files/content/dam/globe/brie/AboutUs/newsroom/common/default-3/corporate-default-7-primary-thumbnail-d.jpg",
      "description": "Globe is already preparing its disaster assistance for Typhoon Kiko, which entered the Philippine Area of Responsibility (PAR) and is expected to intensify.",
      "datePosted": "Sep 08, 2021 | 04:47 PM",
      "titleFromTag": "Corporate"
    },
    {
      "title": "15 Worthwhile Causes to Support Using Globe Rewards",
      "nonclickable": false,
      "openNewTab": false,
      "borderArticle": "border-color:#0074D9;",
      "borderTopArticle": "border-top-color:#0074D9;",
      "imageListing": "/sites/globe.com.ph/files/content/dam/globe/brie/AboutUs/newsroom/corporate/15-worthwhile-causes-support-globe-rewards/newsroom-consumer-15-causes-support-rewards-thumbnail-listing.jpg",
      "articleUrl": "https://www.globe.com.ph/about-us/newsroom/consumer/15-worthwhile-causes-support-globe-rewards.html",
      "columnType": "articles--type-3",
      "typeListing": "article",
      "imageMobile": "/sites/globe.com.ph/files/content/dam/globe/brie/AboutUs/newsroom/corporate/15-worthwhile-causes-support-globe-rewards/newsroom-consumer-15-causes-support-rewards-primary-thumbnail-m.jpg",
      "imageDesktop": "/sites/globe.com.ph/files/content/dam/globe/brie/AboutUs/newsroom/corporate/15-worthwhile-causes-support-globe-rewards/newsroom-consumer-15-causes-support-rewards-primary-thumbnail-d.jpg",
      "description": "Globe Rewards now has 15 non-government organizations, charitable institutions, and foundations in its program roster. ",
      "datePosted": "Sep 08, 2021 | 04:47 PM",
      "titleFromTag": "Consumer"
    },
    {
      "title": "Globe Prepares Libreng Tawag, WiFi Services as ‘Jolina’ Intensifies",
      "nonclickable": false,
      "openNewTab": false,
      "borderArticle": "border-color:#0074D9;",
      "borderTopArticle": "border-top-color:#0074D9;",
      "imageListing": "/sites/globe.com.ph/files/content/dam/globe/brie/AboutUs/newsroom/common/default-4/default-consumer-3-thumbnail-listing.jpg",
      "articleUrl": "https://www.globe.com.ph/about-us/newsroom/corporate/globe-prepares-libreng-tawag-wifi-services-jolina.html",
      "columnType": "articles--type-3",
      "typeListing": "article",
      "imageMobile": "/sites/globe.com.ph/files/content/dam/globe/brie/AboutUs/newsroom/common/default-4/default-consumer-3-primary-thumbnail-m.jpg",
      "imageDesktop": "/sites/globe.com.ph/files/content/dam/globe/brie/AboutUs/newsroom/common/default-4/default-consumer-3-primary-thumbnail-d.jpg",
      "description": "Globe will deploy Libreng Tawag, Libreng Charging, and Libreng WiFi services to areas that may be affected by Typhoon Jolina.",
      "datePosted": "Sep 07, 2021 | 02:44 PM",
      "titleFromTag": "Corporate"
    },
    {
      "title": "Globe, DENR, UNIDO and Partners Join Hands for New Recycling Facility in Malabon City",
      "nonclickable": false,
      "openNewTab": false,
      "borderArticle": "border-color:#0074D9;",
      "borderTopArticle": "border-top-color:#0074D9;",
      "imageListing": "/sites/globe.com.ph/files/content/dam/globe/brie/AboutUs/newsroom/sustainability/denr-unido-join-hands-for-recycling-facility-in-malabon/newsroom-sustainability-partners-join-hands-recycling-thumbnail-listing.jpg",
      "articleUrl": "https://www.globe.com.ph/about-us/newsroom/sustainability/globe-denr-unido-new-recycling-facility-malabon-city.html",
      "columnType": "articles--type-3",
      "typeListing": "article",
      "imageMobile": "/sites/globe.com.ph/files/content/dam/globe/brie/AboutUs/newsroom/sustainability/denr-unido-join-hands-for-recycling-facility-in-malabon/newsroom-sustainability-partners-join-hands-recycling-primary-thumbnail-m.jpg",
      "imageDesktop": "/sites/globe.com.ph/files/content/dam/globe/brie/AboutUs/newsroom/sustainability/denr-unido-join-hands-for-recycling-facility-in-malabon/newsroom-sustainability-partners-join-hands-recycling-primary-thumbnail-d.jpg",
      "description": "To help address concerns over informal e-waste processing and its associated risks to the people and environment, Globe joined a multi-stakeholder partnership.",
      "datePosted": "Sep 07, 2021 | 10:45 AM",
      "titleFromTag": "Sustainability"
    },
    {
      "title": "Over 90% of Globe Employees Fully-Vaccinated vs COVID-19",
      "nonclickable": false,
      "openNewTab": false,
      "borderArticle": "border-color:#0074D9;",
      "borderTopArticle": "border-top-color:#0074D9;",
      "imageListing": "/sites/globe.com.ph/files/content/dam/globe/brie/AboutUs/newsroom/corporate/over-90-percent-globe-employees-fully-vaccinated/newsroom-corporate-90-globe-employees-vaccinated-thumbnail-listing.jpg",
      "articleUrl": "https://www.globe.com.ph/about-us/newsroom/corporate/over-90-percent-globe-employees-fully-vaccinated.html",
      "columnType": "articles--type-3",
      "typeListing": "article",
      "imageMobile": "/sites/globe.com.ph/files/content/dam/globe/brie/AboutUs/newsroom/corporate/over-90-percent-globe-employees-fully-vaccinated/newsroom-corporate-90-globe-employees-vaccinated-primary-thumbnail-m.jpg",
      "imageDesktop": "/sites/globe.com.ph/files/content/dam/globe/brie/AboutUs/newsroom/corporate/over-90-percent-globe-employees-fully-vaccinated/newsroom-corporate-90-globe-employees-vaccinated-primary-thumbnail-d.jpg",
      "description": "Over 90% of Globe’s over 8,000 strong workforce are now fully vaccinated through the Ayala Group and various Local Government Units (LGU).",
      "datePosted": "Sep 07, 2021 | 10:22 AM",
      "titleFromTag": "Corporate"
    },
    {
      "title": "Globe Empowers KonekTayo WiFi Communities with FREE 1GB Data to Cope with Lockdowns",
      "nonclickable": false,
      "openNewTab": false,
      "borderArticle": "border-color:#0074D9;",
      "borderTopArticle": "border-top-color:#0074D9;",
      "imageListing": "/sites/globe.com.ph/files/content/dam/globe/brie/AboutUs/newsroom/consumer/konektayo-wifi-communities-free-data/newsroom-consumer-empowers-konektayo-wifi-thumbnail-listing.jpg",
      "articleUrl": "https://www.globe.com.ph/about-us/newsroom/consumer/konektayo-wifi-communities-free-data.html",
      "columnType": "articles--type-3",
      "typeListing": "article",
      "imageMobile": "/sites/globe.com.ph/files/content/dam/globe/brie/AboutUs/newsroom/consumer/konektayo-wifi-communities-free-data/newsroom-consumer-empowers-konektayo-wifi-primary-thumbnail-m.jpg",
      "imageDesktop": "/sites/globe.com.ph/files/content/dam/globe/brie/AboutUs/newsroom/consumer/konektayo-wifi-communities-free-data/newsroom-consumer-empowers-konektayo-wifi-primary-thumbnail-d.jpg",
      "description": "Globe is providing one time FREE 1 GB worth of data consumable for five hours to underprivileged families in all 46 KonekTayo WiFi sites in Luzon and Visayas.",
      "datePosted": "Sep 06, 2021 | 09:20 AM",
      "titleFromTag": "Consumer"
    },
    {
      "title": "Globe Is Largest PH Publicly-Listed Telco, Transforms into a Digital Solutions Group",
      "nonclickable": false,
      "openNewTab": false,
      "borderArticle": "border-color:#0074D9;",
      "borderTopArticle": "border-top-color:#0074D9;",
      "imageListing": "/sites/globe.com.ph/files/content/dam/globe/brie/AboutUs/newsroom/corporate/largest-ph-publicly-listed-telco-digital-solutions-group/Corporate-globe-thumbnail-listing.jpg",
      "articleUrl": "https://www.globe.com.ph/about-us/newsroom/corporate/largest-ph-publicly-listed-telco-digital-solutions-group.html",
      "columnType": "articles--type-3",
      "typeListing": "article",
      "imageMobile": "/sites/globe.com.ph/files/content/dam/globe/brie/AboutUs/newsroom/corporate/largest-ph-publicly-listed-telco-digital-solutions-group/Corporate-globe-primary-thumbnail-m.jpg",
      "imageDesktop": "/sites/globe.com.ph/files/content/dam/globe/brie/AboutUs/newsroom/corporate/largest-ph-publicly-listed-telco-digital-solutions-group/Corporate-globe-primary-thumbnail-d.jpg",
      "description": "Globe is now the largest telecommunications company in the Philippines in terms of market capitalization, with a market value of over P363 billion.",
      "datePosted": "Sep 06, 2021 | 09:17 AM",
      "titleFromTag": "Corporate"
    },
    {
      "title": "Globe Business Welcomes Entrepreneur and Tech Visionary Jonathan De Luzuriaga as Newest Ambassador",
      "nonclickable": false,
      "openNewTab": false,
      "borderArticle": "border-color:#0074D9;",
      "borderTopArticle": "border-top-color:#0074D9;",
      "imageListing": "/sites/globe.com.ph/files/content/dam/globe/brie/AboutUs/newsroom/business/globe-business-welcomes-jonathan-de-luzuriaga/newsroom-business-entrepreneur-tech-visionary-luzuriaga-thumbnail-listing.jpg",
      "articleUrl": "https://www.globe.com.ph/about-us/newsroom/business/globe-business-welcomes-jonathan-de-luzuriaga.html",
      "columnType": "articles--type-3",
      "typeListing": "article",
      "imageMobile": "/sites/globe.com.ph/files/content/dam/globe/brie/AboutUs/newsroom/business/globe-business-welcomes-jonathan-de-luzuriaga/newsroom-business-entrepreneur-tech-visionary-luzuriaga-primary-thumbnail-m.jpg",
      "imageDesktop": "/sites/globe.com.ph/files/content/dam/globe/brie/AboutUs/newsroom/business/globe-business-welcomes-jonathan-de-luzuriaga/newsroom-business-entrepreneur-tech-visionary-luzuriaga-primary-thumbnail-d.jpg",
      "description": "Globe Business announced the recent appointment of Jonathan De Luzuriaga as its brand ambassador for Information & Communication Technology (ICT).",
      "datePosted": "Sep 06, 2021 | 08:13 AM",
      "titleFromTag": "Business"
    },
    {
      "title": "LCC, Globe Set Webinar on E-Vehicles as New Mode of Transportation in Cities",
      "nonclickable": false,
      "openNewTab": false,
      "borderArticle": "border-color:#0074D9;",
      "borderTopArticle": "border-top-color:#0074D9;",
      "imageListing": "/sites/globe.com.ph/files/content/dam/globe/brie/AboutUs/newsroom/sustainability/lcc-globe-webinar-e-vehicles-new-transportation/newsroom-sustainability-lcc-e-vehicles-transportation-thumbnail-listing.jpg",
      "articleUrl": "https://www.globe.com.ph/about-us/newsroom/sustainability/lcc-globe-webinar-e-vehicles-new-transportation.html",
      "columnType": "articles--type-3",
      "typeListing": "article",
      "imageMobile": "/sites/globe.com.ph/files/content/dam/globe/brie/AboutUs/newsroom/sustainability/lcc-globe-webinar-e-vehicles-new-transportation/newsroom-sustainability-lcc-e-vehicles-transportation-primary-thumbnail-m.jpg",
      "imageDesktop": "/sites/globe.com.ph/files/content/dam/globe/brie/AboutUs/newsroom/sustainability/lcc-globe-webinar-e-vehicles-new-transportation/newsroom-sustainability-lcc-e-vehicles-transportation-primary-thumbnail-d.jpg",
      "description": "For its eighth webinar this year, LCC Lab dubbed “Mobility: Building an E-vehicle Ecosystem”, will focus on the potential and benefits of e-vehicles.",
      "datePosted": "Sep 06, 2021 | 01:44 AM",
      "titleFromTag": "Sustainability"
    },
    {
      "title": "Globe, Caritas PH Provide Education and Livelihood Support to Marginalized Communities",
      "nonclickable": false,
      "openNewTab": false,
      "borderArticle": "border-color:#0074D9;",
      "borderTopArticle": "border-top-color:#0074D9;",
      "imageListing": "/sites/globe.com.ph/files/content/dam/globe/brie/AboutUs/newsroom/partners/globe-caritas-ph-support-marginalized-communities/newsroom-partners-caritas-education-communities-thumbnail-listing.jpg",
      "articleUrl": "https://www.globe.com.ph/about-us/newsroom/partners/globe-caritas-ph-support-marginalized-communities.html",
      "columnType": "articles--type-3",
      "typeListing": "article",
      "imageMobile": "/sites/globe.com.ph/files/content/dam/globe/brie/AboutUs/newsroom/partners/globe-caritas-ph-support-marginalized-communities/newsroom-partners-caritas-education-communities-primary-thumbnail-m.jpg",
      "imageDesktop": "/sites/globe.com.ph/files/content/dam/globe/brie/AboutUs/newsroom/partners/globe-caritas-ph-support-marginalized-communities/newsroom-partners-caritas-education-communities-primary-thumbnail-d.jpg",
      "description": "Globe extended seed funding together with digital tools, and skills training for 500 disadvantaged youth across the country through Caritas Philippines.",
      "datePosted": "Sep 03, 2021 | 02:18 PM",
      "titleFromTag": "Partners"
    }
  ]
}
