{
  "status": 200,
  "page": 102,
  "totalPage": 298,
  "range": "1213-1224",
  "total": 3573,
  "result": [
    {
      "title": "Globe’s LTE Consistency Score™ in NCR Is at 81.30",
      "nonclickable": false,
      "openNewTab": false,
      "borderArticle": "border-color:#0074D9;",
      "borderTopArticle": "border-top-color:#0074D9;",
      "imageListing": "/sites/globe.com.ph/files/content/dam/globe/brie/AboutUs/newsroom/corporate/799-permits-1q-2021-new-towers/default-corporate-9-thumbnail-listing.jpg",
      "articleUrl": "https://www.globe.com.ph/about-us/newsroom/corporate/globe-lte-consistency-score-ncr-81-30.html",
      "columnType": "articles--type-3",
      "typeListing": "article",
      "imageMobile": "/sites/globe.com.ph/files/content/dam/globe/brie/AboutUs/newsroom/corporate/799-permits-1q-2021-new-towers/default-corporate-9-primary-thumbnail-m.jpg",
      "imageDesktop": "/sites/globe.com.ph/files/content/dam/globe/brie/AboutUs/newsroom/corporate/799-permits-1q-2021-new-towers/default-corporate-9-primary-thumbnail-d.jpg",
      "description": "Based on the latest data from Ookla, Globe’s LTE Consistency Score for Metro Manila has reached 81.30 as of Q2 this year.",
      "datePosted": "Sep 03, 2021 | 11:03 AM",
      "titleFromTag": "Corporate"
    },
    {
      "title": "\"Globe's GoLearn for a Better Future\": A Message for Today's e-Learners from Sen. Joel Villanueva",
      "nonclickable": false,
      "openNewTab": false,
      "borderArticle": "border-color:#0074D9;",
      "borderTopArticle": "border-top-color:#0074D9;",
      "imageListing": "/sites/globe.com.ph/files/content/dam/globe/brie/AboutUs/newsroom/partners/golearn-better-future-message-sen-villanueva/default-default-3-thumbnail-listing.jpg",
      "articleUrl": "https://www.globe.com.ph/about-us/newsroom/partners/golearn-better-future-message-sen-villanueva.html",
      "columnType": "articles--type-3",
      "typeListing": "article",
      "imageMobile": "/sites/globe.com.ph/files/content/dam/globe/brie/AboutUs/newsroom/partners/golearn-better-future-message-sen-villanueva/default-default-3-primary-thumbnail-m.jpg",
      "imageDesktop": "/sites/globe.com.ph/files/content/dam/globe/brie/AboutUs/newsroom/partners/golearn-better-future-message-sen-villanueva/default-default-3-primary-thumbnail-d.jpg",
      "description": "In a special video about Globe’s GoLearn program, Sen. Villanueva carefully explains to home-based students how important it is to remain at home.",
      "datePosted": "Sep 03, 2021 | 10:51 AM",
      "titleFromTag": "Partners"
    },
    {
      "title": "Globe Says Reliable Connectivity Equates to Better Livability",
      "nonclickable": false,
      "openNewTab": false,
      "borderArticle": "border-color:#0074D9;",
      "borderTopArticle": "border-top-color:#0074D9;",
      "imageListing": "/sites/globe.com.ph/files/content/dam/globe/brie/AboutUs/newsroom/corporate/globe-reliable-connectivity-better-livability/newsroom-corporate-reliable-connectivity-better-livability-thumbnail-listing.jpg",
      "articleUrl": "https://www.globe.com.ph/about-us/newsroom/corporate/globe-reliable-connectivity-better-livability.html",
      "columnType": "articles--type-3",
      "typeListing": "article",
      "imageMobile": "/sites/globe.com.ph/files/content/dam/globe/brie/AboutUs/newsroom/corporate/globe-reliable-connectivity-better-livability/newsroom-corporate-reliable-connectivity-better-livability-primary-thumbnail-m.jpg",
      "imageDesktop": "/sites/globe.com.ph/files/content/dam/globe/brie/AboutUs/newsroom/corporate/globe-reliable-connectivity-better-livability/newsroom-corporate-reliable-connectivity-better-livability-primary-thumbnail-d.jpg",
      "description": "With the pandemic hampering almost all physical activities and pushing people to go online, Globe is ramping up its network rollouts and upgrades.",
      "datePosted": "Sep 02, 2021 | 01:32 PM",
      "titleFromTag": "Corporate"
    },
    {
      "title": "LGUs Tap Globe for Reliable COVID-19 Vaccination Program Alerts",
      "nonclickable": false,
      "openNewTab": false,
      "borderArticle": "border-color:#0074D9;",
      "borderTopArticle": "border-top-color:#0074D9;",
      "imageListing": "/sites/globe.com.ph/files/content/dam/globe/brie/AboutUs/newsroom/common/updated/Corporate-globe-thumbnail-listing.jpg",
      "articleUrl": "https://www.globe.com.ph/about-us/newsroom/corporate/lgu-globe-covid-19-vaccination-program-alerts.html",
      "columnType": "articles--type-3",
      "typeListing": "article",
      "imageMobile": "/sites/globe.com.ph/files/content/dam/globe/brie/AboutUs/newsroom/common/updated/Corporate-globe-primary-thumbnail-m.jpg",
      "imageDesktop": "/sites/globe.com.ph/files/content/dam/globe/brie/AboutUs/newsroom/common/updated/Corporate-globe-primary-thumbnail-d.jpg",
      "description": "Local government units have turned to Globe for SMS solutions that would help them quickly, easily,  & securely send out official text alerts and announcements.",
      "datePosted": "Sep 01, 2021 | 12:11 PM",
      "titleFromTag": "Corporate"
    },
    {
      "title": "Globe's Diversified Portfolio Companies Enable Robust Digital Ecosystem",
      "nonclickable": false,
      "openNewTab": false,
      "borderArticle": "border-color:#0074D9;",
      "borderTopArticle": "border-top-color:#0074D9;",
      "imageListing": "/sites/globe.com.ph/files/content/dam/globe/brie/AboutUs/newsroom/common/updated/Corporate-globe-thumbnail-listing.jpg",
      "articleUrl": "https://www.globe.com.ph/about-us/newsroom/corporate/globe-portfolio-companies-robust-digital-ecosystem.html",
      "columnType": "articles--type-3",
      "typeListing": "article",
      "imageMobile": "/sites/globe.com.ph/files/content/dam/globe/brie/AboutUs/newsroom/common/updated/Corporate-globe-primary-thumbnail-m.jpg",
      "imageDesktop": "/sites/globe.com.ph/files/content/dam/globe/brie/AboutUs/newsroom/common/updated/Corporate-globe-primary-thumbnail-d.jpg",
      "description": "Globe with its high-growth portfolio companies has transformed into a digital solutions group enabling a robust digital ecosystem for the Filipino.",
      "datePosted": "Sep 01, 2021 | 09:48 AM",
      "titleFromTag": "Corporate"
    },
    {
      "title": "Healthy Working Relationships Promote Good Work-Life Balance",
      "nonclickable": false,
      "openNewTab": false,
      "borderArticle": "border-color:#0074D9;",
      "borderTopArticle": "border-top-color:#0074D9;",
      "imageListing": "/sites/globe.com.ph/files/content/dam/globe/brie/AboutUs/newsroom/sustainability/healthy-working-relationships-good-work-life-balance/newsroom-sustainability-healthy-work-good-balance-thumbnail-listing.jpg",
      "articleUrl": "https://www.globe.com.ph/about-us/newsroom/sustainability/healthy-working-relationships-good-work-life-balance.html",
      "columnType": "articles--type-3",
      "typeListing": "article",
      "imageMobile": "/sites/globe.com.ph/files/content/dam/globe/brie/AboutUs/newsroom/sustainability/healthy-working-relationships-good-work-life-balance/newsroom-sustainability-healthy-work-good-balance-primary-thumbnail-m.jpg",
      "imageDesktop": "/sites/globe.com.ph/files/content/dam/globe/brie/AboutUs/newsroom/sustainability/healthy-working-relationships-good-work-life-balance/newsroom-sustainability-healthy-work-good-balance-primary-thumbnail-d.jpg",
      "description": "A healthy work-life balance is a positive result of having a good relationship with co-workers, as emphasized in the 10th DepEd & Globe TAYO Naman! webinar.",
      "datePosted": "Aug 31, 2021 | 10:32 AM",
      "titleFromTag": "Sustainability"
    },
    {
      "title": "Globe Empowers Startup Founders in 5G Hackathon",
      "nonclickable": false,
      "openNewTab": false,
      "borderArticle": "border-color:#0074D9;",
      "borderTopArticle": "border-top-color:#0074D9;",
      "imageListing": "/sites/globe.com.ph/files/content/dam/globe/brie/AboutUs/newsroom/sustainability/globe-empowers-startup-founders-5g-hackathon/newsroom-sustainability-globe-5g-hackathon-thumbnail-listing.jpg",
      "articleUrl": "https://www.globe.com.ph/about-us/newsroom/sustainability/globe-empowers-startup-founders-5g-hackathon.html",
      "columnType": "articles--type-3",
      "typeListing": "article",
      "imageMobile": "/sites/globe.com.ph/files/content/dam/globe/brie/AboutUs/newsroom/sustainability/globe-empowers-startup-founders-5g-hackathon/newsroom-sustainability-globe-5g-hackathon-primary-thumbnail-m.jpg",
      "imageDesktop": "/sites/globe.com.ph/files/content/dam/globe/brie/AboutUs/newsroom/sustainability/globe-empowers-startup-founders-5g-hackathon/newsroom-sustainability-globe-5G-hackathon-primary-thumbnail-d.jpg",
      "description": "Ten groups move forward & are one step closer to bringing their ideas to life in the Globe 5G Hackathon, the first & biggest event of its kind in the country.",
      "datePosted": "Aug 31, 2021 | 10:22 AM",
      "titleFromTag": "Sustainability"
    },
    {
      "title": "Globe Boosts Services to Customers in Cavite and Laguna",
      "nonclickable": false,
      "openNewTab": false,
      "borderArticle": "border-color:#0074D9;",
      "borderTopArticle": "border-top-color:#0074D9;",
      "imageListing": "/sites/globe.com.ph/files/content/dam/globe/brie/AboutUs/newsroom/corporate/799-permits-1q-2021-new-towers/default-corporate-9-thumbnail-listing.jpg",
      "articleUrl": "https://www.globe.com.ph/about-us/newsroom/corporate/globe-boosts-services-cavite-laguna.html",
      "columnType": "articles--type-3",
      "typeListing": "article",
      "imageMobile": "/sites/globe.com.ph/files/content/dam/globe/brie/AboutUs/newsroom/corporate/799-permits-1q-2021-new-towers/default-corporate-9-primary-thumbnail-m.jpg",
      "imageDesktop": "/sites/globe.com.ph/files/content/dam/globe/brie/AboutUs/newsroom/corporate/799-permits-1q-2021-new-towers/default-corporate-9-primary-thumbnail-d.jpg",
      "description": "Globe has completed 265 site upgrades in 11 towns and cities in Cavite and three areas in Laguna from 3G to the new standard of mobile data, 4G LTE. ",
      "datePosted": "Aug 31, 2021 | 10:08 AM",
      "titleFromTag": "Corporate"
    },
    {
      "title": "Globe, DepEd, Sen. Villanueva Make Digital Learning More Accessible with GoLearn",
      "nonclickable": false,
      "openNewTab": false,
      "borderArticle": "border-color:#0074D9;",
      "borderTopArticle": "border-top-color:#0074D9;",
      "imageListing": "/sites/globe.com.ph/files/content/dam/globe/brie/AboutUs/newsroom/partners/globe-deped-sen-villanueva-digital-learning-golearn/newsroom-partners-villanueva-digital-learning-accessible-primary-thumbnail-d.jpg",
      "articleUrl": "https://www.globe.com.ph/about-us/newsroom/partners/globe-deped-sen-villanueva-digital-learning-golearn.html",
      "columnType": "articles--type-3",
      "typeListing": "article",
      "imageMobile": "/sites/globe.com.ph/files/content/dam/globe/brie/AboutUs/newsroom/partners/globe-deped-sen-villanueva-digital-learning-golearn/newsroom-partners-villanueva-digital-learning-accessible-primary-thumbnail-m.jpg",
      "imageDesktop": "/sites/globe.com.ph/files/content/dam/globe/brie/AboutUs/newsroom/partners/globe-deped-sen-villanueva-digital-learning-golearn/newsroom-partners-villanueva-digital-learning-accessible-primary-thumbnail-d.jpg",
      "description": "Globe has launched GoLearn, the unified, company-wide platform aimed at helping the country achieve 21st Century Learning.",
      "datePosted": "Aug 31, 2021 | 09:54 AM",
      "titleFromTag": "Partners"
    },
    {
      "title": "Globe At Home Sets Proactive Measures in Place amid Rainy Season, Heightened Quarantine Restrictions",
      "nonclickable": false,
      "openNewTab": false,
      "borderArticle": "border-color:#0074D9;",
      "borderTopArticle": "border-top-color:#0074D9;",
      "imageListing": "/sites/globe.com.ph/files/content/dam/globe/brie/AboutUs/newsroom/common/updated/Corporate-globe-thumbnail-listing.jpg",
      "articleUrl": "https://www.globe.com.ph/about-us/newsroom/corporate/proactive-measures-rainy-season-heightened-quarantine-restrictions.html",
      "columnType": "articles--type-3",
      "typeListing": "article",
      "imageMobile": "/sites/globe.com.ph/files/content/dam/globe/brie/AboutUs/newsroom/common/updated/Corporate-globe-primary-thumbnail-m.jpg",
      "imageDesktop": "/sites/globe.com.ph/files/content/dam/globe/brie/AboutUs/newsroom/common/updated/Corporate-globe-primary-thumbnail-d.jpg",
      "description": "Globe At Home strengthens its proactive measures to minimize the effects of inclement weather and keep customers connected.",
      "datePosted": "Aug 27, 2021 | 06:25 PM",
      "titleFromTag": "Corporate"
    },
    {
      "title": "Globe At Home Makes Internet Access More Affordable to Bridge the Digital Divide on E-Learning",
      "nonclickable": false,
      "openNewTab": false,
      "borderArticle": "border-color:#0074D9;",
      "borderTopArticle": "border-top-color:#0074D9;",
      "imageListing": "/sites/globe.com.ph/files/content/dam/globe/brie/AboutUs/newsroom/consumer/globe-at-home-makes-internet-more-affordable-e-learning/newsroom-consumer-gah-internet-affordable-e-learning-thumbnail-listing.jpg",
      "articleUrl": "https://www.globe.com.ph/about-us/newsroom/consumer/globe-at-home-makes-internet-more-affordable-e-learning.html",
      "columnType": "articles--type-3",
      "typeListing": "article",
      "imageMobile": "/sites/globe.com.ph/files/content/dam/globe/brie/AboutUs/newsroom/consumer/globe-at-home-makes-internet-more-affordable-e-learning/newsroom-consumer-gah-internet-affordable-e-learning-primary-thumbnail-m.jpg",
      "imageDesktop": "/sites/globe.com.ph/files/content/dam/globe/brie/AboutUs/newsroom/consumer/globe-at-home-makes-internet-more-affordable-e-learning/newsroom-consumer-gah-internet-affordable-e-learning-primary-thumbnail-d.jpg",
      "description": "Globe At Home continues to pursue an aggressive cell site build and network improvement program, while delivering an evolving product portfolio.",
      "datePosted": "Aug 27, 2021 | 06:09 PM",
      "titleFromTag": "Consumer"
    },
    {
      "title": "Globe Supports Bukidnon with Connectivity and Sustainable Environmental Initiatives",
      "nonclickable": false,
      "openNewTab": false,
      "borderArticle": "border-color:#0074D9;",
      "borderTopArticle": "border-top-color:#0074D9;",
      "imageListing": "/sites/globe.com.ph/files/content/dam/globe/brie/AboutUs/newsroom/sustainability/globe-supports-bukidnon-connectivity-environmental-initiatives/newsroom-sustainability-bukidnon-environmental-initiatives-thumbnail-listing.jpg",
      "articleUrl": "https://www.globe.com.ph/about-us/newsroom/sustainability/globe-supports-bukidnon-connectivity-environmental-initiatives.html",
      "columnType": "articles--type-3",
      "typeListing": "article",
      "imageMobile": "/sites/globe.com.ph/files/content/dam/globe/brie/AboutUs/newsroom/sustainability/globe-supports-bukidnon-connectivity-environmental-initiatives/newsroom-sustainability-bukidnon-environmental-initiatives-primary-thumbnail-m.jpg",
      "imageDesktop": "/sites/globe.com.ph/files/content/dam/globe/brie/AboutUs/newsroom/sustainability/globe-supports-bukidnon-connectivity-environmental-initiatives/newsroom-sustainability-bukidnon-environmental-initiatives-primary-thumbnail-d.jpg",
      "description": "Since 2016, Globe and its customers have already raised a total of P15.6 million, managed by its reforestation partner Hineleban Foundation, in Bukidnon.",
      "datePosted": "Aug 26, 2021 | 11:47 AM",
      "titleFromTag": "Sustainability"
    }
  ]
}
