{
  "status": 200,
  "page": 103,
  "totalPage": 298,
  "range": "1225-1236",
  "total": 3573,
  "result": [
    {
      "title": "KonsultaMD Gives FREE Mental Health Subscriptions to Educators via DepEd, Globe TAYO Naman! Webinars",
      "nonclickable": false,
      "openNewTab": false,
      "borderArticle": "border-color:#0074D9;",
      "borderTopArticle": "border-top-color:#0074D9;",
      "imageListing": "/sites/globe.com.ph/files/content/dam/globe/brie/AboutUs/newsroom/sustainability/konsultamd-free-mental-health-subscriptions-tayo-naman/newsroom-sustainability-konsultamd-mental-health-thumbnail-listing.jpg",
      "articleUrl": "https://www.globe.com.ph/about-us/newsroom/sustainability/konsultamd-free-mental-health-subscriptions-tayo-naman.html",
      "columnType": "articles--type-3",
      "typeListing": "article",
      "imageMobile": "/sites/globe.com.ph/files/content/dam/globe/brie/AboutUs/newsroom/sustainability/konsultamd-free-mental-health-subscriptions-tayo-naman/newsroom-sustainability-konsultamd-mental-health-primary-thumbnail-m.jpg",
      "imageDesktop": "/sites/globe.com.ph/files/content/dam/globe/brie/AboutUs/newsroom/sustainability/konsultamd-free-mental-health-subscriptions-tayo-naman/newsroom-sustainability-konsultamd-mental-health-primary-thumbnail-d.jpg",
      "description": "To extend mental health support to teachers and non-teaching personnel, KonsultaMD is giving away FREE 6-month telehealth subscriptions.",
      "datePosted": "Aug 26, 2021 | 11:46 AM",
      "titleFromTag": "Sustainability"
    },
    {
      "title": "Globe Appeals Anew to DPWH, Contractors",
      "nonclickable": false,
      "openNewTab": false,
      "borderArticle": "border-color:#0074D9;",
      "borderTopArticle": "border-top-color:#0074D9;",
      "imageListing": "/sites/globe.com.ph/files/content/dam/globe/brie/AboutUs/newsroom/common/updated/Corporate-globe-thumbnail-listing.jpg",
      "articleUrl": "https://www.globe.com.ph/about-us/newsroom/corporate/globe-appeals-anew-to-dpwh-contractors.html",
      "columnType": "articles--type-3",
      "typeListing": "article",
      "imageMobile": "/sites/globe.com.ph/files/content/dam/globe/brie/AboutUs/newsroom/common/updated/Corporate-globe-primary-thumbnail-m.jpg",
      "imageDesktop": "/sites/globe.com.ph/files/content/dam/globe/brie/AboutUs/newsroom/common/updated/Corporate-globe-primary-thumbnail-d.jpg",
      "description": "Numerous fiber cuts caused by road digging continue to interrupt internet services, prompting Globe to reiterate its appeal to the DPWH.",
      "datePosted": "Aug 26, 2021 | 11:13 AM",
      "titleFromTag": "Corporate"
    },
    {
      "title": "Globe Continues 5G Expansion; Builds",
      "nonclickable": false,
      "openNewTab": false,
      "borderArticle": "border-color:#0074D9;",
      "borderTopArticle": "border-top-color:#0074D9;",
      "imageListing": "/sites/globe.com.ph/files/content/dam/globe/brie/AboutUs/newsroom/corporate/799-permits-1q-2021-new-towers/default-corporate-9-thumbnail-listing.jpg",
      "articleUrl": "https://www.globe.com.ph/about-us/newsroom/corporate/globe-continues-5g-expansion-builds.html",
      "columnType": "articles--type-3",
      "typeListing": "article",
      "imageMobile": "/sites/globe.com.ph/files/content/dam/globe/brie/AboutUs/newsroom/corporate/799-permits-1q-2021-new-towers/default-corporate-9-primary-thumbnail-m.jpg",
      "imageDesktop": "/sites/globe.com.ph/files/content/dam/globe/brie/AboutUs/newsroom/corporate/799-permits-1q-2021-new-towers/default-corporate-9-primary-thumbnail-d.jpg",
      "description": "Globe’s strategy of installing its 5G network in key cities across Metro Manila, Visayas, & Mindanao will provide customers with good and reliable 5G services.",
      "datePosted": "Aug 25, 2021 | 08:00 AM",
      "titleFromTag": "Corporate"
    },
    {
      "title": "Pandemic Reinforces the Need to Strengthen Family Ties",
      "nonclickable": false,
      "openNewTab": false,
      "borderArticle": "border-color:#0074D9;",
      "borderTopArticle": "border-top-color:#0074D9;",
      "imageListing": "/sites/globe.com.ph/files/content/dam/globe/brie/AboutUs/newsroom/sustainability/pandemic-reinforces-need-strengthen-family-ties/newsroom-sustainability-strengthen-family-ties-thumbnail-listing.jpg",
      "articleUrl": "https://www.globe.com.ph/about-us/newsroom/sustainability/pandemic-reinforces-need-strengthen-family-ties.html",
      "columnType": "articles--type-3",
      "typeListing": "article",
      "imageMobile": "/sites/globe.com.ph/files/content/dam/globe/brie/AboutUs/newsroom/sustainability/pandemic-reinforces-need-strengthen-family-ties/newsroom-sustainability-strengthen-family-ties-primary-thumbnail-m.jpg",
      "imageDesktop": "/sites/globe.com.ph/files/content/dam/globe/brie/AboutUs/newsroom/sustainability/pandemic-reinforces-need-strengthen-family-ties/newsroom-sustainability-strengthen-family-ties-primary-thumbnail-d.jpg",
      "description": "The resilience of every family is tested by challenges such as the ongoing pandemic. This was a significant talking point in the latest session of TAYO Naman!",
      "datePosted": "Aug 24, 2021 | 02:28 PM",
      "titleFromTag": "Sustainability"
    },
    {
      "title": "Filipino Film on Typhoon Yolanda “Whether the Weather Is Fine” Wins in 74th Locarno Film Festival",
      "nonclickable": false,
      "openNewTab": false,
      "borderArticle": "border-color:#0074D9;",
      "borderTopArticle": "border-top-color:#0074D9;",
      "imageListing": "/sites/globe.com.ph/files/content/dam/globe/brie/AboutUs/newsroom/consumer/whether-the-weather-is-fine-wins-74th-locarno-film-festival/newsroom-consumer-whether-the-weather-is-fine-thumbnail-listing.jpg",
      "articleUrl": "https://www.globe.com.ph/about-us/newsroom/consumer/whether-the-weather-is-fine-wins-74th-locarno-film-festival.html",
      "columnType": "articles--type-3",
      "typeListing": "article",
      "imageMobile": "/sites/globe.com.ph/files/content/dam/globe/brie/AboutUs/newsroom/consumer/whether-the-weather-is-fine-wins-74th-locarno-film-festival/newsroom-consumer-whether-the-weather-is-fine-primary-thumbnail-m.jpg",
      "imageDesktop": "/sites/globe.com.ph/files/content/dam/globe/brie/AboutUs/newsroom/consumer/whether-the-weather-is-fine-wins-74th-locarno-film-festival/newsroom-consumer-whether-the-weather-is-fine-primary-thumbnail-d.jpg",
      "description": "Globe Studios bagged another prestigious international award as its film Whether the Weather is Fine won in the recent 74th Locarno Film Festival.",
      "datePosted": "Aug 24, 2021 | 12:15 PM",
      "titleFromTag": "Consumer"
    },
    {
      "title": "LCC, Globe Present Webinar on How Cities Can Maximize Use of Green Buildings and Open Spaces",
      "nonclickable": false,
      "openNewTab": false,
      "borderArticle": "border-color:#0074D9;",
      "borderTopArticle": "border-top-color:#0074D9;",
      "imageListing": "/sites/globe.com.ph/files/content/dam/globe/brie/AboutUs/newsroom/sustainability/lcc-globe-webinar-green-buildings-open-spaces/newsroom-sustainability-lcc-webinar-green-buildings-thumbnail-listing.jpg",
      "articleUrl": "https://www.globe.com.ph/about-us/newsroom/sustainability/lcc-globe-webinar-green-buildings-open-spaces.html",
      "columnType": "articles--type-3",
      "typeListing": "article",
      "imageMobile": "/sites/globe.com.ph/files/content/dam/globe/brie/AboutUs/newsroom/sustainability/lcc-globe-webinar-green-buildings-open-spaces/newsroom-sustainability-lcc-webinar-green-buildings-thumbnail-m.jpg",
      "imageDesktop": "/sites/globe.com.ph/files/content/dam/globe/brie/AboutUs/newsroom/sustainability/lcc-globe-webinar-green-buildings-open-spaces/newsroom-sustainability-lcc-webinar-green-buildings-primary-thumbnail-d.jpg",
      "description": "The Liveable Cities Challenge (LCC), in partnership with the League of Cities of the Philippines and Globe, is set to host another knowledge sharing discussion.",
      "datePosted": "Aug 23, 2021 | 10:38 AM",
      "titleFromTag": "Sustainability"
    },
    {
      "title": "Write Your Business’ Success Story with Globe Business’ Partnership Program",
      "nonclickable": false,
      "openNewTab": false,
      "borderArticle": "border-color:#0074D9;",
      "borderTopArticle": "border-top-color:#0074D9;",
      "imageListing": "/sites/globe.com.ph/files/content/dam/globe/brie/AboutUs/newsroom/business/success-story-globe-business-partnership-program/newsroom-business-success-story-program-thumbnail-listing.jpg",
      "articleUrl": "https://www.globe.com.ph/about-us/newsroom/business/success-story-globe-business-partnership-program.html",
      "columnType": "articles--type-3",
      "typeListing": "article",
      "imageMobile": "/sites/globe.com.ph/files/content/dam/globe/brie/AboutUs/newsroom/business/success-story-globe-business-partnership-program/newsroom-business-success-story-program-primary-thumbnail-m.jpg",
      "imageDesktop": "/sites/globe.com.ph/files/content/dam/globe/brie/AboutUs/newsroom/business/success-story-globe-business-partnership-program/newsroom-business-succes-story-program-primary-thumbnail-d.jpg",
      "description": "Through the Globe Partner Network program, tech integrator companies who strive to build robust systems for their clients now get valuable exposure to MSME.",
      "datePosted": "Aug 23, 2021 | 09:53 AM",
      "titleFromTag": "Business"
    },
    {
      "title": "Over 1,000 Students, Teachers in Isabela City Receive Cyber Wellness Training from Globe",
      "nonclickable": false,
      "openNewTab": false,
      "borderArticle": "border-color:#0074D9;",
      "borderTopArticle": "border-top-color:#0074D9;",
      "imageListing": "/sites/globe.com.ph/files/content/dam/globe/brie/AboutUs/newsroom/sustainability/students-teachers-isabela-recieve-cyber-wellness-training/newsroom-sustainability-isabela-cyber-wellness-thumbnail-listing.jpg",
      "articleUrl": "https://www.globe.com.ph/about-us/newsroom/sustainability/students-teachers-isabela-recieve-cyber-wellness-training.html",
      "columnType": "articles--type-3",
      "typeListing": "article",
      "imageMobile": "/sites/globe.com.ph/files/content/dam/globe/brie/AboutUs/newsroom/sustainability/students-teachers-isabela-recieve-cyber-wellness-training/newsroom-sustainability-isabela-cyber-wellness-primary-thumbnail-m.jpg",
      "imageDesktop": "/sites/globe.com.ph/files/content/dam/globe/brie/AboutUs/newsroom/sustainability/students-teachers-isabela-recieve-cyber-wellness-training/newsroom-sustainability-isabela-cyber-wellness-primary-thumbnail-d.jpg",
      "description": "More than 1,000 students and teachers in Isabela City received training on how to be safer online as they journey through Globe’s Digital Thumbprint Program.",
      "datePosted": "Aug 23, 2021 | 08:01 AM",
      "titleFromTag": "Sustainability"
    },
    {
      "title": "‘City of Smiles’ Bacolod Enjoy K-Pop Good Vibes with Globe’s 4G LTE",
      "nonclickable": false,
      "openNewTab": false,
      "borderArticle": "border-color:#0074D9;",
      "borderTopArticle": "border-top-color:#0074D9;",
      "imageListing": "/sites/globe.com.ph/files/content/dam/globe/brie/AboutUs/newsroom/consumer/bacolod-enjoy-kpop-globe-4g-lte/newsroom-consumer-bacolod-enjoy-kpop-thumbnail-listing.jpg",
      "articleUrl": "https://www.globe.com.ph/about-us/newsroom/consumer/bacolod-enjoy-kpop-globe-4g-lte.html",
      "columnType": "articles--type-3",
      "typeListing": "article",
      "imageMobile": "/sites/globe.com.ph/files/content/dam/globe/brie/AboutUs/newsroom/consumer/bacolod-enjoy-kpop-globe-4g-lte/newsroom-consumer-bacolod-enjoy-kpop-primary-thumbnail-m.jpg",
      "imageDesktop": "/sites/globe.com.ph/files/content/dam/globe/brie/AboutUs/newsroom/consumer/bacolod-enjoy-kpop-globe-4g-lte/newsroom-consumer-bacolod-enjoy-kpop-primary-thumbnail-d.jpg",
      "description": "As more people consume their media online, K-Pop included, a stable and reliable internet becomes a must, prompting Globe to double its efforts in Bacolod City.",
      "datePosted": "Aug 23, 2021 | 08:01 AM",
      "titleFromTag": "Consumer"
    },
    {
      "title": "Globe Joins Vigeo’s Top 100 ESG Companies, Leaders in Sustainability",
      "nonclickable": false,
      "openNewTab": false,
      "borderArticle": "border-color:#0074D9;",
      "borderTopArticle": "border-top-color:#0074D9;",
      "imageListing": "/sites/globe.com.ph/files/content/dam/globe/brie/AboutUs/newsroom/sustainability/globe-joins-vigeo-top-100-esg-companies/newsroom-sustainability-vigeo-top-100-thumbnail-listing.jpg",
      "articleUrl": "https://www.globe.com.ph/about-us/newsroom/sustainability/globe-joins-vigeo-top-100-esg-companies.html",
      "columnType": "articles--type-3",
      "typeListing": "article",
      "imageMobile": "/sites/globe.com.ph/files/content/dam/globe/brie/AboutUs/newsroom/sustainability/globe-joins-vigeo-top-100-esg-companies/newsroom-sustainability-vigeo-top-100-primary-thumbnail-m.jpg",
      "imageDesktop": "/sites/globe.com.ph/files/content/dam/globe/brie/AboutUs/newsroom/sustainability/globe-joins-vigeo-top-100-esg-companies/newsroom-sustainability-vigeo-top-100-primary-thumbnail-d.jpg",
      "description": "Globe entered the top 100 Best Emerging Market Performers ranking from V.E, for its dedication to implementing environmental, social, and governance (ESG).",
      "datePosted": "Aug 23, 2021 | 08:00 AM",
      "titleFromTag": "Sustainability"
    },
    {
      "title": "KonsultaMD Consultations Jump 256% in H1 2021 as Pandemic Rages",
      "nonclickable": false,
      "openNewTab": false,
      "borderArticle": "border-color:#0074D9;",
      "borderTopArticle": "border-top-color:#0074D9;",
      "imageListing": "/sites/globe.com.ph/files/content/dam/globe/brie/AboutUs/newsroom/common/default-4/default-consumer-3-thumbnail-listing.jpg",
      "articleUrl": "https://www.globe.com.ph/about-us/newsroom/consumer/konsultamd-consultations-jump-pandemic-rages.html",
      "columnType": "articles--type-3",
      "typeListing": "article",
      "imageMobile": "/sites/globe.com.ph/files/content/dam/globe/brie/AboutUs/newsroom/common/default-4/default-consumer-3-primary-thumbnail-m.jpg",
      "imageDesktop": "/sites/globe.com.ph/files/content/dam/globe/brie/AboutUs/newsroom/common/default-4/default-consumer-3-primary-thumbnail-d.jpg",
      "description": "As more Filipinos opt to stay home to keep safe from the COVID-19 virus, medical consultations through the KonsultaMD app skyrocketed 256%.",
      "datePosted": "Aug 23, 2021 | 08:00 AM",
      "titleFromTag": "Consumer"
    },
    {
      "title": "Globe Readies Libreng Tawag, WiFi Services as ‘Isang’ Enters PAR",
      "nonclickable": false,
      "openNewTab": false,
      "borderArticle": "border-color:#0074D9;",
      "borderTopArticle": "border-top-color:#0074D9;",
      "imageListing": "/sites/globe.com.ph/files/content/dam/globe/brie/AboutUs/newsroom/common/updated/Corporate-globe-thumbnail-listing.jpg",
      "articleUrl": "https://www.globe.com.ph/about-us/newsroom/corporate/libreng-tawag-wifi-services-isang-enters-par.html",
      "columnType": "articles--type-3",
      "typeListing": "article",
      "imageMobile": "/sites/globe.com.ph/files/content/dam/globe/brie/AboutUs/newsroom/common/updated/Corporate-globe-primary-thumbnail-m.jpg",
      "imageDesktop": "/sites/globe.com.ph/files/content/dam/globe/brie/AboutUs/newsroom/common/updated/Corporate-globe-primary-thumbnail-d.jpg",
      "description": "Globe is ready to extend Libreng Tawag, Libreng Charging, and Libreng WiFi services to residents in areas that may be affected by Tropical Storm Isang.",
      "datePosted": "Aug 21, 2021 | 10:48 AM",
      "titleFromTag": "Corporate"
    }
  ]
}
