{
  "status": 200,
  "page": 104,
  "totalPage": 298,
  "range": "1237-1248",
  "total": 3573,
  "result": [
    {
      "title": "Globe Business Supports MSMEs in Future-Proofing Their Businesses in This Year’s G Summit",
      "nonclickable": false,
      "openNewTab": false,
      "borderArticle": "border-color:#0074D9;",
      "borderTopArticle": "border-top-color:#0074D9;",
      "imageListing": "/sites/globe.com.ph/files/content/dam/globe/brie/AboutUs/newsroom/business/globe-business-supports-msmes-g-summit/newsroom-business-globe-supports-msme_s-thumbnail-listing.jpg",
      "articleUrl": "https://www.globe.com.ph/about-us/newsroom/business/globe-business-supports-msmes-g-summit.html",
      "columnType": "articles--type-3",
      "typeListing": "article",
      "imageMobile": "/sites/globe.com.ph/files/content/dam/globe/brie/AboutUs/newsroom/business/globe-business-supports-msmes-g-summit/newsroom-business-globe-supports-msme_s-primary-thumbnail-m.jpg",
      "imageDesktop": "/sites/globe.com.ph/files/content/dam/globe/brie/AboutUs/newsroom/business/globe-business-supports-msmes-g-summit/newsroom-business-globe-supports-msme_s-primary-thumbnail-d.jpg",
      "description": "Globe Business recently hosted their biggest MSME conference to date, called G Summit, aimed at assisting micro, small, and medium enterprises (MSMEs).",
      "datePosted": "Aug 20, 2021 | 02:23 PM",
      "titleFromTag": "Business"
    },
    {
      "title": "Globe Strengthens Support to Stakeholders with Social Programs",
      "nonclickable": false,
      "openNewTab": false,
      "borderArticle": "border-color:#0074D9;",
      "borderTopArticle": "border-top-color:#0074D9;",
      "imageListing": "/sites/globe.com.ph/files/content/dam/globe/brie/AboutUs/newsroom/common/updated/Corporate-globe-thumbnail-listing.jpg",
      "articleUrl": "https://www.globe.com.ph/about-us/newsroom/corporate/globe-strengthens-support-stakeholders-social-programs.html",
      "columnType": "articles--type-3",
      "typeListing": "article",
      "imageMobile": "/sites/globe.com.ph/files/content/dam/globe/brie/AboutUs/newsroom/common/updated/Corporate-globe-primary-thumbnail-m.jpg",
      "imageDesktop": "/sites/globe.com.ph/files/content/dam/globe/brie/AboutUs/newsroom/common/updated/Corporate-globe-primary-thumbnail-d.jpg",
      "description": "More than a year into the pandemic, Globe remains committed to going the extra mile in supporting its stakeholders and addressing their most urgent needs.",
      "datePosted": "Aug 20, 2021 | 01:01 PM",
      "titleFromTag": "Corporate"
    },
    {
      "title": "Globe Postpaid Customers Empowered to Control Browsing Experience with Free SurfAlert Service",
      "nonclickable": false,
      "openNewTab": false,
      "borderArticle": "border-color:#0074D9;",
      "borderTopArticle": "border-top-color:#0074D9;",
      "imageListing": "/sites/globe.com.ph/files/content/dam/globe/brie/AboutUs/newsroom/consumer/postpaid-customers-control-browsing-experience-free-surfalert/newsroom-consumer-postpaid-subs-free-surfalert-thumbnail-listing.jpg",
      "articleUrl": "https://www.globe.com.ph/about-us/newsroom/consumer/postpaid-customers-control-browsing-experience-free-surfalert.html",
      "columnType": "articles--type-3",
      "typeListing": "article",
      "imageMobile": "/sites/globe.com.ph/files/content/dam/globe/brie/AboutUs/newsroom/consumer/postpaid-customers-control-browsing-experience-free-surfalert/newsroom-consumer-postpaid-subs-free-surfalert-primary-thumbnail-m.jpg",
      "imageDesktop": "/sites/globe.com.ph/files/content/dam/globe/brie/AboutUs/newsroom/consumer/postpaid-customers-control-browsing-experience-free-surfalert/newsroom-consumer-postpaid-subs-free-surfalert-primary-thumbnail-d.jpg",
      "description": "Globe Postpaid customers can now control their data usage to ensure worry-free surfing and prevent unexpected browsing charges using the new SurfAlert service.",
      "datePosted": "Aug 20, 2021 | 01:00 PM",
      "titleFromTag": "Consumer"
    },
    {
      "title": "Globe and PHINMA Education: Forging a Brighter Future for Filipino Students through Free Mobile Data",
      "nonclickable": false,
      "openNewTab": false,
      "borderArticle": "border-color:#0074D9;",
      "borderTopArticle": "border-top-color:#0074D9;",
      "imageListing": "/sites/globe.com.ph/files/content/dam/globe/brie/AboutUs/newsroom/sustainability/globe-phinma-education-filipino-students-free-data/newsroom-sustainability-globe-phinma-free-data-thumbnail-listing.jpg",
      "articleUrl": "https://www.globe.com.ph/about-us/newsroom/business/globe-phinma-education-filipino-students-free-data.html",
      "columnType": "articles--type-3",
      "typeListing": "article",
      "imageMobile": "/sites/globe.com.ph/files/content/dam/globe/brie/AboutUs/newsroom/sustainability/globe-phinma-education-filipino-students-free-data/newsroom-sustainability-globe-phinma-free-data-primary-thumbnail-m.jpg",
      "imageDesktop": "/sites/globe.com.ph/files/content/dam/globe/brie/AboutUs/newsroom/sustainability/globe-phinma-education-filipino-students-free-data/newsroom-sustainability-globe-phinma-free-data-primary-thumbnail-d.jpg",
      "description": "Through its alliance with Globe, PHINMA Education makes quality education accessible for Filipino students from underserved communities with free mobile data.",
      "datePosted": "Aug 20, 2021 | 10:45 AM",
      "titleFromTag": "Business"
    },
    {
      "title": "Globe Welcomes UK-Based Internet Watch Foundation (IWF) in Roster of Partners for Child Protection Advocacy",
      "nonclickable": false,
      "openNewTab": false,
      "borderArticle": "border-color:#0074D9;",
      "borderTopArticle": "border-top-color:#0074D9;",
      "imageListing": "/sites/globe.com.ph/files/content/dam/globe/brie/AboutUs/newsroom/partners/internet-watch-foundation-partner-child-protection-advocacy/default-partners-1-thumbnail-listing.jpg",
      "articleUrl": "https://www.globe.com.ph/about-us/newsroom/partners/internet-watch-foundation-partner-child-protection-advocacy.html",
      "columnType": "articles--type-3",
      "typeListing": "article",
      "imageMobile": "/sites/globe.com.ph/files/content/dam/globe/brie/AboutUs/newsroom/partners/internet-watch-foundation-partner-child-protection-advocacy/default-partners-1-primary-thumbnail-m.jpg",
      "imageDesktop": "/sites/globe.com.ph/files/content/dam/globe/brie/AboutUs/newsroom/partners/internet-watch-foundation-partner-child-protection-advocacy/default-partners-1-primary-thumbnail-d.jpg",
      "description": "Committed to its advocacy against online sexual abuse and exploitation of children, Globe partners with globally-recognized Internet Watch Foundation (IWF).",
      "datePosted": "Aug 19, 2021 | 10:02 PM",
      "titleFromTag": "Partners"
    },
    {
      "title": "Dabawenyos to Experience Globe’s KonekTayo WiFi and Free GoWiFi Services",
      "nonclickable": false,
      "openNewTab": false,
      "borderArticle": "border-color:#0074D9;",
      "borderTopArticle": "border-top-color:#0074D9;",
      "imageListing": "/sites/globe.com.ph/files/content/dam/globe/brie/AboutUs/newsroom/partners/dabawenyos-experience-globe-konektayo-wifi-free-gowifi/newsroom-partners-dabawenyos-globe-konektayo-thumbnail-listing.jpg",
      "articleUrl": "https://www.globe.com.ph/about-us/newsroom/partners/dabawenyos-experience-globe-konektayo-wifi-free-gowifi.html",
      "columnType": "articles--type-3",
      "typeListing": "article",
      "imageMobile": "/sites/globe.com.ph/files/content/dam/globe/brie/AboutUs/newsroom/partners/dabawenyos-experience-globe-konektayo-wifi-free-gowifi/newsroom-partners-dabawenyos-globe-konektayo-primary-thumbnail-m.jpg",
      "imageDesktop": "/sites/globe.com.ph/files/content/dam/globe/brie/AboutUs/newsroom/partners/dabawenyos-experience-globe-konektayo-wifi-free-gowifi/newsroom-partners-dabawenyos-globe-konektayo-primary-thumbnail-d.jpg",
      "description": "Globe has partnered with the largest city in the Philippines, Davao City, to deliver reliable connectivity through GoWiFi and KonekTayo WiFi services.",
      "datePosted": "Aug 19, 2021 | 02:25 PM",
      "titleFromTag": "Partners"
    },
    {
      "title": "Here's Why Your Financial Institution Should Invest in Data Privacy and Security Solutions Through Globe Business",
      "nonclickable": false,
      "openNewTab": false,
      "borderArticle": "border-color:#0074D9;",
      "borderTopArticle": "border-top-color:#0074D9;",
      "imageListing": "/sites/globe.com.ph/files/content/dam/globe/brie/AboutUs/newsroom/business/why-financial-institution-invest-data-privacy-security-solutions/newsroom-business-data-privacy-and-security-thumbnail-listing.jpg",
      "articleUrl": "https://www.globe.com.ph/about-us/newsroom/business/why-financial-institution-invest-data-privacy-security-solutions.html",
      "columnType": "articles--type-3",
      "typeListing": "article",
      "imageMobile": "/sites/globe.com.ph/files/content/dam/globe/brie/AboutUs/newsroom/business/why-financial-institution-invest-data-privacy-security-solutions/newsroom-business-data-privacy-and-security-primary-thumbnail-m.jpg",
      "imageDesktop": "/sites/globe.com.ph/files/content/dam/globe/brie/AboutUs/newsroom/business/why-financial-institution-invest-data-privacy-security-solutions/newsroom-business-data-privacy-and-security-primary-thumbnail-d.jpg",
      "description": "Globe Business understands the need for companies to reinforce their data privacy regulations. ",
      "datePosted": "Aug 19, 2021 | 10:02 AM",
      "titleFromTag": "Business"
    },
    {
      "title": "Globe Games and Esports Continue to Thrive, Fuel Passion During the Pandemic",
      "nonclickable": false,
      "openNewTab": false,
      "borderArticle": "border-color:#0074D9;",
      "borderTopArticle": "border-top-color:#0074D9;",
      "imageListing": "/sites/globe.com.ph/files/content/dam/globe/brie/AboutUs/newsroom/sustainability/be-one-with-nature-healthier-happier-life-during-pandemic/newsroom-sustanability-be-one-with-nature-thumbnail-listing.jpg",
      "articleUrl": "https://www.globe.com.ph/about-us/newsroom/sustainability/be-one-with-nature-healthier-happier-life-during-pandemic.html",
      "columnType": "articles--type-3",
      "typeListing": "article",
      "imageMobile": "/sites/globe.com.ph/files/content/dam/globe/brie/AboutUs/newsroom/sustainability/be-one-with-nature-healthier-happier-life-during-pandemic/newsroom-sustanability-be-one-with-nature-primary-thumbnail-m.jpg",
      "imageDesktop": "/sites/globe.com.ph/files/content/dam/globe/brie/AboutUs/newsroom/sustainability/be-one-with-nature-healthier-happier-life-during-pandemic/newsroom-sustanability-be-one-with-nature-primary-thumbnail-d.jpg",
      "description": "We may be living in concrete jungles or cooped up within the four walls of our homes, but this does not have to stop us from being with nature.",
      "datePosted": "Aug 18, 2021 | 03:28 PM",
      "titleFromTag": "Sustainability"
    },
    {
      "title": "GCash Monthly Gross Transaction Value Reaches to Around P300B as Filipinos Shift to Digital",
      "nonclickable": false,
      "openNewTab": false,
      "borderArticle": "border-color:#0074D9;",
      "borderTopArticle": "border-top-color:#0074D9;",
      "imageListing": "/sites/globe.com.ph/files/content/dam/globe/brie/AboutUs/newsroom/common/updated/Corporate-globe-thumbnail-listing.jpg",
      "articleUrl": "https://www.globe.com.ph/about-us/newsroom/partners/gcash-monthly-gross-transaction-reaches-p300b.html",
      "columnType": "articles--type-3",
      "typeListing": "article",
      "imageMobile": "/sites/globe.com.ph/files/content/dam/globe/brie/AboutUs/newsroom/common/updated/Corporate-globe-primary-thumbnail-m.jpg",
      "imageDesktop": "/sites/globe.com.ph/files/content/dam/globe/brie/AboutUs/newsroom/common/updated/Corporate-globe-primary-thumbnail-d.jpg",
      "description": "GCash, the country’s largest mobile e-wallet service, is now processing around P300 billion in monthly transactions as more Filipinos turn to cashless options.",
      "datePosted": "Aug 18, 2021 | 01:02 PM",
      "titleFromTag": "Partners"
    },
    {
      "title": "RUSH, Paymongo Offer Zero Transaction Fees for SMEs",
      "nonclickable": false,
      "openNewTab": false,
      "borderArticle": "border-color:#0074D9;",
      "borderTopArticle": "border-top-color:#0074D9;",
      "imageListing": "/sites/globe.com.ph/files/content/dam/globe/brie/AboutUs/newsroom/917ventures/rush-paymongo-offer-zero-transaction-fees-smes/newsroom-917ventures-paymongo-zero-fees-thumbnail-listing.jpg",
      "articleUrl": "https://www.globe.com.ph/about-us/newsroom/917ventures/rush-paymongo-offer-zero-transaction-fees-SMEs.html",
      "columnType": "articles--type-3",
      "typeListing": "article",
      "imageMobile": "/sites/globe.com.ph/files/content/dam/globe/brie/AboutUs/newsroom/917ventures/rush-paymongo-offer-zero-transaction-fees-smes/newsroom-917ventures-paymongo-zero-fees-primary-thumbnail-m.jpg",
      "imageDesktop": "/sites/globe.com.ph/files/content/dam/globe/brie/AboutUs/newsroom/917ventures/rush-paymongo-offer-zero-transaction-fees-smes/newsroom-917ventures-paymongo-zero-fees-primary-thumbnail-d.jpg",
      "description": "RUSH, the loyalty and e-commerce solutions provider under Globe’s 917Ventures, is waiving transaction fees for small and medium enterprises (SMEs).",
      "datePosted": "Aug 18, 2021 | 12:14 PM",
      "titleFromTag": "917Ventures"
    },
    {
      "title": "Globe Assists Filipinos in Afghanistan with Roaming Credits, Free Prepaid Load",
      "nonclickable": false,
      "openNewTab": false,
      "borderArticle": "border-color:#0074D9;",
      "borderTopArticle": "border-top-color:#0074D9;",
      "imageListing": "/sites/globe.com.ph/files/content/dam/globe/brie/AboutUs/newsroom/consumer/globe-assists-filipinos-afghanistan-roaming-credits-free-prepaid-load/default-business-2-thumbnail-listing.jpg",
      "articleUrl": "https://www.globe.com.ph/about-us/newsroom/consumer/globe-assists-filipinos-afghanistan-roaming-credits-free-prepaid-load.html",
      "columnType": "articles--type-3",
      "typeListing": "article",
      "imageMobile": "/sites/globe.com.ph/files/content/dam/globe/brie/AboutUs/newsroom/consumer/globe-assists-filipinos-afghanistan-roaming-credits-free-prepaid-load/default-business-2-primary-thumbnail-m.jpg",
      "imageDesktop": "/sites/globe.com.ph/files/content/dam/globe/brie/AboutUs/newsroom/consumer/globe-assists-filipinos-afghanistan-roaming-credits-free-prepaid-load/default-business-2-primary-thumbnail-d.jpg",
      "description": "Globe provides assistance in the form of free prepaid load and postpaid credits to customers currently in the conflict-torn Afghanistan.",
      "datePosted": "Aug 18, 2021 | 08:50 AM",
      "titleFromTag": "Consumer"
    },
    {
      "title": "Leading Better, Succeeding Better: Entrepreneurial Tips and Lessons from Globe Business",
      "nonclickable": false,
      "openNewTab": false,
      "borderArticle": "border-color:#0074D9;",
      "borderTopArticle": "border-top-color:#0074D9;",
      "imageListing": "/sites/globe.com.ph/files/content/dam/globe/brie/AboutUs/newsroom/consumer/entrepreneurial-tips-lessons-globe-business/Newsroom-Business-Entrepreneurial-Tips-thumbnail-listing.jpg",
      "articleUrl": "https://www.globe.com.ph/about-us/newsroom/business/entrepreneurial-tips-lessons-globe-business.html",
      "columnType": "articles--type-3",
      "typeListing": "article",
      "imageMobile": "/sites/globe.com.ph/files/content/dam/globe/brie/AboutUs/newsroom/consumer/entrepreneurial-tips-lessons-globe-business/Newsroom-Business-Entrepreneurial-Tips-primary-thumbnail-m.jpg",
      "imageDesktop": "/sites/globe.com.ph/files/content/dam/globe/brie/AboutUs/newsroom/consumer/entrepreneurial-tips-lessons-globe-business/Newsroom-Business-Entrepreneurial-Tips-primary-thumbnail-d.jpg",
      "description": "Over 330 participants from different industries attended the virtual Globe Business event to learn game-changing tips and solutions to improve their businesses.",
      "datePosted": "Aug 17, 2021 | 02:14 PM",
      "titleFromTag": "Business"
    }
  ]
}
