{
  "status": 200,
  "page": 105,
  "totalPage": 298,
  "range": "1249-1260",
  "total": 3573,
  "result": [
    {
      "title": "Globe Sees Potential in PH Esports, Supports Local Gamers & Developers",
      "nonclickable": false,
      "openNewTab": false,
      "borderArticle": "border-color:#0074D9;",
      "borderTopArticle": "border-top-color:#0074D9;",
      "imageListing": "/sites/globe.com.ph/files/content/dam/globe/brie/AboutUs/newsroom/sustainability/globe-games-esports-continue-thrive/newsroom-sustainability-sports-league-of-legends-thumbnail-listing.jpg",
      "articleUrl": "https://www.globe.com.ph/about-us/newsroom/sustainability/globe-sees-potential-ph-esports.html",
      "columnType": "articles--type-3",
      "typeListing": "article",
      "imageMobile": "/sites/globe.com.ph/files/content/dam/globe/brie/AboutUs/newsroom/sustainability/globe-games-esports-continue-thrive/newsroom-sustainability-sports-league-of-legends-primary-thumbnail-m.jpg",
      "imageDesktop": "/sites/globe.com.ph/files/content/dam/globe/brie/AboutUs/newsroom/sustainability/globe-games-esports-continue-thrive/newsroom-sustainability-sports-league-of-legends-primary-thumbnail-d.jpg",
      "description": "As an enabler of a seamless digital lifestyle, Globe is committed to solidifying the country’s position among regional and global Esports giants.",
      "datePosted": "Aug 16, 2021 | 03:23 PM",
      "titleFromTag": "Sustainability"
    },
    {
      "title": "Globe Games and Esports Continue to Thrive, Fuel Passion During the Pandemic",
      "nonclickable": false,
      "openNewTab": false,
      "borderArticle": "border-color:#0074D9;",
      "borderTopArticle": "border-top-color:#0074D9;",
      "imageListing": "/sites/globe.com.ph/files/content/dam/globe/brie/AboutUs/newsroom/sustainability/globe-games-esports-continue-thrive/newsroom-sustainability-sports-league-of-legends-thumbnail-listing.jpg",
      "articleUrl": "https://www.globe.com.ph/about-us/newsroom/sustainability/globe-games-esports-continue-thrive.html",
      "columnType": "articles--type-3",
      "typeListing": "article",
      "imageMobile": "/sites/globe.com.ph/files/content/dam/globe/brie/AboutUs/newsroom/sustainability/globe-games-esports-continue-thrive/newsroom-sustainability-sports-league-of-legends-primary-thumbnail-m.jpg",
      "imageDesktop": "/sites/globe.com.ph/files/content/dam/globe/brie/AboutUs/newsroom/sustainability/globe-games-esports-continue-thrive/newsroom-sustainability-sports-league-of-legends-primary-thumbnail-d.jpg",
      "description": "While the global health crisis forced people to stay in quarantine, it also opened the doors for digital Esports and new gaming content.",
      "datePosted": "Aug 16, 2021 | 03:23 PM",
      "titleFromTag": "Sustainability"
    },
    {
      "title": "HealthNow Turns 1, Now Serving over 500K Users Nationwide",
      "nonclickable": false,
      "openNewTab": false,
      "borderArticle": "border-color:#0074D9;",
      "borderTopArticle": "border-top-color:#0074D9;",
      "imageListing": "/sites/globe.com.ph/files/content/dam/globe/brie/AboutUs/newsroom/917ventures/healthnow-turns-one-serving-500k-users-nationwide/newsroom-sustainability-healthnow-thumbnail-listing.jpg",
      "articleUrl": "https://www.globe.com.ph/about-us/newsroom/917ventures/healthnow-turns-one-serving-500K-users-nationwide.html",
      "columnType": "articles--type-3",
      "typeListing": "article",
      "imageMobile": "/sites/globe.com.ph/files/content/dam/globe/brie/AboutUs/newsroom/917ventures/healthnow-turns-one-serving-500k-users-nationwide/newsroom-sustainability-healthnow-free-consultation-primary-thumbnail-m.jpg",
      "imageDesktop": "/sites/globe.com.ph/files/content/dam/globe/brie/AboutUs/newsroom/917ventures/healthnow-turns-one-serving-500k-users-nationwide/newsroom-sustainability-healthnow-free-consultation-primary-thumbnail-d.jpg",
      "description": "HealthNow, the all-in-one health app developed by AC Health and Globe’s 917Ventures, has noted over half a million users nationwide in its first year.",
      "datePosted": "Aug 16, 2021 | 02:46 PM",
      "titleFromTag": "917Ventures"
    },
    {
      "title": "HealtNow Gives Back to Filipinos with “HealthDay” Free Doctor’s Consultation and Medicine Deliveries",
      "nonclickable": false,
      "openNewTab": false,
      "borderArticle": "border-color:#0074D9;",
      "borderTopArticle": "border-top-color:#0074D9;",
      "imageListing": "/sites/globe.com.ph/files/content/dam/globe/brie/AboutUs/newsroom/sustainability/healthnow-gives-back-to-filipinos-healthday-free-consultation/newsroom-business-cascadeo-cloud-gartner-thumbnail-listing.jpg",
      "articleUrl": "https://www.globe.com.ph/about-us/newsroom/sustainability/healthnow-gives-back-to-filipinos-healthday-free-consultation.html",
      "columnType": "articles--type-3",
      "typeListing": "article",
      "imageMobile": "/sites/globe.com.ph/files/content/dam/globe/brie/AboutUs/newsroom/sustainability/healthnow-gives-back-to-filipinos-healthday-free-consultation/newsroom-business-cascadeo-cloud-gartner-primary-thumbnail-m.jpg",
      "imageDesktop": "/sites/globe.com.ph/files/content/dam/globe/brie/AboutUs/newsroom/sustainability/healthnow-gives-back-to-filipinos-healthday-free-consultation/newsroom-business-cascadeo-cloud-gartner-primary-thumbnail-d.jpg",
      "description": "HealthNow is giving free video teleconsultations and medicine deliveries for registered users in line with its first anniversary.",
      "datePosted": "Aug 13, 2021 | 05:22 PM",
      "titleFromTag": "Sustainability"
    },
    {
      "title": "Globe’s 8,000 Workforce Benefit from Digital Learning",
      "nonclickable": false,
      "openNewTab": false,
      "borderArticle": "border-color:#0074D9;",
      "borderTopArticle": "border-top-color:#0074D9;",
      "imageListing": "/sites/globe.com.ph/files/content/dam/globe/brie/AboutUs/newsroom/corporate/globe-workforce-benefit-digital-learning/newsroom-corp-workforce-digital-learning-thumbnail-listing.jpg",
      "articleUrl": "https://www.globe.com.ph/about-us/newsroom/corporate/globe-workforce-benefit-digital-learning.html",
      "columnType": "articles--type-3",
      "typeListing": "article",
      "imageMobile": "/sites/globe.com.ph/files/content/dam/globe/brie/AboutUs/newsroom/corporate/globe-workforce-benefit-digital-learning/newsroom-corp-workforce-digital-learning-primary-thumbnail-m.jpg",
      "imageDesktop": "/sites/globe.com.ph/files/content/dam/globe/brie/AboutUs/newsroom/corporate/globe-workforce-benefit-digital-learning/newsroom-corp-workforce-digital-learning-primary-thumbnail-d.jpg",
      "description": "Globe has invested more than P63 million for the learning and development of its over 8,000 employees through Globe University.",
      "datePosted": "Aug 13, 2021 | 11:31 AM",
      "titleFromTag": "Corporate"
    },
    {
      "title": "Globe Business, Unilever Collaborate to Give Students Access to Free Data for Online Learning",
      "nonclickable": false,
      "openNewTab": false,
      "borderArticle": "border-color:#0074D9;",
      "borderTopArticle": "border-top-color:#0074D9;",
      "imageListing": "/sites/globe.com.ph/files/content/dam/globe/brie/AboutUs/newsroom/business/globe-business-unilever-give-students-free-data/v2/newsroom-partners-unilever-free-thumbnail-listing.jpg",
      "articleUrl": "https://www.globe.com.ph/about-us/newsroom/partners/globe-business-unilever-give-students-free-data.html",
      "columnType": "articles--type-3",
      "typeListing": "article",
      "imageMobile": "/sites/globe.com.ph/files/content/dam/globe/brie/AboutUs/newsroom/business/globe-business-unilever-give-students-free-data/v2/newsroom-partners-unilever-free-primary-thumbnail-m.jpg",
      "imageDesktop": "/sites/globe.com.ph/files/content/dam/globe/brie/AboutUs/newsroom/business/globe-business-unilever-give-students-free-data/v2/newsroom-partners-unilever-free-data-primary-thumbnail-d.jpg",
      "description": "To help provide relief to distance learners struggling with connectivity, Globe Business and Unilever forged a partnership to give Filipino students free data.",
      "datePosted": "Aug 13, 2021 | 10:30 AM",
      "titleFromTag": "Partners"
    },
    {
      "title": "St. Francis College Taps Globe for More Efficient Distance Learning",
      "nonclickable": false,
      "openNewTab": false,
      "borderArticle": "border-color:#0074D9;",
      "borderTopArticle": "border-top-color:#0074D9;",
      "imageListing": "/sites/globe.com.ph/files/content/dam/globe/brie/AboutUs/newsroom/partners/st-francis-college-taps-globe-efficient-distance-learning/newsroom-partners-st-francis-distant-learning-thumbnail-listing.jpg",
      "articleUrl": "https://www.globe.com.ph/about-us/newsroom/partners/st-francis-college-taps-globe-efficient-distance-learning.html",
      "columnType": "articles--type-3",
      "typeListing": "article",
      "imageMobile": "/sites/globe.com.ph/files/content/dam/globe/brie/AboutUs/newsroom/partners/st-francis-college-taps-globe-efficient-distance-learning/newsroom-partners-st--francis-distant-learning-primary-thumbnail-m.jpg",
      "imageDesktop": "/sites/globe.com.ph/files/content/dam/globe/brie/AboutUs/newsroom/partners/st-francis-college-taps-globe-efficient-distance-learning/newsroom-partners-st-francis-distant-learning-primary-thumbnail-d.jpg",
      "description": "Negros Oriental-based St. Francis College recently partnered with Globe for its School Management System solution to digitize its daily operations.",
      "datePosted": "Aug 13, 2021 | 10:11 AM",
      "titleFromTag": "Partners"
    },
    {
      "title": "The Results Are In! Did Your Hallyu Faves and Idols Make the Cut in Globe Kmmunity PH’s First-Ever K’tizens’ Choice Awards?",
      "nonclickable": false,
      "openNewTab": false,
      "borderArticle": "border-color:#0074D9;",
      "borderTopArticle": "border-top-color:#0074D9;",
      "imageListing": "/sites/globe.com.ph/files/content/dam/globe/brie/AboutUs/newsroom/consumer/first-ever-kmmunity-ktizens-choice-awards-results/newsroom-consumer-results-faves-kmmunity-thumbnail-listing.jpg",
      "articleUrl": "https://www.globe.com.ph/about-us/newsroom/consumer/first-ever-kmmunity-ktizens-choice-awards-results.html",
      "columnType": "articles--type-3",
      "typeListing": "article",
      "imageMobile": "/sites/globe.com.ph/files/content/dam/globe/brie/AboutUs/newsroom/consumer/first-ever-kmmunity-ktizens-choice-awards-results/newsroom-consumer-results-faves-kmmunity-primary-thumbnail-m.jpg",
      "imageDesktop": "/sites/globe.com.ph/files/content/dam/globe/brie/AboutUs/newsroom/consumer/first-ever-kmmunity-ktizens-choice-awards-results/newsroom-consumer-results-faves-kmmunity-primary-thumbnail-d.jpg",
      "description": "Globe Kmmunity PH marked another milestone as it held its first-ever Kmmunity PH K’tizens’ Choice Awards, celebrating back-to-back daebak years.",
      "datePosted": "Aug 12, 2021 | 05:30 PM",
      "titleFromTag": "Consumer"
    },
    {
      "title": "Globe At Home Broadband Revenues Soar to All-Time High of P14.5B",
      "nonclickable": false,
      "openNewTab": false,
      "borderArticle": "border-color:#0074D9;",
      "borderTopArticle": "border-top-color:#0074D9;",
      "imageListing": "/sites/globe.com.ph/files/content/dam/globe/brie/AboutUs/newsroom/common/default-9/default-corporate-4-thumbnail-listing.jpg",
      "articleUrl": "https://www.globe.com.ph/about-us/newsroom/corporate/globe-at-home-broadbad-revenues-soar-all-time-high.html",
      "columnType": "articles--type-3",
      "typeListing": "article",
      "imageMobile": "/sites/globe.com.ph/files/content/dam/globe/brie/AboutUs/newsroom/common/default-9/default-corporate-4-primary-thumbnail-m.jpg",
      "imageDesktop": "/sites/globe.com.ph/files/content/dam/globe/brie/AboutUs/newsroom/common/default-9/default-corporate-4-primary-thumbnail-d.jpg",
      "description": "Globe At Home broadband business revenues soared to an all-time high of P14.5 billion in the first half of 2021, surpassing the same period last year.",
      "datePosted": "Aug 12, 2021 | 12:50 PM",
      "titleFromTag": "Corporate"
    },
    {
      "title": "Globe to Serve More Filipinos Abroad with 5G Roaming Expansion",
      "nonclickable": false,
      "openNewTab": false,
      "borderArticle": "border-color:#0074D9;",
      "borderTopArticle": "border-top-color:#0074D9;",
      "imageListing": "/sites/globe.com.ph/files/content/dam/globe/brie/AboutUs/newsroom/consumer/globe-serve-more-filipinos-abroad-5g-roaming-expansion/newsroom-consumer-abroad-5g-roaming-thumbnail-listing.jpg",
      "articleUrl": "https://www.globe.com.ph/about-us/newsroom/consumer/globe-serve-more-filipinos-abroad-5g-roaming-expansion.html",
      "columnType": "articles--type-3",
      "typeListing": "article",
      "imageMobile": "/sites/globe.com.ph/files/content/dam/globe/brie/AboutUs/newsroom/consumer/globe-serve-more-filipinos-abroad-5g-roaming-expansion/newsroom-consumer-abroad-5g-roaming-primary-thumbnail-m.jpg",
      "imageDesktop": "/sites/globe.com.ph/files/content/dam/globe/brie/AboutUs/newsroom/consumer/globe-serve-more-filipinos-abroad-5g-roaming-expansion/newsroom-consumer-abroad-5g-roaming-primary-thumbnail-d.jpg",
      "description": "Globe assures that Filipino travelers abroad will be able to access 5G roaming services when they travel to Japan, Turkey, and Switzerland.",
      "datePosted": "Aug 12, 2021 | 12:37 PM",
      "titleFromTag": "Consumer"
    },
    {
      "title": "Naubusan Ka ba ng Data for Online Classes? Don’t Worry, Sagot Ka ng Globe E-learning Loans",
      "nonclickable": false,
      "openNewTab": false,
      "borderArticle": "border-color:#0074D9;",
      "borderTopArticle": "border-top-color:#0074D9;",
      "imageListing": "/sites/globe.com.ph/files/content/dam/globe/brie/AboutUs/newsroom/consumer/sagot-ka-ng-globe-e-learning-loans/default-sustainability-1-thumbnail-listing.jpg",
      "articleUrl": "https://www.globe.com.ph/about-us/newsroom/consumer/sagot-ka-ng-globe-e-learning-loans.html",
      "columnType": "articles--type-3",
      "typeListing": "article",
      "imageMobile": "/sites/globe.com.ph/files/content/dam/globe/brie/AboutUs/newsroom/consumer/sagot-ka-ng-globe-e-learning-loans/default-sustainability-1-primary-thumbnail-m.jpg",
      "imageDesktop": "/sites/globe.com.ph/files/content/dam/globe/brie/AboutUs/newsroom/consumer/sagot-ka-ng-globe-e-learning-loans/default-sustainability-1-primary-thumbnail-d.jpg",
      "description": "Para ma-meet ang mobile data requirements ng mga mag-aaral pagdating ng pasukan, ang Globe E-Learning Loans ay may mas murang data promo.",
      "datePosted": "Aug 11, 2021 | 05:54 PM",
      "titleFromTag": "Consumer"
    },
    {
      "title": "Globe At Home Customers Get Free Tech Upgrades for Better Connectivity",
      "nonclickable": false,
      "openNewTab": false,
      "borderArticle": "border-color:#0074D9;",
      "borderTopArticle": "border-top-color:#0074D9;",
      "imageListing": "/sites/globe.com.ph/files/content/dam/globe/brie/AboutUs/newsroom/common/default-10/default-consumer-2-thumbnail-listing.jpg",
      "articleUrl": "https://www.globe.com.ph/about-us/newsroom/consumer/globe-at-home-customers-free-tech-upgrade.html",
      "columnType": "articles--type-3",
      "typeListing": "article",
      "imageMobile": "/sites/globe.com.ph/files/content/dam/globe/brie/AboutUs/newsroom/common/default-10/default-consumer-2-primary-thumbnail-m.jpg",
      "imageDesktop": "/sites/globe.com.ph/files/content/dam/globe/brie/AboutUs/newsroom/common/default-10/default-consumer-2-primary-thumbnail-d.jpg",
      "description": "Globe At Home is upgrading older broadband technology of its qualified serviceable customers for free to high-speed, fiber lines.",
      "datePosted": "Aug 11, 2021 | 11:18 AM",
      "titleFromTag": "Consumer"
    }
  ]
}
