{
  "status": 200,
  "page": 106,
  "totalPage": 298,
  "range": "1261-1272",
  "total": 3573,
  "result": [
    {
      "title": "Holy Infant Montessori Center Taps Globe to Elevate Online Education Capability",
      "nonclickable": false,
      "openNewTab": false,
      "borderArticle": "border-color:#0074D9;",
      "borderTopArticle": "border-top-color:#0074D9;",
      "imageListing": "/sites/globe.com.ph/files/content/dam/globe/brie/AboutUs/newsroom/partners/himc-globe-elevate-online-education-capability/newsroom-partners-montessori-elevate-education-thumbnail-listing.jpg",
      "articleUrl": "https://www.globe.com.ph/about-us/newsroom/partners/himc-globe-elevate-online-education-capability.html",
      "columnType": "articles--type-3",
      "typeListing": "article",
      "imageMobile": "/sites/globe.com.ph/files/content/dam/globe/brie/AboutUs/newsroom/partners/himc-globe-elevate-online-education-capability/newsroom-partners-montessori-elevate-education-primary-thumbnail-m.jpg",
      "imageDesktop": "/sites/globe.com.ph/files/content/dam/globe/brie/AboutUs/newsroom/partners/himc-globe-elevate-online-education-capability/newsroom-partners-montessori-elevate-education-primary-thumbnail-d.jpg",
      "description": "With learning likely to take place in virtual classrooms in this coming school year, HIMC tapped Globe to integrate technology into the school system.",
      "datePosted": "Aug 11, 2021 | 10:47 AM",
      "titleFromTag": "Partners"
    },
    {
      "title": "Globe Bests Competition on 5G with over 770K Devices Connected to Network",
      "nonclickable": false,
      "openNewTab": false,
      "borderArticle": "border-color:#0074D9;",
      "borderTopArticle": "border-top-color:#0074D9;",
      "imageListing": "/sites/globe.com.ph/files/content/dam/globe/brie/AboutUs/newsroom/consumer/globe-bests-competition-5g-770k-devices-connected/newsroom-consumer-5g-connected-network-thumbnail-listing.jpg",
      "articleUrl": "https://www.globe.com.ph/about-us/newsroom/consumer/globe-bests-competition-5G-770k-devices-connected.html",
      "columnType": "articles--type-3",
      "typeListing": "article",
      "imageMobile": "/sites/globe.com.ph/files/content/dam/globe/brie/AboutUs/newsroom/consumer/globe-bests-competition-5g-770k-devices-connected/newsroom-consumer-5g-connected-network-primary-thumbnail-m.jpg",
      "imageDesktop": "/sites/globe.com.ph/files/content/dam/globe/brie/AboutUs/newsroom/consumer/globe-bests-competition-5g-770k-devices-connected/newsroom-consumer-5g-connected-network-primary-thumbnail-d.jpg",
      "description": "Globe has more than 770,000 5G devices connected to its network as of June 2021, beating competition’s 520,000 as reported.",
      "datePosted": "Aug 11, 2021 | 01:47 AM",
      "titleFromTag": "Consumer"
    },
    {
      "title": "917ventures Marks Two Years of Impactful Innovations and Uplifting Lives",
      "nonclickable": false,
      "openNewTab": false,
      "borderArticle": "border-color:#0074D9;",
      "borderTopArticle": "border-top-color:#0074D9;",
      "imageListing": "/sites/globe.com.ph/files/content/dam/globe/brie/AboutUs/newsroom/sustainability/917ventures-two-years-impactful-innovations-uplifting-lives/newsroom-sustainability-917-innovation-lives-thumbnail-listing.jpg",
      "articleUrl": "https://www.globe.com.ph/about-us/newsroom/sustainability/917ventures-two-years-impactful-innovations-uplifting-lives.html",
      "columnType": "articles--type-3",
      "typeListing": "article",
      "imageMobile": "/sites/globe.com.ph/files/content/dam/globe/brie/AboutUs/newsroom/sustainability/917ventures-two-years-impactful-innovations-uplifting-lives/newsroom-sustainability-917-innovation-lives-primary-thumbnail-m.jpg",
      "imageDesktop": "/sites/globe.com.ph/files/content/dam/globe/brie/AboutUs/newsroom/sustainability/917ventures-two-years-impactful-innovations-uplifting-lives/newsroom-sustainability-917-innovation-lives--primary-thumbnail-d.jpg",
      "description": "Globe’s resident venture builder, 917Ventures, is celebrating two years of innovative solutions that address everyday challenges.",
      "datePosted": "Aug 10, 2021 | 01:09 PM",
      "titleFromTag": "Sustainability"
    },
    {
      "title": "Globe Outperforms Competition in Data Traffic; still the Preferred Mobile Network by Customers",
      "nonclickable": false,
      "openNewTab": false,
      "borderArticle": "border-color:#0074D9;",
      "borderTopArticle": "border-top-color:#0074D9;",
      "imageListing": "/sites/globe.com.ph/files/content/dam/globe/brie/AboutUs/newsroom/common/updated/Corporate-globe-thumbnail-listing.jpg",
      "articleUrl": "https://www.globe.com.ph/about-us/newsroom/corporate/globe-outperforms-competition-data-traffic.html",
      "columnType": "articles--type-3",
      "typeListing": "article",
      "imageMobile": "/sites/globe.com.ph/files/content/dam/globe/brie/AboutUs/newsroom/common/updated/Corporate-globe-primary-thumbnail-m.jpg",
      "imageDesktop": "/sites/globe.com.ph/files/content/dam/globe/brie/AboutUs/newsroom/common/updated/Corporate-globe-primary-thumbnail-d.jpg",
      "description": "The country’s mobile leader Globe posted mobile data traffic of 1,761 petabytes in the first half of 2021, a 59% increase versus the same period last year.",
      "datePosted": "Aug 09, 2021 | 02:49 PM",
      "titleFromTag": "Corporate"
    },
    {
      "title": "Cascadeo, Globe’s Cloud Company, Named in Gartner Magic Quadrant",
      "nonclickable": false,
      "openNewTab": false,
      "borderArticle": "border-color:#0074D9;",
      "borderTopArticle": "border-top-color:#0074D9;",
      "imageListing": "/sites/globe.com.ph/files/content/dam/globe/brie/AboutUs/newsroom/business/cascadeo-global-leader-gartner-magic-quadrant/newsroom-business-cascadeo-cloud-gartner-thumbnail-listing.jpg",
      "articleUrl": "https://www.globe.com.ph/about-us/newsroom/business/cascadeo-globe-cloud-company-gartner-magic-quadrant.html",
      "columnType": "articles--type-3",
      "typeListing": "article",
      "imageMobile": "/sites/globe.com.ph/files/content/dam/globe/brie/AboutUs/newsroom/business/cascadeo-global-leader-gartner-magic-quadrant/newsroom-business-cascadeo-cloud-gartner-primary-thumbnail-m.jpg",
      "imageDesktop": "/sites/globe.com.ph/files/content/dam/globe/brie/AboutUs/newsroom/business/cascadeo-global-leader-gartner-magic-quadrant/newsroom-business-cascadeo-cloud-gartner-primary-thumbnail-d.jpg",
      "description": "Cascadeo achieved an impressive milestone by landing in the Gartner Magic Quadrant for Public Cloud IT Transformation Services, Global 2021. ",
      "datePosted": "Aug 09, 2021 | 01:23 PM",
      "titleFromTag": "Business"
    },
    {
      "title": "Globe Brings GoWiFi, Konektayo Connectivity to Negros Island’s Sagay City",
      "nonclickable": false,
      "openNewTab": false,
      "borderArticle": "border-color:#0074D9;",
      "borderTopArticle": "border-top-color:#0074D9;",
      "imageListing": "/sites/globe.com.ph/files/content/dam/globe/brie/AboutUs/newsroom/sustainability/gowifi-konektayo-connectivity-negros-island-sagay-city/newsroom-sustainability-gowifi-konektayo-sagay-thumbnail-listing.jpg",
      "articleUrl": "https://www.globe.com.ph/about-us/newsroom/sustainability/gowifi-konektayo-connectivity-negros-island-sagay-city.html",
      "columnType": "articles--type-3",
      "typeListing": "article",
      "imageMobile": "/sites/globe.com.ph/files/content/dam/globe/brie/AboutUs/newsroom/sustainability/gowifi-konektayo-connectivity-negros-island-sagay-city/newsroom-sustainability-gowifi-konektayo-sagay-primary-thumbnail-m.jpg",
      "imageDesktop": "/sites/globe.com.ph/files/content/dam/globe/brie/AboutUs/newsroom/sustainability/gowifi-konektayo-connectivity-negros-island-sagay-city/newsroom-sustainability-gowifi-konektayo-sagay-primary-thumbnail-d.jpg",
      "description": "Globe and the Sagay City government joined hands to enable WiFi connectivity to keep residents informed, safe and connected.",
      "datePosted": "Aug 06, 2021 | 09:46 AM",
      "titleFromTag": "Sustainability"
    },
    {
      "title": "Globe Business Empowers IT-BPM Sector to Own Success Through Work-From-Anywhere Digital Solutions",
      "nonclickable": false,
      "openNewTab": false,
      "borderArticle": "border-color:#0074D9;",
      "borderTopArticle": "border-top-color:#0074D9;",
      "imageListing": "/sites/globe.com.ph/files/content/dam/globe/brie/AboutUs/newsroom/business/it-bpm-sector-work-from-anywhere-digital-solutions/newsroom-business-it-bpm-sector-thumbnail-listing.jpg",
      "articleUrl": "https://www.globe.com.ph/about-us/newsroom/business/it-bpm-sector-work-from-anywhere-digital-solutions.html",
      "columnType": "articles--type-3",
      "typeListing": "article",
      "imageMobile": "/sites/globe.com.ph/files/content/dam/globe/brie/AboutUs/newsroom/business/it-bpm-sector-work-from-anywhere-digital-solutions/newsroom-business-it-bpm-sector-primary-thumbnail-m.jpg",
      "imageDesktop": "/sites/globe.com.ph/files/content/dam/globe/brie/AboutUs/newsroom/business/it-bpm-sector-work-from-anywhere-digital-solutions/newsroom-business-it-bpm-sector-primary-thumbnail-d.jpg",
      "description": "As we evolve with changing work structures and product delivery, companies are expected to continue reinforcing a hybrid working model. ",
      "datePosted": "Aug 06, 2021 | 08:32 AM",
      "titleFromTag": "Business"
    },
    {
      "title": "Mark Your Calendars: Kmmunity PH’s First-Ever K’tizens’ Choice Awards Happens on August 7!",
      "nonclickable": false,
      "openNewTab": false,
      "borderArticle": "border-color:#0074D9;",
      "borderTopArticle": "border-top-color:#0074D9;",
      "imageListing": "/sites/globe.com.ph/files/content/dam/globe/brie/AboutUs/newsroom/consumer/kmmunity-ph-first-ktizens-choice-awards/newsroom-consumer-kmmunity-ph-first-thumbnail-listing.jpg",
      "articleUrl": "https://www.globe.com.ph/about-us/newsroom/consumer/kmmunity-ph-first-ktizens-choice-awards.html",
      "columnType": "articles--type-3",
      "typeListing": "article",
      "imageMobile": "/sites/globe.com.ph/files/content/dam/globe/brie/AboutUs/newsroom/consumer/kmmunity-ph-first-ktizens-choice-awards/newsroom-consumer-kmmunity-ph-first-primary-thumbnail-m.jpg",
      "imageDesktop": "/sites/globe.com.ph/files/content/dam/globe/brie/AboutUs/newsroom/consumer/kmmunity-ph-first-ktizens-choice-awards/newsroom-consumer-kmmunity-ph-first-primary-thumbnail-d.jpg",
      "description": "The K’tizens have spoken and the countdown to the first-ever K’tizens’ Choice Awards begins!",
      "datePosted": "Aug 05, 2021 | 03:35 PM",
      "titleFromTag": "Consumer"
    },
    {
      "title": "Fuel your Fandom with Limited Edition BLACKPINK Merchandise Up for Grabs from Globe At Home",
      "nonclickable": false,
      "openNewTab": false,
      "borderArticle": "border-color:#0074D9;",
      "borderTopArticle": "border-top-color:#0074D9;",
      "imageListing": "/sites/globe.com.ph/files/content/dam/globe/brie/AboutUs/newsroom/consumer/limited-edition-blackpink-merchandise-globe-at-home/newsroom-consumer-limited-edition-blackpink-thumbnail-listing.jpg",
      "articleUrl": "https://www.globe.com.ph/about-us/newsroom/consumer/limited-edition-blackpink-merchandise-globe-at-home.html",
      "columnType": "articles--type-3",
      "typeListing": "article",
      "imageMobile": "/sites/globe.com.ph/files/content/dam/globe/brie/AboutUs/newsroom/consumer/limited-edition-blackpink-merchandise-globe-at-home/newsroom-consumer-limited-edition-blackpink-primary-thumbnail-m.jpg",
      "imageDesktop": "/sites/globe.com.ph/files/content/dam/globe/brie/AboutUs/newsroom/consumer/limited-edition-blackpink-merchandise-globe-at-home/newsroom-consumer-limited-edition-blackpink-primary-thumbnail-d.jpg",
      "description": "Amplify your love for BLACKPINK’s JISOO, JENNIE, ROSÉ, and LISA with exclusive and limited edition BLACKPINK merchandise only from Globe At Home.",
      "datePosted": "Aug 05, 2021 | 02:05 PM",
      "titleFromTag": "Consumer"
    },
    {
      "title": "5G to Reach More Globe, TM Customers with New and Affordable 5G Promos and Devices",
      "nonclickable": false,
      "openNewTab": false,
      "borderArticle": "border-color:#0074D9;",
      "borderTopArticle": "border-top-color:#0074D9;",
      "imageListing": "/sites/globe.com.ph/files/content/dam/globe/brie/AboutUs/newsroom/consumer/5g-reach-globe-tm-customers-affordable-5g-promos-devices/newsroom-consumer-5g-reach-customers-thumbnail-listing.jpg",
      "articleUrl": "https://www.globe.com.ph/about-us/newsroom/consumer/5g-reach-globe-tm-customers-affordable-5g-promos-devices.html",
      "columnType": "articles--type-3",
      "typeListing": "article",
      "imageMobile": "/sites/globe.com.ph/files/content/dam/globe/brie/AboutUs/newsroom/consumer/5g-reach-globe-tm-customers-affordable-5g-promos-devices/newsroom-consumer-5g-reach-customers-primary-thumbnail-m.jpg",
      "imageDesktop": "/sites/globe.com.ph/files/content/dam/globe/brie/AboutUs/newsroom/consumer/5g-reach-globe-tm-customers-affordable-5g-promos-devices/newsroom-consumer-5g-reach-customers-primary-thumbnail-d.jpg",
      "description": "Globe, the country’s pioneer in fifth-generation (5G) technology,  is set to break more barriers with UNLI 5G offers for Prepaid, Postpaid, Platinum, and TM.",
      "datePosted": "Aug 04, 2021 | 03:44 PM",
      "titleFromTag": "Consumer"
    },
    {
      "title": "Robust Network to Unleash PH’s Digital Economy",
      "nonclickable": false,
      "openNewTab": false,
      "borderArticle": "border-color:#0074D9;",
      "borderTopArticle": "border-top-color:#0074D9;",
      "imageListing": "/sites/globe.com.ph/files/content/dam/globe/brie/AboutUs/newsroom/consumer/robust-network-unleash-ph-digital-economy/newsroom-sustainability-robust-network-unleash-thumbnail-listing.jpg",
      "articleUrl": "https://www.globe.com.ph/about-us/newsroom/sustainability/robust-network-unleash-ph-digital-economy.html",
      "columnType": "articles--type-3",
      "typeListing": "article",
      "imageMobile": "/sites/globe.com.ph/files/content/dam/globe/brie/AboutUs/newsroom/consumer/robust-network-unleash-ph-digital-economy/newsroom-sustainability-robust-network-unleash-primary-thumbnail-m.jpg",
      "imageDesktop": "/sites/globe.com.ph/files/content/dam/globe/brie/AboutUs/newsroom/consumer/robust-network-unleash-ph-digital-economy/newsroom-sustainability-robust-network-unleash-primary-thumbnail-d.jpg",
      "description": "A robust digital network to roll out advancements such as 5G technology can help address everyday problems of Filipinos. Learn more on the Globe Newsroom.",
      "datePosted": "Aug 04, 2021 | 10:24 AM",
      "titleFromTag": "Sustainability"
    },
    {
      "title": "Wild Rift Fans Get Elevated 5G Experience with New Globe RiotGO Promos",
      "nonclickable": false,
      "openNewTab": false,
      "borderArticle": "border-color:#0074D9;",
      "borderTopArticle": "border-top-color:#0074D9;",
      "imageListing": "/sites/globe.com.ph/files/content/dam/globe/brie/AboutUs/newsroom/consumer/wild-rift-fans-5g-experience-new-riotgo-promos/newsroom-consumer-wild-rift-fans-thumbnail-listing.jpg",
      "articleUrl": "https://www.globe.com.ph/about-us/newsroom/consumer/wild-rift-fans-5g-experience-new-riotgo-promos.html",
      "columnType": "articles--type-3",
      "typeListing": "article",
      "imageMobile": "/sites/globe.com.ph/files/content/dam/globe/brie/AboutUs/newsroom/consumer/wild-rift-fans-5g-experience-new-riotgo-promos/newsroom-consumer-wild-rift-fans-primary-thumbnail-m.jpg",
      "imageDesktop": "/sites/globe.com.ph/files/content/dam/globe/brie/AboutUs/newsroom/consumer/wild-rift-fans-5g-experience-new-riotgo-promos/newsroom-consumer-wild-rift-fans-primary-thumbnail-d.jpg",
      "description": "The highly-popular multiplayer battle arena game is best experienced using Globe’s 5G network.",
      "datePosted": "Aug 03, 2021 | 05:43 PM",
      "titleFromTag": "Consumer"
    }
  ]
}
