{
  "status": 200,
  "page": 107,
  "totalPage": 298,
  "range": "1273-1284",
  "total": 3573,
  "result": [
    {
      "title": "Globe Powers NCR, Rizal with 4G LTE and 5G network",
      "nonclickable": false,
      "openNewTab": false,
      "borderArticle": "border-color:#0074D9;",
      "borderTopArticle": "border-top-color:#0074D9;",
      "imageListing": "/sites/globe.com.ph/files/content/dam/globe/brie/AboutUs/newsroom/corporate/799-permits-1q-2021-new-towers/default-corporate-9-thumbnail-listing.jpg",
      "articleUrl": "https://www.globe.com.ph/about-us/newsroom/corporate/globe-powers-ncr-rizal-4g-lte-5g-network.html",
      "columnType": "articles--type-3",
      "typeListing": "article",
      "imageMobile": "/sites/globe.com.ph/files/content/dam/globe/brie/AboutUs/newsroom/corporate/799-permits-1q-2021-new-towers/default-corporate-9-primary-thumbnail-m.jpg",
      "imageDesktop": "/sites/globe.com.ph/files/content/dam/globe/brie/AboutUs/newsroom/corporate/799-permits-1q-2021-new-towers/default-corporate-9-primary-thumbnail-d.jpg",
      "description": "Starting August 1, 2021, the country’s economic epicenter will be predominantly using 4G LTE and 5G technologies.",
      "datePosted": "Aug 03, 2021 | 11:04 AM",
      "titleFromTag": "Corporate"
    },
    {
      "title": "#ExtraCareAtHome: Globe Continues Service Support to Customers as NCR Placed Under ECQ",
      "nonclickable": false,
      "openNewTab": false,
      "borderArticle": "border-color:#0074D9;",
      "borderTopArticle": "border-top-color:#0074D9;",
      "imageListing": "/sites/globe.com.ph/files/content/dam/globe/brie/AboutUs/newsroom/consumer/extracareathome-globe-continues-service-support-customers-ncr-ecq/newsroom-consumer-extracareathome-continues-service-thumbnail-listing.jpg",
      "articleUrl": "https://www.globe.com.ph/about-us/newsroom/consumer/extracareathome-globe-continues-service-support-customers-ncr-ecq.html",
      "columnType": "articles--type-3",
      "typeListing": "article",
      "imageMobile": "/sites/globe.com.ph/files/content/dam/globe/brie/AboutUs/newsroom/consumer/extracareathome-globe-continues-service-support-customers-ncr-ecq/newsroom-consumer-extracareathome-continues-service-primary-thumbnail-m.jpg",
      "imageDesktop": "/sites/globe.com.ph/files/content/dam/globe/brie/AboutUs/newsroom/consumer/extracareathome-globe-continues-service-support-customers-ncr-ecq/newsroom-consumer-extracareathome-continues-service-primary-thumbnail-d.jpg",
      "description": "Globe assures its customers that it will continuously deliver service support and #ExtraCareAtHome despite the new lockdown. ",
      "datePosted": "Aug 03, 2021 | 11:03 AM",
      "titleFromTag": "Consumer"
    },
    {
      "title": "Globe Installs 641 New Cell Towers, Completes Over 8,100 Site Upgrades in 1H 2021",
      "nonclickable": false,
      "openNewTab": false,
      "borderArticle": "border-color:#0074D9;",
      "borderTopArticle": "border-top-color:#0074D9;",
      "imageListing": "/sites/globe.com.ph/files/content/dam/globe/brie/AboutUs/newsroom/corporate/new-cell-towers-completes-sites-upgrade-bukidnon/corporate-default-6-thumbnail-listing.jpg",
      "articleUrl": "https://www.globe.com.ph/about-us/newsroom/corporate/new-cell-towers-site-upgrades-1h-2021.html",
      "columnType": "articles--type-3",
      "typeListing": "article",
      "imageMobile": "/sites/globe.com.ph/files/content/dam/globe/brie/AboutUs/newsroom/corporate/new-cell-towers-completes-sites-upgrade-bukidnon/corporate-default-6-primary-thumbnail-m.jpg",
      "imageDesktop": "/sites/globe.com.ph/files/content/dam/globe/brie/AboutUs/newsroom/corporate/new-cell-towers-completes-sites-upgrade-bukidnon/corporate-default-6-primary-thumbnail-d.jpg",
      "description": "Through Globe's continued network modernization effort, 641 new cell towers have been built and 8,175 site upgrades completed in the first half of the year",
      "datePosted": "Aug 03, 2021 | 10:54 AM",
      "titleFromTag": "Corporate"
    },
    {
      "title": "Farm Box Wins Big at Globe Business’ Hack-It-On Competition",
      "nonclickable": false,
      "openNewTab": false,
      "borderArticle": "border-color:#0074D9;",
      "borderTopArticle": "border-top-color:#0074D9;",
      "imageListing": "/sites/globe.com.ph/files/content/dam/globe/brie/AboutUs/newsroom/business/farm-box-wins-big-globe-business-hack-it-on/newsroom-business-farm-box-wins-thumbnail-listing.jpg",
      "articleUrl": "https://www.globe.com.ph/about-us/newsroom/business/farm-box-wins-big-globe-business-hack-it-on.html",
      "columnType": "articles--type-3",
      "typeListing": "article",
      "imageMobile": "/sites/globe.com.ph/files/content/dam/globe/brie/AboutUs/newsroom/business/farm-box-wins-big-globe-business-hack-it-on/newsroom-business-farm-box-wins-primary-thumbnail-m.jpg",
      "imageDesktop": "/sites/globe.com.ph/files/content/dam/globe/brie/AboutUs/newsroom/business/farm-box-wins-big-globe-business-hack-it-on/newsroom-business-farm-box-wins-primary-thumbnail-d.jpg",
      "description": "Farm Box, a start-up that enables any individual to invest in local farmers, is the grand winner of Globe’s business Hack-it-On competition.",
      "datePosted": "Aug 02, 2021 | 03:50 PM",
      "titleFromTag": "Business"
    },
    {
      "title": "Globe Welcomes Mandaluyong LGU’s Support for More Telco Infrastructure",
      "nonclickable": false,
      "openNewTab": false,
      "borderArticle": "border-color:#0074D9;",
      "borderTopArticle": "border-top-color:#0074D9;",
      "imageListing": "/sites/globe.com.ph/files/content/dam/globe/brie/AboutUs/newsroom/common/updated/Corporate-globe-thumbnail-listing.jpg",
      "articleUrl": "https://www.globe.com.ph/about-us/newsroom/sustainability/globe-welcomes-mandaluyong-lgu-support-telco-infrastructure.html",
      "columnType": "articles--type-3",
      "typeListing": "article",
      "imageMobile": "/sites/globe.com.ph/files/content/dam/globe/brie/AboutUs/newsroom/common/updated/Corporate-globe-primary-thumbnail-m.jpg",
      "imageDesktop": "/sites/globe.com.ph/files/content/dam/globe/brie/AboutUs/newsroom/common/updated/Corporate-globe-primary-thumbnail-d.jpg",
      "description": "Globe welcomes Mandaluyong City’s recently released resolution strongly supporting Information and Communications Technology (ICT) projects, including the rapid construction of cell sites in the area.",
      "datePosted": "Aug 02, 2021 | 03:14 PM",
      "titleFromTag": "Sustainability"
    },
    {
      "title": "Globe Rewards Gives Out Essential Vouchers for Healthcare and Protection",
      "nonclickable": false,
      "openNewTab": false,
      "borderArticle": "border-color:#0074D9;",
      "borderTopArticle": "border-top-color:#0074D9;",
      "imageListing": "/sites/globe.com.ph/files/content/dam/globe/brie/AboutUs/newsroom/common/updated/Corporate-globe-thumbnail-listing.jpg",
      "articleUrl": "https://www.globe.com.ph/about-us/newsroom/sustainability/globe-rewards-essential-vouchers-healthcare-protection.html",
      "columnType": "articles--type-3",
      "typeListing": "article",
      "imageMobile": "/sites/globe.com.ph/files/content/dam/globe/brie/AboutUs/newsroom/common/updated/Corporate-globe-primary-thumbnail-m.jpg",
      "imageDesktop": "/sites/globe.com.ph/files/content/dam/globe/brie/AboutUs/newsroom/common/updated/Corporate-globe-primary-thumbnail-d.jpg",
      "description": "Essential vouchers for healthcare, protection, and insurance await Globe customers to keep them safe and secure, especially during the pandemic.",
      "datePosted": "Jul 30, 2021 | 02:22 PM",
      "titleFromTag": "Sustainability"
    },
    {
      "title": "Globe Rolls Out E-Skwela to Equip Educators with Powerful Tools for 21st Century Learning",
      "nonclickable": false,
      "openNewTab": false,
      "borderArticle": "border-color:#0074D9;",
      "borderTopArticle": "border-top-color:#0074D9;",
      "imageListing": "/sites/globe.com.ph/files/content/dam/globe/brie/AboutUs/newsroom/business/globe-e-skwela-equip-educatiors-21st-century-learning/newsroom-business-e-skwela-equip-thumbnail-listing.jpg",
      "articleUrl": "https://www.globe.com.ph/about-us/newsroom/business/globe-e-skwela-equip-educatiors-21st-century-learning.html",
      "columnType": "articles--type-3",
      "typeListing": "article",
      "imageMobile": "/sites/globe.com.ph/files/content/dam/globe/brie/AboutUs/newsroom/business/globe-e-skwela-equip-educatiors-21st-century-learning/newsroom-business-e-skwela-equip-primary-thumbnail-m.jpg",
      "imageDesktop": "/sites/globe.com.ph/files/content/dam/globe/brie/AboutUs/newsroom/business/globe-e-skwela-equip-educatiors-21st-century-learning/newsroom-business-e-skwela-equip-primary-thumbnail-d.jpg",
      "description": "Globe has launched the second season of ‘E-Skwela Webinars’, in partnership with key stakeholders and industry experts.",
      "datePosted": "Jul 30, 2021 | 10:43 AM",
      "titleFromTag": "Business"
    },
    {
      "title": "SIM Swap Scam: Don’t be the Next Victim",
      "nonclickable": false,
      "openNewTab": false,
      "borderArticle": "border-color:#0074D9;",
      "borderTopArticle": "border-top-color:#0074D9;",
      "imageListing": "/sites/globe.com.ph/files/content/dam/globe/brie/AboutUs/newsroom/corporate/sim-swap-scam/newsroom-corporate-sim-swap-scam-thumbnail-listing.jpg",
      "articleUrl": "https://www.globe.com.ph/about-us/newsroom/corporate/sim-swap-scam.html",
      "columnType": "articles--type-3",
      "typeListing": "article",
      "imageMobile": "/sites/globe.com.ph/files/content/dam/globe/brie/AboutUs/newsroom/corporate/sim-swap-scam/newsroom-corporate-sim-swap-scam-primary-thumbnail-m.jpg",
      "imageDesktop": "/sites/globe.com.ph/files/content/dam/globe/brie/AboutUs/newsroom/corporate/sim-swap-scam/newsroom-corporate-sim-swap-scam-primary-thumbnail-d.jpg",
      "description": "A SIM swap is the last step to be carried out by the scammers in order to take over an individual’s financial accounts, be it banking, trading or credit cards. ",
      "datePosted": "Jul 29, 2021 | 01:39 PM",
      "titleFromTag": "Corporate"
    },
    {
      "title": "Globe’s ESG Efforts Recognized by FTSE4Good Index for 6th Consecutive Year",
      "nonclickable": false,
      "openNewTab": false,
      "borderArticle": "border-color:#1C91C5;",
      "borderTopArticle": "border-top-color:#1C91C5;",
      "imageListing": "/sites/globe.com.ph/files/content/dam/globe/brie/AboutUs/newsroom/sustainability/globe-esg-efforts-ftse4good-index-6th-consecutive-year/newsroom-sustainability-esg-efforts-ftse4good-thumbnail-listing.jpg",
      "articleUrl": "https://www.globe.com.ph/about-us/newsroom/sustainability/globe-esg-efforts-ftse4good-index-6th-consecutive-year.html",
      "columnType": "articles--type-3",
      "typeListing": "article",
      "imageMobile": "/sites/globe.com.ph/files/content/dam/globe/brie/AboutUs/newsroom/sustainability/globe-esg-efforts-ftse4good-index-6th-consecutive-year/newsroom-sustainability-esg-efforts-ftse4good-primary-thumbnail-m.jpg",
      "imageDesktop": "/sites/globe.com.ph/files/content/dam/globe/brie/AboutUs/newsroom/sustainability/globe-esg-efforts-ftse4good-index-6th-consecutive-year/newsroom-sustainability-esg-efforts-ftse4good-primary-thumbnail-d.jpg",
      "description": "Globe marked another milestone with its inclusion in the distinguished FTSE4Good Index Series for the sixth consecutive year.",
      "datePosted": "Jul 29, 2021 | 01:38 PM",
      "titleFromTag": "Sustainability"
    },
    {
      "title": "Make Watching Netflix and HBO GO a Fun Family Activity with Globe At Home Prepaid WiFi’s HomeWATCH and HomeSTREAM15 Promos",
      "nonclickable": false,
      "openNewTab": false,
      "borderArticle": "border-color:#0074D9;",
      "borderTopArticle": "border-top-color:#0074D9;",
      "imageListing": "/sites/globe.com.ph/files/content/dam/globe/brie/AboutUs/newsroom/consumer/netflix-hbo-go-home-prepaid-wifi-homewatch-homestream15/newsroom-consumer-netflix-hbo-go-thumbnail-listing.jpg",
      "articleUrl": "https://www.globe.com.ph/about-us/newsroom/consumer/netflix-hbo-go-home-prepaid-wifi-homewatch-homestream15.html",
      "columnType": "articles--type-3",
      "typeListing": "article",
      "imageMobile": "/sites/globe.com.ph/files/content/dam/globe/brie/AboutUs/newsroom/consumer/netflix-hbo-go-home-prepaid-wifi-homewatch-homestream15/newsroom-consumer-netflix-hbo-go-primary-thumbnail-m.jpg",
      "imageDesktop": "/sites/globe.com.ph/files/content/dam/globe/brie/AboutUs/newsroom/consumer/netflix-hbo-go-home-prepaid-wifi-homewatch-homestream15/newsroom-consumer-netflix-hbo-go-primary-thumbnail-d.jpg",
      "description": "To avail of the promo, you just need to register your favorite HomeWATCH promo through the Globe At Home app and add HomeSTREAM15 to your subscription.",
      "datePosted": "Jul 29, 2021 | 10:43 AM",
      "titleFromTag": "Consumer"
    },
    {
      "title": "Free Vitamins, Same Day Medicine Delivery from HealthNow to Help Keep Pinoys Healthy",
      "nonclickable": false,
      "openNewTab": false,
      "borderArticle": "border-color:#0074D9;",
      "borderTopArticle": "border-top-color:#0074D9;",
      "imageListing": "/sites/globe.com.ph/files/content/dam/globe/brie/AboutUs/newsroom/917ventures/free-vitamins-same-day-delivery-healthnow/newsroom-917ventures-free-vitamins-healthnow-thumbnail-listing.jpg",
      "articleUrl": "https://www.globe.com.ph/about-us/newsroom/917ventures/free-vitamins-same-day-delivery-healthnow.html",
      "columnType": "articles--type-3",
      "typeListing": "article",
      "imageMobile": "/sites/globe.com.ph/files/content/dam/globe/brie/AboutUs/newsroom/917ventures/free-vitamins-same-day-delivery-healthnow/newsroom-917ventures-free-vitamins-healthnow-primary-thumbnail-m.jpg",
      "imageDesktop": "/sites/globe.com.ph/files/content/dam/globe/brie/AboutUs/newsroom/917ventures/free-vitamins-same-day-delivery-healthnow/newsroom-917ventures-free-vitamins-healthnow-primary-thumbnail-d.jpg",
      "description": "Those who buy medicines online via the all-in-one healthtech app are entitled to free Vitamin C courtesy of Generika Drugstore until August 31, 2021.",
      "datePosted": "Jul 28, 2021 | 03:31 PM",
      "titleFromTag": "917Ventures"
    },
    {
      "title": "Globe Business Keeps your Business Going with Managed IT Support Services",
      "nonclickable": false,
      "openNewTab": false,
      "borderArticle": "border-color:#0074D9;",
      "borderTopArticle": "border-top-color:#0074D9;",
      "imageListing": "/sites/globe.com.ph/files/content/dam/globe/brie/AboutUs/newsroom/business/globe-business-managed-it-support-services/newsroom-business-managed-it-support-thumbnail-listing.jpg",
      "articleUrl": "https://www.globe.com.ph/about-us/newsroom/business/globe-business-managed-it-support-services.html",
      "columnType": "articles--type-3",
      "typeListing": "article",
      "imageMobile": "/sites/globe.com.ph/files/content/dam/globe/brie/AboutUs/newsroom/business/globe-business-managed-it-support-services/newsroom-business-managed-it-support-primary-thumbnail-m.jpg",
      "imageDesktop": "/sites/globe.com.ph/files/content/dam/globe/brie/AboutUs/newsroom/business/globe-business-managed-it-support-services/newsroom-business-managed-it-support-primary-thumbnail-d.jpg",
      "description": "Tapping into Globe Business’ team of certified engineers and IT experts can bring myriad of  benefits to small businesses with limited budget and IT resources. ",
      "datePosted": "Jul 28, 2021 | 12:12 PM",
      "titleFromTag": "Business"
    }
  ]
}
