{
  "status": 200,
  "page": 108,
  "totalPage": 298,
  "range": "1285-1296",
  "total": 3573,
  "result": [
    {
      "title": "Globe Business Raises the Bar for Data Privacy Proficiency among MSMEs with ADPRIMAS",
      "nonclickable": false,
      "openNewTab": false,
      "borderArticle": "border-color:#0074D9;",
      "borderTopArticle": "border-top-color:#0074D9;",
      "imageListing": "/sites/globe.com.ph/files/content/dam/globe/brie/AboutUs/newsroom/business/globe-business-data-privacy-proficiency-msmes-adprimas/newsroom-business-data-privacy-proficiency-thumbnail-listing.jpg",
      "articleUrl": "https://www.globe.com.ph/about-us/newsroom/business/globe-business-data-privacy-proficiency-msmes-adprimas.html",
      "columnType": "articles--type-3",
      "typeListing": "article",
      "imageMobile": "/sites/globe.com.ph/files/content/dam/globe/brie/AboutUs/newsroom/business/globe-business-data-privacy-proficiency-msmes-adprimas/newsroom-business-data-privacy-proficiency-primary-thumbnail-m.jpg",
      "imageDesktop": "/sites/globe.com.ph/files/content/dam/globe/brie/AboutUs/newsroom/business/globe-business-data-privacy-proficiency-msmes-adprimas/newsroom-business-data-privacy-proficiency-primary-thumbnail-d.jpg",
      "description": "Globe Business aims to lead the drive for awareness of data privacy and security among small and medium enterprises.",
      "datePosted": "Jul 28, 2021 | 11:28 AM",
      "titleFromTag": "Business"
    },
    {
      "title": "DPWH Easing of Right-of-Way Restrictions Boosts Globe's Fiberization of more Homes, Businesses",
      "nonclickable": false,
      "openNewTab": false,
      "borderArticle": "border-color:#0074D9;",
      "borderTopArticle": "border-top-color:#0074D9;",
      "imageListing": "/sites/globe.com.ph/files/content/dam/globe/brie/AboutUs/newsroom/common/updated/Corporate-globe-thumbnail-listing.jpg",
      "articleUrl": "https://www.globe.com.ph/about-us/newsroom/corporate/dpwh-easing-right-of-way-restrictions-globe-fiberization.html",
      "columnType": "articles--type-3",
      "typeListing": "article",
      "imageMobile": "/sites/globe.com.ph/files/content/dam/globe/brie/AboutUs/newsroom/common/updated/Corporate-globe-primary-thumbnail-m.jpg",
      "imageDesktop": "/sites/globe.com.ph/files/content/dam/globe/brie/AboutUs/newsroom/common/updated/Corporate-globe-primary-thumbnail-d.jpg",
      "description": "The order has boosted Globe’s bid to bring fiber-to-the-home (FTTH) lines to more households in key areas in the country.",
      "datePosted": "Jul 28, 2021 | 09:37 AM",
      "titleFromTag": "Corporate"
    },
    {
      "title": "Faster Merchant Deliveries on eStore via RUSH and GrabExpress",
      "nonclickable": false,
      "openNewTab": false,
      "borderArticle": "border-color:#0074D9;",
      "borderTopArticle": "border-top-color:#0074D9;",
      "imageListing": "/sites/globe.com.ph/files/content/dam/globe/brie/AboutUs/newsroom/917ventures/faster-merchant-deliveries-estore-rush-grabexpress/newsroom-917ventures-faster-merchant-deliveries-thumbnail-listing.jpg",
      "articleUrl": "https://www.globe.com.ph/about-us/newsroom/917ventures/faster-merchant-deliveries-estore-rush-grabexpress.html",
      "columnType": "articles--type-3",
      "typeListing": "article",
      "imageMobile": "/sites/globe.com.ph/files/content/dam/globe/brie/AboutUs/newsroom/917ventures/faster-merchant-deliveries-estore-rush-grabexpress/newsroom-917ventures-faster-merchant-deliveries-primary-thumbnail-m.jpg",
      "imageDesktop": "/sites/globe.com.ph/files/content/dam/globe/brie/AboutUs/newsroom/917ventures/faster-merchant-deliveries-estore-rush-grabexpress/newsroom-917ventures-faster-merchant-deliveries-primary-thumbnail-d.jpg",
      "description": "RUSH’s eStore enables merchant partners to do more than just selling and engaging customers.",
      "datePosted": "Jul 27, 2021 | 11:32 AM",
      "titleFromTag": "917Ventures"
    },
    {
      "title": "Globe 4G LTE Network Expands in Batangas, 11 Other Provinces",
      "nonclickable": false,
      "openNewTab": false,
      "borderArticle": "border-color:#0074D9;",
      "borderTopArticle": "border-top-color:#0074D9;",
      "imageListing": "/sites/globe.com.ph/files/content/dam/globe/brie/AboutUs/newsroom/corporate/799-permits-1q-2021-new-towers/default-corporate-9-thumbnail-listing.jpg",
      "articleUrl": "https://www.globe.com.ph/about-us/newsroom/corporate/globe-4g-lte-network-expands-batangas-11-provinces.html",
      "columnType": "articles--type-3",
      "typeListing": "article",
      "imageMobile": "/sites/globe.com.ph/files/content/dam/globe/brie/AboutUs/newsroom/corporate/799-permits-1q-2021-new-towers/default-corporate-9-primary-thumbnail-m.jpg",
      "imageDesktop": "/sites/globe.com.ph/files/content/dam/globe/brie/AboutUs/newsroom/corporate/799-permits-1q-2021-new-towers/default-corporate-9-primary-thumbnail-d.jpg",
      "description": "The company upgraded to 4G LTE from the old 3G network at least 507 sites all over Batangas province.",
      "datePosted": "Jul 27, 2021 | 11:27 AM",
      "titleFromTag": "Corporate"
    },
    {
      "title": "LCC, Globe Present Webinar to Empower Communities with Digital Technology",
      "nonclickable": false,
      "openNewTab": false,
      "borderArticle": "border-color:#0074D9;",
      "borderTopArticle": "border-top-color:#0074D9;",
      "imageListing": "/sites/globe.com.ph/files/content/dam/globe/brie/AboutUs/newsroom/corporate/lcc-globe-webinar-empower-communities-digital-technology/newsroom-corporate-lcc-webinar-empower-thumbnail-listing.jpg",
      "articleUrl": "https://www.globe.com.ph/about-us/newsroom/corporate/lcc-globe-webinar-empower-communities-digital-technology.html",
      "columnType": "articles--type-3",
      "typeListing": "article",
      "imageMobile": "/sites/globe.com.ph/files/content/dam/globe/brie/AboutUs/newsroom/corporate/lcc-globe-webinar-empower-communities-digital-technology/newsroom-corporate-lcc-webinar-empower-primary-thumbnail-m.jpg",
      "imageDesktop": "/sites/globe.com.ph/files/content/dam/globe/brie/AboutUs/newsroom/corporate/lcc-globe-webinar-empower-communities-digital-technology/newsroom-corporate-lcc-webinar-empower-primary-thumbnail-d.jpg",
      "description": "During this Liveable Cities Lab, speakers and panelists will share innovations on digital technology in light of the pandemic.",
      "datePosted": "Jul 27, 2021 | 11:26 AM",
      "titleFromTag": "Corporate"
    },
    {
      "title": "Globe’s Load Up Service Keeps WiFi Up at University of Northern Philippines",
      "nonclickable": false,
      "openNewTab": false,
      "borderArticle": "border-color:#0074D9;",
      "borderTopArticle": "border-top-color:#0074D9;",
      "imageListing": "/sites/globe.com.ph/files/content/dam/globe/brie/AboutUs/newsroom/business/load-up-keeps-wifi-up-university-of-northern-philippines/newsroom-business-load-up-keeps-thumbnail-listing.jpg",
      "articleUrl": "https://www.globe.com.ph/about-us/newsroom/business/load-up-keeps-wifi-up-university-of-northern-philippines.html",
      "columnType": "articles--type-3",
      "typeListing": "article",
      "imageMobile": "/sites/globe.com.ph/files/content/dam/globe/brie/AboutUs/newsroom/business/load-up-keeps-wifi-up-university-of-northern-philippines/newsroom-business-load-up-keeps-primary-thumbnail-m.jpg",
      "imageDesktop": "/sites/globe.com.ph/files/content/dam/globe/brie/AboutUs/newsroom/business/load-up-keeps-wifi-up-university-of-northern-philippines/newsroom-business-load-up-keeps-primary-thumbnail-d.jpg",
      "description": "University of Northern Philippines used Globe's Load Up to quickly distribute prepaid internet credits to participating faculty and students for online classes.",
      "datePosted": "Jul 26, 2021 | 01:43 PM",
      "titleFromTag": "Business"
    },
    {
      "title": "Interactive Tech, Webinars Boost Globe Employee Well-Being Despite Distance",
      "nonclickable": false,
      "openNewTab": false,
      "borderArticle": "border-color:#1C91C5;",
      "borderTopArticle": "border-top-color:#1C91C5;",
      "imageListing": "/sites/globe.com.ph/files/content/dam/globe/brie/AboutUs/newsroom/sustainability/interactive-tech-webinars-boost-globe-employee-well-being/newsroom-sustainability-interactive-tech-webinars-thumbnail-listing.jpg",
      "articleUrl": "https://www.globe.com.ph/about-us/newsroom/sustainability/interactive-tech-webinars-boost-globe-employee-well-being.html",
      "columnType": "articles--type-3",
      "typeListing": "article",
      "imageMobile": "/sites/globe.com.ph/files/content/dam/globe/brie/AboutUs/newsroom/sustainability/interactive-tech-webinars-boost-globe-employee-well-being/newsroom-sustainability-interactive-tech-webinars-primary-thumbnail-m.jpg",
      "imageDesktop": "/sites/globe.com.ph/files/content/dam/globe/brie/AboutUs/newsroom/sustainability/interactive-tech-webinars-boost-globe-employee-well-being/newsroom-sustainability-interactive-tech-webinars-primary-thumbnail-d.jpg",
      "description": "Globe acknowledges the need to be physically and mentally healthy which is why it has deployed several digital tools to support its employees.",
      "datePosted": "Jul 26, 2021 | 11:44 AM",
      "titleFromTag": "Sustainability"
    },
    {
      "title": "HealthNow Helps Filipinos Deal with Emotional Crisis, Mental Health Issues",
      "nonclickable": false,
      "openNewTab": false,
      "borderArticle": "border-color:#1C91C5;",
      "borderTopArticle": "border-top-color:#1C91C5;",
      "imageListing": "/sites/globe.com.ph/files/content/dam/globe/brie/AboutUs/newsroom/sustainability/healthnow-helps-filipinos-emotional-crisis/newsroom-sustainability-healthnow-helps-filipinos-thumbnail-listing.jpg",
      "articleUrl": "https://www.globe.com.ph/about-us/newsroom/sustainability/healthnow-helps-filipinos-emotional-crisis.html",
      "columnType": "articles--type-3",
      "typeListing": "article",
      "imageMobile": "/sites/globe.com.ph/files/content/dam/globe/brie/AboutUs/newsroom/sustainability/healthnow-helps-filipinos-emotional-crisis/newsroom-sustainability-healthnow-helps-filipinos-primary-thumbnail-m.jpg",
      "imageDesktop": "/sites/globe.com.ph/files/content/dam/globe/brie/AboutUs/newsroom/sustainability/healthnow-helps-filipinos-emotional-crisis/newsroom-sustainability-healthnow-helps-filipinos-thumbnail-d.jpg",
      "description": "HealthNow is a mobile app that helps patients consult with a doctor, buy medicine for delivery, and soon, schedule clinic appointments at home.",
      "datePosted": "Jul 26, 2021 | 10:37 AM",
      "titleFromTag": "Sustainability"
    },
    {
      "title": "On and Offline: Globe Takes Lead in Ensuring Child Safety",
      "nonclickable": false,
      "openNewTab": false,
      "borderArticle": "border-color:#1C91C5;",
      "borderTopArticle": "border-top-color:#1C91C5;",
      "imageListing": "/sites/globe.com.ph/files/content/dam/globe/brie/AboutUs/newsroom/sustainability/globe-takes-lead-ensuring-child-safety/newsroom-sustainability-takes-lead-ensuring-thumbnail-listing.jpg",
      "articleUrl": "https://www.globe.com.ph/about-us/newsroom/sustainability/globe-takes-lead-ensuring-child-safety.html",
      "columnType": "articles--type-3",
      "typeListing": "article",
      "imageMobile": "/sites/globe.com.ph/files/content/dam/globe/brie/AboutUs/newsroom/sustainability/globe-takes-lead-ensuring-child-safety/newsroom-sustainability-takes-lead-ensuring-primary-thumbnail-m.jpg",
      "imageDesktop": "/sites/globe.com.ph/files/content/dam/globe/brie/AboutUs/newsroom/sustainability/globe-takes-lead-ensuring-child-safety/newsroom-sustainability-takes-lead-ensuring-thumbnail-d.jpg",
      "description": "As a strong advocate of child safety, Globe continues to spread the message about children’s rights in cyberspace, especially the increasing roles that the Internet and technology play in children’s lives.",
      "datePosted": "Jul 23, 2021 | 02:06 PM",
      "titleFromTag": "Sustainability"
    },
    {
      "title": "Globe Business Launches “Malasakit Sa Manggagawa” Series",
      "nonclickable": false,
      "openNewTab": false,
      "borderArticle": "border-color:#0074D9;",
      "borderTopArticle": "border-top-color:#0074D9;",
      "imageListing": "/sites/globe.com.ph/files/content/dam/globe/brie/AboutUs/newsroom/business/globe-business-launches-malasakit-sa-manggagawa-series/newsroom-business-launches-malasakit-manggagawa-thumbnail-listing.jpg",
      "articleUrl": "https://www.globe.com.ph/about-us/newsroom/business/globe-business-launches-malasakit-sa-manggagawa-series.html",
      "columnType": "articles--type-3",
      "typeListing": "article",
      "imageMobile": "/sites/globe.com.ph/files/content/dam/globe/brie/AboutUs/newsroom/business/globe-business-launches-malasakit-sa-manggagawa-series/newsroom-business-launches-malasakit-manggagawa-primary-thumbnail-m.jpg",
      "imageDesktop": "/sites/globe.com.ph/files/content/dam/globe/brie/AboutUs/newsroom/business/globe-business-launches-malasakit-sa-manggagawa-series/newsroom-business-launches-malasakit-manggagawa-primary-thumbnail-d.jpg",
      "description": "The remote work setup forced businesses to adopt an agile way of working, leaving leaders to find ways to boost workplace productivity.",
      "datePosted": "Jul 23, 2021 | 09:30 AM",
      "titleFromTag": "Business"
    },
    {
      "title": "Globe Secures 1,451 Permits in First Half of 2021",
      "nonclickable": false,
      "openNewTab": false,
      "borderArticle": "border-color:#0074D9;",
      "borderTopArticle": "border-top-color:#0074D9;",
      "imageListing": "/sites/globe.com.ph/files/content/dam/globe/brie/AboutUs/newsroom/corporate/799-permits-1q-2021-new-towers/default-corporate-9-thumbnail-listing.jpg",
      "articleUrl": "https://www.globe.com.ph/about-us/newsroom/corporate/globe-secures-over-1k-permits-first-half-2021.html",
      "columnType": "articles--type-3",
      "typeListing": "article",
      "imageMobile": "/sites/globe.com.ph/files/content/dam/globe/brie/AboutUs/newsroom/corporate/799-permits-1q-2021-new-towers/default-corporate-9-primary-thumbnail-m.jpg",
      "imageDesktop": "/sites/globe.com.ph/files/content/dam/globe/brie/AboutUs/newsroom/corporate/799-permits-1q-2021-new-towers/default-corporate-9-primary-thumbnail-d.jpg",
      "description": "Globe secured the most permits in Northern Luzon with 395 while Visayas and Metro Manila (including Rizal) LGUs released 314 and 312 permits, respectively.",
      "datePosted": "Jul 23, 2021 | 08:01 AM",
      "titleFromTag": "Corporate"
    },
    {
      "title": "500 National Children’s Hospital Frontliners and Patients Receive Connectivity, In-kind Support from Globe and its Partners",
      "nonclickable": false,
      "openNewTab": false,
      "borderArticle": "border-color:#1C91C5;",
      "borderTopArticle": "border-top-color:#1C91C5;",
      "imageListing": "/sites/globe.com.ph/files/content/dam/globe/brie/AboutUs/newsroom/sustainability/national-childrens-hospital-frontliners-patients-connectivity-support/newsroom-sustainability-national-childrens-hospital-thumbnail-listing.jpg",
      "articleUrl": "https://www.globe.com.ph/about-us/newsroom/sustainability/national-childrens-hospital-frontliners-patients-connectivity-support.html",
      "columnType": "articles--type-3",
      "typeListing": "article",
      "imageMobile": "/sites/globe.com.ph/files/content/dam/globe/brie/AboutUs/newsroom/sustainability/national-childrens-hospital-frontliners-patients-connectivity-support/newsroom-sustainability-national-childrens-hospital-primary-thumbnail-m.jpg",
      "imageDesktop": "/sites/globe.com.ph/files/content/dam/globe/brie/AboutUs/newsroom/sustainability/national-childrens-hospital-frontliners-patients-connectivity-support/newsroom-sustainability-national-childrens-hospital-thumbnail-d.jpg",
      "description": "NCH frontliners have been highly dependent on connectivity in carrying out their duties and keeping in touch with their loved ones.",
      "datePosted": "Jul 22, 2021 | 03:05 PM",
      "titleFromTag": "Sustainability"
    }
  ]
}
