{
  "status": 200,
  "page": 109,
  "totalPage": 298,
  "range": "1297-1308",
  "total": 3573,
  "result": [
    {
      "title": "Mental Health Matters: Kylie Versoza and KonsultaMD Partner for Mental Wellness",
      "nonclickable": false,
      "openNewTab": false,
      "borderArticle": "border-color:#0074D9;",
      "borderTopArticle": "border-top-color:#0074D9;",
      "imageListing": "/sites/globe.com.ph/files/content/dam/globe/brie/AboutUs/newsroom/917ventures/kylie-versoza-konsultamd-partner-mental-wellness/newsroom-917ventures-kylie-versoza-konsultamd-thumbnail-listing.jpg",
      "articleUrl": "https://www.globe.com.ph/about-us/newsroom/917ventures/kylie-versoza-konsultamd-partner-mental-wellness.html",
      "columnType": "articles--type-3",
      "typeListing": "article",
      "imageMobile": "/sites/globe.com.ph/files/content/dam/globe/brie/AboutUs/newsroom/917ventures/kylie-versoza-konsultamd-partner-mental-wellness/newsroom-917ventures-kylie-versoza-konsultamd-primary-thumbnail-m.jpg",
      "imageDesktop": "/sites/globe.com.ph/files/content/dam/globe/brie/AboutUs/newsroom/917ventures/kylie-versoza-konsultamd-partner-mental-wellness/newsroom-917ventures-kylie-versoza-konsultamd-primary-thumbnail-d.jpg",
      "description": "The partnership aims to provide mental health support and awareness to more Filipinos.",
      "datePosted": "Jul 22, 2021 | 02:21 PM",
      "titleFromTag": "917Ventures"
    },
    {
      "title": "Digital Marketing Helps Businesses Survive the Pandemic via AdSpark",
      "nonclickable": false,
      "openNewTab": false,
      "borderArticle": "border-color:#0074D9;",
      "borderTopArticle": "border-top-color:#0074D9;",
      "imageListing": "/sites/globe.com.ph/files/content/dam/globe/brie/AboutUs/newsroom/917ventures/digital-marketing-helps-businesses-survive-pandemic-via-adspark/newsroom-917ventures-digital-marketing-helps-thumbnail-listing.jpg",
      "articleUrl": "https://www.globe.com.ph/about-us/newsroom/917ventures/digital-marketing-helps-businesses-survive-pandemic-adspark.html",
      "columnType": "articles--type-3",
      "typeListing": "article",
      "imageMobile": "/sites/globe.com.ph/files/content/dam/globe/brie/AboutUs/newsroom/917ventures/digital-marketing-helps-businesses-survive-pandemic-via-adspark/newsroom-917ventures-digital-marketing-helps-primary-thumbnail-m.jpg",
      "imageDesktop": "/sites/globe.com.ph/files/content/dam/globe/brie/AboutUs/newsroom/917ventures/digital-marketing-helps-businesses-survive-pandemic-via-adspark/newsroom-917ventures-digital-marketing-helps-primary-thumbnail-d.jpg",
      "description": "AdSpark's digital marketing solutions helped businesses understand the shift towards digital transactions and activities to survive the impact of COVID-19.",
      "datePosted": "Jul 21, 2021 | 11:34 AM",
      "titleFromTag": "917Ventures"
    },
    {
      "title": "PH Continues to Rise in Global Speedtest Rankings",
      "nonclickable": false,
      "openNewTab": false,
      "borderArticle": "border-color:#1C91C5;",
      "borderTopArticle": "border-top-color:#1C91C5;",
      "imageListing": "/sites/globe.com.ph/files/content/dam/globe/brie/AboutUs/newsroom/common/default-9/default-corporate-4-thumbnail-listing.jpg",
      "articleUrl": "https://www.globe.com.ph/about-us/newsroom/sustainability/ph-continues-rise-global-speedtest-rankings.html",
      "columnType": "articles--type-3",
      "typeListing": "article",
      "imageMobile": "/sites/globe.com.ph/files/content/dam/globe/brie/AboutUs/newsroom/common/default-9/default-corporate-4-primary-thumbnail-m.jpg",
      "imageDesktop": "/sites/globe.com.ph/files/content/dam/globe/brie/AboutUs/newsroom/common/default-9/default-corporate-4-primary-thumbnail-d.jpg",
      "description": "The Philippines continues to rise up the global speed rankings, being among the top 100 globally in both mobile and fixed download speeds, based on Ookla’s Speedtest® Global Index June 2021 data.",
      "datePosted": "Jul 21, 2021 | 10:15 AM",
      "titleFromTag": "Sustainability"
    },
    {
      "title": "Three Ventures Successfully Raise A Second Round of Investment from 917Ventures",
      "nonclickable": false,
      "openNewTab": false,
      "borderArticle": "border-color:#0074D9;",
      "borderTopArticle": "border-top-color:#0074D9;",
      "imageListing": "/sites/globe.com.ph/files/content/dam/globe/brie/AboutUs/newsroom/917ventures/creating-digital-lifelines-filipinos/newsroom-917ventures-creating-digital-lifelines-thumbnail-listing.jpg",
      "articleUrl": "https://www.globe.com.ph/about-us/newsroom/917ventures/three-ventures-successfully-raise-second-round-investment.html",
      "columnType": "articles--type-3",
      "typeListing": "article",
      "imageMobile": "/sites/globe.com.ph/files/content/dam/globe/brie/AboutUs/newsroom/917ventures/creating-digital-lifelines-filipinos/newsroom-917ventures-creating-digital-lifelines-primary-thumbnail-m.jpg",
      "imageDesktop": "/sites/globe.com.ph/files/content/dam/globe/brie/AboutUs/newsroom/917ventures/creating-digital-lifelines-filipinos/newsroom-917ventures-creating-digital-lifelines-primary-thumbnail-d.jpg",
      "description": "917Ventures securely funded its first three angel ventures to enhance employability and bring them closer to their dreams.",
      "datePosted": "Jul 21, 2021 | 10:14 AM",
      "titleFromTag": "917Ventures"
    },
    {
      "title": "#GlobeOfGood: Globe, Partners Extend Connectivity Tools, In-Kind Assistance to 500 Tondo Medical Center Frontliners",
      "nonclickable": false,
      "openNewTab": false,
      "borderArticle": "border-color:#0074D9;",
      "borderTopArticle": "border-top-color:#0074D9;",
      "imageListing": "/sites/globe.com.ph/files/content/dam/globe/brie/AboutUs/newsroom/sustainability/globe-partners-extend-connectivity-tools-tondo-medical-center/newsroom-sustainability-partners-extend-connectivity-thumbnail-listing.jpg",
      "articleUrl": "https://www.globe.com.ph/about-us/newsroom/sustainability/globe-partners-extend-connectivity-tools-tondo-medical-center.html",
      "columnType": "articles--type-3",
      "typeListing": "article",
      "imageMobile": "/sites/globe.com.ph/files/content/dam/globe/brie/AboutUs/newsroom/sustainability/globe-partners-extend-connectivity-tools-tondo-medical-center/newsroom-sustainability-partners-extend-connectivity-primary-thumbnail-m.jpg",
      "imageDesktop": "/sites/globe.com.ph/files/content/dam/globe/brie/AboutUs/newsroom/sustainability/globe-partners-extend-connectivity-tools-tondo-medical-center/newsroom-sustainability-partners-extend-connectivity-thumbnail-d.jpg",
      "description": "To express gratitude for the unwavering service provided, Globe presents Tondo Medical Center with connection tools and in-kind assistance.",
      "datePosted": "Jul 19, 2021 | 02:07 PM",
      "titleFromTag": "Sustainability"
    },
    {
      "title": "Globe's VoLTE Now Available to Postpaid Customers in 94% of All Towns in the Country",
      "nonclickable": false,
      "openNewTab": false,
      "borderArticle": "border-color:#0074D9;",
      "borderTopArticle": "border-top-color:#0074D9;",
      "imageListing": "/sites/globe.com.ph/files/content/dam/globe/brie/AboutUs/newsroom/corporate/700k-customers-5g-devices-end-may/corporate-default-7-thumbnail-listing.jpg",
      "articleUrl": "https://www.globe.com.ph/about-us/newsroom/consumer/volte-now-available-postpaid-customers-94-percent-towns.html",
      "columnType": "articles--type-3",
      "typeListing": "article",
      "imageMobile": "/sites/globe.com.ph/files/content/dam/globe/brie/AboutUs/newsroom/corporate/700k-customers-5g-devices-end-may/corporate-default-7-primary-thumbnail-m.jpg",
      "imageDesktop": "/sites/globe.com.ph/files/content/dam/globe/brie/AboutUs/newsroom/corporate/700k-customers-5g-devices-end-may/corporate-default-7-primary-thumbnail-d.jpg",
      "description": "Globe's Voice Over LTE (VoLTE) service is now available to postpaid customers in 94 percent of all towns in the country Experience even better mobile experience",
      "datePosted": "Jul 19, 2021 | 01:38 PM",
      "titleFromTag": "Consumer"
    },
    {
      "title": "PH Telcos Conduct Successful Technical Interoperability Tests of MNP",
      "nonclickable": false,
      "openNewTab": false,
      "borderArticle": "border-color:#0074D9;",
      "borderTopArticle": "border-top-color:#0074D9;",
      "imageListing": "/sites/globe.com.ph/files/content/dam/globe/brie/AboutUs/newsroom/common/updated/Corporate-globe-thumbnail-listing.jpg",
      "articleUrl": "https://www.globe.com.ph/about-us/newsroom/corporate/ph-telcos-successful-technical-interoperability-tests-mnp.html",
      "columnType": "articles--type-3",
      "typeListing": "article",
      "imageMobile": "/sites/globe.com.ph/files/content/dam/globe/brie/AboutUs/newsroom/common/updated/Corporate-globe-primary-thumbnail-m.jpg",
      "imageDesktop": "/sites/globe.com.ph/files/content/dam/globe/brie/AboutUs/newsroom/common/updated/Corporate-globe-primary-thumbnail-d.jpg",
      "description": "DITO, Globe, and Smart's joint venture has concluded initial technical capability tests for  the Mobile Number Portability Act's future implementation.",
      "datePosted": "Jul 16, 2021 | 02:41 PM",
      "titleFromTag": "Corporate"
    },
    {
      "title": "RUSH Empowers Brands to Understand Customer Behavior",
      "nonclickable": false,
      "openNewTab": false,
      "borderArticle": "border-color:#0074D9;",
      "borderTopArticle": "border-top-color:#0074D9;",
      "imageListing": "/sites/globe.com.ph/files/content/dam/globe/brie/AboutUs/newsroom/917ventures/rush-empowers-brands-understand-customer-behavior/newsroom-917ventures-rush-empowers-brands-thumbnail-listing.jpg",
      "articleUrl": "https://www.globe.com.ph/about-us/newsroom/917ventures/rush-empowers-brands-understand-customer-behavior.html",
      "columnType": "articles--type-3",
      "typeListing": "article",
      "imageMobile": "/sites/globe.com.ph/files/content/dam/globe/brie/AboutUs/newsroom/917ventures/rush-empowers-brands-understand-customer-behavior/newsroom-917ventures-rush-empowers-brands-primary-thumbnail-m.jpg",
      "imageDesktop": "/sites/globe.com.ph/files/content/dam/globe/brie/AboutUs/newsroom/917ventures/rush-empowers-brands-understand-customer-behavior/newsroom-917ventures-rush-empowers-brands-primary-thumbnail-d.jpg",
      "description": "Loyalty and eCommerce enabler RUSH provides brands with the right tools and analysis to earn customer loyalty and drive repeat purchases.",
      "datePosted": "Jul 16, 2021 | 02:40 PM",
      "titleFromTag": "917Ventures"
    },
    {
      "title": "500 PGH Frontliners for COVID-19 Given Essential Aid, Connectivity by Globe And the Ayala Group of Companies",
      "nonclickable": false,
      "openNewTab": false,
      "borderArticle": "border-color:#0074D9;",
      "borderTopArticle": "border-top-color:#0074D9;",
      "imageListing": "/sites/globe.com.ph/files/content/dam/globe/brie/AboutUs/newsroom/sustainability/pgh-frontliners-essential-aid-connectivity-globe-ayala/newsroom-sustainability-pgh-frontliners-essential-thumbnail-listing.jpg",
      "articleUrl": "https://www.globe.com.ph/about-us/newsroom/sustainability/pgh-frontliners-essential-aid-connectivity-globe-ayala.html",
      "columnType": "articles--type-3",
      "typeListing": "article",
      "imageMobile": "/sites/globe.com.ph/files/content/dam/globe/brie/AboutUs/newsroom/sustainability/pgh-frontliners-essential-aid-connectivity-globe-ayala/newsroom-sustainability-pgh-frontliners-essential-primary-thumbnail-m.jpg",
      "imageDesktop": "/sites/globe.com.ph/files/content/dam/globe/brie/AboutUs/newsroom/sustainability/pgh-frontliners-essential-aid-connectivity-globe-ayala/newsroom-sustainability-pgh-frontliners-essential-thumbnail-d.jpg",
      "description": "Globe shows appreciation for healthcare workers who remain at the forefront of the country’s battle against the COVID-19 pandemic through additional cash, connectivity, and in-kind donations to the Philippine General Hospital (PGH).",
      "datePosted": "Jul 16, 2021 | 02:00 PM",
      "titleFromTag": "Sustainability"
    },
    {
      "title": "Globe Warns of Scams Targeting OTTs, Postpaid Customers",
      "nonclickable": false,
      "openNewTab": false,
      "borderArticle": "border-color:#0074D9;",
      "borderTopArticle": "border-top-color:#0074D9;",
      "imageListing": "/sites/globe.com.ph/files/content/dam/globe/brie/AboutUs/newsroom/corporate/globe-warns-scam-targeting-otts-postpaid-customers/newsroom-corporate-warns-scam-targeting-thumbnail-listing.jpg",
      "articleUrl": "https://www.globe.com.ph/about-us/newsroom/corporate/globe-warns-scam-targeting-otts-postpaid-customers.html",
      "columnType": "articles--type-3",
      "typeListing": "article",
      "imageMobile": "/sites/globe.com.ph/files/content/dam/globe/brie/AboutUs/newsroom/corporate/globe-warns-scam-targeting-otts-postpaid-customers/newsroom-corporate-warns-scam-targeting-primary-thumbnail-m.jpg",
      "imageDesktop": "/sites/globe.com.ph/files/content/dam/globe/brie/AboutUs/newsroom/corporate/globe-warns-scam-targeting-otts-postpaid-customers/newsroom-corporate-warns-scam-targeting-primary-thumbnail-d.jpg",
      "description": "The company reiterated this reminder amid issues related to over-the-top (OTT) media services like Netflix in the past few months.",
      "datePosted": "Jul 16, 2021 | 03:34 AM",
      "titleFromTag": "Corporate"
    },
    {
      "title": "#1stWorldNetwork: Globe Installs 212 New Cell Sites in NCR, Notes Improved Services for Metro Manila Customers",
      "nonclickable": false,
      "openNewTab": false,
      "borderArticle": "border-color:#0074D9;",
      "borderTopArticle": "border-top-color:#0074D9;",
      "imageListing": "/sites/globe.com.ph/files/content/dam/globe/brie/AboutUs/newsroom/common/updated/Corporate-globe-thumbnail-listing.jpg",
      "articleUrl": "https://www.globe.com.ph/about-us/newsroom/corporate/globe-installs-212-new-cell-sites-ncr.html",
      "columnType": "articles--type-3",
      "typeListing": "article",
      "imageMobile": "/sites/globe.com.ph/files/content/dam/globe/brie/AboutUs/newsroom/common/updated/Corporate-globe-primary-thumbnail-m.jpg",
      "imageDesktop": "/sites/globe.com.ph/files/content/dam/globe/brie/AboutUs/newsroom/common/updated/Corporate-globe-primary-thumbnail-d.jpg",
      "description": "Globe’s target to build more new cell towers remains on track as it has installed 212 new cell sites in Metro Manila for 1H of 2021.",
      "datePosted": "Jul 15, 2021 | 09:33 AM",
      "titleFromTag": "Corporate"
    },
    {
      "title": "#KwentoNgTagumpay:  Unique Hand-Woven Face Masks Help Indigenous Communities Rise Above the Pandemic",
      "nonclickable": false,
      "openNewTab": false,
      "borderArticle": "border-color:#1C91C5;",
      "borderTopArticle": "border-top-color:#1C91C5;",
      "imageListing": "/sites/globe.com.ph/files/content/dam/globe/brie/AboutUs/newsroom/sustainability/unique-hand-woven-face-masks-indigenous-communities/newsroom-sustainability-unique-hand-woven-thumbnail-listing.jpg",
      "articleUrl": "https://www.globe.com.ph/about-us/newsroom/sustainability/unique-hand-woven-face-masks-indigenous-communities.html",
      "columnType": "articles--type-3",
      "typeListing": "article",
      "imageMobile": "/sites/globe.com.ph/files/content/dam/globe/brie/AboutUs/newsroom/sustainability/unique-hand-woven-face-masks-indigenous-communities/newsroom-sustainability-unique-hand-woven-primary-thumbnail-m.jpg",
      "imageDesktop": "/sites/globe.com.ph/files/content/dam/globe/brie/AboutUs/newsroom/sustainability/unique-hand-woven-face-masks-indigenous-communities/newsroom-sustainability-unique-hand-woven-thumbnail-d.jpg",
      "description": "Through unique face masks made from hand-woven fabric scraps, Abra Indigo Manila was able to provide new livelihood opportunities to indigenous communities in far-flung areas despite the pandemic.  ",
      "datePosted": "Jul 14, 2021 | 10:58 AM",
      "titleFromTag": "Sustainability"
    }
  ]
}
