{
  "status": 200,
  "page": 11,
  "totalPage": 298,
  "range": "121-132",
  "total": 3573,
  "result": [
    {
      "title": "Philippine Mobile Leader Globe Partners with bolttech, Launches Gadget Xchange for Hassle-Free Gadget Switching",
      "nonclickable": false,
      "openNewTab": false,
      "borderArticle": "border-color:#0074D9;",
      "borderTopArticle": "border-top-color:#0074D9;",
      "imageListing": "/sites/globe.com.ph/files/content/dam/globe/brie/AboutUs/newsroom/common/default-mobile-3/Newsroom-Total-Globe-Default-Images-Mobile-3-thumbnail-listing.jpg",
      "articleUrl": "https://www.globe.com.ph/about-us/newsroom/consumer/globe-partners-with-bolttech-launches-gadget-xchange.html",
      "columnType": "articles--type-3",
      "typeListing": "article",
      "imageMobile": "/sites/globe.com.ph/files/content/dam/globe/brie/AboutUs/newsroom/common/default-mobile-3/Newsroom-Total-Globe-Default-Images-Mobile-3-primary-thumbnail-m.jpg",
      "imageDesktop": "/sites/globe.com.ph/files/content/dam/globe/brie/AboutUs/newsroom/common/default-mobile-3/Newsroom-Total-Globe-Default-Images-Mobile-3-primary-thumbnail-d.jpg",
      "description": "Globe partners with bolttech and launches Gadget Xchange, a new mobile device program that will make postpaid device switching easier.",
      "datePosted": "Sep 13, 2023 | 03:05 PM",
      "titleFromTag": "Consumer"
    },
    {
      "title": "Anchored on Telco Strength, Globe’s Expansion into Digital Solutions Solves Everyday Pain Points",
      "nonclickable": false,
      "openNewTab": false,
      "borderArticle": "border-color:#0074D9;",
      "borderTopArticle": "border-top-color:#0074D9;",
      "imageListing": "/sites/globe.com.ph/files/content/dam/globe/brie/AboutUs/newsroom/common/default-total-globe-4/total-globe-4-thumbnail-listing.jpg",
      "articleUrl": "https://www.globe.com.ph/about-us/newsroom/consumer/chat-with-a-vet-by-petpal.html",
      "columnType": "articles--type-3",
      "typeListing": "article",
      "imageMobile": "/sites/globe.com.ph/files/content/dam/globe/brie/AboutUs/newsroom/common/default-total-globe-4/total-globe-4-primary-thumbnail-m.jpg",
      "imageDesktop": "/sites/globe.com.ph/files/content/dam/globe/brie/AboutUs/newsroom/common/default-total-globe-4/total-globe-4-primary-thumbnail-d.jpg",
      "description": "PetPal has launched \"Chat With A Vet,\" a service that lets you instantly message and converse with a licensed vet.",
      "datePosted": "Sep 13, 2023 | 03:05 PM",
      "titleFromTag": "Consumer"
    },
    {
      "title": "Globe GFiber Prepaid “Pamilya Kaya” is Here!",
      "nonclickable": false,
      "openNewTab": false,
      "borderArticle": "border-color:#0074D9;",
      "borderTopArticle": "border-top-color:#0074D9;",
      "imageListing": "/sites/globe.com.ph/files/content/dam/globe/brie/AboutUs/newsroom/common/default-consumer-2/default-consumer-thumbnail-listing.jpg",
      "articleUrl": "https://www.globe.com.ph/about-us/newsroom/consumer/globe-gfiber-prepaid-pamilya-kaya-is-here.html",
      "columnType": "articles--type-3",
      "typeListing": "article",
      "imageMobile": "/sites/globe.com.ph/files/content/dam/globe/brie/AboutUs/newsroom/common/default-consumer-2/default-consumer-primary-thumbnail-m.jpg",
      "imageDesktop": "/sites/globe.com.ph/files/content/dam/globe/brie/AboutUs/newsroom/common/default-consumer-2/default-consumer-primary-thumbnail-d.jpg",
      "description": "Get fiber-fast internet for as low as ₱299, so you can keep up in creating content. Gaya ng Pamilya Kaya, kaya mo now with GFiber Prepaid.",
      "datePosted": "Sep 13, 2023 | 03:04 PM",
      "titleFromTag": "Consumer"
    },
    {
      "title": "Globe Foresees Rising Non-Telco Revenues within the Next Two Years",
      "nonclickable": false,
      "openNewTab": false,
      "borderArticle": "border-color:#0074D9;",
      "borderTopArticle": "border-top-color:#0074D9;",
      "imageListing": "/sites/globe.com.ph/files/content/dam/globe/brie/AboutUs/newsroom/common/default-corporate-main/newsroom-default-corporate-thumbnail-listing.jpg",
      "articleUrl": "https://www.globe.com.ph/about-us/newsroom/corporate/rising-non-telco-revenues-within-next-two-years.html",
      "columnType": "articles--type-3",
      "typeListing": "article",
      "imageMobile": "/sites/globe.com.ph/files/content/dam/globe/brie/AboutUs/newsroom/common/default-corporate-main/newsroom-default-corporate-primary-thumbnail-m.jpg",
      "imageDesktop": "/sites/globe.com.ph/files/content/dam/globe/brie/AboutUs/newsroom/common/default-corporate-main/newsroom-default-corporate-primary-thumbnail-d.jpg",
      "description": "With a variety of digital solutions to offer, Globe sees a significant increase in techco revenues over the next two to three years. ",
      "datePosted": "Sep 13, 2023 | 03:00 PM",
      "titleFromTag": "Corporate"
    },
    {
      "title": "Michelangelo Exhibit: Best Seen in Groups, Plus More Affordable Too!",
      "nonclickable": false,
      "openNewTab": false,
      "borderArticle": "border-color:#0074D9;",
      "borderTopArticle": "border-top-color:#0074D9;",
      "imageListing": "/sites/globe.com.ph/files/content/dam/globe/brie/AboutUs/newsroom/sustainability/atin-global-bring-piece-of-sistine-chapel-to-globe-headquarters/corp-michel-angelo-sistine-chapel-thumbnail-listing.jpg",
      "articleUrl": "https://www.globe.com.ph/about-us/newsroom/sustainability/michelangelo-exhibit-best-seen-in-groups.html",
      "columnType": "articles--type-3",
      "typeListing": "article",
      "imageMobile": "/sites/globe.com.ph/files/content/dam/globe/brie/AboutUs/newsroom/sustainability/atin-global-bring-piece-of-sistine-chapel-to-globe-headquarters/corp-michel-angelo-sistine-chapel-primary-thumbnail-m.jpg",
      "imageDesktop": "/sites/globe.com.ph/files/content/dam/globe/brie/AboutUs/newsroom/sustainability/atin-global-bring-piece-of-sistine-chapel-to-globe-headquarters/corp-michel-angelo-sistine-chapel-primary-thumbnail-d.jpg",
      "description": "“Michelangelo's Sistine Chapel: The Exhibition,” is best seen in groups for a communal and more affordable experience.",
      "datePosted": "Sep 13, 2023 | 02:58 PM",
      "titleFromTag": "Sustainability"
    },
    {
      "title": "Globe Implements New Policies to Move Supply Chain Towards Sustainable Practices",
      "nonclickable": false,
      "openNewTab": false,
      "borderArticle": "border-color:#0074D9;",
      "borderTopArticle": "border-top-color:#0074D9;",
      "imageListing": "/sites/globe.com.ph/files/content/dam/globe/brie/AboutUs/newsroom/common/default-sustainability-3/corp-default-images-thumbnail-listing.jpg",
      "articleUrl": "https://www.globe.com.ph/about-us/newsroom/sustainability/new-policies-move-supply-chain-towards-sustainable-practices.html",
      "columnType": "articles--type-3",
      "typeListing": "article",
      "imageMobile": "/sites/globe.com.ph/files/content/dam/globe/brie/AboutUs/newsroom/common/default-sustainability-3/corp-default-images-primary-thumbnail-m.jpg",
      "imageDesktop": "/sites/globe.com.ph/files/content/dam/globe/brie/AboutUs/newsroom/common/default-sustainability-3/corp-default-images-primary-thumbnail-d.jpg",
      "description": "Globe recently enhanced its policies for its supply chain, encouraging vendors and suppliers to operate responsibly and integrate more sustainable practices.",
      "datePosted": "Sep 13, 2023 | 02:57 PM",
      "titleFromTag": "Sustainability"
    },
    {
      "title": "Globe Sparks Hope with Heroes of Learning Awards",
      "nonclickable": false,
      "openNewTab": false,
      "borderArticle": "border-color:#0074D9;",
      "borderTopArticle": "border-top-color:#0074D9;",
      "imageListing": "/sites/globe.com.ph/files/content/dam/globe/brie/AboutUs/newsroom/common/default-business-9/thumbnail-listing.jpg",
      "articleUrl": "https://www.globe.com.ph/about-us/newsroom/business/globe-sparks-hope-heroes-of-learning-awards.html",
      "columnType": "articles--type-3",
      "typeListing": "article",
      "imageMobile": "/sites/globe.com.ph/files/content/dam/globe/brie/AboutUs/newsroom/common/default-business-9/primary-thumbnail-m.jpg",
      "imageDesktop": "/sites/globe.com.ph/files/content/dam/globe/brie/AboutUs/newsroom/common/default-business-9/primary-thumbnail-d.jpg",
      "description": "Nominate inspiring students, teachers, and parents at the Globe Heroes of Learning Awards.",
      "datePosted": "Sep 11, 2023 | 05:35 PM",
      "titleFromTag": "Business"
    },
    {
      "title": "Globe Shifts Another Facility in Batangas to Renewable Energy",
      "nonclickable": false,
      "openNewTab": false,
      "borderArticle": "border-color:#0074D9;",
      "borderTopArticle": "border-top-color:#0074D9;",
      "imageListing": "/sites/globe.com.ph/files/content/dam/globe/brie/AboutUs/newsroom/common/default-corporate-5g-connectivity/thumbnail-listing.jpg",
      "articleUrl": "https://www.globe.com.ph/about-us/newsroom/sustainability/globe-shifts-another-facility-batangas-renewable-energy.html",
      "columnType": "articles--type-3",
      "typeListing": "article",
      "imageMobile": "/sites/globe.com.ph/files/content/dam/globe/brie/AboutUs/newsroom/common/default-corporate-5g-connectivity/primary-thumbnail-m.jpg",
      "imageDesktop": "/sites/globe.com.ph/files/content/dam/globe/brie/AboutUs/newsroom/common/default-corporate-5g-connectivity/primary-thumbnail-d.jpg",
      "description": "Globe has shifted another key facility in Batangas to renewable energy (RE) through the Department of Energy’s (DOE) Green Energy Option Program (GEOP).",
      "datePosted": "Sep 07, 2023 | 08:31 AM",
      "titleFromTag": "Sustainability"
    },
    {
      "title": "Globe Group Backs Bills Against Money Mule Activities",
      "nonclickable": false,
      "openNewTab": false,
      "borderArticle": "border-color:#0074D9;",
      "borderTopArticle": "border-top-color:#0074D9;",
      "imageListing": "/sites/globe.com.ph/files/content/dam/globe/brie/AboutUs/newsroom/common/default-corporate-11/corp-thumbnail-listing.jpg",
      "articleUrl": "https://www.globe.com.ph/about-us/newsroom/corporate/globe-group-backs-bills-against-money-mule-activities.html",
      "columnType": "articles--type-3",
      "typeListing": "article",
      "imageMobile": "/sites/globe.com.ph/files/content/dam/globe/brie/AboutUs/newsroom/common/default-corporate-11/corp-primary-thumbnail-m.jpg",
      "imageDesktop": "/sites/globe.com.ph/files/content/dam/globe/brie/AboutUs/newsroom/common/default-corporate-11/corp-primary-thumbnail-d.jpg",
      "description": "Globe Group expresses support for pending Anti-Money Mule and Financial Fraud bills against scammers.",
      "datePosted": "Sep 06, 2023 | 12:01 PM",
      "titleFromTag": "Corporate"
    },
    {
      "title": "Globe Loves You Back! Why Globe is the Most ‘rewarding’ Brand",
      "nonclickable": false,
      "openNewTab": false,
      "borderArticle": "border-color:#0074D9;",
      "borderTopArticle": "border-top-color:#0074D9;",
      "imageListing": "/sites/globe.com.ph/files/content/dam/globe/brie/AboutUs/newsroom/common/default-prepaid-gen-z-mobile-2/Newsroom-Prepaid-Default-Images-Gen-Z-Mobile-2-thumbnail-listing.jpg",
      "articleUrl": "https://www.globe.com.ph/about-us/newsroom/corporate/globe-loves-you-back-why-globe-is-the-most-rewarding-brand.html",
      "columnType": "articles--type-3",
      "typeListing": "article",
      "imageMobile": "/sites/globe.com.ph/files/content/dam/globe/brie/AboutUs/newsroom/common/default-prepaid-gen-z-mobile-2/Newsroom-Prepaid-Default-Images-Gen-Z-Mobile-2-primary-thumbnail-m.jpg",
      "imageDesktop": "/sites/globe.com.ph/files/content/dam/globe/brie/AboutUs/newsroom/common/default-prepaid-gen-z-mobile-2/Newsroom-Prepaid-Default-Images-Gen-Z-Mobile-2-primary-thumbnail-d.jpg",
      "description": "Globe shows immense appreciation to its loyal customers with its innovative Rewards Program.",
      "datePosted": "Sep 06, 2023 | 12:00 PM",
      "titleFromTag": "Corporate"
    },
    {
      "title": "Globe to Cooperate Fully with PNP, Law Enforcement Agencies",
      "nonclickable": false,
      "openNewTab": false,
      "borderArticle": "border-color:#0074D9;",
      "borderTopArticle": "border-top-color:#0074D9;",
      "imageListing": "/sites/globe.com.ph/files/content/dam/globe/brie/AboutUs/newsroom/common/default-mobile-3/Newsroom-Total-Globe-Default-Images-Mobile-3-thumbnail-listing.jpg",
      "articleUrl": "https://www.globe.com.ph/about-us/newsroom/corporate/globe-to-cooperate-fully-with-pnp-law-enforcement-agencies.html",
      "columnType": "articles--type-3",
      "typeListing": "article",
      "imageMobile": "/sites/globe.com.ph/files/content/dam/globe/brie/AboutUs/newsroom/common/default-mobile-3/Newsroom-Total-Globe-Default-Images-Mobile-3-primary-thumbnail-m.jpg",
      "imageDesktop": "/sites/globe.com.ph/files/content/dam/globe/brie/AboutUs/newsroom/common/default-mobile-3/Newsroom-Total-Globe-Default-Images-Mobile-3-primary-thumbnail-d.jpg",
      "description": "After the full implementation of the SIM Registration Act, Globe reminds all new SIM users that they should go through the registration process. ",
      "datePosted": "Sep 06, 2023 | 08:01 AM",
      "titleFromTag": "Corporate"
    },
    {
      "title": "Say Yes! With Globe's #SeniorDigizen: Teach Me How to ‘Digi’ TikTok Contest ",
      "nonclickable": false,
      "openNewTab": false,
      "borderArticle": "border-color:#0074D9;",
      "borderTopArticle": "border-top-color:#0074D9;",
      "imageListing": "/sites/globe.com.ph/files/content/dam/globe/brie/AboutUs/newsroom/sustainability/say-yes-with-globes-seniordigizen/newsroom-senior-digizen-thumbnail-listing.jpg",
      "articleUrl": "https://www.globe.com.ph/about-us/newsroom/sustainability/seniordigizen-teach-me-how-to-digi-tiktok-contest.html",
      "columnType": "articles--type-3",
      "typeListing": "article",
      "imageMobile": "/sites/globe.com.ph/files/content/dam/globe/brie/AboutUs/newsroom/sustainability/say-yes-with-globes-seniordigizen/newsroom-senior-digizen-primary-thumbnail-m.jpg",
      "imageDesktop": "/sites/globe.com.ph/files/content/dam/globe/brie/AboutUs/newsroom/sustainability/say-yes-with-globes-seniordigizen/newsroom-senior-digizen-primary-thumbnail-d.jpg",
      "description": "In celebration of Grandparents Day and Elderly Week, Globe launched the #SeniorDigizen: Teach Me How to ‘Digi’ TikTok contest.",
      "datePosted": "Sep 06, 2023 | 08:00 AM",
      "titleFromTag": "Sustainability"
    }
  ]
}
