{
  "status": 200,
  "page": 110,
  "totalPage": 298,
  "range": "1309-1320",
  "total": 3573,
  "result": [
    {
      "title": "Globe: Philippines' Most Consistent Mobile Network ",
      "nonclickable": false,
      "openNewTab": false,
      "borderArticle": "border-color:#0074D9;",
      "borderTopArticle": "border-top-color:#0074D9;",
      "imageListing": "/sites/globe.com.ph/files/content/dam/globe/brie/AboutUs/newsroom/corporate/700k-customers-5g-devices-end-may/corporate-default-7-thumbnail-listing.jpg",
      "articleUrl": "https://www.globe.com.ph/about-us/newsroom/corporate/globe-philippines-most-consistent-mobile-network.html",
      "columnType": "articles--type-3",
      "typeListing": "article",
      "imageMobile": "/sites/globe.com.ph/files/content/dam/globe/brie/AboutUs/newsroom/corporate/700k-customers-5g-devices-end-may/corporate-default-7-primary-thumbnail-m.jpg",
      "imageDesktop": "/sites/globe.com.ph/files/content/dam/globe/brie/AboutUs/newsroom/corporate/700k-customers-5g-devices-end-may/corporate-default-7-primary-thumbnail-d.jpg",
      "description": "Globe’s efforts to improve the country’s connectivity has led to it be the most consistent mobile network for two quarters in 2021, as verified by Ookla®.",
      "datePosted": "Jul 14, 2021 | 09:17 AM",
      "titleFromTag": "Corporate"
    },
    {
      "title": "HealthNow Enables 1M Vaccinations Through Ayala Group’s COVIDShield",
      "nonclickable": false,
      "openNewTab": false,
      "borderArticle": "border-color:#0074D9;",
      "borderTopArticle": "border-top-color:#0074D9;",
      "imageListing": "/sites/globe.com.ph/files/content/dam/globe/brie/AboutUs/newsroom/917ventures/healthnow-enables-1m-vaccinations-ayala-group-covidshield/newsroom-917ventures-healthnow-enables-1m-thumbnail-listing.jpg",
      "articleUrl": "https://www.globe.com.ph/about-us/newsroom/917ventures/healthnow-enables-1m-vaccinations-ayala-group-covidshield.html",
      "columnType": "articles--type-3",
      "typeListing": "article",
      "imageMobile": "/sites/globe.com.ph/files/content/dam/globe/brie/AboutUs/newsroom/917ventures/healthnow-enables-1m-vaccinations-ayala-group-covidshield/newsroom-917ventures-healthnow-enables-1m-primary-thumbnail-m.jpg",
      "imageDesktop": "/sites/globe.com.ph/files/content/dam/globe/brie/AboutUs/newsroom/917ventures/healthnow-enables-1m-vaccinations-ayala-group-covidshield/newsroom-917ventures-healthnow-enables-1m-primary-thumbnail-d.jpg",
      "description": "Individuals inoculated through COVIDShield will receive a vaccination passport which may be used for workforce re-entry and travel purposes.",
      "datePosted": "Jul 13, 2021 | 03:09 PM",
      "titleFromTag": "917Ventures"
    },
    {
      "title": "Globe Hails Expanded ARTA for Easier Permits, More ICT Infra Builds",
      "nonclickable": false,
      "openNewTab": false,
      "borderArticle": "border-color:#0074D9;",
      "borderTopArticle": "border-top-color:#0074D9;",
      "imageListing": "/sites/globe.com.ph/files/content/dam/globe/brie/AboutUs/newsroom/common/updated/Corporate-globe-thumbnail-listing.jpg",
      "articleUrl": "https://www.globe.com.ph/about-us/newsroom/corporate/globe-hails-expanded-arta-easier-permits.html",
      "columnType": "articles--type-3",
      "typeListing": "article",
      "imageMobile": "/sites/globe.com.ph/files/content/dam/globe/brie/AboutUs/newsroom/common/updated/Corporate-globe-primary-thumbnail-m.jpg",
      "imageDesktop": "/sites/globe.com.ph/files/content/dam/globe/brie/AboutUs/newsroom/common/updated/Corporate-globe-primary-thumbnail-d.jpg",
      "description": "The expanded ARTA joint memorandum circular revised the previously issued JMC 1 series of 2020, to harmonize it with the provisions of Bayanihan 2.",
      "datePosted": "Jul 13, 2021 | 01:58 PM",
      "titleFromTag": "Corporate"
    },
    {
      "title": "Call Of Duty: 1,500 COVID-19 Medical Frontliners Receive Essential Care Packages from Globe",
      "nonclickable": false,
      "openNewTab": false,
      "borderArticle": "border-color:#1C91C5;",
      "borderTopArticle": "border-top-color:#1C91C5;",
      "imageListing": "/sites/globe.com.ph/files/content/dam/globe/brie/AboutUs/newsroom/sustainability/1500-medical-frontliners-receive-essential-care-packages-globe/newsroom-sustainability-1500-medical-frontliners-thumbnail-listing.jpg",
      "articleUrl": "https://www.globe.com.ph/about-us/newsroom/sustainability/1500-medical-frontliners-receive-essential-care-packages-globe.html",
      "columnType": "articles--type-3",
      "typeListing": "article",
      "imageMobile": "/sites/globe.com.ph/files/content/dam/globe/brie/AboutUs/newsroom/sustainability/1500-medical-frontliners-receive-essential-care-packages-globe/newsroom-sustainability-1500-medical-frontliners-primary-thumbnail-m.jpg",
      "imageDesktop": "/sites/globe.com.ph/files/content/dam/globe/brie/AboutUs/newsroom/sustainability/1500-medical-frontliners-receive-essential-care-packages-globe/newsroom-sustainability-1500-medical-frontliners-thumbnail-d.jpg",
      "description": "Globe and its partners have provided connectivity support to medical frontliners who risk their lives tending needs of those affected by the COVID-19 pandemic.",
      "datePosted": "Jul 13, 2021 | 11:37 AM",
      "titleFromTag": "Sustainability"
    },
    {
      "title": "#BrigadangAyala: Medical Frontliners Receive Support from Globe and Partners",
      "nonclickable": false,
      "openNewTab": false,
      "borderArticle": "border-color:#0074D9;",
      "borderTopArticle": "border-top-color:#0074D9;",
      "imageListing": "/sites/globe.com.ph/files/content/dam/globe/brie/AboutUs/newsroom/partners/medical-frontliners-receive-support-globe-partners/newsroom-partners-medical-frontliners-receive-thumbnail-listing.jpg",
      "articleUrl": "https://www.globe.com.ph/about-us/newsroom/partners/medical-frontliners-receive-support-globe-partners.html",
      "columnType": "articles--type-3",
      "typeListing": "article",
      "imageMobile": "/sites/globe.com.ph/files/content/dam/globe/brie/AboutUs/newsroom/partners/medical-frontliners-receive-support-globe-partners/newsroom-partners-medical-frontliners-receive-primary-thumbnail-m.jpg",
      "imageDesktop": "/sites/globe.com.ph/files/content/dam/globe/brie/AboutUs/newsroom/partners/medical-frontliners-receive-support-globe-partners/newsroom-partners-medical-frontliners-receive-primary-thumbnail-d.jpg",
      "description": "Globe aids Ayala Group's #BrigadangAyala in supplying 3 public hospitals with WiFi, entertainment packs, medical kits, insurance vouchers, cash, and groceries.",
      "datePosted": "Jul 12, 2021 | 04:23 PM",
      "titleFromTag": "Partners"
    },
    {
      "title": "Globe, Mandaluyong City Join Hands in Pandemic Response With GoWiFi and AMBER",
      "nonclickable": false,
      "openNewTab": false,
      "borderArticle": "border-color:#1C91C5;",
      "borderTopArticle": "border-top-color:#1C91C5;",
      "imageListing": "/sites/globe.com.ph/files/content/dam/globe/brie/AboutUs/newsroom/sustainability/globe-mandaluyong-pandemic-response-gowifi-amber/newsroom-sustainability-mandaluyong-pandemic-response-thumbnail-listing.jpg",
      "articleUrl": "https://www.globe.com.ph/about-us/newsroom/sustainability/globe-mandaluyong-pandemic-response-gowifi-amber.html",
      "columnType": "articles--type-3",
      "typeListing": "article",
      "imageMobile": "/sites/globe.com.ph/files/content/dam/globe/brie/AboutUs/newsroom/sustainability/globe-mandaluyong-pandemic-response-gowifi-amber/newsroom-sustainability-mandaluyong-pandemic-response-primary-thumbnail-m.jpg",
      "imageDesktop": "/sites/globe.com.ph/files/content/dam/globe/brie/AboutUs/newsroom/sustainability/globe-mandaluyong-pandemic-response-gowifi-amber/newsroom-sustainability-mandaluyong-pandemic-response-primary-thumbnail-d.jpg",
      "description": "Globe and the city of Mandaluyong have kept almost 470,000 residents safe, informed, and connected during the pandemic via free GoWiFi and AMBER services.",
      "datePosted": "Jul 12, 2021 | 04:00 PM",
      "titleFromTag": "Sustainability"
    },
    {
      "title": "Globe Business Academy Experts: APIs Are Critical to Transforming Customer Experience ",
      "nonclickable": false,
      "openNewTab": false,
      "borderArticle": "border-color:#0074D9;",
      "borderTopArticle": "border-top-color:#0074D9;",
      "imageListing": "/sites/globe.com.ph/files/content/dam/globe/brie/AboutUs/newsroom/business/api-critical-transforming-customer-experience/newsroom-business-api-critical-transforming-thumbnail-listing.jpg",
      "articleUrl": "https://www.globe.com.ph/about-us/newsroom/business/api-critical-transforming-customer-experience.html",
      "columnType": "articles--type-3",
      "typeListing": "article",
      "imageMobile": "/sites/globe.com.ph/files/content/dam/globe/brie/AboutUs/newsroom/business/api-critical-transforming-customer-experience/newsroom-business-api-critical-transforming-primary-thumbnail-m.jpg",
      "imageDesktop": "/sites/globe.com.ph/files/content/dam/globe/brie/AboutUs/newsroom/business/api-critical-transforming-customer-experience/newsroom-business-api-critical-transforming-primary-thumbnail-d.jpg",
      "description": "Digital transformation is crucial in driving enhanced customer experience, helping brands rise to the top in this increasingly competitive landscape. ",
      "datePosted": "Jul 12, 2021 | 10:45 AM",
      "titleFromTag": "Business"
    },
    {
      "title": "Globe Business Backs the IT Sector With Digital Transformation Initiatives on National ICT Month\t",
      "nonclickable": false,
      "openNewTab": false,
      "borderArticle": "border-color:#0074D9;",
      "borderTopArticle": "border-top-color:#0074D9;",
      "imageListing": "/sites/globe.com.ph/files/content/dam/globe/brie/AboutUs/newsroom/business/globe-business-backs-it-sector-digital-transformation-initiatives/newsroom-business-digital-transformation-initiatives-thumbnail-listing.jpg",
      "articleUrl": "https://www.globe.com.ph/about-us/newsroom/business/globe-business-backs-it-sector-digital-transformation-initiatives.html",
      "columnType": "articles--type-3",
      "typeListing": "article",
      "imageMobile": "/sites/globe.com.ph/files/content/dam/globe/brie/AboutUs/newsroom/business/globe-business-backs-it-sector-digital-transformation-initiatives/newsroom-business-digital-transformation-initiatives-primary-thumbnail-m.jpg",
      "imageDesktop": "/sites/globe.com.ph/files/content/dam/globe/brie/AboutUs/newsroom/business/globe-business-backs-it-sector-digital-transformation-initiatives/newsroom-business-digital-transformation-initiatives-primary-thumbnail-d.jpg",
      "description": "In support of this year’s National ICT Month, Globe Business launched several initiatives aimed at helping MSMEs fast-track digital transformation.",
      "datePosted": "Jul 12, 2021 | 10:45 AM",
      "titleFromTag": "Business"
    },
    {
      "title": "Globe President and CEO Ernest Cu to Businesses:  Keep Pivoting and Predict New Habits",
      "nonclickable": false,
      "openNewTab": false,
      "borderArticle": "border-color:#0074D9;",
      "borderTopArticle": "border-top-color:#0074D9;",
      "imageListing": "/sites/globe.com.ph/files/content/dam/globe/brie/AboutUs/newsroom/business/ernest-cu-businesses-keep-pivoting-predict-new-habits/newsroom-business-ernest-cu-businesses-thumbnail-listing.jpg",
      "articleUrl": "https://www.globe.com.ph/about-us/newsroom/business/ernest-cu-businesses-keep-pivoting-predict-new-habits.html",
      "columnType": "articles--type-3",
      "typeListing": "article",
      "imageMobile": "/sites/globe.com.ph/files/content/dam/globe/brie/AboutUs/newsroom/business/ernest-cu-businesses-keep-pivoting-predict-new-habits/newsroom-business-ernest-cu-businesses-thumbnail-m.jpg",
      "imageDesktop": "/sites/globe.com.ph/files/content/dam/globe/brie/AboutUs/newsroom/business/ernest-cu-businesses-keep-pivoting-predict-new-habits/newsroom-business-ernest-cu-businesses-primary-thumbnail-d.jpg",
      "description": "Globe CEO Ernest Cu warned in an interview with Clockwork that 2021 will remain a challenge for businesses until herd immunity is achieved through vaccination.",
      "datePosted": "Jul 12, 2021 | 10:11 AM",
      "titleFromTag": "Business"
    },
    {
      "title": "Globe Expands Delivery of 5G Services to Travelling Customers, Partners with More 5G-Ready Companies",
      "nonclickable": false,
      "openNewTab": false,
      "borderArticle": "border-color:#0074D9;",
      "borderTopArticle": "border-top-color:#0074D9;",
      "imageListing": "/sites/globe.com.ph/files/content/dam/globe/brie/AboutUs/newsroom/consumer/globe-expands-delivery-5g-services-travelling-customers/newsroom-consumer-expands-delivery-5g-thumbnail-listing.jpg",
      "articleUrl": "https://www.globe.com.ph/about-us/newsroom/consumer/globe-expands-delivery-5g-services-travelling-customers.html",
      "columnType": "articles--type-3",
      "typeListing": "article",
      "imageMobile": "/sites/globe.com.ph/files/content/dam/globe/brie/AboutUs/newsroom/consumer/globe-expands-delivery-5g-services-travelling-customers/newsroom-consumer-expands-delivery-5g-primary-thumbnail-m.jpg",
      "imageDesktop": "/sites/globe.com.ph/files/content/dam/globe/brie/AboutUs/newsroom/consumer/globe-expands-delivery-5g-services-travelling-customers/newsroom-consumer-expands-delivery-5g-primary-thumbnail-d.jpg",
      "description": "Globe continues to ramp up its roster of 5G-ready partner companies ahead of the travel industry’s gradual recovery from the COVID-19 pandemic.",
      "datePosted": "Jul 09, 2021 | 09:34 AM",
      "titleFromTag": "Consumer"
    },
    {
      "title": "Practicing Mindfulness to Combat Stress Using the “SMPLE” Method",
      "nonclickable": false,
      "openNewTab": false,
      "borderArticle": "border-color:#1C91C5;",
      "borderTopArticle": "border-top-color:#1C91C5;",
      "imageListing": "/sites/globe.com.ph/files/content/dam/globe/brie/AboutUs/newsroom/sustainability/practicing-mindfulness-combat-stress-smple-method/newsroom-sustainability-practicing-mindfulness-combat-thumbnail-listing.jpg",
      "articleUrl": "https://www.globe.com.ph/about-us/newsroom/sustainability/practicing-mindfulness-combat-stress-smple-method.html",
      "columnType": "articles--type-3",
      "typeListing": "article",
      "imageMobile": "/sites/globe.com.ph/files/content/dam/globe/brie/AboutUs/newsroom/sustainability/practicing-mindfulness-combat-stress-smple-method/newsroom-sustainability-practicing-mindfulness-combat-primary-thumbnail-m.jpg",
      "imageDesktop": "/sites/globe.com.ph/files/content/dam/globe/brie/AboutUs/newsroom/sustainability/practicing-mindfulness-combat-stress-smple-method/newsroom-sustainability-practicing-mindfulness-combat-primary-thumbnail-d.jpg",
      "description": "Practicing mindfulness contributes to better emotional control, improved health, increased resilience, enhanced productivity, and healthier relationships.",
      "datePosted": "Jul 08, 2021 | 04:43 PM",
      "titleFromTag": "Sustainability"
    },
    {
      "title": "Eala, Nugroho Cruise to Second Round of Wimbledon Girls’ Doubles",
      "nonclickable": false,
      "openNewTab": false,
      "borderArticle": "border-color:#0074D9;",
      "borderTopArticle": "border-top-color:#0074D9;",
      "imageListing": "/sites/globe.com.ph/files/content/dam/globe/brie/AboutUs/newsroom/corporate/eala-nugroho-cruise-second-round-wimbledon-girls-doubles/newsroom-corporate-eala-nugroho-cruise-thumbnail-listing.jpg",
      "articleUrl": "https://www.globe.com.ph/about-us/newsroom/corporate/eala-nugroho-cruise-second-round-wimbledon-girls-doubles.html",
      "columnType": "articles--type-3",
      "typeListing": "article",
      "imageMobile": "/sites/globe.com.ph/files/content/dam/globe/brie/AboutUs/newsroom/corporate/eala-nugroho-cruise-second-round-wimbledon-girls-doubles/newsroom-corporate-eala-nugroho-cruise-primary-thumbnail-m.jpg",
      "imageDesktop": "/sites/globe.com.ph/files/content/dam/globe/brie/AboutUs/newsroom/corporate/eala-nugroho-cruise-second-round-wimbledon-girls-doubles/newsroom-corporate-eala-nugroho-cruise-primary-thumbnail-d.jpg",
      "description": "Alex Eala together with Priska Madelyn Nugroho moved on to the second round of the 2021 Wimbledon girls’ doubles tournament with a dominant 6-0, 6-0 victory.",
      "datePosted": "Jul 08, 2021 | 02:31 PM",
      "titleFromTag": "Corporate"
    }
  ]
}
