{
  "status": 200,
  "page": 111,
  "totalPage": 298,
  "range": "1321-1332",
  "total": 3573,
  "result": [
    {
      "title": "‘Getting Healthcare Should be as Simple as Buying Load’, says New KonsultaMD CEO",
      "nonclickable": false,
      "openNewTab": false,
      "borderArticle": "border-color:#0074D9;",
      "borderTopArticle": "border-top-color:#0074D9;",
      "imageListing": "/sites/globe.com.ph/files/content/dam/globe/brie/AboutUs/newsroom/917ventures/healthcare-simple-buying-load-new-konsultamd-ceo/newsroom-sustainability-healthcare-simple-buying-thumbnail-listing.jpg",
      "articleUrl": "https://www.globe.com.ph/about-us/newsroom/917ventures/healthcare-simple-buying-load-new-konsultamd-ceo.html",
      "columnType": "articles--type-3",
      "typeListing": "article",
      "imageMobile": "/sites/globe.com.ph/files/content/dam/globe/brie/AboutUs/newsroom/917ventures/healthcare-simple-buying-load-new-konsultamd-ceo/newsroom-sustainability-healthcare-simple-buying-primary-thumbnail-m.jpg",
      "imageDesktop": "/sites/globe.com.ph/files/content/dam/globe/brie/AboutUs/newsroom/917ventures/healthcare-simple-buying-load-new-konsultamd-ceo/newsroom-sustainability-healthcare-simple-buying-primary-thumbnail-d.jpg",
      "description": "Tagaysay is pushing for the consumerization of health services to allow even disadvantaged citizens access to doctors at a fraction of consultation costs.",
      "datePosted": "Jul 08, 2021 | 11:32 AM",
      "titleFromTag": "917Ventures"
    },
    {
      "title": "Top 6 E-Waste Facts You Should Know Now",
      "nonclickable": false,
      "openNewTab": false,
      "borderArticle": "border-color:#0074D9;",
      "borderTopArticle": "border-top-color:#0074D9;",
      "imageListing": "/sites/globe.com.ph/files/content/dam/globe/brie/AboutUs/newsroom/sustainability/e-waste-facts-you-should-know/newsroom-sustainability-e-waste-facts-thumbnail-listing.jpg",
      "articleUrl": "https://www.globe.com.ph/about-us/newsroom/sustainability/e-waste-facts-you-should-know.html",
      "columnType": "articles--type-3",
      "typeListing": "article",
      "imageMobile": "/sites/globe.com.ph/files/content/dam/globe/brie/AboutUs/newsroom/sustainability/e-waste-facts-you-should-know/newsroom-sustainability-e-waste-facts-primary-thumbnail-m.jpg",
      "imageDesktop": "/sites/globe.com.ph/files/content/dam/globe/brie/AboutUs/newsroom/sustainability/e-waste-facts-you-should-know/newsroom-sustainability-e-waste-facts-thumbnail-d.jpg",
      "description": "Nothing lasts forever, so they say -- gadgets included. These are usually traded in or discarded for newer and more advanced models. Such behavior, though, has a negative impact on the environment and our health. ",
      "datePosted": "Jul 07, 2021 | 02:49 PM",
      "titleFromTag": "Sustainability"
    },
    {
      "title": "Globe Achieves Secureworks® Global MSSP Partner Status",
      "nonclickable": false,
      "openNewTab": false,
      "borderArticle": "border-color:#0074D9;",
      "borderTopArticle": "border-top-color:#0074D9;",
      "imageListing": "/sites/globe.com.ph/files/content/dam/globe/brie/AboutUs/newsroom/business/globe-achieves-secureworks-global-mssp-partner-status/newsroom-business-achieve-secureworks-global-thumbnail-listing1.jpg",
      "articleUrl": "https://www.globe.com.ph/about-us/newsroom/business/globe-achieves-secureworks-global-mssp-partner-status.html",
      "columnType": "articles--type-3",
      "typeListing": "article",
      "imageMobile": "/sites/globe.com.ph/files/content/dam/globe/brie/AboutUs/newsroom/business/globe-achieves-secureworks-global-mssp-partner-status/newsroom-business-achieve-secureworks-global-thumbnail-m1.jpg",
      "imageDesktop": "/sites/globe.com.ph/files/content/dam/globe/brie/AboutUs/newsroom/business/globe-achieves-secureworks-global-mssp-partner-status/newsroom-business-achieve-secureworks-global-primary-thumbnail-d1.jpg",
      "description": "Globe Telecom—through its enterprise arm, Globe Business is now a certified Secureworks® Global MSSP Partner, the first in the Philippines and in Asia . ",
      "datePosted": "Jul 07, 2021 | 02:23 PM",
      "titleFromTag": "Business"
    },
    {
      "title": "Only from Globe At Home, Upgrade your Home Setup with a Huawei Vision S",
      "nonclickable": false,
      "openNewTab": false,
      "borderArticle": "border-color:#0074D9;",
      "borderTopArticle": "border-top-color:#0074D9;",
      "imageListing": "/sites/globe.com.ph/files/content/dam/globe/brie/AboutUs/newsroom/consumer/upgrade-home-setup-huawei-vision-s-globe-at-home/newsroom-consumer-upgrade-home-setup-thumbnail-listing.jpg",
      "articleUrl": "https://www.globe.com.ph/about-us/newsroom/consumer/globe-at-home-huawei-vision-s.html",
      "columnType": "articles--type-3",
      "typeListing": "article",
      "imageMobile": "/sites/globe.com.ph/files/content/dam/globe/brie/AboutUs/newsroom/consumer/upgrade-home-setup-huawei-vision-s-globe-at-home/newsroom-consumer-upgrade-home-setup-primary-thumbnail-m.jpg",
      "imageDesktop": "/sites/globe.com.ph/files/content/dam/globe/brie/AboutUs/newsroom/consumer/upgrade-home-setup-huawei-vision-s-globe-at-home/newsroom-consumer-upgrade-home-setup-primary-thumbnail-d.jpg",
      "description": "Globe At Home gives its Postpaid customers the chance to upgrade their set up with their very own Huawei Vision S until July 11, 2021.",
      "datePosted": "Jul 06, 2021 | 03:13 PM",
      "titleFromTag": "Consumer"
    },
    {
      "title": "Consult Doctors on TV: KonsultaMD, Huawei Take Telemedicine to Pinoy Homes",
      "nonclickable": false,
      "openNewTab": false,
      "borderArticle": "border-color:#0074D9;",
      "borderTopArticle": "border-top-color:#0074D9;",
      "imageListing": "/sites/globe.com.ph/files/content/dam/globe/brie/AboutUs/newsroom/consumer/konsultamd-huawei-take-telemedicine-pinoy-homes/newsroom-consumer-konsultamd-huawei-take-thumbnail-listing.jpg",
      "articleUrl": "https://www.globe.com.ph/about-us/newsroom/consumer/konsultamd-huawei-take-telemedicine-pinoy-homes.html",
      "columnType": "articles--type-3",
      "typeListing": "article",
      "imageMobile": "/sites/globe.com.ph/files/content/dam/globe/brie/AboutUs/newsroom/consumer/konsultamd-huawei-take-telemedicine-pinoy-homes/newsroom-consumer-konsultamd-huawei-take-primary-thumbnail-m.jpg",
      "imageDesktop": "/sites/globe.com.ph/files/content/dam/globe/brie/AboutUs/newsroom/consumer/konsultamd-huawei-take-telemedicine-pinoy-homes/newsroom-consumer-konsultamd-huawei-take-primary-thumbnail-d.jpg",
      "description": "Filipinos nationwide may now talk to a doctor via their TV sets right from the comfort of their homes. ",
      "datePosted": "Jul 06, 2021 | 03:02 PM",
      "titleFromTag": "Consumer"
    },
    {
      "title": "Globe Implores Mandaluyong Barangay Not to Prohibit New Cell Sites",
      "nonclickable": false,
      "openNewTab": false,
      "borderArticle": "border-color:#0074D9;",
      "borderTopArticle": "border-top-color:#0074D9;",
      "imageListing": "/sites/globe.com.ph/files/content/dam/globe/brie/AboutUs/newsroom/common/updated/Corporate-globe-thumbnail-listing.jpg",
      "articleUrl": "https://www.globe.com.ph/about-us/newsroom/corporate/globe-implores-mandaluyong-barangay-not-prohibit-new-cell-sites.html",
      "columnType": "articles--type-3",
      "typeListing": "article",
      "imageMobile": "/sites/globe.com.ph/files/content/dam/globe/brie/AboutUs/newsroom/common/updated/Corporate-globe-primary-thumbnail-m.jpg",
      "imageDesktop": "/sites/globe.com.ph/files/content/dam/globe/brie/AboutUs/newsroom/common/updated/Corporate-globe-primary-thumbnail-d.jpg",
      "description": "Essential etwork upgrades and expansion help improve connectivity, increase internet access, and facilitate the digitalization of Filipino businesses and homes.",
      "datePosted": "Jul 06, 2021 | 01:56 PM",
      "titleFromTag": "Corporate"
    },
    {
      "title": "Eala Wins Wimbledon Girls’ Singles Debut; Beats Sierra in Straight Sets",
      "nonclickable": false,
      "openNewTab": false,
      "borderArticle": "border-color:#0074D9;",
      "borderTopArticle": "border-top-color:#0074D9;",
      "imageListing": "/sites/globe.com.ph/files/content/dam/globe/brie/AboutUs/newsroom/corporate/eala-victorious-singles-doubles-j1-roehampton-london/newsroom-corporate-alex-eala-victorious-thumbnail-listing.jpg",
      "articleUrl": "https://www.globe.com.ph/about-us/newsroom/corporate/eala-wins-wimbledon-girls-singles-debut.html",
      "columnType": "articles--type-3",
      "typeListing": "article",
      "imageMobile": "/sites/globe.com.ph/files/content/dam/globe/brie/AboutUs/newsroom/corporate/eala-victorious-singles-doubles-j1-roehampton-london/newsroom-corporate-alex-eala-victorious-primary-thumbnail-m.jpg",
      "imageDesktop": "/sites/globe.com.ph/files/content/dam/globe/brie/AboutUs/newsroom/corporate/eala-victorious-singles-doubles-j1-roehampton-london/newsroom-corporate-alex-eala-victorious-primary-thumbnail-d.jpg",
      "description": "Eala breezes through the first round of Wimbledon girls' singles tournament over Solana Sierra of Argentina at the All England Lawn Tennis and Croquet Club.",
      "datePosted": "Jul 05, 2021 | 09:17 PM",
      "titleFromTag": "Corporate"
    },
    {
      "title": "More Globe Libreng Tawag, Charging, WiFi Services Deployed Around Taal",
      "nonclickable": false,
      "openNewTab": false,
      "borderArticle": "border-color:#0074D9;",
      "borderTopArticle": "border-top-color:#0074D9;",
      "imageListing": "/sites/globe.com.ph/files/content/dam/globe/brie/AboutUs/newsroom/sustainability/more-globe-libreng-tawag-charging-wifi-around-taal/newsroom-sustainability-more-libreng-tawag-thumbnail-listing.jpg",
      "articleUrl": "https://www.globe.com.ph/about-us/newsroom/sustainability/more-globe-libreng-tawag-charging-wifi-around-taal.html",
      "columnType": "articles--type-3",
      "typeListing": "article",
      "imageMobile": "/sites/globe.com.ph/files/content/dam/globe/brie/AboutUs/newsroom/sustainability/more-globe-libreng-tawag-charging-wifi-around-taal/newsroom-sustainability-more-libreng-tawag-primary-thumbnail-m.jpg",
      "imageDesktop": "/sites/globe.com.ph/files/content/dam/globe/brie/AboutUs/newsroom/sustainability/more-globe-libreng-tawag-charging-wifi-around-taal/newsroom-sustainability-more-libreng-tawag-primary-thumbnail-d.jpg",
      "description": "Globe has set-up more Libreng Tawag, Charging, and WiFi services around the vicinity and nearby areas of Taal, after Alert Level 3 or magmatic unrest was maintained over Taal Volcano by PHIVOLCS.",
      "datePosted": "Jul 05, 2021 | 03:33 PM",
      "titleFromTag": "Sustainability"
    },
    {
      "title": "#DoItRight: Globe Intensifies Crackdown Against Illegal Resellers of Globe At Home Modems",
      "nonclickable": false,
      "openNewTab": false,
      "borderArticle": "border-color:#0074D9;",
      "borderTopArticle": "border-top-color:#0074D9;",
      "imageListing": "/sites/globe.com.ph/files/content/dam/globe/brie/AboutUs/newsroom/common/updated/Corporate-globe-thumbnail-listing.jpg",
      "articleUrl": "https://www.globe.com.ph/about-us/newsroom/sustainability/globe-intensifies-crackdown-illegal-resellers-globe-at-home-modems.html",
      "columnType": "articles--type-3",
      "typeListing": "article",
      "imageMobile": "/sites/globe.com.ph/files/content/dam/globe/brie/AboutUs/newsroom/common/updated/Corporate-globe-primary-thumbnail-m.jpg",
      "imageDesktop": "/sites/globe.com.ph/files/content/dam/globe/brie/AboutUs/newsroom/common/updated/Corporate-globe-primary-thumbnail-d.jpg",
      "description": "Globe continues to ramp up its operations together with the Philippine National Police against the illegal reselling of rebranded Globe At Home modems.",
      "datePosted": "Jul 05, 2021 | 02:14 PM",
      "titleFromTag": "Sustainability"
    },
    {
      "title": " Globe’s Disaster-Resilient Network, Workforce Gear Up for Rainy Season",
      "nonclickable": false,
      "openNewTab": false,
      "borderArticle": "border-color:#0074D9;",
      "borderTopArticle": "border-top-color:#0074D9;",
      "imageListing": "/sites/globe.com.ph/files/content/dam/globe/brie/AboutUs/newsroom/sustainability/disaster-resilient-network-workforce-gear-up-rainy-season/newsroom-sustainability-disaster-resilient-network-thumbnail-listing.jpg",
      "articleUrl": "https://www.globe.com.ph/about-us/newsroom/sustainability/disaster-resilient-network-workforce-gear-up-rainy-season.html",
      "columnType": "articles--type-3",
      "typeListing": "article",
      "imageMobile": "/sites/globe.com.ph/files/content/dam/globe/brie/AboutUs/newsroom/sustainability/disaster-resilient-network-workforce-gear-up-rainy-season/newsroom-sustainability-disaster-resilient-network-primary-thumbnail-m.jpg",
      "imageDesktop": "/sites/globe.com.ph/files/content/dam/globe/brie/AboutUs/newsroom/sustainability/disaster-resilient-network-workforce-gear-up-rainy-season/newsroom-sustainability-disaster-resilient-network-primary-thumbnail-d.jpg",
      "description": "Destructive typhoons and other natural disasters are often synonymous with the onset of the rainy season in the Philippines. Given this, Globe commits to providing continued connectivity support to affected communities and residents.",
      "datePosted": "Jul 05, 2021 | 01:10 PM",
      "titleFromTag": "Sustainability"
    },
    {
      "title": "Alex Eala Beats German Foe in Last 16 but Bows to Czech Rival in Quarterfinals of J1 Roehampton",
      "nonclickable": false,
      "openNewTab": false,
      "borderArticle": "border-color:#0074D9;",
      "borderTopArticle": "border-top-color:#0074D9;",
      "imageListing": "/sites/globe.com.ph/files/content/dam/globe/brie/AboutUs/newsroom/corporate/eala-globe-logo-tournament-outfits/newsroom-corporate-eala-logo-tournament-thumbnail-listing.jpg",
      "articleUrl": "https://www.globe.com.ph/about-us/newsroom/corporate/eala-beats-german-bows-czech-rival-j1-roehampton.html",
      "columnType": "articles--type-3",
      "typeListing": "article",
      "imageMobile": "/sites/globe.com.ph/files/content/dam/globe/brie/AboutUs/newsroom/corporate/eala-globe-logo-tournament-outfits/newsroom-corporate-eala-logo-tournament-primary-thumbnail-m.jpg",
      "imageDesktop": "/sites/globe.com.ph/files/content/dam/globe/brie/AboutUs/newsroom/corporate/eala-globe-logo-tournament-outfits/newsroom-corporate-eala-logo-tournament-primary-thumbnail-d.jpg",
      "description": "Alex Eala took down Mara Guth of Germany in straight sets but suffered a loss to Linda Fruhvirtova of the Czech Republic in the J1 Roehampton quarterfinals.",
      "datePosted": "Jul 03, 2021 | 04:35 PM",
      "titleFromTag": "Corporate"
    },
    {
      "title": "Globe 1st PH Company to Set Science-Based Goals for Climate Action",
      "nonclickable": false,
      "openNewTab": false,
      "borderArticle": "border-color:#0074D9;",
      "borderTopArticle": "border-top-color:#0074D9;",
      "imageListing": "/sites/globe.com.ph/files/content/dam/globe/brie/AboutUs/newsroom/sustainability/globe-1st-ph-company-science-based-goals-climate-action/newsroom-sustainability-1st-ph-company-thumbnail-listing.jpg",
      "articleUrl": "https://www.globe.com.ph/about-us/newsroom/sustainability/1st-ph-company-science-based-goals-climate-action.html",
      "columnType": "articles--type-3",
      "typeListing": "article",
      "imageMobile": "/sites/globe.com.ph/files/content/dam/globe/brie/AboutUs/newsroom/sustainability/globe-1st-ph-company-science-based-goals-climate-action/newsroom-sustainability-1st-ph-company-primary-thumbnail-m.jpg",
      "imageDesktop": "/sites/globe.com.ph/files/content/dam/globe/brie/AboutUs/newsroom/sustainability/globe-1st-ph-company-science-based-goals-climate-action/newsroom-sustainability-1st-ph-company-primary-thumbnail-d.jpg",
      "description": "Globe joins Race to Zero and is the first and only Philippine company listed by SBTi to commit to Business Ambition for 1.5, advocating for climate action.",
      "datePosted": "Jul 02, 2021 | 02:28 PM",
      "titleFromTag": "Sustainability"
    }
  ]
}
