{
  "status": 200,
  "page": 112,
  "totalPage": 298,
  "range": "1333-1344",
  "total": 3573,
  "result": [
    {
      "title": "'Digital Could Be A Lifeline for Everything,' says Ernest Cu as Globe Gears Up for A Sustainable Digital Future",
      "nonclickable": false,
      "openNewTab": false,
      "borderArticle": "border-color:#0074D9;",
      "borderTopArticle": "border-top-color:#0074D9;",
      "imageListing": "/sites/globe.com.ph/files/content/dam/globe/brie/AboutUs/newsroom/sustainability/globe-gears-up-sustainable-digital-future/newsroom-sustainability-gears-digital-future-thumbnail-listing.jpg",
      "articleUrl": "https://www.globe.com.ph/about-us/newsroom/sustainability/globe-gears-up-sustainable-digital-future.html",
      "columnType": "articles--type-3",
      "typeListing": "article",
      "imageMobile": "/sites/globe.com.ph/files/content/dam/globe/brie/AboutUs/newsroom/sustainability/globe-gears-up-sustainable-digital-future/newsroom-sustainability-gears-digital-future-primary-thumbnail-m.jpg",
      "imageDesktop": "/sites/globe.com.ph/files/content/dam/globe/brie/AboutUs/newsroom/sustainability/globe-gears-up-sustainable-digital-future/newsroom-sustainability-gears-digital-future-primary-thumbnail-d.jpg",
      "description": "Globe is gearing up for a sustainable digital future for Filipinos using its robust and pervasive network to carry on technological advancements that could help address problems that people are facing.",
      "datePosted": "Jul 02, 2021 | 02:05 PM",
      "titleFromTag": "Sustainability"
    },
    {
      "title": "Globe Says 700k Customers Using 5G Devices as of End-May; Sees Double-Digit Increase",
      "nonclickable": false,
      "openNewTab": false,
      "borderArticle": "border-color:#0074D9;",
      "borderTopArticle": "border-top-color:#0074D9;",
      "imageListing": "/sites/globe.com.ph/files/content/dam/globe/brie/AboutUs/newsroom/corporate/700k-customers-5g-devices-end-may/corporate-default-7-thumbnail-listing.jpg",
      "articleUrl": "https://www.globe.com.ph/about-us/newsroom/corporate/700k-customers-5g-devices-end-may.html",
      "columnType": "articles--type-3",
      "typeListing": "article",
      "imageMobile": "/sites/globe.com.ph/files/content/dam/globe/brie/AboutUs/newsroom/corporate/700k-customers-5g-devices-end-may/corporate-default-7-primary-thumbnail-m.jpg",
      "imageDesktop": "/sites/globe.com.ph/files/content/dam/globe/brie/AboutUs/newsroom/corporate/700k-customers-5g-devices-end-may/corporate-default-7-primary-thumbnail-d.jpg",
      "description": "Globe’s efforts to make 5G technology available and accessible in the Philippines resulted in more customers on 5G devices by end of May 2021.",
      "datePosted": "Jul 02, 2021 | 11:33 AM",
      "titleFromTag": "Corporate"
    },
    {
      "title": "Globe Libreng Tawag, Charging, WiFi Services on Standby as Alert Level 3 is Raised Over Taal",
      "nonclickable": false,
      "openNewTab": false,
      "borderArticle": "border-color:#0074D9;",
      "borderTopArticle": "border-top-color:#0074D9;",
      "imageListing": "/sites/globe.com.ph/files/content/dam/globe/brie/AboutUs/newsroom/common/updated/Corporate-globe-thumbnail-listing.jpg",
      "articleUrl": "https://www.globe.com.ph/about-us/newsroom/sustainability/libreng-tawag-charging-wifi-standby-alert-3-taal.html",
      "columnType": "articles--type-3",
      "typeListing": "article",
      "imageMobile": "/sites/globe.com.ph/files/content/dam/globe/brie/AboutUs/newsroom/common/updated/Corporate-globe-primary-thumbnail-m.jpg",
      "imageDesktop": "/sites/globe.com.ph/files/content/dam/globe/brie/AboutUs/newsroom/common/updated/Corporate-globe-primary-thumbnail-d.jpg",
      "description": "Globe has placed its Libreng Tawag, Charging, and WiFi services on standby after Alert Level 3 or magmatic unrest was raised over Taal Volcano by PHIVOLCS. ",
      "datePosted": "Jul 02, 2021 | 10:27 AM",
      "titleFromTag": "Sustainability"
    },
    {
      "title": "Alex Eala Victorious in Singles and Doubles Action of J1 Roehampton in London",
      "nonclickable": false,
      "openNewTab": false,
      "borderArticle": "border-color:#0074D9;",
      "borderTopArticle": "border-top-color:#0074D9;",
      "imageListing": "/sites/globe.com.ph/files/content/dam/globe/brie/AboutUs/newsroom/corporate/eala-victorious-singles-doubles-j1-roehampton-london/newsroom-corporate-alex-eala-victorious-thumbnail-listing.jpg",
      "articleUrl": "https://www.globe.com.ph/about-us/newsroom/corporate/eala-victorious-singles-doubles-j1-roehampton-london.html",
      "columnType": "articles--type-3",
      "typeListing": "article",
      "imageMobile": "/sites/globe.com.ph/files/content/dam/globe/brie/AboutUs/newsroom/corporate/eala-victorious-singles-doubles-j1-roehampton-london/newsroom-corporate-alex-eala-victorious-primary-thumbnail-m.jpg",
      "imageDesktop": "/sites/globe.com.ph/files/content/dam/globe/brie/AboutUs/newsroom/corporate/eala-victorious-singles-doubles-j1-roehampton-london/newsroom-corporate-alex-eala-victorious-primary-thumbnail-d.jpg",
      "description": "The no. 3 ranked juniors player in the world had no trouble disposing of the 18-year old Vidmanova, who is currently ranked no. 35 in the ITF juniors rankings.",
      "datePosted": "Jul 01, 2021 | 02:40 PM",
      "titleFromTag": "Corporate"
    },
    {
      "title": "Globe Highlights Role of Technology in Addressing Societal Issues During Pandemic",
      "nonclickable": false,
      "openNewTab": false,
      "borderArticle": "border-color:#0074D9;",
      "borderTopArticle": "border-top-color:#0074D9;",
      "imageListing": "/sites/globe.com.ph/files/content/dam/globe/brie/AboutUs/newsroom/sustainability/technology-role-addressing-societal-issues-during-pandemic/newsroom-sustainability-technology-role-addressing-thumbnail-listing.jpg",
      "articleUrl": "https://www.globe.com.ph/about-us/newsroom/sustainability/technology-role-addressing-societal-issues-during-pandemic.html",
      "columnType": "articles--type-3",
      "typeListing": "article",
      "imageMobile": "/sites/globe.com.ph/files/content/dam/globe/brie/AboutUs/newsroom/sustainability/technology-role-addressing-societal-issues-during-pandemic/newsroom-sustainability-technology-role-addressing-primary-thumbnail-m.jpg",
      "imageDesktop": "/sites/globe.com.ph/files/content/dam/globe/brie/AboutUs/newsroom/sustainability/technology-role-addressing-societal-issues-during-pandemic/newsroom-sustainability-technology-role-addressing-primary-thumbnail-d.jpg",
      "description": "Crisanto said Globe utilized technology to pivot and make its products and services more affordable and aligned with the needs of the public. ",
      "datePosted": "Jul 01, 2021 | 01:59 PM",
      "titleFromTag": "Sustainability"
    },
    {
      "title": "Developing Resilience Through Positivity: Globe, DepEd Tackle New Ways of Facing Adversity",
      "nonclickable": false,
      "openNewTab": false,
      "borderArticle": "border-color:#0074D9;",
      "borderTopArticle": "border-top-color:#0074D9;",
      "imageListing": "/sites/globe.com.ph/files/content/dam/globe/brie/AboutUs/newsroom/sustainability/globe-deped-tackle-new-ways-facing-adversity/newsroom-sustainability-deped-tackle-new-thumbnail-listing.jpg",
      "articleUrl": "https://www.globe.com.ph/about-us/newsroom/sustainability/globe-deped-tackle-new-ways-facing-adversity.html",
      "columnType": "articles--type-3",
      "typeListing": "article",
      "imageMobile": "/sites/globe.com.ph/files/content/dam/globe/brie/AboutUs/newsroom/sustainability/globe-deped-tackle-new-ways-facing-adversity/newsroom-sustainability-deped-tackle-new-primary-thumbnail-m.jpg",
      "imageDesktop": "/sites/globe.com.ph/files/content/dam/globe/brie/AboutUs/newsroom/sustainability/globe-deped-tackle-new-ways-facing-adversity/newsroom-sustainability-deped-tackle-new-primary-thumbnail-d.jpg",
      "description": "Dr. Uno-Rayco discussed how educators can cultivate resilience in themselves and maintain a healthy mental health during the pandemic.",
      "datePosted": "Jul 01, 2021 | 12:11 PM",
      "titleFromTag": "Sustainability"
    },
    {
      "title": "#DoItRight: How to Know if your Globe At Home Prepaid WiFi Modems are Legit and Authorized?",
      "nonclickable": false,
      "openNewTab": false,
      "borderArticle": "border-color:#0074D9;",
      "borderTopArticle": "border-top-color:#0074D9;",
      "imageListing": "/sites/globe.com.ph/files/content/dam/globe/brie/AboutUs/newsroom/consumer/globe-at-home-prepaid-wifi-modems-legit-authorized/newsroom-consumer-gah-prepaid-wifi-thumbnail-listing.jpg",
      "articleUrl": "https://www.globe.com.ph/about-us/newsroom/consumer/globe-at-home-prepaid-wifi-modems-legit-authorized.html",
      "columnType": "articles--type-3",
      "typeListing": "article",
      "imageMobile": "/sites/globe.com.ph/files/content/dam/globe/brie/AboutUs/newsroom/consumer/globe-at-home-prepaid-wifi-modems-legit-authorized/newsroom-consumer-gah-prepaid-wifi-primary-thumbnail-m.jpg",
      "imageDesktop": "/sites/globe.com.ph/files/content/dam/globe/brie/AboutUs/newsroom/consumer/globe-at-home-prepaid-wifi-modems-legit-authorized/newsroom-consumer-gah-prepaid-wifi-primary-thumbnail-d.jpg",
      "description": "Globe reminds its customers that purchasing tampered modems will void the original warranty that comes with the unit.",
      "datePosted": "Jul 01, 2021 | 11:15 AM",
      "titleFromTag": "Consumer"
    },
    {
      "title": "Globe Maintains Quality Health and Safety Protection Across Workforce",
      "nonclickable": false,
      "openNewTab": false,
      "borderArticle": "border-color:#0074D9;",
      "borderTopArticle": "border-top-color:#0074D9;",
      "imageListing": "/sites/globe.com.ph/files/content/dam/globe/brie/AboutUs/newsroom/sustainability/globe-maintains-quality-health-safety-protection-workforce/newsroom-sustainability-maintains-quality-health-thumbnail-listing.jpg",
      "articleUrl": "https://www.globe.com.ph/about-us/newsroom/sustainability/globe-maintains-quality-health-safety-protection-workforce.html",
      "columnType": "articles--type-3",
      "typeListing": "article",
      "imageMobile": "/sites/globe.com.ph/files/content/dam/globe/brie/AboutUs/newsroom/sustainability/globe-maintains-quality-health-safety-protection-workforce/newsroom-sustainability-maintains-quality-health-primary-thumbnail-m.jpg",
      "imageDesktop": "/sites/globe.com.ph/files/content/dam/globe/brie/AboutUs/newsroom/sustainability/globe-maintains-quality-health-safety-protection-workforce/newsroom-sustainability-maintains-quality-health-primary-thumbnail-d.jpg",
      "description": "Globe remains committed to providing employees and third-party partners with the best health and safety protection amid the pandemic. ",
      "datePosted": "Jun 30, 2021 | 01:19 PM",
      "titleFromTag": "Sustainability"
    },
    {
      "title": "Alex Eala: The Road to Wimbledon",
      "nonclickable": false,
      "openNewTab": false,
      "borderArticle": "border-color:#0074D9;",
      "borderTopArticle": "border-top-color:#0074D9;",
      "imageListing": "/sites/globe.com.ph/files/content/dam/globe/brie/AboutUs/newsroom/corporate/eala-globe-logo-tournament-outfits/newsroom-corporate-eala-logo-tournament-thumbnail-listing.jpg",
      "articleUrl": "https://www.globe.com.ph/about-us/newsroom/corporate/alex-eala-road-to-wimbledon.html",
      "columnType": "articles--type-3",
      "typeListing": "article",
      "imageMobile": "/sites/globe.com.ph/files/content/dam/globe/brie/AboutUs/newsroom/corporate/eala-globe-logo-tournament-outfits/newsroom-corporate-eala-logo-tournament-primary-thumbnail-m.jpg",
      "imageDesktop": "/sites/globe.com.ph/files/content/dam/globe/brie/AboutUs/newsroom/corporate/eala-globe-logo-tournament-outfits/newsroom-corporate-eala-logo-tournament-primary-thumbnail-d.jpg",
      "description": "Filipina tennis star and Globe ambassador Alex Eala is scheduled to compete in the girls' singles and doubles tournaments at Wimbledon in England next week.",
      "datePosted": "Jun 30, 2021 | 12:08 PM",
      "titleFromTag": "Corporate"
    },
    {
      "title": "Hurry! Offer Until July 31 Only, Globe Customers Get Free COVID-19 Protection, Insurance",
      "nonclickable": false,
      "openNewTab": false,
      "borderArticle": "border-color:#0074D9;",
      "borderTopArticle": "border-top-color:#0074D9;",
      "imageListing": "/sites/globe.com.ph/files/content/dam/globe/brie/AboutUs/newsroom/consumer/globe-customers-free-covid-protection-insurance/newsroom-consumer-free-covid-protection-thumbnail-listing.jpg",
      "articleUrl": "https://www.globe.com.ph/about-us/newsroom/consumer/globe-customers-free-covid-protection-insurance.html",
      "columnType": "articles--type-3",
      "typeListing": "article",
      "imageMobile": "/sites/globe.com.ph/files/content/dam/globe/brie/AboutUs/newsroom/consumer/globe-customers-free-covid-protection-insurance/newsroom-consumer-free-covid-protection-primary-thumbnail-m.jpg",
      "imageDesktop": "/sites/globe.com.ph/files/content/dam/globe/brie/AboutUs/newsroom/consumer/globe-customers-free-covid-protection-insurance/newsroom-consumer-free-covid-protection-primary-thumbnail-d.jpg",
      "description": "Free three-month GInsure medical coverage for COVID-19 and dengue, or emergency cash assistance for all Globe mobile customers courtesy of GCash and Singlife",
      "datePosted": "Jun 30, 2021 | 11:54 AM",
      "titleFromTag": "Consumer"
    },
    {
      "title": "Globe Readies Libreng Tawag, Charging, WiFi Services as Taal Emits Volcanic Smog",
      "nonclickable": false,
      "openNewTab": false,
      "borderArticle": "border-color:#0074D9;",
      "borderTopArticle": "border-top-color:#0074D9;",
      "imageListing": "/sites/globe.com.ph/files/content/dam/globe/brie/AboutUs/newsroom/common/updated/Corporate-globe-thumbnail-listing.jpg",
      "articleUrl": "https://www.globe.com.ph/about-us/newsroom/sustainability/globe-readies-libreng-tawag-charging-wifi-services-taal.html",
      "columnType": "articles--type-3",
      "typeListing": "article",
      "imageMobile": "/sites/globe.com.ph/files/content/dam/globe/brie/AboutUs/newsroom/common/updated/Corporate-globe-primary-thumbnail-m.jpg",
      "imageDesktop": "/sites/globe.com.ph/files/content/dam/globe/brie/AboutUs/newsroom/common/updated/Corporate-globe-primary-thumbnail-d.jpg",
      "description": "Globe is all set to deploy its Libreng Tawag, Charging, and WiFi services in Batangas evacuation sites as Taal Volcano continues to release volcanic smog.",
      "datePosted": "Jun 29, 2021 | 02:53 PM",
      "titleFromTag": "Sustainability"
    },
    {
      "title": "4G Helps Ease the Online Learning of the Aetas of Bataan",
      "nonclickable": false,
      "openNewTab": false,
      "borderArticle": "border-color:#0074D9;",
      "borderTopArticle": "border-top-color:#0074D9;",
      "imageListing": "/sites/globe.com.ph/files/content/dam/globe/brie/AboutUs/newsroom/corporate/4g-helps-ease-online-learning-aetas-bataan/newsroom-corporate-4g-helps-ease-thumbnail-listing.jpg",
      "articleUrl": "https://www.globe.com.ph/about-us/newsroom/corporate/4g-helps-ease-online-learning-aetas-bataan.html",
      "columnType": "articles--type-3",
      "typeListing": "article",
      "imageMobile": "/sites/globe.com.ph/files/content/dam/globe/brie/AboutUs/newsroom/corporate/4g-helps-ease-online-learning-aetas-bataan/newsroom-corporate-4g-helps-ease-primary-thumbnail-m.jpg",
      "imageDesktop": "/sites/globe.com.ph/files/content/dam/globe/brie/AboutUs/newsroom/corporate/4g-helps-ease-online-learning-aetas-bataan/newsroom-corporate-4g-helps-ease-primary-thumbnail-d.jpg",
      "description": "Cell towers in Bataan and nearby provinces were upgraded to carry the faster and more reliable 4G LTE network.",
      "datePosted": "Jun 29, 2021 | 02:35 PM",
      "titleFromTag": "Corporate"
    }
  ]
}
