{
  "status": 200,
  "page": 113,
  "totalPage": 298,
  "range": "1345-1356",
  "total": 3573,
  "result": [
    {
      "title": "BLACKPINK Sends Love to Their Fans and Thanks Globe for Bringing Them Closer to Filipino Fans",
      "nonclickable": false,
      "openNewTab": false,
      "borderArticle": "border-color:#0074D9;",
      "borderTopArticle": "border-top-color:#0074D9;",
      "imageListing": "/sites/globe.com.ph/files/content/dam/globe/brie/AboutUs/newsroom/consumer/blackpink-sends-love-filipino-fans-thanks-globe/newsroom-consumer-blackpink-sends-love-thumbnail-listing.jpg",
      "articleUrl": "https://www.globe.com.ph/about-us/newsroom/consumer/blackpink-sends-love-filipino-fans-thanks-globe.html",
      "columnType": "articles--type-3",
      "typeListing": "article",
      "imageMobile": "/sites/globe.com.ph/files/content/dam/globe/brie/AboutUs/newsroom/consumer/blackpink-sends-love-filipino-fans-thanks-globe/newsroom-consumer-blackpink-sends-love-primary-thumbnail-m.jpg",
      "imageDesktop": "/sites/globe.com.ph/files/content/dam/globe/brie/AboutUs/newsroom/consumer/blackpink-sends-love-filipino-fans-thanks-globe/newsroom-consumer-blackpink-sends-love-primary-thumbnail-d.jpg",
      "description": "Globe Kmmunity allowed BLACKPINK to connect with their fans with the “Show You Like That: An Exclusive Show for the Ultimate Globe Fans” event last June 18.",
      "datePosted": "Jun 29, 2021 | 02:35 PM",
      "titleFromTag": "Consumer"
    },
    {
      "title": "Over 100 FPTI Teachers, Student Mentors Train as Globe DTP Cyber Wellness Ambassadors",
      "nonclickable": false,
      "openNewTab": false,
      "borderArticle": "border-color:#1C91C5;",
      "borderTopArticle": "border-top-color:#1C91C5;",
      "imageListing": "/sites/globe.com.ph/files/content/dam/globe/brie/AboutUs/newsroom/sustainability/fpti-teachers-student-mentors-globe-dtp-ambassadors/newsroom-sustainability-fpti-teachers-student-thumbnail-listing.jpg",
      "articleUrl": "https://www.globe.com.ph/about-us/newsroom/sustainability/fpti-teachers-student-mentors-globe-dtp-ambassadors.html",
      "columnType": "articles--type-3",
      "typeListing": "article",
      "imageMobile": "/sites/globe.com.ph/files/content/dam/globe/brie/AboutUs/newsroom/sustainability/fpti-teachers-student-mentors-globe-dtp-ambassadors/newsroom-sustainability-fpti-teachers-student-primary-thumbnail-m.jpg",
      "imageDesktop": "/sites/globe.com.ph/files/content/dam/globe/brie/AboutUs/newsroom/sustainability/fpti-teachers-student-mentors-globe-dtp-ambassadors/newsroom-sustainability-fpti-teachers-student-primary-thumbnail-d.jpg",
      "description": "In partnership with FPTI, Globe has trained 113 teachers and student mentors as ambassadors in promoting responsible internet use through DTP.",
      "datePosted": "Jun 29, 2021 | 10:55 AM",
      "titleFromTag": "Sustainability"
    },
    {
      "title": "Globe Sees Faster 5G Rollout; Customers Migrating to 4G LTE and 5G on Full Swing",
      "nonclickable": false,
      "openNewTab": false,
      "borderArticle": "border-color:#0074D9;",
      "borderTopArticle": "border-top-color:#0074D9;",
      "imageListing": "/sites/globe.com.ph/files/content/dam/globe/brie/AboutUs/newsroom/corporate/globe-sees-faster-5g-rollout/newsroom-corporate-sees-faster-5g-thumbnail-listing.jpg",
      "articleUrl": "https://www.globe.com.ph/about-us/newsroom/corporate/globe-sees-faster-5g-rollout.html",
      "columnType": "articles--type-3",
      "typeListing": "article",
      "imageMobile": "/sites/globe.com.ph/files/content/dam/globe/brie/AboutUs/newsroom/corporate/globe-sees-faster-5g-rollout/newsroom-corporate-sees-faster-5g-primary-thumbnail-m.jpg",
      "imageDesktop": "/sites/globe.com.ph/files/content/dam/globe/brie/AboutUs/newsroom/corporate/globe-sees-faster-5g-rollout/newsroom-corporate-sees-faster-5g-primary-thumbnail-d.jpg",
      "description": "Globe sees a faster rollout of 5G technology in the Philippines but noted that the country has a lot of catching up to do when it comes to infrastructure.",
      "datePosted": "Jun 29, 2021 | 10:30 AM",
      "titleFromTag": "Corporate"
    },
    {
      "title": "LCC, Globe Present Metro Readiness for the Rainy Season",
      "nonclickable": false,
      "openNewTab": false,
      "borderArticle": "border-color:#1C91C5;",
      "borderTopArticle": "border-top-color:#1C91C5;",
      "imageListing": "/sites/globe.com.ph/files/content/dam/globe/brie/AboutUs/newsroom/sustainability/lcc-globe-present-metro-readiness-for-the-rainy-season/newsroom-sustainability-lcc-metro-readiness-thumbnail-listing.jpg",
      "articleUrl": "https://www.globe.com.ph/about-us/newsroom/sustainability/lcc-globe-metro-readiness-rainy-season.html",
      "columnType": "articles--type-3",
      "typeListing": "article",
      "imageMobile": "/sites/globe.com.ph/files/content/dam/globe/brie/AboutUs/newsroom/sustainability/lcc-globe-present-metro-readiness-for-the-rainy-season/newsroom-sustainability-lcc-metro-readiness-primary-thumbnail-m.jpg",
      "imageDesktop": "/sites/globe.com.ph/files/content/dam/globe/brie/AboutUs/newsroom/sustainability/lcc-globe-present-metro-readiness-for-the-rainy-season/newsroom-sustainability-lcc-metro-readiness-primary-thumbnail-d.jpg",
      "description": "The LCC will empower cities to design better solutions and share best practices through a discussion with Globe and the League of Cities of the Philippines.",
      "datePosted": "Jun 28, 2021 | 09:07 AM",
      "titleFromTag": "Sustainability"
    },
    {
      "title": "Globe Business to Filipino SMEs: Tuloy Tayo!",
      "nonclickable": false,
      "openNewTab": false,
      "borderArticle": "border-color:#0074D9;",
      "borderTopArticle": "border-top-color:#0074D9;",
      "imageListing": "/sites/globe.com.ph/files/content/dam/globe/brie/AboutUs/newsroom/business/globe-business-filipino-sme-tuloy-tayo/newsroom-business-filipino-sme-tuloy-thumbnail-listing.jpg",
      "articleUrl": "https://www.globe.com.ph/about-us/newsroom/business/globe-business-filipino-sme-tuloy-tayo.html",
      "columnType": "articles--type-3",
      "typeListing": "article",
      "imageMobile": "/sites/globe.com.ph/files/content/dam/globe/brie/AboutUs/newsroom/business/globe-business-filipino-sme-tuloy-tayo/newsroom-business-filipino-sme-tuloy-thumbnail-m.jpg",
      "imageDesktop": "/sites/globe.com.ph/files/content/dam/globe/brie/AboutUs/newsroom/business/globe-business-filipino-sme-tuloy-tayo/newsroom-business-filipino-sme-tuloy-primary-thumbnail-d.jpg",
      "description": "Globe Business empowers Filipino SMEs to embrace the digital future with the 'Tuloy Tayo' campaign, celebrating resilience and honoring their stories.",
      "datePosted": "Jun 28, 2021 | 08:04 AM",
      "titleFromTag": "Business"
    },
    {
      "title": "Globe and Canadian Centre for Child Protection Unite in Fight vs Online Child Sexual Abuse",
      "nonclickable": false,
      "openNewTab": false,
      "borderArticle": "border-color:#0074D9;",
      "borderTopArticle": "border-top-color:#0074D9;",
      "imageListing": "/sites/globe.com.ph/files/content/dam/globe/brie/AboutUs/newsroom/sustainability/globe-c3p-fight-online-child-sexual-abuse/newsroom-sustainability-c3p-fight-online-thumbnail-listing.jpg",
      "articleUrl": "https://www.globe.com.ph/about-us/newsroom/sustainability/globe-c3p-fight-online-child-sexual-abuse.html",
      "columnType": "articles--type-3",
      "typeListing": "article",
      "imageMobile": "/sites/globe.com.ph/files/content/dam/globe/brie/AboutUs/newsroom/sustainability/globe-c3p-fight-online-child-sexual-abuse/newsroom-sustainability-c3p-fight-online-primary-thumbnail-m.jpg",
      "imageDesktop": "/sites/globe.com.ph/files/content/dam/globe/brie/AboutUs/newsroom/sustainability/globe-c3p-fight-online-child-sexual-abuse/newsroom-sustainability-c3p-fight-online-primary-thumbnail-d.jpg",
      "description": "Globe is using data from the Canadian Centre for Child Protection (C3P) to help the government fight against online sexual abuse and exploitation of children.",
      "datePosted": "Jun 25, 2021 | 12:03 PM",
      "titleFromTag": "Sustainability"
    },
    {
      "title": "Online Piracy in PH Persists",
      "nonclickable": false,
      "openNewTab": false,
      "borderArticle": "border-color:#1C91C5;",
      "borderTopArticle": "border-top-color:#1C91C5;",
      "imageListing": "/sites/globe.com.ph/files/content/dam/globe/brie/AboutUs/newsroom/sustainability/globe-boosts-efforts-combating-online-piracy/newsroom-sustainability-boosts-efforts-combating-thumbnail-listing.jpg",
      "articleUrl": "https://www.globe.com.ph/about-us/newsroom/sustainability/online-piracy-in-ph-persists.html",
      "columnType": "articles--type-3",
      "typeListing": "article",
      "imageMobile": "/sites/globe.com.ph/files/content/dam/globe/brie/AboutUs/newsroom/sustainability/globe-boosts-efforts-combating-online-piracy/newsroom-sustainability-boosts-efforts-combating-primary-thumbnail-m.jpg",
      "imageDesktop": "/sites/globe.com.ph/files/content/dam/globe/brie/AboutUs/newsroom/sustainability/globe-boosts-efforts-combating-online-piracy/newsroom-sustainability-boosts-efforts-combating-primary-thumbnail-d.jpg",
      "description": "A robust and inclusive Philippine economy may significantly curb online content piracy.",
      "datePosted": "Jun 25, 2021 | 10:28 AM",
      "titleFromTag": "Sustainability"
    },
    {
      "title": "Globe Kmmunity Reunites Fans with BLACKPINK at Exclusive Fan Event",
      "nonclickable": false,
      "openNewTab": false,
      "borderArticle": "border-color:#0074D9;",
      "borderTopArticle": "border-top-color:#0074D9;",
      "imageListing": "/sites/globe.com.ph/files/content/dam/globe/brie/AboutUs/newsroom/consumer/kmmunity-reunites-fans-blackpink-exclusive-fan-event/newsroom-consumer-kmmunity-reunites-fans-thumbnail-listing.jpg",
      "articleUrl": "https://www.globe.com.ph/about-us/newsroom/consumer/kmmunity-reunites-fans-blackpink-exclusive-fan-event.html",
      "columnType": "articles--type-3",
      "typeListing": "article",
      "imageMobile": "/sites/globe.com.ph/files/content/dam/globe/brie/AboutUs/newsroom/consumer/kmmunity-reunites-fans-blackpink-exclusive-fan-event/newsroom-consumer-kmmunity-reunites-fans-primary-thumbnail-m.jpg",
      "imageDesktop": "/sites/globe.com.ph/files/content/dam/globe/brie/AboutUs/newsroom/consumer/kmmunity-reunites-fans-blackpink-exclusive-fan-event/newsroom-consumer-kmmunity-reunites-fans-primary-thumbnail-d.jpg",
      "description": "Globe customers, Kpop fans, and Blinks ended last week on a high as Globe Kmmunity reunited them with record-breaking K-pop quartet, last June 18.",
      "datePosted": "Jun 24, 2021 | 03:32 PM",
      "titleFromTag": "Consumer"
    },
    {
      "title": "Globe Raises Bar for Data Protection to #StopScam",
      "nonclickable": false,
      "openNewTab": false,
      "borderArticle": "border-color:#0074D9;",
      "borderTopArticle": "border-top-color:#0074D9;",
      "imageListing": "/sites/globe.com.ph/files/content/dam/globe/brie/AboutUs/newsroom/corporate/globe-raises-bar-data-protection/newsroom-corporate-raises-bar-data-thumbnail-listing.jpg",
      "articleUrl": "https://www.globe.com.ph/about-us/newsroom/corporate/globe-raises-bar-data-protection.html",
      "columnType": "articles--type-3",
      "typeListing": "article",
      "imageMobile": "/sites/globe.com.ph/files/content/dam/globe/brie/AboutUs/newsroom/corporate/globe-raises-bar-data-protection/newsroom-corporate-raises-bar-data-primary-thumbnail-m.jpg",
      "imageDesktop": "/sites/globe.com.ph/files/content/dam/globe/brie/AboutUs/newsroom/corporate/globe-raises-bar-data-protection/newsroom-corporate-raises-bar-data-primary-thumbnail-d.jpg",
      "description": "Globe raises its standards further to ensure the data privacy and information security of its 8,000 employees and over 80 million of its customers.",
      "datePosted": "Jun 24, 2021 | 02:52 PM",
      "titleFromTag": "Corporate"
    },
    {
      "title": "Globe Business Future-Proofs Enterprise Connectivity with SD-WAN Services",
      "nonclickable": false,
      "openNewTab": false,
      "borderArticle": "border-color:#0074D9;",
      "borderTopArticle": "border-top-color:#0074D9;",
      "imageListing": "/sites/globe.com.ph/files/content/dam/globe/brie/AboutUs/newsroom/business/globe-business-future-proofs-enterprise-connectivity-sd-wan/newsroom-business-future-proofs-enterprise-thumbnail-listing1.jpg",
      "articleUrl": "https://www.globe.com.ph/about-us/newsroom/business/globe-business-future-proofs-enterprise-connectivity-sd-wan.html",
      "columnType": "articles--type-3",
      "typeListing": "article",
      "imageMobile": "/sites/globe.com.ph/files/content/dam/globe/brie/AboutUs/newsroom/business/globe-business-future-proofs-enterprise-connectivity-sd-wan/newsroom-business-future-proofs-enterprise-thumbnail-m1.jpg",
      "imageDesktop": "/sites/globe.com.ph/files/content/dam/globe/brie/AboutUs/newsroom/business/globe-business-future-proofs-enterprise-connectivity-sd-wan/newsroom-business-future-proofs-enterprise-primary-thumbnail-d1.jpg",
      "description": "Globe SD-WAN services provide the best solution for businesses that have shifted to a work-from-home arrangement or that have expanded to multiple sites.",
      "datePosted": "Jun 24, 2021 | 02:00 PM",
      "titleFromTag": "Business"
    },
    {
      "title": "Kickstart to Invest in the Future of Data, Logistics, Media for National Development",
      "nonclickable": false,
      "openNewTab": false,
      "borderArticle": "border-color:#0074D9;",
      "borderTopArticle": "border-top-color:#0074D9;",
      "imageListing": "/sites/globe.com.ph/files/content/dam/globe/brie/AboutUs/newsroom/partners/kickstart-invest-future-data-logistics-media/newsroom-partners-kickstart-invest-future-thumbnail-listing.jpg",
      "articleUrl": "https://www.globe.com.ph/about-us/newsroom/partners/kickstart-invest-future-data-logistics-media.html",
      "columnType": "articles--type-3",
      "typeListing": "article",
      "imageMobile": "/sites/globe.com.ph/files/content/dam/globe/brie/AboutUs/newsroom/partners/kickstart-invest-future-data-logistics-media/newsroom-partners-kickstart-invest-future-primary-thumbnail-m.jpg",
      "imageDesktop": "/sites/globe.com.ph/files/content/dam/globe/brie/AboutUs/newsroom/partners/kickstart-invest-future-data-logistics-media/newsroom-partners-kickstart-invest-future-primary-thumbnail-d.jpg",
      "description": "Kickstart Ventures, Globe's corporate venture capital arm, saw an increase of investment deals in e-commerce, logistics, and cybersecurity due to the pandemic.",
      "datePosted": "Jun 24, 2021 | 11:38 AM",
      "titleFromTag": "Partners"
    },
    {
      "title": "Podcast Network Asia and AdSpark Partner to Fuel the Skyrocketing Growth of Podcasts in the Philippines",
      "nonclickable": false,
      "openNewTab": false,
      "borderArticle": "border-color:#0074D9;",
      "borderTopArticle": "border-top-color:#0074D9;",
      "imageListing": "/sites/globe.com.ph/files/content/dam/globe/brie/AboutUs/newsroom/partners/podcast-network-asia-adspark-fuel-podcast-growth-philippines/newsroom-partners-podcast-network-asia-thumbnail-listing.jpg",
      "articleUrl": "https://www.globe.com.ph/about-us/newsroom/partners/podcast-network-asia-adspark-fuel-podcast-growth-philippines.html",
      "columnType": "articles--type-3",
      "typeListing": "article",
      "imageMobile": "/sites/globe.com.ph/files/content/dam/globe/brie/AboutUs/newsroom/partners/podcast-network-asia-adspark-fuel-podcast-growth-philippines/newsroom-partners-podcast-network-asia-primary-thumbnail-m.jpg",
      "imageDesktop": "/sites/globe.com.ph/files/content/dam/globe/brie/AboutUs/newsroom/partners/podcast-network-asia-adspark-fuel-podcast-growth-philippines/newsroom-partners-podcast-network-asia-primary-thumbnail-d.jpg",
      "description": "The Philippine Podcasting Landscape with its surge in listenership, is massively growing.",
      "datePosted": "Jun 24, 2021 | 11:38 AM",
      "titleFromTag": "Partners"
    }
  ]
}
