{
  "status": 200,
  "page": 114,
  "totalPage": 298,
  "range": "1357-1368",
  "total": 3573,
  "result": [
    {
      "title": "Over 640K Customers Experienced Vastly Improved Services in March; Batangas, Pampanga and Laguna Most Improved with New Builds, 4G LTE Expansion",
      "nonclickable": false,
      "openNewTab": false,
      "borderArticle": "border-color:#0074D9;",
      "borderTopArticle": "border-top-color:#0074D9;",
      "imageListing": "/sites/globe.com.ph/files/content/dam/globe/brie/AboutUs/newsroom/corporate/799-permits-1q-2021-new-towers/default-corporate-9-thumbnail-listing.jpg",
      "articleUrl": "https://www.globe.com.ph/about-us/newsroom/corporate/over-640k-customers-experienced-vastly-improved-services-march.html",
      "columnType": "articles--type-3",
      "typeListing": "article",
      "imageMobile": "/sites/globe.com.ph/files/content/dam/globe/brie/AboutUs/newsroom/corporate/799-permits-1q-2021-new-towers/default-corporate-9-primary-thumbnail-m.jpg",
      "imageDesktop": "/sites/globe.com.ph/files/content/dam/globe/brie/AboutUs/newsroom/corporate/799-permits-1q-2021-new-towers/default-corporate-9-primary-thumbnail-d.jpg",
      "description": "Batangas, Pampanga and Laguna recorded the most customers with improved mobile experiences.",
      "datePosted": "Jun 24, 2021 | 11:11 AM",
      "titleFromTag": "Corporate"
    },
    {
      "title": "#DoItRight: Suspect Arrested for Illegal Reselling of Rebranded Globe At Home Modems",
      "nonclickable": false,
      "openNewTab": false,
      "borderArticle": "border-color:#0074D9;",
      "borderTopArticle": "border-top-color:#0074D9;",
      "imageListing": "/sites/globe.com.ph/files/content/dam/globe/brie/AboutUs/newsroom/common/updated/Corporate-globe-thumbnail-listing.jpg",
      "articleUrl": "https://www.globe.com.ph/about-us/newsroom/sustainability/suspect-arrested-illegal-globe-at-home-modems.html",
      "columnType": "articles--type-3",
      "typeListing": "article",
      "imageMobile": "/sites/globe.com.ph/files/content/dam/globe/brie/AboutUs/newsroom/common/updated/Corporate-globe-primary-thumbnail-m.jpg",
      "imageDesktop": "/sites/globe.com.ph/files/content/dam/globe/brie/AboutUs/newsroom/common/updated/Corporate-globe-primary-thumbnail-d.jpg",
      "description": "Immediately after issuing a warning to its customers on the proliferation of tampered Globe At Home modems, Globe, together with the Philippine National Police, seized a unit of Globe At Home Tozed S10g modem rebranded with DITO stickers from Marlou de Paz in a sting operation in Pala-Pala, Brgy. Sampaloc Dasmarinas Cavite.",
      "datePosted": "Jun 23, 2021 | 12:00 PM",
      "titleFromTag": "Sustainability"
    },
    {
      "title": "Coping With Trauma: ‘You Are Not Alone; We Are All in This Together’",
      "nonclickable": false,
      "openNewTab": false,
      "borderArticle": "border-color:#0074D9;",
      "borderTopArticle": "border-top-color:#0074D9;",
      "imageListing": "/sites/globe.com.ph/files/content/dam/globe/brie/AboutUs/newsroom/coping-with-trauma-you-are-not-alone/newsroom-sustainability-coping-with-trauma-thumbnail-listing.jpg",
      "articleUrl": "https://www.globe.com.ph/about-us/newsroom/sustainability/coping-with-trauma-you-are-not-alone.html",
      "columnType": "articles--type-3",
      "typeListing": "article",
      "imageMobile": "/sites/globe.com.ph/files/content/dam/globe/brie/AboutUs/newsroom/coping-with-trauma-you-are-not-alone/newsroom-sustainability-coping-with-trauma-primary-thumbnail-m.jpg",
      "imageDesktop": "/sites/globe.com.ph/files/content/dam/globe/brie/AboutUs/newsroom/coping-with-trauma-you-are-not-alone/newsroom-sustainability-coping-with-trauma-primary-thumbnail-d.jpg",
      "description": "Dr. Gina A. Alfonso assures those dealing with tough situations and trauma, “You are not alone. We are all in this together.”",
      "datePosted": "Jun 23, 2021 | 12:00 PM",
      "titleFromTag": "Sustainability"
    },
    {
      "title": "Alex Eala to Wear Globe Logo on Tournament Outfits",
      "nonclickable": false,
      "openNewTab": false,
      "borderArticle": "border-color:#0074D9;",
      "borderTopArticle": "border-top-color:#0074D9;",
      "imageListing": "/sites/globe.com.ph/files/content/dam/globe/brie/AboutUs/newsroom/corporate/eala-globe-logo-tournament-outfits/newsroom-corporate-eala-logo-tournament-thumbnail-listing.jpg",
      "articleUrl": "https://www.globe.com.ph/about-us/newsroom/corporate/eala-globe-logo-tournament-outfits.html",
      "columnType": "articles--type-3",
      "typeListing": "article",
      "imageMobile": "/sites/globe.com.ph/files/content/dam/globe/brie/AboutUs/newsroom/corporate/eala-globe-logo-tournament-outfits/newsroom-corporate-eala-logo-tournament-primary-thumbnail-m.jpg",
      "imageDesktop": "/sites/globe.com.ph/files/content/dam/globe/brie/AboutUs/newsroom/corporate/eala-globe-logo-tournament-outfits/newsroom-corporate-eala-logo-tournament-primary-thumbnail-d.jpg",
      "description": "Philippine tennis sensation and Globe ambassador Alex Eala will now be able to wear the Globe logo in her tournament outfits.",
      "datePosted": "Jun 23, 2021 | 10:54 AM",
      "titleFromTag": "Corporate"
    },
    {
      "title": "Participate in E-Waste Zero, Get 20% Off on 0917 Apparel",
      "nonclickable": false,
      "openNewTab": false,
      "borderArticle": "border-color:#1C91C5;",
      "borderTopArticle": "border-top-color:#1C91C5;",
      "imageListing": "/sites/globe.com.ph/files/content/dam/globe/brie/AboutUs/newsroom/sustainability/e-waste-zero-20-percent-off-0917-apparel/newsroom-sustainability-e-waste-zero-20-thumbnail-listing.jpg",
      "articleUrl": "https://www.globe.com.ph/about-us/newsroom/sustainability/e-waste-zero-20-percent-off-0917-apparel.html",
      "columnType": "articles--type-3",
      "typeListing": "article",
      "imageMobile": "/sites/globe.com.ph/files/content/dam/globe/brie/AboutUs/newsroom/sustainability/e-waste-zero-20-percent-off-0917-apparel/newsroom-sustainability-e-waste-zero-20-primary-thumbnail-m.jpg",
      "imageDesktop": "/sites/globe.com.ph/files/content/dam/globe/brie/AboutUs/newsroom/sustainability/e-waste-zero-20-percent-off-0917-apparel/newsroom-sustainability-e-waste-zero-20-primary-thumbnail-d.jpg",
      "description": "Expanding its commitment to protect the environment, Globe, through 0917 Lifestyle, encourages customers to get on board its E-Waste Zero program.",
      "datePosted": "Jun 23, 2021 | 10:42 AM",
      "titleFromTag": "Sustainability"
    },
    {
      "title": "Globe Tops Netflix ISP Speed Index Anew in 2021",
      "nonclickable": false,
      "openNewTab": false,
      "borderArticle": "border-color:#0074D9;",
      "borderTopArticle": "border-top-color:#0074D9;",
      "imageListing": "/sites/globe.com.ph/files/content/dam/globe/brie/AboutUs/newsroom/common/corporate-default-5/updated/default-corporate-5-thumbnail-listing.jpg",
      "articleUrl": "https://www.globe.com.ph/about-us/newsroom/corporate/globe-tops-netflix-isp-speed-index-anew-2021.html",
      "columnType": "articles--type-3",
      "typeListing": "article",
      "imageMobile": "/sites/globe.com.ph/files/content/dam/globe/brie/AboutUs/newsroom/common/corporate-default-5/updated/default-corporate-5-primary-thumbnail-m.jpg",
      "imageDesktop": "/sites/globe.com.ph/files/content/dam/globe/brie/AboutUs/newsroom/common/corporate-default-5/updated/default-corporate-5-primary-thumbnail-d.jpg",
      "description": "Globe tops the June 2021 Netflix ISP Speed Index, providing stable connectivity to Filipino families and striving to achieve a #1stWorldNetwork in the country.",
      "datePosted": "Jun 23, 2021 | 08:00 AM",
      "titleFromTag": "Corporate"
    },
    {
      "title": "40,000 Housing Beneficiaries Nationwide to Benefit thru Globe KonekTayo WiFi and NHA Partnership",
      "nonclickable": false,
      "openNewTab": false,
      "borderArticle": "border-color:#1C91C5;",
      "borderTopArticle": "border-top-color:#1C91C5;",
      "imageListing": "/sites/globe.com.ph/files/content/dam/globe/brie/AboutUs/newsroom/sustainability/40k-housing-beneficiaries-konektayo-wifi-nha-partnership/newsroom-sustainability-40k-housing-beneficiaries-thumbnail-listing.jpg",
      "articleUrl": "https://www.globe.com.ph/about-us/newsroom/sustainability/40k-housing-beneficiaries-konektayo-wifi-nha-partnership.html",
      "columnType": "articles--type-3",
      "typeListing": "article",
      "imageMobile": "/sites/globe.com.ph/files/content/dam/globe/brie/AboutUs/newsroom/sustainability/40k-housing-beneficiaries-konektayo-wifi-nha-partnership/newsroom-sustainability-40k-housing-beneficiaries-primary-thumbnail-m.jpg",
      "imageDesktop": "/sites/globe.com.ph/files/content/dam/globe/brie/AboutUs/newsroom/sustainability/40k-housing-beneficiaries-konektayo-wifi-nha-partnership/newsroom-sustainability-40k-housing-beneficiaries-primary-thumbnail-d.jpg",
      "description": "Filipinos’ digital life changed drastically with the constant need for connectivity. ",
      "datePosted": "Jun 22, 2021 | 05:36 PM",
      "titleFromTag": "Sustainability"
    },
    {
      "title": "Opensignal: PH 5G Download Speed Among Highest in Asia Pacific Region",
      "nonclickable": false,
      "openNewTab": false,
      "borderArticle": "border-color:#0074D9;",
      "borderTopArticle": "border-top-color:#0074D9;",
      "imageListing": "/sites/globe.com.ph/files/content/dam/globe/brie/AboutUs/newsroom/common/default-4/default-consumer-3-thumbnail-listing.jpg",
      "articleUrl": "https://www.globe.com.ph/about-us/newsroom/corporate/opensignal-ph-5g-download-speed-among-highest-asia-pacific.html",
      "columnType": "articles--type-3",
      "typeListing": "article",
      "imageMobile": "/sites/globe.com.ph/files/content/dam/globe/brie/AboutUs/newsroom/common/default-4/default-consumer-3-primary-thumbnail-m.jpg",
      "imageDesktop": "/sites/globe.com.ph/files/content/dam/globe/brie/AboutUs/newsroom/common/default-4/default-consumer-3-primary-thumbnail-d.jpg",
      "description": "The 5G experience in the Philippines continues to improve as the technology becomes more accessible to more customers all over the country.",
      "datePosted": "Jun 22, 2021 | 05:35 PM",
      "titleFromTag": "Corporate"
    },
    {
      "title": "Globe’s 5G Network Most Available to Customers on 5G Capable Devices in Q1 2021",
      "nonclickable": false,
      "openNewTab": false,
      "borderArticle": "border-color:#0074D9;",
      "borderTopArticle": "border-top-color:#0074D9;",
      "imageListing": "/sites/globe.com.ph/files/content/dam/globe/brie/AboutUs/newsroom/corporate/volte-service-now-available-25-provinces-ph/default-consumer-2-thumbnail-listing.jpg",
      "articleUrl": "https://www.globe.com.ph/about-us/newsroom/corporate/5g-network-88-percent-coverage-ncr.html",
      "columnType": "articles--type-3",
      "typeListing": "article",
      "imageMobile": "/sites/globe.com.ph/files/content/dam/globe/brie/AboutUs/newsroom/corporate/volte-service-now-available-25-provinces-ph/default-consumer-2-primary-thumbnail-m.jpg",
      "imageDesktop": "/sites/globe.com.ph/files/content/dam/globe/brie/AboutUs/newsroom/corporate/volte-service-now-available-25-provinces-ph/default-consumer-2-primary-thumbnail-d.jpg",
      "description": "Globe’s 5G network is the ‘most available’ to customers on 5G capable devices in Q1 2021 according to Ookla® Speedtest Intelligence® data.",
      "datePosted": "Jun 21, 2021 | 10:36 AM",
      "titleFromTag": "Corporate"
    },
    {
      "title": "Globe Data Centers Boast of Three ISO Certifications for Information and Data Security",
      "nonclickable": false,
      "openNewTab": false,
      "borderArticle": "border-color:#0074D9;",
      "borderTopArticle": "border-top-color:#0074D9;",
      "imageListing": "/sites/globe.com.ph/files/content/dam/globe/brie/AboutUs/newsroom/corporate/globe-data-centers-iso-certifications-information-data-security/newsroom-corporate-data-centers-iso-thumbnail-listing.jpg",
      "articleUrl": "https://www.globe.com.ph/about-us/newsroom/corporate/globe-data-centers-iso-certifications-information-data-security.html",
      "columnType": "articles--type-3",
      "typeListing": "article",
      "imageMobile": "/sites/globe.com.ph/files/content/dam/globe/brie/AboutUs/newsroom/corporate/globe-data-centers-iso-certifications-information-data-security/newsroom-corporate-data-centers-iso-primary-thumbnail-m.jpg",
      "imageDesktop": "/sites/globe.com.ph/files/content/dam/globe/brie/AboutUs/newsroom/corporate/globe-data-centers-iso-certifications-information-data-security/newsroom-corporate-data-centers-iso-primary-thumbnail-d.jpg",
      "description": "Globe has three ISO certifications for its data centers: ISO 9001 for Quality Management, ISO 27001 for Information Security, and ISO 20000-1 for IT service.",
      "datePosted": "Jun 21, 2021 | 10:00 AM",
      "titleFromTag": "Corporate"
    },
    {
      "title": "SAP Names Globe as “The Game Changer”",
      "nonclickable": false,
      "openNewTab": false,
      "borderArticle": "border-color:#0074D9;",
      "borderTopArticle": "border-top-color:#0074D9;",
      "imageListing": "/sites/globe.com.ph/files/content/dam/globe/brie/AboutUs/newsroom/common/updated/Corporate-globe-thumbnail-listing.jpg",
      "articleUrl": "https://www.globe.com.ph/about-us/newsroom/corporate/sap-names-globe-the-game-changer.html",
      "columnType": "articles--type-3",
      "typeListing": "article",
      "imageMobile": "/sites/globe.com.ph/files/content/dam/globe/brie/AboutUs/newsroom/common/updated/Corporate-globe-primary-thumbnail-m.jpg",
      "imageDesktop": "/sites/globe.com.ph/files/content/dam/globe/brie/AboutUs/newsroom/common/updated/Corporate-globe-primary-thumbnail-d.jpg",
      "description": "Globe Telecom bagged the “Most Transformational Award – The Game Changer” during the recently held SAP Best Run Awards 2021 for Southeast Asia as it continues to pursue its purpose-led digital transformation journey.",
      "datePosted": "Jun 18, 2021 | 02:54 PM",
      "titleFromTag": "Corporate"
    },
    {
      "title": "Globe Retains Top Spot in Netflix ISP Speed Index for the Fourth Time in 2021",
      "nonclickable": false,
      "openNewTab": false,
      "borderArticle": "border-color:#0074D9;",
      "borderTopArticle": "border-top-color:#0074D9;",
      "imageListing": "/sites/globe.com.ph/files/content/dam/globe/brie/AboutUs/newsroom/common/corporate-default-5/updated/default-corporate-5-thumbnail-listing.jpg",
      "articleUrl": "https://www.globe.com.ph/about-us/newsroom/consumer/top-spot-netflix-speed-4th-time-2021.html",
      "columnType": "articles--type-3",
      "typeListing": "article",
      "imageMobile": "/sites/globe.com.ph/files/content/dam/globe/brie/AboutUs/newsroom/common/corporate-default-5/updated/default-corporate-5-primary-thumbnail-m.jpg",
      "imageDesktop": "/sites/globe.com.ph/files/content/dam/globe/brie/AboutUs/newsroom/common/corporate-default-5/updated/default-corporate-5-primary-thumbnail-d.jpg",
      "description": "Globe retained its top spot in Netflix ISP Speed Index for May, marking the fourth time this year that the company is recognized for its unrelenting efforts to provide world-class internet connectivity in the country. ",
      "datePosted": "Jun 18, 2021 | 02:36 PM",
      "titleFromTag": "Consumer"
    }
  ]
}
