{
  "status": 200,
  "page": 115,
  "totalPage": 298,
  "range": "1369-1380",
  "total": 3573,
  "result": [
    {
      "title": "“No Health Without Mental Health”: A Lesson from Globe, DepEd TAYO Naman! Webinar",
      "nonclickable": false,
      "openNewTab": false,
      "borderArticle": "border-color:#1C91C5;",
      "borderTopArticle": "border-top-color:#1C91C5;",
      "imageListing": "/sites/globe.com.ph/files/content/dam/globe/brie/AboutUs/newsroom/sustainability/lesson-globe-deped-tayo-naman-webinar/newsroom-sustainability-mental-health-deped-thumbnail-listing.jpg",
      "articleUrl": "https://www.globe.com.ph/about-us/newsroom/sustainability/mental-health-globe-deped-webinar1.html",
      "columnType": "articles--type-3",
      "typeListing": "article",
      "imageMobile": "/sites/globe.com.ph/files/content/dam/globe/brie/AboutUs/newsroom/sustainability/lesson-globe-deped-tayo-naman-webinar/newsroom-sustainability-mental-health-deped-primary-thumbnail-m.jpg",
      "imageDesktop": "/sites/globe.com.ph/files/content/dam/globe/brie/AboutUs/newsroom/sustainability/lesson-globe-deped-tayo-naman-webinar/newsroom-sustainability-mental-health-deped-primary-thumbnail-d.jpg",
      "description": "Dr. Bernardino A. Vicente emphasizes the need for mental health in a Globe webinar, stating, \"There is no health without mental health.\"",
      "datePosted": "Jun 18, 2021 | 11:44 AM",
      "titleFromTag": "Sustainability"
    },
    {
      "title": "GOMO: Data That Never Expires Fulfills the Needs of Digital Pinoys Nationwide, #1 Selling SIM on Shopee",
      "nonclickable": false,
      "openNewTab": false,
      "borderArticle": "border-color:#0074D9;",
      "borderTopArticle": "border-top-color:#0074D9;",
      "imageListing": "/sites/globe.com.ph/files/content/dam/globe/brie/AboutUs/newsroom/consumer/gomo-data-never-expires-fulfills-needs-digital-pinoys/newsroom-consumer-gomo-data-never-thumbnail-listing.jpg",
      "articleUrl": "https://www.globe.com.ph/about-us/newsroom/consumer/gomo-data-never-expires-fulfills-needs-digital-pinoys.html",
      "columnType": "articles--type-3",
      "typeListing": "article",
      "imageMobile": "/sites/globe.com.ph/files/content/dam/globe/brie/AboutUs/newsroom/consumer/gomo-data-never-expires-fulfills-needs-digital-pinoys/newsroom-consumer-gomo-data-never-primary-thumbnail-m.jpg",
      "imageDesktop": "/sites/globe.com.ph/files/content/dam/globe/brie/AboutUs/newsroom/consumer/gomo-data-never-expires-fulfills-needs-digital-pinoys/newsroom-consumer-gomo-data-never-primary-thumbnail-d.jpg",
      "description": "GOMO, the first fully digital telco brand in PH, continues to deliver innovative products and solutions by giving customers more freedom with their data.",
      "datePosted": "Jun 17, 2021 | 03:51 PM",
      "titleFromTag": "Consumer"
    },
    {
      "title": "‘Pa, Salamat’: Globe At Home Embraces Dads with Unique Treats for the Whole Family",
      "nonclickable": false,
      "openNewTab": false,
      "borderArticle": "border-color:#0074D9;",
      "borderTopArticle": "border-top-color:#0074D9;",
      "imageListing": "/sites/globe.com.ph/files/content/dam/globe/brie/AboutUs/newsroom/consumer/pa-salamat-globe-at-home-embraces-dads-unique-treats-whole-family/newsroom-consumer-pa-salamat-gah-thumbnail-listing.jpg",
      "articleUrl": "https://www.globe.com.ph/about-us/newsroom/consumer/pa-salamat-globe-at-home-embraces-dads-unique-treats-whole-family.html",
      "columnType": "articles--type-3",
      "typeListing": "article",
      "imageMobile": "/sites/globe.com.ph/files/content/dam/globe/brie/AboutUs/newsroom/consumer/pa-salamat-globe-at-home-embraces-dads-unique-treats-whole-family/newsroom-consumer-pa-salamat-gah-primary-thumbnail-m.jpg",
      "imageDesktop": "/sites/globe.com.ph/files/content/dam/globe/brie/AboutUs/newsroom/consumer/pa-salamat-globe-at-home-embraces-dads-unique-treats-whole-family/newsroom-consumer-pa-salamat-gah-primary-thumbnail-d.jpg",
      "description": "Globe At Home launched various activities & promos to watch out for so families can express their appreciation and love for our very own haligi ng tahanan.",
      "datePosted": "Jun 17, 2021 | 01:28 PM",
      "titleFromTag": "Consumer"
    },
    {
      "title": "Eala, Andorran Partner, Bow Out in Quarterfinals of W25 Madrid Doubles",
      "nonclickable": false,
      "openNewTab": false,
      "borderArticle": "border-color:#0074D9;",
      "borderTopArticle": "border-top-color:#0074D9;",
      "imageListing": "/sites/globe.com.ph/files/content/dam/globe/brie/AboutUs/newsroom/corporate/eala-falls-first-round-itf-w15-manacor/newsroom-corporate-eala-stellar-run-france-ends-thumbnail-listing.jpg",
      "articleUrl": "https://www.globe.com.ph/about-us/newsroom/corporate/eala-partner-bow-out-quarterfinals-w25-madrid.html",
      "columnType": "articles--type-3",
      "typeListing": "article",
      "imageMobile": "/sites/globe.com.ph/files/content/dam/globe/brie/AboutUs/newsroom/corporate/eala-falls-first-round-itf-w15-manacor/newsroom-corporate-eala-stellar-run-france-ends-primary-thumbnail-m.jpg",
      "imageDesktop": "/sites/globe.com.ph/files/content/dam/globe/brie/AboutUs/newsroom/corporate/eala-falls-first-round-itf-w15-manacor/newsroom-corporate-eala-stellar-run-france-ends-primary-thumbnail-d.jpg",
      "description": "In the doubles contest, the pair of Eala and Jimenez Kasintsevas got off to a fantastic start as they led 3-0.",
      "datePosted": "Jun 17, 2021 | 11:34 AM",
      "titleFromTag": "Corporate"
    },
    {
      "title": "Globe: First Rollout of Carbon Fiber Tower in Bolinao a Success, Rooftop Deployments Next",
      "nonclickable": false,
      "openNewTab": false,
      "borderArticle": "border-color:#0074D9;",
      "borderTopArticle": "border-top-color:#0074D9;",
      "imageListing": "/sites/globe.com.ph/files/content/dam/globe/brie/AboutUs/newsroom/corporate/first-rollout-carbon-fiber-tower-success/newsroom-corporate-first-rollout-carbon-thumbnail-listing.jpg",
      "articleUrl": "https://www.globe.com.ph/about-us/newsroom/corporate/first-rollout-carbon-fiber-tower-success.html",
      "columnType": "articles--type-3",
      "typeListing": "article",
      "imageMobile": "/sites/globe.com.ph/files/content/dam/globe/brie/AboutUs/newsroom/corporate/first-rollout-carbon-fiber-tower-success/newsroom-corporate-first-rollout-carbon-primary-thumbnail-m.jpg",
      "imageDesktop": "/sites/globe.com.ph/files/content/dam/globe/brie/AboutUs/newsroom/corporate/first-rollout-carbon-fiber-tower-success/newsroom-corporate-first-rollout-carbon-primary-thumbnail-d.jpg",
      "description": "This development is opening the possibility of Globe in applying the carbon fiber solutions in its future installations.",
      "datePosted": "Jun 17, 2021 | 10:49 AM",
      "titleFromTag": "Corporate"
    },
    {
      "title": "917Ventures: Creating Digital Lifelines for Filipinos",
      "nonclickable": false,
      "openNewTab": false,
      "borderArticle": "border-color:#0074D9;",
      "borderTopArticle": "border-top-color:#0074D9;",
      "imageListing": "/sites/globe.com.ph/files/content/dam/globe/brie/AboutUs/newsroom/917ventures/creating-digital-lifelines-filipinos/newsroom-917ventures-creating-digital-lifelines-thumbnail-listing.jpg",
      "articleUrl": "https://www.globe.com.ph/about-us/newsroom/917ventures/creating-digital-lifelines-filipinos.html",
      "columnType": "articles--type-3",
      "typeListing": "article",
      "imageMobile": "/sites/globe.com.ph/files/content/dam/globe/brie/AboutUs/newsroom/917ventures/creating-digital-lifelines-filipinos/newsroom-917ventures-creating-digital-lifelines-primary-thumbnail-m.jpg",
      "imageDesktop": "/sites/globe.com.ph/files/content/dam/globe/brie/AboutUs/newsroom/917ventures/creating-digital-lifelines-filipinos/newsroom-917ventures-creating-digital-lifelines-primary-thumbnail-d.jpg",
      "description": "917Ventures’ digital innovations have enabled consumers and businesses to thrive and triumph in today's challenging environment.",
      "datePosted": "Jun 17, 2021 | 10:04 AM",
      "titleFromTag": "917Ventures"
    },
    {
      "title": "Globe’s $600M Fundraiser Bags Telecom Deal of the Year Award",
      "nonclickable": false,
      "openNewTab": false,
      "borderArticle": "border-color:#0074D9;",
      "borderTopArticle": "border-top-color:#0074D9;",
      "imageListing": "/sites/globe.com.ph/files/content/dam/globe/brie/AboutUs/newsroom/common/updated/Corporate-globe-thumbnail-listing.jpg",
      "articleUrl": "https://www.globe.com.ph/about-us/newsroom/corporate/600m-dollar-fundraiser-telecom-deal-of-the-year.html",
      "columnType": "articles--type-3",
      "typeListing": "article",
      "imageMobile": "/sites/globe.com.ph/files/content/dam/globe/brie/AboutUs/newsroom/common/updated/Corporate-globe-primary-thumbnail-m.jpg",
      "imageDesktop": "/sites/globe.com.ph/files/content/dam/globe/brie/AboutUs/newsroom/common/updated/Corporate-globe-primary-thumbnail-d.jpg",
      "description": "The fund raising activity enabled the company to diversify its funding sources and lengthen its debt maturity profile.",
      "datePosted": "Jun 17, 2021 | 10:01 AM",
      "titleFromTag": "Corporate"
    },
    {
      "title": "Eala, Partner in Doubles Quarterfinals of W25 Madrid in Spain",
      "nonclickable": false,
      "openNewTab": false,
      "borderArticle": "border-color:#0074D9;",
      "borderTopArticle": "border-top-color:#0074D9;",
      "imageListing": "/sites/globe.com.ph/files/content/dam/globe/brie/AboutUs/newsroom/corporate/eala-partner-doubles-quarterfinals-w25-madrid-spain/newsroom-corporate-eala-partner-doubles-thumbnail-listing.jpg",
      "articleUrl": "https://www.globe.com.ph/about-us/newsroom/corporate/eala-partner-doubles-quarterfinals-w25-madrid-spain.html",
      "columnType": "articles--type-3",
      "typeListing": "article",
      "imageMobile": "/sites/globe.com.ph/files/content/dam/globe/brie/AboutUs/newsroom/corporate/eala-partner-doubles-quarterfinals-w25-madrid-spain/newsroom-corporate-eala-partner-doubles-primary-thumbnail-m.jpg",
      "imageDesktop": "/sites/globe.com.ph/files/content/dam/globe/brie/AboutUs/newsroom/corporate/eala-partner-doubles-quarterfinals-w25-madrid-spain/newsroom-corporate-eala-partner-doubles-primary-thumbnail-d.jpg",
      "description": "Filipina tennis superstar and Globe ambassador Alex Eala and partner Victoria Jimenez Kasintseva move on to the ITF World Tennis Tour W25 Madrid quarterfinals!",
      "datePosted": "Jun 16, 2021 | 12:44 PM",
      "titleFromTag": "Corporate"
    },
    {
      "title": "Experience BLACKPINK Vibes with An Exclusive World@ Home Treat from Globe At Home",
      "nonclickable": false,
      "openNewTab": false,
      "borderArticle": "border-color:#0074D9;",
      "borderTopArticle": "border-top-color:#0074D9;",
      "imageListing": "/sites/globe.com.ph/files/content/dam/globe/brie/AboutUs/newsroom/consumer/experience-blackpink-exclusive-world-at-home-treat/newsroom-consumer-experience-blackpink-exclusive-thumbnail-listing.jpg",
      "articleUrl": "https://www.globe.com.ph/about-us/newsroom/consumer/experience-blackpink-exclusive-world-at-home-treat.html",
      "columnType": "articles--type-3",
      "typeListing": "article",
      "imageMobile": "/sites/globe.com.ph/files/content/dam/globe/brie/AboutUs/newsroom/consumer/experience-blackpink-exclusive-world-at-home-treat/newsroom-consumer-experience-blackpink-exclusive-primary-thumbnail-m.jpg",
      "imageDesktop": "/sites/globe.com.ph/files/content/dam/globe/brie/AboutUs/newsroom/consumer/experience-blackpink-exclusive-world-at-home-treat/newsroom-consumer-experience-blackpink-exclusive-primary-thumbnail-d.jpg",
      "description": "Counting down the days to BLACKPINK’s “Show You Like That: An Exclusive Show for the Ultimate Globe Fans”, Globe At Home is treating its customers and fans of BLACKPINK to a virtual experience, bringing them closer to JISOO, JENNIE, ROSÉ, and LISA with the opening of the BLACKPINK-inspired virtual room on the World@Home platform.",
      "datePosted": "Jun 16, 2021 | 11:48 AM",
      "titleFromTag": "Consumer"
    },
    {
      "title": "#Salamat4G: Spreading Love and Faith in Pangasinan",
      "nonclickable": false,
      "openNewTab": false,
      "borderArticle": "border-color:#0074D9;",
      "borderTopArticle": "border-top-color:#0074D9;",
      "imageListing": "/sites/globe.com.ph/files/content/dam/globe/brie/AboutUs/newsroom/corporate/salamat-4g-spreading-love-faith-pangasinan/newsroom-corporate-salamat-4g-spreading-thumbnail-listing.jpg",
      "articleUrl": "https://www.globe.com.ph/about-us/newsroom/corporate/salamat-4g-spreading-love-faith-pangasinan.html",
      "columnType": "articles--type-3",
      "typeListing": "article",
      "imageMobile": "/sites/globe.com.ph/files/content/dam/globe/brie/AboutUs/newsroom/corporate/salamat-4g-spreading-love-faith-pangasinan/newsroom-corporate-salamat-4g-spreading-primary-thumbnail-m.jpg",
      "imageDesktop": "/sites/globe.com.ph/files/content/dam/globe/brie/AboutUs/newsroom/corporate/salamat-4g-spreading-love-faith-pangasinan/newsroom-corporate-salamat-4g-spreading-primary-thumbnail-d.jpg",
      "description": "Globe has been upgrading its cell towers in Pangasinan and other nearby provinces for faster and more stable 4G LTE service.",
      "datePosted": "Jun 15, 2021 | 12:07 PM",
      "titleFromTag": "Corporate"
    },
    {
      "title": "Globe Boosts Efforts in Combating Online Piracy",
      "nonclickable": false,
      "openNewTab": false,
      "borderArticle": "border-color:#1C91C5;",
      "borderTopArticle": "border-top-color:#1C91C5;",
      "imageListing": "/sites/globe.com.ph/files/content/dam/globe/brie/AboutUs/newsroom/sustainability/globe-boosts-efforts-combating-online-piracy/newsroom-sustainability-boosts-efforts-combating-thumbnail-listing.jpg",
      "articleUrl": "https://www.globe.com.ph/about-us/newsroom/sustainability/globe-boosts-efforts-combating-online-piracy.html",
      "columnType": "articles--type-3",
      "typeListing": "article",
      "imageMobile": "/sites/globe.com.ph/files/content/dam/globe/brie/AboutUs/newsroom/sustainability/globe-boosts-efforts-combating-online-piracy/newsroom-sustainability-boosts-efforts-combating-primary-thumbnail-m.jpg",
      "imageDesktop": "/sites/globe.com.ph/files/content/dam/globe/brie/AboutUs/newsroom/sustainability/globe-boosts-efforts-combating-online-piracy/newsroom-sustainability-boosts-efforts-combating-primary-thumbnail-d.jpg",
      "description": "Globe reaffirmed its commitment to step up efforts to combat content piracy in the Philippines amid rising demand for online entertainment.",
      "datePosted": "Jun 15, 2021 | 10:43 AM",
      "titleFromTag": "Sustainability"
    },
    {
      "title": "ICT Helps Fight COVID Through Better Health Systems",
      "nonclickable": false,
      "openNewTab": false,
      "borderArticle": "border-color:#1C91C5;",
      "borderTopArticle": "border-top-color:#1C91C5;",
      "imageListing": "/sites/globe.com.ph/files/content/dam/globe/brie/AboutUs/newsroom/sustainability/ict-helps-fight-covid-better-health-systems/newsroom-sustainability-ict-helps-fight-thumbnail-listing.jpg",
      "articleUrl": "https://www.globe.com.ph/about-us/newsroom/sustainability/ict-helps-fight-covid-better-health-systems.html",
      "columnType": "articles--type-3",
      "typeListing": "article",
      "imageMobile": "/sites/globe.com.ph/files/content/dam/globe/brie/AboutUs/newsroom/sustainability/ict-helps-fight-covid-better-health-systems/newsroom-sustainability-ict-helps-fight-primary-thumbnail-m.jpg",
      "imageDesktop": "/sites/globe.com.ph/files/content/dam/globe/brie/AboutUs/newsroom/sustainability/ict-helps-fight-covid-better-health-systems/newsroom-sustainability-ict-helps-fight-primary-thumbnail-d.jpg",
      "description": "LGUs and national agencies can provide Filipinos with access to healthcare, testing facilities, and even financial resources for those in need by using ICT.",
      "datePosted": "Jun 14, 2021 | 02:47 PM",
      "titleFromTag": "Sustainability"
    }
  ]
}
