{
  "status": 200,
  "page": 116,
  "totalPage": 298,
  "range": "1381-1392",
  "total": 3573,
  "result": [
    {
      "title": "Globe myBusiness Points to Cloud as Key to Business Continuity of Financial Sector",
      "nonclickable": false,
      "openNewTab": false,
      "borderArticle": "border-color:#0074D9;",
      "borderTopArticle": "border-top-color:#0074D9;",
      "imageListing": "/sites/globe.com.ph/files/content/dam/globe/brie/AboutUs/newsroom/business/cloud-key-business-continuity-financial-sector/newsroom-business-cloud-key-continuity-thumbnail-listing.jpg",
      "articleUrl": "https://www.globe.com.ph/about-us/newsroom/business/cloud-key-business-continuity-financial-sector.html",
      "columnType": "articles--type-3",
      "typeListing": "article",
      "imageMobile": "/sites/globe.com.ph/files/content/dam/globe/brie/AboutUs/newsroom/business/cloud-key-business-continuity-financial-sector/newsroom-business-cloud-key-continuity-thumbnail-m.jpg",
      "imageDesktop": "/sites/globe.com.ph/files/content/dam/globe/brie/AboutUs/newsroom/business/cloud-key-business-continuity-financial-sector/newsroom-business-cloud-key-continuity-primary-thumbnail-d.jpg",
      "description": "Globe myBusiness stresses adopting cloud tech for data safety and minimizing operational disruptions in uncertain times for financial businesses.",
      "datePosted": "Jun 14, 2021 | 12:15 PM",
      "titleFromTag": "Business"
    },
    {
      "title": "How Brands Can Reinforce Evolving Pinoy Values",
      "nonclickable": false,
      "openNewTab": false,
      "borderArticle": "border-color:#0074D9;",
      "borderTopArticle": "border-top-color:#0074D9;",
      "imageListing": "/sites/globe.com.ph/files/content/dam/globe/brie/AboutUs/newsroom/917ventures/how-brands-reinforce-evolving-pinoy-values/newsroom-917ventures-how-brands-reinforce-thumbnail-listing.jpg",
      "articleUrl": "https://www.globe.com.ph/about-us/newsroom/917ventures/how-brands-reinforce-evolving-pinoy-values.html",
      "columnType": "articles--type-3",
      "typeListing": "article",
      "imageMobile": "/sites/globe.com.ph/files/content/dam/globe/brie/AboutUs/newsroom/917ventures/how-brands-reinforce-evolving-pinoy-values/newsroom-917ventures-how-brands-reinforce-primary-thumbnail-m.jpg",
      "imageDesktop": "/sites/globe.com.ph/files/content/dam/globe/brie/AboutUs/newsroom/917ventures/how-brands-reinforce-evolving-pinoy-values/newsroom-917ventures-how-brands-reinforce-primary-thumbnail-d.jpg",
      "description": "AdSpark's latest ThoughSparker report, The Filipino in Flux, examines how digital technology and social media transformed Filipino values.",
      "datePosted": "Jun 14, 2021 | 10:22 AM",
      "titleFromTag": "917Ventures"
    },
    {
      "title": "Globe Exposes Modus on Globe At Home Modems Being Sold as DITO Modems",
      "nonclickable": false,
      "openNewTab": false,
      "borderArticle": "border-color:#0074D9;",
      "borderTopArticle": "border-top-color:#0074D9;",
      "imageListing": "/sites/globe.com.ph/files/content/dam/globe/brie/AboutUs/newsroom/common/updated/Corporate-globe-thumbnail-listing.jpg",
      "articleUrl": "https://www.globe.com.ph/about-us/newsroom/corporate/modus-globe-at-home-modems-sold-as-dito.html",
      "columnType": "articles--type-3",
      "typeListing": "article",
      "imageMobile": "/sites/globe.com.ph/files/content/dam/globe/brie/AboutUs/newsroom/common/updated/Corporate-globe-primary-thumbnail-m.jpg",
      "imageDesktop": "/sites/globe.com.ph/files/content/dam/globe/brie/AboutUs/newsroom/common/updated/Corporate-globe-primary-thumbnail-d.jpg",
      "description": "Globe is exposing the illegal selling of Globe At Home WiFi modems to unsuspecting customers with DITO stickers making them appear as DITO modems.",
      "datePosted": "Jun 14, 2021 | 09:39 AM",
      "titleFromTag": "Corporate"
    },
    {
      "title": "Globe myBusiness and PSIA Deem Connectivity and Digital Tools Essential for MSMEs",
      "nonclickable": false,
      "openNewTab": false,
      "borderArticle": "border-color:#0074D9;",
      "borderTopArticle": "border-top-color:#0074D9;",
      "imageListing": "/sites/globe.com.ph/files/content/dam/globe/brie/AboutUs/newsroom/business/globe-mybusiness-psia-deem-connectivity-digital-tools-essential-msme/newsroom-business-mybusiness-psia-deem-thumbnail-listing.jpg",
      "articleUrl": "https://www.globe.com.ph/about-us/newsroom/business/globe-mybusiness-psia-deem-connectivity-digital-tools-essential-msme.html",
      "columnType": "articles--type-3",
      "typeListing": "article",
      "imageMobile": "/sites/globe.com.ph/files/content/dam/globe/brie/AboutUs/newsroom/business/globe-mybusiness-psia-deem-connectivity-digital-tools-essential-msme/newsroom-business-mybusiness-psia-deem-primary-thumbnail-m.jpg",
      "imageDesktop": "/sites/globe.com.ph/files/content/dam/globe/brie/AboutUs/newsroom/business/globe-mybusiness-psia-deem-connectivity-digital-tools-essential-msme/newsroom-business-mybusiness-psia-deem-primary-thumbnail-d.jpg",
      "description": "Globe myBusiness collaborated with PSIA to share with the organization’s membership a broader understanding of the role technology plays in business success. ",
      "datePosted": "Jun 11, 2021 | 04:43 PM",
      "titleFromTag": "Business"
    },
    {
      "title": "With Internet as the Lifeblood of Filipino Homes, Superior After Sales Service is Unique Advantage",
      "nonclickable": false,
      "openNewTab": false,
      "borderArticle": "border-color:#0074D9;",
      "borderTopArticle": "border-top-color:#0074D9;",
      "imageListing": "/sites/globe.com.ph/files/content/dam/globe/brie/AboutUs/newsroom/consumer/globe-at-home-operators-cannot-win-speed-alone/newsroom-consumer-gah-operators-speed-thumbnail-listing.jpg",
      "articleUrl": "https://www.globe.com.ph/about-us/newsroom/consumer/superior-after-sales-service-unique-advantage.html",
      "columnType": "articles--type-3",
      "typeListing": "article",
      "imageMobile": "/sites/globe.com.ph/files/content/dam/globe/brie/AboutUs/newsroom/consumer/globe-at-home-operators-cannot-win-speed-alone/newsroom-consumer-gah-operators-speed-primary-thumbnail-m.jpg",
      "imageDesktop": "/sites/globe.com.ph/files/content/dam/globe/brie/AboutUs/newsroom/consumer/globe-at-home-operators-cannot-win-speed-alone/newsroom-consumer-gah-operators-speed-primary-thumbnail-d.jpg",
      "description": "The pandemic prompted many people to transform their homes into office spaces and classrooms. Home internet became a vital companion of many families.",
      "datePosted": "Jun 11, 2021 | 09:46 AM",
      "titleFromTag": "Consumer"
    },
    {
      "title": "Globe Maintains ISO Standards for Higher Level Efficiency in Safeguarding Customers",
      "nonclickable": false,
      "openNewTab": false,
      "borderArticle": "border-color:#0074D9;",
      "borderTopArticle": "border-top-color:#0074D9;",
      "imageListing": "/sites/globe.com.ph/files/content/dam/globe/brie/AboutUs/newsroom/common/default-9/default-corporate-4-thumbnail-listing.jpg",
      "articleUrl": "https://www.globe.com.ph/about-us/newsroom/corporate/iso-standards-higher-level-efficiency-safeguarding-customers.html",
      "columnType": "articles--type-3",
      "typeListing": "article",
      "imageMobile": "/sites/globe.com.ph/files/content/dam/globe/brie/AboutUs/newsroom/common/default-9/default-corporate-4-primary-thumbnail-m.jpg",
      "imageDesktop": "/sites/globe.com.ph/files/content/dam/globe/brie/AboutUs/newsroom/common/default-9/default-corporate-4-primary-thumbnail-d.jpg",
      "description": "Implementing ISO-certified standards safeguards consumers and end-users, ensuring that certified products conform to the minimum standards set internationally.",
      "datePosted": "Jun 11, 2021 | 09:14 AM",
      "titleFromTag": "Corporate"
    },
    {
      "title": "Eala, Partner Barge Into Semis of French Open Girls’ Doubles Tilt",
      "nonclickable": false,
      "openNewTab": false,
      "borderArticle": "border-color:#0074D9;",
      "borderTopArticle": "border-top-color:#0074D9;",
      "imageListing": "/sites/globe.com.ph/files/content/dam/globe/brie/AboutUs/newsroom/corporate/eala-russian-partner-advance-quarterfinals-french-opengirls-doubles/newsroom-corporate-eala-russian-quarterfinals-thumbnail-listing.jpg",
      "articleUrl": "https://www.globe.com.ph/about-us/newsroom/corporate/eala-partner-semis-french-open-girls-doubles-tilt.html",
      "columnType": "articles--type-3",
      "typeListing": "article",
      "imageMobile": "/sites/globe.com.ph/files/content/dam/globe/brie/AboutUs/newsroom/corporate/eala-russian-partner-advance-quarterfinals-french-opengirls-doubles/newsroom-corporate-eala-russian-quarterfinals-primary-thumbnail-m.jpg",
      "imageDesktop": "/sites/globe.com.ph/files/content/dam/globe/brie/AboutUs/newsroom/corporate/eala-russian-partner-advance-quarterfinals-french-opengirls-doubles/newsroom-corporate-eala-russian-quarterfinals-primary-thumbnail-d.jpg",
      "description": "Alexa Eala, Globe ambassador, made her way back to the French Open's girls’ doubles tournament semifinals with Russian partner, Oksana Selekhmeteva.",
      "datePosted": "Jun 11, 2021 | 09:13 AM",
      "titleFromTag": "Corporate"
    },
    {
      "title": "Globe At Home Levels Up Customer Care, 50% of Postpaid Customers Now Enjoying Upgraded Plans for FREE",
      "nonclickable": false,
      "openNewTab": false,
      "borderArticle": "border-color:#0074D9;",
      "borderTopArticle": "border-top-color:#0074D9;",
      "imageListing": "/sites/globe.com.ph/files/content/dam/globe/brie/AboutUs/newsroom/consumer/globe-at-home-broadband-customers-free-upgrades/newsroom-consumer-gah-free-upgrades-thumbnail-listing.jpg",
      "articleUrl": "https://www.globe.com.ph/about-us/newsroom/consumer/globe-at-home-postpaid-customers-upgraded-plans-free.html",
      "columnType": "articles--type-3",
      "typeListing": "article",
      "imageMobile": "/sites/globe.com.ph/files/content/dam/globe/brie/AboutUs/newsroom/consumer/globe-at-home-broadband-customers-free-upgrades/newsroom-consumer-gah-free-upgrades-primary-thumbnail-m.jpg",
      "imageDesktop": "/sites/globe.com.ph/files/content/dam/globe/brie/AboutUs/newsroom/consumer/globe-at-home-broadband-customers-free-upgrades/newsroom-consumer-gah-free-upgrades-primary-thumbnail-d.jpg",
      "description": "While connectivity may be one of the most important services under the new normal, Globe At Home goes beyond providing internet connection to give its customers a better and more delightful experience at home. ",
      "datePosted": "Jun 11, 2021 | 02:01 AM",
      "titleFromTag": "Consumer"
    },
    {
      "title": "‘It’s Okay Not To Be Okay’: Globe, DepEd’s TAYO NAMAN! Webinar Validates Educators’ Grief Amid Pandemic",
      "nonclickable": false,
      "openNewTab": false,
      "borderArticle": "border-color:#1C91C5;",
      "borderTopArticle": "border-top-color:#1C91C5;",
      "imageListing": "/sites/globe.com.ph/files/content/dam/globe/brie/AboutUs/newsroom/sustainability/tayo-naman-validates-educators-grief-amid-pandemic/newsroom-sustainability-tayo-naman-validates-thumbnail-listing.jpg",
      "articleUrl": "https://www.globe.com.ph/about-us/newsroom/sustainability/tayo-naman-validates-educators-grief-amid-pandemic.html",
      "columnType": "articles--type-3",
      "typeListing": "article",
      "imageMobile": "/sites/globe.com.ph/files/content/dam/globe/brie/AboutUs/newsroom/sustainability/tayo-naman-validates-educators-grief-amid-pandemic/newsroom-sustainability-tayo-naman-validates-primary-thumbnail-m.jpg",
      "imageDesktop": "/sites/globe.com.ph/files/content/dam/globe/brie/AboutUs/newsroom/sustainability/tayo-naman-validates-educators-grief-amid-pandemic/newsroom-sustainability-tayo-naman-validates-primary-thumbnail-d.jpg",
      "description": "TAYO naman! A webinar series co-hosted by Globe and DepEd addresses grieving in the midst of the pandemic, with the quote \"It's okay not to be okay\"",
      "datePosted": "Jun 10, 2021 | 06:53 PM",
      "titleFromTag": "Sustainability"
    },
    {
      "title": "4G LTE Gives Batangas Entrepreneurs A New Lease on Life",
      "nonclickable": false,
      "openNewTab": false,
      "borderArticle": "border-color:#1C91C5;",
      "borderTopArticle": "border-top-color:#1C91C5;",
      "imageListing": "/sites/globe.com.ph/files/content/dam/globe/brie/AboutUs/newsroom/sustainability/4g-lte-batangas-entrepreneurs-new-lease-life/newsroom-sustainability-4g-lte-batangas-thumbnail-listing.jpg",
      "articleUrl": "https://www.globe.com.ph/about-us/newsroom/sustainability/4g-lte-batangas-entrepreneurs-new-lease-life.html",
      "columnType": "articles--type-3",
      "typeListing": "article",
      "imageMobile": "/sites/globe.com.ph/files/content/dam/globe/brie/AboutUs/newsroom/sustainability/4g-lte-batangas-entrepreneurs-new-lease-life/newsroom-sustainability-4g-lte-batangas-primary-thumbnail-m.jpg",
      "imageDesktop": "/sites/globe.com.ph/files/content/dam/globe/brie/AboutUs/newsroom/sustainability/4g-lte-batangas-entrepreneurs-new-lease-life/newsroom-sustainability-4g-lte-batangas-primary-thumbnail-d.jpg",
      "description": "Batangas has long hung its hat on its delectable foods and popular tourist hubs. ",
      "datePosted": "Jun 10, 2021 | 01:24 PM",
      "titleFromTag": "Sustainability"
    },
    {
      "title": "Globe 5G Roaming Now Live in USA and Canada, and Soon in More European Destinations\t",
      "nonclickable": false,
      "openNewTab": false,
      "borderArticle": "border-color:#0074D9;",
      "borderTopArticle": "border-top-color:#0074D9;",
      "imageListing": "/sites/globe.com.ph/files/content/dam/globe/brie/AboutUs/newsroom/consumer/globe-5g-roaming-usa-canada-european-destinations/newsroom-consumer-5g-usa-canada-thumbnail-listing.jpg",
      "articleUrl": "https://www.globe.com.ph/about-us/newsroom/consumer/globe-5g-roaming-usa-canada-european-destinations.html",
      "columnType": "articles--type-3",
      "typeListing": "article",
      "imageMobile": "/sites/globe.com.ph/files/content/dam/globe/brie/AboutUs/newsroom/consumer/globe-5g-roaming-usa-canada-european-destinations/newsroom-consumer-5g-usa-canada-primary-thumbnail-m.jpg",
      "imageDesktop": "/sites/globe.com.ph/files/content/dam/globe/brie/AboutUs/newsroom/consumer/globe-5g-roaming-usa-canada-european-destinations/newsroom-consumer-5g-usa-canada-primary-thumbnail-d.jpg",
      "description": "Globe roamers in Hungary, Germany, Ireland, and Netherlands will get an enhanced 5G connectivity experience by July 2021. ",
      "datePosted": "Jun 10, 2021 | 10:10 AM",
      "titleFromTag": "Consumer"
    },
    {
      "title": "Eala, Russian Partner Advance to Quarterfinals of French Open Girls’ Doubles",
      "nonclickable": false,
      "openNewTab": false,
      "borderArticle": "border-color:#0074D9;",
      "borderTopArticle": "border-top-color:#0074D9;",
      "imageListing": "/sites/globe.com.ph/files/content/dam/globe/brie/AboutUs/newsroom/corporate/eala-russian-partner-advance-quarterfinals-french-opengirls-doubles/newsroom-corporate-eala-russian-quarterfinals-thumbnail-listing.jpg",
      "articleUrl": "https://www.globe.com.ph/about-us/newsroom/corporate/eala-russian-partner-advance-quarterfinals-french-opengirls-doubles.html",
      "columnType": "articles--type-3",
      "typeListing": "article",
      "imageMobile": "/sites/globe.com.ph/files/content/dam/globe/brie/AboutUs/newsroom/corporate/eala-russian-partner-advance-quarterfinals-french-opengirls-doubles/newsroom-corporate-eala-russian-quarterfinals-primary-thumbnail-m.jpg",
      "imageDesktop": "/sites/globe.com.ph/files/content/dam/globe/brie/AboutUs/newsroom/corporate/eala-russian-partner-advance-quarterfinals-french-opengirls-doubles/newsroom-corporate-eala-russian-quarterfinals-primary-thumbnail-d.jpg",
      "description": "Alex Eala and Russian partner Oksana Selekhmeteva are closer to finals as they advance to the quarterfinals of the 2021 French Open girls’ doubles tournament.",
      "datePosted": "Jun 09, 2021 | 01:03 PM",
      "titleFromTag": "Corporate"
    }
  ]
}
