{
  "status": 200,
  "page": 117,
  "totalPage": 298,
  "range": "1393-1404",
  "total": 3573,
  "result": [
    {
      "title": "Get discounts on new modems and WiFi kits with Globe's ‘Swap and Save’",
      "nonclickable": false,
      "openNewTab": false,
      "borderArticle": "border-color:#0074D9;",
      "borderTopArticle": "border-top-color:#0074D9;",
      "imageListing": "/sites/globe.com.ph/files/content/dam/globe/brie/AboutUs/newsroom/consumer/get-discounts-new-modems-wifi-kits/newsroom-consumer-discounts-wifi-kits-thumbnail-listing.jpg",
      "articleUrl": "https://www.globe.com.ph/about-us/newsroom/consumer/get-discounts-new-modems-wifi-kits.html",
      "columnType": "articles--type-3",
      "typeListing": "article",
      "imageMobile": "/sites/globe.com.ph/files/content/dam/globe/brie/AboutUs/newsroom/consumer/get-discounts-new-modems-wifi-kits/newsroom-consumer-discounts-wifi-kits-primary-thumbnail-m.jpg",
      "imageDesktop": "/sites/globe.com.ph/files/content/dam/globe/brie/AboutUs/newsroom/consumer/get-discounts-new-modems-wifi-kits/newsroom-consumer-discounts-wifi-kits-primary-thumbnail-d.jpg",
      "description": "Globe At Home's \"Swap and Save\" campaign rewards customers who properly dispose of e-waste by swapping their existing devices for new, advanced WiFi units.",
      "datePosted": "Jun 09, 2021 | 11:38 AM",
      "titleFromTag": "Consumer"
    },
    {
      "title": "Globe Improves Connectivity in Batangas with Eight New Cell Towers, 84 Sites Upgrade Completed",
      "nonclickable": false,
      "openNewTab": false,
      "borderArticle": "border-color:#0074D9;",
      "borderTopArticle": "border-top-color:#0074D9;",
      "imageListing": "/sites/globe.com.ph/files/content/dam/globe/brie/AboutUs/newsroom/corporate/799-permits-1q-2021-new-towers/default-corporate-9-thumbnail-listing.jpg",
      "articleUrl": "https://www.globe.com.ph/about-us/newsroom/corporate/globe-improves-connectivity-batangas.html",
      "columnType": "articles--type-3",
      "typeListing": "article",
      "imageMobile": "/sites/globe.com.ph/files/content/dam/globe/brie/AboutUs/newsroom/corporate/799-permits-1q-2021-new-towers/default-corporate-9-primary-thumbnail-m.jpg",
      "imageDesktop": "/sites/globe.com.ph/files/content/dam/globe/brie/AboutUs/newsroom/corporate/799-permits-1q-2021-new-towers/default-corporate-9-primary-thumbnail-d.jpg",
      "description": "Globe has installed eight new cell sites and completed at least 84 site upgrades in key locations in Batangas to further improve services to its customers",
      "datePosted": "Jun 09, 2021 | 11:24 AM",
      "titleFromTag": "Corporate"
    },
    {
      "title": "Globe Provides Free GoWiFi to Hospitals, Quarantine Facilities Nationwide as NCR, Other Areas Placed Under ECQ",
      "nonclickable": false,
      "openNewTab": false,
      "borderArticle": "border-color:#0074D9;",
      "borderTopArticle": "border-top-color:#0074D9;",
      "imageListing": "/sites/globe.com.ph/files/content/dam/globe/brie/AboutUs/newsroom/corporate/volte-service-now-available-25-provinces-ph/default-consumer-2-thumbnail-listing.jpg",
      "articleUrl": "https://www.globe.com.ph/about-us/newsroom/sustainability/free-gowifi-hospitals-quarantine-facilities-ncr-ecq.html",
      "columnType": "articles--type-3",
      "typeListing": "article",
      "imageMobile": "/sites/globe.com.ph/files/content/dam/globe/brie/AboutUs/newsroom/corporate/volte-service-now-available-25-provinces-ph/default-consumer-2-primary-thumbnail-m.jpg",
      "imageDesktop": "/sites/globe.com.ph/files/content/dam/globe/brie/AboutUs/newsroom/corporate/volte-service-now-available-25-provinces-ph/default-consumer-2-primary-thumbnail-d.jpg",
      "description": "Globe is providing free and unlimited GoWiFi internet connection in 140 hospitals and 12 quarantine facilities nationwide until August 30 to help medical frontliners, patients, and their loved ones remain connected amid the ongoing pandemic.",
      "datePosted": "Jun 09, 2021 | 10:39 AM",
      "titleFromTag": "Sustainability"
    },
    {
      "title": "Globe 4G LTE: A Stable and Reliable Partner of Online Sellers ",
      "nonclickable": false,
      "openNewTab": false,
      "borderArticle": "border-color:#0074D9;",
      "borderTopArticle": "border-top-color:#0074D9;",
      "imageListing": "/sites/globe.com.ph/files/content/dam/globe/brie/AboutUs/newsroom/sustainability/4g-lte-stable-reliable-partner-online-sellers/newsroom-sustainability-4g-lte-reliable-thumbnail-listing.jpg",
      "articleUrl": "https://www.globe.com.ph/about-us/newsroom/sustainability/4g-lte-stable-reliable-partner-online-sellers.html",
      "columnType": "articles--type-3",
      "typeListing": "article",
      "imageMobile": "/sites/globe.com.ph/files/content/dam/globe/brie/AboutUs/newsroom/sustainability/4g-lte-stable-reliable-partner-online-sellers/newsroom-sustainability-4g-lte-reliable-primary-thumbnail-m.jpg",
      "imageDesktop": "/sites/globe.com.ph/files/content/dam/globe/brie/AboutUs/newsroom/sustainability/4g-lte-stable-reliable-partner-online-sellers/newsroom-sustainability-4g-lte-reliable-primary-thumbnail-d.jpg",
      "description": "At a time when anything can be ordered online and delivered to one’s doorstep, a reliable internet connection is a necessity for both sellers and buyers.",
      "datePosted": "Jun 09, 2021 | 10:37 AM",
      "titleFromTag": "Sustainability"
    },
    {
      "title": "Generali Philippines Taps Globe Business Cloud to Scale Digital Services",
      "nonclickable": false,
      "openNewTab": false,
      "borderArticle": "border-color:#0074D9;",
      "borderTopArticle": "border-top-color:#0074D9;",
      "imageListing": "/sites/globe.com.ph/files/content/dam/globe/brie/AboutUs/newsroom/business/generali-philippines-taps-globe-business-cloud-scale-digital-sevices/newsroom-business-generali-philippines-cloud-thumbnail-listing.jpg",
      "articleUrl": "https://www.globe.com.ph/about-us/newsroom/business/generali-philippines-taps-globe-business-cloud-scale-digital-sevices.html",
      "columnType": "articles--type-3",
      "typeListing": "article",
      "imageMobile": "/sites/globe.com.ph/files/content/dam/globe/brie/AboutUs/newsroom/business/generali-philippines-taps-globe-business-cloud-scale-digital-sevices/newsroom-business-generali-philippines-cloud-primary-thumbnail-m.jpg",
      "imageDesktop": "/sites/globe.com.ph/files/content/dam/globe/brie/AboutUs/newsroom/business/generali-philippines-taps-globe-business-cloud-scale-digital-sevices/newsroom-business-generali-philippines-cloud-primary-thumbnail-d.jpg",
      "description": "Globe and Cascadeo assisted GLAPI in building and maximizing its Cloud infrastructure. ",
      "datePosted": "Jun 09, 2021 | 10:35 AM",
      "titleFromTag": "Business"
    },
    {
      "title": "Globe At Home to Fill Gaps on Home Broadband Connectivity in Rural Areas",
      "nonclickable": false,
      "openNewTab": false,
      "borderArticle": "border-color:#1C91C5;",
      "borderTopArticle": "border-top-color:#1C91C5;",
      "imageListing": "/sites/globe.com.ph/files/content/dam/globe/brie/AboutUs/newsroom/sustainability/globe-at-home-broadband-connectivity-rural-areas/default-citizenship-primary-thumbnail-m.jpg",
      "articleUrl": "https://www.globe.com.ph/about-us/newsroom/sustainability/globe-at-home-broadband-connectivity-rural-areas.html",
      "columnType": "articles--type-3",
      "typeListing": "article",
      "imageMobile": "/sites/globe.com.ph/files/content/dam/globe/brie/AboutUs/newsroom/sustainability/globe-at-home-broadband-connectivity-rural-areas/default-citizenship-primary-thumbnail-m.jpg",
      "imageDesktop": "/sites/globe.com.ph/files/content/dam/globe/brie/AboutUs/newsroom/sustainability/globe-at-home-broadband-connectivity-rural-areas/default-citizenship-primary-thumbnail-d.jpg",
      "description": "More than a year into lockdown, Globe At Home shows no signs of slowing down in responding to customers' transformed needs for at-home internet connectivity.",
      "datePosted": "Jun 09, 2021 | 08:54 AM",
      "titleFromTag": "Sustainability"
    },
    {
      "title": "Road to #FirstWorldNetwork: Globe Builds More Sites in QC, Antipolo",
      "nonclickable": false,
      "openNewTab": false,
      "borderArticle": "border-color:#0074D9;",
      "borderTopArticle": "border-top-color:#0074D9;",
      "imageListing": "/sites/globe.com.ph/files/content/dam/globe/brie/AboutUs/newsroom/corporate/new-cell-towers-completes-sites-upgrade-bukidnon/corporate-default-6-thumbnail-listing.jpg",
      "articleUrl": "https://www.globe.com.ph/about-us/newsroom/corporate/globe-builds-more-sites-qc-antipolo.html",
      "columnType": "articles--type-3",
      "typeListing": "article",
      "imageMobile": "/sites/globe.com.ph/files/content/dam/globe/brie/AboutUs/newsroom/corporate/new-cell-towers-completes-sites-upgrade-bukidnon/corporate-default-6-primary-thumbnail-m.jpg",
      "imageDesktop": "/sites/globe.com.ph/files/content/dam/globe/brie/AboutUs/newsroom/corporate/new-cell-towers-completes-sites-upgrade-bukidnon/corporate-default-6-primary-thumbnail-d.jpg",
      "description": "Globe’s aggressive network builds to elevate customer experience in this challenging time resulted in better services in 2 key cities in Metro Manila and Rizal.",
      "datePosted": "Jun 08, 2021 | 10:37 AM",
      "titleFromTag": "Corporate"
    },
    {
      "title": "Liyab Gets Back at Smart Omega; Finishes Third in 2021 Wild Rift PHL ICON Series",
      "nonclickable": false,
      "openNewTab": false,
      "borderArticle": "border-color:#0074D9;",
      "borderTopArticle": "border-top-color:#0074D9;",
      "imageListing": "/sites/globe.com.ph/files/content/dam/globe/brie/AboutUs/newsroom/corporate/liyab-finishes-third-2021-phl-wild-rift-icon-series/newsroom-corporate-liyab-smart-omega-thumbnail-listing.jpg",
      "articleUrl": "https://www.globe.com.ph/about-us/newsroom/corporate/liyab-finishes-third-2021-phl-wild-rift-icon-series.html",
      "columnType": "articles--type-3",
      "typeListing": "article",
      "imageMobile": "/sites/globe.com.ph/files/content/dam/globe/brie/AboutUs/newsroom/corporate/liyab-finishes-third-2021-phl-wild-rift-icon-series/newsroom-corporate-liyab-smart-omega-primary-thumbnail-m.jpg",
      "imageDesktop": "/sites/globe.com.ph/files/content/dam/globe/brie/AboutUs/newsroom/corporate/liyab-finishes-third-2021-phl-wild-rift-icon-series/newsroom-corporate-liyab-smart-omega-primary-thumbnail-d.jpg",
      "description": "Liyab was one of the eight teams that qualified in the Philippine Playoffs.",
      "datePosted": "Jun 08, 2021 | 10:15 AM",
      "titleFromTag": "Corporate"
    },
    {
      "title": "Globe Powers 8,000 Schools and Reaches Over 670k Filipinos Via e-Learning",
      "nonclickable": false,
      "openNewTab": false,
      "borderArticle": "border-color:#0074D9;",
      "borderTopArticle": "border-top-color:#0074D9;",
      "imageListing": "/sites/globe.com.ph/files/content/dam/globe/brie/AboutUs/newsroom/business/globe-powers-schools-reaches-teachers-e-learning/newsroom-business-globe-powers-schools-thumbnail-listing.jpg",
      "articleUrl": "https://www.globe.com.ph/about-us/newsroom/business/globe-powers-schools-reaches-teachers-e-learning.html",
      "columnType": "articles--type-3",
      "typeListing": "article",
      "imageMobile": "/sites/globe.com.ph/files/content/dam/globe/brie/AboutUs/newsroom/business/globe-powers-schools-reaches-teachers-e-learning/newsroom-business-globe-powers-schools-primary-thumbnail-m.jpg",
      "imageDesktop": "/sites/globe.com.ph/files/content/dam/globe/brie/AboutUs/newsroom/business/globe-powers-schools-reaches-teachers-e-learning/newsroom-business-globe-powers-schools-primary-thumbnail-d.jpg",
      "description": "Over 8,000 private schools have partnered with Globe for connectivity and other solutions, wherein students, teachers and school administrators are able to seamlessly operate and work towards the goals they set for another academic year. ",
      "datePosted": "Jun 07, 2021 | 11:08 AM",
      "titleFromTag": "Business"
    },
    {
      "title": "Globe Preps Up Contingency Plans Amid Rotational Brownouts in Luzon",
      "nonclickable": false,
      "openNewTab": false,
      "borderArticle": "border-color:#0074D9;",
      "borderTopArticle": "border-top-color:#0074D9;",
      "imageListing": "/sites/globe.com.ph/files/content/dam/globe/brie/AboutUs/newsroom/common/updated/Corporate-globe-thumbnail-listing.jpg",
      "articleUrl": "https://www.globe.com.ph/about-us/newsroom/corporate/globe-contingency-plans-rotational-brownouts-luzon.html",
      "columnType": "articles--type-3",
      "typeListing": "article",
      "imageMobile": "/sites/globe.com.ph/files/content/dam/globe/brie/AboutUs/newsroom/common/updated/Corporate-globe-primary-thumbnail-m.jpg",
      "imageDesktop": "/sites/globe.com.ph/files/content/dam/globe/brie/AboutUs/newsroom/common/updated/Corporate-globe-primary-thumbnail-d.jpg",
      "description": "Globe assures its customers that contingency plans and preparations are in place to address the impact of the ongoing rotational brownouts in Luzon.",
      "datePosted": "Jun 07, 2021 | 09:58 AM",
      "titleFromTag": "Corporate"
    },
    {
      "title": "Brownout? Stay Connected with Globe MyFi LTE and LTE-A",
      "nonclickable": false,
      "openNewTab": false,
      "borderArticle": "border-color:#0074D9;",
      "borderTopArticle": "border-top-color:#0074D9;",
      "imageListing": "/sites/globe.com.ph/files/content/dam/globe/brie/AboutUs/newsroom/consumer/brownout-stay-connected-myfi/newsroom-consumer-brownout-myfi-lte-thumbnail-listing.jpg",
      "articleUrl": "https://www.globe.com.ph/about-us/newsroom/consumer/brownout-stay-connected-myfi.html",
      "columnType": "articles--type-3",
      "typeListing": "article",
      "imageMobile": "/sites/globe.com.ph/files/content/dam/globe/brie/AboutUs/newsroom/consumer/brownout-stay-connected-myfi/newsroom-consumer-brownout-myfi-lte-primary-thumbnail-m.jpg",
      "imageDesktop": "/sites/globe.com.ph/files/content/dam/globe/brie/AboutUs/newsroom/consumer/brownout-stay-connected-myfi/newsroom-consumer-brownout-myfi-lte-primary-thumbnail-d.jpg",
      "description": "With Globe At Home Prepaid Mobile WiFi devices MyFi LTE and LTE-Advanced (LTE-A),  power interruption can no longer interrupt your digital needs",
      "datePosted": "Jun 04, 2021 | 05:48 PM",
      "titleFromTag": "Consumer"
    },
    {
      "title": "Globe At Home ‘Focuses on the Right Things’; Customer-Centric Initiatives That Allow Customers To Be in Control",
      "nonclickable": false,
      "openNewTab": false,
      "borderArticle": "border-color:#0074D9;",
      "borderTopArticle": "border-top-color:#0074D9;",
      "imageListing": "/sites/globe.com.ph/files/content/dam/globe/brie/AboutUs/newsroom/common/updated/Corporate-globe-thumbnail-listing.jpg",
      "articleUrl": "https://www.globe.com.ph/about-us/newsroom/consumer/globe-at-home-customer-centric-initiatives.html",
      "columnType": "articles--type-3",
      "typeListing": "article",
      "imageMobile": "/sites/globe.com.ph/files/content/dam/globe/brie/AboutUs/newsroom/common/updated/Corporate-globe-primary-thumbnail-m.jpg",
      "imageDesktop": "/sites/globe.com.ph/files/content/dam/globe/brie/AboutUs/newsroom/common/updated/Corporate-globe-primary-thumbnail-d.jpg",
      "description": "By putting the Globe At Home app at the forefront of customer servicing, customers can now have overall control on how they manage their transactions.",
      "datePosted": "Jun 04, 2021 | 02:48 PM",
      "titleFromTag": "Consumer"
    }
  ]
}
