{
  "status": 200,
  "page": 118,
  "totalPage": 298,
  "range": "1405-1416",
  "total": 3573,
  "result": [
    {
      "title": "Alex Eala Sets Sights on French Open Girls’ Title",
      "nonclickable": false,
      "openNewTab": false,
      "borderArticle": "border-color:#0074D9;",
      "borderTopArticle": "border-top-color:#0074D9;",
      "imageListing": "/sites/globe.com.ph/files/content/dam/globe/brie/AboutUs/newsroom/corporate/eala-sets-sights-french-open-girls-title/newsroom-corporate-eala-sets-sights-thumbnail-listing.jpg",
      "articleUrl": "https://www.globe.com.ph/about-us/newsroom/corporate/eala-sets-sights-french-open-girls-title.html",
      "columnType": "articles--type-3",
      "typeListing": "article",
      "imageMobile": "/sites/globe.com.ph/files/content/dam/globe/brie/AboutUs/newsroom/corporate/eala-sets-sights-french-open-girls-title/newsroom-corporate-eala-sets-sights-primary-thumbnail-m.jpg",
      "imageDesktop": "/sites/globe.com.ph/files/content/dam/globe/brie/AboutUs/newsroom/corporate/eala-sets-sights-french-open-girls-title/newsroom-corporate-eala-sets-sights-primary-thumbnail-d.jpg",
      "description": "Filipina tennis star Alex Eala is set to compete in the girls’ singles competition of the 2021 French Open Stade Roland-Garros in Paris, France.",
      "datePosted": "Jun 04, 2021 | 02:47 PM",
      "titleFromTag": "Corporate"
    },
    {
      "title": "Fisherfolk in Dingalan, Aurora Equipped with Livelihood Tool ISDApp from Globe, BFAR, NFRDI ",
      "nonclickable": false,
      "openNewTab": false,
      "borderArticle": "border-color:#0074D9;",
      "borderTopArticle": "border-top-color:#0074D9;",
      "imageListing": "/sites/globe.com.ph/files/content/dam/globe/brie/AboutUs/newsroom/sustainability/fisherfolk-dingalan-aurora-equipped-isdapp/newsroom-sustainability-fisherfolk-aurora-isdapp-thumbnail-listing.jpg",
      "articleUrl": "https://www.globe.com.ph/about-us/newsroom/sustainability/fisherfolk-dingalan-aurora-equipped-isdapp.html",
      "columnType": "articles--type-3",
      "typeListing": "article",
      "imageMobile": "/sites/globe.com.ph/files/content/dam/globe/brie/AboutUs/newsroom/sustainability/fisherfolk-dingalan-aurora-equipped-isdapp/newsroom-sustainability-fisherfolk-aurora-isdapp-primary-thumbnail-m.jpg",
      "imageDesktop": "/sites/globe.com.ph/files/content/dam/globe/brie/AboutUs/newsroom/sustainability/fisherfolk-dingalan-aurora-equipped-isdapp/newsroom-sustainability-fisherfolk-aurora-isdapp-primary-thumbnail-d.jpg",
      "description": "The lack of scientific basis to keep the fishermen safe when sailing prompted Globe, NFRDI, and BFAR to collaborate and launch ISDApp in Dingalan, Aurora.",
      "datePosted": "Jun 04, 2021 | 10:20 AM",
      "titleFromTag": "Sustainability"
    },
    {
      "title": "Globe's VoLTE Service Now Available in 25 Provinces in PH ",
      "nonclickable": false,
      "openNewTab": false,
      "borderArticle": "border-color:#0074D9;",
      "borderTopArticle": "border-top-color:#0074D9;",
      "imageListing": "/sites/globe.com.ph/files/content/dam/globe/brie/AboutUs/newsroom/corporate/volte-service-now-available-25-provinces-ph/default-consumer-2-thumbnail-listing.jpg",
      "articleUrl": "https://www.globe.com.ph/about-us/newsroom/corporate/volte-service-now-available-25-provinces-ph.html",
      "columnType": "articles--type-3",
      "typeListing": "article",
      "imageMobile": "/sites/globe.com.ph/files/content/dam/globe/brie/AboutUs/newsroom/corporate/volte-service-now-available-25-provinces-ph/default-consumer-2-primary-thumbnail-m.jpg",
      "imageDesktop": "/sites/globe.com.ph/files/content/dam/globe/brie/AboutUs/newsroom/corporate/volte-service-now-available-25-provinces-ph/default-consumer-2-primary-thumbnail-d.jpg",
      "description": "Globe has already activated and optimized its Voice Over LTE or VoLTE service in at least 25 provinces all over the country.",
      "datePosted": "Jun 04, 2021 | 08:01 AM",
      "titleFromTag": "Corporate"
    },
    {
      "title": "Overwhelmed? TAYO NAMAN! Series by DepEd, Globe Aids Teachers to Manage Emotions",
      "nonclickable": false,
      "openNewTab": false,
      "borderArticle": "border-color:#0074D9;",
      "borderTopArticle": "border-top-color:#0074D9;",
      "imageListing": "/sites/globe.com.ph/files/content/dam/globe/brie/AboutUs/newsroom/sustainability/tayo-naman-aids-teachers-manage-emotions/newsroom-sustainability-deped-manage-emotions-thumbnail-listing.jpg",
      "articleUrl": "https://www.globe.com.ph/about-us/newsroom/sustainability/tayo-naman-aids-teachers-manage-emotions.html",
      "columnType": "articles--type-3",
      "typeListing": "article",
      "imageMobile": "/sites/globe.com.ph/files/content/dam/globe/brie/AboutUs/newsroom/sustainability/tayo-naman-aids-teachers-manage-emotions/newsroom-sustainability-deped-manage-emotions-primary-thumbnail-m.jpg",
      "imageDesktop": "/sites/globe.com.ph/files/content/dam/globe/brie/AboutUs/newsroom/sustainability/tayo-naman-aids-teachers-manage-emotions/newsroom-sustainability-deped-manage-emotions-primary-thumbnail-d.jpg",
      "description": "TAYO Naman! provides education advocates the knowledge to care for their mental health. ",
      "datePosted": "Jun 03, 2021 | 01:36 PM",
      "titleFromTag": "Sustainability"
    },
    {
      "title": "#KwentoNgTagumpay: Globe Revives Community Livelihood in Verde Island Amid Isolation, Pandemic",
      "nonclickable": false,
      "openNewTab": false,
      "borderArticle": "border-color:#0074D9;",
      "borderTopArticle": "border-top-color:#0074D9;",
      "imageListing": "/sites/globe.com.ph/files/content/dam/globe/brie/AboutUs/newsroom/sustainability/globe-revives-community-livelihood-verde-island/newsroom-sustainability-community-livelihood-island-thumbnail-listing.jpg",
      "articleUrl": "https://www.globe.com.ph/about-us/newsroom/sustainability/globe-revives-community-livelihood-verde-island.html",
      "columnType": "articles--type-3",
      "typeListing": "article",
      "imageMobile": "/sites/globe.com.ph/files/content/dam/globe/brie/AboutUs/newsroom/sustainability/globe-revives-community-livelihood-verde-island/newsroom-sustainability-community-livelihood-island-primary-thumbnail-m.jpg",
      "imageDesktop": "/sites/globe.com.ph/files/content/dam/globe/brie/AboutUs/newsroom/sustainability/globe-revives-community-livelihood-verde-island/newsroom-sustainability-community-livelihood-island-primary-thumbnail-d.jpg",
      "description": "Since last year Globe has installed a significant number of new cell towers and has completed several site upgrades in the whole province.",
      "datePosted": "Jun 03, 2021 | 01:28 PM",
      "titleFromTag": "Sustainability"
    },
    {
      "title": "With Intensified Competition, Globe At Home Says that Operators 'Cannot Win On Speed Alone'",
      "nonclickable": false,
      "openNewTab": false,
      "borderArticle": "border-color:#0074D9;",
      "borderTopArticle": "border-top-color:#0074D9;",
      "imageListing": "/sites/globe.com.ph/files/content/dam/globe/brie/AboutUs/newsroom/consumer/globe-at-home-operators-cannot-win-speed-alone/newsroom-consumer-gah-operators-speed-thumbnail-listing.jpg",
      "articleUrl": "https://www.globe.com.ph/about-us/newsroom/consumer/globe-at-home-operators-cannot-win-speed-alone.html",
      "columnType": "articles--type-3",
      "typeListing": "article",
      "imageMobile": "/sites/globe.com.ph/files/content/dam/globe/brie/AboutUs/newsroom/consumer/globe-at-home-operators-cannot-win-speed-alone/newsroom-consumer-gah-operators-speed-primary-thumbnail-m.jpg",
      "imageDesktop": "/sites/globe.com.ph/files/content/dam/globe/brie/AboutUs/newsroom/consumer/globe-at-home-operators-cannot-win-speed-alone/newsroom-consumer-gah-operators-speed-primary-thumbnail-d.jpg",
      "description": "Globe At Home acknowledges that there is intense competition for fiber internet amidst increased demand for home connectivity due to the global health crisis.",
      "datePosted": "Jun 02, 2021 | 06:30 PM",
      "titleFromTag": "Consumer"
    },
    {
      "title": "Eala is Number 2 Seed at 2021 French Open Juniors",
      "nonclickable": false,
      "openNewTab": false,
      "borderArticle": "border-color:#0074D9;",
      "borderTopArticle": "border-top-color:#0074D9;",
      "imageListing": "/sites/globe.com.ph/files/content/dam/globe/brie/AboutUs/newsroom/corporate/eala-number-2-seed-2021-french-open-juniors/newsroom-corporate-eala-french-juniors-thumbnail-listing.jpg",
      "articleUrl": "https://www.globe.com.ph/about-us/newsroom/corporate/eala-number-2-seed-2021-french-open-juniors.html",
      "columnType": "articles--type-3",
      "typeListing": "article",
      "imageMobile": "/sites/globe.com.ph/files/content/dam/globe/brie/AboutUs/newsroom/corporate/eala-number-2-seed-2021-french-open-juniors/newsroom-corporate-eala-french-juniors-primary-thumbnail-m.jpg",
      "imageDesktop": "/sites/globe.com.ph/files/content/dam/globe/brie/AboutUs/newsroom/corporate/eala-number-2-seed-2021-french-open-juniors/newsroom-corporate-eala-french-juniors-primary-thumbnail-d.jpg",
      "description": "Filipino tennis sensation & Globe ambassador Alex Eala is seeded number 2 in the juniors competition of the 2021 French Open at Roland Garros in Paris, France.",
      "datePosted": "Jun 02, 2021 | 03:32 PM",
      "titleFromTag": "Corporate"
    },
    {
      "title": "Globe Studios Fills Pinoy Appetite for Socially-Relevant Content",
      "nonclickable": false,
      "openNewTab": false,
      "borderArticle": "border-color:#0074D9;",
      "borderTopArticle": "border-top-color:#0074D9;",
      "imageListing": "/sites/globe.com.ph/files/content/dam/globe/brie/AboutUs/newsroom/consumer/globe-studios-socially-relevant-content/newsroom-consumer-globe-studios-content-thumbnail-listing.jpg",
      "articleUrl": "https://www.globe.com.ph/about-us/newsroom/consumer/globe-studios-socially-relevant-content.html",
      "columnType": "articles--type-3",
      "typeListing": "article",
      "imageMobile": "/sites/globe.com.ph/files/content/dam/globe/brie/AboutUs/newsroom/consumer/globe-studios-socially-relevant-content/newsroom-consumer-globe-studios-content-primary-thumbnail-m.jpg",
      "imageDesktop": "/sites/globe.com.ph/files/content/dam/globe/brie/AboutUs/newsroom/consumer/globe-studios-socially-relevant-content/newsroom-consumer-globe-studios-content-primary-thumbnail-d.jpg",
      "description": "Globe endeavors to create a more inclusive world by connecting its customers and bringing them together with socially-relevant content. ",
      "datePosted": "Jun 02, 2021 | 11:32 AM",
      "titleFromTag": "Consumer"
    },
    {
      "title": "How 4G LTE Saved Tourism and Online Learning in Donsol, Sorsogon",
      "nonclickable": false,
      "openNewTab": false,
      "borderArticle": "border-color:#1C91C5;",
      "borderTopArticle": "border-top-color:#1C91C5;",
      "imageListing": "/sites/globe.com.ph/files/content/dam/globe/brie/AboutUs/newsroom/sustainability/how-4g-lte-saved-tourism-online-learning-sorsogon/newsroom-sustainability-4g-lte-sorsogon-thumbnail-listing.jpg",
      "articleUrl": "https://www.globe.com.ph/about-us/newsroom/sustainability/how-4g-lte-saved-tourism-online-learning-sorsogon.html",
      "columnType": "articles--type-3",
      "typeListing": "article",
      "imageMobile": "/sites/globe.com.ph/files/content/dam/globe/brie/AboutUs/newsroom/sustainability/how-4g-lte-saved-tourism-online-learning-sorsogon/newsroom-sustainability-4g-lte-sorsogon-primary-thumbnail-m.jpg",
      "imageDesktop": "/sites/globe.com.ph/files/content/dam/globe/brie/AboutUs/newsroom/sustainability/how-4g-lte-saved-tourism-online-learning-sorsogon/newsroom-sustainability-4g-lte-sorsogon-primary-thumbnail-d.jpg",
      "description": "With the latest technology, Globe customers in Donsol now have access to high-speed internet, clearer calls and a stable mobile network. ",
      "datePosted": "Jun 02, 2021 | 10:30 AM",
      "titleFromTag": "Sustainability"
    },
    {
      "title": "Globe Rewards Open Donation Drive for PGH After Fire",
      "nonclickable": false,
      "openNewTab": false,
      "borderArticle": "border-color:#1C91C5;",
      "borderTopArticle": "border-top-color:#1C91C5;",
      "imageListing": "/sites/globe.com.ph/files/content/dam/globe/brie/AboutUs/newsroom/sustainability/globe-rewards-donation-drive-pgh-after-fire/newsroom-sustainability-rewards-donation-pgh-thumbnail-listing.jpg",
      "articleUrl": "https://www.globe.com.ph/about-us/newsroom/sustainability/globe-rewards-donation-drive-pgh-after-fire.html",
      "columnType": "articles--type-3",
      "typeListing": "article",
      "imageMobile": "/sites/globe.com.ph/files/content/dam/globe/brie/AboutUs/newsroom/sustainability/globe-rewards-donation-drive-pgh-after-fire/newsroom-sustainability-rewards-donation-pgh-primary-thumbnail-m.jpg",
      "imageDesktop": "/sites/globe.com.ph/files/content/dam/globe/brie/AboutUs/newsroom/sustainability/globe-rewards-donation-drive-pgh-after-fire/newsroom-sustainability-rewards-donation-pgh-primary-thumbnail-d.jpg",
      "description": "Globe Rewards opened its platform for a donation drive to help PGH in its recovery drive.",
      "datePosted": "Jun 02, 2021 | 09:22 AM",
      "titleFromTag": "Sustainability"
    },
    {
      "title": "Globe Deploys Libreng Tawag, Charging, WiFi Services as #Dante Hits PH",
      "nonclickable": false,
      "openNewTab": false,
      "borderArticle": "border-color:#0074D9;",
      "borderTopArticle": "border-top-color:#0074D9;",
      "imageListing": "/sites/globe.com.ph/files/content/dam/globe/brie/AboutUs/newsroom/corporate/libreng-tawag-charging-wifi-services-dante-hits-ph/Corporate_Globe_Listing.jpg",
      "articleUrl": "https://www.globe.com.ph/about-us/newsroom/corporate/libreng-tawag-charging-wifi-services-dante-hits-ph.html",
      "columnType": "articles--type-3",
      "typeListing": "article",
      "imageMobile": "/sites/globe.com.ph/files/content/dam/globe/brie/AboutUs/newsroom/corporate/libreng-tawag-charging-wifi-services-dante-hits-ph/Corporate-globe-primary-thumbnail-m.jpg",
      "imageDesktop": "/sites/globe.com.ph/files/content/dam/globe/brie/AboutUs/newsroom/corporate/libreng-tawag-charging-wifi-services-dante-hits-ph/Corporate-globe-primary-thumbnail-d.jpg",
      "description": "Globe is ready to assist residents in areas threatened by tropical storm Dante as part of the company’s intensified disaster preparedness campaign.",
      "datePosted": "Jun 02, 2021 | 03:28 AM",
      "titleFromTag": "Corporate"
    },
    {
      "title": "Malayo Ang Mararating ng Madiskarteng Pinoy Families with Globe At Home’s Affordable Prepaid WiFi",
      "nonclickable": false,
      "openNewTab": false,
      "borderArticle": "border-color:#0074D9;",
      "borderTopArticle": "border-top-color:#0074D9;",
      "imageListing": "/sites/globe.com.ph/files/content/dam/globe/brie/AboutUs/newsroom/consumer/madiskarteng-pinoy-families-prepaid-wifi/newsroom-consumer-madiskarteng-pinoy-families-thumbnail-listing.jpg",
      "articleUrl": "https://www.globe.com.ph/about-us/newsroom/consumer/madiskarteng-pinoy-families-prepaid-wifi.html",
      "columnType": "articles--type-3",
      "typeListing": "article",
      "imageMobile": "/sites/globe.com.ph/files/content/dam/globe/brie/AboutUs/newsroom/consumer/madiskarteng-pinoy-families-prepaid-wifi/newsroom-consumer-madiskarteng-pinoy-families-primary-thumbnail-m.jpg",
      "imageDesktop": "/sites/globe.com.ph/files/content/dam/globe/brie/AboutUs/newsroom/consumer/madiskarteng-pinoy-families-prepaid-wifi/newsroom-consumer-madiskarteng-pinoy-families-primary-thumbnail-d.jpg",
      "description": "Globe At Home Prepaid WiFi ensures its services easily fit the budget of every Pinoy so that no one is left behind as the shift to digital platforms continues.",
      "datePosted": "Jun 01, 2021 | 11:41 AM",
      "titleFromTag": "Consumer"
    }
  ]
}
