{
  "status": 200,
  "page": 119,
  "totalPage": 298,
  "range": "1417-1428",
  "total": 3573,
  "result": [
    {
      "title": "Globe Reduces Disaster Risks with Robust Business Continuity Program ",
      "nonclickable": false,
      "openNewTab": false,
      "borderArticle": "border-color:#1C91C5;",
      "borderTopArticle": "border-top-color:#1C91C5;",
      "imageListing": "/sites/globe.com.ph/files/content/dam/globe/brie/AboutUs/newsroom/sustainability/reduces-disaster-risks-robust-business-continuity/newsroom-sustainability-lcc-globe-present-lab-thumbnail-listing.jpg",
      "articleUrl": "https://www.globe.com.ph/about-us/newsroom/sustainability/reduces-disaster-risks-robust-business-continuity.html",
      "columnType": "articles--type-3",
      "typeListing": "article",
      "imageMobile": "/sites/globe.com.ph/files/content/dam/globe/brie/AboutUs/newsroom/sustainability/reduces-disaster-risks-robust-business-continuity/newsroom-sustainability-lcc-globe-present-lab-primary-thumbnail-m.jpg",
      "imageDesktop": "/sites/globe.com.ph/files/content/dam/globe/brie/AboutUs/newsroom/sustainability/reduces-disaster-risks-robust-business-continuity/newsroom-sustainability-lcc-globe-present-lab-primary-thumbnail-d.jpg",
      "description": "Globe's Business Continuity Management System works hard to keep services operational in the face of natural disasters and widespread devastation.",
      "datePosted": "Jun 01, 2021 | 10:08 AM",
      "titleFromTag": "Sustainability"
    },
    {
      "title": "LCC, Globe Present Lab on Resilient Public Health Systems",
      "nonclickable": false,
      "openNewTab": false,
      "borderArticle": "border-color:#1C91C5;",
      "borderTopArticle": "border-top-color:#1C91C5;",
      "imageListing": "/sites/globe.com.ph/files/content/dam/globe/brie/AboutUs/newsroom/sustainability/lcc-globe-present-lab-on-resilient-public-health/newsroom-sustainability-lcc-globe-present-lab-thumbnail-listing.jpg",
      "articleUrl": "https://www.globe.com.ph/about-us/newsroom/sustainability/lcc-globe-present-lab-resilient-public-health-systems.html",
      "columnType": "articles--type-3",
      "typeListing": "article",
      "imageMobile": "/sites/globe.com.ph/files/content/dam/globe/brie/AboutUs/newsroom/sustainability/lcc-globe-present-lab-on-resilient-public-health/newsroom-sustainability-lcc-globe-present-lab-primary-thumbnail-m.jpg",
      "imageDesktop": "/sites/globe.com.ph/files/content/dam/globe/brie/AboutUs/newsroom/sustainability/lcc-globe-present-lab-on-resilient-public-health/newsroom-sustainability-lcc-globe-present-lab-primary-thumbnail-d.jpg",
      "description": "LCC, Globe, and the League of Cities of the Philippines will discuss how cities are addressing the impact of COVID-19 on their healthcare systems and society.",
      "datePosted": "May 31, 2021 | 02:11 PM",
      "titleFromTag": "Sustainability"
    },
    {
      "title": " Globe Supports Tougher Laws vs Online Content Piracy",
      "nonclickable": false,
      "openNewTab": false,
      "borderArticle": "border-color:#0074D9;",
      "borderTopArticle": "border-top-color:#0074D9;",
      "imageListing": "/sites/globe.com.ph/files/content/dam/globe/brie/AboutUs/newsroom/corporate/globe-supports-tougher-laws-online-content-piracy/newsroom-corporate-globe-supports-laws-thumbnail-listing.jpg",
      "articleUrl": "https://www.globe.com.ph/about-us/newsroom/corporate/globe-supports-tougher-laws-online-content-piracy.html",
      "columnType": "articles--type-3",
      "typeListing": "article",
      "imageMobile": "/sites/globe.com.ph/files/content/dam/globe/brie/AboutUs/newsroom/corporate/globe-supports-tougher-laws-online-content-piracy/newsroom-corporate-globe-supports-laws-primary-thumbnail-m.jpg",
      "imageDesktop": "/sites/globe.com.ph/files/content/dam/globe/brie/AboutUs/newsroom/corporate/globe-supports-tougher-laws-online-content-piracy/newsroom-corporate-globe-supports-laws-primary-thumbnail-d.jpg",
      "description": "Globe supports the creation & activation of tougher legislation that will address online content piracy, which strips billions off legitimate content providers.",
      "datePosted": "May 31, 2021 | 11:57 AM",
      "titleFromTag": "Corporate"
    },
    {
      "title": "Globe Sees Steady Growth Through Content and Customer-First Initiatives",
      "nonclickable": false,
      "openNewTab": false,
      "borderArticle": "border-color:#0074D9;",
      "borderTopArticle": "border-top-color:#0074D9;",
      "imageListing": "/sites/globe.com.ph/files/content/dam/globe/brie/AboutUs/newsroom/corporate/steady-growth-customer-first-initiatives/newsroom-corporate-steady-growth-customer-thumbnail-listing.jpg",
      "articleUrl": "https://www.globe.com.ph/about-us/newsroom/corporate/steady-growth-customer-first-initiatives.html",
      "columnType": "articles--type-3",
      "typeListing": "article",
      "imageMobile": "/sites/globe.com.ph/files/content/dam/globe/brie/AboutUs/newsroom/corporate/steady-growth-customer-first-initiatives/newsroom-corporate-steady-growth-customer-primary-thumbnail-m.jpg",
      "imageDesktop": "/sites/globe.com.ph/files/content/dam/globe/brie/AboutUs/newsroom/corporate/steady-growth-customer-first-initiatives/newsroom-corporate-steady-growth-customer-primary-thumbnail-d.jpg",
      "description": "The company has since progressed into becoming a content creator to meet the discerning demands of its customers.",
      "datePosted": "May 31, 2021 | 11:55 AM",
      "titleFromTag": "Corporate"
    },
    {
      "title": "Globe Secures 799 Permits in 1Q 2021 to Build New Towers",
      "nonclickable": false,
      "openNewTab": false,
      "borderArticle": "border-color:#0074D9;",
      "borderTopArticle": "border-top-color:#0074D9;",
      "imageListing": "/sites/globe.com.ph/files/content/dam/globe/brie/AboutUs/newsroom/corporate/799-permits-1q-2021-new-towers/default-corporate-9-thumbnail-listing.jpg",
      "articleUrl": "https://www.globe.com.ph/about-us/newsroom/corporate/799-permits-1q-2021-new-towers.html",
      "columnType": "articles--type-3",
      "typeListing": "article",
      "imageMobile": "/sites/globe.com.ph/files/content/dam/globe/brie/AboutUs/newsroom/corporate/799-permits-1q-2021-new-towers/default-corporate-9-primary-thumbnail-m.jpg",
      "imageDesktop": "/sites/globe.com.ph/files/content/dam/globe/brie/AboutUs/newsroom/corporate/799-permits-1q-2021-new-towers/default-corporate-9-primary-thumbnail-d.jpg",
      "description": "Globe’s target to install more new cell towers gets an added boost after it secured a total of 799 permits in the first three months of 2021.",
      "datePosted": "May 31, 2021 | 09:56 AM",
      "titleFromTag": "Corporate"
    },
    {
      "title": "  Globe Listens to Customer Preferences for ‘Better, Personalized’ Content Options",
      "nonclickable": false,
      "openNewTab": false,
      "borderArticle": "border-color:#0074D9;",
      "borderTopArticle": "border-top-color:#0074D9;",
      "imageListing": "/sites/globe.com.ph/files/content/dam/globe/brie/AboutUs/newsroom/common/updated/Corporate-globe-thumbnail-listing.jpg",
      "articleUrl": "https://www.globe.com.ph/about-us/newsroom/corporate/globe-listens-customer-personalized-content-options.html",
      "columnType": "articles--type-3",
      "typeListing": "article",
      "imageMobile": "/sites/globe.com.ph/files/content/dam/globe/brie/AboutUs/newsroom/common/updated/Corporate-globe-primary-banner-m.jpg",
      "imageDesktop": "/sites/globe.com.ph/files/content/dam/globe/brie/AboutUs/newsroom/common/updated/Corporate-globe-primary-banner-d.jpg",
      "description": "Filipino lifestyle has shifted to digital-based activities, prompting Globe to support this new lifestyle with better and more personalized content options.",
      "datePosted": "May 31, 2021 | 09:56 AM",
      "titleFromTag": "Corporate"
    },
    {
      "title": "Globe Kmmunity Brings Your Fave K-Films to Binge-Watch through UPSTREAM, GMovies",
      "nonclickable": false,
      "openNewTab": false,
      "borderArticle": "border-color:#0074D9;",
      "borderTopArticle": "border-top-color:#0074D9;",
      "imageListing": "/sites/globe.com.ph/files/content/dam/globe/brie/AboutUs/newsroom/consumer/globe-kmmunity-brings-your-fave-k-films-to-binge-watch-through-upstream,-gmovies/newsroom-consumer-kmmunity-upstream-gmovies-thumbnail-listing.jpg",
      "articleUrl": "https://www.globe.com.ph/about-us/newsroom/consumer/kmmunity-brings-k-films-upstream-gmovies.html",
      "columnType": "articles--type-3",
      "typeListing": "article",
      "imageMobile": "/sites/globe.com.ph/files/content/dam/globe/brie/AboutUs/newsroom/consumer/globe-kmmunity-brings-your-fave-k-films-to-binge-watch-through-upstream,-gmovies/newsroom-consumer-kmmunity-upstream-gmovies-primary-thumbnail-m.jpg",
      "imageDesktop": "/sites/globe.com.ph/files/content/dam/globe/brie/AboutUs/newsroom/consumer/globe-kmmunity-brings-your-fave-k-films-to-binge-watch-through-upstream,-gmovies/newsroom-consumer-kmmunity-upstream-gmovies-primary-thumbnail-d.jpg",
      "description": "Which of these K-Films will you stan for at the annual Kmmunity K’tizens’ Choice Awards?",
      "datePosted": "May 31, 2021 | 09:33 AM",
      "titleFromTag": "Consumer"
    },
    {
      "title": "Spruce Fashions to be Future-Ready with These Digital Solutions",
      "nonclickable": false,
      "openNewTab": false,
      "borderArticle": "border-color:#0074D9;",
      "borderTopArticle": "border-top-color:#0074D9;",
      "imageListing": "/sites/globe.com.ph/files/content/dam/globe/brie/AboutUs/newsroom/business/spruce-fashions-to-be-future-ready-with-these-digital-solutions/newsroom-business-spruce-future-ready-thumbnail-listing.jpg",
      "articleUrl": "https://www.globe.com.ph/about-us/newsroom/business/spruce-future-ready-digital-solutions.html",
      "columnType": "articles--type-3",
      "typeListing": "article",
      "imageMobile": "/sites/globe.com.ph/files/content/dam/globe/brie/AboutUs/newsroom/business/spruce-fashions-to-be-future-ready-with-these-digital-solutions/newsroom-business-spruce-future-ready-primary-thumbnail-m.jpg",
      "imageDesktop": "/sites/globe.com.ph/files/content/dam/globe/brie/AboutUs/newsroom/business/spruce-fashions-to-be-future-ready-with-these-digital-solutions/newsroom-business-spruce-future-ready-primary-thumbnail-d.jpg",
      "description": "The new normal is proving that online is the best place to be in. Give your business the best tools from Globe myBusiness just like what Spruce did.",
      "datePosted": "May 31, 2021 | 08:01 AM",
      "titleFromTag": "Business"
    },
    {
      "title": "Globe-Powered ISDApp To Keep 300 Fisherfolks in Dingalan, Aurora Safe at Sea",
      "nonclickable": false,
      "openNewTab": false,
      "borderArticle": "border-color:#1C91C5;",
      "borderTopArticle": "border-top-color:#1C91C5;",
      "imageListing": "/sites/globe.com.ph/files/content/dam/globe/brie/AboutUs/newsroom/sustainability/access-globe-elibrary-free/newsroom-sustainability-globe-elibrary-free-thumbnail-listing.jpg",
      "articleUrl": "https://www.globe.com.ph/about-us/newsroom/sustainability/isdapp-keep-fisherfolks-dingalan-aurora-safe-sea.html",
      "columnType": "articles--type-3",
      "typeListing": "article",
      "imageMobile": "/sites/globe.com.ph/files/content/dam/globe/brie/AboutUs/newsroom/sustainability/access-globe-elibrary-free/newsroom-sustainability-globe-elibrary-free-primary-thumbnail-m.jpg",
      "imageDesktop": "/sites/globe.com.ph/files/content/dam/globe/brie/AboutUs/newsroom/sustainability/globe-powered-isdapp-to-keep-300-fisherfolks-in-dingalan,-aurora-safe-at-sea/newsroom-sustainability-isdapp-fisherfolks-aurora-primary-thumbnail-d.jpg",
      "description": "Three hundred fisherfolks in Dingalan, Aurora will soon be able to properly monitor weather conditions for safe sailing, especially during the typhoon season as ISDApp launches in their coastal community this May.",
      "datePosted": "May 28, 2021 | 02:11 PM",
      "titleFromTag": "Sustainability"
    },
    {
      "title": "Access Globe eLibrary for FREE to Improve English Reading and Comprehension",
      "nonclickable": false,
      "openNewTab": false,
      "borderArticle": "border-color:#1C91C5;",
      "borderTopArticle": "border-top-color:#1C91C5;",
      "imageListing": "/sites/globe.com.ph/files/content/dam/globe/brie/AboutUs/newsroom/sustainability/access-globe-elibrary-free/newsroom-sustainability-globe-elibrary-free-thumbnail-listing.jpg",
      "articleUrl": "https://www.globe.com.ph/about-us/newsroom/sustainability/access-globe-elibrary-free.html",
      "columnType": "articles--type-3",
      "typeListing": "article",
      "imageMobile": "/sites/globe.com.ph/files/content/dam/globe/brie/AboutUs/newsroom/sustainability/access-globe-elibrary-free/newsroom-sustainability-globe-elibrary-free-primary-thumbnail-m.jpg",
      "imageDesktop": "/sites/globe.com.ph/files/content/dam/globe/brie/AboutUs/newsroom/sustainability/access-globe-elibrary-free/newsroom-sustainability-globe-elibrary-free-primary-thumbnail-d.jpg",
      "description": "Globe acknowledges that quality education is a driver of economic development, thus encouraging parents and students to explore the rich content of its Globe eLibrary to enrich their online learning.",
      "datePosted": "May 28, 2021 | 01:28 PM",
      "titleFromTag": "Sustainability"
    },
    {
      "title": "Content niches, unexpected results: Globe Studios catering to Filipinos’ evolving needs",
      "nonclickable": false,
      "openNewTab": false,
      "borderArticle": "border-color:#0074D9;",
      "borderTopArticle": "border-top-color:#0074D9;",
      "imageListing": "/sites/globe.com.ph/files/content/dam/globe/brie/AboutUs/newsroom/consumer/content-niches-unexpected-results/newsroom-consumer-content-niches-results-thumbnail-listing.jpg",
      "articleUrl": "https://www.globe.com.ph/about-us/newsroom/consumer/content-niches-globe-studios-filipinos-evolving-needs.html",
      "columnType": "articles--type-3",
      "typeListing": "article",
      "imageMobile": "/sites/globe.com.ph/files/content/dam/globe/brie/AboutUs/newsroom/consumer/content-niches-unexpected-results/newsroom-consumer-content-niches-results-primary-thumbnail-m.jpg",
      "imageDesktop": "/sites/globe.com.ph/files/content/dam/globe/brie/AboutUs/newsroom/consumer/content-niches-unexpected-results/newsroom-consumer-content-niches-results-primary-thumbnail-d.jpg",
      "description": "Quark Henares, Globe Studios Head, shared that Globe Studio's direction allowed the group greater flexibility in its content offerings in these uncertain times.",
      "datePosted": "May 28, 2021 | 09:33 AM",
      "titleFromTag": "Consumer"
    },
    {
      "title": "Globe Installs 11 New Cell Towers, Completes 103 Sites Upgrade in Bukidnon - Globe Newsroom",
      "nonclickable": false,
      "openNewTab": false,
      "borderArticle": "border-color:#0074D9;",
      "borderTopArticle": "border-top-color:#0074D9;",
      "imageListing": "/sites/globe.com.ph/files/content/dam/globe/brie/AboutUs/newsroom/corporate/new-cell-towers-completes-sites-upgrade-bukidnon/corporate-default-6-thumbnail-listing.jpg",
      "articleUrl": "https://www.globe.com.ph/about-us/newsroom/corporate/new-cell-towers-completes-sites-upgrade-bukidnon.html",
      "columnType": "articles--type-3",
      "typeListing": "article",
      "imageMobile": "/sites/globe.com.ph/files/content/dam/globe/brie/AboutUs/newsroom/corporate/new-cell-towers-completes-sites-upgrade-bukidnon/corporate-default-6-primary-thumbnail-m.jpg",
      "imageDesktop": "/sites/globe.com.ph/files/content/dam/globe/brie/AboutUs/newsroom/corporate/new-cell-towers-completes-sites-upgrade-bukidnon/corporate-default-6-primary-thumbnail-d.jpg",
      "description": "Globe’s aggressive network rollouts and site expansion have resulted in improved services for its customers in Bukidnon.  ",
      "datePosted": "May 28, 2021 | 09:08 AM",
      "titleFromTag": "Corporate"
    }
  ]
}
