{
  "status": 200,
  "page": 12,
  "totalPage": 298,
  "range": "133-144",
  "total": 3573,
  "result": [
    {
      "title": "ABSI Joins CCAP to Elevate Customer Experience in IT-BPM Industry",
      "nonclickable": false,
      "openNewTab": false,
      "borderArticle": "border-color:#0074D9;",
      "borderTopArticle": "border-top-color:#0074D9;",
      "imageListing": "/sites/globe.com.ph/files/content/dam/globe/brie/AboutUs/newsroom/common/default-total-globe-partners-1/thumbnail-listing.jpg",
      "articleUrl": "https://www.globe.com.ph/about-us/newsroom/corporate/absi-joins-ccap-elevate-customer-experience.html",
      "columnType": "articles--type-3",
      "typeListing": "article",
      "imageMobile": "/sites/globe.com.ph/files/content/dam/globe/brie/AboutUs/newsroom/common/default-total-globe-partners-1/primary-thumbnail-m.jpg",
      "imageDesktop": "/sites/globe.com.ph/files/content/dam/globe/brie/AboutUs/newsroom/common/default-total-globe-partners-1/primary-thumbnail-d.jpg",
      "description": "Asti Business Services Inc. (ABSI) joins the Contact Center Association of the Philippines (CCAP) to continue to provide enhanced customer experience.",
      "datePosted": "Sep 06, 2023 | 08:00 AM",
      "titleFromTag": "Corporate"
    },
    {
      "title": "Globe Business Triumphs at 2023 Stevie® Awards",
      "nonclickable": false,
      "openNewTab": false,
      "borderArticle": "border-color:#0074D9;",
      "borderTopArticle": "border-top-color:#0074D9;",
      "imageListing": "/sites/globe.com.ph/files/content/dam/globe/brie/AboutUs/newsroom/common/default-corporate-16/corp-default-images-thumbnail-listing.jpg",
      "articleUrl": "https://www.globe.com.ph/about-us/newsroom/corporate/globe-business-triumphs-2023-stevie-awards.html",
      "columnType": "articles--type-3",
      "typeListing": "article",
      "imageMobile": "/sites/globe.com.ph/files/content/dam/globe/brie/AboutUs/newsroom/common/default-corporate-16/corp-default-images-primary-thumbnail-m.jpg",
      "imageDesktop": "/sites/globe.com.ph/files/content/dam/globe/brie/AboutUs/newsroom/common/default-corporate-16/corp-default-images-primary-thumbnail-d.jpg",
      "description": "Globe Business clinches five major awards at the 20th Annual International Business Awards.",
      "datePosted": "Sep 04, 2023 | 12:36 PM",
      "titleFromTag": "Corporate"
    },
    {
      "title": "Globe Business Joins Forces with DTI BSMED and Go Negosyo at National MSME Summit 2023",
      "nonclickable": false,
      "openNewTab": false,
      "borderArticle": "border-color:#0074D9;",
      "borderTopArticle": "border-top-color:#0074D9;",
      "imageListing": "/sites/globe.com.ph/files/content/dam/globe/brie/AboutUs/newsroom/common/default-partners-2/default-partners-2-thumbnail-listing.jpg",
      "articleUrl": "https://www.globe.com.ph/about-us/newsroom/business/globe-business-joins-forces-with-dti-bsmed-go-negosyo.html",
      "columnType": "articles--type-3",
      "typeListing": "article",
      "imageMobile": "/sites/globe.com.ph/files/content/dam/globe/brie/AboutUs/newsroom/common/default-partners-2/default-partners-2-primary-thumbnail-m.jpg",
      "imageDesktop": "/sites/globe.com.ph/files/content/dam/globe/brie/AboutUs/newsroom/common/default-partners-2/default-partners-2-primary-thumbnail-d.jpg",
      "description": "Globe Business partners with DTI BSMED and Go Negosyo to help MSMEs towards digital transformation.",
      "datePosted": "Sep 04, 2023 | 12:34 PM",
      "titleFromTag": "Business"
    },
    {
      "title": "Roam Like a Local in Taiwan with Globe’s Affordable and Convenient GoRoam Offer",
      "nonclickable": false,
      "openNewTab": false,
      "borderArticle": "border-color:#0074D9;",
      "borderTopArticle": "border-top-color:#0074D9;",
      "imageListing": "/sites/globe.com.ph/files/content/dam/globe/brie/AboutUs/newsroom/consumer/roam-like-a-local-in-taiwan/thumbnail-listing.jpg",
      "articleUrl": "https://www.globe.com.ph/about-us/newsroom/consumer/roam-like-a-local-taiwan-goroam.html",
      "columnType": "articles--type-3",
      "typeListing": "article",
      "imageMobile": "/sites/globe.com.ph/files/content/dam/globe/brie/AboutUs/newsroom/consumer/roam-like-a-local-in-taiwan/primary-thumbnail-m.jpg",
      "imageDesktop": "/sites/globe.com.ph/files/content/dam/globe/brie/AboutUs/newsroom/consumer/roam-like-a-local-in-taiwan/primary-thumbnail-d.jpg",
      "description": "Roam like a local in Taiwan with Globe’s latest GoRoam offer.",
      "datePosted": "Sep 04, 2023 | 12:32 PM",
      "titleFromTag": "Consumer"
    },
    {
      "title": "Globe Ready to Provide Support in Senate Probe on Spam, Scam SMS",
      "nonclickable": false,
      "openNewTab": false,
      "borderArticle": "border-color:#0074D9;",
      "borderTopArticle": "border-top-color:#0074D9;",
      "imageListing": "/sites/globe.com.ph/files/content/dam/globe/brie/AboutUs/newsroom/common/default-corporate-10/default-corporate-10-thumbnail-listing.jpg",
      "articleUrl": "https://www.globe.com.ph/about-us/newsroom/corporate/support-in-senate-probe-spam-scam-sms.html",
      "columnType": "articles--type-3",
      "typeListing": "article",
      "imageMobile": "/sites/globe.com.ph/files/content/dam/globe/brie/AboutUs/newsroom/common/default-corporate-10/default-corporate-10-primary-thumbnail-m.jpg",
      "imageDesktop": "/sites/globe.com.ph/files/content/dam/globe/brie/AboutUs/newsroom/common/default-corporate-10/default-corporate-10-primary-thumbnail-d.jpg",
      "description": "Globe is ready to provide necessary support in the Senate’s upcoming investigation on spam and scam SMS. ",
      "datePosted": "Sep 04, 2023 | 12:31 PM",
      "titleFromTag": "Corporate"
    },
    {
      "title": "PetPal’s Home Grooming Services: A New Level of Convenience for Pet Owners",
      "nonclickable": false,
      "openNewTab": false,
      "borderArticle": "border-color:#0074D9;",
      "borderTopArticle": "border-top-color:#0074D9;",
      "imageListing": "/sites/globe.com.ph/files/content/dam/globe/brie/AboutUs/newsroom/consumer/PETPAL-HOME-GROOMING-SERVICES/NEWSROOM-CONSUMER-PetPal’s-Home-Grooming-Service-thumbnail-listing.jpg",
      "articleUrl": "https://www.globe.com.ph/about-us/newsroom/consumer/petpal-home-grooming-services.html",
      "columnType": "articles--type-3",
      "typeListing": "article",
      "imageMobile": "/sites/globe.com.ph/files/content/dam/globe/brie/AboutUs/newsroom/consumer/PETPAL-HOME-GROOMING-SERVICES/NEWSROOM-CONSUMER-PetPal’s-Home-Grooming-Service-primary-thumbnail-m.jpg",
      "imageDesktop": "/sites/globe.com.ph/files/content/dam/globe/brie/AboutUs/newsroom/consumer/PETPAL-HOME-GROOMING-SERVICES/NEWSROOM-CONSUMER-PetPal’s-Home-Grooming-Service-primary-thumbnail-d.jpg",
      "description": "PetPal introduces Home Grooming Services in Metro Manila and its neighboring provinces, including Rizal, Laguna, and Cavite.",
      "datePosted": "Sep 04, 2023 | 10:37 AM",
      "titleFromTag": "Consumer"
    },
    {
      "title": "0917 X Red Velvet Collection:  The Ultimate K-pop Merch Drop Reveluvs Have Been Waiting For",
      "nonclickable": false,
      "openNewTab": false,
      "borderArticle": "border-color:#0074D9;",
      "borderTopArticle": "border-top-color:#0074D9;",
      "imageListing": "/sites/globe.com.ph/files/content/dam/globe/brie/About-us/Newsroom/image/Consumer/0917-X-RED-VELVET-COLLECTION--THE-ULTIMATE-K-POP-MERCH/NEWSROOM-CONSUMER-091-X-Red-Velvet-Collection-thumbnail-listing.jpg",
      "articleUrl": "https://www.globe.com.ph/about-us/newsroom/consumer/0917-red-velvet-collection.html",
      "columnType": "articles--type-3",
      "typeListing": "article",
      "imageMobile": "/sites/globe.com.ph/files/content/dam/globe/brie/About-us/Newsroom/image/Consumer/0917-X-RED-VELVET-COLLECTION--THE-ULTIMATE-K-POP-MERCH/NEWSROOM-CONSUMER-091-X-Red-Velvet-Collection-primary-thumbnail-m.jpg",
      "imageDesktop": "/sites/globe.com.ph/files/content/dam/globe/brie/About-us/Newsroom/image/Consumer/0917-X-RED-VELVET-COLLECTION--THE-ULTIMATE-K-POP-MERCH/NEWSROOM-CONSUMER-091-X-Red-Velvet-Collection-primary-thumbnail-d.jpg",
      "description": "0917 Lifestyle is back with 0917 x Red Velvet collection featuring designs inspired by Red Velvet’s “The ReVe Festival 2022 - Birthday” album.",
      "datePosted": "Aug 31, 2023 | 11:56 AM",
      "titleFromTag": "Consumer"
    },
    {
      "title": "Fast Tracking Business Success with RUSH's Free Acceleration Program",
      "nonclickable": false,
      "openNewTab": false,
      "borderArticle": "border-color:#0074D9;",
      "borderTopArticle": "border-top-color:#0074D9;",
      "imageListing": "/sites/globe.com.ph/files/content/dam/globe/brie/AboutUs/newsroom/common/default-business-5/sg-default-images-thumbnail-listing.jpg",
      "articleUrl": "https://www.globe.com.ph/about-us/newsroom/business/rush-offers-free-acceleration-program-business-success.html",
      "columnType": "articles--type-3",
      "typeListing": "article",
      "imageMobile": "/sites/globe.com.ph/files/content/dam/globe/brie/AboutUs/newsroom/common/default-business-5/sg-default-images-primary-thumbnail-m.jpg",
      "imageDesktop": "/sites/globe.com.ph/files/content/dam/globe/brie/AboutUs/newsroom/common/default-business-5/sg-default-images-primary-thumbnail-d.jpg",
      "description": "RUSH launches a series of free on-site classes to help entrepreneurs speed up business growth.",
      "datePosted": "Aug 31, 2023 | 10:53 AM",
      "titleFromTag": "Business"
    },
    {
      "title": "All the Best in One Telco Super Brand: Globe Brings Together Strength, Reliability, Sustainability, and Brand Love",
      "nonclickable": false,
      "openNewTab": false,
      "borderArticle": "border-color:#0074D9;",
      "borderTopArticle": "border-top-color:#0074D9;",
      "imageListing": "/sites/globe.com.ph/files/content/dam/globe/brie/AboutUs/newsroom/common/default-corporate-5/corp-thumbnail-listing.jpg",
      "articleUrl": "https://www.globe.com.ph/about-us/newsroom/corporate/strength-reliability-sustainability-brand-love.html",
      "columnType": "articles--type-3",
      "typeListing": "article",
      "imageMobile": "/sites/globe.com.ph/files/content/dam/globe/brie/AboutUs/newsroom/common/default-corporate-5/corp-primary-thumbnail-m.jpg",
      "imageDesktop": "/sites/globe.com.ph/files/content/dam/globe/brie/AboutUs/newsroom/common/default-corporate-5/corp-primary-thumbnail-d.jpg",
      "description": "Globe's latest achievements are more than accolades; they are the company's commitment to making your life better.",
      "datePosted": "Aug 31, 2023 | 10:52 AM",
      "titleFromTag": "Corporate"
    },
    {
      "title": "Globe MSCI ESG Rating Soars to AA, Highest in PH to Date",
      "nonclickable": false,
      "openNewTab": false,
      "borderArticle": "border-color:#0074D9;",
      "borderTopArticle": "border-top-color:#0074D9;",
      "imageListing": "/sites/globe.com.ph/files/content/dam/globe/brie/AboutUs/newsroom/common/default-corporate-main/newsroom-default-corporate-thumbnail-listing.jpg",
      "articleUrl": "https://www.globe.com.ph/about-us/newsroom/sustainability/globe-msci-esg-rating-soars-to-aa.html",
      "columnType": "articles--type-3",
      "typeListing": "article",
      "imageMobile": "/sites/globe.com.ph/files/content/dam/globe/brie/AboutUs/newsroom/common/default-corporate-main/newsroom-default-corporate-primary-thumbnail-m.jpg",
      "imageDesktop": "/sites/globe.com.ph/files/content/dam/globe/brie/AboutUs/newsroom/common/default-corporate-main/newsroom-default-corporate-primary-thumbnail-d.jpg",
      "description": "Globe achieved a rating upgrade to AA from MSCI, marking the highest rating among companies and within the telco industry in the Philippines to date.",
      "datePosted": "Aug 31, 2023 | 10:50 AM",
      "titleFromTag": "Sustainability"
    },
    {
      "title": "GCash Convenience Fees to Cover Rising Partner Costs,  Subsidies to Continue ",
      "nonclickable": false,
      "openNewTab": false,
      "borderArticle": "border-color:#0074D9;",
      "borderTopArticle": "border-top-color:#0074D9;",
      "imageListing": "/sites/globe.com.ph/files/content/dam/globe/brie/AboutUs/newsroom/common/default-total-globe-1/default-1-total-globe-thumbnail-listing.jpg",
      "articleUrl": "https://www.globe.com.ph/about-us/newsroom/corporate/gcash-convenience-fee-cover-rising-partner-costs-subsidies-continue.html",
      "columnType": "articles--type-3",
      "typeListing": "article",
      "imageMobile": "/sites/globe.com.ph/files/content/dam/globe/brie/AboutUs/newsroom/common/default-total-globe-1/default-1-total-globe-primary-thumbnail-m.jpg",
      "imageDesktop": "/sites/globe.com.ph/files/content/dam/globe/brie/AboutUs/newsroom/common/default-total-globe-1/default-1-total-globe-primary-thumbnail-d.jpg",
      "description": "GCash will continue to subsidize part of the rising operating costs of its partners to keep the convenience fee for cash-ins affordable.",
      "datePosted": "Aug 31, 2023 | 10:44 AM",
      "titleFromTag": "Corporate"
    },
    {
      "title": "Globe to Launch eSIM for Prepaid Users in Q3 2023",
      "nonclickable": false,
      "openNewTab": false,
      "borderArticle": "border-color:#0074D9;",
      "borderTopArticle": "border-top-color:#0074D9;",
      "imageListing": "/sites/globe.com.ph/files/content/dam/globe/brie/AboutUs/newsroom/common/default-corporate-main/newsroom-default-corporate-thumbnail-listing.jpg",
      "articleUrl": "https://www.globe.com.ph/about-us/newsroom/corporate/launch-esim-prepaid-users-q3-2023.html",
      "columnType": "articles--type-3",
      "typeListing": "article",
      "imageMobile": "/sites/globe.com.ph/files/content/dam/globe/brie/AboutUs/newsroom/common/default-corporate-main/newsroom-default-corporate-primary-thumbnail-m.jpg",
      "imageDesktop": "/sites/globe.com.ph/files/content/dam/globe/brie/AboutUs/newsroom/common/default-corporate-main/newsroom-default-corporate-primary-thumbnail-d.jpg",
      "description": "Globe will introduce an eSIM for its prepaid users by the end of the third quarter of 2023. ",
      "datePosted": "Aug 31, 2023 | 10:40 AM",
      "titleFromTag": "Corporate"
    }
  ]
}
