{
  "status": 200,
  "page": 121,
  "totalPage": 298,
  "range": "1441-1452",
  "total": 3573,
  "result": [
    {
      "title": "Globe Aids Antipolo’s Pandemic Response Through Free GoWiFi and AMBER",
      "nonclickable": false,
      "openNewTab": false,
      "borderArticle": "border-color:#1C91C5;",
      "borderTopArticle": "border-top-color:#1C91C5;",
      "imageListing": "/sites/globe.com.ph/files/content/dam/globe/brie/AboutUs/newsroom/sustainability/globe-antipolo-pandemic-response-free-gowifi-amber/newsroom-sustainability-anitpolo-gowifi-amber-thumbnail-listing.jpg",
      "articleUrl": "https://www.globe.com.ph/about-us/newsroom/sustainability/globe-antipolo-pandemic-response-free-gowifi-amber.html",
      "columnType": "articles--type-3",
      "typeListing": "article",
      "imageMobile": "/sites/globe.com.ph/files/content/dam/globe/brie/AboutUs/newsroom/sustainability/globe-antipolo-pandemic-response-free-gowifi-amber/newsroom-sustainability-anitpolo-gowifi-amber-primary-thumbnail-m.jpg",
      "imageDesktop": "/sites/globe.com.ph/files/content/dam/globe/brie/AboutUs/newsroom/sustainability/globe-antipolo-pandemic-response-free-gowifi-amber/newsroom-sustainability-anitpolo-gowifi-amber-primary-thumbnail-d.jpg",
      "description": "As the country ramps up efforts to overcome the global health crisis, Globe seals its partnership with Antipolo to power up its local government and select medical facilities with Free GoWiFi and Automated Mobile Blaster (AMBER) services.",
      "datePosted": "May 21, 2021 | 09:01 AM",
      "titleFromTag": "Sustainability"
    },
    {
      "title": "Eala Shows Grit in Close Win Over Spanish Rival in W25 Platja D'Aro",
      "nonclickable": false,
      "openNewTab": false,
      "borderArticle": "border-color:#0074D9;",
      "borderTopArticle": "border-top-color:#0074D9;",
      "imageListing": "/sites/globe.com.ph/files/content/dam/globe/brie/AboutUs/newsroom/corporate/eala-relishes-underdog-tag/newsroom-corporate-eala-relishes-underdog-thumbnail-listing.jpg",
      "articleUrl": "https://www.globe.com.ph/about-us/newsroom/corporate/eala-close-win-spanish-rival-w25-platja-daro.html",
      "columnType": "articles--type-3",
      "typeListing": "article",
      "imageMobile": "/sites/globe.com.ph/files/content/dam/globe/brie/AboutUs/newsroom/corporate/eala-relishes-underdog-tag/newsroom-corporate-eala-relishes-underdog-primary-thumbnail-m.jpg",
      "imageDesktop": "/sites/globe.com.ph/files/content/dam/globe/brie/AboutUs/newsroom/corporate/eala-relishes-underdog-tag/newsroom-corporate-eala-relishes-underdog-primary-thumbnail-d.jpg",
      "description": "Filipina tennis sensation & Globe ambassador Alex Eala showed sheer determination as she upended Spanish rival Alba Carrillo Marin in a three-set encounter.",
      "datePosted": "May 20, 2021 | 12:51 PM",
      "titleFromTag": "Corporate"
    },
    {
      "title": "Globe, PDRF Underscore Importance of Getting Vaccinated with Launch of Ingat Angat Bakuna sa Lahat Campaign",
      "nonclickable": false,
      "openNewTab": false,
      "borderArticle": "border-color:#0074D9;",
      "borderTopArticle": "border-top-color:#0074D9;",
      "imageListing": "/sites/globe.com.ph/files/content/dam/globe/brie/AboutUs/newsroom/partners/globe-pdrf-importance-getting-vaccinated/newsroom-partners-ingat-angat-campaign-thumbnail-listing.jpg",
      "articleUrl": "https://www.globe.com.ph/about-us/newsroom/partners/globe-pdrf-importance-getting-vaccinated.html",
      "columnType": "articles--type-3",
      "typeListing": "article",
      "imageMobile": "/sites/globe.com.ph/files/content/dam/globe/brie/AboutUs/newsroom/partners/globe-pdrf-importance-getting-vaccinated/newsroom-partners-ingat-angat-campaign-primary-thumbnail-m.jpg",
      "imageDesktop": "/sites/globe.com.ph/files/content/dam/globe/brie/AboutUs/newsroom/partners/globe-pdrf-importance-getting-vaccinated/newsroom-partners-ingat-angat-campaign-primary-thumbnail-d.jpg",
      "description": "Globe is in full support of the government and private institutions’ efforts to roll out the vaccines for all Filipinos.",
      "datePosted": "May 20, 2021 | 09:34 AM",
      "titleFromTag": "Partners"
    },
    {
      "title": "PH Continues to Improve Ranking in Fixed and Mobile Download Speeds: Ookla®’ April 2021 Data",
      "nonclickable": false,
      "openNewTab": false,
      "borderArticle": "border-color:#0074D9;",
      "borderTopArticle": "border-top-color:#0074D9;",
      "imageListing": "/sites/globe.com.ph/files/content/dam/globe/brie/AboutUs/newsroom/common/default-9/default-corporate-4-thumbnail-listing.jpg",
      "articleUrl": "https://www.globe.com.ph/about-us/newsroom/corporate/ph-continues-improve-ranking-fixed-mobile-download.html",
      "columnType": "articles--type-3",
      "typeListing": "article",
      "imageMobile": "/sites/globe.com.ph/files/content/dam/globe/brie/AboutUs/newsroom/common/default-9/default-corporate-4-primary-thumbnail-m.jpg",
      "imageDesktop": "/sites/globe.com.ph/files/content/dam/globe/brie/AboutUs/newsroom/common/default-9/default-corporate-4-primary-thumbnail-d.jpg",
      "description": "The nation's connectivity continues to improve in fixed broadband & mobile download speeds, according to Ookla®’s Global Speedtest Index for April 2021.",
      "datePosted": "May 19, 2021 | 05:03 PM",
      "titleFromTag": "Corporate"
    },
    {
      "title": "Globe myBusiness and PH’s First Neobank Tonik Accelerate Financial Inclusion",
      "nonclickable": false,
      "openNewTab": false,
      "borderArticle": "border-color:#0074D9;",
      "borderTopArticle": "border-top-color:#0074D9;",
      "imageListing": "/sites/globe.com.ph/files/content/dam/globe/brie/AboutUs/newsroom/business/globe-mybusiness-tonik-accelerate-financial-inclusion/updated/newsroom-business-first-neobank-tonik-thumbnail-listing.jpg",
      "articleUrl": "https://www.globe.com.ph/about-us/newsroom/business/globe-mybusiness-tonik-accelerate-financial-inclusion.html",
      "columnType": "articles--type-3",
      "typeListing": "article",
      "imageMobile": "/sites/globe.com.ph/files/content/dam/globe/brie/AboutUs/newsroom/business/globe-mybusiness-tonik-accelerate-financial-inclusion/updated/newsroom-business-first-neobank-tonik-thumbnail-m.jpg",
      "imageDesktop": "/sites/globe.com.ph/files/content/dam/globe/brie/AboutUs/newsroom/business/globe-mybusiness-tonik-accelerate-financial-inclusion/updated/newsroom-business-first-neobank-tonik-primary-thumbnail-d.jpg",
      "description": "Tonik, the first neobank in the Philippines, is determined to make huge strides in financial inclusion in the country in partnership with Globe Business. ",
      "datePosted": "May 19, 2021 | 05:03 PM",
      "titleFromTag": "Business"
    },
    {
      "title": "Globe, DepEd Look Out for Well-Being of Teachers via Workshops",
      "nonclickable": false,
      "openNewTab": false,
      "borderArticle": "border-color:#1C91C5;",
      "borderTopArticle": "border-top-color:#1C91C5;",
      "imageListing": "/sites/globe.com.ph/files/content/dam/globe/brie/AboutUs/newsroom/sustainability/teachers-training-boost-gft-program/newsroom-sustainability-teachers-training-boost-thumbnail-listing.jpg",
      "articleUrl": "https://www.globe.com.ph/about-us/newsroom/sustainability/globe-deped-teachers-workshops.html",
      "columnType": "articles--type-3",
      "typeListing": "article",
      "imageMobile": "/sites/globe.com.ph/files/content/dam/globe/brie/AboutUs/newsroom/sustainability/teachers-training-boost-gft-program/newsroom-sustainability-teachers-training-boost-primary-thumbnail-m.jpg",
      "imageDesktop": "/sites/globe.com.ph/files/content/dam/globe/brie/AboutUs/newsroom/sustainability/teachers-training-boost-gft-program/newsroom-sustainability-teachers-training-boost-primary-thumbnail-d.jpg",
      "description": "For teachers who need to give their 100% to an online classroom full of students everyday, this might be an even greater challenge.",
      "datePosted": "May 19, 2021 | 03:48 PM",
      "titleFromTag": "Sustainability"
    },
    {
      "title": "GSMA Recognizes Globe’s Efforts on Climate Change",
      "nonclickable": false,
      "openNewTab": false,
      "borderArticle": "border-color:#1C91C5;",
      "borderTopArticle": "border-top-color:#1C91C5;",
      "imageListing": "/sites/globe.com.ph/files/content/dam/globe/brie/AboutUs/newsroom/sustainability/globe-joins-global-mobile-industry-race-to-zero-milestones/newsroom-sustainability-globe-joins-mobile-industry-thumbnail-listing.jpg",
      "articleUrl": "https://www.globe.com.ph/about-us/newsroom/sustainability/gsma-recognizes-globe-efforts-climate-change.html",
      "columnType": "articles--type-3",
      "typeListing": "article",
      "imageMobile": "/sites/globe.com.ph/files/content/dam/globe/brie/AboutUs/newsroom/sustainability/globe-joins-global-mobile-industry-race-to-zero-milestones/newsroom-sustainability-globe-joins-mobile-industry-primary-thumbnail-m.jpg",
      "imageDesktop": "/sites/globe.com.ph/files/content/dam/globe/brie/AboutUs/newsroom/sustainability/globe-joins-global-mobile-industry-race-to-zero-milestones/newsroom-sustainability-globe-joins-mobile-industry-primary-thumbnail-d.jpg",
      "description": "Globe’s rigorous initiatives to substantially reduce climate change-related impact and develop agile mitigation measures in support of the United Nations Sustainable Development Goals (UN SDG) were recognized by the GSMA in its Mobile Net Zero – State of the Industry on Climate Action 2021 report1.",
      "datePosted": "May 19, 2021 | 11:29 AM",
      "titleFromTag": "Sustainability"
    },
    {
      "title": "Globe K’mmunity and The Ripple Society to Donate Tinytan Breathable Masks to Say “Kamsahamnida” to Modern-Day Heroes",
      "nonclickable": false,
      "openNewTab": false,
      "borderArticle": "border-color:#0074D9;",
      "borderTopArticle": "border-top-color:#0074D9;",
      "imageListing": "/sites/globe.com.ph/files/content/dam/globe/brie/AboutUs/newsroom/consumer/kmmunity-the-ripple-society-donate-tinytan-masks/newsroom-consumer-kmmunity-tinytan-kamsahamnida-thumbnail-listing.jpg",
      "articleUrl": "https://www.globe.com.ph/about-us/newsroom/consumer/kmmunity-the-ripple-society-donate-tinytan-masks.html",
      "columnType": "articles--type-3",
      "typeListing": "article",
      "imageMobile": "/sites/globe.com.ph/files/content/dam/globe/brie/AboutUs/newsroom/consumer/kmmunity-the-ripple-society-donate-tinytan-masks/newsroom-consumer-kmmunity-tinytan-kamsahamnida-primary-thumbnail-m.jpg",
      "imageDesktop": "/sites/globe.com.ph/files/content/dam/globe/brie/AboutUs/newsroom/consumer/kmmunity-the-ripple-society-donate-tinytan-masks/newsroom-consumer-kmmunity-tinytan-kamsahamnida-primary-thumbnail-d.jpg",
      "description": "To celebrate back-to-back daebak years, K’mmunity and The Ripple Society will be donating masks to today’s modern-day heroes for every Tinytan Breath Mask purchased.",
      "datePosted": "May 19, 2021 | 11:03 AM",
      "titleFromTag": "Consumer"
    },
    {
      "title": "Globe At Home Grants Free Permanent Speed Upgrade for Plan 1699 and Plan 1899 Customers",
      "nonclickable": false,
      "openNewTab": false,
      "borderArticle": "border-color:#0074D9;",
      "borderTopArticle": "border-top-color:#0074D9;",
      "imageListing": "/sites/globe.com.ph/files/content/dam/globe/brie/AboutUs/newsroom/common/default-11/default-business-5-thumbnail-listing.jpg",
      "articleUrl": "https://www.globe.com.ph/about-us/newsroom/consumer/globe-at-home-free-permanent-speed-upgrade.html",
      "columnType": "articles--type-3",
      "typeListing": "article",
      "imageMobile": "/sites/globe.com.ph/files/content/dam/globe/brie/AboutUs/newsroom/common/default-11/default-business-5-primary-thumbnail-m.jpg",
      "imageDesktop": "/sites/globe.com.ph/files/content/dam/globe/brie/AboutUs/newsroom/common/default-11/default-business-5-primary-thumbnail-d.jpg",
      "description": "Eligible Globe At Home subscribers no enjoy the permanent upgrade for speeds of up to 25 mbps for Plan 1699 and up to 35 mbps for Plan 1899.",
      "datePosted": "May 19, 2021 | 10:32 AM",
      "titleFromTag": "Consumer"
    },
    {
      "title": "Globe-ZAMCELCO Partnership Creates Local Income Opportunities and Customer Convenience",
      "nonclickable": false,
      "openNewTab": false,
      "borderArticle": "border-color:#0074D9;",
      "borderTopArticle": "border-top-color:#0074D9;",
      "imageListing": "/sites/globe.com.ph/files/content/dam/globe/brie/AboutUs/newsroom/partners/globe-zamcelco-partnership-creates-local-income-opportunities/newsroom-partners-zamcelco-customer-thumbnail-listing.jpg",
      "articleUrl": "https://www.globe.com.ph/about-us/newsroom/partners/globe-zamcelco-partnership-creates-local-income-opportunities.html",
      "columnType": "articles--type-3",
      "typeListing": "article",
      "imageMobile": "/sites/globe.com.ph/files/content/dam/globe/brie/AboutUs/newsroom/partners/globe-zamcelco-partnership-creates-local-income-opportunities/newsroom-partners-zamcelco-customer-primary-thumbnail-m.jpg",
      "imageDesktop": "/sites/globe.com.ph/files/content/dam/globe/brie/AboutUs/newsroom/partners/globe-zamcelco-partnership-creates-local-income-opportunities/newsroom-partners-zamcelco-customer-primary-thumbnail-d.jpg",
      "description": "With this partnership, Globe continues to bring digital services closer to Zamboanga City.",
      "datePosted": "May 18, 2021 | 04:16 PM",
      "titleFromTag": "Partners"
    },
    {
      "title": "Municipality of Cordova Selects Globe for GCash-Powered Citizens ID",
      "nonclickable": false,
      "openNewTab": false,
      "borderArticle": "border-color:#0074D9;",
      "borderTopArticle": "border-top-color:#0074D9;",
      "imageListing": "/sites/globe.com.ph/files/content/dam/globe/brie/AboutUs/newsroom/business/cordova-gcash-powered-citizens-id/newsroom-business-cordova-gcash-id-thumbnail-listing.jpg",
      "articleUrl": "https://www.globe.com.ph/about-us/newsroom/business/cordova-gcash-powered-citizens-id.html",
      "columnType": "articles--type-3",
      "typeListing": "article",
      "imageMobile": "/sites/globe.com.ph/files/content/dam/globe/brie/AboutUs/newsroom/business/cordova-gcash-powered-citizens-id/newsroom-business-cordova-gcash-id-thumbnail-m.jpg",
      "imageDesktop": "/sites/globe.com.ph/files/content/dam/globe/brie/AboutUs/newsroom/business/cordova-gcash-powered-citizens-id/newsroom-business-cordova-gcash-id-primary-thumbnail-d.jpg",
      "description": "The Municipality of Cordova tapped Globe—through its enterprise arm, Globe Business—to give 20,000 constituents access to GCash.",
      "datePosted": "May 18, 2021 | 10:35 AM",
      "titleFromTag": "Business"
    },
    {
      "title": "Globe, Valenzuela Strengthen Ties for Network Builds, Social Services",
      "nonclickable": false,
      "openNewTab": false,
      "borderArticle": "border-color:#0074D9;",
      "borderTopArticle": "border-top-color:#0074D9;",
      "imageListing": "/sites/globe.com.ph/files/content/dam/globe/brie/AboutUs/newsroom/corporate/globe-valenzuela-network-builds-social-services/newsroom-corporate-valenzuela-network-services-thumbnail-listing.jpg",
      "articleUrl": "https://www.globe.com.ph/about-us/newsroom/corporate/globe-valenzuela-network-builds-social-services.html",
      "columnType": "articles--type-3",
      "typeListing": "article",
      "imageMobile": "/sites/globe.com.ph/files/content/dam/globe/brie/AboutUs/newsroom/corporate/globe-valenzuela-network-builds-social-services/newsroom-corporate-valenzuela-network-services-primary-thumbnail-m.jpg",
      "imageDesktop": "/sites/globe.com.ph/files/content/dam/globe/brie/AboutUs/newsroom/corporate/globe-valenzuela-network-builds-social-services/newsroom-corporate-valenzuela-network-services-primary-thumbnail-d.jpg",
      "description": "Globe is ramping up its network builds and modernization in Valenzuela City to make internet connectivity available to more residents and empower them with more access to the local government’s various social services through technology.",
      "datePosted": "May 17, 2021 | 01:13 PM",
      "titleFromTag": "Corporate"
    }
  ]
}
