{
  "status": 200,
  "page": 122,
  "totalPage": 298,
  "range": "1453-1464",
  "total": 3573,
  "result": [
    {
      "title": "Globe’s Business Groups and Digital Advertising Subsidiary Haul Nine Wins at the 8th Annual Stevie Awards\t",
      "nonclickable": false,
      "openNewTab": false,
      "borderArticle": "border-color:#0074D9;",
      "borderTopArticle": "border-top-color:#0074D9;",
      "imageListing": "/sites/globe.com.ph/files/content/dam/globe/brie/AboutUs/newsroom/corporate/globe-business-groups-adspark-stevie-awards/newsroom-business-wins-stevie-awards-thumbnail-listing.jpg",
      "articleUrl": "https://www.globe.com.ph/about-us/newsroom/corporate/globe-business-groups-adspark-stevie-awards.html",
      "columnType": "articles--type-3",
      "typeListing": "article",
      "imageMobile": "/sites/globe.com.ph/files/content/dam/globe/brie/AboutUs/newsroom/corporate/globe-business-groups-adspark-stevie-awards/newsroom-business-wins-stevie-awards-primary-thumbnail-m.jpg",
      "imageDesktop": "/sites/globe.com.ph/files/content/dam/globe/brie/AboutUs/newsroom/corporate/globe-business-groups-adspark-stevie-awards/newsroom-business-wins-stevie-awards-primary-thumbnail-d.jpg",
      "description": "Globe took home a total of nine awards at the recently held eighth annual Asia-Pacific Stevie Awards which had over 900 nominations across the region.",
      "datePosted": "May 17, 2021 | 12:52 PM",
      "titleFromTag": "Corporate"
    },
    {
      "title": "HomeSURF99 Now Offers 15GB for 5 Days With Globe At Home Prepaid WiFi",
      "nonclickable": false,
      "openNewTab": false,
      "borderArticle": "border-color:#0074D9;",
      "borderTopArticle": "border-top-color:#0074D9;",
      "imageListing": "/sites/globe.com.ph/files/content/dam/globe/brie/AboutUs/newsroom/consumer/homesurf99-15gb-5-days-prepaid-wifi/newsroom-consumer-homesurf99-15gb-5days-thumbnail-listing.jpg",
      "articleUrl": "https://www.globe.com.ph/about-us/newsroom/consumer/homesurf99-15gb-5-days-prepaid-wifi.html",
      "columnType": "articles--type-3",
      "typeListing": "article",
      "imageMobile": "/sites/globe.com.ph/files/content/dam/globe/brie/AboutUs/newsroom/consumer/homesurf99-15gb-5-days-prepaid-wifi/newsroom-consumer-homesurf99-15gb-5days-primary-thumbnail-m.jpg",
      "imageDesktop": "/sites/globe.com.ph/files/content/dam/globe/brie/AboutUs/newsroom/consumer/homesurf99-15gb-5-days-prepaid-wifi/_newsroom-consumer-homesurf99-15gb-5days-primary-thumbnail-d.jpg",
      "description": "As the global health crisis rages on, Globe At Home Prepaid WiFi pushes efforts to offer products and services that best fit their customers’ needs as they continue to work, earn, and learn safely from their homes.",
      "datePosted": "May 17, 2021 | 10:57 AM",
      "titleFromTag": "Consumer"
    },
    {
      "title": "Globe Says Satellite Technology Has Cost Limitations for Masses",
      "nonclickable": false,
      "openNewTab": false,
      "borderArticle": "border-color:#1C91C5;",
      "borderTopArticle": "border-top-color:#1C91C5;",
      "imageListing": "/sites/globe.com.ph/files/content/dam/globe/brie/AboutUs/newsroom/common/default-15/default-corporate-9-thumbnail-listing.jpg",
      "articleUrl": "https://www.globe.com.ph/about-us/newsroom/sustainability/satellite-technology-cost-limitations-masses.html",
      "columnType": "articles--type-3",
      "typeListing": "article",
      "imageMobile": "/sites/globe.com.ph/files/content/dam/globe/brie/AboutUs/newsroom/common/default-15/default-corporate-9-primary-thumbnail-m.jpg",
      "imageDesktop": "/sites/globe.com.ph/files/content/dam/globe/brie/AboutUs/newsroom/common/default-15/default-corporate-9-primary-thumbnail-d.jpg",
      "description": "Committed to bringing connectivity to its customers nationwide, Globe stressed it is drilling down on exploring satellite services to access rural areas where wired services have yet to be established.",
      "datePosted": "May 17, 2021 | 09:15 AM",
      "titleFromTag": "Sustainability"
    },
    {
      "title": "Globe Offers Libreng Tawag, Charging, WiFi Services as Crising Taunts Mindanao",
      "nonclickable": false,
      "openNewTab": false,
      "borderArticle": "border-color:#0074D9;",
      "borderTopArticle": "border-top-color:#0074D9;",
      "imageListing": "/sites/globe.com.ph/files/content/dam/globe/brie/AboutUs/newsroom/common/updated/Corporate-globe-thumbnail-listing.jpg",
      "articleUrl": "https://www.globe.com.ph/about-us/newsroom/corporate/libreng-tawag-charging-wifi-services-crising-mindanao.html",
      "columnType": "articles--type-3",
      "typeListing": "article",
      "imageMobile": "/sites/globe.com.ph/files/content/dam/globe/brie/AboutUs/newsroom/common/updated/Corporate-globe-primary-thumbnail-m.jpg",
      "imageDesktop": "/sites/globe.com.ph/files/content/dam/globe/brie/AboutUs/newsroom/common/updated/Corporate-globe-primary-thumbnail-d.jpg",
      "description": "Globe is set to assist residents in #Crising-threatened areas at Mindanao as part of its intensified disaster preparedness campaign.",
      "datePosted": "May 14, 2021 | 02:35 PM",
      "titleFromTag": "Corporate"
    },
    {
      "title": "DepEd Cebu and Globe Ink Landmark Partnership to Build New Cell Sites",
      "nonclickable": false,
      "openNewTab": false,
      "borderArticle": "border-color:#0074D9;",
      "borderTopArticle": "border-top-color:#0074D9;",
      "imageListing": "/sites/globe.com.ph/files/content/dam/globe/brie/AboutUs/newsroom/business/deped-cebu-globe-ink-landmark-partnership/newsroom-corporate-deped-cebu-partnership-thumbnail-listing.jpg",
      "articleUrl": "https://www.globe.com.ph/about-us/newsroom/business/deped-cebu-globe-ink-landmark-partnership.html",
      "columnType": "articles--type-3",
      "typeListing": "article",
      "imageMobile": "/sites/globe.com.ph/files/content/dam/globe/brie/AboutUs/newsroom/business/deped-cebu-globe-ink-landmark-partnership/newsroom-corporate-deped-cebu-partnership-primary-thumbnail-m.jpg",
      "imageDesktop": "/sites/globe.com.ph/files/content/dam/globe/brie/AboutUs/newsroom/business/deped-cebu-globe-ink-landmark-partnership/newsroom-corporate-deped-cebu-partnership-primary-thumbnail-d.jpg",
      "description": "Globe joins forces with DepEd - Cebu Province! Building 26 new cell sites in DepEd locations to back online learning. Empowering education together!",
      "datePosted": "May 14, 2021 | 02:34 PM",
      "titleFromTag": "Business"
    },
    {
      "title": "Startups Get Boost From Powerhouse 917Ventures Leaders",
      "nonclickable": false,
      "openNewTab": false,
      "borderArticle": "border-color:#0074D9;",
      "borderTopArticle": "border-top-color:#0074D9;",
      "imageListing": "/sites/globe.com.ph/files/content/dam/globe/brie/AboutUs/newsroom/917ventures/startups-boost-powerhouse-917ventures-leaders/newsroom-917ventures-startups-boost-powerhouse-thumbnail-listing.jpg",
      "articleUrl": "https://www.globe.com.ph/about-us/newsroom/917ventures/startups-boost-powerhouse-917ventures-leaders.html",
      "columnType": "articles--type-3",
      "typeListing": "article",
      "imageMobile": "/sites/globe.com.ph/files/content/dam/globe/brie/AboutUs/newsroom/917ventures/startups-boost-powerhouse-917ventures-leaders/newsroom-917ventures-startups-boost-powerhouse-primary-thumbnail-m.jpg",
      "imageDesktop": "/sites/globe.com.ph/files/content/dam/globe/brie/AboutUs/newsroom/917ventures/startups-boost-powerhouse-917ventures-leaders/newsroom-917ventures-startups-boost-powerhouse-primary-thumbnail-d.jpg",
      "description": "The nation faces more challenges due to the pandemic and the mandatory shift of Filipinos to digital tools as a new way of life.",
      "datePosted": "May 14, 2021 | 09:22 AM",
      "titleFromTag": "917Ventures"
    },
    {
      "title": "917Ventures to Businesses: 'RUSH' to GCash’s GLife",
      "nonclickable": false,
      "openNewTab": false,
      "borderArticle": "border-color:#0074D9;",
      "borderTopArticle": "border-top-color:#0074D9;",
      "imageListing": "/sites/globe.com.ph/files/content/dam/globe/brie/AboutUs/newsroom/917ventures/rush-gcash-glife/newsroom-917ventures-rush-gcash-glife-thumbnail-listing.jpg",
      "articleUrl": "https://www.globe.com.ph/about-us/newsroom/917ventures/rush-gcash-glife.html",
      "columnType": "articles--type-3",
      "typeListing": "article",
      "imageMobile": "/sites/globe.com.ph/files/content/dam/globe/brie/AboutUs/newsroom/917ventures/rush-gcash-glife/newsroom-917ventures-rush-gcash-glife-primary-thumbnail-m.jpg",
      "imageDesktop": "/sites/globe.com.ph/files/content/dam/globe/brie/AboutUs/newsroom/917ventures/rush-gcash-glife/newsroom-917ventures-rush-gcash-glife-primary-thumbnail-d.jpg",
      "description": "Elevate your brand with 917Ventures! Discover RUSH and GLife on GCash for faster customer reach. Don't miss out!",
      "datePosted": "May 14, 2021 | 08:01 AM",
      "titleFromTag": "917Ventures"
    },
    {
      "title": "Globe Broadband Business Performance Soars to Record High in 1Q 2021",
      "nonclickable": false,
      "openNewTab": false,
      "borderArticle": "border-color:#0074D9;",
      "borderTopArticle": "border-top-color:#0074D9;",
      "imageListing": "/sites/globe.com.ph/files/content/dam/globe/brie/AboutUs/newsroom/common/default-9/default-corporate-4-thumbnail-listing.jpg",
      "articleUrl": "https://www.globe.com.ph/about-us/newsroom/corporate/globe-broadband-business-performance-record-high.html",
      "columnType": "articles--type-3",
      "typeListing": "article",
      "imageMobile": "/sites/globe.com.ph/files/content/dam/globe/brie/AboutUs/newsroom/common/default-9/default-corporate-4-primary-thumbnail-m.jpg",
      "imageDesktop": "/sites/globe.com.ph/files/content/dam/globe/brie/AboutUs/newsroom/common/default-9/default-corporate-4-primary-thumbnail-d.jpg",
      "description": "Globe’s home broadband business posted record revenues of P7.4 billion in Q1 2021, up 27% from the previous year--the highest so far in the telco’s history.",
      "datePosted": "May 14, 2021 | 08:01 AM",
      "titleFromTag": "Corporate"
    },
    {
      "title": "Globe Eyes New Offerings to Strengthen Leadership, Regain Business Momentum",
      "nonclickable": false,
      "openNewTab": false,
      "borderArticle": "border-color:#0074D9;",
      "borderTopArticle": "border-top-color:#0074D9;",
      "imageListing": "/sites/globe.com.ph/files/content/dam/globe/brie/AboutUs/newsroom/corporate/strengthen-leadership-regain-business-momentum/newsroom-corporate-new-offerings-business-thumbnail-listing.jpg",
      "articleUrl": "https://www.globe.com.ph/about-us/newsroom/corporate/strengthen-leadership-regain-business-momentum.html",
      "columnType": "articles--type-3",
      "typeListing": "article",
      "imageMobile": "/sites/globe.com.ph/files/content/dam/globe/brie/AboutUs/newsroom/corporate/strengthen-leadership-regain-business-momentum/newsroom-corporate-new-offerings-business-primary-thumbnail-m.jpg",
      "imageDesktop": "/sites/globe.com.ph/files/content/dam/globe/brie/AboutUs/newsroom/corporate/strengthen-leadership-regain-business-momentum/newsroom-corporate-new-offerings-business-primary-thumbnail-d.jpg",
      "description": "Globe is set to unpack new offerings to strengthen its leadership in the mobile sector and regain business momentum despite mobility restrictions, as it continues to gear up for increased competition.",
      "datePosted": "May 12, 2021 | 09:28 PM",
      "titleFromTag": "Corporate"
    },
    {
      "title": "Globe Scouts for New Businesses, Steady Stream of Revenues",
      "nonclickable": false,
      "openNewTab": false,
      "borderArticle": "border-color:#0074D9;",
      "borderTopArticle": "border-top-color:#0074D9;",
      "imageListing": "/sites/globe.com.ph/files/content/dam/globe/brie/AboutUs/newsroom/common/updated/Corporate-globe-thumbnail-listing.jpg",
      "articleUrl": "https://www.globe.com.ph/about-us/newsroom/corporate/new-businesses-steady-stream-revenues.html",
      "columnType": "articles--type-3",
      "typeListing": "article",
      "imageMobile": "/sites/globe.com.ph/files/content/dam/globe/brie/AboutUs/newsroom/common/updated/Corporate-globe-primary-thumbnail-m.jpg",
      "imageDesktop": "/sites/globe.com.ph/files/content/dam/globe/brie/AboutUs/newsroom/common/updated/Corporate-globe-primary-thumbnail-d.jpg",
      "description": "Globe is looking at building new businesses for additional revenue streams as the telecommunications industry continues to mature and face numerous challenges.",
      "datePosted": "May 12, 2021 | 11:15 AM",
      "titleFromTag": "Corporate"
    },
    {
      "title": "Teachers, Parents, Students Expand Digital Responsibility Learning",
      "nonclickable": false,
      "openNewTab": false,
      "borderArticle": "border-color:#1C91C5;",
      "borderTopArticle": "border-top-color:#1C91C5;",
      "imageListing": "/sites/globe.com.ph/files/content/dam/globe/brie/AboutUs/newsroom/sustainability/teachers-parents-students-digital-responsibility-learning/newsroom-sustainability-teachers-parents-students-thumbnail-listing.jpg",
      "articleUrl": "https://www.globe.com.ph/about-us/newsroom/sustainability/teachers-parents-students-digital-responsibility-learning.html",
      "columnType": "articles--type-3",
      "typeListing": "article",
      "imageMobile": "/sites/globe.com.ph/files/content/dam/globe/brie/AboutUs/newsroom/sustainability/teachers-parents-students-digital-responsibility-learning/newsroom-sustainability-teachers-parents-students-primary-thumbnail-m.jpg",
      "imageDesktop": "/sites/globe.com.ph/files/content/dam/globe/brie/AboutUs/newsroom/sustainability/teachers-parents-students-digital-responsibility-learning/newsroom-sustainability-teachers-parents-students-primary-thumbnail-d.jpg",
      "description": "Globe's partners educated 5,635 faculty, parents, and students on responsible tech use across 10 cities in Metro Manila and 23 provinces during the pandemic.",
      "datePosted": "May 12, 2021 | 10:15 AM",
      "titleFromTag": "Sustainability"
    },
    {
      "title": "Globe Virtual Hangouts Bridging 5G Hackathon to Pinoy Youth",
      "nonclickable": false,
      "openNewTab": false,
      "borderArticle": "border-color:#0074D9;",
      "borderTopArticle": "border-top-color:#0074D9;",
      "imageListing": "/sites/globe.com.ph/files/content/dam/globe/brie/AboutUs/newsroom/consumer/globe-virtual-hangouts-bridging-5g-hackathon-pinoy-youth/newsroom-consumer-virtual-hangouts-hackathon-thumbnail-listing.jpg",
      "articleUrl": "https://www.globe.com.ph/about-us/newsroom/consumer/globe-virtual-hangouts-bridging-5g-hackathon-pinoy-youth.html",
      "columnType": "articles--type-3",
      "typeListing": "article",
      "imageMobile": "/sites/globe.com.ph/files/content/dam/globe/brie/AboutUs/newsroom/consumer/globe-virtual-hangouts-bridging-5g-hackathon-pinoy-youth/newsroom-consumer-virtual-hangouts-hackathon-primary-thumbnail-m.jpg",
      "imageDesktop": "/sites/globe.com.ph/files/content/dam/globe/brie/AboutUs/newsroom/consumer/globe-virtual-hangouts-bridging-5g-hackathon-pinoy-youth/newsroom-consumer-virtual-hangouts-hackathon-primary-thumbnail-d.jpg",
      "description": "Globe Prepaid’s Virtual Hangouts brings the 5G Hackathon to participants nationwide for a more collaborative and immersive online learning experience.",
      "datePosted": "May 11, 2021 | 01:52 PM",
      "titleFromTag": "Consumer"
    }
  ]
}
