{
  "status": 200,
  "page": 123,
  "totalPage": 298,
  "range": "1465-1476",
  "total": 3573,
  "result": [
    {
      "title": "Globe Values Diversity in the Workplace; Celebrates Women Leaders Who are Also Mothers",
      "nonclickable": false,
      "openNewTab": false,
      "borderArticle": "border-color:#0074D9;",
      "borderTopArticle": "border-top-color:#0074D9;",
      "imageListing": "/sites/globe.com.ph/files/content/dam/globe/brie/AboutUs/newsroom/common/updated/Corporate-globe-thumbnail-listing.jpg",
      "articleUrl": "https://www.globe.com.ph/about-us/newsroom/corporate/globe-values-diversity-workplace.html",
      "columnType": "articles--type-3",
      "typeListing": "article",
      "imageMobile": "/sites/globe.com.ph/files/content/dam/globe/brie/AboutUs/newsroom/common/updated/Corporate-globe-primary-thumbnail-m.jpg",
      "imageDesktop": "/sites/globe.com.ph/files/content/dam/globe/brie/AboutUs/newsroom/common/updated/Corporate-globe-primary-thumbnail-d.jpg",
      "description": "Out of Globe’s 8,300-strong workforce, 45% are women wherein 2,083 are mothers.",
      "datePosted": "May 11, 2021 | 11:00 AM",
      "titleFromTag": "Corporate"
    },
    {
      "title": "GCash Transactions Seen to Double to P2-T this Year",
      "nonclickable": false,
      "openNewTab": false,
      "borderArticle": "border-color:#0074D9;",
      "borderTopArticle": "border-top-color:#0074D9;",
      "imageListing": "/sites/globe.com.ph/files/content/dam/globe/brie/AboutUs/newsroom/917ventures/9-gcash-friendly-online-stores-quarantine-needs-cravings/newsroom-917ventures-gcash-friendly-online-thumbnail-listing.jpg",
      "articleUrl": "https://www.globe.com.ph/about-us/newsroom/917ventures/gcash-transactions-seen-double-p2-trillion-this-year.html",
      "columnType": "articles--type-3",
      "typeListing": "article",
      "imageMobile": "/sites/globe.com.ph/files/content/dam/globe/brie/AboutUs/newsroom/917ventures/9-gcash-friendly-online-stores-quarantine-needs-cravings/newsroom-917ventures-gcash-friendly-online-primary-thumbnail-m.jpg",
      "imageDesktop": "/sites/globe.com.ph/files/content/dam/globe/brie/AboutUs/newsroom/917ventures/9-gcash-friendly-online-stores-quarantine-needs-cravings/newsroom-917ventures-gcash-friendly-online-primary-thumbnail-d.jpg",
      "description": "Driven by the heightened need for cashless solutions, GCash users have now reached 40 million accounts as of end-April.",
      "datePosted": "May 11, 2021 | 10:01 AM",
      "titleFromTag": "917Ventures"
    },
    {
      "title": "#PoweredByCARE: Globe At Home Gives FREE Permanent Speed Upgrade",
      "nonclickable": false,
      "openNewTab": false,
      "borderArticle": "border-color:#0074D9;",
      "borderTopArticle": "border-top-color:#0074D9;",
      "imageListing": "/sites/globe.com.ph/files/content/dam/globe/brie/AboutUs/newsroom/consumer/globe-at-home-broadband-customers-free-upgrades/newsroom-consumer-gah-free-upgrades-thumbnail-listing.jpg",
      "articleUrl": "https://www.globe.com.ph/about-us/newsroom/consumer/globe-at-home-gives-free-permanent-speed-upgrade.html",
      "columnType": "articles--type-3",
      "typeListing": "article",
      "imageMobile": "/sites/globe.com.ph/files/content/dam/globe/brie/AboutUs/newsroom/consumer/globe-at-home-broadband-customers-free-upgrades/newsroom-consumer-gah-free-upgrades-primary-thumbnail-m.jpg",
      "imageDesktop": "/sites/globe.com.ph/files/content/dam/globe/brie/AboutUs/newsroom/consumer/globe-at-home-broadband-customers-free-upgrades/newsroom-consumer-gah-free-upgrades-primary-thumbnail-d.jpg",
      "description": "Loyal Globe At Home customers are eligible for a speed upgrade up to five times their current subscription.",
      "datePosted": "May 10, 2021 | 12:11 PM",
      "titleFromTag": "Consumer"
    },
    {
      "title": "917Ventures’ KodeGo Helps Upskill Filipino Software Engineers",
      "nonclickable": false,
      "openNewTab": false,
      "borderArticle": "border-color:#0074D9;",
      "borderTopArticle": "border-top-color:#0074D9;",
      "imageListing": "/sites/globe.com.ph/files/content/dam/globe/brie/AboutUs/newsroom/917ventures/kodego-helps-upskill-filipino-software-engineers/newsroom-917ventures-kodego-engineers-thumbnail-listing.jpg",
      "articleUrl": "https://www.globe.com.ph/about-us/newsroom/917ventures/kodego-helps-upskill-filipino-software-engineers.html",
      "columnType": "articles--type-3",
      "typeListing": "article",
      "imageMobile": "/sites/globe.com.ph/files/content/dam/globe/brie/AboutUs/newsroom/917ventures/kodego-helps-upskill-filipino-software-engineers/newsroom-917ventures-kodego-engineers-primary-thumbnail-m.jpg",
      "imageDesktop": "/sites/globe.com.ph/files/content/dam/globe/brie/AboutUs/newsroom/917ventures/kodego-helps-upskill-filipino-software-engineers/newsroom-917ventures-kodego-engineers-primary-thumbnail-d.jpg",
      "description": "KodeGo, 917Ventures’ new web development bootcamp, aims to raise the calibre of Filipino software engineers and address unemployment gaps in the country.",
      "datePosted": "May 10, 2021 | 12:01 PM",
      "titleFromTag": "917Ventures"
    },
    {
      "title": "#TeamGoodBoy Encourages Youth: Make a Difference, Join 5G Hackathon",
      "nonclickable": false,
      "openNewTab": false,
      "borderArticle": "border-color:#1C91C5;",
      "borderTopArticle": "border-top-color:#1C91C5;",
      "imageListing": "/sites/globe.com.ph/files/content/dam/globe/brie/AboutUs/newsroom/sustainability/teamgoodboy-5g-hackathon/newsroom-sustainability-teamgoodboy-5g-hackathon-thumbnail-listing.jpg",
      "articleUrl": "https://www.globe.com.ph/about-us/newsroom/sustainability/teamgoodboy-5g-hackathon.html",
      "columnType": "articles--type-3",
      "typeListing": "article",
      "imageMobile": "/sites/globe.com.ph/files/content/dam/globe/brie/AboutUs/newsroom/sustainability/teamgoodboy-5g-hackathon/newsroom-sustainability-teamgoodboy-5g-hackathon-primary-thumbnail-m.jpg",
      "imageDesktop": "/sites/globe.com.ph/files/content/dam/globe/brie/AboutUs/newsroom/sustainability/teamgoodboy-5g-hackathon/newsroom-sustainability-teamgoodboy-5g-hackathon-primary-thumbnail-d.jpg",
      "description": "Kim Seon-ho, K-Drama star and Globe’s latest ambassador invites students, young professionals, and entrepreneurs to join the country’s first and biggest 5G Hackathon by Globe and De La Salle University’s Animo Labs.",
      "datePosted": "May 07, 2021 | 04:28 PM",
      "titleFromTag": "Sustainability"
    },
    {
      "title": "APEC Schools Tap Globe Cloud Services for Richer, Inclusive Digital Learning Experience",
      "nonclickable": false,
      "openNewTab": false,
      "borderArticle": "border-color:#0074D9;",
      "borderTopArticle": "border-top-color:#0074D9;",
      "imageListing": "/sites/globe.com.ph/files/content/dam/globe/brie/AboutUs/newsroom/business/apec-schools-tap-globe-cloud-services/newsroom-business-apec-schools-thumbnail-listing.jpg",
      "articleUrl": "https://www.globe.com.ph/about-us/newsroom/business/apec-schools-tap-globe-cloud-services.html",
      "columnType": "articles--type-3",
      "typeListing": "article",
      "imageMobile": "/sites/globe.com.ph/files/content/dam/globe/brie/AboutUs/newsroom/business/apec-schools-tap-globe-cloud-services/newsroom-business-apec-schools-primary-thumbnail-m.jpg",
      "imageDesktop": "/sites/globe.com.ph/files/content/dam/globe/brie/AboutUs/newsroom/business/apec-schools-tap-globe-cloud-services/newsroom-business-apec-schools-primary-thumbnail-d.jpg",
      "description": "Affordable Private Education Center partners with Globe Business and Cascadeo to enhance AWS for remote learning. Join us in advancing education!",
      "datePosted": "May 07, 2021 | 04:28 PM",
      "titleFromTag": "Business"
    },
    {
      "title": "Globe at Home Says #SagotKitaMa to All Hard-Working Moms This Mother’s Day Weekend",
      "nonclickable": false,
      "openNewTab": false,
      "borderArticle": "border-color:#0074D9;",
      "borderTopArticle": "border-top-color:#0074D9;",
      "imageListing": "/sites/globe.com.ph/files/content/dam/globe/brie/AboutUs/newsroom/common/updated/Corporate-globe-thumbnail-listing.jpg",
      "articleUrl": "https://www.globe.com.ph/about-us/newsroom/consumer/globe-at-home-sagotkitama-mothers-day.html",
      "columnType": "articles--type-3",
      "typeListing": "article",
      "imageMobile": "/sites/globe.com.ph/files/content/dam/globe/brie/AboutUs/newsroom/common/updated/Corporate-globe-primary-thumbnail-m.jpg",
      "imageDesktop": "/sites/globe.com.ph/files/content/dam/globe/brie/AboutUs/newsroom/common/updated/Corporate-globe-primary-thumbnail-d.jpg",
      "description": "Starting May 7, the World At Home portal will open its doors for select Globe At Home customers and reveal different rooms that will house exclusive content and all sorts of fun ideas and activities that the entire family can do together.",
      "datePosted": "May 07, 2021 | 03:24 PM",
      "titleFromTag": "Consumer"
    },
    {
      "title": "Globe Reiterates Commitment to Future-Proof Network Against Natural Disasters, Climate-Related Hazards",
      "nonclickable": false,
      "openNewTab": false,
      "borderArticle": "border-color:#1C91C5;",
      "borderTopArticle": "border-top-color:#1C91C5;",
      "imageListing": "/sites/globe.com.ph/files/content/dam/globe/brie/AboutUs/newsroom/common/default-5/corporate-default-6-thumbnail-listing.jpg",
      "articleUrl": "https://www.globe.com.ph/about-us/newsroom/sustainability/globe-reiterates-commitment-future-proof-network-against-natural-disasters.html",
      "columnType": "articles--type-3",
      "typeListing": "article",
      "imageMobile": "/sites/globe.com.ph/files/content/dam/globe/brie/AboutUs/newsroom/common/default-5/corporate-default-6-primary-thumbnail-m.jpg",
      "imageDesktop": "/sites/globe.com.ph/files/content/dam/globe/brie/AboutUs/newsroom/common/default-5/corporate-default-6-primary-thumbnail-d.jpg",
      "description": "This commitment will, in turn, give Filipinos reliable lines of communications, especially during calamities.",
      "datePosted": "May 07, 2021 | 03:22 PM",
      "titleFromTag": "Sustainability"
    },
    {
      "title": "Globe Underlines Importance of Customer-Centricity at the Youth Creativity Festival 2021",
      "nonclickable": false,
      "openNewTab": false,
      "borderArticle": "border-color:#0074D9;",
      "borderTopArticle": "border-top-color:#0074D9;",
      "imageListing": "/sites/globe.com.ph/files/content/dam/globe/brie/AboutUs/newsroom/consumer/globe-underlines-importance-customer-centricity/newsroom-consumer-importance-customer-centricity-thumbnail-listing.jpg",
      "articleUrl": "https://www.globe.com.ph/about-us/newsroom/consumer/globe-underlines-importance-customer-centricity.html",
      "columnType": "articles--type-3",
      "typeListing": "article",
      "imageMobile": "/sites/globe.com.ph/files/content/dam/globe/brie/AboutUs/newsroom/consumer/globe-underlines-importance-customer-centricity/newsroom-consumer-importance-customer-centricity-primary-thumbnail-m.jpg",
      "imageDesktop": "/sites/globe.com.ph/files/content/dam/globe/brie/AboutUs/newsroom/consumer/globe-underlines-importance-customer-centricity/newsroom-consumer-importance-customer-centricity-primary-thumbnail-d.jpg",
      "description": "For students entering the workforce, Globe reminds the youth that putting customers’ best interests and needs are of utmost importance.",
      "datePosted": "May 07, 2021 | 12:44 PM",
      "titleFromTag": "Consumer"
    },
    {
      "title": "Globe myBusiness and AWS Partner to Uplift PH Businesses",
      "nonclickable": false,
      "openNewTab": false,
      "borderArticle": "border-color:#0074D9;",
      "borderTopArticle": "border-top-color:#0074D9;",
      "imageListing": "/sites/globe.com.ph/files/content/dam/globe/brie/AboutUs/newsroom/business/globe-mybusiness-aws-partner-uplift-ph-businesses/newsroom-business-mybusiness-aws-uplift-thumbnail-listing.jpg",
      "articleUrl": "https://www.globe.com.ph/about-us/newsroom/business/globe-mybusiness-aws-partner-uplift-ph-businesses.html",
      "columnType": "articles--type-3",
      "typeListing": "article",
      "imageMobile": "/sites/globe.com.ph/files/content/dam/globe/brie/AboutUs/newsroom/business/globe-mybusiness-aws-partner-uplift-ph-businesses/newsroom-business-mybusiness-aws-uplift-primary-thumbnail-m.jpg",
      "imageDesktop": "/sites/globe.com.ph/files/content/dam/globe/brie/AboutUs/newsroom/business/globe-mybusiness-aws-partner-uplift-ph-businesses/newsroom-business-mybusiness-aws-uplift-primary-thumbnail-d.jpg",
      "description": "Globe myBusiness and AWS partner to empower PH businesses with cloud solutions, enabling remote work and growth, especially for MSMEs.",
      "datePosted": "May 07, 2021 | 08:03 AM",
      "titleFromTag": "Business"
    },
    {
      "title": "Finance for All: GCash Helps Trike Drivers and Vendors to Cope up with the Pandemic",
      "nonclickable": false,
      "openNewTab": false,
      "borderArticle": "border-color:#0074D9;",
      "borderTopArticle": "border-top-color:#0074D9;",
      "imageListing": "/sites/globe.com.ph/files/content/dam/globe/brie/AboutUs/newsroom/917ventures/gcash-helps-trike-drivers-vendors-cope-up-pandemic/newsroom-917ventures-gcash-drivers-vendors-thumbnail-listing.jpg",
      "articleUrl": "https://www.globe.com.ph/about-us/newsroom/917ventures/gcash-helps-trike-drivers-vendors-cope-up-pandemic.html",
      "columnType": "articles--type-3",
      "typeListing": "article",
      "imageMobile": "/sites/globe.com.ph/files/content/dam/globe/brie/AboutUs/newsroom/917ventures/gcash-helps-trike-drivers-vendors-cope-up-pandemic/newsroom-917ventures-gcash-drivers-vendors-primary-thumbnail-m.jpg",
      "imageDesktop": "/sites/globe.com.ph/files/content/dam/globe/brie/AboutUs/newsroom/917ventures/gcash-helps-trike-drivers-vendors-cope-up-pandemic/newsroom-917ventures-gcash-drivers-vendors-primary-thumbnail-d.jpg",
      "description": "To date of writing, GCash has on-boarded over 1,200 TODA drivers and over 100 palengke vendors.",
      "datePosted": "May 06, 2021 | 05:00 PM",
      "titleFromTag": "917Ventures"
    },
    {
      "title": "Keeping the Bayanihan Spirit Alive to Address a Hunger Crisis",
      "nonclickable": false,
      "openNewTab": false,
      "borderArticle": "border-color:#1C91C5;",
      "borderTopArticle": "border-top-color:#1C91C5;",
      "imageListing": "/sites/globe.com.ph/files/content/dam/globe/brie/AboutUs/newsroom/sustainability/keeping-bayanihan-spirit-alive-address-hunger-crisis/newsroom-sustainability-bayanihan-hunger-crisis-thumbnail-listing.jpg",
      "articleUrl": "https://www.globe.com.ph/about-us/newsroom/sustainability/keeping-bayanihan-spirit-alive-address-hunger-crisis.html",
      "columnType": "articles--type-3",
      "typeListing": "article",
      "imageMobile": "/sites/globe.com.ph/files/content/dam/globe/brie/AboutUs/newsroom/sustainability/keeping-bayanihan-spirit-alive-address-hunger-crisis/newsroom-sustainability-bayanihan-hunger-crisis-primary-thumbnail-m.jpg",
      "imageDesktop": "/sites/globe.com.ph/files/content/dam/globe/brie/AboutUs/newsroom/sustainability/keeping-bayanihan-spirit-alive-address-hunger-crisis/newsroom-sustainability-bayanihan-hunger-crisis-primary-thumbnail-d.jpg",
      "description": "Globe provided assistance to over 200 community pantries nationwide by leveraging on its partnership with PureGold through the PureGo app.",
      "datePosted": "May 06, 2021 | 04:36 PM",
      "titleFromTag": "Sustainability"
    }
  ]
}
