{
  "status": 200,
  "page": 124,
  "totalPage": 298,
  "range": "1477-1488",
  "total": 3573,
  "result": [
    {
      "title": "Globe Bridges Distance in Europe and USA through 5G Roaming: Allies with Telia Company, Telecom Italia, and AT&T",
      "nonclickable": false,
      "openNewTab": false,
      "borderArticle": "border-color:#0074D9;",
      "borderTopArticle": "border-top-color:#0074D9;",
      "imageListing": "/sites/globe.com.ph/files/content/dam/globe/brie/AboutUs/newsroom/consumer/5g-roaming-services-asia-middle-east/newsroom-consumer-5g-roaming-asia-middel-east-thumbnail-listing.jpg",
      "articleUrl": "https://www.globe.com.ph/about-us/newsroom/corporate/globe-bridges-distance-europe-usa-5g-roaming.html",
      "columnType": "articles--type-3",
      "typeListing": "article",
      "imageMobile": "/sites/globe.com.ph/files/content/dam/globe/brie/AboutUs/newsroom/consumer/5g-roaming-services-asia-middle-east/newsroom-consumer-5g-roaming-asia-middel-east-primary-thumbnail-m.jpg",
      "imageDesktop": "/sites/globe.com.ph/files/content/dam/globe/brie/AboutUs/newsroom/consumer/5g-roaming-services-asia-middle-east/newsroom-consumer-5g-roaming-asia-middel-east-primary-thumbnail-d.jpg",
      "description": "Globe is committed to achieve the widest 5G coverage worldwide and bring the #1stWorldNetwork to its customers by sealing partnerships with telco companies across Asia, Middle East, Europe, and North America.",
      "datePosted": "May 06, 2021 | 10:53 AM",
      "titleFromTag": "Corporate"
    },
    {
      "title": "Globe: Sari-sari Stores Essential in Keeping Pinoys Connected",
      "nonclickable": false,
      "openNewTab": false,
      "borderArticle": "border-color:#0074D9;",
      "borderTopArticle": "border-top-color:#0074D9;",
      "imageListing": "/sites/globe.com.ph/files/content/dam/globe/brie/AboutUs/newsroom/corporate/sari-sari-stores-essential-keeping-pinoys-connected/newsroom-consumer-sari-sari-stores-thumbnail-listing.jpg",
      "articleUrl": "https://www.globe.com.ph/about-us/newsroom/corporate/sari-sari-stores-essential-keeping-pinoys-connected.html",
      "columnType": "articles--type-3",
      "typeListing": "article",
      "imageMobile": "/sites/globe.com.ph/files/content/dam/globe/brie/AboutUs/newsroom/corporate/sari-sari-stores-essential-keeping-pinoys-connected/newsroom-consumer-sari-sari-stores-primary-thumbnail-m.jpg",
      "imageDesktop": "/sites/globe.com.ph/files/content/dam/globe/brie/AboutUs/newsroom/corporate/sari-sari-stores-essential-keeping-pinoys-connected/newsroom-consumer-sari-sari-stores-primary-thumbnail-d.jpg",
      "description": "Sari-sari stores play an important role in connecting people.",
      "datePosted": "May 06, 2021 | 10:16 AM",
      "titleFromTag": "Corporate"
    },
    {
      "title": "Telco 101: Globe Leads Series on Why Connectivity Matters at Home",
      "nonclickable": false,
      "openNewTab": false,
      "borderArticle": "border-color:#0074D9;",
      "borderTopArticle": "border-top-color:#0074D9;",
      "imageListing": "/sites/globe.com.ph/files/content/dam/globe/brie/AboutUs/newsroom/corporate/telco-101-globe-leads-series-why-connectivity-matters-home/newsroom-corporate-telco-101-connectivity-thumbnail-listing.jpg",
      "articleUrl": "https://www.globe.com.ph/about-us/newsroom/corporate/telco-101-globe-leads-series-why-connectivity-matters-home.html",
      "columnType": "articles--type-3",
      "typeListing": "article",
      "imageMobile": "/sites/globe.com.ph/files/content/dam/globe/brie/AboutUs/newsroom/corporate/telco-101-globe-leads-series-why-connectivity-matters-home/newsroom-corporate-telco-101-connectivity-primary-thumbnail-m.jpg",
      "imageDesktop": "/sites/globe.com.ph/files/content/dam/globe/brie/AboutUs/newsroom/corporate/telco-101-globe-leads-series-why-connectivity-matters-home/newsroom-corporate-telco-101-connectivity-primary-thumbnail-d.jpg",
      "description": "Globe launched the first part of its Telco 101 Webinar Series dubbed “Enabling the Digitally Connected Homes”.",
      "datePosted": "May 06, 2021 | 10:04 AM",
      "titleFromTag": "Corporate"
    },
    {
      "title": "#KuwentoNgTagumpay: How Borrowed Ref, Own Recipe Launched Actor-Model JM Magalona’s Tapsi Business\t",
      "nonclickable": false,
      "openNewTab": false,
      "borderArticle": "border-color:#0074D9;",
      "borderTopArticle": "border-top-color:#0074D9;",
      "imageListing": "/sites/globe.com.ph/files/content/dam/globe/brie/AboutUs/newsroom/consumer/how-borrowed-ref-own-recipe-launched-jm-magalona-tapsi-business/newsroom-consumer-magalona-tapsi-business-thumbnail-listing.jpg",
      "articleUrl": "https://www.globe.com.ph/about-us/newsroom/consumer/how-borrowed-ref-own-recipe-launched-jm-magalona-tapsi-business.html",
      "columnType": "articles--type-3",
      "typeListing": "article",
      "imageMobile": "/sites/globe.com.ph/files/content/dam/globe/brie/AboutUs/newsroom/consumer/how-borrowed-ref-own-recipe-launched-jm-magalona-tapsi-business/newsroom-consumer-magalona-tapsi-business-primary-thumbnail-m.jpg",
      "imageDesktop": "/sites/globe.com.ph/files/content/dam/globe/brie/AboutUs/newsroom/consumer/how-borrowed-ref-own-recipe-launched-jm-magalona-tapsi-business/newsroom-consumer-magalona-tapsi-business-primary-thumbnail-d.jpg",
      "description": "The entertainment business has been hit hard by the global health crisis but actor-model JM Magalona still triumphed over many trials with the help of a tapsilogan business and digital tools from Globe.",
      "datePosted": "May 05, 2021 | 12:19 PM",
      "titleFromTag": "Consumer"
    },
    {
      "title": "Fanlife by 917Ventures: The Ultimate Marketplace for K-Pop and K-Drama Fans",
      "nonclickable": false,
      "openNewTab": false,
      "borderArticle": "border-color:#0074D9;",
      "borderTopArticle": "border-top-color:#0074D9;",
      "imageListing": "/sites/globe.com.ph/files/content/dam/globe/brie/AboutUs/newsroom/917ventures/fanlife-ultimate-marketplace-k-pop-k-drama-fans/newsroom-917ventures-marketplace-kpop-kdrama-thumbnail-listing.jpg",
      "articleUrl": "https://www.globe.com.ph/about-us/newsroom/917ventures/fanlife-ultimate-marketplace-k-pop-k-drama-fans.html",
      "columnType": "articles--type-3",
      "typeListing": "article",
      "imageMobile": "/sites/globe.com.ph/files/content/dam/globe/brie/AboutUs/newsroom/917ventures/fanlife-ultimate-marketplace-k-pop-k-drama-fans/newsroom-917ventures-marketplace-kpop-kdrama-primary-thumbnail-m.jpg",
      "imageDesktop": "/sites/globe.com.ph/files/content/dam/globe/brie/AboutUs/newsroom/917ventures/fanlife-ultimate-marketplace-k-pop-k-drama-fans/newsroom-917ventures-marketplace-kpop-kdrama-primary-thumbnail-d.jpg",
      "description": "Fanlife connects K-Pop and K-Drama fans all throughout the country to their favorite artists through exclusive experiences and official merchandise.",
      "datePosted": "May 05, 2021 | 10:21 AM",
      "titleFromTag": "917Ventures"
    },
    {
      "title": "Globe Business Teams Up with Enterprise and SME Partners to Honor Medical Frontliners Through Food Drive",
      "nonclickable": false,
      "openNewTab": false,
      "borderArticle": "border-color:#0074D9;",
      "borderTopArticle": "border-top-color:#0074D9;",
      "imageListing": "/sites/globe.com.ph/files/content/dam/globe/brie/AboutUs/newsroom/business/globe-business-corporate-sme-partners-food-drive/newsroom-business-frontliners-food-drive-thumbnail-listing.jpg",
      "articleUrl": "https://www.globe.com.ph/about-us/newsroom/business/globe-business-corporate-sme-partners-food-drive.html",
      "columnType": "articles--type-3",
      "typeListing": "article",
      "imageMobile": "/sites/globe.com.ph/files/content/dam/globe/brie/AboutUs/newsroom/business/globe-business-corporate-sme-partners-food-drive/newsroom-business-frontliners-food-drive-primary-thumbnail-m.jpg",
      "imageDesktop": "/sites/globe.com.ph/files/content/dam/globe/brie/AboutUs/newsroom/business/globe-business-corporate-sme-partners-food-drive/newsroom-business-frontliners-food-drive-primary-thumbnail-d.jpg",
      "description": "For Globe Business, Labor Day is an opportunity to recognize the sacrifices of Filipino health workers in tirelessly facing the risks of the pandemic",
      "datePosted": "May 04, 2021 | 05:15 PM",
      "titleFromTag": "Business"
    },
    {
      "title": "Globe to Bring in More Content for Movie-Loving Filipinos",
      "nonclickable": false,
      "openNewTab": false,
      "borderArticle": "border-color:#0074D9;",
      "borderTopArticle": "border-top-color:#0074D9;",
      "imageListing": "/sites/globe.com.ph/files/content/dam/globe/brie/AboutUs/newsroom/consumer/gmovies-introduces-reversed-qr-codes/default-partners-2-thumbnail-listing.jpg",
      "articleUrl": "https://www.globe.com.ph/about-us/newsroom/corporate/globe-bring-more-content-movie-loving-filipinos.html",
      "columnType": "articles--type-3",
      "typeListing": "article",
      "imageMobile": "/sites/globe.com.ph/files/content/dam/globe/brie/AboutUs/newsroom/consumer/gmovies-introduces-reversed-qr-codes/default-partners-2-primary-thumbnail-m.jpg",
      "imageDesktop": "/sites/globe.com.ph/files/content/dam/globe/brie/AboutUs/newsroom/consumer/gmovies-introduces-reversed-qr-codes/default-partners-2-primary-thumbnail-d.jpg",
      "description": "According to Cu, Globe, through GMovies in partnership with UPSTREAM, will showcase foreign titles on the platform.",
      "datePosted": "May 04, 2021 | 03:19 PM",
      "titleFromTag": "Corporate"
    },
    {
      "title": "Globe Salutes Filipino Workers on Labor Day",
      "nonclickable": false,
      "openNewTab": false,
      "borderArticle": "border-color:#1C91C5;",
      "borderTopArticle": "border-top-color:#1C91C5;",
      "imageListing": "/sites/globe.com.ph/files/content/dam/globe/brie/AboutUs/newsroom/sustainability/globe-salutes-filipino-workers-labor-day/newsroom-sustainability-workers-labor-day-thumbnail-listing.jpg",
      "articleUrl": "https://www.globe.com.ph/about-us/newsroom/sustainability/globe-salutes-filipino-workers-labor-day.html",
      "columnType": "articles--type-3",
      "typeListing": "article",
      "imageMobile": "/sites/globe.com.ph/files/content/dam/globe/brie/AboutUs/newsroom/sustainability/globe-salutes-filipino-workers-labor-day/newsroom-sustainability-workers-labor-day-primary-thumbnail-m.jpg",
      "imageDesktop": "/sites/globe.com.ph/files/content/dam/globe/brie/AboutUs/newsroom/sustainability/globe-salutes-filipino-workers-labor-day/newsroom-sustainability-workers-labor-day-primary-thumbnail-d.jpg",
      "description": "Globe salutes our fellow Filipinos who work tirelessly to keep businesses afloat and maintain jobs amid the challenges posed by the continuing pandemic.",
      "datePosted": "May 04, 2021 | 09:21 AM",
      "titleFromTag": "Sustainability"
    },
    {
      "title": "International Finance Awards Hails Globe as Fastest Growing 5G Network, Ernest Cu as Best CEO",
      "nonclickable": false,
      "openNewTab": false,
      "borderArticle": "border-color:#0074D9;",
      "borderTopArticle": "border-top-color:#0074D9;",
      "imageListing": "/sites/globe.com.ph/files/content/dam/globe/brie/AboutUs/newsroom/common/default-awards-1/corp-default-images-thumbnail-listing.jpg",
      "articleUrl": "https://www.globe.com.ph/about-us/newsroom/corporate/international-finance-awards-fastest-growing-5g-network-best-ceo.html",
      "columnType": "articles--type-3",
      "typeListing": "article",
      "imageMobile": "/sites/globe.com.ph/files/content/dam/globe/brie/AboutUs/newsroom/common/default-awards-1/corp-default-images-primary-thumbnail-m.jpg",
      "imageDesktop": "/sites/globe.com.ph/files/content/dam/globe/brie/AboutUs/newsroom/common/default-awards-1/corp-default-images-primary-thumbnail-d.jpg",
      "description": "Globe has been recognized by IFA as the “Fastest Growing 5G Network Service Provider\" and CEO Ernest L. Cu as the “Best Telecommunications CEO” for 2021.",
      "datePosted": "May 03, 2021 | 10:21 AM",
      "titleFromTag": "Corporate"
    },
    {
      "title": "Globe: Q1 Build Target on Track Despite Quarantine Challenges",
      "nonclickable": false,
      "openNewTab": false,
      "borderArticle": "border-color:#0074D9;",
      "borderTopArticle": "border-top-color:#0074D9;",
      "imageListing": "/sites/globe.com.ph/files/content/dam/globe/brie/AboutUs/newsroom/common/default-15/default-corporate-9-thumbnail-listing.jpg",
      "articleUrl": "https://www.globe.com.ph/about-us/newsroom/corporate/q1-build-target-on-track-despite-quarantine-challenges.html",
      "columnType": "articles--type-3",
      "typeListing": "article",
      "imageMobile": "/sites/globe.com.ph/files/content/dam/globe/brie/AboutUs/newsroom/common/default-15/default-corporate-9-primary-thumbnail-m.jpg",
      "imageDesktop": "/sites/globe.com.ph/files/content/dam/globe/brie/AboutUs/newsroom/common/default-15/default-corporate-9-primary-thumbnail-d.jpg",
      "description": "Globe has already installed 318 new cell towers in strategic locations, boosted by 20 stand alone in-building solutions (IBS) in equally important sites.",
      "datePosted": "May 03, 2021 | 09:07 AM",
      "titleFromTag": "Corporate"
    },
    {
      "title": "LCC, Globe, British Embassy Launch Dashboard for City Governance",
      "nonclickable": false,
      "openNewTab": false,
      "borderArticle": "border-color:#1C91C5;",
      "borderTopArticle": "border-top-color:#1C91C5;",
      "imageListing": "/sites/globe.com.ph/files/content/dam/globe/brie/AboutUs/newsroom/sustainability/lcc-globe-british-embassy-launch-dashboard-city-governance/newsroom-sustainability-lcc-globe-british-thumbnail-listing.jpg",
      "articleUrl": "https://www.globe.com.ph/about-us/newsroom/sustainability/lcc-globe-british-embassy-launch-dashboard-city-governance.html",
      "columnType": "articles--type-3",
      "typeListing": "article",
      "imageMobile": "/sites/globe.com.ph/files/content/dam/globe/brie/AboutUs/newsroom/sustainability/lcc-globe-british-embassy-launch-dashboard-city-governance/newsroom-sustainability-lcc-globe-british-primary-thumbnail-m.jpg",
      "imageDesktop": "/sites/globe.com.ph/files/content/dam/globe/brie/AboutUs/newsroom/sustainability/lcc-globe-british-embassy-launch-dashboard-city-governance/newsroom-sustainability-lcc-globe-british-primary-thumbnail-d.jpg",
      "description": "LCC, British Embassy, and Globe Telecom launch LCC dashboard to aid LGUs, investors, and residents in data-driven decision-making and improvement.",
      "datePosted": "Apr 30, 2021 | 04:24 PM",
      "titleFromTag": "Sustainability"
    },
    {
      "title": "917Ventures Makes Booking Boat Rides Easier With Speedy Ticket",
      "nonclickable": false,
      "openNewTab": false,
      "borderArticle": "border-color:#0074D9;",
      "borderTopArticle": "border-top-color:#0074D9;",
      "imageListing": "/sites/globe.com.ph/files/content/dam/globe/brie/AboutUs/newsroom/917ventures/917ventures-makes-booking-boat-rides-easier-speedy-ticket/newsroom-917ventures-booking-boat-rides-thumbnail-listing.jpg",
      "articleUrl": "https://www.globe.com.ph/about-us/newsroom/917ventures/917ventures-makes-booking-boat-rides-easier-speedy-ticket.html",
      "columnType": "articles--type-3",
      "typeListing": "article",
      "imageMobile": "/sites/globe.com.ph/files/content/dam/globe/brie/AboutUs/newsroom/917ventures/917ventures-makes-booking-boat-rides-easier-speedy-ticket/newsroom-917ventures-booking-boat-rides-primary-thumbnail-m.jpg",
      "imageDesktop": "/sites/globe.com.ph/files/content/dam/globe/brie/AboutUs/newsroom/917ventures/917ventures-makes-booking-boat-rides-easier-speedy-ticket/newsroom-917ventures-booking-boat-rides-primary-thumbnail-d.jpg",
      "description": "Traveling by sea has never been this easy with Speedy Ticket, a ticketing service that makes booking boat rides easier, cashless, and more secure.",
      "datePosted": "Apr 30, 2021 | 11:17 AM",
      "titleFromTag": "917Ventures"
    }
  ]
}
