{
  "status": 200,
  "page": 125,
  "totalPage": 298,
  "range": "1489-1500",
  "total": 3573,
  "result": [
    {
      "title": "Globe Completes 38 Site Upgrades in Leyte and Southern Leyte Provinces in Q1 2021",
      "nonclickable": false,
      "openNewTab": false,
      "borderArticle": "border-color:#0074D9;",
      "borderTopArticle": "border-top-color:#0074D9;",
      "imageListing": "/sites/globe.com.ph/files/content/dam/globe/brie/AboutUs/newsroom/common/default-5/corporate-default-6-thumbnail-listing.jpg",
      "articleUrl": "https://www.globe.com.ph/about-us/newsroom/corporate/globe-completes-site-upgrades-leyte-southern-leyte-q1-2021.html",
      "columnType": "articles--type-3",
      "typeListing": "article",
      "imageMobile": "/sites/globe.com.ph/files/content/dam/globe/brie/AboutUs/newsroom/common/default-5/corporate-default-6-primary-thumbnail-m.jpg",
      "imageDesktop": "/sites/globe.com.ph/files/content/dam/globe/brie/AboutUs/newsroom/common/default-5/corporate-default-6-primary-thumbnail-d.jpg",
      "description": "Globe completed 34 site upgrades in Leyte and four more locations in Southern Leyte, or a total of 38 from January to March this year.",
      "datePosted": "Apr 30, 2021 | 10:46 AM",
      "titleFromTag": "Corporate"
    },
    {
      "title": "Use GCredit to Buy GMovies Tickets Online: Enjoy Your Fave Shows Now and Pay Later",
      "nonclickable": false,
      "openNewTab": false,
      "borderArticle": "border-color:#0074D9;",
      "borderTopArticle": "border-top-color:#0074D9;",
      "imageListing": "/sites/globe.com.ph/files/content/dam/globe/brie/AboutUs/newsroom/consumer/use-gcredit-buy-gmovies-tickets-online/newsroom-consumer-gcredit-gmovies-tickets-thumbnail-listing.jpg",
      "articleUrl": "https://www.globe.com.ph/about-us/newsroom/consumer/use-gcredit-buy-gmovies-tickets-online.html",
      "columnType": "articles--type-3",
      "typeListing": "article",
      "imageMobile": "/sites/globe.com.ph/files/content/dam/globe/brie/AboutUs/newsroom/consumer/use-gcredit-buy-gmovies-tickets-online/newsroom-consumer-gcredit-gmovies-tickets-primary-thumbnail-m.jpg",
      "imageDesktop": "/sites/globe.com.ph/files/content/dam/globe/brie/AboutUs/newsroom/consumer/use-gcredit-buy-gmovies-tickets-online/newsroom-consumer-gcredit-gmovies-tickets-primary-thumbnail-d.jpg",
      "description": "GMovies, the country’s leading online ticketing platform, continues to extend convenience to its valued users through GCash’s GCredit.",
      "datePosted": "Apr 29, 2021 | 03:32 PM",
      "titleFromTag": "Consumer"
    },
    {
      "title": "#TruthInAction: Globe Holds Forum to Help Students Fight Fake News",
      "nonclickable": false,
      "openNewTab": false,
      "borderArticle": "border-color:#1C91C5;",
      "borderTopArticle": "border-top-color:#1C91C5;",
      "imageListing": "/sites/globe.com.ph/files/content/dam/globe/brie/AboutUs/newsroom/sustainability/globe-holds-forum-help-students-fight-fake-news/newsroom-sustainability-forum-fake-news-thumbnail-listing.jpg",
      "articleUrl": "https://www.globe.com.ph/about-us/newsroom/sustainability/globe-holds-forum-help-students-fight-fake-news.html",
      "columnType": "articles--type-3",
      "typeListing": "article",
      "imageMobile": "/sites/globe.com.ph/files/content/dam/globe/brie/AboutUs/newsroom/sustainability/globe-holds-forum-help-students-fight-fake-news/newsroom-sustainability-forum-fake-news-primary-thumbnail-m.jpg",
      "imageDesktop": "/sites/globe.com.ph/files/content/dam/globe/brie/AboutUs/newsroom/sustainability/globe-holds-forum-help-students-fight-fake-news/newsroom-sustainability-forum-fake-news-primary-thumbnail-d.jpg",
      "description": "Globe aims to educate the estimated 5,000 participants of this year’s summit about the risks of going digital and how they can become ambassadors of truth.",
      "datePosted": "Apr 29, 2021 | 11:11 AM",
      "titleFromTag": "Sustainability"
    },
    {
      "title": "Verto Network Solutions Inc. Partners with Globe myBusiness to Power Its Digital Connection",
      "nonclickable": false,
      "openNewTab": false,
      "borderArticle": "border-color:#0074D9;",
      "borderTopArticle": "border-top-color:#0074D9;",
      "imageListing": "/sites/globe.com.ph/files/content/dam/globe/brie/AboutUs/newsroom/business/verto-network-solutions-inc-partners-globe-mybusiness/newsroom-business-verto-network-solutions-thumbnail-listing.jpg",
      "articleUrl": "https://www.globe.com.ph/about-us/newsroom/business/verto-network-solutions-inc-partners-globe-mybusiness.html",
      "columnType": "articles--type-3",
      "typeListing": "article",
      "imageMobile": "/sites/globe.com.ph/files/content/dam/globe/brie/AboutUs/newsroom/business/verto-network-solutions-inc-partners-globe-mybusiness/newsroom-business-verto-network-solutions-primary-thumbnail-m.jpg",
      "imageDesktop": "/sites/globe.com.ph/files/content/dam/globe/brie/AboutUs/newsroom/business/verto-network-solutions-inc-partners-globe-mybusiness/newsroom-business-verto-network-solutions-primary-thumbnail-d.jpg",
      "description": "For Verto Network Solutions Inc., an IT managed services and turnkey solutions company, every second counts. Losing connectivity would be detrimental.",
      "datePosted": "Apr 28, 2021 | 05:19 PM",
      "titleFromTag": "Business"
    },
    {
      "title": "Globe Provides P51.2-M COVID-19 Support in Q1 2021",
      "nonclickable": false,
      "openNewTab": false,
      "borderArticle": "border-color:#1C91C5;",
      "borderTopArticle": "border-top-color:#1C91C5;",
      "imageListing": "/sites/globe.com.ph/files/content/dam/globe/brie/AboutUs/newsroom/common/updated/Corporate-globe-thumbnail-listing.jpg",
      "articleUrl": "https://www.globe.com.ph/about-us/newsroom/sustainability/globe-provides-covid-19-support-q1-2021.html",
      "columnType": "articles--type-3",
      "typeListing": "article",
      "imageMobile": "/sites/globe.com.ph/files/content/dam/globe/brie/AboutUs/newsroom/common/updated/Corporate-globe-primary-thumbnail-m.jpg",
      "imageDesktop": "/sites/globe.com.ph/files/content/dam/globe/brie/AboutUs/newsroom/common/updated/Corporate-globe-primary-thumbnail-d.jpg",
      "description": "Globe remains steadfast in helping Filipinos since the crisis started with Covid-19 support reaching Php 51.2 million for the first quarter of 2021.",
      "datePosted": "Apr 28, 2021 | 02:31 PM",
      "titleFromTag": "Sustainability"
    },
    {
      "title": "Globe President and CEO Ernest Cu Joins Nasdaq-Listed LivePerson Inc. Board of Directors",
      "nonclickable": false,
      "openNewTab": false,
      "borderArticle": "border-color:#1C91C5;",
      "borderTopArticle": "border-top-color:#1C91C5;",
      "imageListing": "/sites/globe.com.ph/files/content/dam/globe/brie/AboutUs/newsroom/sustainability/ernest-cu-joins-liveperson-inc-board-of-directors/newsroom-sustainability-ermest-joins-liveperson-thumbnail-listing.jpg",
      "articleUrl": "https://www.globe.com.ph/about-us/newsroom/sustainability/ernest-cu-joins-liveperson-inc-board-of-directors.html",
      "columnType": "articles--type-3",
      "typeListing": "article",
      "imageMobile": "/sites/globe.com.ph/files/content/dam/globe/brie/AboutUs/newsroom/sustainability/ernest-cu-joins-liveperson-inc-board-of-directors/newsroom-sustainability-ermest-joins-liveperson-primary-thumbnail-m.jpg",
      "imageDesktop": "/sites/globe.com.ph/files/content/dam/globe/brie/AboutUs/newsroom/sustainability/ernest-cu-joins-liveperson-inc-board-of-directors/newsroom-sustainability-ermest-joins-liveperson-primary-thumbnail-d.jpg",
      "description": "Globe President and Chief Executive Officer Ernest Cu joins the board of directors of Nasdaq-listed LivePerson, Inc., a global leader in conversational AI.",
      "datePosted": "Apr 28, 2021 | 01:57 PM",
      "titleFromTag": "Sustainability"
    },
    {
      "title": "Globe is PH Most Consistent Network: Ookla® 1Q 2021",
      "nonclickable": false,
      "openNewTab": false,
      "borderArticle": "border-color:#0074D9;",
      "borderTopArticle": "border-top-color:#0074D9;",
      "imageListing": "/sites/globe.com.ph/files/content/dam/globe/brie/AboutUs/newsroom/common/default-9/default-corporate-4-thumbnail-listing.jpg",
      "articleUrl": "https://www.globe.com.ph/about-us/newsroom/corporate/globe-ph-most-consistent-network-ookla-1q-2021.html",
      "columnType": "articles--type-3",
      "typeListing": "article",
      "imageMobile": "/sites/globe.com.ph/files/content/dam/globe/brie/AboutUs/newsroom/common/default-9/default-corporate-4-primary-thumbnail-m.jpg",
      "imageDesktop": "/sites/globe.com.ph/files/content/dam/globe/brie/AboutUs/newsroom/common/default-9/default-corporate-4-primary-thumbnail-d.jpg",
      "description": "Globe remains the undisputed leader in mobile network consistency in the Philippines, according to Q1 2021 Speedtest® results from Ookla® data.",
      "datePosted": "Apr 28, 2021 | 10:11 AM",
      "titleFromTag": "Corporate"
    },
    {
      "title": "Globe Empowers Youth to Connect the Nation with #Globe5GHackathon",
      "nonclickable": false,
      "openNewTab": false,
      "borderArticle": "border-color:#0074D9;",
      "borderTopArticle": "border-top-color:#0074D9;",
      "imageListing": "/sites/globe.com.ph/files/content/dam/globe/brie/AboutUs/newsroom/partners/globe-empowers-youth-connect-nation-globe-5g-hackathon/newsroom-partners-globe-empowers-youth-thumbnail-listing.jpg",
      "articleUrl": "https://www.globe.com.ph/about-us/newsroom/partners/globe-empowers-youth-connect-nation-globe-5g-hackathon.html",
      "columnType": "articles--type-3",
      "typeListing": "article",
      "imageMobile": "/sites/globe.com.ph/files/content/dam/globe/brie/AboutUs/newsroom/partners/globe-empowers-youth-connect-nation-globe-5g-hackathon/newsroom-partners-globe-empowers-youth-primary-thumbnail-m.jpg",
      "imageDesktop": "/sites/globe.com.ph/files/content/dam/globe/brie/AboutUs/newsroom/partners/globe-empowers-youth-connect-nation-globe-5g-hackathon/newsroom-partners-globe-empowers-youth-primary-thumbnail-d.jpg",
      "description": "In partnership with Animo Labs of De La Salle University-Manila, Globe has launched #Globe5GHackathon, the biggest hackathon event in the country last April 27.",
      "datePosted": "Apr 27, 2021 | 04:06 PM",
      "titleFromTag": "Partners"
    },
    {
      "title": "Network Builds and Upgrades Narrow Gap of Globe vs Competition: Opensignal Q1 2021 Report",
      "nonclickable": false,
      "openNewTab": false,
      "borderArticle": "border-color:#0074D9;",
      "borderTopArticle": "border-top-color:#0074D9;",
      "imageListing": "/sites/globe.com.ph/files/content/dam/globe/brie/AboutUs/newsroom/common/default-5/corporate-default-6-thumbnail-listing.jpg",
      "articleUrl": "https://www.globe.com.ph/about-us/newsroom/corporate/network-builds-upgrades-narrow-gap-vs-competition.html",
      "columnType": "articles--type-3",
      "typeListing": "article",
      "imageMobile": "/sites/globe.com.ph/files/content/dam/globe/brie/AboutUs/newsroom/common/default-5/corporate-default-6-primary-thumbnail-m.jpg",
      "imageDesktop": "/sites/globe.com.ph/files/content/dam/globe/brie/AboutUs/newsroom/common/default-5/corporate-default-6-primary-thumbnail-d.jpg",
      "description": "Globe’s aggressive site builds and efforts to migrate customers nationwide from 3G to 4G LTE has significantly improved network experience.",
      "datePosted": "Apr 27, 2021 | 09:09 AM",
      "titleFromTag": "Corporate"
    },
    {
      "title": "LCC, Globe to Launch Data-Backed Liveable Cities Dashboard to Aid LGUs",
      "nonclickable": false,
      "openNewTab": false,
      "borderArticle": "border-color:#1C91C5;",
      "borderTopArticle": "border-top-color:#1C91C5;",
      "imageListing": "/sites/globe.com.ph/files/content/dam/globe/brie/AboutUs/newsroom/common/default-9/default-corporate-4-thumbnail-listing.jpg",
      "articleUrl": "https://www.globe.com.ph/about-us/newsroom/sustainability/lcc-globe-launch-data-backed-liveable-cities-dashboard.html",
      "columnType": "articles--type-3",
      "typeListing": "article",
      "imageMobile": "/sites/globe.com.ph/files/content/dam/globe/brie/AboutUs/newsroom/common/default-9/default-corporate-4-primary-thumbnail-m.jpg",
      "imageDesktop": "/sites/globe.com.ph/files/content/dam/globe/brie/AboutUs/newsroom/common/default-9/default-corporate-4-primary-thumbnail-d.jpg",
      "description": "The Liveable Cities Challenge, in cooperation with the British Embassy and Globe Telecom, is set to launch its LCC dashboard that aims to provide an interactive visual profile of the 146 cities in the country.",
      "datePosted": "Apr 26, 2021 | 11:26 AM",
      "titleFromTag": "Sustainability"
    },
    {
      "title": "Cashalo Pushes for Greater Financial Inclusion With Globe myBusiness",
      "nonclickable": false,
      "openNewTab": false,
      "borderArticle": "border-color:#0074D9;",
      "borderTopArticle": "border-top-color:#0074D9;",
      "imageListing": "/sites/globe.com.ph/files/content/dam/globe/brie/AboutUs/newsroom/business/cashalo-pushes-greater-financial-inclusion/newsroom-business-cashalo-financial-inclusion-thumbnail-listing.jpg",
      "articleUrl": "https://www.globe.com.ph/about-us/newsroom/business/cashalo-pushes-greater-financial-inclusion.html",
      "columnType": "articles--type-3",
      "typeListing": "article",
      "imageMobile": "/sites/globe.com.ph/files/content/dam/globe/brie/AboutUs/newsroom/business/cashalo-pushes-greater-financial-inclusion/newsroom-business-cashalo-financial-inclusion-primary-thumbnail-m.jpg",
      "imageDesktop": "/sites/globe.com.ph/files/content/dam/globe/brie/AboutUs/newsroom/business/cashalo-pushes-greater-financial-inclusion/newsroom-business-cashalo-financial-inclusion-primary-thumbnail-d.jpg",
      "description": "In tough times, Cashalo stands by you! We provide quick digital credit to unbanked Filipinos, bypassing traditional loan hassles. Get support today!",
      "datePosted": "Apr 26, 2021 | 11:26 AM",
      "titleFromTag": "Business"
    },
    {
      "title": "Globe myBusiness Academy Empowers Businesses With a Masterclass Focused on Cloud Solutions",
      "nonclickable": false,
      "openNewTab": false,
      "borderArticle": "border-color:#0074D9;",
      "borderTopArticle": "border-top-color:#0074D9;",
      "imageListing": "/sites/globe.com.ph/files/content/dam/globe/brie/AboutUs/newsroom/business/globe-mybusiness-academy-empowers-businesses-masterclass-cloud-solutions/newsroom-business-masterclass-cloud-solutions-thumbnail-listing.jpg",
      "articleUrl": "https://www.globe.com.ph/about-us/newsroom/business/globe-mybusiness-academy-empowers-businesses-masterclass-cloud-solutions.html",
      "columnType": "articles--type-3",
      "typeListing": "article",
      "imageMobile": "/sites/globe.com.ph/files/content/dam/globe/brie/AboutUs/newsroom/business/globe-mybusiness-academy-empowers-businesses-masterclass-cloud-solutions/newsroom-business-masterclass-cloud-solutions-thumbnail-m.jpg",
      "imageDesktop": "/sites/globe.com.ph/files/content/dam/globe/brie/AboutUs/newsroom/business/globe-mybusiness-academy-empowers-businesses-masterclass-cloud-solutions/newsroom-business-masterclass-cloud-solutions-primary-thumbnail-d.jpg",
      "description": "Globe myBusiness Academy's Getting Started On Cloud webinar helps decision-makers identify opportunities and solutions for improved workflows.",
      "datePosted": "Apr 23, 2021 | 03:56 PM",
      "titleFromTag": "Business"
    }
  ]
}
