{
  "status": 200,
  "page": 126,
  "totalPage": 298,
  "range": "1501-1512",
  "total": 3573,
  "result": [
    {
      "title": "Globe Encourages Pinoys to Access Its Lifelines: HOPELINE, HEALTHNOW, BANTAY BATA #163",
      "nonclickable": false,
      "openNewTab": false,
      "borderArticle": "border-color:#1C91C5;",
      "borderTopArticle": "border-top-color:#1C91C5;",
      "imageListing": "/sites/globe.com.ph/files/content/dam/globe/brie/AboutUs/newsroom/sustainability/globe-encourages-pinoys-access-lifelines/newsroom-sustainability-hopeline-healthnow-bantaybata-thumbnail-listing.jpg",
      "articleUrl": "https://www.globe.com.ph/about-us/newsroom/sustainability/globe-encourages-pinoys-access-lifelines.html",
      "columnType": "articles--type-3",
      "typeListing": "article",
      "imageMobile": "/sites/globe.com.ph/files/content/dam/globe/brie/AboutUs/newsroom/sustainability/globe-encourages-pinoys-access-lifelines/newsroom-sustainability-hopeline-healthnow-bantaybata-primary-thumbnail-m.jpg",
      "imageDesktop": "/sites/globe.com.ph/files/content/dam/globe/brie/AboutUs/newsroom/sustainability/globe-encourages-pinoys-access-lifelines/newsroom-sustainability-hopeline-healthnow-bantaybata-primary-thumbnail-d.jpg",
      "description": "To ensure that Filipinos are able to cope with mental and physical health concerns brought about by the pandemic, Globe encourages the public to access its “lifelines” such as Hopeline to receive FREE 24/7 mental health support, HealthNow to access health services, and Bantay Bata #163 to report domestic and child abuse.",
      "datePosted": "Apr 23, 2021 | 11:11 AM",
      "titleFromTag": "Sustainability"
    },
    {
      "title": "Earth Day 2021: Globe Invites Filipinos to Join Fight Against Climate Change",
      "nonclickable": false,
      "openNewTab": false,
      "borderArticle": "border-color:#1C91C5;",
      "borderTopArticle": "border-top-color:#1C91C5;",
      "imageListing": "/sites/globe.com.ph/files/content/dam/globe/brie/AboutUs/newsroom/sustainability/globe-invites-filipinos-join-fight-against-climate-change/newsroom-sustainability-earth-day-2021-thumbnail-listing.jpg",
      "articleUrl": "https://www.globe.com.ph/about-us/newsroom/sustainability/globe-invites-filipinos-join-fight-against-climate-change.html",
      "columnType": "articles--type-3",
      "typeListing": "article",
      "imageMobile": "/sites/globe.com.ph/files/content/dam/globe/brie/AboutUs/newsroom/sustainability/globe-invites-filipinos-join-fight-against-climate-change/newsroom-sustainability-earth-day-2021-primary-thumbnail-m.jpg",
      "imageDesktop": "/sites/globe.com.ph/files/content/dam/globe/brie/AboutUs/newsroom/sustainability/globe-invites-filipinos-join-fight-against-climate-change/newsroom-sustainability-earth-day-2021-primary-thumbnail-d.jpg",
      "description": "Globe recognizes that environmental protection and preservation are the responsibility of all.",
      "datePosted": "Apr 22, 2021 | 02:38 PM",
      "titleFromTag": "Sustainability"
    },
    {
      "title": "Future-Proof Your Business with Globe myBusiness: Reinvented and Reimagined so You’re Ready for Anything",
      "nonclickable": false,
      "openNewTab": false,
      "borderArticle": "border-color:#0074D9;",
      "borderTopArticle": "border-top-color:#0074D9;",
      "imageListing": "/sites/globe.com.ph/files/content/dam/globe/brie/AboutUs/newsroom/business/future-proof-business-globe-mybusiness/newsroom-business-future-proof-mybusiness-thumbnail-listing.jpg",
      "articleUrl": "https://www.globe.com.ph/about-us/newsroom/business/future-proof-business-globe-mybusiness.html",
      "columnType": "articles--type-3",
      "typeListing": "article",
      "imageMobile": "/sites/globe.com.ph/files/content/dam/globe/brie/AboutUs/newsroom/business/future-proof-business-globe-mybusiness/newsroom-business-future-proof-mybusiness-thumbnail-m.jpg",
      "imageDesktop": "/sites/globe.com.ph/files/content/dam/globe/brie/AboutUs/newsroom/business/future-proof-business-globe-mybusiness/newsroom-business-future-proof-mybusiness-primary-thumbnail-d.jpg",
      "description": "At a time when your business must be ready for anything, Globe myBusiness helps make sure that your business delivers.",
      "datePosted": "Apr 21, 2021 | 02:25 PM",
      "titleFromTag": "Business"
    },
    {
      "title": "Globe Ensures Earthquake Preparedness Among Employees, Facilities",
      "nonclickable": false,
      "openNewTab": false,
      "borderArticle": "border-color:#1C91C5;",
      "borderTopArticle": "border-top-color:#1C91C5;",
      "imageListing": "/sites/globe.com.ph/files/content/dam/globe/brie/AboutUs/newsroom/sustainability/globe-ensures-earthquake-preparedness-among-employees-facilities/newsroom-sustainability-earthquake-preparedness-employees-thumbnail-listing.jpg",
      "articleUrl": "https://www.globe.com.ph/about-us/newsroom/sustainability/globe-ensures-earthquake-preparedness-among-employees-facilities.html",
      "columnType": "articles--type-3",
      "typeListing": "article",
      "imageMobile": "/sites/globe.com.ph/files/content/dam/globe/brie/AboutUs/newsroom/sustainability/globe-ensures-earthquake-preparedness-among-employees-facilities/newsroom-sustainability-earthquake-preparedness-employees-primary-thumbnail-m.jpg",
      "imageDesktop": "/sites/globe.com.ph/files/content/dam/globe/brie/AboutUs/newsroom/sustainability/globe-ensures-earthquake-preparedness-among-employees-facilities/newsroom-sustainability-earthquake-preparedness-employees-primary-thumbnail-d.jpg",
      "description": "Globe continues to foster a culture of readiness for all of its employees and facilities in the event of a strong earthquake by joining the Nationwide Simultaneous Earthquake Drill (NSED) last March.",
      "datePosted": "Apr 21, 2021 | 01:08 PM",
      "titleFromTag": "Sustainability"
    },
    {
      "title": "HealthNow Tops List of Medical, Health & Fitness Apps in PH",
      "nonclickable": false,
      "openNewTab": false,
      "borderArticle": "border-color:#0074D9;",
      "borderTopArticle": "border-top-color:#0074D9;",
      "imageListing": "/sites/globe.com.ph/files/content/dam/globe/brie/AboutUs/newsroom/917ventures/healthnow-tops-list-medical-health-fitness-apps-ph/newsroom-917ventures-healthnow-tops-list-thumbnail-listing.jpg",
      "articleUrl": "https://www.globe.com.ph/about-us/newsroom/917ventures/healthnow-tops-list-medical-health-fitness-apps-ph.html",
      "columnType": "articles--type-3",
      "typeListing": "article",
      "imageMobile": "/sites/globe.com.ph/files/content/dam/globe/brie/AboutUs/newsroom/917ventures/healthnow-tops-list-medical-health-fitness-apps-ph/newsroom-917ventures-healthnow-tops-list-primary-thumbnail-m.jpg",
      "imageDesktop": "/sites/globe.com.ph/files/content/dam/globe/brie/AboutUs/newsroom/917ventures/healthnow-tops-list-medical-health-fitness-apps-ph/newsroom-917ventures-healthnow-tops-list-primary-thumbnail-d.jpg",
      "description": "HealthNow also experienced a 300% increase in demand for video consultation since the ECQ was re-imposed in Metro Manila and nearby provinces last March.",
      "datePosted": "Apr 21, 2021 | 12:41 PM",
      "titleFromTag": "917Ventures"
    },
    {
      "title": "Globe: Network Builds To Continue Despite Quarantine Restrictions",
      "nonclickable": false,
      "openNewTab": false,
      "borderArticle": "border-color:#0074D9;",
      "borderTopArticle": "border-top-color:#0074D9;",
      "imageListing": "/sites/globe.com.ph/files/content/dam/globe/brie/AboutUs/newsroom/common/default-5/corporate-default-6-thumbnail-listing.jpg",
      "articleUrl": "https://www.globe.com.ph/about-us/newsroom/corporate/network-builds-continue-despite-quarantine-restrictions.html",
      "columnType": "articles--type-3",
      "typeListing": "article",
      "imageMobile": "/sites/globe.com.ph/files/content/dam/globe/brie/AboutUs/newsroom/common/default-5/corporate-default-6-primary-thumbnail-m.jpg",
      "imageDesktop": "/sites/globe.com.ph/files/content/dam/globe/brie/AboutUs/newsroom/common/default-5/corporate-default-6-primary-thumbnail-d.jpg",
      "description": "Globe commits to aggressive network builds for faster and better internet connectivity despite stricter quarantine measures in Metro Manila amid the pandemic.",
      "datePosted": "Apr 21, 2021 | 09:06 AM",
      "titleFromTag": "Corporate"
    },
    {
      "title": "Globe Elevates Global 5G Experience, Expands Coverage in Vietnam and Saudi Arabia",
      "nonclickable": false,
      "openNewTab": false,
      "borderArticle": "border-color:#0074D9;",
      "borderTopArticle": "border-top-color:#0074D9;",
      "imageListing": "/sites/globe.com.ph/files/content/dam/globe/brie/AboutUs/newsroom/corporate/globe-elevates-global-5g-experience-vietnam-saudi-arabia/newsroom-corporate-5g-vietnam-saudi-thumbnail-listing.jpg",
      "articleUrl": "https://www.globe.com.ph/about-us/newsroom/corporate/globe-elevates-global-5g-experience-vietnam-saudi-arabia.html",
      "columnType": "articles--type-3",
      "typeListing": "article",
      "imageMobile": "/sites/globe.com.ph/files/content/dam/globe/brie/AboutUs/newsroom/corporate/globe-elevates-global-5g-experience-vietnam-saudi-arabia/newsroom-corporate-5g-vietnam-saudi-primary-thumbnail-m.jpg",
      "imageDesktop": "/sites/globe.com.ph/files/content/dam/globe/brie/AboutUs/newsroom/corporate/globe-elevates-global-5g-experience-vietnam-saudi-arabia/newsroom-corporate-5g-vietnam-saudi-primary-thumbnail-d.jpg",
      "description": "Globe continues its push for 5G dominance as the company sealed partnerships in Vietnam and Saudi Arabia.",
      "datePosted": "Apr 20, 2021 | 05:45 PM",
      "titleFromTag": "Corporate"
    },
    {
      "title": "Globe Joins Global Mobile Industry in Celebrating Race to Zero Milestones",
      "nonclickable": false,
      "openNewTab": false,
      "borderArticle": "border-color:#1C91C5;",
      "borderTopArticle": "border-top-color:#1C91C5;",
      "imageListing": "/sites/globe.com.ph/files/content/dam/globe/brie/AboutUs/newsroom/sustainability/globe-joins-global-mobile-industry-race-to-zero-milestones/newsroom-sustainability-globe-joins-mobile-industry-thumbnail-listing.jpg",
      "articleUrl": "https://www.globe.com.ph/about-us/newsroom/sustainability/globe-joins-global-mobile-industry-race-to-zero-milestones.html",
      "columnType": "articles--type-3",
      "typeListing": "article",
      "imageMobile": "/sites/globe.com.ph/files/content/dam/globe/brie/AboutUs/newsroom/sustainability/globe-joins-global-mobile-industry-race-to-zero-milestones/newsroom-sustainability-globe-joins-mobile-industry-primary-thumbnail-m.jpg",
      "imageDesktop": "/sites/globe.com.ph/files/content/dam/globe/brie/AboutUs/newsroom/sustainability/globe-joins-global-mobile-industry-race-to-zero-milestones/newsroom-sustainability-globe-joins-mobile-industry-primary-thumbnail-d.jpg",
      "description": "GSMA has released the “Mobile Net Zero – State of the Industry on Climate Action 2021” report on Tuesday, April 21, 2021.",
      "datePosted": "Apr 20, 2021 | 04:57 PM",
      "titleFromTag": "Sustainability"
    },
    {
      "title": "Globe Launches Mobile Number Portability for Globe and TM Customers to Further Ease Customer Experience",
      "nonclickable": false,
      "openNewTab": false,
      "borderArticle": "border-color:#0074D9;",
      "borderTopArticle": "border-top-color:#0074D9;",
      "imageListing": "/sites/globe.com.ph/files/content/dam/globe/brie/AboutUs/newsroom/corporate/globe-launches-mobile-number-portability/newsroom-corporate-mobile-number-portability-thumbnail-listing.jpg",
      "articleUrl": "https://www.globe.com.ph/about-us/newsroom/corporate/globe-launches-mobile-number-portability.html",
      "columnType": "articles--type-3",
      "typeListing": "article",
      "imageMobile": "/sites/globe.com.ph/files/content/dam/globe/brie/AboutUs/newsroom/corporate/globe-launches-mobile-number-portability/newsroom-corporate-mobile-number-portability-primary-thumbnail-m.jpg",
      "imageDesktop": "/sites/globe.com.ph/files/content/dam/globe/brie/AboutUs/newsroom/corporate/globe-launches-mobile-number-portability/newsroom-corporate-mobile-number-portability-primary-thumbnail-d.jpg",
      "description": "With the mission to improve overall customer experience, Globe is officially launching its internal mobile number portability capability on April 21.",
      "datePosted": "Apr 20, 2021 | 04:23 PM",
      "titleFromTag": "Corporate"
    },
    {
      "title": "Globe Exceeds Build Targets in Q1 2021",
      "nonclickable": false,
      "openNewTab": false,
      "borderArticle": "border-color:#0074D9;",
      "borderTopArticle": "border-top-color:#0074D9;",
      "imageListing": "/sites/globe.com.ph/files/content/dam/globe/brie/AboutUs/newsroom/common/updated/Corporate-globe-thumbnail-listing.jpg",
      "articleUrl": "https://www.globe.com.ph/about-us/newsroom/corporate/globe-exceeds-builds-target-q1-2021.html",
      "columnType": "articles--type-3",
      "typeListing": "article",
      "imageMobile": "/sites/globe.com.ph/files/content/dam/globe/brie/AboutUs/newsroom/common/updated/Corporate-globe-primary-thumbnail-m.jpg",
      "imageDesktop": "/sites/globe.com.ph/files/content/dam/globe/brie/AboutUs/newsroom/common/updated/Corporate-globe-primary-thumbnail-d.jpg",
      "description": "Globe exceeded its network builds and modernization targets in the first quarter of the year.",
      "datePosted": "Apr 20, 2021 | 10:11 AM",
      "titleFromTag": "Corporate"
    },
    {
      "title": "Globe Extends Free Data Access to Educational Platforms Until 2022",
      "nonclickable": false,
      "openNewTab": false,
      "borderArticle": "border-color:#1C91C5;",
      "borderTopArticle": "border-top-color:#1C91C5;",
      "imageListing": "/sites/globe.com.ph/files/content/dam/globe/brie/AboutUs/newsroom/sustainability/globe-extends-free-data-access-educational-platforms-2022/newsroom-sustainability-free-data-2022-thumbnail-listing.jpg",
      "articleUrl": "https://www.globe.com.ph/about-us/newsroom/sustainability/globe-extends-free-data-access-educational-platforms-2022.html",
      "columnType": "articles--type-3",
      "typeListing": "article",
      "imageMobile": "/sites/globe.com.ph/files/content/dam/globe/brie/AboutUs/newsroom/sustainability/globe-extends-free-data-access-educational-platforms-2022/newsroom-sustainability-free-data-2022-primary-thumbnail-m.jpg",
      "imageDesktop": "/sites/globe.com.ph/files/content/dam/globe/brie/AboutUs/newsroom/sustainability/globe-extends-free-data-access-educational-platforms-2022/newsroom-sustainability-free-data-2022-primary-thumbnail-d.jpg",
      "description": "With students and teachers struggling to keep up with the demands of remote learning, Globe is extending free data access to the Globe eLibrary and essential learning platforms of the national government until 2022.",
      "datePosted": "Apr 19, 2021 | 05:21 PM",
      "titleFromTag": "Sustainability"
    },
    {
      "title": "Globe, DITO Now Interconnected on Mobile Calls, SMS",
      "nonclickable": false,
      "openNewTab": false,
      "borderArticle": "border-color:#0074D9;",
      "borderTopArticle": "border-top-color:#0074D9;",
      "imageListing": "/sites/globe.com.ph/files/content/dam/globe/brie/AboutUs/newsroom/common/updated/Corporate-globe-thumbnail-listing.jpg",
      "articleUrl": "https://www.globe.com.ph/about-us/newsroom/corporate/globe-dito-now-interconnected-mobile-calls-sms.html",
      "columnType": "articles--type-3",
      "typeListing": "article",
      "imageMobile": "/sites/globe.com.ph/files/content/dam/globe/brie/AboutUs/newsroom/common/updated/Corporate-globe-primary-thumbnail-m.jpg",
      "imageDesktop": "/sites/globe.com.ph/files/content/dam/globe/brie/AboutUs/newsroom/common/updated/Corporate-globe-primary-thumbnail-d.jpg",
      "description": "Globe and DITO subscribers can now make domestic mobile calls and send SMS to one another following the two telcos' successful interconnection of services.",
      "datePosted": "Apr 19, 2021 | 01:28 PM",
      "titleFromTag": "Corporate"
    }
  ]
}
