{
  "status": 200,
  "page": 128,
  "totalPage": 298,
  "range": "1525-1536",
  "total": 3573,
  "result": [
    {
      "title": "Globe Increases Manpower Support to Attend to Customers’ Broadband Concerns Faster",
      "nonclickable": false,
      "openNewTab": false,
      "borderArticle": "border-color:#0074D9;",
      "borderTopArticle": "border-top-color:#0074D9;",
      "imageListing": "/sites/globe.com.ph/files/content/dam/globe/brie/AboutUs/newsroom/corporate/globe-increases-manpower-support-broadband-concerns/newsroom-corporate-globe-increases-manpower-thumbnail-listing.jpg",
      "articleUrl": "https://www.globe.com.ph/about-us/newsroom/corporate/globe-increases-manpower-support-broadband-concerns.html",
      "columnType": "articles--type-3",
      "typeListing": "article",
      "imageMobile": "/sites/globe.com.ph/files/content/dam/globe/brie/AboutUs/newsroom/corporate/globe-increases-manpower-support-broadband-concerns/newsroom-corporate-globe-increases-manpower-primary-thumbnail-m.jpg",
      "imageDesktop": "/sites/globe.com.ph/files/content/dam/globe/brie/AboutUs/newsroom/corporate/globe-increases-manpower-support-broadband-concerns/newsroom-corporate-globe-increases-manpower-primary-thumbnail-d.jpg",
      "description": "Book an available slot for a technician visit through the Globe At Home app or the hotline’s digital assistant when quarantine guidelines permit.",
      "datePosted": "Apr 13, 2021 | 05:43 PM",
      "titleFromTag": "Corporate"
    },
    {
      "title": "‘Every Loss Makes Alex Stronger and Fiercer,’ Says Tennis Sensation’s Dad Mike Eala",
      "nonclickable": false,
      "openNewTab": false,
      "borderArticle": "border-color:#0074D9;",
      "borderTopArticle": "border-top-color:#0074D9;",
      "imageListing": "/sites/globe.com.ph/files/content/dam/globe/brie/AboutUs/newsroom/corporate/eala-enters-first-60k-dollar-tournament-switzerland/newsroom-corporate-eala-tournament-switzerland-thumbnail-listing.jpg",
      "articleUrl": "https://www.globe.com.ph/about-us/newsroom/corporate/every-loss-makes-alex-stronger-fiercer.html",
      "columnType": "articles--type-3",
      "typeListing": "article",
      "imageMobile": "/sites/globe.com.ph/files/content/dam/globe/brie/AboutUs/newsroom/corporate/eala-enters-first-60k-dollar-tournament-switzerland/newsroom-corporate-eala-tournament-switzerland-primary-thumbnail-m.jpg",
      "imageDesktop": "/sites/globe.com.ph/files/content/dam/globe/brie/AboutUs/newsroom/corporate/eala-enters-first-60k-dollar-tournament-switzerland/newsroom-corporate-eala-tournament-switzerland-primary-thumbnail-d.jpg",
      "description": "Alex’s parents are even grateful that their 15-year-old daughter is slowly inching closer to her dream of qualifying into the WTA grand slam tournaments.",
      "datePosted": "Apr 13, 2021 | 01:19 PM",
      "titleFromTag": "Corporate"
    },
    {
      "title": "Globe Rewards Equip Frontliners With Medical Support Through Points Donation",
      "nonclickable": false,
      "openNewTab": false,
      "borderArticle": "border-color:#1C91C5;",
      "borderTopArticle": "border-top-color:#1C91C5;",
      "imageListing": "/sites/globe.com.ph/files/content/dam/globe/brie/AboutUs/newsroom/common/updated/Corporate-globe-thumbnail-listing.jpg",
      "articleUrl": "https://www.globe.com.ph/about-us/newsroom/sustainability/globe-rewards-equip-frontliners-medical-support-points-donation.html",
      "columnType": "articles--type-3",
      "typeListing": "article",
      "imageMobile": "/sites/globe.com.ph/files/content/dam/globe/brie/AboutUs/newsroom/common/updated/Corporate-globe-primary-thumbnail-m.jpg",
      "imageDesktop": "/sites/globe.com.ph/files/content/dam/globe/brie/AboutUs/newsroom/common/updated/Corporate-globe-primary-thumbnail-d.jpg",
      "description": "Globe calls on its customers to play a part in the fight against Covid and lend their support to frontliners by donating their Globe Rewards points to the PGH Medical Foundation, Inc. (PGH-MFI).",
      "datePosted": "Apr 13, 2021 | 01:03 PM",
      "titleFromTag": "Sustainability"
    },
    {
      "title": "Globe Building 200 New Cell Sites in Batangas",
      "nonclickable": false,
      "openNewTab": false,
      "borderArticle": "border-color:#0074D9;",
      "borderTopArticle": "border-top-color:#0074D9;",
      "imageListing": "/sites/globe.com.ph/files/content/dam/globe/brie/AboutUs/newsroom/corporate/globe-building-200-new-cell-sites-batangas/newsroom-corporate-200-sites-batangas-thumbnail-listing.jpg",
      "articleUrl": "https://www.globe.com.ph/about-us/newsroom/corporate/globe-building-200-new-cell-sites-batangas.html",
      "columnType": "articles--type-3",
      "typeListing": "article",
      "imageMobile": "/sites/globe.com.ph/files/content/dam/globe/brie/AboutUs/newsroom/corporate/globe-building-200-new-cell-sites-batangas/newsroom-corporate-200-sites-batangas-primary-thumbnail-m.jpg",
      "imageDesktop": "/sites/globe.com.ph/files/content/dam/globe/brie/AboutUs/newsroom/corporate/globe-building-200-new-cell-sites-batangas/newsroom-corporate-200-sites-batangas-primary-thumbnail-d.jpg",
      "description": "Globe is planning to build 200 new cell sites in Batangas this year as part of the telco’s sustained network builds.",
      "datePosted": "Apr 12, 2021 | 11:49 AM",
      "titleFromTag": "Corporate"
    },
    {
      "title": "#PlayItRight and Catch the Best Seats in the House As DC’s “Wonder Woman 1984” Streams First in PH With HBO GO",
      "nonclickable": false,
      "openNewTab": false,
      "borderArticle": "border-color:#0074D9;",
      "borderTopArticle": "border-top-color:#0074D9;",
      "imageListing": "/sites/globe.com.ph/files/content/dam/globe/brie/AboutUs/newsroom/consumer/dc-wonder-woman-1984-streams-first-ph-hbo-go/newsroom-consumer-wonder-woman-1984-thumbnail-listing.jpg",
      "articleUrl": "https://www.globe.com.ph/about-us/newsroom/consumer/dc-wonder-woman-1984-streams-first-ph-hbo-go.html",
      "columnType": "articles--type-3",
      "typeListing": "article",
      "imageMobile": "/sites/globe.com.ph/files/content/dam/globe/brie/AboutUs/newsroom/consumer/dc-wonder-woman-1984-streams-first-ph-hbo-go/newsroom-consumer-wonder-woman-1984-primary-thumbnail-m.jpg",
      "imageDesktop": "/sites/globe.com.ph/files/content/dam/globe/brie/AboutUs/newsroom/consumer/dc-wonder-woman-1984-streams-first-ph-hbo-go/newsroom-consumer-wonder-woman-1984-primary-thumbnail-d.jpg",
      "description": "Globe proudly announces that its content partner HBO GO will be the first in the Philippines to premiere DC’s Wonder Woman 1984 this month.",
      "datePosted": "Apr 12, 2021 | 11:02 AM",
      "titleFromTag": "Consumer"
    },
    {
      "title": "Eala Bows Out of Bellinzona Tournament in Switzerland",
      "nonclickable": false,
      "openNewTab": false,
      "borderArticle": "border-color:#0074D9;",
      "borderTopArticle": "border-top-color:#0074D9;",
      "imageListing": "/sites/globe.com.ph/files/content/dam/globe/brie/AboutUs/newsroom/corporate/eala-makes-rousing-debut-bellinzona-w60-tilt/newsroom-corporate-eala-bellinzona-w60-thumbnail-listing.jpg",
      "articleUrl": "https://www.globe.com.ph/about-us/newsroom/corporate/eala-bows-out-bellinzona-tournament-switzerland.html",
      "columnType": "articles--type-3",
      "typeListing": "article",
      "imageMobile": "/sites/globe.com.ph/files/content/dam/globe/brie/AboutUs/newsroom/corporate/eala-makes-rousing-debut-bellinzona-w60-tilt/newsroom-corporate-eala-bellinzona-w60-primary-thumbnail-m.jpg",
      "imageDesktop": "/sites/globe.com.ph/files/content/dam/globe/brie/AboutUs/newsroom/corporate/eala-makes-rousing-debut-bellinzona-w60-tilt/newsroom-corporate-eala-bellinzona-w60-primary-thumbnail-d.jpg",
      "description": "Alex Eala displays stellar performance at the W60 Bellinzona tournament in Switzerland, reaching the third round before falling to Simona Waltert in three sets.",
      "datePosted": "Apr 09, 2021 | 03:55 PM",
      "titleFromTag": "Corporate"
    },
    {
      "title": "Globe and Partners Double Up Reforestation, CO2 Reduction Efforts",
      "nonclickable": false,
      "openNewTab": false,
      "borderArticle": "border-color:#1C91C5;",
      "borderTopArticle": "border-top-color:#1C91C5;",
      "imageListing": "/sites/globe.com.ph/files/content/dam/globe/brie/AboutUs/newsroom/sustainability/globe-partners-doubling-up-reforestation-co2-reduction-efforts/newsroom-sustainability-reforestation-co2-reduction-thumbnail-listing.jpg",
      "articleUrl": "https://www.globe.com.ph/about-us/newsroom/sustainability/globe-partners-doubling-up-reforestation-co2-reduction-efforts.html",
      "columnType": "articles--type-3",
      "typeListing": "article",
      "imageMobile": "/sites/globe.com.ph/files/content/dam/globe/brie/AboutUs/newsroom/sustainability/globe-partners-doubling-up-reforestation-co2-reduction-efforts/newsroom-sustainability-reforestation-co2-reduction-primary-thumbnail-m.jpg",
      "imageDesktop": "/sites/globe.com.ph/files/content/dam/globe/brie/AboutUs/newsroom/sustainability/globe-partners-doubling-up-reforestation-co2-reduction-efforts/newsroom-sustainability-reforestation-co2-reduction-primary-thumbnail-d.jpg",
      "description": "Globe is doubling reforestation, watershed conservation, and CO2 reduction efforts to combat climate change.",
      "datePosted": "Apr 09, 2021 | 09:01 AM",
      "titleFromTag": "Sustainability"
    },
    {
      "title": "Globe to Complete 43 Site Upgrades in Guimaras by September",
      "nonclickable": false,
      "openNewTab": false,
      "borderArticle": "border-color:#0074D9;",
      "borderTopArticle": "border-top-color:#0074D9;",
      "imageListing": "/sites/globe.com.ph/files/content/dam/globe/brie/AboutUs/newsroom/corporate/globe-complete-43-site-upgrades-guimaras-september/newsroom-corporate-43-sites-guimaras-thumbnail-listing.jpg",
      "articleUrl": "https://www.globe.com.ph/about-us/newsroom/corporate/globe-complete-43-site-upgrades-guimaras-september.html",
      "columnType": "articles--type-3",
      "typeListing": "article",
      "imageMobile": "/sites/globe.com.ph/files/content/dam/globe/brie/AboutUs/newsroom/corporate/globe-complete-43-site-upgrades-guimaras-september/newsroom-corporate-43-sites-guimaras-primary-thumbnail-m.jpg",
      "imageDesktop": "/sites/globe.com.ph/files/content/dam/globe/brie/AboutUs/newsroom/corporate/globe-complete-43-site-upgrades-guimaras-september/newsroom-corporate-43-sites-guimaras-primary-thumbnail-d.jpg",
      "description": "Globe is beefing up its site upgrades in the province of Guimaras, known as the mango capital of the Philippines.",
      "datePosted": "Apr 08, 2021 | 07:39 PM",
      "titleFromTag": "Corporate"
    },
    {
      "title": "Ookla®: Globe Fastest Download Speeds in 10 of 17 regions in Q1 2021",
      "nonclickable": false,
      "openNewTab": false,
      "borderArticle": "border-color:#0074D9;",
      "borderTopArticle": "border-top-color:#0074D9;",
      "imageListing": "/sites/globe.com.ph/files/content/dam/globe/brie/AboutUs/newsroom/corporate/globe-fastest-download-speeds-10-regions-q1-2021/newsroom-corporate-regions-q1-ookla-thumbnail-listing.jpg",
      "articleUrl": "https://www.globe.com.ph/about-us/newsroom/corporate/globe-fastest-download-speeds-10-regions-q1-2021.html",
      "columnType": "articles--type-3",
      "typeListing": "article",
      "imageMobile": "/sites/globe.com.ph/files/content/dam/globe/brie/AboutUs/newsroom/corporate/globe-fastest-download-speeds-10-regions-q1-2021/newsroom-corporate-regions-q1-ookla-primary-thumbnail-m.jpg",
      "imageDesktop": "/sites/globe.com.ph/files/content/dam/globe/brie/AboutUs/newsroom/corporate/globe-fastest-download-speeds-10-regions-q1-2021/newsroom-corporate-regions-q1-ookla-primary-thumbnail-d.jpg",
      "description": "Globe beats competition across 10 out of 17 regions in the Philippines in terms of mobile download speed based on Ookla®’s Q1 2021 data.",
      "datePosted": "Apr 08, 2021 | 04:27 PM",
      "titleFromTag": "Corporate"
    },
    {
      "title": "Globe Keeps HERO Foundation Scholars Connected",
      "nonclickable": false,
      "openNewTab": false,
      "borderArticle": "border-color:#1C91C5;",
      "borderTopArticle": "border-top-color:#1C91C5;",
      "imageListing": "/sites/globe.com.ph/files/content/dam/globe/brie/AboutUs/newsroom/sustainability/globe-keeps-hero-foundation-scholars-connected/newsroom-sustainability-hero-foundation-scholars-thumbnail-listing.jpg",
      "articleUrl": "https://www.globe.com.ph/about-us/newsroom/sustainability/globe-keeps-hero-foundation-scholars-connected.html",
      "columnType": "articles--type-3",
      "typeListing": "article",
      "imageMobile": "/sites/globe.com.ph/files/content/dam/globe/brie/AboutUs/newsroom/sustainability/globe-keeps-hero-foundation-scholars-connected/newsroom-sustainability-hero-foundation-scholars-primary-thumbnail-m.jpg",
      "imageDesktop": "/sites/globe.com.ph/files/content/dam/globe/brie/AboutUs/newsroom/sustainability/globe-keeps-hero-foundation-scholars-connected/newsroom-sustainability-hero-foundation-scholars-primary-thumbnail-d.jpg",
      "description": "To support the scholars, Globe is giving 260 scholars a Globe At Home Prepaid WiFi modem and a load subsidy of P1,000.",
      "datePosted": "Apr 08, 2021 | 12:47 PM",
      "titleFromTag": "Sustainability"
    },
    {
      "title": "Eala Continues Amazing Run in Bellinzona W60 Tilt; Beats Ioana-Paar in 2nd Round",
      "nonclickable": false,
      "openNewTab": false,
      "borderArticle": "border-color:#0074D9;",
      "borderTopArticle": "border-top-color:#0074D9;",
      "imageListing": "/sites/globe.com.ph/files/content/dam/globe/brie/AboutUs/newsroom/corporate/eala-makes-rousing-debut-bellinzona-w60-tilt/newsroom-corporate-eala-bellinzona-w60-thumbnail-listing.jpg",
      "articleUrl": "https://www.globe.com.ph/about-us/newsroom/corporate/eala-continues-amazing-run-bellinzona-w60-tilt.html",
      "columnType": "articles--type-3",
      "typeListing": "article",
      "imageMobile": "/sites/globe.com.ph/files/content/dam/globe/brie/AboutUs/newsroom/corporate/eala-makes-rousing-debut-bellinzona-w60-tilt/newsroom-corporate-eala-bellinzona-w60-primary-thumbnail-m.jpg",
      "imageDesktop": "/sites/globe.com.ph/files/content/dam/globe/brie/AboutUs/newsroom/corporate/eala-makes-rousing-debut-bellinzona-w60-tilt/newsroom-corporate-eala-bellinzona-w60-primary-thumbnail-d.jpg",
      "description": "The teen ace continued to impress in one of the biggest tournaments of her young career as she moved on to the Round of 16 in Bellinzona.",
      "datePosted": "Apr 08, 2021 | 10:29 AM",
      "titleFromTag": "Corporate"
    },
    {
      "title": "‘Hindi Ako Nagsisisi, Magpalit na po kayo ng SIM’: Baler Local Praises Globe 4G LTE SIM Benefits",
      "nonclickable": false,
      "openNewTab": false,
      "borderArticle": "border-color:#0074D9;",
      "borderTopArticle": "border-top-color:#0074D9;",
      "imageListing": "/sites/globe.com.ph/files/content/dam/globe/brie/AboutUs/newsroom/corporate/baler-local-praises-globe-4g-lte-sim-benefits/newsroom-corporate-baler-local-4g-thumbnail-listing.jpg",
      "articleUrl": "https://www.globe.com.ph/about-us/newsroom/corporate/baler-local-praises-globe-4g-lte-sim-benefits.html",
      "columnType": "articles--type-3",
      "typeListing": "article",
      "imageMobile": "/sites/globe.com.ph/files/content/dam/globe/brie/AboutUs/newsroom/corporate/baler-local-praises-globe-4g-lte-sim-benefits/newsroom-corporate-baler-local-4g-primary-thumbnail-m.jpg",
      "imageDesktop": "/sites/globe.com.ph/files/content/dam/globe/brie/AboutUs/newsroom/corporate/baler-local-praises-globe-4g-lte-sim-benefits/newsroom-corporate-baler-local-4g-primary-thumbnail-d.jpg",
      "description": "Globe customers in Baler are now experiencing significant improvements in their call, SMS, data browsing services after upgrading to 5G-ready 4G LTE SIM cards.",
      "datePosted": "Apr 08, 2021 | 09:53 AM",
      "titleFromTag": "Corporate"
    }
  ]
}
