{
  "status": 200,
  "page": 129,
  "totalPage": 298,
  "range": "1537-1548",
  "total": 3573,
  "result": [
    {
      "title": "Globe Calls on Customers to Participate in E-Waste Recycling",
      "nonclickable": false,
      "openNewTab": false,
      "borderArticle": "border-color:#1C91C5;",
      "borderTopArticle": "border-top-color:#1C91C5;",
      "imageListing": "/sites/globe.com.ph/files/content/dam/globe/brie/AboutUs/newsroom/sustainability/globe-calls-customers-participate-e-waste-recycling/newsroom-sustainability-calls-customers-participate-thumbnail-listing.jpg",
      "articleUrl": "https://www.globe.com.ph/about-us/newsroom/sustainability/globe-calls-customers-participate-e-waste-recycling.html",
      "columnType": "articles--type-3",
      "typeListing": "article",
      "imageMobile": "/sites/globe.com.ph/files/content/dam/globe/brie/AboutUs/newsroom/sustainability/globe-calls-customers-participate-e-waste-recycling/newsroom-sustainability-calls-customers-participate-primary-thumbnail-m.jpg",
      "imageDesktop": "/sites/globe.com.ph/files/content/dam/globe/brie/AboutUs/newsroom/sustainability/globe-calls-customers-participate-e-waste-recycling/newsroom-sustainability-calls-customers-participate-primary-thumbnail-d.jpg",
      "description": "Globe sees climate change as a significant risk and advocates collective efforts to mitigate its impact while offering customers ways to contribute positively.",
      "datePosted": "Apr 07, 2021 | 01:19 PM",
      "titleFromTag": "Sustainability"
    },
    {
      "title": "Eala Makes Rousing Debut in Bellinzona W60 Tilt",
      "nonclickable": false,
      "openNewTab": false,
      "borderArticle": "border-color:#0074D9;",
      "borderTopArticle": "border-top-color:#0074D9;",
      "imageListing": "/sites/globe.com.ph/files/content/dam/globe/brie/AboutUs/newsroom/corporate/eala-makes-rousing-debut-bellinzona-w60-tilt/newsroom-corporate-eala-bellinzona-w60-thumbnail-listing.jpg",
      "articleUrl": "https://www.globe.com.ph/about-us/newsroom/corporate/eala-makes-rousing-debut-bellinzona-w60-tilt.html",
      "columnType": "articles--type-3",
      "typeListing": "article",
      "imageMobile": "/sites/globe.com.ph/files/content/dam/globe/brie/AboutUs/newsroom/corporate/eala-makes-rousing-debut-bellinzona-w60-tilt/newsroom-corporate-eala-bellinzona-w60-primary-thumbnail-m.jpg",
      "imageDesktop": "/sites/globe.com.ph/files/content/dam/globe/brie/AboutUs/newsroom/corporate/eala-makes-rousing-debut-bellinzona-w60-tilt/newsroom-corporate-eala-bellinzona-w60-primary-thumbnail-d.jpg",
      "description": "Alex Eala opened her campaign in the W60 Bellinzona tournament by dispatching Margot Yerolymos of France in straight sets in Bellinzona, Switzerland.",
      "datePosted": "Apr 07, 2021 | 11:51 AM",
      "titleFromTag": "Corporate"
    },
    {
      "title": "Globe Virtual Hangouts Brings a Reinvented Concert Experience With GoJAM Live X Karpos Live 360 Sessions",
      "nonclickable": false,
      "openNewTab": false,
      "borderArticle": "border-color:#0074D9;",
      "borderTopArticle": "border-top-color:#0074D9;",
      "imageListing": "/sites/globe.com.ph/files/content/dam/globe/brie/AboutUs/newsroom/consumer/globe-virtual-hangouts-brings-reinvented-concert-experience/newsroom-consumer-reinvent-concert-experience-thumbnail-listing.jpg",
      "articleUrl": "https://www.globe.com.ph/about-us/newsroom/consumer/globe-virtual-hangouts-brings-reinvented-concert-experience.html",
      "columnType": "articles--type-3",
      "typeListing": "article",
      "imageMobile": "/sites/globe.com.ph/files/content/dam/globe/brie/AboutUs/newsroom/consumer/globe-virtual-hangouts-brings-reinvented-concert-experience/newsroom-consumer-reinvent-concert-experience-primary-thumbnail-m.jpg",
      "imageDesktop": "/sites/globe.com.ph/files/content/dam/globe/brie/AboutUs/newsroom/consumer/globe-virtual-hangouts-brings-reinvented-concert-experience/newsroom-consumer-reinvent-concert-experience-primary-thumbnail-d.jpg",
      "description": "This year's Globe Virtual Hangouts starts off with the GoJAM Live x Karpos Live 360 Session, you can see your favorite bands and artists perform live!",
      "datePosted": "Apr 07, 2021 | 11:35 AM",
      "titleFromTag": "Consumer"
    },
    {
      "title": "Empowering Customers With Globe’s Data Manager",
      "nonclickable": false,
      "openNewTab": false,
      "borderArticle": "border-color:#0074D9;",
      "borderTopArticle": "border-top-color:#0074D9;",
      "imageListing": "/sites/globe.com.ph/files/content/dam/globe/brie/AboutUs/newsroom/consumer/empowering-customers-globe-data-manager/newsroom-consumer-globe-data-manager-thumbnail-listing.jpg",
      "articleUrl": "https://www.globe.com.ph/about-us/newsroom/consumer/empowering-customers-globe-data-manager.html",
      "columnType": "articles--type-3",
      "typeListing": "article",
      "imageMobile": "/sites/globe.com.ph/files/content/dam/globe/brie/AboutUs/newsroom/consumer/empowering-customers-globe-data-manager/newsroom-consumer-globe-data-manager-primary-thumbnail-m.jpg",
      "imageDesktop": "/sites/globe.com.ph/files/content/dam/globe/brie/AboutUs/newsroom/consumer/empowering-customers-globe-data-manager/newsroom-consumer-globe-data-manager-primary-thumbnail-d.jpg",
      "description": "Data Manager provides Globe Prepaid and TM customers on Android a comprehensive understanding of their data consumption by showing its breakdown.",
      "datePosted": "Apr 07, 2021 | 11:35 AM",
      "titleFromTag": "Consumer"
    },
    {
      "title": "'Hindi Lang Pang-Mayaman': Globe At Home on Providing Internet Access for the Masses",
      "nonclickable": false,
      "openNewTab": false,
      "borderArticle": "border-color:#0074D9;",
      "borderTopArticle": "border-top-color:#0074D9;",
      "imageListing": "/sites/globe.com.ph/files/content/dam/globe/brie/AboutUs/newsroom/common/default-4/default-consumer-3-thumbnail-listing.jpg",
      "articleUrl": "https://www.globe.com.ph/about-us/newsroom/consumer/globe-at-home-providing-internet-access-masses.html",
      "columnType": "articles--type-3",
      "typeListing": "article",
      "imageMobile": "/sites/globe.com.ph/files/content/dam/globe/brie/AboutUs/newsroom/common/default-4/default-consumer-3-primary-thumbnail-m.jpg",
      "imageDesktop": "/sites/globe.com.ph/files/content/dam/globe/brie/AboutUs/newsroom/common/default-4/default-consumer-3-primary-thumbnail-d.jpg",
      "description": "As Globe At Home’s customers cope with the new normal, Globe did its best to pivot and address their growing needs from connectivity to customer experience. ",
      "datePosted": "Apr 07, 2021 | 11:24 AM",
      "titleFromTag": "Consumer"
    },
    {
      "title": "Help Alleviate Hunger Through Globe Rewards and GCash",
      "nonclickable": false,
      "openNewTab": false,
      "borderArticle": "border-color:#1C91C5;",
      "borderTopArticle": "border-top-color:#1C91C5;",
      "imageListing": "/sites/globe.com.ph/files/content/dam/globe/brie/AboutUs/newsroom/sustainability/help-alleviate-hunger-globe-rewards-gcash/newsroom-sustainability-help-alleviate-hunger-thumbnail-listing.jpg",
      "articleUrl": "https://www.globe.com.ph/about-us/newsroom/sustainability/help-alleviate-hunger-globe-rewards-gcash.html",
      "columnType": "articles--type-3",
      "typeListing": "article",
      "imageMobile": "/sites/globe.com.ph/files/content/dam/globe/brie/AboutUs/newsroom/sustainability/help-alleviate-hunger-globe-rewards-gcash/newsroom-sustainability-help-alleviate-hunger-primary-thumbnail-m.jpg",
      "imageDesktop": "/sites/globe.com.ph/files/content/dam/globe/brie/AboutUs/newsroom/sustainability/help-alleviate-hunger-globe-rewards-gcash/newsroom-sustainability-help-alleviate-hunger-primary-thumbnail-d.jpg",
      "description": "The National Capital Region (NCR), Bulacan, Cavite, Laguna, and Rizal are once again under Enhanced Community Quarantine (ECQ).",
      "datePosted": "Apr 06, 2021 | 04:15 PM",
      "titleFromTag": "Sustainability"
    },
    {
      "title": "Globe Helps Lay Foundation for World-Class Filipino Engineers",
      "nonclickable": false,
      "openNewTab": false,
      "borderArticle": "border-color:#0074D9;",
      "borderTopArticle": "border-top-color:#0074D9;",
      "imageListing": "/sites/globe.com.ph/files/content/dam/globe/brie/AboutUs/newsroom/corporate/globe-helps-lay-foundation-world-class-filipino-engineers/newsroom-corporate-foundation-filipino-engineers-thumbnail-listing.jpg",
      "articleUrl": "https://www.globe.com.ph/about-us/newsroom/corporate/globe-helps-lay-foundation-world-class-filipino-engineers.html",
      "columnType": "articles--type-3",
      "typeListing": "article",
      "imageMobile": "/sites/globe.com.ph/files/content/dam/globe/brie/AboutUs/newsroom/corporate/globe-helps-lay-foundation-world-class-filipino-engineers/newsroom-corporate-foundation-filipino-engineers-primary-thumbnail-m.jpg",
      "imageDesktop": "/sites/globe.com.ph/files/content/dam/globe/brie/AboutUs/newsroom/corporate/globe-helps-lay-foundation-world-class-filipino-engineers/newsroom-corporate-foundation-filipino-engineers-primary-thumbnail-d.jpg",
      "description": "Globe celebrated World Engineering Day for Sustainable Development in partnership with Manila Water Foundation, DOST, and the Philippine Technological Council.",
      "datePosted": "Apr 06, 2021 | 12:17 PM",
      "titleFromTag": "Corporate"
    },
    {
      "title": "#ExtraCareAtHome: Globe Committed to Deliver Service Support to Customers Under Extended ECQ",
      "nonclickable": false,
      "openNewTab": false,
      "borderArticle": "border-color:#0074D9;",
      "borderTopArticle": "border-top-color:#0074D9;",
      "imageListing": "/sites/globe.com.ph/files/content/dam/globe/brie/AboutUs/newsroom/common/default-6/corporate-default-8-thumbnail-listing.jpg",
      "articleUrl": "https://www.globe.com.ph/about-us/newsroom/consumer/service-support-customers-under-extended-ecq.html",
      "columnType": "articles--type-3",
      "typeListing": "article",
      "imageMobile": "/sites/globe.com.ph/files/content/dam/globe/brie/AboutUs/newsroom/common/default-6/corporate-default-8-primary-thumbnail-m.jpg",
      "imageDesktop": "/sites/globe.com.ph/files/content/dam/globe/brie/AboutUs/newsroom/common/default-6/corporate-default-8-primary-thumbnail-d.jpg",
      "description": "Globe assures its customers that it will continuously deliver service support and #ExtraCareAtHome amid the extended enhanced community quarantine covering Metro Manila, Bulacan, Cavite, Rizal and Laguna.",
      "datePosted": "Apr 05, 2021 | 02:51 PM",
      "titleFromTag": "Consumer"
    },
    {
      "title": "Globe Pilots HopeChat, 24/7 Mental Health Consultation for Employees",
      "nonclickable": false,
      "openNewTab": false,
      "borderArticle": "border-color:#1C91C5;",
      "borderTopArticle": "border-top-color:#1C91C5;",
      "imageListing": "/sites/globe.com.ph/files/content/dam/globe/brie/AboutUs/newsroom/sustainability/globe-pilots-hopechat-mental-health-consultation-employees/newsroom-sustainability-hopechat-mental-health-thumbnail-listing.jpg",
      "articleUrl": "https://www.globe.com.ph/about-us/newsroom/sustainability/globe-pilots-hopechat-mental-health-consultation-employees.html",
      "columnType": "articles--type-3",
      "typeListing": "article",
      "imageMobile": "/sites/globe.com.ph/files/content/dam/globe/brie/AboutUs/newsroom/sustainability/globe-pilots-hopechat-mental-health-consultation-employees/newsroom-sustainability-hopechat-mental-health-primary-thumbnail-m.jpg",
      "imageDesktop": "/sites/globe.com.ph/files/content/dam/globe/brie/AboutUs/newsroom/sustainability/globe-pilots-hopechat-mental-health-consultation-employees/newsroom-sustainability-hopechat-mental-health-primary-thumbnail-d.jpg",
      "description": "A first in the country, Globe piloted the service to its over 8,000 employees in July 2020 to help them cope with the psychological impact caused by COVID-19.",
      "datePosted": "Apr 05, 2021 | 01:51 PM",
      "titleFromTag": "Sustainability"
    },
    {
      "title": "Globe and Third Pillar: Connecting With Customers Through the World’s #1 CRM Solution",
      "nonclickable": false,
      "openNewTab": false,
      "borderArticle": "border-color:#0074D9;",
      "borderTopArticle": "border-top-color:#0074D9;",
      "imageListing": "/sites/globe.com.ph/files/content/dam/globe/brie/AboutUs/newsroom/business/connecting-customers-worlds-number-one-crm-solution/revision-2/newsroom-business-connecting-customers-crm-thumbnail-listing.jpg",
      "articleUrl": "https://www.globe.com.ph/about-us/newsroom/business/connecting-customers-worlds-number-one-crm-solution.html",
      "columnType": "articles--type-3",
      "typeListing": "article",
      "imageMobile": "/sites/globe.com.ph/files/content/dam/globe/brie/AboutUs/newsroom/business/connecting-customers-worlds-number-one-crm-solution/revision-2/newsroom-business-connecting-customers-crm-primary-thumbnail-m.jpg",
      "imageDesktop": "/sites/globe.com.ph/files/content/dam/globe/brie/AboutUs/newsroom/business/connecting-customers-worlds-number-one-crm-solution/revision-2/newsroom-business-connecting-customers-crm-primary-thumbnail-d.jpg",
      "description": "Globe Business and Globe myBusiness acquired a 67% stake in Third Pillar, the Philippines' largest Gold Partner of Salesforce, the top CRM solutions provider.",
      "datePosted": "Apr 05, 2021 | 01:19 PM",
      "titleFromTag": "Business"
    },
    {
      "title": "Don’t Miss This Lockdown Romance-Themed Movie! Book Your Tickets to ‘Dito at Doon’ on GMovies!",
      "nonclickable": false,
      "openNewTab": false,
      "borderArticle": "border-color:#0074D9;",
      "borderTopArticle": "border-top-color:#0074D9;",
      "imageListing": "/sites/globe.com.ph/files/content/dam/globe/brie/AboutUs/newsroom/consumer/book-your-tickets-dito-at-doon-gmovies/newsroom-consumer-dito-at-doon-thumbnail-listing.jpg",
      "articleUrl": "https://www.globe.com.ph/about-us/newsroom/consumer/book-your-tickets-dito-at-doon-gmovies.html",
      "columnType": "articles--type-3",
      "typeListing": "article",
      "imageMobile": "/sites/globe.com.ph/files/content/dam/globe/brie/AboutUs/newsroom/consumer/book-your-tickets-dito-at-doon-gmovies/newsroom-consumer-dito-at-doon-primary-thumbnail-m.jpg",
      "imageDesktop": "/sites/globe.com.ph/files/content/dam/globe/brie/AboutUs/newsroom/consumer/book-your-tickets-dito-at-doon-gmovies/newsroom-consumer-dito-at-doon-primary-thumbnail-d.jpg",
      "description": "TBA Studios’ latest movie offering, Dito at Doon, will accompany us on a journey of loving somebody amidst the uncertainties.",
      "datePosted": "Apr 05, 2021 | 12:24 PM",
      "titleFromTag": "Consumer"
    },
    {
      "title": "More Builds, Site Upgrades Bring Improved Globe Services in Aurora, Sorsogon",
      "nonclickable": false,
      "openNewTab": false,
      "borderArticle": "border-color:#0074D9;",
      "borderTopArticle": "border-top-color:#0074D9;",
      "imageListing": "/sites/globe.com.ph/files/content/dam/globe/brie/AboutUs/newsroom/common/default-5/corporate-default-6-thumbnail-listing.jpg",
      "articleUrl": "https://www.globe.com.ph/about-us/newsroom/corporate/builds-site-upgrades-improved-globe-services-aurora-sorsogon.html",
      "columnType": "articles--type-3",
      "typeListing": "article",
      "imageMobile": "/sites/globe.com.ph/files/content/dam/globe/brie/AboutUs/newsroom/common/default-5/corporate-default-6-primary-thumbnail-m.jpg",
      "imageDesktop": "/sites/globe.com.ph/files/content/dam/globe/brie/AboutUs/newsroom/common/default-5/corporate-default-6-primary-thumbnail-d.jpg",
      "description": "Globe’s aggressive builds and modernization of its network to 4G LTE are expected to bring better and more enjoyable mobile experience to its customers in key locations in Aurora and Sorsogon provinces.",
      "datePosted": "Apr 05, 2021 | 11:35 AM",
      "titleFromTag": "Corporate"
    }
  ]
}
