{
  "status": 200,
  "page": 13,
  "totalPage": 298,
  "range": "145-156",
  "total": 3573,
  "result": [
    {
      "title": "Globe Says Mobile Download and Upload Speeds in 127 Areas Much Improved in Q2 2023",
      "nonclickable": false,
      "openNewTab": false,
      "borderArticle": "border-color:#0074D9;",
      "borderTopArticle": "border-top-color:#0074D9;",
      "imageListing": "/sites/globe.com.ph/files/content/dam/globe/brie/AboutUs/newsroom/common/default-corporate-13/corp-listing-thumbnail.jpg",
      "articleUrl": "https://www.globe.com.ph/about-us/newsroom/corporate/mobile-download-upload-speed-improved-q2-2023.html",
      "columnType": "articles--type-3",
      "typeListing": "article",
      "imageMobile": "/sites/globe.com.ph/files/content/dam/globe/brie/AboutUs/newsroom/common/default-corporate-13/corp-primary-banner-m.jpg",
      "imageDesktop": "/sites/globe.com.ph/files/content/dam/globe/brie/AboutUs/newsroom/common/default-corporate-13/corp-primary-thumbnail.jpg",
      "description": "Globe sees great improvement in mobile upload and download speeds in 127 areas in the second quarter of 2023. ",
      "datePosted": "Aug 31, 2023 | 10:39 AM",
      "titleFromTag": "Corporate"
    },
    {
      "title": "See Michelangelo’s Historic Art, Help Vulnerable Families via the Hapag Movement",
      "nonclickable": false,
      "openNewTab": false,
      "borderArticle": "border-color:#0074D9;",
      "borderTopArticle": "border-top-color:#0074D9;",
      "imageListing": "/sites/globe.com.ph/files/content/dam/globe/brie/AboutUs/newsroom/common/default-sustainability-2/corp-default-images-thumbnail-listing.jpg",
      "articleUrl": "https://www.globe.com.ph/about-us/newsroom/sustainability/see-michelangelos-historic-art-help-vulnerable-families.html",
      "columnType": "articles--type-3",
      "typeListing": "article",
      "imageMobile": "/sites/globe.com.ph/files/content/dam/globe/brie/AboutUs/newsroom/common/default-sustainability-2/corp-default-images-primary-thumbnail-m.jpg",
      "imageDesktop": "/sites/globe.com.ph/files/content/dam/globe/brie/AboutUs/newsroom/common/default-sustainability-2/corp-default-images-primary-thumbnail-d.jpg",
      "description": "Globe and ATIN Global Inc. combine artistic brilliance and commitment to philanthropy through “Michelangelo's Sistine Chapel: The Exhibition.”",
      "datePosted": "Aug 31, 2023 | 10:37 AM",
      "titleFromTag": "Sustainability"
    },
    {
      "title": "Globe Marks 8th Consecutive Year in FTSE4Good Index Series",
      "nonclickable": false,
      "openNewTab": false,
      "borderArticle": "border-color:#0074D9;",
      "borderTopArticle": "border-top-color:#0074D9;",
      "imageListing": "/sites/globe.com.ph/files/content/dam/globe/brie/AboutUs/newsroom/common/default-sustainability-3/corp-default-images-thumbnail-listing.jpg",
      "articleUrl": "https://www.globe.com.ph/about-us/newsroom/sustainability/8th-consecutive-year-ftse4good-index-series.html",
      "columnType": "articles--type-3",
      "typeListing": "article",
      "imageMobile": "/sites/globe.com.ph/files/content/dam/globe/brie/AboutUs/newsroom/common/default-sustainability-3/corp-default-images-primary-thumbnail-m.jpg",
      "imageDesktop": "/sites/globe.com.ph/files/content/dam/globe/brie/AboutUs/newsroom/common/default-sustainability-3/corp-default-images-primary-thumbnail-d.jpg",
      "description": "Globe has been included in the FTSE4Good Index Series, reflecting the organization's continued dedication to implementing ESG practices across its operations.",
      "datePosted": "Aug 31, 2023 | 10:35 AM",
      "titleFromTag": "Sustainability"
    },
    {
      "title": "Globe’s 917Ventures, Ayala Corp, and Gogoro Announce Joint Venture to Accelerate Sustainable Urban Transportation in the Philippines",
      "nonclickable": false,
      "openNewTab": false,
      "borderArticle": "border-color:#0074D9;",
      "borderTopArticle": "border-top-color:#0074D9;",
      "imageListing": "/sites/globe.com.ph/files/content/dam/globe/brie/AboutUs/newsroom/917ventures/accelerating-sustainable-urban-transportation-ph/corp-917ventures-thumbnail-listing.jpg",
      "articleUrl": "https://www.globe.com.ph/about-us/newsroom/917ventures/accelerating-sustainable-urban-transportation-ph.html",
      "columnType": "articles--type-3",
      "typeListing": "article",
      "imageMobile": "/sites/globe.com.ph/files/content/dam/globe/brie/AboutUs/newsroom/917ventures/accelerating-sustainable-urban-transportation-ph/corp-917ventures-primary-thumbnail-m.jpg",
      "imageDesktop": "/sites/globe.com.ph/files/content/dam/globe/brie/AboutUs/newsroom/917ventures/accelerating-sustainable-urban-transportation-ph/corp-917ventures-primary-thumbnail-d.jpg",
      "description": "Globe’s 917Ventures Inc., Ayala Corporation, and Gogoro have formalized their partnership for a transformative deal with the establishment of a Joint Venture.",
      "datePosted": "Aug 25, 2023 | 11:58 AM",
      "titleFromTag": "917Ventures"
    },
    {
      "title": "Globe Continues Network Expansion, Builds 542 New Cell Sites in 1H 2023",
      "nonclickable": false,
      "openNewTab": false,
      "borderArticle": "border-color:#0074D9;",
      "borderTopArticle": "border-top-color:#0074D9;",
      "imageListing": "/sites/globe.com.ph/files/content/dam/globe/brie/AboutUs/newsroom/common/default-corporate-5/corp-thumbnail-listing.jpg",
      "articleUrl": "https://www.globe.com.ph/about-us/newsroom/corporate/network-expansion-542-new-cell-sites-h1-2023.html",
      "columnType": "articles--type-3",
      "typeListing": "article",
      "imageMobile": "/sites/globe.com.ph/files/content/dam/globe/brie/AboutUs/newsroom/common/default-corporate-5/corp-primary-thumbnail-m.jpg",
      "imageDesktop": "/sites/globe.com.ph/files/content/dam/globe/brie/AboutUs/newsroom/common/default-corporate-5/corp-primary-thumbnail-d.jpg",
      "description": "Globe continues network expansion and built 542 new cell sites and upgraded 5,087 mobile sites to LTE across the country in the first half of the year.",
      "datePosted": "Aug 25, 2023 | 11:57 AM",
      "titleFromTag": "Corporate"
    },
    {
      "title": "KodeGo Revolutionizes Job-Skills Matching with Customizable TaaS Program",
      "nonclickable": false,
      "openNewTab": false,
      "borderArticle": "border-color:#0074D9;",
      "borderTopArticle": "border-top-color:#0074D9;",
      "imageListing": "/sites/globe.com.ph/files/content/dam/globe/brie/About-us/Newsroom/image/Consumer/kodego-bridges-stem-gender-employment-gap/thumbnail-listing.jpg",
      "articleUrl": "https://www.globe.com.ph/about-us/newsroom/consumer/kodego-revolutionizes-job-skills-matching.html",
      "columnType": "articles--type-3",
      "typeListing": "article",
      "imageMobile": "/sites/globe.com.ph/files/content/dam/globe/brie/About-us/Newsroom/image/Consumer/kodego-bridges-stem-gender-employment-gap/primary-thumbnail-m.jpg",
      "imageDesktop": "/sites/globe.com.ph/files/content/dam/globe/brie/About-us/Newsroom/image/Consumer/kodego-bridges-stem-gender-employment-gap/primary-thumbnail-d.jpg",
      "description": "KodeGo transforms the job-skills matching landscape with its Training-as-a-Service (TaaS) program.",
      "datePosted": "Aug 25, 2023 | 11:56 AM",
      "titleFromTag": "Consumer"
    },
    {
      "title": "A Meal for a Cause: Albay Province Holds Benefit Dinner for Globe-Led The Hapag Movement",
      "nonclickable": false,
      "openNewTab": false,
      "borderArticle": "border-color:#0074D9;",
      "borderTopArticle": "border-top-color:#0074D9;",
      "imageListing": "/sites/globe.com.ph/files/content/dam/globe/brie/AboutUs/newsroom/common/sustainability-food-donation/corp-default-image-thumbnail-listing.jpg",
      "articleUrl": "https://www.globe.com.ph/about-us/newsroom/corporate/albay-holds-benefit-dinner-globe-led-the-hapag-movement.html",
      "columnType": "articles--type-3",
      "typeListing": "article",
      "imageMobile": "/sites/globe.com.ph/files/content/dam/globe/brie/AboutUs/newsroom/common/sustainability-food-donation/corp-default-image-primary-thumbnail-m.jpg",
      "imageDesktop": "/sites/globe.com.ph/files/content/dam/globe/brie/AboutUs/newsroom/common/sustainability-food-donation/corp-default-image-primary-thumbnail-d.jpg",
      "description": "Leading digital solutions platform Globe and the Provincial Government of Albay have forged a partnership in support of The Hapag Movement.",
      "datePosted": "Aug 25, 2023 | 11:40 AM",
      "titleFromTag": "Corporate"
    },
    {
      "title": "PUBLiCUS Asias Survey: Globe Group Companies Emerge as PH’s Most Endeared Brands",
      "nonclickable": false,
      "openNewTab": false,
      "borderArticle": "border-color:#0074D9;",
      "borderTopArticle": "border-top-color:#0074D9;",
      "imageListing": "/sites/globe.com.ph/files/content/dam/globe/brie/AboutUs/newsroom/common/default-corporate-main/newsroom-default-corporate-thumbnail-listing.jpg",
      "articleUrl": "https://www.globe.com.ph/about-us/newsroom/corporate/globe-group-companies-emerge-as-ph-most-endeared-brands.html",
      "columnType": "articles--type-3",
      "typeListing": "article",
      "imageMobile": "/sites/globe.com.ph/files/content/dam/globe/brie/AboutUs/newsroom/common/default-corporate-main/newsroom-default-corporate-primary-thumbnail-m.jpg",
      "imageDesktop": "/sites/globe.com.ph/files/content/dam/globe/brie/AboutUs/newsroom/common/default-corporate-main/newsroom-default-corporate-primary-thumbnail-d.jpg",
      "description": "Globe Group have emerged as the most endeared brands in the Philippines in the latest PAHAYAG 2023–Q2 survey conducted by PUBLiCUS Asia Inc.",
      "datePosted": "Aug 22, 2023 | 10:25 AM",
      "titleFromTag": "Corporate"
    },
    {
      "title": "Globe Reports 46% Drop In Bank-Related Spam and Scam SMS in H1 2023",
      "nonclickable": false,
      "openNewTab": false,
      "borderArticle": "border-color:#0074D9;",
      "borderTopArticle": "border-top-color:#0074D9;",
      "imageListing": "/sites/globe.com.ph/files/content/dam/globe/brie/AboutUs/newsroom/common/default-corporate-13/corp-listing-thumbnail.jpg",
      "articleUrl": "https://www.globe.com.ph/about-us/newsroom/corporate/46-percent-drop-in-bank-related-spam-scam-sms-h1-2023.html",
      "columnType": "articles--type-3",
      "typeListing": "article",
      "imageMobile": "/sites/globe.com.ph/files/content/dam/globe/brie/AboutUs/newsroom/common/default-corporate-13/corp-primary-banner-m.jpg",
      "imageDesktop": "/sites/globe.com.ph/files/content/dam/globe/brie/AboutUs/newsroom/common/default-corporate-13/corp-primary-thumbnail.jpg",
      "description": "Globe has reported a significant 46% decrease in blocked bank-related scam and spam messages in its network in the first half of this year.",
      "datePosted": "Aug 22, 2023 | 10:23 AM",
      "titleFromTag": "Corporate"
    },
    {
      "title": "Globe, NABU Celebrate Buwan ng Wika with Launch of New Mother’s Legacy Storybooks",
      "nonclickable": false,
      "openNewTab": false,
      "borderArticle": "border-color:#1C91C5;",
      "borderTopArticle": "border-top-color:#1C91C5;",
      "imageListing": "/sites/globe.com.ph/files/content/dam/globe/brie/AboutUs/newsroom/sustainability/globe-builds-teacher-skills-early-language-literacy/default-sustainability-1-thumbnail-listing.jpg",
      "articleUrl": "https://www.globe.com.ph/about-us/newsroom/sustainability/globe-nabu-celebrate-buwan-ng-wika.html",
      "columnType": "articles--type-3",
      "typeListing": "article",
      "imageMobile": "/sites/globe.com.ph/files/content/dam/globe/brie/AboutUs/newsroom/sustainability/globe-builds-teacher-skills-early-language-literacy/default-sustainability-1-primary-thumbnail-m.jpg",
      "imageDesktop": "/sites/globe.com.ph/files/content/dam/globe/brie/AboutUs/newsroom/sustainability/globe-builds-teacher-skills-early-language-literacy/default-sustainability-1-primary-thumbnail-d.jpg",
      "description": "Globe and NABU launch storybooks as part of the Mother's Legacy Project to honor Buwan ng Wika.",
      "datePosted": "Aug 22, 2023 | 10:22 AM",
      "titleFromTag": "Sustainability"
    },
    {
      "title": "RUSH Technologies Boosts Small Business’ Growth with Spark Lite",
      "nonclickable": false,
      "openNewTab": false,
      "borderArticle": "border-color:#0074D9;",
      "borderTopArticle": "border-top-color:#0074D9;",
      "imageListing": "/sites/globe.com.ph/files/content/dam/globe/brie/AboutUs/newsroom/common/default-business-5/sg-default-images-thumbnail-listing.jpg",
      "articleUrl": "https://www.globe.com.ph/about-us/newsroom/corporate/rush-technologies-boosts-small-business-growth-spark-lite.html",
      "columnType": "articles--type-3",
      "typeListing": "article",
      "imageMobile": "/sites/globe.com.ph/files/content/dam/globe/brie/AboutUs/newsroom/common/default-business-5/sg-default-images-primary-thumbnail-m.jpg",
      "imageDesktop": "/sites/globe.com.ph/files/content/dam/globe/brie/AboutUs/newsroom/common/default-business-5/sg-default-images-primary-thumbnail-d.jpg",
      "description": "RUSH Technologies empowers SME’s to launch and manage their eCommerce website through Spark Lite.",
      "datePosted": "Aug 18, 2023 | 11:51 AM",
      "titleFromTag": "Corporate"
    },
    {
      "title": "No Flight Needed: Michelangelo’s Frescoes Now Accessible to Filipinos via Landmark Exhibit",
      "nonclickable": false,
      "openNewTab": false,
      "borderArticle": "border-color:#0074D9;",
      "borderTopArticle": "border-top-color:#0074D9;",
      "imageListing": "/sites/globe.com.ph/files/content/dam/globe/brie/About-us/Newsroom/image/Consumer/8-18-23/Michelangelo-frescoes-thumbnail-listing.jpg",
      "articleUrl": "https://www.globe.com.ph/about-us/newsroom/consumer/michelangelo-frescoes-now-accessible-via-landmark-exhibit.html",
      "columnType": "articles--type-3",
      "typeListing": "article",
      "imageMobile": "/sites/globe.com.ph/files/content/dam/globe/brie/About-us/Newsroom/image/Consumer/8-18-23/Michelangelo-frescoes-primary-thumbnail-m.jpg",
      "imageDesktop": "/sites/globe.com.ph/files/content/dam/globe/brie/About-us/Newsroom/image/Consumer/8-18-23/Michelangelo-frescoes-primary-thumbnail-d.jpg",
      "description": "Experience “Michelangelo’s Sistine Chapel: The Exhibition” at Estancia Mall, Capitol Commons, Pasig City until September 30, 2023.",
      "datePosted": "Aug 17, 2023 | 03:03 PM",
      "titleFromTag": "Consumer"
    }
  ]
}
