{
  "status": 200,
  "page": 130,
  "totalPage": 298,
  "range": "1549-1560",
  "total": 3573,
  "result": [
    {
      "title": "Free GoWiFi Available in Select Metro Manila Vaccination Sites",
      "nonclickable": false,
      "openNewTab": false,
      "borderArticle": "border-color:#0074D9;",
      "borderTopArticle": "border-top-color:#0074D9;",
      "imageListing": "/sites/globe.com.ph/files/content/dam/globe/brie/AboutUs/newsroom/common/default-4/default-consumer-3-thumbnail-listing.jpg",
      "articleUrl": "https://www.globe.com.ph/about-us/newsroom/consumer/free-gowifi-available-metro-manila-vaccination-sites.html",
      "columnType": "articles--type-3",
      "typeListing": "article",
      "imageMobile": "/sites/globe.com.ph/files/content/dam/globe/brie/AboutUs/newsroom/common/default-4/default-consumer-3-primary-thumbnail-m.jpg",
      "imageDesktop": "/sites/globe.com.ph/files/content/dam/globe/brie/AboutUs/newsroom/common/default-4/default-consumer-3-primary-thumbnail-d.jpg",
      "description": "With official start of the rollout of COVID-19 vaccines, GoWiFi extends free and unlimited internet service to select vaccination sites in Metro Manila.",
      "datePosted": "Apr 05, 2021 | 08:32 AM",
      "titleFromTag": "Consumer"
    },
    {
      "title": "#LearningNeverStops: Globe at Home, AFI, and Customers Help Public School Students Get Prepaid Home WiFi Modems",
      "nonclickable": false,
      "openNewTab": false,
      "borderArticle": "border-color:#1C91C5;",
      "borderTopArticle": "border-top-color:#1C91C5;",
      "imageListing": "/sites/globe.com.ph/files/content/dam/globe/brie/AboutUs/newsroom/sustainability/globe-at-home-afi-customers-help-public-school-students/newsroom-sustainability-afi-help-students-thumbnail-listing.jpg",
      "articleUrl": "https://www.globe.com.ph/about-us/newsroom/sustainability/globe-at-home-afi-customers-help-public-school-students.html",
      "columnType": "articles--type-3",
      "typeListing": "article",
      "imageMobile": "/sites/globe.com.ph/files/content/dam/globe/brie/AboutUs/newsroom/sustainability/globe-at-home-afi-customers-help-public-school-students/newsroom-sustainability-afi-help-students-primary-thumbnail-m.jpg",
      "imageDesktop": "/sites/globe.com.ph/files/content/dam/globe/brie/AboutUs/newsroom/sustainability/globe-at-home-afi-customers-help-public-school-students/newsroom-sustainability-afi-help-students-primary-thumbnail-d.jpg",
      "description": "While students struggled to adjust to online learning due to the pandemic, many need reliable connectivity to help them continue their education at home.",
      "datePosted": "Mar 31, 2021 | 10:06 AM",
      "titleFromTag": "Sustainability"
    },
    {
      "title": "Niantic Planet-Scale AR Alliance Accelerates Social AR Future in Codename: Urban Legends",
      "nonclickable": false,
      "openNewTab": false,
      "borderArticle": "border-color:#0074D9;",
      "borderTopArticle": "border-top-color:#0074D9;",
      "imageListing": "/sites/globe.com.ph/files/content/dam/globe/brie/AboutUs/newsroom/consumer/niantic-planet-scale-ar-alliance-social-ar-future/newsroom-consumer-niantic-planet-scale-thumbnail-listing.jpg",
      "articleUrl": "https://www.globe.com.ph/about-us/newsroom/consumer/niantic-planet-scale-ar-alliance-social-ar-future.html",
      "columnType": "articles--type-3",
      "typeListing": "article",
      "imageMobile": "/sites/globe.com.ph/files/content/dam/globe/brie/AboutUs/newsroom/consumer/niantic-planet-scale-ar-alliance-social-ar-future/newsroom-consumer-niantic-planet-scale-primary-thumbnail-m.jpg",
      "imageDesktop": "/sites/globe.com.ph/files/content/dam/globe/brie/AboutUs/newsroom/consumer/niantic-planet-scale-ar-alliance-social-ar-future/newsroom-consumer-niantic-planet-scale-primary-thumbnail-d.jpg",
      "description": "Niantic announces the release of Codename: Urban Legends, a multiplayer demo experience that offers a glimpse into the future of AR and 5G networks. ",
      "datePosted": "Mar 31, 2021 | 10:05 AM",
      "titleFromTag": "Consumer"
    },
    {
      "title": "#OneGlobeVsCovid: Globe Commits Delivery of Services as Pandemic Rages On",
      "nonclickable": false,
      "openNewTab": false,
      "borderArticle": "border-color:#1C91C5;",
      "borderTopArticle": "border-top-color:#1C91C5;",
      "imageListing": "/sites/globe.com.ph/files/content/dam/globe/brie/AboutUs/newsroom/common/updated/Corporate-globe-thumbnail-listing.jpg",
      "articleUrl": "https://www.globe.com.ph/about-us/newsroom/sustainability/globe-commits-delivery-services-pandemic-rages-on.html",
      "columnType": "articles--type-3",
      "typeListing": "article",
      "imageMobile": "/sites/globe.com.ph/files/content/dam/globe/brie/AboutUs/newsroom/common/updated/Corporate-globe-primary-thumbnail-m.jpg",
      "imageDesktop": "/sites/globe.com.ph/files/content/dam/globe/brie/AboutUs/newsroom/common/updated/Corporate-globe-primary-thumbnail-d.jpg",
      "description": "Globe is committed to deliver unmatched, innovative services across its key businesses as Covid cases continue to rise.",
      "datePosted": "Mar 31, 2021 | 08:00 AM",
      "titleFromTag": "Sustainability"
    },
    {
      "title": "‘Nakakatulong Talaga’: Women Store Owners Thank Globe Loading Business",
      "nonclickable": false,
      "openNewTab": false,
      "borderArticle": "border-color:#1C91C5;",
      "borderTopArticle": "border-top-color:#1C91C5;",
      "imageListing": "/sites/globe.com.ph/files/content/dam/globe/brie/AboutUs/newsroom/sustainability/women-store-owners-thank-globe-loading-business/newsroom-sustainability-women-store-owners-thumbnail-listing.jpg",
      "articleUrl": "https://www.globe.com.ph/about-us/newsroom/sustainability/women-store-owners-thank-globe-loading-business.html",
      "columnType": "articles--type-3",
      "typeListing": "article",
      "imageMobile": "/sites/globe.com.ph/files/content/dam/globe/brie/AboutUs/newsroom/sustainability/women-store-owners-thank-globe-loading-business/newsroom-sustainability-women-store-owners-primary-thumbnail-m.jpg",
      "imageDesktop": "/sites/globe.com.ph/files/content/dam/globe/brie/AboutUs/newsroom/sustainability/women-store-owners-thank-globe-loading-business/newsroom-sustainability-women-store-owners-primary-thumbnail-d.jpg",
      "description": "Maricris Caraballo shares how her income from selling mobile prepaid load helped her to cover her personal needs without relying on her husband's support.",
      "datePosted": "Mar 31, 2021 | 08:00 AM",
      "titleFromTag": "Sustainability"
    },
    {
      "title": "Mapúa University Manila Embarks on Digitalization with Globe",
      "nonclickable": false,
      "openNewTab": false,
      "borderArticle": "border-color:#0074D9;",
      "borderTopArticle": "border-top-color:#0074D9;",
      "imageListing": "/sites/globe.com.ph/files/content/dam/globe/brie/AboutUs/newsroom/business/mapua-university-manila-embarks-on-digitalization/newsroom-business-mapua-embarks-digitalization-thumbnail-listing.jpg",
      "articleUrl": "https://www.globe.com.ph/about-us/newsroom/business/mapua-university-manila-embarks-on-digitalization.html",
      "columnType": "articles--type-3",
      "typeListing": "article",
      "imageMobile": "/sites/globe.com.ph/files/content/dam/globe/brie/AboutUs/newsroom/business/mapua-university-manila-embarks-on-digitalization/newsroom-business-mapua-embarks-digitalization-primary-thumbnail-m.jpg",
      "imageDesktop": "/sites/globe.com.ph/files/content/dam/globe/brie/AboutUs/newsroom/business/mapua-university-manila-embarks-on-digitalization/newsroom-business-mapua-embarks-digitalization-primary-thumbnail-d.jpg",
      "description": "Mapúa University-Manila partnered with Globe Telecom to set up Zoom video conferencing and connectivity solutions for its students and faculty.",
      "datePosted": "Mar 31, 2021 | 08:00 AM",
      "titleFromTag": "Business"
    },
    {
      "title": "Claim Your FREE COVID, Dengue Insurance Vouchers From Globe at Home Starting April 4",
      "nonclickable": false,
      "openNewTab": false,
      "borderArticle": "border-color:#0074D9;",
      "borderTopArticle": "border-top-color:#0074D9;",
      "imageListing": "/sites/globe.com.ph/files/content/dam/globe/brie/AboutUs/newsroom/consumer/free-covid-dengue-insurance-vouchers-globe-at-home/newsroom-consumer-covid-dengue-insurance-thumbnail-listing.jpg",
      "articleUrl": "https://www.globe.com.ph/about-us/newsroom/consumer/free-covid-dengue-insurance-vouchers-globe-at-home.html",
      "columnType": "articles--type-3",
      "typeListing": "article",
      "imageMobile": "/sites/globe.com.ph/files/content/dam/globe/brie/AboutUs/newsroom/consumer/free-covid-dengue-insurance-vouchers-globe-at-home/newsroom-consumer-covid-dengue-insurance-primary-thumbnail-m.jpg",
      "imageDesktop": "/sites/globe.com.ph/files/content/dam/globe/brie/AboutUs/newsroom/consumer/free-covid-dengue-insurance-vouchers-globe-at-home/newsroom-consumer-covid-dengue-insurance-primary-thumbnail-d.jpg",
      "description": "From April 4 - 18, 2021,  Globe At Home customers can claim their FREE COVID-19 and Dengue Insurance for 3 months coverage of up to P140,500. ",
      "datePosted": "Mar 31, 2021 | 08:00 AM",
      "titleFromTag": "Consumer"
    },
    {
      "title": "Lenten Season Reflections with Globe Rewards: Donate your Points to Feed the Hungry",
      "nonclickable": false,
      "openNewTab": false,
      "borderArticle": "border-color:#0074D9;",
      "borderTopArticle": "border-top-color:#0074D9;",
      "imageListing": "/sites/globe.com.ph/files/content/dam/globe/brie/AboutUs/newsroom/consumer/lenten-season-reflections-globe-rewards/newsroom-consumer-lenten-season-reflections-thumbnail-listing.jpg",
      "articleUrl": "https://www.globe.com.ph/about-us/newsroom/consumer/lenten-season-reflections-globe-rewards.html",
      "columnType": "articles--type-3",
      "typeListing": "article",
      "imageMobile": "/sites/globe.com.ph/files/content/dam/globe/brie/AboutUs/newsroom/consumer/lenten-season-reflections-globe-rewards/newsroom-consumer-lenten-season-reflections-primary-thumbnail-m.jpg",
      "imageDesktop": "/sites/globe.com.ph/files/content/dam/globe/brie/AboutUs/newsroom/consumer/lenten-season-reflections-globe-rewards/newsroom-consumer-lenten-season-reflections-primary-thumbnail-d.jpg",
      "description": "Globe invites its customers to support partner communities by donating unused Globe Rewards points to Walang Iwanan Alliance (WIA), via the Globe Rewards app.",
      "datePosted": "Mar 30, 2021 | 02:27 PM",
      "titleFromTag": "Consumer"
    },
    {
      "title": "Globe and Animo Labs Launch Country’s Biggest 5G Hackathon",
      "nonclickable": false,
      "openNewTab": false,
      "borderArticle": "border-color:#0074D9;",
      "borderTopArticle": "border-top-color:#0074D9;",
      "imageListing": "/sites/globe.com.ph/files/content/dam/globe/brie/AboutUs/newsroom/partners/globe-animo-labs-launch-biggest-5g-hackathon/newsroom-partners-5g-hackathon-thumbnail-listing.jpg",
      "articleUrl": "https://www.globe.com.ph/about-us/newsroom/partners/globe-animo-labs-launch-biggest-5g-hackathon.html",
      "columnType": "articles--type-3",
      "typeListing": "article",
      "imageMobile": "/sites/globe.com.ph/files/content/dam/globe/brie/AboutUs/newsroom/partners/globe-animo-labs-launch-biggest-5g-hackathon/newsroom-partners-5g-hackathon-primary-thumbnail-m.jpg",
      "imageDesktop": "/sites/globe.com.ph/files/content/dam/globe/brie/AboutUs/newsroom/partners/globe-animo-labs-launch-biggest-5g-hackathon/newsroom-partners-5g-hackathon-primary-thumbnail-d.jpg",
      "description": "The competition, running from March through July of this year, will focus on the use of 5G technologies in various sectors of the Philippine economy.",
      "datePosted": "Mar 30, 2021 | 02:26 PM",
      "titleFromTag": "Partners"
    },
    {
      "title": "‘Nagpaahon sa Amin sa Pandemya’: Globe Loading Business Helps Sari-Sari Store Owners",
      "nonclickable": false,
      "openNewTab": false,
      "borderArticle": "border-color:#1C91C5;",
      "borderTopArticle": "border-top-color:#1C91C5;",
      "imageListing": "/sites/globe.com.ph/files/content/dam/globe/brie/AboutUs/newsroom/sustainability/globe-loading-business-helps-sari-sari-store-owners/newsroom-sustainability-business-helps-owners-thumbnail-listing.jpg",
      "articleUrl": "https://www.globe.com.ph/about-us/newsroom/sustainability/globe-loading-business-helps-sari-sari-store-owners.html",
      "columnType": "articles--type-3",
      "typeListing": "article",
      "imageMobile": "/sites/globe.com.ph/files/content/dam/globe/brie/AboutUs/newsroom/sustainability/globe-loading-business-helps-sari-sari-store-owners/newsroom-sustainability-business-helps-owners-primary-thumbnail-m.jpg",
      "imageDesktop": "/sites/globe.com.ph/files/content/dam/globe/brie/AboutUs/newsroom/sustainability/globe-loading-business-helps-sari-sari-store-owners/newsroom-sustainability-business-helps-owners-primary-thumbnail-d.jpg",
      "description": "This National Women’s Month, Globe recognizes these efforts put forth by these women who chose to fight and win life's different battles.",
      "datePosted": "Mar 30, 2021 | 11:40 AM",
      "titleFromTag": "Sustainability"
    },
    {
      "title": "Globe Celebrates Resilient Women Micro-Entrepreneurs",
      "nonclickable": false,
      "openNewTab": false,
      "borderArticle": "border-color:#1C91C5;",
      "borderTopArticle": "border-top-color:#1C91C5;",
      "imageListing": "/sites/globe.com.ph/files/content/dam/globe/brie/AboutUs/newsroom/sustainability/globe-celebrates-resilient-women-micro-entrepreneurs/newsroom-sustainability-women-micro-entrepreneurs-thumbnail-listing.jpg",
      "articleUrl": "https://www.globe.com.ph/about-us/newsroom/sustainability/globe-celebrates-resilient-women-micro-entrepreneurs.html",
      "columnType": "articles--type-3",
      "typeListing": "article",
      "imageMobile": "/sites/globe.com.ph/files/content/dam/globe/brie/AboutUs/newsroom/sustainability/globe-celebrates-resilient-women-micro-entrepreneurs/newsroom-sustainability-women-micro-entrepreneurs-primary-thumbnail-m.jpg",
      "imageDesktop": "/sites/globe.com.ph/files/content/dam/globe/brie/AboutUs/newsroom/sustainability/globe-celebrates-resilient-women-micro-entrepreneurs/newsroom-sustainability-women-micro-entrepreneurs-primary-thumbnail-d.jpg",
      "description": "This month, Globe joins the rest of the country in celebrating the role of women in society as the company recognizes women micro entrepreneurs.",
      "datePosted": "Mar 30, 2021 | 09:23 AM",
      "titleFromTag": "Sustainability"
    },
    {
      "title": "How To Achieve 500k Daily Vaccinations vs COVID-19?",
      "nonclickable": false,
      "openNewTab": false,
      "borderArticle": "border-color:#0074D9;",
      "borderTopArticle": "border-top-color:#0074D9;",
      "imageListing": "/sites/globe.com.ph/files/content/dam/globe/brie/AboutUs/newsroom/corporate/how-to-achieve-500k-daily-vaccinations-covid-19/newsroom-corporate-achieve-500k-vaccinations-ookla-thumbnail-listing.jpg",
      "articleUrl": "https://www.globe.com.ph/about-us/newsroom/corporate/how-to-achieve-500k-daily-vaccinations-covid-19.html",
      "columnType": "articles--type-3",
      "typeListing": "article",
      "imageMobile": "/sites/globe.com.ph/files/content/dam/globe/brie/AboutUs/newsroom/corporate/how-to-achieve-500k-daily-vaccinations-covid-19/newsroom-corporate-achieve-500k-vaccinations-primary-thumbnail-m.jpg",
      "imageDesktop": "/sites/globe.com.ph/files/content/dam/globe/brie/AboutUs/newsroom/corporate/how-to-achieve-500k-daily-vaccinations-covid-19/newsroom-corporate-achieve-500k-vaccinations-primary-thumbnail-d.jpg",
      "description": "As the government begins to roll out its vaccination program against Covid-19, the Liveable Cities Philippines, the League of Cities of the Philippines, together with partners Boston Consulting Group, Philippine Disaster Resilience Foundation, and Globe Telecom will hold the webinar “Vaccine-Ready Cities: The Road to 500K Daily Vaccinations”.",
      "datePosted": "Mar 29, 2021 | 08:21 PM",
      "titleFromTag": "Corporate"
    }
  ]
}
