{
  "status": 200,
  "page": 131,
  "totalPage": 298,
  "range": "1561-1572",
  "total": 3573,
  "result": [
    {
      "title": "Tennis Sensation Eala Enters First $60,000 Tournament in Switzerland",
      "nonclickable": false,
      "openNewTab": false,
      "borderArticle": "border-color:#0074D9;",
      "borderTopArticle": "border-top-color:#0074D9;",
      "imageListing": "/sites/globe.com.ph/files/content/dam/globe/brie/AboutUs/newsroom/corporate/eala-enters-first-60k-dollar-tournament-switzerland/newsroom-corporate-eala-tournament-switzerland-thumbnail-listing.jpg",
      "articleUrl": "https://www.globe.com.ph/about-us/newsroom/corporate/eala-enters-first-60k-dollar-tournament-switzerland.html",
      "columnType": "articles--type-3",
      "typeListing": "article",
      "imageMobile": "/sites/globe.com.ph/files/content/dam/globe/brie/AboutUs/newsroom/corporate/eala-enters-first-60k-dollar-tournament-switzerland/newsroom-corporate-eala-tournament-switzerland-primary-thumbnail-m.jpg",
      "imageDesktop": "/sites/globe.com.ph/files/content/dam/globe/brie/AboutUs/newsroom/corporate/eala-enters-first-60k-dollar-tournament-switzerland/newsroom-corporate-eala-tournament-switzerland-primary-thumbnail-d.jpg",
      "description": "Alex Eala continued her women’s tour campaign after gaining entry in the main draw of the Bellinzona tournament set in Switzerland last April 5-15, 2021.",
      "datePosted": "Mar 29, 2021 | 05:52 PM",
      "titleFromTag": "Corporate"
    },
    {
      "title": "Improved Globe 4G LTE ‘Indoor’ Experience Seen in Pampanga, Laguna, Batangas",
      "nonclickable": false,
      "openNewTab": false,
      "borderArticle": "border-color:#0074D9;",
      "borderTopArticle": "border-top-color:#0074D9;",
      "imageListing": "/sites/globe.com.ph/files/content/dam/globe/brie/AboutUs/newsroom/common/default-2/default-business-2-thumbnail-listing.jpg",
      "articleUrl": "https://www.globe.com.ph/about-us/newsroom/consumer/improved-globe-4g-lte-indoor-experience-pampanga-laguna-batangas.html",
      "columnType": "articles--type-3",
      "typeListing": "article",
      "imageMobile": "/sites/globe.com.ph/files/content/dam/globe/brie/AboutUs/newsroom/common/default-2/default-business-2-primary-thumbnail-m.jpg",
      "imageDesktop": "/sites/globe.com.ph/files/content/dam/globe/brie/AboutUs/newsroom/common/default-2/default-business-2-primary-thumbnail-d.jpg",
      "description": "With growing connectivity demands and the COVID-19 pandemic still ongoing, Globe continues to maximizes its technological support to customers",
      "datePosted": "Mar 29, 2021 | 12:31 PM",
      "titleFromTag": "Consumer"
    },
    {
      "title": "More Countries in Asia, North America, and Europe To Have Globe 5G Roaming Service in 2Q 2021",
      "nonclickable": false,
      "openNewTab": false,
      "borderArticle": "border-color:#0074D9;",
      "borderTopArticle": "border-top-color:#0074D9;",
      "imageListing": "/sites/globe.com.ph/files/content/dam/globe/brie/AboutUs/newsroom/consumer/asia-north-america-europe-globe-5g-roaming/newsroom-consumer-more-countries-5g-thumbnail-listing.jpg",
      "articleUrl": "https://www.globe.com.ph/about-us/newsroom/consumer/asia-north-america-europe-globe-5g-roaming.html",
      "columnType": "articles--type-3",
      "typeListing": "article",
      "imageMobile": "/sites/globe.com.ph/files/content/dam/globe/brie/AboutUs/newsroom/consumer/asia-north-america-europe-globe-5g-roaming/newsroom-consumer-more-countries-5g-primary-thumbnail-m.jpg",
      "imageDesktop": "/sites/globe.com.ph/files/content/dam/globe/brie/AboutUs/newsroom/consumer/asia-north-america-europe-globe-5g-roaming/newsroom-consumer-more-countries-5g-primary-thumbnail-d.jpg",
      "description": "Globe, the pioneer of 5G technology in the Philippines, is set to expand its 5G Roaming services across Asia, North America, and Europe.",
      "datePosted": "Mar 29, 2021 | 12:21 PM",
      "titleFromTag": "Consumer"
    },
    {
      "title": "Globe myBusiness Celebrates Pinaypreneurs’ Digital Innovation and Resilience With Twin Campaigns on Women’s Month",
      "nonclickable": false,
      "openNewTab": false,
      "borderArticle": "border-color:#0074D9;",
      "borderTopArticle": "border-top-color:#0074D9;",
      "imageListing": "/sites/globe.com.ph/files/content/dam/globe/brie/AboutUs/newsroom/business/globe-mybusiness-celebrates-pinaypreneurs-digital-innovation-resilience/newsroom-business-pinaypreneurs-digital-innovation-thumbnail-listing.jpg",
      "articleUrl": "https://www.globe.com.ph/about-us/newsroom/business/globe-mybusiness-celebrates-pinaypreneurs-digital-innovation-resilience.html",
      "columnType": "articles--type-3",
      "typeListing": "article",
      "imageMobile": "/sites/globe.com.ph/files/content/dam/globe/brie/AboutUs/newsroom/business/globe-mybusiness-celebrates-pinaypreneurs-digital-innovation-resilience/newsroom-business-pinaypreneurs-digital-innovation-primary-thumbnail-m.jpg",
      "imageDesktop": "/sites/globe.com.ph/files/content/dam/globe/brie/AboutUs/newsroom/business/globe-mybusiness-celebrates-pinaypreneurs-digital-innovation-resilience/newsroom-business-pinaypreneurs-digital-innovation-primary-thumbnail-d.jpg",
      "description": "Globe myBusiness celebrates Pinaypreneurs' digital innovation and resilience in Women's Month with inspiring stories and campaigns.",
      "datePosted": "Mar 29, 2021 | 08:49 AM",
      "titleFromTag": "Business"
    },
    {
      "title": "Globe Pioneers Data as Currency in the Philippines",
      "nonclickable": false,
      "openNewTab": false,
      "borderArticle": "border-color:#0074D9;",
      "borderTopArticle": "border-top-color:#0074D9;",
      "imageListing": "/sites/globe.com.ph/files/content/dam/globe/brie/AboutUs/newsroom/common/default-9/default-corporate-4-thumbnail-listing.jpg",
      "articleUrl": "https://www.globe.com.ph/about-us/newsroom/consumer/globe-pioneers-data-currency-philippines.html",
      "columnType": "articles--type-3",
      "typeListing": "article",
      "imageMobile": "/sites/globe.com.ph/files/content/dam/globe/brie/AboutUs/newsroom/common/default-9/default-corporate-4-primary-thumbnail-m.jpg",
      "imageDesktop": "/sites/globe.com.ph/files/content/dam/globe/brie/AboutUs/newsroom/common/default-9/default-corporate-4-primary-thumbnail-d.jpg",
      "description": "Leading Philippine telco, Globe unveiled its first-in-market innovation, GBs (gigabytes) to Points, during the first Globe Innovation Fest.",
      "datePosted": "Mar 29, 2021 | 08:42 AM",
      "titleFromTag": "Consumer"
    },
    {
      "title": "Sharing Is Caring: Donate Globe Rewards Points to Make Lent More Meaningful",
      "nonclickable": false,
      "openNewTab": false,
      "borderArticle": "border-color:#1C91C5;",
      "borderTopArticle": "border-top-color:#1C91C5;",
      "imageListing": "/sites/globe.com.ph/files/content/dam/globe/brie/AboutUs/newsroom/sustainability/donate-globe-rewards-points-make-lent-meaningful/newsroom-sustainability-donate-rewards-points-thumbnail-listing.jpg",
      "articleUrl": "https://www.globe.com.ph/about-us/newsroom/sustainability/donate-globe-rewards-points-make-lent-meaningful.html",
      "columnType": "articles--type-3",
      "typeListing": "article",
      "imageMobile": "/sites/globe.com.ph/files/content/dam/globe/brie/AboutUs/newsroom/sustainability/donate-globe-rewards-points-make-lent-meaningful/newsroom-sustainability-donate-rewards-points-primary-thumbnail-m.jpg",
      "imageDesktop": "/sites/globe.com.ph/files/content/dam/globe/brie/AboutUs/newsroom/sustainability/donate-globe-rewards-points-make-lent-meaningful/newsroom-sustainability-donate-rewards-points-primary-thumbnail-d.jpg",
      "description": "Globe provides opportunities to donate to charitable causes through its Globe Rewards program.",
      "datePosted": "Mar 29, 2021 | 08:41 AM",
      "titleFromTag": "Sustainability"
    },
    {
      "title": "Globe Stores Open During ECQ",
      "nonclickable": false,
      "openNewTab": false,
      "borderArticle": "border-color:#0074D9;",
      "borderTopArticle": "border-top-color:#0074D9;",
      "imageListing": "/sites/globe.com.ph/files/content/dam/globe/brie/AboutUs/newsroom/common/updated/Corporate-globe-thumbnail-listing.jpg",
      "articleUrl": "https://www.globe.com.ph/about-us/newsroom/corporate/globe-stores-open-during-ecq.html",
      "columnType": "articles--type-3",
      "typeListing": "article",
      "imageMobile": "/sites/globe.com.ph/files/content/dam/globe/brie/AboutUs/newsroom/common/updated/Corporate-globe-primary-thumbnail-m.jpg",
      "imageDesktop": "/sites/globe.com.ph/files/content/dam/globe/brie/AboutUs/newsroom/common/updated/Corporate-globe-primary-thumbnail-d.jpg",
      "description": "Select Globe Stores located in areas placed under enhanced community quarantine (ECQ) will remain OPEN to service the needs of its customers.",
      "datePosted": "Mar 29, 2021 | 07:01 AM",
      "titleFromTag": "Corporate"
    },
    {
      "title": "#ExtraCareAtHome: Globe Continues Service Support to Customers As NCR and Other Areas Placed Under ECQ",
      "nonclickable": false,
      "openNewTab": false,
      "borderArticle": "border-color:#0074D9;",
      "borderTopArticle": "border-top-color:#0074D9;",
      "imageListing": "/sites/globe.com.ph/files/content/dam/globe/brie/AboutUs/newsroom/common/default-6/corporate-default-8-thumbnail-listing.jpg",
      "articleUrl": "https://www.globe.com.ph/about-us/newsroom/corporate/globe-continues-service-support-customers-areas-under-ecq.html",
      "columnType": "articles--type-3",
      "typeListing": "article",
      "imageMobile": "/sites/globe.com.ph/files/content/dam/globe/brie/AboutUs/newsroom/common/default-6/corporate-default-8-primary-thumbnail-m.jpg",
      "imageDesktop": "/sites/globe.com.ph/files/content/dam/globe/brie/AboutUs/newsroom/common/default-6/corporate-default-8-primary-thumbnail-d.jpg",
      "description": "Globe assures customers it will continuously deliver service support and #ExtraCareAtHome despite the extended lockdown on August 6 to 20, 2021.",
      "datePosted": "Mar 28, 2021 | 09:49 PM",
      "titleFromTag": "Corporate"
    },
    {
      "title": "#Connect2Earth: Globe Solidifies Climate Change Support Through Action-Led Initiatives",
      "nonclickable": false,
      "openNewTab": false,
      "borderArticle": "border-color:#1C91C5;",
      "borderTopArticle": "border-top-color:#1C91C5;",
      "imageListing": "/sites/globe.com.ph/files/content/dam/globe/brie/AboutUs/newsroom/sustainability/globe-solidifies-climate-change-support/newsroom-sustainability-climate-change-support-thumbnail-listing.jpg",
      "articleUrl": "https://www.globe.com.ph/about-us/newsroom/sustainability/globe-solidifies-climate-change-support.html",
      "columnType": "articles--type-3",
      "typeListing": "article",
      "imageMobile": "/sites/globe.com.ph/files/content/dam/globe/brie/AboutUs/newsroom/sustainability/globe-solidifies-climate-change-support/newsroom-sustainability-climate-change-support-primary-thumbnail-m.jpg",
      "imageDesktop": "/sites/globe.com.ph/files/content/dam/globe/brie/AboutUs/newsroom/sustainability/globe-solidifies-climate-change-support/newsroom-sustainability-climate-change-support-primary-thumbnail-d.jpg",
      "description": "Globe established several initiatives in honor of Earth Hour 2021, is the largest global grassroots movement that calls for the protection of the environment.",
      "datePosted": "Mar 26, 2021 | 04:33 PM",
      "titleFromTag": "Sustainability"
    },
    {
      "title": "DLS-CSB Shoots Ahead of Digital Education Research with Globe Research Grant",
      "nonclickable": false,
      "openNewTab": false,
      "borderArticle": "border-color:#0074D9;",
      "borderTopArticle": "border-top-color:#0074D9;",
      "imageListing": "/sites/globe.com.ph/files/content/dam/globe/brie/AboutUs/newsroom/business/dls-csb-digital-education-research-globe-research-grant/newsroom-business-dls-csb-research-thumbnail-listing.jpg",
      "articleUrl": "https://www.globe.com.ph/about-us/newsroom/business/dls-csb-digital-education-research-globe-research-grant.html",
      "columnType": "articles--type-3",
      "typeListing": "article",
      "imageMobile": "/sites/globe.com.ph/files/content/dam/globe/brie/AboutUs/newsroom/business/dls-csb-digital-education-research-globe-research-grant/newsroom-business-dls-csb-research-primary-thumbnail-m.jpg",
      "imageDesktop": "/sites/globe.com.ph/files/content/dam/globe/brie/AboutUs/newsroom/business/dls-csb-digital-education-research-globe-research-grant/newsroom-business-dls-csb-research-primary-thumbnail-d.jpg",
      "description": "The partnership between Globe and De La Salle-College of Saint Benilde paves the way for timely and relevant digital education research.",
      "datePosted": "Mar 26, 2021 | 04:27 PM",
      "titleFromTag": "Business"
    },
    {
      "title": "Globe Continues Support for Families and Businesses in Bicol Affected by Typhoons",
      "nonclickable": false,
      "openNewTab": false,
      "borderArticle": "border-color:#1C91C5;",
      "borderTopArticle": "border-top-color:#1C91C5;",
      "imageListing": "/sites/globe.com.ph/files/content/dam/globe/brie/AboutUs/newsroom/common/default-5/corporate-default-6-thumbnail-listing.jpg",
      "articleUrl": "https://www.globe.com.ph/about-us/newsroom/sustainability/globe-support-families-businesses-bicol-affected-typhoons.html",
      "columnType": "articles--type-3",
      "typeListing": "article",
      "imageMobile": "/sites/globe.com.ph/files/content/dam/globe/brie/AboutUs/newsroom/common/default-5/corporate-default-6-primary-thumbnail-m.jpg",
      "imageDesktop": "/sites/globe.com.ph/files/content/dam/globe/brie/AboutUs/newsroom/common/default-5/corporate-default-6-primary-thumbnail-d.jpg",
      "description": "Four months after devastating super typhoons hit the Philippines, Globe continues its rebuilding efforts on damaged telco infrastructure in the Bicol region.",
      "datePosted": "Mar 26, 2021 | 01:31 PM",
      "titleFromTag": "Sustainability"
    },
    {
      "title": "Globe Supports DPWH Order Further Removing Bottlenecks in Telco Builds",
      "nonclickable": false,
      "openNewTab": false,
      "borderArticle": "border-color:#1C91C5;",
      "borderTopArticle": "border-top-color:#1C91C5;",
      "imageListing": "/sites/globe.com.ph/files/content/dam/globe/brie/AboutUs/newsroom/common/default-15/default-corporate-9-thumbnail-listing.jpg",
      "articleUrl": "https://www.globe.com.ph/about-us/newsroom/sustainability/globe-supports-dpwh-removing-bottlenecks-telco-builds.html",
      "columnType": "articles--type-3",
      "typeListing": "article",
      "imageMobile": "/sites/globe.com.ph/files/content/dam/globe/brie/AboutUs/newsroom/common/default-15/default-corporate-9-primary-thumbnail-m.jpg",
      "imageDesktop": "/sites/globe.com.ph/files/content/dam/globe/brie/AboutUs/newsroom/common/default-15/default-corporate-9-primary-thumbnail-d.jpg",
      "description": "Globe lauded DPWH for Department Order No. 29, which facilitates the construction of telco infrastructure amid the surging demand for connectivity.",
      "datePosted": "Mar 26, 2021 | 11:56 AM",
      "titleFromTag": "Sustainability"
    }
  ]
}
