{
  "status": 200,
  "page": 132,
  "totalPage": 298,
  "range": "1573-1584",
  "total": 3573,
  "result": [
    {
      "title": "Globe to Use QR-Based IDs to Fight Fraudsters, Spot Posers",
      "nonclickable": false,
      "openNewTab": false,
      "borderArticle": "border-color:#1C91C5;",
      "borderTopArticle": "border-top-color:#1C91C5;",
      "imageListing": "/sites/globe.com.ph/files/content/dam/globe/brie/AboutUs/newsroom/common/updated/Corporate-globe-thumbnail-listing.jpg",
      "articleUrl": "https://www.globe.com.ph/about-us/newsroom/sustainability/globe-qr-based-id-fight-fraudsters.html",
      "columnType": "articles--type-3",
      "typeListing": "article",
      "imageMobile": "/sites/globe.com.ph/files/content/dam/globe/brie/AboutUs/newsroom/common/updated/Corporate-globe-primary-thumbnail-m.jpg",
      "imageDesktop": "/sites/globe.com.ph/files/content/dam/globe/brie/AboutUs/newsroom/common/updated/Corporate-globe-primary-thumbnail-d.jpg",
      "description": "Globe issued quick response (QR)-code identification cards to all its legitimate site acquisition, management and agents employed by accredited partners/vendors",
      "datePosted": "Mar 26, 2021 | 10:54 AM",
      "titleFromTag": "Sustainability"
    },
    {
      "title": "Hotels, Restaurants See Through Pandemic Thanks to Globe myBusiness",
      "nonclickable": false,
      "openNewTab": false,
      "borderArticle": "border-color:#0074D9;",
      "borderTopArticle": "border-top-color:#0074D9;",
      "imageListing": "/sites/globe.com.ph/files/content/dam/globe/brie/AboutUs/newsroom/business/hotels-restaurants-see-through-pandemic/newsroom-business-hotels-restaurants-pandemic-thumbnail-listing.jpg",
      "articleUrl": "https://www.globe.com.ph/about-us/newsroom/business/hotels-restaurants-see-through-pandemic.html",
      "columnType": "articles--type-3",
      "typeListing": "article",
      "imageMobile": "/sites/globe.com.ph/files/content/dam/globe/brie/AboutUs/newsroom/business/hotels-restaurants-see-through-pandemic/newsroom-business-hotels-restaurants-pandemic-primary-thumbnail-m.jpg",
      "imageDesktop": "/sites/globe.com.ph/files/content/dam/globe/brie/AboutUs/newsroom/business/hotels-restaurants-see-through-pandemic/newsroom-business-hotels-restaurants-pandemic-primary-thumbnail-d.jpg",
      "description": "The hospitality industry was one of the hardest hit sectors as hotels and restaurants were forced to close or limit operations following government restrictions to help slow the spread of COVID-19.",
      "datePosted": "Mar 26, 2021 | 10:36 AM",
      "titleFromTag": "Business"
    },
    {
      "title": "Globe Reinvents Customers' Everyday Experiences with Innovative Life-Enabling Offers",
      "nonclickable": false,
      "openNewTab": false,
      "borderArticle": "border-color:#0074D9;",
      "borderTopArticle": "border-top-color:#0074D9;",
      "imageListing": "/sites/globe.com.ph/files/content/dam/globe/brie/AboutUs/newsroom/consumer/reinvent-everyday-experiences-innovative-life-enabling-offers/newsroom-consumer-reinvent-everyday-experiences-thumbnail-listing.jpg",
      "articleUrl": "https://www.globe.com.ph/about-us/newsroom/consumer/reinvent-everyday-experiences-innovative-life-enabling-offers.html",
      "columnType": "articles--type-3",
      "typeListing": "article",
      "imageMobile": "/sites/globe.com.ph/files/content/dam/globe/brie/AboutUs/newsroom/consumer/reinvent-everyday-experiences-innovative-life-enabling-offers/newsroom-consumer-reinvent-everyday-experiences-primary-thumbnail-m.jpg",
      "imageDesktop": "/sites/globe.com.ph/files/content/dam/globe/brie/AboutUs/newsroom/consumer/reinvent-everyday-experiences-innovative-life-enabling-offers/newsroom-consumer-reinvent-everyday-experiences-primary-thumbnail-d.jpg",
      "description": "To support them, the company launched first-to-market innovations that redefine telco experiences that enable them to win each day.",
      "datePosted": "Mar 25, 2021 | 06:35 PM",
      "titleFromTag": "Consumer"
    },
    {
      "title": "Protecting the Youth Online: Globe, UNICEF Team Up on Digital Empowerment",
      "nonclickable": false,
      "openNewTab": false,
      "borderArticle": "border-color:#1C91C5;",
      "borderTopArticle": "border-top-color:#1C91C5;",
      "imageListing": "/sites/globe.com.ph/files/content/dam/globe/brie/AboutUs/newsroom/sustainability/globe-unicef-team-up-digital-empowerment/newsroom-sustainability-unicef-digital-empowerment-thumbnail-listing.jpg",
      "articleUrl": "https://www.globe.com.ph/about-us/newsroom/sustainability/globe-unicef-team-up-digital-empowerment.html",
      "columnType": "articles--type-3",
      "typeListing": "article",
      "imageMobile": "/sites/globe.com.ph/files/content/dam/globe/brie/AboutUs/newsroom/sustainability/globe-unicef-team-up-digital-empowerment/newsroom-sustainability-unicef-digital-empowerment-primary-thumbnail-m.jpg",
      "imageDesktop": "/sites/globe.com.ph/files/content/dam/globe/brie/AboutUs/newsroom/sustainability/globe-unicef-team-up-digital-empowerment/newsroom-sustainability-unicef-digital-empowerment-primary-thumbnail-d.jpg",
      "description": "By partnering with UNICEF, Globe hoped to reach more internet users and help them become more responsible digital citizens.",
      "datePosted": "Mar 25, 2021 | 01:56 PM",
      "titleFromTag": "Sustainability"
    },
    {
      "title": "Globe Encourages E-Volunteerism To Mitigate Hunger",
      "nonclickable": false,
      "openNewTab": false,
      "borderArticle": "border-color:#1C91C5;",
      "borderTopArticle": "border-top-color:#1C91C5;",
      "imageListing": "/sites/globe.com.ph/files/content/dam/globe/brie/AboutUs/newsroom/sustainability/globe-encourages-e-volunteerism-mitigate-hunger/newsroom-sustainability-evolunteerism-mitigate-hunger-thumbnail-listing.jpg",
      "articleUrl": "https://www.globe.com.ph/about-us/newsroom/sustainability/globe-encourages-e-volunteerism-mitigate-hunger.html",
      "columnType": "articles--type-3",
      "typeListing": "article",
      "imageMobile": "/sites/globe.com.ph/files/content/dam/globe/brie/AboutUs/newsroom/sustainability/globe-encourages-e-volunteerism-mitigate-hunger/newsroom-sustainability-evolunteerism-mitigate-hunger-primary-thumbnail-m.jpg",
      "imageDesktop": "/sites/globe.com.ph/files/content/dam/globe/brie/AboutUs/newsroom/sustainability/globe-encourages-e-volunteerism-mitigate-hunger/newsroom-sustainability-evolunteerism-mitigate-hunger-primary-thumbnail-d.jpg",
      "description": "Globe believes the pandemic’s mobility restrictions should not prevent individuals from volunteering.",
      "datePosted": "Mar 24, 2021 | 02:16 PM",
      "titleFromTag": "Sustainability"
    },
    {
      "title": "#ExtraCareAtHome: Free Medical Insurance Against COVID With Globe at Home, GCash, and Singlife",
      "nonclickable": false,
      "openNewTab": false,
      "borderArticle": "border-color:#0074D9;",
      "borderTopArticle": "border-top-color:#0074D9;",
      "imageListing": "/sites/globe.com.ph/files/content/dam/globe/brie/AboutUs/newsroom/consumer/free-medical-insurance-against-covid/newsroom-consumer-free-medical-insurance-thumbnail-listing.jpg",
      "articleUrl": "https://www.globe.com.ph/about-us/newsroom/consumer/free-medical-insurance-against-covid.html",
      "columnType": "articles--type-3",
      "typeListing": "article",
      "imageMobile": "/sites/globe.com.ph/files/content/dam/globe/brie/AboutUs/newsroom/consumer/free-medical-insurance-against-covid/newsroom-consumer-free-medical-insurance-primary-thumbnail-m.jpg",
      "imageDesktop": "/sites/globe.com.ph/files/content/dam/globe/brie/AboutUs/newsroom/consumer/free-medical-insurance-against-covid/newsroom-consumer-free-medical-insurance-primary-thumbnail-d.jpg",
      "description": "Globe at Home, GCash and Singlife joined forces to give Home Prepaid WiFi and Postpaid Broadband customers FREE medical coverage and extra care as the country grapples with the spike in COVID-19 cases.",
      "datePosted": "Mar 24, 2021 | 12:11 PM",
      "titleFromTag": "Consumer"
    },
    {
      "title": "#TeamGoodBoy: Globe Welcomes Kim Seon Ho to the Family via E-Fanmeet",
      "nonclickable": false,
      "openNewTab": false,
      "borderArticle": "border-color:#0074D9;",
      "borderTopArticle": "border-top-color:#0074D9;",
      "imageListing": "/sites/globe.com.ph/files/content/dam/globe/brie/AboutUs/newsroom/consumer/globe-welcomes-kim-seon-ho/newsroom-consumer-kim-seon-ho-thumbnail-listing.jpg",
      "articleUrl": "https://www.globe.com.ph/about-us/newsroom/consumer/globe-welcomes-kim-seon-ho.html",
      "columnType": "articles--type-3",
      "typeListing": "article",
      "imageMobile": "/sites/globe.com.ph/files/content/dam/globe/brie/AboutUs/newsroom/consumer/globe-welcomes-kim-seon-ho/newsroom-consumer-kim-seon-ho-primary-thumbnail-m.jpg",
      "imageDesktop": "/sites/globe.com.ph/files/content/dam/globe/brie/AboutUs/newsroom/consumer/globe-welcomes-kim-seon-ho/newsroom-consumer-kim-seon-ho-primary-thumbnail-d.jpg",
      "description": "It was a truly kilig Sunday for PH Seonhohadas as they were taken on a reinvented (virtual) date to officially welcome #TeamGoodBoy Kim Seon Ho to the Globe family, on the Kmmunity PH Facebook group last March 21!",
      "datePosted": "Mar 24, 2021 | 11:56 AM",
      "titleFromTag": "Consumer"
    },
    {
      "title": "Globe and Yahoo Empower Filipinos to Do More on the Go",
      "nonclickable": false,
      "openNewTab": false,
      "borderArticle": "border-color:#0074D9;",
      "borderTopArticle": "border-top-color:#0074D9;",
      "imageListing": "/sites/globe.com.ph/files/content/dam/globe/brie/AboutUs/newsroom/partners/globe-yahoo-empower-filipinos-do-more-on-the-go/newsroom-partners-globe-yahoo-gowork-thumbnail-listing.jpg",
      "articleUrl": "https://www.globe.com.ph/about-us/newsroom/partners/globe-yahoo-empower-filipinos-do-more-on-the-go.html",
      "columnType": "articles--type-3",
      "typeListing": "article",
      "imageMobile": "/sites/globe.com.ph/files/content/dam/globe/brie/AboutUs/newsroom/partners/globe-yahoo-empower-filipinos-do-more-on-the-go/newsroom-partners-globe-yahoo-gowork-primary-thumbnail-m.jpg",
      "imageDesktop": "/sites/globe.com.ph/files/content/dam/globe/brie/AboutUs/newsroom/partners/globe-yahoo-empower-filipinos-do-more-on-the-go/newsroom-partners-globe-yahoo-gowork-primary-thumbnail-d.jpg",
      "description": "GoWORK10 adds 1GB on Yahoo Mail making Pinoys more productive.",
      "datePosted": "Mar 23, 2021 | 04:25 PM",
      "titleFromTag": "Partners"
    },
    {
      "title": "15-Year-Old Alex Eala Yields in Three Sets vs World No. 104 Kuzmova at Miami Open",
      "nonclickable": false,
      "openNewTab": false,
      "borderArticle": "border-color:#0074D9;",
      "borderTopArticle": "border-top-color:#0074D9;",
      "imageListing": "/sites/globe.com.ph/files/content/dam/globe/brie/AboutUs/newsroom/corporate/alex-eala-yields-3-sets-vs-kuzmova-miami-open/corporate-vows-to-continue-supporting-alex-eala-bid-thumbnail-listing.jpg",
      "articleUrl": "https://www.globe.com.ph/about-us/newsroom/corporate/alex-eala-yields-3-sets-vs-kuzmova-miami-open.html",
      "columnType": "articles--type-3",
      "typeListing": "article",
      "imageMobile": "/sites/globe.com.ph/files/content/dam/globe/brie/AboutUs/newsroom/corporate/alex-eala-yields-3-sets-vs-kuzmova-miami-open/corporate-vows-to-continue-supporting-alex-eala-bid-primary-thumbnail-m.jpg",
      "imageDesktop": "/sites/globe.com.ph/files/content/dam/globe/brie/AboutUs/newsroom/corporate/alex-eala-yields-3-sets-vs-kuzmova-miami-open/corporate-vows-to-continue-supporting-alex-eala-bid-primary-thumbnail-d.jpg",
      "description": "Alex Eala fought hard but ultimately fell short against the world no. 104 Viktoria Kuzmova, 6-4, 4-6, 2-6, in the first round of the Miami Open qualifying draw.",
      "datePosted": "Mar 23, 2021 | 04:25 PM",
      "titleFromTag": "Corporate"
    },
    {
      "title": "Globe Enhances 4G LTE Network in Boracay, Pampanga and Rest of Laguna",
      "nonclickable": false,
      "openNewTab": false,
      "borderArticle": "border-color:#0074D9;",
      "borderTopArticle": "border-top-color:#0074D9;",
      "imageListing": "/sites/globe.com.ph/files/content/dam/globe/brie/AboutUs/newsroom/corporate/globe-enhances-4g-lte-boracay-pampanga-laguna/newsroom-corporate-network-upgrade-thumbnail-listing.jpg",
      "articleUrl": "https://www.globe.com.ph/about-us/newsroom/corporate/globe-enhances-4g-lte-boracay-pampanga-laguna.html",
      "columnType": "articles--type-3",
      "typeListing": "article",
      "imageMobile": "/sites/globe.com.ph/files/content/dam/globe/brie/AboutUs/newsroom/corporate/globe-enhances-4g-lte-boracay-pampanga-laguna/newsroom-corporate-network-upgrade-primary-thumbnail-m.jpg",
      "imageDesktop": "/sites/globe.com.ph/files/content/dam/globe/brie/AboutUs/newsroom/corporate/globe-enhances-4g-lte-boracay-pampanga-laguna/newsroom-corporate-network-upgrade-primary-thumbnail-d.jpg",
      "description": "Globe customers in Boracay will now have another reason to stay in one of the best beaches in the world and remain connected with their loved ones.",
      "datePosted": "Mar 23, 2021 | 08:07 AM",
      "titleFromTag": "Corporate"
    },
    {
      "title": "917Ventures Joins The Final Pitch in Search of “New Heroes”",
      "nonclickable": false,
      "openNewTab": false,
      "borderArticle": "border-color:#0074D9;",
      "borderTopArticle": "border-top-color:#0074D9;",
      "imageListing": "/sites/globe.com.ph/files/content/dam/globe/brie/AboutUs/newsroom/917ventures/917ventures-joins-the-final-pitch/newsroom-917ventures-the-final-pitch-thumbnail-listing.jpg",
      "articleUrl": "https://www.globe.com.ph/about-us/newsroom/917ventures/917ventures-joins-the-final-pitch.html",
      "columnType": "articles--type-3",
      "typeListing": "article",
      "imageMobile": "/sites/globe.com.ph/files/content/dam/globe/brie/AboutUs/newsroom/917ventures/917ventures-joins-the-final-pitch/newsroom-917ventures-the-final-pitch-primary-thumbnail-m.jpg",
      "imageDesktop": "/sites/globe.com.ph/files/content/dam/globe/brie/AboutUs/newsroom/917ventures/917ventures-joins-the-final-pitch/newsroom-917ventures-the-final-pitch-primary-thumbnail-d.jpg",
      "description": "The Final Pitch Season 6 on CNN Philippines features 917Ventures' MD Yamat scouting for 'new heroes' to rebuild the lives of Filipinos amid COVID-19 crisis.",
      "datePosted": "Mar 22, 2021 | 02:33 PM",
      "titleFromTag": "917Ventures"
    },
    {
      "title": "Special Shopping Vouchers Await You From Globe Rewards",
      "nonclickable": false,
      "openNewTab": false,
      "borderArticle": "border-color:#0074D9;",
      "borderTopArticle": "border-top-color:#0074D9;",
      "imageListing": "/sites/globe.com.ph/files/content/dam/globe/brie/AboutUs/newsroom/consumer/special-shopping-vouchers-await-globe-rewards/newsroom-consumer-special-shopping-vouchers-thumbnail-listing.jpg",
      "articleUrl": "https://www.globe.com.ph/about-us/newsroom/consumer/special-shopping-vouchers-await-globe-rewards.html",
      "columnType": "articles--type-3",
      "typeListing": "article",
      "imageMobile": "/sites/globe.com.ph/files/content/dam/globe/brie/AboutUs/newsroom/consumer/special-shopping-vouchers-await-globe-rewards/newsroom-consumer-special-shopping-vouchers-primary-thumbnail-m.jpg",
      "imageDesktop": "/sites/globe.com.ph/files/content/dam/globe/brie/AboutUs/newsroom/consumer/special-shopping-vouchers-await-globe-rewards/newsroom-consumer-special-shopping-vouchers-primary-thumbnail-d.jpg",
      "description": "As a treat to its loyal customers, Globe Rewards is giving away discounted shopping vouchers that can be redeemed for as low as 10 Rewards points.",
      "datePosted": "Mar 22, 2021 | 11:00 AM",
      "titleFromTag": "Consumer"
    }
  ]
}
