{
  "status": 200,
  "page": 133,
  "totalPage": 298,
  "range": "1585-1596",
  "total": 3573,
  "result": [
    {
      "title": "The Importance of Connectivity to Your School’s Digital Future",
      "nonclickable": false,
      "openNewTab": false,
      "borderArticle": "border-color:#0074D9;",
      "borderTopArticle": "border-top-color:#0074D9;",
      "imageListing": "/sites/globe.com.ph/files/content/dam/globe/brie/AboutUs/newsroom/business/importance-connectivity-school-digital-future/newsroom-business-connectivity-digital-future-thumbnail-listing.jpg",
      "articleUrl": "https://www.globe.com.ph/about-us/newsroom/business/importance-connectivity-school-digital-future.html",
      "columnType": "articles--type-3",
      "typeListing": "article",
      "imageMobile": "/sites/globe.com.ph/files/content/dam/globe/brie/AboutUs/newsroom/business/importance-connectivity-school-digital-future/newsroom-business-connectivity-digital-future-primary-thumbnail-m.jpg",
      "imageDesktop": "/sites/globe.com.ph/files/content/dam/globe/brie/AboutUs/newsroom/business/importance-connectivity-school-digital-future/newsroom-business-connectivity-digital-future-primary-thumbnail-d.jpg",
      "description": "In the latest webinar on Connectivity and Learning: The Prepaid WiFi for Education and Fixed Broadband Experience, key speakers from Ateneo de Davao University and Coronado School of Quezon City talk in detail about how they coped with continuing education through the initial stages of the pandemic.",
      "datePosted": "Mar 22, 2021 | 10:11 AM",
      "titleFromTag": "Business"
    },
    {
      "title": "Batangas at Spotlight in First-Ever Local Lab Webinar Series by LCC, Globe",
      "nonclickable": false,
      "openNewTab": false,
      "borderArticle": "border-color:#0074D9;",
      "borderTopArticle": "border-top-color:#0074D9;",
      "imageListing": "/sites/globe.com.ph/files/content/dam/globe/brie/AboutUs/newsroom/business/batangas-local-lab-webinar-series-lcc-globe/newsroom-business-batangas-lcc-webinar-thumbnail-listing.jpg",
      "articleUrl": "https://www.globe.com.ph/about-us/newsroom/business/batangas-local-lab-webinar-series-lcc-globe.html",
      "columnType": "articles--type-3",
      "typeListing": "article",
      "imageMobile": "/sites/globe.com.ph/files/content/dam/globe/brie/AboutUs/newsroom/business/batangas-local-lab-webinar-series-lcc-globe/newsroom-business-batangas-lcc-webinar-primary-thumbnail-m.jpg",
      "imageDesktop": "/sites/globe.com.ph/files/content/dam/globe/brie/AboutUs/newsroom/business/batangas-local-lab-webinar-series-lcc-globe/newsroom-business-batangas-lcc-webinar-primary-thumbnail-d.jpg",
      "description": "The province of Batangas will be the focal point of the latest webinar series conducted by the Liveable Cities Labs.",
      "datePosted": "Mar 19, 2021 | 05:06 PM",
      "titleFromTag": "Business"
    },
    {
      "title": "BPI Foundation, Manila Water Foundation Augment Globe eLibrary Content",
      "nonclickable": false,
      "openNewTab": false,
      "borderArticle": "border-color:#1C91C5;",
      "borderTopArticle": "border-top-color:#1C91C5;",
      "imageListing": "/sites/globe.com.ph/files/content/dam/globe/brie/AboutUs/newsroom/sustainability/bpi-foundation-manila-water-foundation-globe-elibrary-content/newsroom-sustainability-bpi-mw-elibrary-thumbnail-listing.jpg",
      "articleUrl": "https://www.globe.com.ph/about-us/newsroom/sustainability/bpi-foundation-manila-water-foundation-globe-elibrary-content.html",
      "columnType": "articles--type-3",
      "typeListing": "article",
      "imageMobile": "/sites/globe.com.ph/files/content/dam/globe/brie/AboutUs/newsroom/sustainability/bpi-foundation-manila-water-foundation-globe-elibrary-content/newsroom-sustainability-bpi-mw-elibrary-primary-thumbnail-m.jpg",
      "imageDesktop": "/sites/globe.com.ph/files/content/dam/globe/brie/AboutUs/newsroom/sustainability/bpi-foundation-manila-water-foundation-globe-elibrary-content/newsroom-sustainability-bpi-mw-elibrary-primary-thumbnail-d.jpg",
      "description": "Ayala Group enhances Globe eLibrary with free resources on entrepreneurship, financial literacy, hygiene, and sanitation for teachers, parents, and students.",
      "datePosted": "Mar 19, 2021 | 02:59 PM",
      "titleFromTag": "Sustainability"
    },
    {
      "title": "#RecyclingHeroes: Globe Supports Global Recycling Day",
      "nonclickable": false,
      "openNewTab": false,
      "borderArticle": "border-color:#1C91C5;",
      "borderTopArticle": "border-top-color:#1C91C5;",
      "imageListing": "/sites/globe.com.ph/files/content/dam/globe/brie/AboutUs/newsroom/sustainability/globe-supports-global-recycling-day/newsroom-sustainability-global-recycling-day-thumbnail-listing.jpg",
      "articleUrl": "https://www.globe.com.ph/about-us/newsroom/sustainability/globe-supports-global-recycling-day.html",
      "columnType": "articles--type-3",
      "typeListing": "article",
      "imageMobile": "/sites/globe.com.ph/files/content/dam/globe/brie/AboutUs/newsroom/sustainability/globe-supports-global-recycling-day/newsroom-sustainability-global-recycling-day-primary-thumbnail-m.jpg",
      "imageDesktop": "/sites/globe.com.ph/files/content/dam/globe/brie/AboutUs/newsroom/sustainability/globe-supports-global-recycling-day/newsroom-sustainability-global-recycling-day-primary-thumbnail-d.jpg",
      "description": "Globe joins the world in calling for consistent global recycling efforts, proper e-waste disposal, ban of single-use plastics, & other sustainable initiatives.",
      "datePosted": "Mar 19, 2021 | 02:18 PM",
      "titleFromTag": "Sustainability"
    },
    {
      "title": "Globe, Ortigas Land Future-Proof Modern Homes With High-Speed Fiber Internet",
      "nonclickable": false,
      "openNewTab": false,
      "borderArticle": "border-color:#0074D9;",
      "borderTopArticle": "border-top-color:#0074D9;",
      "imageListing": "/sites/globe.com.ph/files/content/dam/globe/brie/AboutUs/newsroom/common/default-11/default-business-5-thumbnail-listing.jpg",
      "articleUrl": "https://www.globe.com.ph/about-us/newsroom/consumer/globe-ortigas-land-future-proof-modern-homes.html",
      "columnType": "articles--type-3",
      "typeListing": "article",
      "imageMobile": "/sites/globe.com.ph/files/content/dam/globe/brie/AboutUs/newsroom/common/default-11/default-business-5-primary-thumbnail-m.jpg",
      "imageDesktop": "/sites/globe.com.ph/files/content/dam/globe/brie/AboutUs/newsroom/common/default-11/default-business-5-primary-thumbnail-d.jpg",
      "description": "Globe and Ortigas Land have recently entered into a partnership which will allow residents of the Ortigas estates to future-proof their homes with built-in smart home systems and with high-speed fiber connectivity.",
      "datePosted": "Mar 19, 2021 | 02:18 PM",
      "titleFromTag": "Consumer"
    },
    {
      "title": "More Globe Customers Now on 4G LTE As 3G Usage Drops",
      "nonclickable": false,
      "openNewTab": false,
      "borderArticle": "border-color:#0074D9;",
      "borderTopArticle": "border-top-color:#0074D9;",
      "imageListing": "/sites/globe.com.ph/files/content/dam/globe/brie/AboutUs/newsroom/common/default-4/default-consumer-3-thumbnail-listing.jpg",
      "articleUrl": "https://www.globe.com.ph/about-us/newsroom/consumer/more-customers-4g-lte-3g-usage-drops.html",
      "columnType": "articles--type-3",
      "typeListing": "article",
      "imageMobile": "/sites/globe.com.ph/files/content/dam/globe/brie/AboutUs/newsroom/common/default-4/default-consumer-3-primary-thumbnail-m.jpg",
      "imageDesktop": "/sites/globe.com.ph/files/content/dam/globe/brie/AboutUs/newsroom/common/default-4/default-consumer-3-primary-thumbnail-d.jpg",
      "description": "Globe is on track for its goal of a #1stWorldNetwork with more customers now on 4G LTE. The telco positioned 4G as the standard for mobile internet in the PH.",
      "datePosted": "Mar 19, 2021 | 10:11 AM",
      "titleFromTag": "Consumer"
    },
    {
      "title": "Get Freebies and Cashbacks for Your Business With Globe Business Digital Store Offers",
      "nonclickable": false,
      "openNewTab": false,
      "borderArticle": "border-color:#0074D9;",
      "borderTopArticle": "border-top-color:#0074D9;",
      "imageListing": "/sites/globe.com.ph/files/content/dam/globe/brie/AboutUs/newsroom/business/get-freebies-cashbacks-globe-mybusiness-digital-offers/newsroom-business-digital-store-offers-thumbnail-listing.jpg",
      "articleUrl": "https://www.globe.com.ph/about-us/newsroom/business/get-freebies-cashbacks-globe-mybusiness-digital-offers.html",
      "columnType": "articles--type-3",
      "typeListing": "article",
      "imageMobile": "/sites/globe.com.ph/files/content/dam/globe/brie/AboutUs/newsroom/business/get-freebies-cashbacks-globe-mybusiness-digital-offers/newsroom-business-digital-store-offers-primary-thumbnail-m.jpg",
      "imageDesktop": "/sites/globe.com.ph/files/content/dam/globe/brie/AboutUs/newsroom/business/get-freebies-cashbacks-globe-mybusiness-digital-offers/newsroom-business-digital-store-offers-primary-thumbnail-d.jpg",
      "description": "Through Globe myBusiness' Digital Shop's exclusive offers, SMEs all over the country have been able to not just survive, but thrive.",
      "datePosted": "Mar 18, 2021 | 04:50 PM",
      "titleFromTag": "Business"
    },
    {
      "title": "Ookla®: PH Among Top 100 Globally on Improved Download Speeds",
      "nonclickable": false,
      "openNewTab": false,
      "borderArticle": "border-color:#0074D9;",
      "borderTopArticle": "border-top-color:#0074D9;",
      "imageListing": "/sites/globe.com.ph/files/content/dam/globe/brie/AboutUs/newsroom/corporate/ph-among-top-100-globally-improved-download-speeds-ookla/newsroom-corporate-top-100-ookla-thumbnail-listing.jpg",
      "articleUrl": "https://www.globe.com.ph/about-us/newsroom/corporate/ph-among-top-100-globally-improved-download-speeds-ookla.html",
      "columnType": "articles--type-3",
      "typeListing": "article",
      "imageMobile": "/sites/globe.com.ph/files/content/dam/globe/brie/AboutUs/newsroom/corporate/ph-among-top-100-globally-improved-download-speeds-ookla/newsroom-corporate-top-100-ookla-primary-thumbnail-m.jpg",
      "imageDesktop": "/sites/globe.com.ph/files/content/dam/globe/brie/AboutUs/newsroom/corporate/ph-among-top-100-globally-improved-download-speeds-ookla/newsroom-corporate-top-100-ookla-primary-thumbnail-d.jpg",
      "description": "The Philippines currently ranked 83rd in the world on mobile, climbing 3 spots with an average mobile download speed of 26.24 Mbps vs January’s 25.77 Mbps.",
      "datePosted": "Mar 18, 2021 | 02:07 PM",
      "titleFromTag": "Corporate"
    },
    {
      "title": "Globe Helps Over 100 Grade 1 Pupils, Teachers Cope With Distance Learning",
      "nonclickable": false,
      "openNewTab": false,
      "borderArticle": "border-color:#1C91C5;",
      "borderTopArticle": "border-top-color:#1C91C5;",
      "imageListing": "/sites/globe.com.ph/files/content/dam/globe/brie/AboutUs/newsroom/sustainability/grade-1-pupils-teachers-cope-distance-learning/newsroom-sustainability-cope-distance-learning-thumbnail-listing.jpg",
      "articleUrl": "https://www.globe.com.ph/about-us/newsroom/sustainability/grade-1-pupils-teachers-cope-distance-learning.html",
      "columnType": "articles--type-3",
      "typeListing": "article",
      "imageMobile": "/sites/globe.com.ph/files/content/dam/globe/brie/AboutUs/newsroom/sustainability/grade-1-pupils-teachers-cope-distance-learning/newsroom-sustainability-cope-distance-learning-primary-thumbnail-m.jpg",
      "imageDesktop": "/sites/globe.com.ph/files/content/dam/globe/brie/AboutUs/newsroom/sustainability/grade-1-pupils-teachers-cope-distance-learning/newsroom-sustainability-cope-distance-learning-primary-thumbnail-d.jpg",
      "description": "Globe partnership with Knowledge Channel Foundation Inc., ABS-CBN, and Mary’s Way Foundation enable learning with the help of free internet connection.",
      "datePosted": "Mar 17, 2021 | 02:40 PM",
      "titleFromTag": "Sustainability"
    },
    {
      "title": "Globe, WIA Expand Assistance to LGUs to Support More Families",
      "nonclickable": false,
      "openNewTab": false,
      "borderArticle": "border-color:#1C91C5;",
      "borderTopArticle": "border-top-color:#1C91C5;",
      "imageListing": "/sites/globe.com.ph/files/content/dam/globe/brie/AboutUs/newsroom/sustainability/globe-wia-expand-assistance-lgu/newsroom-sustainability-wia-expand-assistance-thumbnail-listing.jpg",
      "articleUrl": "https://www.globe.com.ph/about-us/newsroom/sustainability/globe-wia-expand-assistance-lgu.html",
      "columnType": "articles--type-3",
      "typeListing": "article",
      "imageMobile": "/sites/globe.com.ph/files/content/dam/globe/brie/AboutUs/newsroom/sustainability/globe-wia-expand-assistance-lgu/newsroom-sustainability-wia-expand-assistance-primary-thumbnail-m.jpg",
      "imageDesktop": "/sites/globe.com.ph/files/content/dam/globe/brie/AboutUs/newsroom/sustainability/globe-wia-expand-assistance-lgu/newsroom-sustainability-wia-expand-assistance-primary-thumbnail-d.jpg",
      "description": "Globe and Walang Iwanan Alliance extend assistance to various LGUs in Metro Manila to aid more families and communities in support of the government's efforts.",
      "datePosted": "Mar 17, 2021 | 11:59 AM",
      "titleFromTag": "Sustainability"
    },
    {
      "title": "Globe’s Tower Builds on Track; Secures 495 Permits in Jan–Feb",
      "nonclickable": false,
      "openNewTab": false,
      "borderArticle": "border-color:#0074D9;",
      "borderTopArticle": "border-top-color:#0074D9;",
      "imageListing": "/sites/globe.com.ph/files/content/dam/globe/brie/AboutUs/newsroom/common/default-5/corporate-default-6-thumbnail-listing.jpg",
      "articleUrl": "https://www.globe.com.ph/about-us/newsroom/corporate/globe-tower-builds-on-track.html",
      "columnType": "articles--type-3",
      "typeListing": "article",
      "imageMobile": "/sites/globe.com.ph/files/content/dam/globe/brie/AboutUs/newsroom/common/default-5/corporate-default-6-primary-thumbnail-m.jpg",
      "imageDesktop": "/sites/globe.com.ph/files/content/dam/globe/brie/AboutUs/newsroom/common/default-5/corporate-default-6-primary-thumbnail-d.jpg",
      "description": "Globe's target installation of about 2000 new towers this year backed by a secured total of 495 permits from different LGUs within the first two months",
      "datePosted": "Mar 17, 2021 | 08:07 AM",
      "titleFromTag": "Corporate"
    },
    {
      "title": "Goal to #1stWorldNetwork: Globe’s 4G LTE Network Now Fully Up in Cavite",
      "nonclickable": false,
      "openNewTab": false,
      "borderArticle": "border-color:#0074D9;",
      "borderTopArticle": "border-top-color:#0074D9;",
      "imageListing": "/sites/globe.com.ph/files/content/dam/globe/brie/AboutUs/newsroom/common/default-14/newsroom-corporate-globe-high-remarks-thumbnail-listing.jpg",
      "articleUrl": "https://www.globe.com.ph/about-us/newsroom/corporate/globe-4g-lte-network-fully-up-cavite.html",
      "columnType": "articles--type-3",
      "typeListing": "article",
      "imageMobile": "/sites/globe.com.ph/files/content/dam/globe/brie/AboutUs/newsroom/common/default-14/newsroom-corporate-globe-high-remarks-primary-thumbnail-m.jpg",
      "imageDesktop": "/sites/globe.com.ph/files/content/dam/globe/brie/AboutUs/newsroom/common/default-14/newsroom-corporate-globe-high-remarks-primary-thumbnail-d.jpg",
      "description": "Cavite has been added to the growing list of provinces where Globe customers are expected to experience major improvements in their call, SMS and data browsing.",
      "datePosted": "Mar 16, 2021 | 04:32 PM",
      "titleFromTag": "Corporate"
    }
  ]
}
