{
  "status": 200,
  "page": 134,
  "totalPage": 298,
  "range": "1597-1608",
  "total": 3573,
  "result": [
    {
      "title": "‘Malaking Tulong Ang Loading Business’: Globe Empowers Women to See Through Pandemic",
      "nonclickable": false,
      "openNewTab": false,
      "borderArticle": "border-color:#0074D9;",
      "borderTopArticle": "border-top-color:#0074D9;",
      "imageListing": "/sites/globe.com.ph/files/content/dam/globe/brie/AboutUs/newsroom/business/globe-empowers-women-see-through-pandemic/newsroom-business-globe-empowers-women-thumbnail-listing.jpg",
      "articleUrl": "https://www.globe.com.ph/about-us/newsroom/business/globe-empowers-women-see-through-pandemic.html",
      "columnType": "articles--type-3",
      "typeListing": "article",
      "imageMobile": "/sites/globe.com.ph/files/content/dam/globe/brie/AboutUs/newsroom/business/globe-empowers-women-see-through-pandemic/newsroom-business-globe-empowers-women-primary-thumbnail-m.jpg",
      "imageDesktop": "/sites/globe.com.ph/files/content/dam/globe/brie/AboutUs/newsroom/business/globe-empowers-women-see-through-pandemic/newsroom-business-globe-empowers-women-primary-thumbnail-d.jpg",
      "description": "Marites is now earning as much as double from her loading business as compared to over half a decade ago.",
      "datePosted": "Mar 16, 2021 | 04:31 PM",
      "titleFromTag": "Business"
    },
    {
      "title": "Alex Eala Receives Wild Card at Prestigious Miami Open",
      "nonclickable": false,
      "openNewTab": false,
      "borderArticle": "border-color:#0074D9;",
      "borderTopArticle": "border-top-color:#0074D9;",
      "imageListing": "/sites/globe.com.ph/files/content/dam/globe/brie/AboutUs/newsroom/corporate/alex-eala-wild-card-prestigious-miami-open/newsroom-corporate-eala-wild-card-thumbnail-listing.jpg",
      "articleUrl": "https://www.globe.com.ph/about-us/newsroom/corporate/alex-eala-wild-card-prestigious-miami-open.html",
      "columnType": "articles--type-3",
      "typeListing": "article",
      "imageMobile": "/sites/globe.com.ph/files/content/dam/globe/brie/AboutUs/newsroom/corporate/alex-eala-wild-card-prestigious-miami-open/newsroom-corporate-eala-wild-card-primary-thumbnail-m.jpg",
      "imageDesktop": "/sites/globe.com.ph/files/content/dam/globe/brie/AboutUs/newsroom/corporate/alex-eala-wild-card-prestigious-miami-open/newsroom-corporate-eala-wild-card-primary-thumbnail-d.jpg",
      "description": "Alex Eala has been given the rare chance to compete in one of tennis’ biggest stages after she received a wild card to the 2021 Miami Open qualifiers.",
      "datePosted": "Mar 16, 2021 | 02:52 PM",
      "titleFromTag": "Corporate"
    },
    {
      "title": "Globe Rewards Serves Up Your Favorite Treats",
      "nonclickable": false,
      "openNewTab": false,
      "borderArticle": "border-color:#0074D9;",
      "borderTopArticle": "border-top-color:#0074D9;",
      "imageListing": "/sites/globe.com.ph/files/content/dam/globe/brie/AboutUs/newsroom/consumer/globe-rewards-serves-up-your-favorite-treats/newsroom-consumer-rewards-favorite-treats-thumbnail-listing.jpg",
      "articleUrl": "https://www.globe.com.ph/about-us/newsroom/consumer/globe-rewards-serves-up-your-favorite-treats.html",
      "columnType": "articles--type-3",
      "typeListing": "article",
      "imageMobile": "/sites/globe.com.ph/files/content/dam/globe/brie/AboutUs/newsroom/consumer/globe-rewards-serves-up-your-favorite-treats/newsroom-consumer-rewards-favorite-treats-primary-thumbnail-m.jpg",
      "imageDesktop": "/sites/globe.com.ph/files/content/dam/globe/brie/AboutUs/newsroom/consumer/globe-rewards-serves-up-your-favorite-treats/newsroom-consumer-rewards-favorite-treats-primary-thumbnail-d.jpg",
      "description": "Globe Rewards is giving away exciting treats this week through exclusive food discounts to deliver a more rewarding experience to its loyal customers.",
      "datePosted": "Mar 15, 2021 | 05:09 PM",
      "titleFromTag": "Consumer"
    },
    {
      "title": "#PlayItRight: Globe, AVIA Join Forces in Fighting Digital Piracy",
      "nonclickable": false,
      "openNewTab": false,
      "borderArticle": "border-color:#1C91C5;",
      "borderTopArticle": "border-top-color:#1C91C5;",
      "imageListing": "/sites/globe.com.ph/files/content/dam/globe/brie/AboutUs/newsroom/common/updated/Corporate-globe-thumbnail-listing.jpg",
      "articleUrl": "https://www.globe.com.ph/about-us/newsroom/sustainability/globe-avia-join-forces-fighting-digital-piracy.html",
      "columnType": "articles--type-3",
      "typeListing": "article",
      "imageMobile": "/sites/globe.com.ph/files/content/dam/globe/brie/AboutUs/newsroom/common/updated/Corporate-globe-primary-thumbnail-m.jpg",
      "imageDesktop": "/sites/globe.com.ph/files/content/dam/globe/brie/AboutUs/newsroom/common/updated/Corporate-globe-primary-thumbnail-d.jpg",
      "description": "Globe and the Asia Video Industry Association (AVIA) joined forces in the fight against digital piracy which strips millions off of legitimate video players.",
      "datePosted": "Mar 15, 2021 | 12:58 PM",
      "titleFromTag": "Sustainability"
    },
    {
      "title": "Globe at Home Tops Netflix’s Internet Speed Index",
      "nonclickable": false,
      "openNewTab": false,
      "borderArticle": "border-color:#0074D9;",
      "borderTopArticle": "border-top-color:#0074D9;",
      "imageListing": "/sites/globe.com.ph/files/content/dam/globe/brie/AboutUs/newsroom/common/corporate-default-5/default-corporate-5-thumbnail-listing.jpg",
      "articleUrl": "https://www.globe.com.ph/about-us/newsroom/consumer/globe-at-home-tops-netflix-internet-speed-index-february.html",
      "columnType": "articles--type-3",
      "typeListing": "article",
      "imageMobile": "/sites/globe.com.ph/files/content/dam/globe/brie/AboutUs/newsroom/common/corporate-default-5/default-corporate-5-primary-thumbnail-m.jpg",
      "imageDesktop": "/sites/globe.com.ph/files/content/dam/globe/brie/AboutUs/newsroom/common/corporate-default-5/default-corporate-5-primary-thumbnail-d.jpg",
      "description": "Globe’s broadband business “Globe At Home” topped the latest Netflix ISP Speed Index for the second time this year.  Globe At Home led Netflix’s ISP leaderboard with an average speed of 3.2 Mbps in February 2021.",
      "datePosted": "Mar 15, 2021 | 09:14 AM",
      "titleFromTag": "Consumer"
    },
    {
      "title": "Rural Bank of Guinobatan, Inc. Launches Asenso Mobile App with Globe myBusiness Sponsored Access API",
      "nonclickable": false,
      "openNewTab": false,
      "borderArticle": "border-color:#0074D9;",
      "borderTopArticle": "border-top-color:#0074D9;",
      "imageListing": "/sites/globe.com.ph/files/content/dam/globe/brie/AboutUs/newsroom/business/rural-bank-of-guinobatan-inc-launches-asenso-mobile-app/newsroom-business-rural-bank-guinobatan-thumbnail-listing.jpg",
      "articleUrl": "https://www.globe.com.ph/about-us/newsroom/business/rural-bank-of-guinobatan-inc-launches-asenso-mobile-app.html",
      "columnType": "articles--type-3",
      "typeListing": "article",
      "imageMobile": "/sites/globe.com.ph/files/content/dam/globe/brie/AboutUs/newsroom/business/rural-bank-of-guinobatan-inc-launches-asenso-mobile-app/newsroom-business-rural-bank-guinobatanp-primary-thumbnail-m.jpg",
      "imageDesktop": "/sites/globe.com.ph/files/content/dam/globe/brie/AboutUs/newsroom/business/rural-bank-of-guinobatan-inc-launches-asenso-mobile-app/newsroom-business-rural-bank-guinobatan-primary-thumbnail-d.jpg",
      "description": "Banks like the Rural Bank of Guinobatan, Inc. have ventured into building mobile apps to help their clients have a faster and more convenient experience.",
      "datePosted": "Mar 15, 2021 | 08:21 AM",
      "titleFromTag": "Business"
    },
    {
      "title": "#ExtraCareAtHome at the Core of Globe at Home’s Services",
      "nonclickable": false,
      "openNewTab": false,
      "borderArticle": "border-color:#0074D9;",
      "borderTopArticle": "border-top-color:#0074D9;",
      "imageListing": "/sites/globe.com.ph/files/content/dam/globe/brie/AboutUs/newsroom/common/default-6/corporate-default-8-thumbnail-listing.jpg",
      "articleUrl": "https://www.globe.com.ph/about-us/newsroom/consumer/extracareathome-core-globe-at-home-services.html",
      "columnType": "articles--type-3",
      "typeListing": "article",
      "imageMobile": "/sites/globe.com.ph/files/content/dam/globe/brie/AboutUs/newsroom/common/default-6/corporate-default-8-primary-thumbnail-m.jpg",
      "imageDesktop": "/sites/globe.com.ph/files/content/dam/globe/brie/AboutUs/newsroom/common/default-6/corporate-default-8-primary-thumbnail-d.jpg",
      "description": "Globe At Home continues to improve customer experience with #ExtraCareAtHome, focusing on proactive care at the core of its services - from inquiry, to installation, and more importantly, after sales.",
      "datePosted": "Mar 13, 2021 | 03:01 PM",
      "titleFromTag": "Consumer"
    },
    {
      "title": "CANVAS Donates Children’s E-Books to Globe eLibrary",
      "nonclickable": false,
      "openNewTab": false,
      "borderArticle": "border-color:#1C91C5;",
      "borderTopArticle": "border-top-color:#1C91C5;",
      "imageListing": "/sites/globe.com.ph/files/content/dam/globe/brie/AboutUs/newsroom/sustainability/canvas-donates-childrens-e-books-globe-elibrary/newsroom-sustainability-children-ebooks-elibrary-thumbnail-listing.jpg",
      "articleUrl": "https://www.globe.com.ph/about-us/newsroom/sustainability/canvas-donates-childrens-e-books-globe-elibrary.html",
      "columnType": "articles--type-3",
      "typeListing": "article",
      "imageMobile": "/sites/globe.com.ph/files/content/dam/globe/brie/AboutUs/newsroom/sustainability/canvas-donates-childrens-e-books-globe-elibrary/newsroom-sustainability-children-ebooks-elibrary-primary-thumbnail-m.jpg",
      "imageDesktop": "/sites/globe.com.ph/files/content/dam/globe/brie/AboutUs/newsroom/sustainability/canvas-donates-childrens-e-books-globe-elibrary/newsroom-sustainability-children-ebooks-elibrary-primary-thumbnail-d.jpg",
      "description": "Children’s stories on culture and the arts were given by the Center for Art, New Ventures & Sustainable Development (CANVAS) to Globe eLibrary to address the learning needs of students affected by the pandemic.",
      "datePosted": "Mar 12, 2021 | 03:59 PM",
      "titleFromTag": "Sustainability"
    },
    {
      "title": "Liyab Eyes Podium Finish in Wild Rift ICON Preseason Tournament",
      "nonclickable": false,
      "openNewTab": false,
      "borderArticle": "border-color:#0074D9;",
      "borderTopArticle": "border-top-color:#0074D9;",
      "imageListing": "/sites/globe.com.ph/files/content/dam/globe/brie/AboutUs/newsroom/corporate/liyab-eyes-podium-finish-wild-rift-icon-tournament/thumbnail-listing.png",
      "articleUrl": "https://www.globe.com.ph/about-us/newsroom/corporate/liyab-eyes-podium-finish-wild-rift-icon-tournament.html",
      "columnType": "articles--type-3",
      "typeListing": "article",
      "imageMobile": "/sites/globe.com.ph/files/content/dam/globe/brie/AboutUs/newsroom/corporate/liyab-eyes-podium-finish-wild-rift-icon-tournament/primary-thumbnail-m.png",
      "imageDesktop": "/sites/globe.com.ph/files/content/dam/globe/brie/AboutUs/newsroom/corporate/liyab-eyes-podium-finish-wild-rift-icon-tournament/primary-thumbnail-d.png",
      "description": "Liyab continues its preparation for bigger tournaments and campaigns by setting its sights to a possible podium finish in the Wild Rift ICON series preseason tournament set to unfold on March 20, 2021.",
      "datePosted": "Mar 12, 2021 | 01:48 PM",
      "titleFromTag": "Corporate"
    },
    {
      "title": "Puerto Galera Municipal Hall and Other Town Areas, Now GoWiFi Zones",
      "nonclickable": false,
      "openNewTab": false,
      "borderArticle": "border-color:#0074D9;",
      "borderTopArticle": "border-top-color:#0074D9;",
      "imageListing": "/sites/globe.com.ph/files/content/dam/globe/brie/AboutUs/newsroom/common/default-4/default-consumer-3-thumbnail-listing.jpg",
      "articleUrl": "https://www.globe.com.ph/about-us/newsroom/corporate/puerto-galera-municipal-hall-town-areas-gowifi-zones.html",
      "columnType": "articles--type-3",
      "typeListing": "article",
      "imageMobile": "/sites/globe.com.ph/files/content/dam/globe/brie/AboutUs/newsroom/common/default-4/default-consumer-3-primary-thumbnail-m.jpg",
      "imageDesktop": "/sites/globe.com.ph/files/content/dam/globe/brie/AboutUs/newsroom/common/default-4/default-consumer-3-primary-thumbnail-d.jpg",
      "description": "GoWiFi continues to expand its base across the country, particularly in high-traffic areas, to help empower more Filipinos by helping them stay connected.",
      "datePosted": "Mar 12, 2021 | 01:24 AM",
      "titleFromTag": "Corporate"
    },
    {
      "title": "Alex Eala Falls in First Round of ITF W15 Manacor Tilt",
      "nonclickable": false,
      "openNewTab": false,
      "borderArticle": "border-color:#0074D9;",
      "borderTopArticle": "border-top-color:#0074D9;",
      "imageListing": "/sites/globe.com.ph/files/content/dam/globe/brie/AboutUs/newsroom/corporate/eala-falls-first-round-itf-w15-manacor/newsroom-corporate-eala-stellar-run-france-ends-thumbnail-listing.jpg",
      "articleUrl": "https://www.globe.com.ph/about-us/newsroom/corporate/eala-falls-first-round-itf-w15-manacor.html",
      "columnType": "articles--type-3",
      "typeListing": "article",
      "imageMobile": "/sites/globe.com.ph/files/content/dam/globe/brie/AboutUs/newsroom/corporate/eala-falls-first-round-itf-w15-manacor/newsroom-corporate-eala-stellar-run-france-ends-primary-thumbnail-m.jpg",
      "imageDesktop": "/sites/globe.com.ph/files/content/dam/globe/brie/AboutUs/newsroom/corporate/eala-falls-first-round-itf-w15-manacor/newsroom-corporate-eala-stellar-run-france-ends-primary-thumbnail-d.jpg",
      "description": "Filipina tennis phenom and Globe ambassador Alex Eala fought bravely but ultimately fell short as she was ousted by Simona Waltert, 4-6, 6-2, 5-7.",
      "datePosted": "Mar 11, 2021 | 02:41 PM",
      "titleFromTag": "Corporate"
    },
    {
      "title": "Globe Unit Asticom Technology Among Asia-Pacific’s ‘Best Professional Employer Organizations’ in 2021",
      "nonclickable": false,
      "openNewTab": false,
      "borderArticle": "border-color:#0074D9;",
      "borderTopArticle": "border-top-color:#0074D9;",
      "imageListing": "/sites/globe.com.ph/files/content/dam/globe/brie/AboutUs/newsroom/corporate/asticom-asia-pacific-best-peo-2021/newsroom-corporate-asticom-best-employer-thumbnail-listing.jpg",
      "articleUrl": "https://www.globe.com.ph/about-us/newsroom/corporate/asticom-asia-pacific-best-peo-2021.html",
      "columnType": "articles--type-3",
      "typeListing": "article",
      "imageMobile": "/sites/globe.com.ph/files/content/dam/globe/brie/AboutUs/newsroom/corporate/asticom-asia-pacific-best-peo-2021/newsroom-corporate-asticom-best-employer-primary-thumbnail-m.jpg",
      "imageDesktop": "/sites/globe.com.ph/files/content/dam/globe/brie/AboutUs/newsroom/corporate/asticom-asia-pacific-best-peo-2021/newsroom-corporate-asticom-best-employer-primary-thumbnail-d.jpg",
      "description": "Asticom Technology, a subsidiary of Globe, was recognized as one of the Top 10 Best PEO in Asia Pacific Region for 2021 by the prestigious Manage HR Network.",
      "datePosted": "Mar 11, 2021 | 12:14 PM",
      "titleFromTag": "Corporate"
    }
  ]
}
