{
  "status": 200,
  "page": 135,
  "totalPage": 298,
  "range": "1609-1620",
  "total": 3573,
  "result": [
    {
      "title": "Globe Expands 5G Roaming Services to More Countries in Asia, Middle East",
      "nonclickable": false,
      "openNewTab": false,
      "borderArticle": "border-color:#0074D9;",
      "borderTopArticle": "border-top-color:#0074D9;",
      "imageListing": "/sites/globe.com.ph/files/content/dam/globe/brie/AboutUs/newsroom/consumer/5g-roaming-services-asia-middle-east/newsroom-consumer-5g-roaming-asia-middel-east-thumbnail-listing.jpg",
      "articleUrl": "https://www.globe.com.ph/about-us/newsroom/consumer/5g-roaming-services-asia-middle-east.html",
      "columnType": "articles--type-3",
      "typeListing": "article",
      "imageMobile": "/sites/globe.com.ph/files/content/dam/globe/brie/AboutUs/newsroom/consumer/5g-roaming-services-asia-middle-east/newsroom-consumer-5g-roaming-asia-middel-east-primary-thumbnail-m.jpg",
      "imageDesktop": "/sites/globe.com.ph/files/content/dam/globe/brie/AboutUs/newsroom/consumer/5g-roaming-services-asia-middle-east/newsroom-consumer-5g-roaming-asia-middel-east-primary-thumbnail-d.jpg",
      "description": "Globe accelerates its 5G Roaming rollout to more countries in Asia and the Middle East as part of its commitment to bring #1stWorldNetwork to its customers.",
      "datePosted": "Mar 10, 2021 | 04:02 PM",
      "titleFromTag": "Consumer"
    },
    {
      "title": "Disposing E-Waste? Globe Helps You Let Go of These Safely",
      "nonclickable": false,
      "openNewTab": false,
      "borderArticle": "border-color:#1C91C5;",
      "borderTopArticle": "border-top-color:#1C91C5;",
      "imageListing": "/sites/globe.com.ph/files/content/dam/globe/brie/AboutUs/newsroom/sustainability/globe-helps-dispose-e-waste-safely/newsroom-sustainability-dispose-e-waste-thumbnail-listing.jpg",
      "articleUrl": "https://www.globe.com.ph/about-us/newsroom/sustainability/globe-helps-dispose-e-waste-safely.html",
      "columnType": "articles--type-3",
      "typeListing": "article",
      "imageMobile": "/sites/globe.com.ph/files/content/dam/globe/brie/AboutUs/newsroom/sustainability/globe-helps-dispose-e-waste-safely/newsroom-sustainability-dispose-e-waste-primary-thumbnail-m.jpg",
      "imageDesktop": "/sites/globe.com.ph/files/content/dam/globe/brie/AboutUs/newsroom/sustainability/globe-helps-dispose-e-waste-safely/newsroom-sustainability-dispose-e-waste-primary-thumbnail-d.jpg",
      "description": "As Globe continues to provide reliable voice and data connection, it also makes sure to do its part in creating a safe environment for people to live in.",
      "datePosted": "Mar 10, 2021 | 01:16 PM",
      "titleFromTag": "Sustainability"
    },
    {
      "title": "Globe’s Yondu Sees Continued Revenue Growth Amid Strong Tech Demand",
      "nonclickable": false,
      "openNewTab": false,
      "borderArticle": "border-color:#1C91C5;",
      "borderTopArticle": "border-top-color:#1C91C5;",
      "imageListing": "/sites/globe.com.ph/files/content/dam/globe/brie/AboutUs/newsroom/common/default-9/default-corporate-4-thumbnail-listing.jpg",
      "articleUrl": "https://www.globe.com.ph/about-us/newsroom/sustainability/yondu-sees-continued-revenue-growth.html",
      "columnType": "articles--type-3",
      "typeListing": "article",
      "imageMobile": "/sites/globe.com.ph/files/content/dam/globe/brie/AboutUs/newsroom/common/default-9/default-corporate-4-primary-thumbnail-m.jpg",
      "imageDesktop": "/sites/globe.com.ph/files/content/dam/globe/brie/AboutUs/newsroom/common/default-9/default-corporate-4-primary-thumbnail-d.jpg",
      "description": "Globe subsidiary, Yondu, is optimistic about maintaining its revenue growth in 2021 given the increased demand for technology solutions since the pandemic.",
      "datePosted": "Mar 10, 2021 | 12:19 PM",
      "titleFromTag": "Sustainability"
    },
    {
      "title": "Globe Readies Disaster Assistance as Taal Alert Level Raised to 2",
      "nonclickable": false,
      "openNewTab": false,
      "borderArticle": "border-color:#0074D9;",
      "borderTopArticle": "border-top-color:#0074D9;",
      "imageListing": "/sites/globe.com.ph/files/content/dam/globe/brie/AboutUs/newsroom/common/updated/Corporate-globe-thumbnail-listing.jpg",
      "articleUrl": "https://www.globe.com.ph/about-us/newsroom/corporate/disaster-assistance-readied-taal-alert-level-2.html",
      "columnType": "articles--type-3",
      "typeListing": "article",
      "imageMobile": "/sites/globe.com.ph/files/content/dam/globe/brie/AboutUs/newsroom/common/updated/Corporate-globe-primary-thumbnail-m.jpg",
      "imageDesktop": "/sites/globe.com.ph/files/content/dam/globe/brie/AboutUs/newsroom/common/updated/Corporate-globe-primary-thumbnail-d.jpg",
      "description": "Globe’s Libreng Tawag, Charging, and WiFi services are set to be deployed in places where residents are set to be evacuated.",
      "datePosted": "Mar 09, 2021 | 05:47 PM",
      "titleFromTag": "Corporate"
    },
    {
      "title": "Globe At Home Gives Prepaid Customers Free Medical Coverage Worth Php 140,500",
      "nonclickable": false,
      "openNewTab": false,
      "borderArticle": "border-color:#0074D9;",
      "borderTopArticle": "border-top-color:#0074D9;",
      "imageListing": "/sites/globe.com.ph/files/content/dam/globe/brie/AboutUs/newsroom/consumer/globe-at-home-free-medical-coverage-worth-p145k/newsroom-consumer-gah-medical-coverage-thumbnail-listing.jpg",
      "articleUrl": "https://www.globe.com.ph/about-us/newsroom/consumer/globe-at-home-free-medical-coverage.html",
      "columnType": "articles--type-3",
      "typeListing": "article",
      "imageMobile": "/sites/globe.com.ph/files/content/dam/globe/brie/AboutUs/newsroom/consumer/globe-at-home-free-medical-coverage-worth-p145k/newsroom-consumer-gah-medical-coverage-primary-thumbnail-m.jpg",
      "imageDesktop": "/sites/globe.com.ph/files/content/dam/globe/brie/AboutUs/newsroom/consumer/globe-at-home-free-medical-coverage-worth-p145k/newsroom-consumer-gah-medical-coverage-primary-thumbnail-d.jpg",
      "description": "GAH will not only provide connectivity and coverage to Filipino households but also #extracareathome through GInsure.",
      "datePosted": "Mar 09, 2021 | 02:42 PM",
      "titleFromTag": "Consumer"
    },
    {
      "title": "Globe At Home Gives Prepaid Customers Free Medical Coverage Worth Php 145K",
      "nonclickable": false,
      "openNewTab": false,
      "borderArticle": "border-color:#0074D9;",
      "borderTopArticle": "border-top-color:#0074D9;",
      "imageListing": "/sites/globe.com.ph/files/content/dam/globe/brie/AboutUs/newsroom/consumer/globe-at-home-free-medical-coverage-worth-p145k/newsroom-consumer-gah-medical-coverage-thumbnail-listing.jpg",
      "articleUrl": "https://www.globe.com.ph/about-us/newsroom/consumer/globe-at-home-free-medical-coverage-worth-145k.html",
      "columnType": "articles--type-3",
      "typeListing": "article",
      "imageMobile": "/sites/globe.com.ph/files/content/dam/globe/brie/AboutUs/newsroom/consumer/globe-at-home-free-medical-coverage-worth-p145k/newsroom-consumer-gah-medical-coverage-primary-thumbnail-m.jpg",
      "imageDesktop": "/sites/globe.com.ph/files/content/dam/globe/brie/AboutUs/newsroom/consumer/globe-at-home-free-medical-coverage-worth-p145k/newsroom-consumer-gah-medical-coverage-primary-thumbnail-d.jpg",
      "description": "GAH will not only provide connectivity and coverage to Filipino households but also #extracareathome through GInsure.",
      "datePosted": "Mar 09, 2021 | 02:42 PM",
      "titleFromTag": "Consumer"
    },
    {
      "title": "Globe 5G Traffic Up 24x in February",
      "nonclickable": false,
      "openNewTab": false,
      "borderArticle": "border-color:#0074D9;",
      "borderTopArticle": "border-top-color:#0074D9;",
      "imageListing": "/sites/globe.com.ph/files/content/dam/globe/brie/AboutUs/newsroom/common/default-10/default-consumer-2-thumbnail-listing.jpg",
      "articleUrl": "https://www.globe.com.ph/about-us/newsroom/corporate/5g-traffic-up-24-times-february.html",
      "columnType": "articles--type-3",
      "typeListing": "article",
      "imageMobile": "/sites/globe.com.ph/files/content/dam/globe/brie/AboutUs/newsroom/common/default-10/default-consumer-2-primary-thumbnail-m.jpg",
      "imageDesktop": "/sites/globe.com.ph/files/content/dam/globe/brie/AboutUs/newsroom/common/default-10/default-consumer-2-primary-thumbnail-d.jpg",
      "description": "Globe experienced a significant increase in traffic—up 24x to 416.76 TB in February 2021 from September 2020 as it continued to expand its 5G network locally.",
      "datePosted": "Mar 09, 2021 | 02:37 PM",
      "titleFromTag": "Corporate"
    },
    {
      "title": "Game On with Globe Rewards",
      "nonclickable": false,
      "openNewTab": false,
      "borderArticle": "border-color:#0074D9;",
      "borderTopArticle": "border-top-color:#0074D9;",
      "imageListing": "/sites/globe.com.ph/files/content/dam/globe/brie/AboutUs/newsroom/consumer/game-on-globe-rewards/newsroom-consumer-game-on-globe-rewards-thumbnail-listing.jpg",
      "articleUrl": "https://www.globe.com.ph/about-us/newsroom/consumer/game-on-globe-rewards.html",
      "columnType": "articles--type-3",
      "typeListing": "article",
      "imageMobile": "/sites/globe.com.ph/files/content/dam/globe/brie/AboutUs/newsroom/consumer/game-on-globe-rewards/newsroom-consumer-game-on-globe-rewards-primary-thumbnail-m.jpg",
      "imageDesktop": "/sites/globe.com.ph/files/content/dam/globe/brie/AboutUs/newsroom/consumer/game-on-globe-rewards/newsroom-consumer-game-on-globe-rewards-primary-thumbnail-d.jpg",
      "description": "From March 8 to 14, Globe Rewards customers can enjoy more home entertainment using their points.",
      "datePosted": "Mar 09, 2021 | 10:49 AM",
      "titleFromTag": "Consumer"
    },
    {
      "title": "Globe Completes Full 4G LTE Network Upgrade in Donsol, Sorsogon and Baler, Aurora",
      "nonclickable": false,
      "openNewTab": false,
      "borderArticle": "border-color:#0074D9;",
      "borderTopArticle": "border-top-color:#0074D9;",
      "imageListing": "/sites/globe.com.ph/files/content/dam/globe/brie/AboutUs/newsroom/common/default-5/corporate-default-6-thumbnail-listing.jpg",
      "articleUrl": "https://www.globe.com.ph/about-us/newsroom/corporate/full-4g-lte-network-upgrade-donsol-baler.html",
      "columnType": "articles--type-3",
      "typeListing": "article",
      "imageMobile": "/sites/globe.com.ph/files/content/dam/globe/brie/AboutUs/newsroom/common/default-5/corporate-default-6-primary-thumbnail-m.jpg",
      "imageDesktop": "/sites/globe.com.ph/files/content/dam/globe/brie/AboutUs/newsroom/common/default-5/corporate-default-6-primary-thumbnail-d.jpg",
      "description": "Globe has completed its network upgrade in Baler, Aurora and Donsol in Sorsogon Province to full 4G LTE.",
      "datePosted": "Mar 09, 2021 | 10:00 AM",
      "titleFromTag": "Corporate"
    },
    {
      "title": "Globe, American Bar Association Advance Responsible Internet Use Through Digital Thumbprint Program",
      "nonclickable": false,
      "openNewTab": false,
      "borderArticle": "border-color:#1C91C5;",
      "borderTopArticle": "border-top-color:#1C91C5;",
      "imageListing": "/sites/globe.com.ph/files/content/dam/globe/brie/AboutUs/newsroom/sustainability/american-bar-association-digital-thumbprint-program/newsroom-sustainability-american-bar-association-thumbnail-listing.jpg",
      "articleUrl": "https://www.globe.com.ph/about-us/newsroom/sustainability/american-bar-association-digital-thumbprint-program.html",
      "columnType": "articles--type-3",
      "typeListing": "article",
      "imageMobile": "/sites/globe.com.ph/files/content/dam/globe/brie/AboutUs/newsroom/sustainability/american-bar-association-digital-thumbprint-program/newsroom-sustainability-american-bar-association-primary-thumbnail-m.jpg",
      "imageDesktop": "/sites/globe.com.ph/files/content/dam/globe/brie/AboutUs/newsroom/sustainability/american-bar-association-digital-thumbprint-program/newsroom-sustainability-american-bar-association-primary-thumbnail-d.jpg",
      "description": "Globe has partnered with the American Bar Association Rule of Law Initiative and its ACCESS Project to train representatives from civil society, the academe, as well as members of the IBP on delivering the Digital Thumbprint Program.",
      "datePosted": "Mar 08, 2021 | 05:30 PM",
      "titleFromTag": "Sustainability"
    },
    {
      "title": "#ReinventHERoes: Globe Unites With Women Across the World Who #ChooseToChallenge",
      "nonclickable": false,
      "openNewTab": false,
      "borderArticle": "border-color:#1C91C5;",
      "borderTopArticle": "border-top-color:#1C91C5;",
      "imageListing": "/sites/globe.com.ph/files/content/dam/globe/brie/AboutUs/newsroom/sustainability/globe-unites-women-across-world-choosetochallenge/newsroom-sustainability-reinventheroes-women-choosetochallenge-thumbnail-listing.jpg",
      "articleUrl": "https://www.globe.com.ph/about-us/newsroom/sustainability/globe-unites-women-across-world-choosetochallenge.html",
      "columnType": "articles--type-3",
      "typeListing": "article",
      "imageMobile": "/sites/globe.com.ph/files/content/dam/globe/brie/AboutUs/newsroom/sustainability/globe-unites-women-across-world-choosetochallenge/newsroom-sustainability-reinventheroes-women-choosetochallenge-primary-thumbnail-m.jpg",
      "imageDesktop": "/sites/globe.com.ph/files/content/dam/globe/brie/AboutUs/newsroom/sustainability/globe-unites-women-across-world-choosetochallenge/newsroom-sustainability-reinventheroes-women-choosetochallenge-primary-thumbnail-d.jpg",
      "description": "This International Women's Day, Globe unites with women across the world who #ChooseToChallenge society's tenets and rise above social challenges.",
      "datePosted": "Mar 08, 2021 | 05:26 PM",
      "titleFromTag": "Sustainability"
    },
    {
      "title": "‘Ngayon Ang Ganda Na’: New Cell Tower Brings Joy to Ladia, Sultan Kudarat Residents",
      "nonclickable": false,
      "openNewTab": false,
      "borderArticle": "border-color:#0074D9;",
      "borderTopArticle": "border-top-color:#0074D9;",
      "imageListing": "/sites/globe.com.ph/files/content/dam/globe/brie/AboutUs/newsroom/corporate/new-cell-tower-ladia-sultan-kudarat/newsroom-corporate-cell-tower-sultan-kudarat-thumbnail-listing.jpg",
      "articleUrl": "https://www.globe.com.ph/about-us/newsroom/corporate/new-cell-tower-ladia-sultan-kudarat.html",
      "columnType": "articles--type-3",
      "typeListing": "article",
      "imageMobile": "/sites/globe.com.ph/files/content/dam/globe/brie/AboutUs/newsroom/corporate/new-cell-tower-ladia-sultan-kudarat/newsroom-corporate-cell-tower-sultan-kudarat-primary-thumbnail-m.jpg",
      "imageDesktop": "/sites/globe.com.ph/files/content/dam/globe/brie/AboutUs/newsroom/corporate/new-cell-tower-ladia-sultan-kudarat/newsroom-corporate-cell-tower-sultan-kudarat-primary-thumbnail-d.jpg",
      "description": "Globe customers in far flung areas of Sultan Kudarat, Maguindanao can now enjoy the benefits of the company’s massive network ",
      "datePosted": "Mar 08, 2021 | 10:37 AM",
      "titleFromTag": "Corporate"
    }
  ]
}
