{
  "status": 200,
  "page": 136,
  "totalPage": 298,
  "range": "1621-1632",
  "total": 3573,
  "result": [
    {
      "title": "Globe Amplifies Fully Its 4G LTE Network in 25 Cities and Towns in Laguna",
      "nonclickable": false,
      "openNewTab": false,
      "borderArticle": "border-color:#0074D9;",
      "borderTopArticle": "border-top-color:#0074D9;",
      "imageListing": "/sites/globe.com.ph/files/content/dam/globe/brie/AboutUs/newsroom/common/default-15/default-corporate-9-thumbnail-listing.jpg",
      "articleUrl": "https://www.globe.com.ph/about-us/newsroom/corporate/globe-amplifies-4g-lte-network-laguna.html",
      "columnType": "articles--type-3",
      "typeListing": "article",
      "imageMobile": "/sites/globe.com.ph/files/content/dam/globe/brie/AboutUs/newsroom/common/default-15/default-corporate-9-primary-thumbnail-m.jpg",
      "imageDesktop": "/sites/globe.com.ph/files/content/dam/globe/brie/AboutUs/newsroom/common/default-15/default-corporate-9-primary-thumbnail-d.jpg",
      "description": "Globe customers in Laguna are the latest to enjoy the further improvement of its call.",
      "datePosted": "Mar 08, 2021 | 08:34 AM",
      "titleFromTag": "Corporate"
    },
    {
      "title": "Globe Business, Equinix Forge Premium Cloud Connect Partnership",
      "nonclickable": false,
      "openNewTab": false,
      "borderArticle": "border-color:#0074D9;",
      "borderTopArticle": "border-top-color:#0074D9;",
      "imageListing": "/sites/globe.com.ph/files/content/dam/globe/brie/AboutUs/newsroom/business/equinix-premium-cloud-connect-partnership/newsroom-business-equinix-cloud-partnership-thumbnail-listing.jpg",
      "articleUrl": "https://www.globe.com.ph/about-us/newsroom/business/equinix-premium-cloud-connect-partnership.html",
      "columnType": "articles--type-3",
      "typeListing": "article",
      "imageMobile": "/sites/globe.com.ph/files/content/dam/globe/brie/AboutUs/newsroom/business/equinix-premium-cloud-connect-partnership/newsroom-business-equinix-cloud-partnership-primary-thumbnail-m.jpg",
      "imageDesktop": "/sites/globe.com.ph/files/content/dam/globe/brie/AboutUs/newsroom/business/equinix-premium-cloud-connect-partnership/newsroom-business-equinix-cloud-partnership-primary-thumbnail-d.jpg",
      "description": "Globe—through its enterprise arm Globe Business—entered a partnership with the world’s digital infrastructure company, Equinix.",
      "datePosted": "Mar 08, 2021 | 03:29 AM",
      "titleFromTag": "Business"
    },
    {
      "title": "Globe Completes 100% VoLTE Activation in NCR, Rizal, Cavite and Bulacan",
      "nonclickable": false,
      "openNewTab": false,
      "borderArticle": "border-color:#0074D9;",
      "borderTopArticle": "border-top-color:#0074D9;",
      "imageListing": "/sites/globe.com.ph/files/content/dam/globe/brie/AboutUs/newsroom/common/default-5/corporate-default-6-thumbnail-listing.jpg",
      "articleUrl": "https://www.globe.com.ph/about-us/newsroom/corporate/100-percent-volte-activation-ncr-rizal-cavite-bulacan.html",
      "columnType": "articles--type-3",
      "typeListing": "article",
      "imageMobile": "/sites/globe.com.ph/files/content/dam/globe/brie/AboutUs/newsroom/common/default-5/corporate-default-6-primary-thumbnail-m.jpg",
      "imageDesktop": "/sites/globe.com.ph/files/content/dam/globe/brie/AboutUs/newsroom/common/default-5/corporate-default-6-primary-thumbnail-d.jpg",
      "description": "Globe Postpaid customers in the National Capital Region, Rizal, Cavite and Bulacan now have another option to enhance their mobile experience.",
      "datePosted": "Mar 05, 2021 | 02:11 PM",
      "titleFromTag": "Corporate"
    },
    {
      "title": "Globe, AMDOCS Equip 130 Teachers With Globe At Home Prepaid WiFi Units",
      "nonclickable": false,
      "openNewTab": false,
      "borderArticle": "border-color:#1C91C5;",
      "borderTopArticle": "border-top-color:#1C91C5;",
      "imageListing": "/sites/globe.com.ph/files/content/dam/globe/brie/AboutUs/newsroom/sustainability/globe-admocs-equip-teachers-globe-at-home-prepaid-wifi/newsroom-sustainability-admocs-teachers-wifi-thumbnail-listing.jpg",
      "articleUrl": "https://www.globe.com.ph/about-us/newsroom/sustainability/globe-admocs-equip-teachers-globe-at-home-prepaid-wifi.html",
      "columnType": "articles--type-3",
      "typeListing": "article",
      "imageMobile": "/sites/globe.com.ph/files/content/dam/globe/brie/AboutUs/newsroom/sustainability/globe-admocs-equip-teachers-globe-at-home-prepaid-wifi/newsroom-sustainability-admocs-teachers-wifi-primary-thumbnail-m.jpg",
      "imageDesktop": "/sites/globe.com.ph/files/content/dam/globe/brie/AboutUs/newsroom/sustainability/globe-admocs-equip-teachers-globe-at-home-prepaid-wifi/newsroom-sustainability-admocs-teachers-wifi-primary-thumbnail-d.jpg",
      "description": "Globe and AMDOCS donated Globe At Home Prepaid WiFi (units with free data to 130 teachers of five public schools across the country, as the resurgence of COVID-19 cases further delayed the resumption of face-to-face classes.",
      "datePosted": "Mar 05, 2021 | 01:03 PM",
      "titleFromTag": "Sustainability"
    },
    {
      "title": "Globe, AMDOCS Equip 130 Teachers With Globe At Home Prepaid WiFi Units",
      "nonclickable": false,
      "openNewTab": false,
      "borderArticle": "border-color:#1C91C5;",
      "borderTopArticle": "border-top-color:#1C91C5;",
      "imageListing": "/sites/globe.com.ph/files/content/dam/globe/brie/AboutUs/newsroom/sustainability/globe-admocs-equip-teachers-globe-at-home-prepaid-wifi/newsroom-sustainability-admocs-teachers-wifi-thumbnail-listing.jpg",
      "articleUrl": "https://www.globe.com.ph/about-us/newsroom/sustainability/globe-amdocs-equip-teachers-globe-at-home-prepaid-wifi.html",
      "columnType": "articles--type-3",
      "typeListing": "article",
      "imageMobile": "/sites/globe.com.ph/files/content/dam/globe/brie/AboutUs/newsroom/sustainability/globe-admocs-equip-teachers-globe-at-home-prepaid-wifi/newsroom-sustainability-admocs-teachers-wifi-primary-thumbnail-m.jpg",
      "imageDesktop": "/sites/globe.com.ph/files/content/dam/globe/brie/AboutUs/newsroom/sustainability/globe-admocs-equip-teachers-globe-at-home-prepaid-wifi/newsroom-sustainability-admocs-teachers-wifi-primary-thumbnail-d.jpg",
      "description": "\"As COVID-19 cases delay the start of classes, Globe and AMDOCS donated Prepaid WiFi with free data to 130 teachers from five public schools across the country.\"",
      "datePosted": "Mar 05, 2021 | 01:03 PM",
      "titleFromTag": "Sustainability"
    },
    {
      "title": "Alex Eala Falters in Second Round of W25 Manacor",
      "nonclickable": false,
      "openNewTab": false,
      "borderArticle": "border-color:#0074D9;",
      "borderTopArticle": "border-top-color:#0074D9;",
      "imageListing": "/sites/globe.com.ph/files/content/dam/globe/brie/AboutUs/newsroom/corporate/alex-eala-falters-second-round-w25-manacor/newsroom-corporate-eala-falters-w25-thumbnail-listing.jpg",
      "articleUrl": "https://www.globe.com.ph/about-us/newsroom/corporate/alex-eala-falters-second-round-w25-manacor.html",
      "columnType": "articles--type-3",
      "typeListing": "article",
      "imageMobile": "/sites/globe.com.ph/files/content/dam/globe/brie/AboutUs/newsroom/corporate/alex-eala-falters-second-round-w25-manacor/newsroom-corporate-eala-falters-w25-primary-thumbnail-m.jpg",
      "imageDesktop": "/sites/globe.com.ph/files/content/dam/globe/brie/AboutUs/newsroom/corporate/alex-eala-falters-second-round-w25-manacor/newsroom-corporate-eala-falters-w25-primary-thumbnail-d.jpg",
      "description": "Alex Eala’s campaign in the International Tennis Federation (ITF) World Tennis Tour W25 Manacor hit a bump after she was beaten by Jana Fett of Croatia.",
      "datePosted": "Mar 05, 2021 | 10:41 AM",
      "titleFromTag": "Corporate"
    },
    {
      "title": "Globe Named Global Rising Star in Video and Voice App Experience: Opensignal",
      "nonclickable": false,
      "openNewTab": false,
      "borderArticle": "border-color:#0074D9;",
      "borderTopArticle": "border-top-color:#0074D9;",
      "imageListing": "/sites/globe.com.ph/files/content/dam/globe/brie/AboutUs/newsroom/common/default-4/default-consumer-3-thumbnail-listing.jpg",
      "articleUrl": "https://www.globe.com.ph/about-us/newsroom/corporate/global-rising-star-video-voice-app-experience.html",
      "columnType": "articles--type-3",
      "typeListing": "article",
      "imageMobile": "/sites/globe.com.ph/files/content/dam/globe/brie/AboutUs/newsroom/common/default-4/default-consumer-3-primary-thumbnail-m.jpg",
      "imageDesktop": "/sites/globe.com.ph/files/content/dam/globe/brie/AboutUs/newsroom/common/default-4/default-consumer-3-primary-thumbnail-d.jpg",
      "description": "The company was cited for achieving a 16% improvement versus the global average of 5.8% for Video Experience, based on data comparing H2 2019 and H2 2020.",
      "datePosted": "Mar 05, 2021 | 10:31 AM",
      "titleFromTag": "Corporate"
    },
    {
      "title": "There is Strength in Digital Systems: First-Hand Experiences of Globe’s Brightspace LMS Users",
      "nonclickable": false,
      "openNewTab": false,
      "borderArticle": "border-color:#0074D9;",
      "borderTopArticle": "border-top-color:#0074D9;",
      "imageListing": "/sites/globe.com.ph/files/content/dam/globe/brie/AboutUs/newsroom/business/first-hand-experiences-brightspace-lms-users/newsroom-brightspace-lms-users-thumbnail-listing.jpg",
      "articleUrl": "https://www.globe.com.ph/about-us/newsroom/business/first-hand-experiences-brightspace-lms-users.html",
      "columnType": "articles--type-3",
      "typeListing": "article",
      "imageMobile": "/sites/globe.com.ph/files/content/dam/globe/brie/AboutUs/newsroom/business/first-hand-experiences-brightspace-lms-users/newsroom-brightspace-lms-users-primary-thumbnail-m.jpg",
      "imageDesktop": "/sites/globe.com.ph/files/content/dam/globe/brie/AboutUs/newsroom/business/first-hand-experiences-brightspace-lms-users/newsroom-brightspace-lms-users-primary-thumbnail-d.jpg",
      "description": "Keep both your students and teachers happy with the easy-to-use, comprehensive, and flexible Globe’s Brightspace LMS",
      "datePosted": "Mar 05, 2021 | 10:24 AM",
      "titleFromTag": "Business"
    },
    {
      "title": "Alex Eala Opens W25 Manacor Bid in Victorious Fashion",
      "nonclickable": false,
      "openNewTab": false,
      "borderArticle": "border-color:#0074D9;",
      "borderTopArticle": "border-top-color:#0074D9;",
      "imageListing": "/sites/globe.com.ph/files/content/dam/globe/brie/AboutUs/newsroom/corporate/alex-eala-opens-w25-manacor-bid/newsroom-corporate-eala-relishes-underdog-thumbnail-listing.jpg",
      "articleUrl": "https://www.globe.com.ph/about-us/newsroom/corporate/alex-eala-opens-w25-manacor-bid.html",
      "columnType": "articles--type-3",
      "typeListing": "article",
      "imageMobile": "/sites/globe.com.ph/files/content/dam/globe/brie/AboutUs/newsroom/corporate/alex-eala-opens-w25-manacor-bid/newsroom-corporate-eala-relishes-underdog-primary-thumbnail-m.jpg",
      "imageDesktop": "/sites/globe.com.ph/files/content/dam/globe/brie/AboutUs/newsroom/corporate/alex-eala-opens-w25-manacor-bid/newsroom-corporate-eala-relishes-underdog-primary-thumbnail-d.jpg",
      "description": "Alex Eala returned to action in decisive fashion as she beat Swiss netter, Simona Waltert, 6-1, 6-4, at the start of the ITF W25 Manacor in Mallorca, Spain.",
      "datePosted": "Mar 04, 2021 | 01:10 PM",
      "titleFromTag": "Corporate"
    },
    {
      "title": "Globe Ramps Up Spending to Provide Care for its Customers",
      "nonclickable": false,
      "openNewTab": false,
      "borderArticle": "border-color:#0074D9;",
      "borderTopArticle": "border-top-color:#0074D9;",
      "imageListing": "/sites/globe.com.ph/files/content/dam/globe/brie/AboutUs/newsroom/consumer/globe-ramps-up-spending-provide-care-customers/newsroom-consumer-provide-care-customers-thumbnail-listing.jpg",
      "articleUrl": "https://www.globe.com.ph/about-us/newsroom/consumer/globe-ramps-up-spending-provide-care-customers.html",
      "columnType": "articles--type-3",
      "typeListing": "article",
      "imageMobile": "/sites/globe.com.ph/files/content/dam/globe/brie/AboutUs/newsroom/consumer/globe-ramps-up-spending-provide-care-customers/newsroom-consumer-provide-care-customers-primary-thumbnail-m.jpg",
      "imageDesktop": "/sites/globe.com.ph/files/content/dam/globe/brie/AboutUs/newsroom/consumer/globe-ramps-up-spending-provide-care-customers/newsroom-consumer-provide-care-customers-primary-thumbnail-d.jpg",
      "description": "Globe has ramped up its spending not only to deliver better service through network improvements but also on how the company delivers care for its customers.",
      "datePosted": "Mar 04, 2021 | 11:45 AM",
      "titleFromTag": "Consumer"
    },
    {
      "title": "Globe Utilizes State of the Art Solution to Bring Low-Cost Internet to More Filipino Homes in Hard-to-Reach Areas",
      "nonclickable": false,
      "openNewTab": false,
      "borderArticle": "border-color:#0074D9;",
      "borderTopArticle": "border-top-color:#0074D9;",
      "imageListing": "/sites/globe.com.ph/files/content/dam/globe/brie/AboutUs/newsroom/common/updated/Corporate-globe-thumbnail-listing.jpg",
      "articleUrl": "https://www.globe.com.ph/about-us/newsroom/corporate/low-cost-internet-more-filipino-homes.html",
      "columnType": "articles--type-3",
      "typeListing": "article",
      "imageMobile": "/sites/globe.com.ph/files/content/dam/globe/brie/AboutUs/newsroom/common/updated/Corporate-globe-primary-thumbnail-m.jpg",
      "imageDesktop": "/sites/globe.com.ph/files/content/dam/globe/brie/AboutUs/newsroom/common/updated/Corporate-globe-primary-thumbnail-d.jpg",
      "description": "Globe, the Philippines’ leading mobile network operator is using an alternative fixed wireless broadband solution to bridge areas with no internet connectivity.",
      "datePosted": "Mar 04, 2021 | 09:07 AM",
      "titleFromTag": "Corporate"
    },
    {
      "title": "Fiber 101: Why It’s the Reliable and Practical Way To Have Good Internet Connection in Urban Areas",
      "nonclickable": false,
      "openNewTab": false,
      "borderArticle": "border-color:#0074D9;",
      "borderTopArticle": "border-top-color:#0074D9;",
      "imageListing": "/sites/globe.com.ph/files/content/dam/globe/brie/AboutUs/newsroom/common/default-2/default-business-2-thumbnail-listing.jpg",
      "articleUrl": "https://www.globe.com.ph/about-us/newsroom/consumer/fiber-reliable-practical-good-internet-connection-urban-areas.html",
      "columnType": "articles--type-3",
      "typeListing": "article",
      "imageMobile": "/sites/globe.com.ph/files/content/dam/globe/brie/AboutUs/newsroom/common/default-2/default-business-2-primary-thumbnail-m.jpg",
      "imageDesktop": "/sites/globe.com.ph/files/content/dam/globe/brie/AboutUs/newsroom/common/default-2/default-business-2-primary-thumbnail-d.jpg",
      "description": "Globe’s fiber technology is the best alternative to places wherein there are no available space or property to install a new cell tower or a cell site.",
      "datePosted": "Mar 03, 2021 | 03:09 PM",
      "titleFromTag": "Consumer"
    }
  ]
}
