{
  "status": 200,
  "page": 137,
  "totalPage": 298,
  "range": "1633-1644",
  "total": 3573,
  "result": [
    {
      "title": "Globe Bags Gold for Star Wars-Themed Campaign at Prestigious Tangrams",
      "nonclickable": false,
      "openNewTab": false,
      "borderArticle": "border-color:#0074D9;",
      "borderTopArticle": "border-top-color:#0074D9;",
      "imageListing": "/sites/globe.com.ph/files/content/dam/globe/brie/AboutUs/newsroom/corporate/globe-bags-gold-star-wars-themed-campaign-tangrams/newsroom-corporate-gold-star-wars-thumbnail-listing.jpg",
      "articleUrl": "https://www.globe.com.ph/about-us/newsroom/corporate/globe-bags-gold-star-wars-themed-campaign-tangrams.html",
      "columnType": "articles--type-3",
      "typeListing": "article",
      "imageMobile": "/sites/globe.com.ph/files/content/dam/globe/brie/AboutUs/newsroom/corporate/globe-bags-gold-star-wars-themed-campaign-tangrams/newsroom-corporate-gold-star-wars-primary-thumbnail-m.jpg",
      "imageDesktop": "/sites/globe.com.ph/files/content/dam/globe/brie/AboutUs/newsroom/corporate/globe-bags-gold-star-wars-themed-campaign-tangrams/newsroom-corporate-gold-star-wars-primary-thumbnail-d.jpg",
      "description": "Globe bagged the Gold award at the 2021 Tangrams Strategy and Effectiveness Awards for its Star Wars-themed campaign in December 2019.",
      "datePosted": "Mar 03, 2021 | 02:32 PM",
      "titleFromTag": "Corporate"
    },
    {
      "title": "Globe 5G Roaming Now Available in UAE",
      "nonclickable": false,
      "openNewTab": false,
      "borderArticle": "border-color:#0074D9;",
      "borderTopArticle": "border-top-color:#0074D9;",
      "imageListing": "/sites/globe.com.ph/files/content/dam/globe/brie/AboutUs/newsroom/consumer/5g-roaming-now-available-uae/newsroom-consumer-5g-roaming-uae-thumbnail-listing.jpg",
      "articleUrl": "https://www.globe.com.ph/about-us/newsroom/consumer/5g-roaming-now-available-uae.html",
      "columnType": "articles--type-3",
      "typeListing": "article",
      "imageMobile": "/sites/globe.com.ph/files/content/dam/globe/brie/AboutUs/newsroom/consumer/5g-roaming-now-available-uae/newsroom-consumer-5g-roaming-uae-primary-thumbnail-m.jpg",
      "imageDesktop": "/sites/globe.com.ph/files/content/dam/globe/brie/AboutUs/newsroom/consumer/5g-roaming-now-available-uae/newsroom-consumer-5g-roaming-uae-primary-thumbnail-d.jpg",
      "description": "Thanks to Globe's partnership with Du Telecom, Filipinos in UAE can now stay connected and enjoy the convenience and quality that 5G connectivity brings.",
      "datePosted": "Mar 03, 2021 | 12:34 PM",
      "titleFromTag": "Consumer"
    },
    {
      "title": "Globe Solidifies 5G Leadership; Nears Half a Million Customers on 5G Devices",
      "nonclickable": false,
      "openNewTab": false,
      "borderArticle": "border-color:#0074D9;",
      "borderTopArticle": "border-top-color:#0074D9;",
      "imageListing": "/sites/globe.com.ph/files/content/dam/globe/brie/AboutUs/newsroom/common/default-10/default-consumer-2-thumbnail-listing.jpg",
      "articleUrl": "https://www.globe.com.ph/about-us/newsroom/corporate/globe-solidifies-5g-leadership.html",
      "columnType": "articles--type-3",
      "typeListing": "article",
      "imageMobile": "/sites/globe.com.ph/files/content/dam/globe/brie/AboutUs/newsroom/common/default-10/default-consumer-2-primary-thumbnail-m.jpg",
      "imageDesktop": "/sites/globe.com.ph/files/content/dam/globe/brie/AboutUs/newsroom/common/default-10/default-consumer-2-primary-thumbnail-d.jpg",
      "description": "Globe is the 5G leader in the country with nearly half a million customers using 5G devices as of end-February 2021.",
      "datePosted": "Mar 02, 2021 | 03:07 PM",
      "titleFromTag": "Corporate"
    },
    {
      "title": "Only P60 a Month to Talk to a Doctor as Much as You Want",
      "nonclickable": false,
      "openNewTab": false,
      "borderArticle": "border-color:#0074D9;",
      "borderTopArticle": "border-top-color:#0074D9;",
      "imageListing": "/sites/globe.com.ph/files/content/dam/globe/brie/AboutUs/newsroom/917ventures/only-p60-month-talk-to-doctor/newsroom-917ventures-p60-month-doctor-thumbnail-listing.jpg",
      "articleUrl": "https://www.globe.com.ph/about-us/newsroom/917ventures/only-p60-month-talk-to-doctor.html",
      "columnType": "articles--type-3",
      "typeListing": "article",
      "imageMobile": "/sites/globe.com.ph/files/content/dam/globe/brie/AboutUs/newsroom/917ventures/only-p60-month-talk-to-doctor/newsroom-917ventures-p60-month-doctor-primary-thumbnail-m.jpg",
      "imageDesktop": "/sites/globe.com.ph/files/content/dam/globe/brie/AboutUs/newsroom/917ventures/only-p60-month-talk-to-doctor/newsroom-917ventures-p60-month-doctor-primary-thumbnail-d.jpg",
      "description": "Only P60 a Month to Talk to a Doctor as Much as You Want - Globe Newsroom",
      "datePosted": "Mar 02, 2021 | 02:21 PM",
      "titleFromTag": "917Ventures"
    },
    {
      "title": "Ookla® Data: Globe Most Improved in Mobile Average Download Speed in All Technologies in Q4 2020",
      "nonclickable": false,
      "openNewTab": false,
      "borderArticle": "border-color:#0074D9;",
      "borderTopArticle": "border-top-color:#0074D9;",
      "imageListing": "/sites/globe.com.ph/files/content/dam/globe/brie/AboutUs/newsroom/common/default-9/default-corporate-4-thumbnail-listing.jpg",
      "articleUrl": "https://www.globe.com.ph/about-us/newsroom/corporate/globe-most-improved-mobile-average-download-speed-ookla.html",
      "columnType": "articles--type-3",
      "typeListing": "article",
      "imageMobile": "/sites/globe.com.ph/files/content/dam/globe/brie/AboutUs/newsroom/common/default-9/default-corporate-4-primary-thumbnail-m.jpg",
      "imageDesktop": "/sites/globe.com.ph/files/content/dam/globe/brie/AboutUs/newsroom/common/default-9/default-corporate-4-primary-thumbnail-d.jpg",
      "description": "In Ookla’s January 2021 Speedtest Global Index data, the Philippines climbed 10 spots in terms of mobile download speed at 25.77 Mbps.",
      "datePosted": "Mar 02, 2021 | 02:10 PM",
      "titleFromTag": "Corporate"
    },
    {
      "title": "Extra Busy Days? Globe At Home Allows Moms to Do More with ‘Extra Bandwidth’",
      "nonclickable": false,
      "openNewTab": false,
      "borderArticle": "border-color:#0074D9;",
      "borderTopArticle": "border-top-color:#0074D9;",
      "imageListing": "/sites/globe.com.ph/files/content/dam/globe/brie/AboutUs/newsroom/consumer/globe-at-home-allows-moms-do-more-extra-bandwidth/newsroom-consumer-seamless-surfing-wifi-thumbnail-listing.jpg",
      "articleUrl": "https://www.globe.com.ph/about-us/newsroom/consumer/globe-at-home-allows-moms-do-more-extra-bandwidth.html",
      "columnType": "articles--type-3",
      "typeListing": "article",
      "imageMobile": "/sites/globe.com.ph/files/content/dam/globe/brie/AboutUs/newsroom/consumer/globe-at-home-allows-moms-do-more-extra-bandwidth/newsroom-consumer-seamless-surfing-wifi-primary-thumbnail-m.jpg",
      "imageDesktop": "/sites/globe.com.ph/files/content/dam/globe/brie/AboutUs/newsroom/consumer/globe-at-home-allows-moms-do-more-extra-bandwidth/newsroom-consumer-seamless-surfing-wifi-primary-thumbnail-d.jpg",
      "description": "Moms need the extra bandwidth that Globe At Home can give especially on days they need to be a little more “extra”.",
      "datePosted": "Mar 02, 2021 | 12:53 PM",
      "titleFromTag": "Consumer"
    },
    {
      "title": "Globe Equips Fishermen with Mobile Phones as First Typhoon Enters PH",
      "nonclickable": false,
      "openNewTab": false,
      "borderArticle": "border-color:#1C91C5;",
      "borderTopArticle": "border-top-color:#1C91C5;",
      "imageListing": "/sites/globe.com.ph/files/content/dam/globe/brie/AboutUs/newsroom/sustainability/globe-equips-fishermen-mobile-phones/newsroom-sustainability-globe-equips-fishermen-thumbnail-listing.jpg",
      "articleUrl": "https://www.globe.com.ph/about-us/newsroom/sustainability/globe-equips-fishermen-mobile-phones.html",
      "columnType": "articles--type-3",
      "typeListing": "article",
      "imageMobile": "/sites/globe.com.ph/files/content/dam/globe/brie/AboutUs/newsroom/sustainability/globe-equips-fishermen-mobile-phones/newsroom-sustainability-globe-equips-fishermen-primary-thumbnail-m.jpg",
      "imageDesktop": "/sites/globe.com.ph/files/content/dam/globe/brie/AboutUs/newsroom/sustainability/globe-equips-fishermen-mobile-phones/newsroom-sustainability-globe-equips-fishermen-primary-thumbnail-d.jpg",
      "description": "Globe through its partnership with the national and local governments, aims to ensure the safety of fisherfolks amid the country's first typhoon this year.",
      "datePosted": "Mar 02, 2021 | 09:17 AM",
      "titleFromTag": "Sustainability"
    },
    {
      "title": "Globe at Home Now Gives 24/7 Health Protection for the Family",
      "nonclickable": false,
      "openNewTab": false,
      "borderArticle": "border-color:#0074D9;",
      "borderTopArticle": "border-top-color:#0074D9;",
      "imageListing": "/sites/globe.com.ph/files/content/dam/globe/brie/AboutUs/newsroom/consumer/globe-at-home-health-protection-family/newsroom-consumer-GAH-health-protection-thumbnail-listing.jpg",
      "articleUrl": "https://www.globe.com.ph/about-us/newsroom/consumer/globe-at-home-health-protection-family.html",
      "columnType": "articles--type-3",
      "typeListing": "article",
      "imageMobile": "/sites/globe.com.ph/files/content/dam/globe/brie/AboutUs/newsroom/consumer/globe-at-home-health-protection-family/newsroom-consumer-GAH-health-protection-primary-thumbnail-m.jpg",
      "imageDesktop": "/sites/globe.com.ph/files/content/dam/globe/brie/AboutUs/newsroom/consumer/globe-at-home-health-protection-family/newsroom-consumer-GAH-health-protection-primary-thumbnail-d.jpg",
      "description": "Globe At Home extends #ExtraCareAtHome with FREE medical consultation access through the KonsultaMD Family Plan.",
      "datePosted": "Mar 01, 2021 | 11:09 PM",
      "titleFromTag": "Consumer"
    },
    {
      "title": "Globe Maximizes Spectrum Assets to Answer Growing Demand for Connectivity; Better Customer Experience",
      "nonclickable": false,
      "openNewTab": false,
      "borderArticle": "border-color:#0074D9;",
      "borderTopArticle": "border-top-color:#0074D9;",
      "imageListing": "/sites/globe.com.ph/files/content/dam/globe/brie/AboutUs/newsroom/common/default-11/default-business-5-thumbnail-listing.jpg",
      "articleUrl": "https://www.globe.com.ph/about-us/newsroom/corporate/globe-maximizes-spectrum-assets.html",
      "columnType": "articles--type-3",
      "typeListing": "article",
      "imageMobile": "/sites/globe.com.ph/files/content/dam/globe/brie/AboutUs/newsroom/common/default-11/default-business-5-primary-thumbnail-m.jpg",
      "imageDesktop": "/sites/globe.com.ph/files/content/dam/globe/brie/AboutUs/newsroom/common/default-11/default-business-5-primary-thumbnail-d.jpg",
      "description": "Globe continues to optimize available spectrum to increase 4G coverage and capacity to address growing demand for connectivity and wider coverage.",
      "datePosted": "Feb 27, 2021 | 08:00 AM",
      "titleFromTag": "Corporate"
    },
    {
      "title": "Liyab Bags 3rd Place in LOL: Wild Rift Frontier Contenders 2021 Tournament",
      "nonclickable": false,
      "openNewTab": false,
      "borderArticle": "border-color:#0074D9;",
      "borderTopArticle": "border-top-color:#0074D9;",
      "imageListing": "/sites/globe.com.ph/files/content/dam/globe/brie/AboutUs/newsroom/consumer/liyab-bags-3rd-place-lol/newsroom-consumer-liyab-3rd-lol-thumbnail-listing.jpg",
      "articleUrl": "https://www.globe.com.ph/about-us/newsroom/consumer/liyab-bags-3rd-place-lol-wild-rift-frontier-contenders-2021.html",
      "columnType": "articles--type-3",
      "typeListing": "article",
      "imageMobile": "/sites/globe.com.ph/files/content/dam/globe/brie/AboutUs/newsroom/consumer/liyab-bags-3rd-place-lol/newsroom-consumer-liyab-3rd-lol-primary-thumbnail-m.jpg",
      "imageDesktop": "/sites/globe.com.ph/files/content/dam/globe/brie/AboutUs/newsroom/consumer/liyab-bags-3rd-place-lol/newsroom-consumer-liyab-3rd-lol-primary-thumbnail-d.jpg",
      "description": "Team Liyab defeated Sunsparks, 2-1 to wound up third overall in the League of Legends: Wild Rift Frontier Contenders 2021 Tournament Thursday evening.",
      "datePosted": "Feb 26, 2021 | 05:26 PM",
      "titleFromTag": "Consumer"
    },
    {
      "title": "Globe’s Network Builds Anchored on Care for Customer",
      "nonclickable": false,
      "openNewTab": false,
      "borderArticle": "border-color:#0074D9;",
      "borderTopArticle": "border-top-color:#0074D9;",
      "imageListing": "/sites/globe.com.ph/files/content/dam/globe/brie/AboutUs/newsroom/common/default-5/corporate-default-6-thumbnail-listing.jpg",
      "articleUrl": "https://www.globe.com.ph/about-us/newsroom/corporate/network-builds-anchored-care-customer.html",
      "columnType": "articles--type-3",
      "typeListing": "article",
      "imageMobile": "/sites/globe.com.ph/files/content/dam/globe/brie/AboutUs/newsroom/common/default-5/corporate-default-6-primary-thumbnail-m.jpg",
      "imageDesktop": "/sites/globe.com.ph/files/content/dam/globe/brie/AboutUs/newsroom/common/default-5/corporate-default-6-primary-thumbnail-d.jpg",
      "description": "Globe’s unprecedented network builds will intensify further throughout the year as it remains focused on customer satisfaction.",
      "datePosted": "Feb 26, 2021 | 01:28 PM",
      "titleFromTag": "Corporate"
    },
    {
      "title": "Globe myBusiness Holds Modern Tao Ke Exclusive: Taking the Lead in 2021 for Their Loyal Clients",
      "nonclickable": false,
      "openNewTab": false,
      "borderArticle": "border-color:#0074D9;",
      "borderTopArticle": "border-top-color:#0074D9;",
      "imageListing": "/sites/globe.com.ph/files/content/dam/globe/brie/AboutUs/newsroom/business/globe-mybusiness-holds-modern-tao-ke-exclusive/newsroom-business-modern-tao-ke-thumbnail-listing.jpg",
      "articleUrl": "https://www.globe.com.ph/about-us/newsroom/business/globe-mybusiness-holds-modern-tao-ke-exclusive.html",
      "columnType": "articles--type-3",
      "typeListing": "article",
      "imageMobile": "/sites/globe.com.ph/files/content/dam/globe/brie/AboutUs/newsroom/business/globe-mybusiness-holds-modern-tao-ke-exclusive/newsroom-business-modern-tao-ke-primary-thumbnail-m.jpg",
      "imageDesktop": "/sites/globe.com.ph/files/content/dam/globe/brie/AboutUs/newsroom/business/globe-mybusiness-holds-modern-tao-ke-exclusive/newsroom-business-modern-tao-ke-primary-thumbnail-d.jpg",
      "description": "Globe myBusiness partnered with CHiNOY TV to provide one-on-one business mentorships online, through Modern Tao Ke Exclusive: Taking the Lead in 2021.",
      "datePosted": "Feb 26, 2021 | 10:31 AM",
      "titleFromTag": "Business"
    }
  ]
}
