{
  "status": 200,
  "page": 138,
  "totalPage": 298,
  "range": "1645-1656",
  "total": 3573,
  "result": [
    {
      "title": "Globe Heightens Campaign vs Illegal Antennas, Repeaters",
      "nonclickable": false,
      "openNewTab": false,
      "borderArticle": "border-color:#0074D9;",
      "borderTopArticle": "border-top-color:#0074D9;",
      "imageListing": "/sites/globe.com.ph/files/content/dam/globe/brie/AboutUs/newsroom/common/updated/Corporate-globe-thumbnail-listing.jpg",
      "articleUrl": "https://www.globe.com.ph/about-us/newsroom/corporate/globe-heightens-campaign-vs-illegal-antennas-repeaters.html",
      "columnType": "articles--type-3",
      "typeListing": "article",
      "imageMobile": "/sites/globe.com.ph/files/content/dam/globe/brie/AboutUs/newsroom/common/updated/Corporate-globe-primary-thumbnail-m.jpg",
      "imageDesktop": "/sites/globe.com.ph/files/content/dam/globe/brie/AboutUs/newsroom/common/updated/Corporate-globe-primary-thumbnail-d.jpg",
      "description": "An employee of a third-party contractor was recently arrested after trying to sell Globe booster antennas.",
      "datePosted": "Feb 24, 2021 | 04:54 PM",
      "titleFromTag": "Corporate"
    },
    {
      "title": "Got Globe Rewards Points? Yes, it’s Good as Cash!",
      "nonclickable": false,
      "openNewTab": false,
      "borderArticle": "border-color:#0074D9;",
      "borderTopArticle": "border-top-color:#0074D9;",
      "imageListing": "/sites/globe.com.ph/files/content/dam/globe/brie/AboutUs/newsroom/consumer/globe-rewards-points-good-as-cash/newsroom-consumer-rewards-points-cash-thumbnail-listing.jpg",
      "articleUrl": "https://www.globe.com.ph/about-us/newsroom/consumer/globe-rewards-points-good-as-cash.html",
      "columnType": "articles--type-3",
      "typeListing": "article",
      "imageMobile": "/sites/globe.com.ph/files/content/dam/globe/brie/AboutUs/newsroom/consumer/globe-rewards-points-good-as-cash/newsroom-consumer-rewards-points-cash-primary-thumbnail-m.jpg",
      "imageDesktop": "/sites/globe.com.ph/files/content/dam/globe/brie/AboutUs/newsroom/consumer/globe-rewards-points-good-as-cash/newsroom-consumer-rewards-points-cash-primary-thumbnail-d.jpg",
      "description": "At One Point = One Peso, Globe Rewards gives you more buying power to enjoy more perks and benefits across several brands and merchants.",
      "datePosted": "Feb 24, 2021 | 04:41 PM",
      "titleFromTag": "Consumer"
    },
    {
      "title": "Eala Relishes ‘Underdog Tag’; Eyes More Tournaments to Reach Goals for 2021",
      "nonclickable": false,
      "openNewTab": false,
      "borderArticle": "border-color:#0074D9;",
      "borderTopArticle": "border-top-color:#0074D9;",
      "imageListing": "/sites/globe.com.ph/files/content/dam/globe/brie/AboutUs/newsroom/corporate/eala-relishes-underdog-tag/newsroom-corporate-eala-relishes-underdog-thumbnail-listing.jpg",
      "articleUrl": "https://www.globe.com.ph/about-us/newsroom/corporate/eala-relishes-underdog-tag.html",
      "columnType": "articles--type-3",
      "typeListing": "article",
      "imageMobile": "/sites/globe.com.ph/files/content/dam/globe/brie/AboutUs/newsroom/corporate/eala-relishes-underdog-tag/newsroom-corporate-eala-relishes-underdog-primary-thumbnail-m.jpg",
      "imageDesktop": "/sites/globe.com.ph/files/content/dam/globe/brie/AboutUs/newsroom/corporate/eala-relishes-underdog-tag/newsroom-corporate-eala-relishes-underdog-primary-thumbnail-d.jpg",
      "description": "Alex Eala is not affected by her relatively unknown status when it comes to the women’s tour.",
      "datePosted": "Feb 24, 2021 | 04:40 PM",
      "titleFromTag": "Corporate"
    },
    {
      "title": "Globe Receives Four Golden Arrow Recognition on Corporate Governance",
      "nonclickable": false,
      "openNewTab": false,
      "borderArticle": "border-color:#0074D9;",
      "borderTopArticle": "border-top-color:#0074D9;",
      "imageListing": "/sites/globe.com.ph/files/content/dam/globe/brie/AboutUs/newsroom/corporate/four-golden-arrow-recognition-corporate-governance/newsroom-corporate-golden-arrow-recognition-thumbnail-listing.jpg",
      "articleUrl": "https://www.globe.com.ph/about-us/newsroom/corporate/four-golden-arrow-recognition-corporate-governance.html",
      "columnType": "articles--type-3",
      "typeListing": "article",
      "imageMobile": "/sites/globe.com.ph/files/content/dam/globe/brie/AboutUs/newsroom/corporate/four-golden-arrow-recognition-corporate-governance/newsroom-corporate-golden-arrow-recognition-primary-thumbnail-m.jpg",
      "imageDesktop": "/sites/globe.com.ph/files/content/dam/globe/brie/AboutUs/newsroom/corporate/four-golden-arrow-recognition-corporate-governance/newsroom-corporate-golden-arrow-recognition-primary-thumbnail-d.jpg",
      "description": "Globe received the coveted Four Golden Arrow Award during the ASEAN Corporate Governance Scorecard recognition ceremony held on February 19.",
      "datePosted": "Feb 24, 2021 | 02:00 PM",
      "titleFromTag": "Corporate"
    },
    {
      "title": "Globe Readies VoLTE Service for Postpaid Customers in 1,538 Towns and Cities All Over the Country",
      "nonclickable": false,
      "openNewTab": false,
      "borderArticle": "border-color:#0074D9;",
      "borderTopArticle": "border-top-color:#0074D9;",
      "imageListing": "/sites/globe.com.ph/files/content/dam/globe/brie/AboutUs/newsroom/common/default-10/default-consumer-2-thumbnail-listing.jpg",
      "articleUrl": "https://www.globe.com.ph/about-us/newsroom/consumer/globe-readies-volte-service-postpaid-customers.html",
      "columnType": "articles--type-3",
      "typeListing": "article",
      "imageMobile": "/sites/globe.com.ph/files/content/dam/globe/brie/AboutUs/newsroom/common/default-10/default-consumer-2-primary-thumbnail-m.jpg",
      "imageDesktop": "/sites/globe.com.ph/files/content/dam/globe/brie/AboutUs/newsroom/common/default-10/default-consumer-2-primary-thumbnail-d.jpg",
      "description": "Globe is all set to make its VoLTE service accessible to postpaid customers in more towns and municipalities in the country.",
      "datePosted": "Feb 24, 2021 | 11:31 AM",
      "titleFromTag": "Consumer"
    },
    {
      "title": "Globe Helps Develop English Language Literacy Among Children",
      "nonclickable": false,
      "openNewTab": false,
      "borderArticle": "border-color:#1C91C5;",
      "borderTopArticle": "border-top-color:#1C91C5;",
      "imageListing": "/sites/globe.com.ph/files/content/dam/globe/brie/AboutUs/newsroom/sustainability/globe-helps-develop-english-literacy-children/newsroom-sustainability-globe-develop-english-literacy-thumbnail-listing.jpg",
      "articleUrl": "https://www.globe.com.ph/about-us/newsroom/sustainability/globe-helps-develop-english-literacy-children.html",
      "columnType": "articles--type-3",
      "typeListing": "article",
      "imageMobile": "/sites/globe.com.ph/files/content/dam/globe/brie/AboutUs/newsroom/sustainability/globe-helps-develop-english-literacy-children/newsroom-sustainability-globe-develop-english-literacy-primary-thumbnail-m.jpg",
      "imageDesktop": "/sites/globe.com.ph/files/content/dam/globe/brie/AboutUs/newsroom/sustainability/globe-helps-develop-english-literacy-children/newsroom-sustainability-globe-develop-english-literacy-primary-thumbnail-d.jpg",
      "description": "In support of the Department of Education (DepEd), Globe helps develop English language literacy among children during the pandemic",
      "datePosted": "Feb 24, 2021 | 09:01 AM",
      "titleFromTag": "Sustainability"
    },
    {
      "title": "Pampanga, Batangas, Laguna and Parts of Cavite Now 4G LTE Ready",
      "nonclickable": false,
      "openNewTab": false,
      "borderArticle": "border-color:#0074D9;",
      "borderTopArticle": "border-top-color:#0074D9;",
      "imageListing": "/sites/globe.com.ph/files/content/dam/globe/brie/AboutUs/newsroom/common/default-11/default-business-5-thumbnail-listing.jpg",
      "articleUrl": "https://www.globe.com.ph/about-us/newsroom/corporate/pampanga-batangas-laguna-cavite-4g-lte-ready.html",
      "columnType": "articles--type-3",
      "typeListing": "article",
      "imageMobile": "/sites/globe.com.ph/files/content/dam/globe/brie/AboutUs/newsroom/common/default-11/default-business-5-primary-thumbnail-m.jpg",
      "imageDesktop": "/sites/globe.com.ph/files/content/dam/globe/brie/AboutUs/newsroom/common/default-11/default-business-5-primary-thumbnail-d.jpg",
      "description": "Globe customers in Pampanga, Batangas, Laguna and parts of Cavite can now enjoy improved call, SMS and data browsing services starting next month.",
      "datePosted": "Feb 24, 2021 | 08:17 AM",
      "titleFromTag": "Corporate"
    },
    {
      "title": "Globe, DITO Telecommunity Ink Interconnection Deal for Mobile Calls, SMS",
      "nonclickable": false,
      "openNewTab": false,
      "borderArticle": "border-color:#0074D9;",
      "borderTopArticle": "border-top-color:#0074D9;",
      "imageListing": "/sites/globe.com.ph/files/content/dam/globe/brie/AboutUs/newsroom/common/updated/Corporate-globe-thumbnail-listing.jpg",
      "articleUrl": "https://www.globe.com.ph/about-us/newsroom/corporate/globe-dito-telecommunity-ink-interconnection-deal.html",
      "columnType": "articles--type-3",
      "typeListing": "article",
      "imageMobile": "/sites/globe.com.ph/files/content/dam/globe/brie/AboutUs/newsroom/common/updated/Corporate-globe-primary-thumbnail-m.jpg",
      "imageDesktop": "/sites/globe.com.ph/files/content/dam/globe/brie/AboutUs/newsroom/common/updated/Corporate-globe-primary-thumbnail-d.jpg",
      "description": "Philippine telecommunications players Globe and DITO Telecommunity inked an interconnection deal linking subscribers of both telcos.",
      "datePosted": "Feb 24, 2021 | 12:01 AM",
      "titleFromTag": "Corporate"
    },
    {
      "title": "Customer-Centric Initiatives at Heart of Globe’s #1stWorldNetwork",
      "nonclickable": false,
      "openNewTab": false,
      "borderArticle": "border-color:#0074D9;",
      "borderTopArticle": "border-top-color:#0074D9;",
      "imageListing": "/sites/globe.com.ph/files/content/dam/globe/brie/AboutUs/newsroom/corporate/customer-centric-initiatives-heart-1stworldnetwork/newsroom-corporate-customer-centric-initiatives-thumbnail-listing.jpg",
      "articleUrl": "https://www.globe.com.ph/about-us/newsroom/corporate/customer-centric-initiatives-heart-1stworldnetwork.html",
      "columnType": "articles--type-3",
      "typeListing": "article",
      "imageMobile": "/sites/globe.com.ph/files/content/dam/globe/brie/AboutUs/newsroom/corporate/customer-centric-initiatives-heart-1stworldnetwork/newsroom-corporate-customer-centric-initiatives-primary-thumbnail-m.jpg",
      "imageDesktop": "/sites/globe.com.ph/files/content/dam/globe/brie/AboutUs/newsroom/corporate/customer-centric-initiatives-heart-1stworldnetwork/newsroom-corporate-customer-centric-initiatives-primary-thumbnail-d.jpg",
      "description": "Globe has significantly modernized its infrastructure, creating product innovations across its businesses with the goal of realizing a #1stWorldNetwork.",
      "datePosted": "Feb 24, 2021 | 12:01 AM",
      "titleFromTag": "Corporate"
    },
    {
      "title": "LCC, Globe Give LGUs Means to Prepare for their own Anti-COVID-19 Vaccination Programs",
      "nonclickable": false,
      "openNewTab": false,
      "borderArticle": "border-color:#0074D9;",
      "borderTopArticle": "border-top-color:#0074D9;",
      "imageListing": "/sites/globe.com.ph/files/content/dam/globe/brie/AboutUs/newsroom/partners/lcc-globe-lgu-anti-covid-19-vaccination-programs/newsroom-partners-lcc-globe-lgu-thumbnail-listing.jpg",
      "articleUrl": "https://www.globe.com.ph/about-us/newsroom/partners/lcc-globe-lgu-anti-covid-19-vaccination-programs.html",
      "columnType": "articles--type-3",
      "typeListing": "article",
      "imageMobile": "/sites/globe.com.ph/files/content/dam/globe/brie/AboutUs/newsroom/partners/lcc-globe-lgu-anti-covid-19-vaccination-programs/newsroom-partners-lcc-globe-lgu-primary-thumbnail-m.jpg",
      "imageDesktop": "/sites/globe.com.ph/files/content/dam/globe/brie/AboutUs/newsroom/partners/lcc-globe-lgu-anti-covid-19-vaccination-programs/newsroom-partners-lcc-globe-lgu-primary-thumbnail-d.jpg",
      "description": "The Lab on Getting Cities Ready for Vaccines will be on 24 February 2021 (Wednesday), 3:00 - 5:00 p.m.",
      "datePosted": "Feb 23, 2021 | 04:47 PM",
      "titleFromTag": "Partners"
    },
    {
      "title": "Globe Business Launches Its Own Network Virtualization Platform",
      "nonclickable": false,
      "openNewTab": false,
      "borderArticle": "border-color:#0074D9;",
      "borderTopArticle": "border-top-color:#0074D9;",
      "imageListing": "/sites/globe.com.ph/files/content/dam/globe/brie/AboutUs/newsroom/business/globe-business-launches-own-virtualization-platform/newsroom-business-own-virtualization-platform-thumbnail-listing.jpg",
      "articleUrl": "https://www.globe.com.ph/about-us/newsroom/business/globe-business-launches-own-virtualization-platform.html",
      "columnType": "articles--type-3",
      "typeListing": "article",
      "imageMobile": "/sites/globe.com.ph/files/content/dam/globe/brie/AboutUs/newsroom/business/globe-business-launches-own-virtualization-platform/newsroom-business-own-virtualization-platform-primary-thumbnail-m.jpg",
      "imageDesktop": "/sites/globe.com.ph/files/content/dam/globe/brie/AboutUs/newsroom/business/globe-business-launches-own-virtualization-platform/newsroom-business-own-virtualization-platform-primary-thumbnail-d.jpg",
      "description": "Network Function Virtualization Orchestrator (NFVO): Globe Business launches the first network virtualization in the Philippines.",
      "datePosted": "Feb 23, 2021 | 03:49 PM",
      "titleFromTag": "Business"
    },
    {
      "title": "Alex Eala Climbs to 763rd in WTA World Rankings",
      "nonclickable": false,
      "openNewTab": false,
      "borderArticle": "border-color:#0074D9;",
      "borderTopArticle": "border-top-color:#0074D9;",
      "imageListing": "/sites/globe.com.ph/files/content/dam/globe/brie/AboutUs/newsroom/corporate/alex-eala-climbs-763rd-wta-world-rankings/newsroom-corporate-eala-763rd-rankings-thumbnail-listing.jpg",
      "articleUrl": "https://www.globe.com.ph/about-us/newsroom/corporate/alex-eala-climbs-763rd-wta-world-rankings.html",
      "columnType": "articles--type-3",
      "typeListing": "article",
      "imageMobile": "/sites/globe.com.ph/files/content/dam/globe/brie/AboutUs/newsroom/corporate/alex-eala-climbs-763rd-wta-world-rankings/newsroom-corporate-eala-763rd-rankings-primary-thumbnail-m.jpg",
      "imageDesktop": "/sites/globe.com.ph/files/content/dam/globe/brie/AboutUs/newsroom/corporate/alex-eala-climbs-763rd-wta-world-rankings/newsroom-corporate-eala-763rd-rankings-primary-thumbnail-d.jpg",
      "description": "Filipino tennis prodigy and Globe Ambassador Alex Eala’s remarkable run so far this year has resulted in another career milestone for her.",
      "datePosted": "Feb 23, 2021 | 12:32 PM",
      "titleFromTag": "Corporate"
    }
  ]
}
