{
  "status": 200,
  "page": 139,
  "totalPage": 298,
  "range": "1657-1668",
  "total": 3573,
  "result": [
    {
      "title": "Globe Sets Up Free Calls, WiFi in Tandag City Surigao Del Sur",
      "nonclickable": false,
      "openNewTab": false,
      "borderArticle": "border-color:#0074D9;",
      "borderTopArticle": "border-top-color:#0074D9;",
      "imageListing": "/sites/globe.com.ph/files/content/dam/globe/brie/AboutUs/newsroom/common/updated/Corporate-globe-thumbnail-listing.jpg",
      "articleUrl": "https://www.globe.com.ph/about-us/newsroom/corporate/free-calls-wifi-tandag-surigao-del-sur.html",
      "columnType": "articles--type-3",
      "typeListing": "article",
      "imageMobile": "/sites/globe.com.ph/files/content/dam/globe/brie/AboutUs/newsroom/common/updated/Corporate-globe-primary-thumbnail-m.jpg",
      "imageDesktop": "/sites/globe.com.ph/files/content/dam/globe/brie/AboutUs/newsroom/common/updated/Corporate-globe-primary-thumbnail-d.jpg",
      "description": "Globe’s Libreng Tawag, Charging, and Wifi services were provided in Tandag City, Surigao del Sur to assist residents displaced by Tropical Depression Auring.",
      "datePosted": "Feb 22, 2021 | 06:06 PM",
      "titleFromTag": "Corporate"
    },
    {
      "title": "Globe Launches 5G Roaming in Thailand",
      "nonclickable": false,
      "openNewTab": false,
      "borderArticle": "border-color:#0074D9;",
      "borderTopArticle": "border-top-color:#0074D9;",
      "imageListing": "/sites/globe.com.ph/files/content/dam/globe/brie/AboutUs/newsroom/consumer/globe-launches-5g-roaming-thailand/newsroom-consumer-5g-roaming-thailand-thumbnail-listing.jpg",
      "articleUrl": "https://www.globe.com.ph/about-us/newsroom/consumer/globe-launches-5g-roaming-thailand.html",
      "columnType": "articles--type-3",
      "typeListing": "article",
      "imageMobile": "/sites/globe.com.ph/files/content/dam/globe/brie/AboutUs/newsroom/consumer/globe-launches-5g-roaming-thailand/newsroom-consumer-5g-roaming-thailand-primary-thumbnail-m.jpg",
      "imageDesktop": "/sites/globe.com.ph/files/content/dam/globe/brie/AboutUs/newsroom/consumer/globe-launches-5g-roaming-thailand/newsroom-consumer-5g-roaming-thailand-primary-thumbnail-d.jpg",
      "description": "Globe also made another milestone with its debut of the 5G roaming service in Thailand in collaboration with roaming ally and Thailand’s largest telco, AIS.",
      "datePosted": "Feb 22, 2021 | 05:53 PM",
      "titleFromTag": "Consumer"
    },
    {
      "title": "‘Napakalaking Tulong’: Zambales Official Credits Globe for Town’s Improved Economic Standing",
      "nonclickable": false,
      "openNewTab": false,
      "borderArticle": "border-color:#1C91C5;",
      "borderTopArticle": "border-top-color:#1C91C5;",
      "imageListing": "/sites/globe.com.ph/files/content/dam/globe/brie/AboutUs/newsroom/sustainability/zambales-credits-globe-improved-economic-standing/newsroom-sustainability-zambales-credits-globe-thumbnail-listing.jpg",
      "articleUrl": "https://www.globe.com.ph/about-us/newsroom/sustainability/zambales-credits-globe-improved-economic-standing.html",
      "columnType": "articles--type-3",
      "typeListing": "article",
      "imageMobile": "/sites/globe.com.ph/files/content/dam/globe/brie/AboutUs/newsroom/sustainability/zambales-credits-globe-improved-economic-standing/newsroom-sustainability-zambales-credits-globe-primary-thumbnail-m.jpg",
      "imageDesktop": "/sites/globe.com.ph/files/content/dam/globe/brie/AboutUs/newsroom/sustainability/zambales-credits-globe-improved-economic-standing/newsroom-sustainability-zambales-credits-globe-primary-thumbnail-d.jpg",
      "description": "A local official in Sta. Cruz, Zambales says fast, reliable and steady access to the internet has made it possible for his constituents to cope with the economic and social impact of the COVID-19 pandemic.",
      "datePosted": "Feb 22, 2021 | 02:33 PM",
      "titleFromTag": "Sustainability"
    },
    {
      "title": "Globe Helps TESDA Expand Upskilling Program for Returning OFWs",
      "nonclickable": false,
      "openNewTab": false,
      "borderArticle": "border-color:#1C91C5;",
      "borderTopArticle": "border-top-color:#1C91C5;",
      "imageListing": "/sites/globe.com.ph/files/content/dam/globe/brie/AboutUs/newsroom/common/updated/Corporate-globe-thumbnail-listing.jpg",
      "articleUrl": "https://www.globe.com.ph/about-us/newsroom/sustainability/globe-helps-tesda-expand-upskilling-program.html",
      "columnType": "articles--type-3",
      "typeListing": "article",
      "imageMobile": "/sites/globe.com.ph/files/content/dam/globe/brie/AboutUs/newsroom/common/updated/Corporate-globe-primary-thumbnail-m.jpg",
      "imageDesktop": "/sites/globe.com.ph/files/content/dam/globe/brie/AboutUs/newsroom/common/updated/Corporate-globe-primary-thumbnail-d.jpg",
      "description": "Globe further strengthened its partnership with the Technical Education and Skills Development Authority by enabling its upskilling program for displaced OFWs.",
      "datePosted": "Feb 22, 2021 | 02:29 PM",
      "titleFromTag": "Sustainability"
    },
    {
      "title": "#GlobeSports: Rising Boxing Superstar Carl Jammes Martin KOs Opponent; Keeps Unbeaten Record",
      "nonclickable": false,
      "openNewTab": false,
      "borderArticle": "border-color:#0074D9;",
      "borderTopArticle": "border-top-color:#0074D9;",
      "imageListing": "/sites/globe.com.ph/files/content/dam/globe/brie/AboutUs/newsroom/consumer/carl-jammes-martin-ko-opponent/newsroom-consumer-carl-jammes-martin-thumbnail-listing.jpg",
      "articleUrl": "https://www.globe.com.ph/about-us/newsroom/consumer/carl-jammes-martin-ko-opponent.html",
      "columnType": "articles--type-3",
      "typeListing": "article",
      "imageMobile": "/sites/globe.com.ph/files/content/dam/globe/brie/AboutUs/newsroom/consumer/carl-jammes-martin-ko-opponent/newsroom-consumer-carl-jammes-martin-primary-thumbnail-m.jpg",
      "imageDesktop": "/sites/globe.com.ph/files/content/dam/globe/brie/AboutUs/newsroom/consumer/carl-jammes-martin-ko-opponent/newsroom-consumer-carl-jammes-martin-primary-thumbnail-d.jpg",
      "description": "Rising boxing superstar Carl Jammes Martin posted a sensational win after knocking out Joe Tejones in the fifth round of their bout in Binan City, Laguna.",
      "datePosted": "Feb 22, 2021 | 01:45 PM",
      "titleFromTag": "Consumer"
    },
    {
      "title": "Equip Your Business with Smooth Collaboration and Seamless Connectivity with Globe myBusiness and Zoom",
      "nonclickable": false,
      "openNewTab": false,
      "borderArticle": "border-color:#0074D9;",
      "borderTopArticle": "border-top-color:#0074D9;",
      "imageListing": "/sites/globe.com.ph/files/content/dam/globe/brie/AboutUs/newsroom/business/equip-business-collaboration-connectivity-zoom/newsroom-business-collaboration-connectivity-zoom-thumbnail-listing.jpg",
      "articleUrl": "https://www.globe.com.ph/about-us/newsroom/business/equip-business-collaboration-connectivity-zoom.html",
      "columnType": "articles--type-3",
      "typeListing": "article",
      "imageMobile": "/sites/globe.com.ph/files/content/dam/globe/brie/AboutUs/newsroom/business/equip-business-collaboration-connectivity-zoom/newsroom-business-collaboration-connectivity-zoom-primary-thumbnail-m.jpg",
      "imageDesktop": "/sites/globe.com.ph/files/content/dam/globe/brie/AboutUs/newsroom/business/equip-business-collaboration-connectivity-zoom/newsroom-business-collaboration-connectivity-zoom-primary-thumbnail-d.jpg",
      "description": "Globe myBusiness is launching its new exclusive offer featuring two solutions for the price of one, the Direct Internet and Zoom bundle.",
      "datePosted": "Feb 22, 2021 | 01:08 PM",
      "titleFromTag": "Business"
    },
    {
      "title": "Notre Dame of Kidapawan Adjusts to Changes by Partnering with Globe",
      "nonclickable": false,
      "openNewTab": false,
      "borderArticle": "border-color:#0074D9;",
      "borderTopArticle": "border-top-color:#0074D9;",
      "imageListing": "/sites/globe.com.ph/files/content/dam/globe/brie/AboutUs/newsroom/business/notre-dame-of-kidapawan-partner-globe/newsroom-business-notre-dame-kidapawan-thumbnail-listing.jpg",
      "articleUrl": "https://www.globe.com.ph/about-us/newsroom/business/notre-dame-of-kidapawan-partner-globe.html",
      "columnType": "articles--type-3",
      "typeListing": "article",
      "imageMobile": "/sites/globe.com.ph/files/content/dam/globe/brie/AboutUs/newsroom/business/notre-dame-of-kidapawan-partner-globe/newsroom-business-notre-dame-kidapawan-primary-thumbnail-m.jpg",
      "imageDesktop": "/sites/globe.com.ph/files/content/dam/globe/brie/AboutUs/newsroom/business/notre-dame-of-kidapawan-partner-globe/newsroom-business-notre-dame-kidapawan-primary-thumbnail-d.jpg",
      "description": "To efficiently adapt & adjust to challenges of virtual education, Notre Dame of Kidapawan College partnered with Globe for their School Management System.",
      "datePosted": "Feb 22, 2021 | 09:13 AM",
      "titleFromTag": "Business"
    },
    {
      "title": "Globe Supports Climate-Related Financial Disclosure for a Safer, Sustainable World",
      "nonclickable": false,
      "openNewTab": false,
      "borderArticle": "border-color:#1C91C5;",
      "borderTopArticle": "border-top-color:#1C91C5;",
      "imageListing": "/sites/globe.com.ph/files/content/dam/globe/brie/AboutUs/newsroom/common/updated/Corporate-globe-thumbnail-listing.jpg",
      "articleUrl": "https://www.globe.com.ph/about-us/newsroom/sustainability/globe-supports-climate-related-financial-disclosure.html",
      "columnType": "articles--type-3",
      "typeListing": "article",
      "imageMobile": "/sites/globe.com.ph/files/content/dam/globe/brie/AboutUs/newsroom/common/updated/Corporate-globe-primary-thumbnail-m.jpg",
      "imageDesktop": "/sites/globe.com.ph/files/content/dam/globe/brie/AboutUs/newsroom/common/updated/Corporate-globe-primary-thumbnail-d.jpg",
      "description": "Globe formally joined the globally-recognized TCFD as part of its commitment in mitigating climate change through a science-based, numbers-backed report.",
      "datePosted": "Feb 22, 2021 | 08:54 AM",
      "titleFromTag": "Sustainability"
    },
    {
      "title": "Globe Brings Widest 5G Network in the Philippines",
      "nonclickable": false,
      "openNewTab": false,
      "borderArticle": "border-color:#0074D9;",
      "borderTopArticle": "border-top-color:#0074D9;",
      "imageListing": "/sites/globe.com.ph/files/content/dam/globe/brie/AboutUs/newsroom/common/default-11/default-business-5-thumbnail-listing.jpg",
      "articleUrl": "https://www.globe.com.ph/about-us/newsroom/consumer/globe-brings-widest-5g-network-philippines.html",
      "columnType": "articles--type-3",
      "typeListing": "article",
      "imageMobile": "/sites/globe.com.ph/files/content/dam/globe/brie/AboutUs/newsroom/common/default-11/default-business-5-primary-thumbnail-m.jpg",
      "imageDesktop": "/sites/globe.com.ph/files/content/dam/globe/brie/AboutUs/newsroom/common/default-11/default-business-5-primary-thumbnail-d.jpg",
      "description": "As of January this year, Globe's 5G coverage is present in 848 locations in Metro Manila and Rizal; and in 221 areas in Visayas and Mindanao.",
      "datePosted": "Feb 22, 2021 | 08:01 AM",
      "titleFromTag": "Consumer"
    },
    {
      "title": "#BrigadangAyalaKaakay: Prepaid Load Business Keeps Madaluyong’s Trusted Sari-Sari Store Afloat",
      "nonclickable": false,
      "openNewTab": false,
      "borderArticle": "border-color:#1C91C5;",
      "borderTopArticle": "border-top-color:#1C91C5;",
      "imageListing": "/sites/globe.com.ph/files/content/dam/globe/brie/AboutUs/newsroom/sustainability/trusted-sari-sari-store-afloat/newsroom-sustainability-trusted-sari-sari-store-afloat-thumbnail-listing.jpg",
      "articleUrl": "https://www.globe.com.ph/about-us/newsroom/sustainability/prepaid-load-business-mandaluyong-sari-sari-store-afloat.html",
      "columnType": "articles--type-3",
      "typeListing": "article",
      "imageMobile": "/sites/globe.com.ph/files/content/dam/globe/brie/AboutUs/newsroom/sustainability/trusted-sari-sari-store-afloat/newsroom-sustainability-trusted-sari-sari-store-afloat-primary-thumbnail-m.jpg",
      "imageDesktop": "/sites/globe.com.ph/files/content/dam/globe/brie/AboutUs/newsroom/sustainability/trusted-sari-sari-store-afloat/newsroom-sustainability-trusted-sari-sari-store-afloat-primary-thumbnail-d.jpg",
      "description": "#BrigadangAyalaKaakay is a 12-week food distribution program that provides rice, fresh vegetables, canned goods, & bread to 10,000 families across Metro Manila.",
      "datePosted": "Feb 22, 2021 | 08:01 AM",
      "titleFromTag": "Sustainability"
    },
    {
      "title": "Globe Readies Disaster Assistance as Auring Threatens Caraga, Visayas",
      "nonclickable": false,
      "openNewTab": false,
      "borderArticle": "border-color:#0074D9;",
      "borderTopArticle": "border-top-color:#0074D9;",
      "imageListing": "/sites/globe.com.ph/files/content/dam/globe/brie/AboutUs/newsroom/common/updated/Corporate-globe-thumbnail-listing.jpg",
      "articleUrl": "https://www.globe.com.ph/about-us/newsroom/corporate/disaster-assistance-auring-caraga-visayas.html",
      "columnType": "articles--type-3",
      "typeListing": "article",
      "imageMobile": "/sites/globe.com.ph/files/content/dam/globe/brie/AboutUs/newsroom/common/updated/Corporate-globe-primary-thumbnail-m.jpg",
      "imageDesktop": "/sites/globe.com.ph/files/content/dam/globe/brie/AboutUs/newsroom/common/updated/Corporate-globe-primary-thumbnail-d.jpg",
      "description": "Globe is ready to extend assistance to affected residents in Caraga and other areas in Visayas and Mindanao threatened by Tropical Storm Auring.",
      "datePosted": "Feb 20, 2021 | 12:02 PM",
      "titleFromTag": "Corporate"
    },
    {
      "title": "#GlobeofGood: Globe Builds Own COVID-19 Testing Facility to Support Employees",
      "nonclickable": false,
      "openNewTab": false,
      "borderArticle": "border-color:#1C91C5;",
      "borderTopArticle": "border-top-color:#1C91C5;",
      "imageListing": "/sites/globe.com.ph/files/content/dam/globe/brie/AboutUs/newsroom/sustainability/globe-builds-own-covid-19-testing-facility/newsroom-sustainability-globe-testing-facility-thumbnail-listing.jpg",
      "articleUrl": "https://www.globe.com.ph/about-us/newsroom/sustainability/globe-builds-own-covid-19-testing-facility.html",
      "columnType": "articles--type-3",
      "typeListing": "article",
      "imageMobile": "/sites/globe.com.ph/files/content/dam/globe/brie/AboutUs/newsroom/sustainability/globe-builds-own-covid-19-testing-facility/newsroom-sustainability-globe-testing-facility-primary-thumbnail-m.jpg",
      "imageDesktop": "/sites/globe.com.ph/files/content/dam/globe/brie/AboutUs/newsroom/sustainability/globe-builds-own-covid-19-testing-facility/newsroom-sustainability-globe-testing-facility-primary-thumbnail-d.jpg",
      "description": "The DOH approved and certified facility covers testing for Globe’s employees, their dependents, and employees of its vendor and managed services partners.",
      "datePosted": "Feb 19, 2021 | 12:21 PM",
      "titleFromTag": "Sustainability"
    }
  ]
}
