{
  "status": 200,
  "page": 14,
  "totalPage": 298,
  "range": "157-168",
  "total": 3573,
  "result": [
    {
      "title": "Enjoy Shareable Connectivity Using Globe At Home Prepaid WiFi with ₱88 WiFi SIM offer",
      "nonclickable": false,
      "openNewTab": false,
      "borderArticle": "border-color:#0074D9;",
      "borderTopArticle": "border-top-color:#0074D9;",
      "imageListing": "/sites/globe.com.ph/files/content/dam/globe/brie/AboutUs/newsroom/common/default-consumer-2/default-consumer-thumbnail-listing.jpg",
      "articleUrl": "https://www.globe.com.ph/about-us/newsroom/consumer/globe-at-home-prepaid-wifi-88-pesos-wifi-sim.html",
      "columnType": "articles--type-3",
      "typeListing": "article",
      "imageMobile": "/sites/globe.com.ph/files/content/dam/globe/brie/AboutUs/newsroom/common/default-consumer-2/default-consumer-primary-thumbnail-m.jpg",
      "imageDesktop": "/sites/globe.com.ph/files/content/dam/globe/brie/AboutUs/newsroom/common/default-consumer-2/default-consumer-primary-thumbnail-d.jpg",
      "description": "Globe At Home advocates for an affordable and hassle-free internet connection at home through the Home Prepaid WiFi SIM. ",
      "datePosted": "Aug 17, 2023 | 09:54 AM",
      "titleFromTag": "Consumer"
    },
    {
      "title": "Globe’s 917Ventures as Premier Tech Workplace in PH",
      "nonclickable": false,
      "openNewTab": false,
      "borderArticle": "border-color:#0074D9;",
      "borderTopArticle": "border-top-color:#0074D9;",
      "imageListing": "/sites/globe.com.ph/files/content/dam/globe/brie/AboutUs/newsroom/common/default-partners-4/default-partners-4-primary-thumbnail-listing.jpg",
      "articleUrl": "https://www.globe.com.ph/about-us/newsroom/corporate/917ventures-premier-tech-workplace-ph.html",
      "columnType": "articles--type-3",
      "typeListing": "article",
      "imageMobile": "/sites/globe.com.ph/files/content/dam/globe/brie/AboutUs/newsroom/common/default-partners-4/default-partners-4-primary-primary-thumbnail-m.jpg",
      "imageDesktop": "/sites/globe.com.ph/files/content/dam/globe/brie/AboutUs/newsroom/common/default-partners-4/default-partners-4-primary-primary-thumbnail-d.jpg",
      "description": "Globe’s 917Ventures continues to stand as a beacon of innovation, as it continues to provide opportunities to Filipinos seeking to build their careers. ",
      "datePosted": "Aug 17, 2023 | 09:54 AM",
      "titleFromTag": "Corporate"
    },
    {
      "title": "Globe and Acad Arena Empower Young Talents in PH Gaming Industry, Unveil 2023 Scholarship Awardee",
      "nonclickable": false,
      "openNewTab": false,
      "borderArticle": "border-color:#0074D9;",
      "borderTopArticle": "border-top-color:#0074D9;",
      "imageListing": "/sites/globe.com.ph/files/content/dam/globe/brie/About-us/Newsroom/image/Consumer/globe-acad-arena-unveil-2023-scholarship-awardee/thumbnail-listing.jpg",
      "articleUrl": "https://www.globe.com.ph/about-us/newsroom/consumer/globe-acad-arena-unveil-2023-scholarship-awardee.html",
      "columnType": "articles--type-3",
      "typeListing": "article",
      "imageMobile": "/sites/globe.com.ph/files/content/dam/globe/brie/About-us/Newsroom/image/Consumer/globe-acad-arena-unveil-2023-scholarship-awardee/primary-thumbnail-m.jpg",
      "imageDesktop": "/sites/globe.com.ph/files/content/dam/globe/brie/About-us/Newsroom/image/Consumer/globe-acad-arena-unveil-2023-scholarship-awardee/primary-thumbnail-d.jpg",
      "description": "Globe and Acad Arena’s CONQuest have unveiled their 2023 Scholarship awardee in a revolutionary step aimed at nurturing young talent in the gaming industry.",
      "datePosted": "Aug 16, 2023 | 01:43 PM",
      "titleFromTag": "Consumer"
    },
    {
      "title": "Globe's Cements Mobile Leadership, Keeping Revenue Market Share Lead since Q4 2016",
      "nonclickable": false,
      "openNewTab": false,
      "borderArticle": "border-color:#0074D9;",
      "borderTopArticle": "border-top-color:#0074D9;",
      "imageListing": "/sites/globe.com.ph/files/content/dam/globe/brie/AboutUs/newsroom/common/default-corporate-4/corp-listing-thumbnail.jpg",
      "articleUrl": "https://www.globe.com.ph/about-us/newsroom/corporate/mobile-leadership-revenue-market-share-lead-since-q4-2016.html",
      "columnType": "articles--type-3",
      "typeListing": "article",
      "imageMobile": "/sites/globe.com.ph/files/content/dam/globe/brie/AboutUs/newsroom/common/default-corporate-4/corp-primary-banner-m.jpg",
      "imageDesktop": "/sites/globe.com.ph/files/content/dam/globe/brie/AboutUs/newsroom/common/default-corporate-4/corp-primary-thumbnail.jpg",
      "description": "Globe sustained its Mobile RMS leadership, ending the quarter at 54.6%, its highest RMS level and  the largest margin against its competitor since the pandemic.",
      "datePosted": "Aug 16, 2023 | 01:42 PM",
      "titleFromTag": "Corporate"
    },
    {
      "title": "Globe Business Expands to the Cloud with Alibaba Cloud Partnership",
      "nonclickable": false,
      "openNewTab": false,
      "borderArticle": "border-color:#0074D9;",
      "borderTopArticle": "border-top-color:#0074D9;",
      "imageListing": "/sites/globe.com.ph/files/content/dam/globe/brie/AboutUs/newsroom/business/globe-business-alibaba-cloud-partnership/eg-alibaba-cloud-thumbnail-listing.jpg",
      "articleUrl": "https://www.globe.com.ph/about-us/newsroom/business/globe-business-alibaba-cloud-partnership.html",
      "columnType": "articles--type-3",
      "typeListing": "article",
      "imageMobile": "/sites/globe.com.ph/files/content/dam/globe/brie/AboutUs/newsroom/business/globe-business-alibaba-cloud-partnership/eg-alibaba-cloud-primary-thumbnail-m.jpg",
      "imageDesktop": "/sites/globe.com.ph/files/content/dam/globe/brie/AboutUs/newsroom/business/globe-business-alibaba-cloud-partnership/eg-alibaba-cloud-primary-thumbnail-d.jpg",
      "description": "Globe Business and Alibaba Group solidifies their partnership to foster a digital ecosystem that encourages innovation, productivity, and inclusivity.",
      "datePosted": "Aug 16, 2023 | 11:25 AM",
      "titleFromTag": "Business"
    },
    {
      "title": "Globe Dominates Standard Insights Consumer Choice Awards",
      "nonclickable": false,
      "openNewTab": false,
      "borderArticle": "border-color:#0074D9;",
      "borderTopArticle": "border-top-color:#0074D9;",
      "imageListing": "/sites/globe.com.ph/files/content/dam/globe/brie/AboutUs/newsroom/common/default-awards-1/corp-default-images-thumbnail-listing.jpg",
      "articleUrl": "https://www.globe.com.ph/about-us/newsroom/corporate/standard-insights-consumer-choice-awards.html",
      "columnType": "articles--type-3",
      "typeListing": "article",
      "imageMobile": "/sites/globe.com.ph/files/content/dam/globe/brie/AboutUs/newsroom/common/default-awards-1/corp-default-images-primary-thumbnail-m.jpg",
      "imageDesktop": "/sites/globe.com.ph/files/content/dam/globe/brie/AboutUs/newsroom/common/default-awards-1/corp-default-images-primary-thumbnail-d.jpg",
      "description": "Globe has achieved a remarkable victory by winning 4 out of 6 categories in the Consumer Choice Awards, awarded by consumer intelligence firm Standard Insights.",
      "datePosted": "Aug 15, 2023 | 09:00 AM",
      "titleFromTag": "Corporate"
    },
    {
      "title": "Globe to Focus E-Waste Zero Program on Mobile and Broadband Device Circularity",
      "nonclickable": false,
      "openNewTab": false,
      "borderArticle": "border-color:#0074D9;",
      "borderTopArticle": "border-top-color:#0074D9;",
      "imageListing": "/sites/globe.com.ph/files/content/dam/globe/brie/AboutUs/newsroom/common/default-corporate-11/corp-thumbnail-listing.jpg",
      "articleUrl": "https://www.globe.com.ph/about-us/newsroom/sustainability/e-waste-zero-program-mobile-broadband-device-circularity.html",
      "columnType": "articles--type-3",
      "typeListing": "article",
      "imageMobile": "/sites/globe.com.ph/files/content/dam/globe/brie/AboutUs/newsroom/common/default-corporate-11/corp-primary-thumbnail-m.jpg",
      "imageDesktop": "/sites/globe.com.ph/files/content/dam/globe/brie/AboutUs/newsroom/common/default-corporate-11/corp-primary-thumbnail-d.jpg",
      "description": "Globe is refocusing its E-Waste Zero Program to mobile and broadband devices in response to global industry trends on electronic waste circularity.",
      "datePosted": "Aug 14, 2023 | 11:05 AM",
      "titleFromTag": "Sustainability"
    },
    {
      "title": "KonsultaMD, Makati Medical Center Join Forces to Bridge Gap Between Online and Offline Healthcare in PH",
      "nonclickable": false,
      "openNewTab": false,
      "borderArticle": "border-color:#0074D9;",
      "borderTopArticle": "border-top-color:#0074D9;",
      "imageListing": "/sites/globe.com.ph/files/content/dam/globe/brie/About-us/Newsroom/image/Corporate/konsultamd-makati-medical-center-join-forces/thumbnail-listing.jpg",
      "articleUrl": "https://www.globe.com.ph/about-us/newsroom/corporate/konsultamd-makati-medical-center-join-forces.html",
      "columnType": "articles--type-3",
      "typeListing": "article",
      "imageMobile": "/sites/globe.com.ph/files/content/dam/globe/brie/About-us/Newsroom/image/Corporate/konsultamd-makati-medical-center-join-forces/primary-thumbnail-m.jpg",
      "imageDesktop": "/sites/globe.com.ph/files/content/dam/globe/brie/About-us/Newsroom/image/Corporate/konsultamd-makati-medical-center-join-forces/primary-thumbnail-d.jpg",
      "description": "KonsultaMD and Makati Medical Center (MMC) have come together to bridge the gap between online and offline healthcare services in the country.",
      "datePosted": "Aug 14, 2023 | 11:04 AM",
      "titleFromTag": "Corporate"
    },
    {
      "title": "‘Team Tayo’: TM Launches New Anthem with SB19, The Juans as Brand Brings Together Mobile and Broadband to Better Serve Filipinos",
      "nonclickable": false,
      "openNewTab": false,
      "borderArticle": "border-color:#0074D9;",
      "borderTopArticle": "border-top-color:#0074D9;",
      "imageListing": "/sites/globe.com.ph/files/content/dam/globe/brie/About-us/Newsroom/image/Consumer/8-16-2013/NEWSROOM-CONSUMER-TM-launches-new-anthem-with-SB19-thumbnail-listing.jpg",
      "articleUrl": "https://www.globe.com.ph/about-us/newsroom/consumer/tm-launches-new-anthem-sb19-the-juans.html",
      "columnType": "articles--type-3",
      "typeListing": "article",
      "imageMobile": "/sites/globe.com.ph/files/content/dam/globe/brie/About-us/Newsroom/image/Consumer/8-16-2013/NEWSROOM-CONSUMER-TM-launches-new-anthem-with-SB19-primary-thumbnail-m.jpg",
      "imageDesktop": "/sites/globe.com.ph/files/content/dam/globe/brie/About-us/Newsroom/image/Consumer/8-16-2013/NEWSROOM-CONSUMER-TM-launches-new-anthem-with-SB19-primary-thumbnail-d.jpg",
      "description": "TM launches “Team Tayo”, a new song in collaboration with SB19 and The Juans.",
      "datePosted": "Aug 14, 2023 | 11:04 AM",
      "titleFromTag": "Consumer"
    },
    {
      "title": "Globe Blacklists, Deactivates over 58,000 SIMs in H1 2023 via #StopSPAM Portal",
      "nonclickable": false,
      "openNewTab": false,
      "borderArticle": "border-color:#0074D9;",
      "borderTopArticle": "border-top-color:#0074D9;",
      "imageListing": "/sites/globe.com.ph/files/content/dam/globe/brie/AboutUs/newsroom/common/default-total-globe-1/default-1-total-globe-thumbnail-listing.jpg",
      "articleUrl": "https://www.globe.com.ph/about-us/newsroom/corporate/globe-blacklists-deactivates-over-58-thousand-sims-h1-2023.html",
      "columnType": "articles--type-3",
      "typeListing": "article",
      "imageMobile": "/sites/globe.com.ph/files/content/dam/globe/brie/AboutUs/newsroom/common/default-total-globe-1/default-1-total-globe-primary-thumbnail-m.jpg",
      "imageDesktop": "/sites/globe.com.ph/files/content/dam/globe/brie/AboutUs/newsroom/common/default-total-globe-1/default-1-total-globe-primary-thumbnail-d.jpg",
      "description": "Globe continues its campaign against scam & spam SMS through its #StopSpam portal, deactivating & blacklisting 58,234 SIMs linked to fraud and malicious texts.",
      "datePosted": "Aug 10, 2023 | 03:04 PM",
      "titleFromTag": "Corporate"
    },
    {
      "title": "Introducing KonsultaMD Pharmacy, The First 24/7 Medicine Delivery Service in the Philippines",
      "nonclickable": false,
      "openNewTab": false,
      "borderArticle": "border-color:#0074D9;",
      "borderTopArticle": "border-top-color:#0074D9;",
      "imageListing": "/sites/globe.com.ph/files/content/dam/globe/brie/About-us/Newsroom/image/Consumer/konsultamd-pharmacy-first-24-7-medicine-delivery-ph/thumbnail-listing.jpg",
      "articleUrl": "https://www.globe.com.ph/about-us/newsroom/consumer/konsultamd-pharmacy-first-24-7-medicine-delivery-ph.html",
      "columnType": "articles--type-3",
      "typeListing": "article",
      "imageMobile": "/sites/globe.com.ph/files/content/dam/globe/brie/About-us/Newsroom/image/Consumer/konsultamd-pharmacy-first-24-7-medicine-delivery-ph/primary-thumbnail-m.jpg",
      "imageDesktop": "/sites/globe.com.ph/files/content/dam/globe/brie/About-us/Newsroom/image/Consumer/konsultamd-pharmacy-first-24-7-medicine-delivery-ph/primary-thumbnail-d.jpg",
      "description": "KonsultaMD Pharmacy now delivers 24/7 nationwide. Register on the KonsultaMD SuperApp to unlock access to this service.",
      "datePosted": "Aug 10, 2023 | 03:03 PM",
      "titleFromTag": "Consumer"
    },
    {
      "title": "Globe Shares 6 Tips to Make the Best of Your Mobile Data",
      "nonclickable": false,
      "openNewTab": false,
      "borderArticle": "border-color:#0074D9;",
      "borderTopArticle": "border-top-color:#0074D9;",
      "imageListing": "/sites/globe.com.ph/files/content/dam/globe/brie/AboutUs/newsroom/consumer/Globe-Shares-6-Tips/Newsroom-Prepaid-Default-Images-Gen-Z-Mobile-1-thumbnail-listing.jpg",
      "articleUrl": "https://www.globe.com.ph/about-us/newsroom/consumer/tips-to-make-the-best-of-your-mobile-data.html",
      "columnType": "articles--type-3",
      "typeListing": "article",
      "imageMobile": "/sites/globe.com.ph/files/content/dam/globe/brie/AboutUs/newsroom/consumer/Globe-Shares-6-Tips/Newsroom-Prepaid-Default-Images-Gen-Z-Mobile-1-primary-thumbnail-m.jpg",
      "imageDesktop": "/sites/globe.com.ph/files/content/dam/globe/brie/AboutUs/newsroom/consumer/Globe-Shares-6-Tips/Newsroom-Prepaid-Default-Images-Gen-Z-Mobile-1-primary-thumbnail-d.jpg",
      "description": "Globe shares tips on how you can conserve your data so you can make the most of your browsing experience.",
      "datePosted": "Aug 10, 2023 | 01:33 PM",
      "titleFromTag": "Consumer"
    }
  ]
}
