{
  "status": 200,
  "page": 140,
  "totalPage": 298,
  "range": "1669-1680",
  "total": 3573,
  "result": [
    {
      "title": "Transcelestial Enters Philippines Market With USD 2M Strategic Investment From ACTIVE Fund",
      "nonclickable": false,
      "openNewTab": false,
      "borderArticle": "border-color:#0074D9;",
      "borderTopArticle": "border-top-color:#0074D9;",
      "imageListing": "/sites/globe.com.ph/files/content/dam/globe/brie/AboutUs/newsroom/common/updated/Corporate-globe-thumbnail-listing.jpg",
      "articleUrl": "https://www.globe.com.ph/about-us/newsroom/partners/transcelestial-enters-philippines-market.html",
      "columnType": "articles--type-3",
      "typeListing": "article",
      "imageMobile": "/sites/globe.com.ph/files/content/dam/globe/brie/AboutUs/newsroom/common/updated/Corporate-globe-primary-thumbnail-m.jpg",
      "imageDesktop": "/sites/globe.com.ph/files/content/dam/globe/brie/AboutUs/newsroom/common/updated/Corporate-globe-primary-thumbnail-d.jpg",
      "description": "Transcelestial announced that it has closed a strategic investment of USD 2 million from Kickstart Ventures under the Ayala Corporation Technology Innovation Venture Fund’s “The Frictionless Future” investment theme.",
      "datePosted": "Feb 19, 2021 | 12:00 PM",
      "titleFromTag": "Partners"
    },
    {
      "title": "PH Improves in Mobile and Fixed Internet Download Speeds: Ookla® Speedtest Global Index",
      "nonclickable": false,
      "openNewTab": false,
      "borderArticle": "border-color:#0074D9;",
      "borderTopArticle": "border-top-color:#0074D9;",
      "imageListing": "/sites/globe.com.ph/files/content/dam/globe/brie/AboutUs/newsroom/corporate/ph-improves-mobile-fixed-internet-download-speeds-ookla/newsroom-corporate-ph-improves-download-ookla-thumbnail-listing.jpg",
      "articleUrl": "https://www.globe.com.ph/about-us/newsroom/corporate/ph-improves-mobile-fixed-internet-download-speeds-ookla.html",
      "columnType": "articles--type-3",
      "typeListing": "article",
      "imageMobile": "/sites/globe.com.ph/files/content/dam/globe/brie/AboutUs/newsroom/corporate/ph-improves-mobile-fixed-internet-download-speeds-ookla/newsroom-corporate-ph-improves-download-ookla-primary-thumbnail-m.jpg",
      "imageDesktop": "/sites/globe.com.ph/files/content/dam/globe/brie/AboutUs/newsroom/corporate/ph-improves-mobile-fixed-internet-download-speeds-ookla/newsroom-corporate-ph-improves-download-ookla-primary-thumbnail-d.jpg",
      "description": "Globe for its part was able to build 1,300 new towers in different locations all over the country last year or 18% more compared to 2019.",
      "datePosted": "Feb 19, 2021 | 11:50 AM",
      "titleFromTag": "Corporate"
    },
    {
      "title": "KCAT, Inc. Ramps Up Cybersecurity with Globe Business",
      "nonclickable": false,
      "openNewTab": false,
      "borderArticle": "border-color:#0074D9;",
      "borderTopArticle": "border-top-color:#0074D9;",
      "imageListing": "/sites/globe.com.ph/files/content/dam/globe/brie/AboutUs/newsroom/business/kcat-inc-ramps-up-cybersecurity-globe-business/newsroom-business-kcat-cybersecurity-thumbnail-listing.jpg",
      "articleUrl": "https://www.globe.com.ph/about-us/newsroom/business/kcat-inc-ramps-up-cybersecurity-globe-business.html",
      "columnType": "articles--type-3",
      "typeListing": "article",
      "imageMobile": "/sites/globe.com.ph/files/content/dam/globe/brie/AboutUs/newsroom/business/kcat-inc-ramps-up-cybersecurity-globe-business/newsroom-business-kcat-cybersecurity-primary-thumbnail-m.jpg",
      "imageDesktop": "/sites/globe.com.ph/files/content/dam/globe/brie/AboutUs/newsroom/business/kcat-inc-ramps-up-cybersecurity-globe-business/newsroom-business-kcat-cybersecurity-primary-thumbnail-d.jpg",
      "description": "As the economy embraces the new normal, cybersecurity has become necessary to ensure all digital transformation initiatives happen without disruption.",
      "datePosted": "Feb 18, 2021 | 04:12 PM",
      "titleFromTag": "Business"
    },
    {
      "title": "Ready to Fall In Love This Season of Love? Book Your Tickets to This Pinoy BL Series!",
      "nonclickable": false,
      "openNewTab": false,
      "borderArticle": "border-color:#0074D9;",
      "borderTopArticle": "border-top-color:#0074D9;",
      "imageListing": "/sites/globe.com.ph/files/content/dam/globe/brie/AboutUs/newsroom/consumer/book-tickets-pinoy-bl-series/newsroom-consumer-tickets-pinoy-bl-thumbnail-listing.jpg",
      "articleUrl": "https://www.globe.com.ph/about-us/newsroom/consumer/book-tickets-pinoy-bl-series.html",
      "columnType": "articles--type-3",
      "typeListing": "article",
      "imageMobile": "/sites/globe.com.ph/files/content/dam/globe/brie/AboutUs/newsroom/consumer/book-tickets-pinoy-bl-series/newsroom-consumer-tickets-pinoy-bl-primary-thumbnail-m.jpg",
      "imageDesktop": "/sites/globe.com.ph/files/content/dam/globe/brie/AboutUs/newsroom/consumer/book-tickets-pinoy-bl-series/newsroom-consumer-tickets-pinoy-bl-primary-thumbnail-d.jpg",
      "description": "UPSTREAM, in partnership with GMovies, now presents not only movies but now also TV shows, with Season 2 of Regal Entertainment’s Ben X Jim first on the list.",
      "datePosted": "Feb 18, 2021 | 02:54 PM",
      "titleFromTag": "Consumer"
    },
    {
      "title": "Globe Activates Taal Disaster Relief Operations",
      "nonclickable": false,
      "openNewTab": false,
      "borderArticle": "border-color:#0074D9;",
      "borderTopArticle": "border-top-color:#0074D9;",
      "imageListing": "/sites/globe.com.ph/files/content/dam/globe/brie/AboutUs/newsroom/common/updated/Corporate-globe-thumbnail-listing.jpg",
      "articleUrl": "https://www.globe.com.ph/about-us/newsroom/corporate/taal-disaster-relief-operations.html",
      "columnType": "articles--type-3",
      "typeListing": "article",
      "imageMobile": "/sites/globe.com.ph/files/content/dam/globe/brie/AboutUs/newsroom/common/updated/Corporate-globe-primary-thumbnail-m.jpg",
      "imageDesktop": "/sites/globe.com.ph/files/content/dam/globe/brie/AboutUs/newsroom/common/updated/Corporate-globe-primary-thumbnail-d.jpg",
      "description": "Globe activated its Taal disaster relief operations on the ‘heightened possibility’ of another volcanic eruption.",
      "datePosted": "Feb 18, 2021 | 10:47 AM",
      "titleFromTag": "Corporate"
    },
    {
      "title": "Globe with ‘Fastest Growing 4G Network’ in PH; Accelerates Tower Rollout",
      "nonclickable": false,
      "openNewTab": false,
      "borderArticle": "border-color:#0074D9;",
      "borderTopArticle": "border-top-color:#0074D9;",
      "imageListing": "/sites/globe.com.ph/files/content/dam/globe/brie/AboutUs/newsroom/common/default-5/corporate-default-6-thumbnail-listing.jpg",
      "articleUrl": "https://www.globe.com.ph/about-us/newsroom/corporate/globe-fastest-growing-4g-network-ph.html",
      "columnType": "articles--type-3",
      "typeListing": "article",
      "imageMobile": "/sites/globe.com.ph/files/content/dam/globe/brie/AboutUs/newsroom/common/default-5/corporate-default-6-primary-thumbnail-m.jpg",
      "imageDesktop": "/sites/globe.com.ph/files/content/dam/globe/brie/AboutUs/newsroom/common/default-5/corporate-default-6-primary-thumbnail-d.jpg",
      "description": "Globe has been ramping up its cell site builds from 500 in 2018, to 1,100 in 2019, and further to 1,300 in 2020 despite the COVID-19 pandemic.",
      "datePosted": "Feb 18, 2021 | 08:37 AM",
      "titleFromTag": "Corporate"
    },
    {
      "title": "Globe at Home Tops Netflix’s Internet Speed Index in the Philippines",
      "nonclickable": false,
      "openNewTab": false,
      "borderArticle": "border-color:#0074D9;",
      "borderTopArticle": "border-top-color:#0074D9;",
      "imageListing": "/sites/globe.com.ph/files/content/dam/globe/brie/AboutUs/newsroom/common/corporate-default-5/updated/default-corporate-5-thumbnail-listing.jpg",
      "articleUrl": "https://www.globe.com.ph/about-us/newsroom/consumer/globe-at-home-tops-netflix-internet-speed-index.html",
      "columnType": "articles--type-3",
      "typeListing": "article",
      "imageMobile": "/sites/globe.com.ph/files/content/dam/globe/brie/AboutUs/newsroom/common/corporate-default-5/updated/default-corporate-5-primary-thumbnail-m.jpg",
      "imageDesktop": "/sites/globe.com.ph/files/content/dam/globe/brie/AboutUs/newsroom/common/corporate-default-5/updated/default-corporate-5-primary-thumbnail-d.jpg",
      "description": "Globe at Home scored 3.2 Mbps in the January 2021 Netflix ISP index.",
      "datePosted": "Feb 17, 2021 | 02:30 PM",
      "titleFromTag": "Consumer"
    },
    {
      "title": "Is Alex Eala the Next Filipino Sports Icon?",
      "nonclickable": false,
      "openNewTab": false,
      "borderArticle": "border-color:#0074D9;",
      "borderTopArticle": "border-top-color:#0074D9;",
      "imageListing": "/sites/globe.com.ph/files/content/dam/globe/brie/AboutUs/newsroom/corporate/alex-eala-next-filipino-sports-icon/newsroom-consumer-eala-sports-icon-wifi-thumbnail-listing.jpg",
      "articleUrl": "https://www.globe.com.ph/about-us/newsroom/corporate/alex-eala-next-filipino-sports-icon.html",
      "columnType": "articles--type-3",
      "typeListing": "article",
      "imageMobile": "/sites/globe.com.ph/files/content/dam/globe/brie/AboutUs/newsroom/corporate/alex-eala-next-filipino-sports-icon/newsroom-consumer-eala-sports-icon-primary-thumbnail-m.jpg",
      "imageDesktop": "/sites/globe.com.ph/files/content/dam/globe/brie/AboutUs/newsroom/corporate/alex-eala-next-filipino-sports-icon/newsroom-consumer-eala-sports-icon-primary-thumbnail-d.jpg",
      "description": "Eala, who has been a Globe ambassador since 2013, has not only helped place the Philippines on the tennis map but also serves as a beacon of inspiration for young Filipino tennis players everywhere.",
      "datePosted": "Feb 17, 2021 | 01:55 PM",
      "titleFromTag": "Corporate"
    },
    {
      "title": "Globe Stores Reopen, Ready To Meet Needs of Customers",
      "nonclickable": false,
      "openNewTab": false,
      "borderArticle": "border-color:#0074D9;",
      "borderTopArticle": "border-top-color:#0074D9;",
      "imageListing": "/sites/globe.com.ph/files/content/dam/globe/brie/AboutUs/newsroom/common/default-3/corporate-default-7-thumbnail-listing.jpg",
      "articleUrl": "https://www.globe.com.ph/about-us/newsroom/consumer/globe-stores-reopen.html",
      "columnType": "articles--type-3",
      "typeListing": "article",
      "imageMobile": "/sites/globe.com.ph/files/content/dam/globe/brie/AboutUs/newsroom/common/default-3/corporate-default-7-primary-thumbnail-m.jpg",
      "imageDesktop": "/sites/globe.com.ph/files/content/dam/globe/brie/AboutUs/newsroom/common/default-3/corporate-default-7-primary-thumbnail-d.jpg",
      "description": "Globe announced 99% of its stores nationwide have reopened and are now operational with the exception of one store located at the TGT headquarters in BGC.",
      "datePosted": "Feb 17, 2021 | 01:29 PM",
      "titleFromTag": "Consumer"
    },
    {
      "title": "Globe At Home Prepaid Offers That Are Perfect for Ordinary Filipino Families",
      "nonclickable": false,
      "openNewTab": false,
      "borderArticle": "border-color:#0074D9;",
      "borderTopArticle": "border-top-color:#0074D9;",
      "imageListing": "/sites/globe.com.ph/files/content/dam/globe/brie/AboutUs/newsroom/common/default-4/default-consumer-3-thumbnail-listing.jpg",
      "articleUrl": "https://www.globe.com.ph/about-us/newsroom/consumer/globe-at-home-prepaid-offers-ordinary-filipino-families.html",
      "columnType": "articles--type-3",
      "typeListing": "article",
      "imageMobile": "/sites/globe.com.ph/files/content/dam/globe/brie/AboutUs/newsroom/common/default-4/default-consumer-3-primary-thumbnail-m.jpg",
      "imageDesktop": "/sites/globe.com.ph/files/content/dam/globe/brie/AboutUs/newsroom/common/default-4/default-consumer-3-primary-thumbnail-d.jpg",
      "description": "As Filipinos try to navigate through life in the new normal, Globe aspires to make sure every household has access to fast and reliable Internet.",
      "datePosted": "Feb 17, 2021 | 10:12 AM",
      "titleFromTag": "Consumer"
    },
    {
      "title": "Globe Sees Growth in Service Revenues This Year, Regains Business Momentum",
      "nonclickable": false,
      "openNewTab": false,
      "borderArticle": "border-color:#0074D9;",
      "borderTopArticle": "border-top-color:#0074D9;",
      "imageListing": "/sites/globe.com.ph/files/content/dam/globe/brie/AboutUs/newsroom/common/updated/Corporate-globe-thumbnail-listing.jpg",
      "articleUrl": "https://www.globe.com.ph/about-us/newsroom/corporate/growth-service-revenues-regains-business-momentum.html",
      "columnType": "articles--type-3",
      "typeListing": "article",
      "imageMobile": "/sites/globe.com.ph/files/content/dam/globe/brie/AboutUs/newsroom/common/updated/Corporate-globe-primary-thumbnail-m.jpg",
      "imageDesktop": "/sites/globe.com.ph/files/content/dam/globe/brie/AboutUs/newsroom/common/updated/Corporate-globe-primary-thumbnail-d.jpg",
      "description": "Globe is looking at a low-to-mid single-digit growth in service revenues this year after allocating a record P70 billion for capital expenditures.",
      "datePosted": "Feb 17, 2021 | 09:17 AM",
      "titleFromTag": "Corporate"
    },
    {
      "title": "TM Brings New & Easy Ways to Celebrate the Season of Love",
      "nonclickable": false,
      "openNewTab": false,
      "borderArticle": "border-color:#0074D9;",
      "borderTopArticle": "border-top-color:#0074D9;",
      "imageListing": "/sites/globe.com.ph/files/content/dam/globe/brie/AboutUs/newsroom/consumer/tm-brings-new-easy-ways-celebrate-season-love/newsroom-consumer-tm-season-love-thumbnail-listing.jpg",
      "articleUrl": "https://www.globe.com.ph/about-us/newsroom/consumer/tm-brings-new-easy-ways-celebrate-season-love.html",
      "columnType": "articles--type-3",
      "typeListing": "article",
      "imageMobile": "/sites/globe.com.ph/files/content/dam/globe/brie/AboutUs/newsroom/consumer/tm-brings-new-easy-ways-celebrate-season-love/newsroom-consumer-tm-season-love-primary-thumbnail-m.jpg",
      "imageDesktop": "/sites/globe.com.ph/files/content/dam/globe/brie/AboutUs/newsroom/consumer/tm-brings-new-easy-ways-celebrate-season-love/newsroom-consumer-tm-season-love-primary-thumbnail-d.jpg",
      "description": "But don’t worry, sharing the love, whether it’s with your significant other, friends, or family, is made pina-easy with TM!",
      "datePosted": "Feb 16, 2021 | 09:54 AM",
      "titleFromTag": "Consumer"
    }
  ]
}
