{
  "status": 200,
  "page": 141,
  "totalPage": 298,
  "range": "1681-1692",
  "total": 3573,
  "result": [
    {
      "title": "GCash Is ‘Trailblazer’ of PH Digital Adoption 1 in 3 Filipinos on GCash",
      "nonclickable": false,
      "openNewTab": false,
      "borderArticle": "border-color:#0074D9;",
      "borderTopArticle": "border-top-color:#0074D9;",
      "imageListing": "/sites/globe.com.ph/files/content/dam/globe/brie/AboutUs/newsroom/common/updated/Corporate-globe-thumbnail-listing.jpg",
      "articleUrl": "https://www.globe.com.ph/about-us/newsroom/917ventures/gcash-trailblazer-ph-digital-adoption.html",
      "columnType": "articles--type-3",
      "typeListing": "article",
      "imageMobile": "/sites/globe.com.ph/files/content/dam/globe/brie/AboutUs/newsroom/common/updated/Corporate-globe-primary-thumbnail-m.jpg",
      "imageDesktop": "/sites/globe.com.ph/files/content/dam/globe/brie/AboutUs/newsroom/common/updated/Corporate-globe-primary-thumbnail-d.jpg",
      "description": "Join GCash in driving financial inclusion! We're bringing more Filipinos into the digital financial system, making life easier.",
      "datePosted": "Feb 15, 2021 | 02:22 PM",
      "titleFromTag": "917Ventures"
    },
    {
      "title": "GoWiFi Makes Free Internet Available in Zamboanga Key Public Areas",
      "nonclickable": false,
      "openNewTab": false,
      "borderArticle": "border-color:#0074D9;",
      "borderTopArticle": "border-top-color:#0074D9;",
      "imageListing": "/sites/globe.com.ph/files/content/dam/globe/brie/AboutUs/newsroom/common/default-3/corporate-default-7-thumbnail-listing.jpg",
      "articleUrl": "https://www.globe.com.ph/about-us/newsroom/consumer/gowifi-free-internet-available-zamboanga.html",
      "columnType": "articles--type-3",
      "typeListing": "article",
      "imageMobile": "/sites/globe.com.ph/files/content/dam/globe/brie/AboutUs/newsroom/common/default-3/corporate-default-7-primary-thumbnail-m.jpg",
      "imageDesktop": "/sites/globe.com.ph/files/content/dam/globe/brie/AboutUs/newsroom/common/default-3/corporate-default-7-primary-thumbnail-d.jpg",
      "description": "As internet connectivity becomes fundamental to survival in the new normal, Globe, through GoWiFi, continues to bolster its efforts to make wireless internet services available to more Filipinos nationwide.",
      "datePosted": "Feb 15, 2021 | 12:21 PM",
      "titleFromTag": "Consumer"
    },
    {
      "title": "Eala’s Stellar Run in France Ends in Quarterfinals",
      "nonclickable": false,
      "openNewTab": false,
      "borderArticle": "border-color:#0074D9;",
      "borderTopArticle": "border-top-color:#0074D9;",
      "imageListing": "/sites/globe.com.ph/files/content/dam/globe/brie/AboutUs/newsroom/corporate/eala-stellar-run-france-ends-quarterfinals/newsroom-corporate-eala-stellar-run-france-ends-thumbnail-listing.jpg",
      "articleUrl": "https://www.globe.com.ph/about-us/newsroom/corporate/eala-stellar-run-france-ends-quarterfinals.html",
      "columnType": "articles--type-3",
      "typeListing": "article",
      "imageMobile": "/sites/globe.com.ph/files/content/dam/globe/brie/AboutUs/newsroom/corporate/eala-stellar-run-france-ends-quarterfinals/newsroom-corporate-eala-stellar-run-france-ends-primary-thumbnail-m.jpg",
      "imageDesktop": "/sites/globe.com.ph/files/content/dam/globe/brie/AboutUs/newsroom/corporate/eala-stellar-run-france-ends-quarterfinals/newsroom-corporate-eala-stellar-run-france-ends-primary-thumbnail-d.jpg",
      "description": "Alex Eala saw her incredible run in the ITF W25 Grenoble halted in the quarterfinals after she was beaten by Polish netter, Maja Chwalinska.",
      "datePosted": "Feb 13, 2021 | 03:58 PM",
      "titleFromTag": "Corporate"
    },
    {
      "title": "Road to #1stWorldNetwork: LGUs as Partners in Progress",
      "nonclickable": false,
      "openNewTab": false,
      "borderArticle": "border-color:#1C91C5;",
      "borderTopArticle": "border-top-color:#1C91C5;",
      "imageListing": "/sites/globe.com.ph/files/content/dam/globe/brie/AboutUs/newsroom/common/default-15/default-corporate-9-thumbnail-listing.jpg",
      "articleUrl": "https://www.globe.com.ph/about-us/newsroom/sustainability/lgu-as-partners-in-progress.html",
      "columnType": "articles--type-3",
      "typeListing": "article",
      "imageMobile": "/sites/globe.com.ph/files/content/dam/globe/brie/AboutUs/newsroom/common/default-15/default-corporate-9-primary-thumbnail-m.jpg",
      "imageDesktop": "/sites/globe.com.ph/files/content/dam/globe/brie/AboutUs/newsroom/common/default-15/default-corporate-9-primary-thumbnail-d.jpg",
      "description": "The Bayanihan Act 2 fast-tracking the issuance of permits for telco infra builds was the shot in the arm for the industry to better its services.",
      "datePosted": "Feb 13, 2021 | 08:46 AM",
      "titleFromTag": "Sustainability"
    },
    {
      "title": "Redeem Your Globe Rewards Points to Share on Valentine’s Day",
      "nonclickable": false,
      "openNewTab": false,
      "borderArticle": "border-color:#0074D9;",
      "borderTopArticle": "border-top-color:#0074D9;",
      "imageListing": "/sites/globe.com.ph/files/content/dam/globe/brie/AboutUs/newsroom/consumer/redeem-globe-rewards-points-share-valentines-day/newsroom-corporate-redeem-rewards-points-thumbnail-listing.jpg",
      "articleUrl": "https://www.globe.com.ph/about-us/newsroom/consumer/redeem-globe-rewards-points-share-valentines-day.html",
      "columnType": "articles--type-3",
      "typeListing": "article",
      "imageMobile": "/sites/globe.com.ph/files/content/dam/globe/brie/AboutUs/newsroom/consumer/redeem-globe-rewards-points-share-valentines-day/newsroom-corporate-redeem-rewards-points-primary-thumbnail-m.jpg",
      "imageDesktop": "/sites/globe.com.ph/files/content/dam/globe/brie/AboutUs/newsroom/consumer/redeem-globe-rewards-points-share-valentines-day/newsroom-corporate-redeem-rewards-points-primary-thumbnail-d.jpg",
      "description": "With Valentine’s Day just around the corner, Globe customers may redeem their points for gastronomic treats with just a few taps on the Globe Rewards App.",
      "datePosted": "Feb 11, 2021 | 05:03 PM",
      "titleFromTag": "Consumer"
    },
    {
      "title": "Globe’s Community Development Program Helps 280 Retailers From Typhoon-Hit Communities Get Back on Their Feet",
      "nonclickable": false,
      "openNewTab": false,
      "borderArticle": "border-color:#1C91C5;",
      "borderTopArticle": "border-top-color:#1C91C5;",
      "imageListing": "/sites/globe.com.ph/files/content/dam/globe/brie/AboutUs/newsroom/sustainability/community-development-program-retailers-typhoon-hit-communities/newsroom-sustainability-community-development-program-thumbnail-listing.jpg",
      "articleUrl": "https://www.globe.com.ph/about-us/newsroom/sustainability/community-development-program-retailers-typhoon-hit-communities.html",
      "columnType": "articles--type-3",
      "typeListing": "article",
      "imageMobile": "/sites/globe.com.ph/files/content/dam/globe/brie/AboutUs/newsroom/sustainability/community-development-program-retailers-typhoon-hit-communities/newsroom-sustainability-community-development-program-primary-thumbnail-m.jpg",
      "imageDesktop": "/sites/globe.com.ph/files/content/dam/globe/brie/AboutUs/newsroom/sustainability/community-development-program-retailers-typhoon-hit-communities/newsroom-sustainability-community-development-program-primary-thumbnail-d.jpg",
      "description": "At least 280 retailers from communities devastated by Typhoon Rolly & Ulysses last year were the latest beneficiaries of Globe’s Community Development program.",
      "datePosted": "Feb 11, 2021 | 05:00 PM",
      "titleFromTag": "Sustainability"
    },
    {
      "title": "MDS Call Solutions Inc. Partners with Globe Business for Integrated Cloud Customer Service",
      "nonclickable": false,
      "openNewTab": false,
      "borderArticle": "border-color:#0074D9;",
      "borderTopArticle": "border-top-color:#0074D9;",
      "imageListing": "/sites/globe.com.ph/files/content/dam/globe/brie/AboutUs/newsroom/business/mds-call-solutions-inc-partners-globe-business/newsroom-business-mds-call-solutions-thumbnail-listing.jpg",
      "articleUrl": "https://www.globe.com.ph/about-us/newsroom/business/mds-call-solutions-inc-partners-globe-business.html",
      "columnType": "articles--type-3",
      "typeListing": "article",
      "imageMobile": "/sites/globe.com.ph/files/content/dam/globe/brie/AboutUs/newsroom/business/mds-call-solutions-inc-partners-globe-business/newsroom-business-mds-call-solutions-primary-thumbnail-m.jpg",
      "imageDesktop": "/sites/globe.com.ph/files/content/dam/globe/brie/AboutUs/newsroom/business/mds-call-solutions-inc-partners-globe-business/newsroom-business-mds-call-solutions-primary-thumbnail-d.jpg",
      "description": "BPO company, MDSCSI collaborated with Globe’s enterprise arm, Globe Business, to support its AWS cloud migration and SMS API integration.",
      "datePosted": "Feb 11, 2021 | 05:00 PM",
      "titleFromTag": "Business"
    },
    {
      "title": "Globe Earmarks Bulk of Unprecedented P70-B CAPEX on Data Network Builds",
      "nonclickable": false,
      "openNewTab": false,
      "borderArticle": "border-color:#0074D9;",
      "borderTopArticle": "border-top-color:#0074D9;",
      "imageListing": "/sites/globe.com.ph/files/content/dam/globe/brie/AboutUs/newsroom/common/updated/Corporate-globe-thumbnail-listing.jpg",
      "articleUrl": "https://www.globe.com.ph/about-us/newsroom/corporate/globe-earmarks-bulk-unprecedented-capex.html",
      "columnType": "articles--type-3",
      "typeListing": "article",
      "imageMobile": "/sites/globe.com.ph/files/content/dam/globe/brie/AboutUs/newsroom/common/updated/Corporate-globe-primary-thumbnail-m.jpg",
      "imageDesktop": "/sites/globe.com.ph/files/content/dam/globe/brie/AboutUs/newsroom/common/updated/Corporate-globe-primary-thumbnail-d.jpg",
      "description": "Globe allotted 80% of its unprecedented P70 billion capital expenditure program this year on data network builds as it aims to improve connectivity.",
      "datePosted": "Feb 11, 2021 | 04:12 PM",
      "titleFromTag": "Corporate"
    },
    {
      "title": "‘BLACKPINK: THE SHOW’ Reinvents the Concert Experience for BLINKs Worldwide",
      "nonclickable": false,
      "openNewTab": false,
      "borderArticle": "border-color:#0074D9;",
      "borderTopArticle": "border-top-color:#0074D9;",
      "imageListing": "/sites/globe.com.ph/files/content/dam/globe/brie/AboutUs/newsroom/consumer/blackpink-the-show-reinvents-concert-experience/newsroom-consumer-blackpink-show-concert-thumbnail-listing.jpg",
      "articleUrl": "https://www.globe.com.ph/about-us/newsroom/consumer/blackpink-the-show-reinvents-concert-experience.html",
      "columnType": "articles--type-3",
      "typeListing": "article",
      "imageMobile": "/sites/globe.com.ph/files/content/dam/globe/brie/AboutUs/newsroom/consumer/blackpink-the-show-reinvents-concert-experience/newsroom-consumer-blackpink-show-concert-primary-thumbnail-m.jpg",
      "imageDesktop": "/sites/globe.com.ph/files/content/dam/globe/brie/AboutUs/newsroom/consumer/blackpink-the-show-reinvents-concert-experience/newsroom-consumer-blackpink-show-concert-primary-thumbnail-d.jpg",
      "description": "The music powerhouse launched its first-ever livestream concert entitled THE SHOW, on January 31, sponsored by Globe.",
      "datePosted": "Feb 11, 2021 | 02:14 PM",
      "titleFromTag": "Consumer"
    },
    {
      "title": "Globe Launches ‘Game-Changing’ Globe At Home Prepaid WiFi",
      "nonclickable": false,
      "openNewTab": false,
      "borderArticle": "border-color:#0074D9;",
      "borderTopArticle": "border-top-color:#0074D9;",
      "imageListing": "/sites/globe.com.ph/files/content/dam/globe/brie/AboutUs/newsroom/consumer/game-changing-globe-at-home-prepaid-wifi/newsroom-consumer-game-changing-wifi-thumbnail-listing.jpg",
      "articleUrl": "https://www.globe.com.ph/about-us/newsroom/consumer/game-changing-globe-at-home-prepaid-wifi.html",
      "columnType": "articles--type-3",
      "typeListing": "article",
      "imageMobile": "/sites/globe.com.ph/files/content/dam/globe/brie/AboutUs/newsroom/consumer/game-changing-globe-at-home-prepaid-wifi/newsroom-consumer-game-changing-wifi-primary-thumbnail-m.jpg",
      "imageDesktop": "/sites/globe.com.ph/files/content/dam/globe/brie/AboutUs/newsroom/consumer/game-changing-globe-at-home-prepaid-wifi/newsroom-consumer-game-changing-wifi-primary-thumbnail-d.jpg",
      "description": "Globe continues to reinvent the world of its customers through the launch of its all-new home prepaid WiFi devices and a much better online experience",
      "datePosted": "Feb 11, 2021 | 11:28 AM",
      "titleFromTag": "Consumer"
    },
    {
      "title": "Eala Pulls Off Thrilling Three-Set Win in France",
      "nonclickable": false,
      "openNewTab": false,
      "borderArticle": "border-color:#0074D9;",
      "borderTopArticle": "border-top-color:#0074D9;",
      "imageListing": "/sites/globe.com.ph/files/content/dam/globe/brie/AboutUs/newsroom/corporate/eala-thrilling-three-set-win-france/corporate-eala-thrilling-three-set-win-france-thumbnail-listing.jpg",
      "articleUrl": "https://www.globe.com.ph/about-us/newsroom/corporate/eala-thrilling-three-set-win-france.html",
      "columnType": "articles--type-3",
      "typeListing": "article",
      "imageMobile": "/sites/globe.com.ph/files/content/dam/globe/brie/AboutUs/newsroom/corporate/eala-thrilling-three-set-win-france/corporate-eala-thrilling-three-set-win-france-primary-thumbnail-m.jpg",
      "imageDesktop": "/sites/globe.com.ph/files/content/dam/globe/brie/AboutUs/newsroom/corporate/eala-thrilling-three-set-win-france/corporate-eala-thrilling-three-set-win-france-primary-thumbnail-d.jpg",
      "description": "Alex Eala pulled off a hard-earned 6-3, 4-6, 6-4 victory over Romanian netter, Laura-Ioana Paar, at the start of the ITF W25 Grenoble in France on Tuesday.",
      "datePosted": "Feb 10, 2021 | 06:49 PM",
      "titleFromTag": "Corporate"
    },
    {
      "title": "How Better Connectivity Helped Businesses Thrive Amid the Pandemic",
      "nonclickable": false,
      "openNewTab": false,
      "borderArticle": "border-color:#0074D9;",
      "borderTopArticle": "border-top-color:#0074D9;",
      "imageListing": "/sites/globe.com.ph/files/content/dam/globe/brie/AboutUs/newsroom/business/how-better-connectivity-helped-businesses-thrive-pandemic/newsroom-business-better-connectivity-pandemic-thumbnail-listing.jpg",
      "articleUrl": "https://www.globe.com.ph/about-us/newsroom/business/how-better-connectivity-helped-businesses-thrive-pandemic.html",
      "columnType": "articles--type-3",
      "typeListing": "article",
      "imageMobile": "/sites/globe.com.ph/files/content/dam/globe/brie/AboutUs/newsroom/business/how-better-connectivity-helped-businesses-thrive-pandemic/newsroom-business-better-connectivity-pandemic-primary-thumbnail-m.jpg",
      "imageDesktop": "/sites/globe.com.ph/files/content/dam/globe/brie/AboutUs/newsroom/business/how-better-connectivity-helped-businesses-thrive-pandemic/newsroom-business-better-connectivity-pandemic-primary-thumbnail-d.jpg",
      "description": "During the pandemic, many businesses reexamined their purpose and attempted to innovate in an effort to stay afloat. Here's how better connectivity helped.",
      "datePosted": "Feb 10, 2021 | 02:45 PM",
      "titleFromTag": "Business"
    }
  ]
}
