{
  "status": 200,
  "page": 142,
  "totalPage": 298,
  "range": "1693-1704",
  "total": 3573,
  "result": [
    {
      "title": "PH 10th in APAC Countries on Median 5G Download Speed: Ookla® Data",
      "nonclickable": false,
      "openNewTab": false,
      "borderArticle": "border-color:#0074D9;",
      "borderTopArticle": "border-top-color:#0074D9;",
      "imageListing": "/sites/globe.com.ph/files/content/dam/globe/brie/AboutUs/newsroom/corporate/ph-apac-countries-median-5g-download-speed/newsroom-corporate-ph-apac-countries-thumbnail-listing.jpg",
      "articleUrl": "https://www.globe.com.ph/about-us/newsroom/corporate/ph-apac-countries-median-5g-download-speed.html",
      "columnType": "articles--type-3",
      "typeListing": "article",
      "imageMobile": "/sites/globe.com.ph/files/content/dam/globe/brie/AboutUs/newsroom/corporate/ph-apac-countries-median-5g-download-speed/newsroom-corporate-ph-apac-countries-primary-thumbnail-m.jpg",
      "imageDesktop": "/sites/globe.com.ph/files/content/dam/globe/brie/AboutUs/newsroom/corporate/ph-apac-countries-median-5g-download-speed/newsroom-corporate-ph-apac-countries-primary-thumbnail-d.jpg",
      "description": "The Philippines ranks 10th among APEC countries with median download speed on 5G at 182.50 Mbps based on Ookla Speedtest Intelligence® Q3 2020 data.",
      "datePosted": "Feb 10, 2021 | 10:48 AM",
      "titleFromTag": "Corporate"
    },
    {
      "title": "PH 10th in APEC Countries on Median 5G Download Speed: Ookla® Data",
      "nonclickable": false,
      "openNewTab": false,
      "borderArticle": "border-color:#0074D9;",
      "borderTopArticle": "border-top-color:#0074D9;",
      "imageListing": "/sites/globe.com.ph/files/content/dam/globe/brie/AboutUs/newsroom/corporate/ph-apac-countries-median-5g-download-speed/newsroom-corporate-ph-apac-countries-thumbnail-listing.jpg",
      "articleUrl": "https://www.globe.com.ph/about-us/newsroom/corporate/ph-apec-countries-median-5g-download-speed.html",
      "columnType": "articles--type-3",
      "typeListing": "article",
      "imageMobile": "/sites/globe.com.ph/files/content/dam/globe/brie/AboutUs/newsroom/corporate/ph-apac-countries-median-5g-download-speed/newsroom-corporate-ph-apac-countries-primary-thumbnail-m.jpg",
      "imageDesktop": "/sites/globe.com.ph/files/content/dam/globe/brie/AboutUs/newsroom/corporate/ph-apac-countries-median-5g-download-speed/newsroom-corporate-ph-apac-countries-primary-thumbnail-d.jpg",
      "description": "The Philippines ranks 10th among APEC countries with median download speed on 5G at 182.50 Mbps based on Ookla Speedtest Intelligence® Q3 2020 data.",
      "datePosted": "Feb 10, 2021 | 10:48 AM",
      "titleFromTag": "Corporate"
    },
    {
      "title": "Globe Strengthens Commitment vs Online Sexual Abuse of Children",
      "nonclickable": false,
      "openNewTab": false,
      "borderArticle": "border-color:#1C91C5;",
      "borderTopArticle": "border-top-color:#1C91C5;",
      "imageListing": "/sites/globe.com.ph/files/content/dam/globe/brie/AboutUs/newsroom/common/updated/Corporate-globe-thumbnail-listing.jpg",
      "articleUrl": "https://www.globe.com.ph/about-us/newsroom/sustainability/globe-strengthens-commitment-vs-online-sexual-abuse-children.html",
      "columnType": "articles--type-3",
      "typeListing": "article",
      "imageMobile": "/sites/globe.com.ph/files/content/dam/globe/brie/AboutUs/newsroom/common/updated/Corporate-globe-primary-thumbnail-m.jpg",
      "imageDesktop": "/sites/globe.com.ph/files/content/dam/globe/brie/AboutUs/newsroom/common/updated/Corporate-globe-primary-thumbnail-d.jpg",
      "description": "Through the UNICEF-led SaferKidsPH initiative, Globe supports the government in observing Safer Internet Day by raising awareness on pressing OSAEC cases.",
      "datePosted": "Feb 09, 2021 | 04:27 PM",
      "titleFromTag": "Sustainability"
    },
    {
      "title": "Share the Love with Globe At Home this Valentine's Day",
      "nonclickable": false,
      "openNewTab": false,
      "borderArticle": "border-color:#0074D9;",
      "borderTopArticle": "border-top-color:#0074D9;",
      "imageListing": "/sites/globe.com.ph/files/content/dam/globe/brie/AboutUs/newsroom/consumer/globe-at-home-valentines-day/newsroom-consumer-prepaid-wifi-vday-thumbnail-listing.jpg",
      "articleUrl": "https://www.globe.com.ph/about-us/newsroom/consumer/globe-at-home-valentines-day.html",
      "columnType": "articles--type-3",
      "typeListing": "article",
      "imageMobile": "/sites/globe.com.ph/files/content/dam/globe/brie/AboutUs/newsroom/consumer/globe-at-home-valentines-day/newsroom-consumer-prepaid-wifi-vday-primary-thumbnail-m.jpg",
      "imageDesktop": "/sites/globe.com.ph/files/content/dam/globe/brie/AboutUs/newsroom/consumer/globe-at-home-valentines-day/newsroom-consumer-prepaid-wifi-vday-primary-thumbnail-d.jpg",
      "description": "A Globe At Home (GAH) Broadband plan is a great way to share the love this Valentine’s Day!",
      "datePosted": "Feb 09, 2021 | 03:52 PM",
      "titleFromTag": "Consumer"
    },
    {
      "title": "Globe First in the World to Use J.P. Morgan’s World-Class Real-Time Treasury Service",
      "nonclickable": false,
      "openNewTab": false,
      "borderArticle": "border-color:#0074D9;",
      "borderTopArticle": "border-top-color:#0074D9;",
      "imageListing": "/sites/globe.com.ph/files/content/dam/globe/brie/AboutUs/newsroom/corporate/globe-first-to-use-real-time-treasury-service/Corporate-globe-thumbnail-listing.jpg",
      "articleUrl": "https://www.globe.com.ph/about-us/newsroom/corporate/globe-first-to-use-real-time-treasury-service.html",
      "columnType": "articles--type-3",
      "typeListing": "article",
      "imageMobile": "/sites/globe.com.ph/files/content/dam/globe/brie/AboutUs/newsroom/corporate/globe-first-to-use-real-time-treasury-service/Corporate-globe-primary-thumbnail-m.jpg",
      "imageDesktop": "/sites/globe.com.ph/files/content/dam/globe/brie/AboutUs/newsroom/corporate/globe-first-to-use-real-time-treasury-service/Corporate-globe-primary-thumbnail-d.jpg",
      "description": "The plug-and-play service is considered as among the best in global treasury practices, with fully automated routine processing.",
      "datePosted": "Feb 09, 2021 | 12:13 PM",
      "titleFromTag": "Corporate"
    },
    {
      "title": "Onat Roldan Passes the Baton to Digital Marketing Pioneer Gretchen Largoza, the New President and CEO of AdSpark",
      "nonclickable": false,
      "openNewTab": false,
      "borderArticle": "border-color:#0074D9;",
      "borderTopArticle": "border-top-color:#0074D9;",
      "imageListing": "/sites/globe.com.ph/files/content/dam/globe/brie/AboutUs/newsroom/917ventures/gretchen-largoza-new-president-ceo-adspark/newsroom-917ventures-largoza-ceo-adspark-thumbnail-listing.jpg",
      "articleUrl": "https://www.globe.com.ph/about-us/newsroom/917ventures/gretchen-largoza-new-president-ceo-adspark.html",
      "columnType": "articles--type-3",
      "typeListing": "article",
      "imageMobile": "/sites/globe.com.ph/files/content/dam/globe/brie/AboutUs/newsroom/917ventures/gretchen-largoza-new-president-ceo-adspark/newsroom-917ventures-largoza-ceo-adspark-primary-thumbnail-m.jpg",
      "imageDesktop": "/sites/globe.com.ph/files/content/dam/globe/brie/AboutUs/newsroom/917ventures/gretchen-largoza-new-president-ceo-adspark/newsroom-917ventures-largoza-ceo-adspark-primary-thumbnail-d.jpg",
      "description": "Exciting news! AdSpark welcomes Gretchen Largoza as our new CEO, starting Feb 8, 2021. Stay tuned for her innovative leadership!",
      "datePosted": "Feb 09, 2021 | 11:00 AM",
      "titleFromTag": "917Ventures"
    },
    {
      "title": "Your Business Made Better: Globe myBusiness Provides Digital Solutions to Empower Businesses in the Next Normal",
      "nonclickable": false,
      "openNewTab": false,
      "borderArticle": "border-color:#0074D9;",
      "borderTopArticle": "border-top-color:#0074D9;",
      "imageListing": "/sites/globe.com.ph/files/content/dam/globe/brie/AboutUs/newsroom/business/globe-mybusiness-digital-solutions-next-normal/newsroom-business-digital-solutions-next-normal-thumbnail-listing.jpg",
      "articleUrl": "https://www.globe.com.ph/about-us/newsroom/business/globe-mybusiness-digital-solutions-next-normal.html",
      "columnType": "articles--type-3",
      "typeListing": "article",
      "imageMobile": "/sites/globe.com.ph/files/content/dam/globe/brie/AboutUs/newsroom/business/globe-mybusiness-digital-solutions-next-normal/newsroom-business-digital-solutions-next-normal-primary-thumbnail-m.jpg",
      "imageDesktop": "/sites/globe.com.ph/files/content/dam/globe/brie/AboutUs/newsroom/business/globe-mybusiness-digital-solutions-next-normal/newsroom-business-digital-solutions-next-normal-primary-thumbnail-d.jpg",
      "description": "Digital solutions offered by Globe include a range of broadband and mobile plans.",
      "datePosted": "Feb 09, 2021 | 09:38 AM",
      "titleFromTag": "Business"
    },
    {
      "title": "Globe and Microsoft Partner for a Learning Session With 21st Century Educators",
      "nonclickable": false,
      "openNewTab": false,
      "borderArticle": "border-color:#0074D9;",
      "borderTopArticle": "border-top-color:#0074D9;",
      "imageListing": "/sites/globe.com.ph/files/content/dam/globe/brie/AboutUs/newsroom/business/globe-microsoft-learning-session-21st-century-educators/newsroom-business-microsoft-learning-session-thumbnail-listing.jpg",
      "articleUrl": "https://www.globe.com.ph/about-us/newsroom/business/globe-microsoft-learning-session-21st-century-educators.html",
      "columnType": "articles--type-3",
      "typeListing": "article",
      "imageMobile": "/sites/globe.com.ph/files/content/dam/globe/brie/AboutUs/newsroom/business/globe-microsoft-learning-session-21st-century-educators/newsroom-business-microsoft-learning-session-primary-thumbnail-m.jpg",
      "imageDesktop": "/sites/globe.com.ph/files/content/dam/globe/brie/AboutUs/newsroom/business/globe-microsoft-learning-session-21st-century-educators/newsroom-business-microsoft-learning-session-primary-thumbnail-d.jpg",
      "description": "Globe, in partnership with Microsoft held an E-skwela Partner-Led Learning Session on January 22, 2021.",
      "datePosted": "Feb 08, 2021 | 10:27 AM",
      "titleFromTag": "Business"
    },
    {
      "title": "Connecting Lives: Globe Builds 39 New Towers in ‘Underserved Areas’",
      "nonclickable": false,
      "openNewTab": false,
      "borderArticle": "border-color:#0074D9;",
      "borderTopArticle": "border-top-color:#0074D9;",
      "imageListing": "/sites/globe.com.ph/files/content/dam/globe/brie/AboutUs/newsroom/corporate/39-new-towers-underserved-areas/corporate-default-6-thumbnail-listing.jpg",
      "articleUrl": "https://www.globe.com.ph/about-us/newsroom/corporate/39-new-towers-underserved-areas.html",
      "columnType": "articles--type-3",
      "typeListing": "article",
      "imageMobile": "/sites/globe.com.ph/files/content/dam/globe/brie/AboutUs/newsroom/corporate/39-new-towers-underserved-areas/corporate-default-6-primary-thumbnail-m.jpg",
      "imageDesktop": "/sites/globe.com.ph/files/content/dam/globe/brie/AboutUs/newsroom/corporate/39-new-towers-underserved-areas/corporate-default-6-primary-thumbnail-d.jpg",
      "description": "Globe has increased connection in previously unserved areas of Mindanao, North Luzon, South Luzon, and Visayas by building 39 additional cell towers.",
      "datePosted": "Feb 08, 2021 | 10:13 AM",
      "titleFromTag": "Corporate"
    },
    {
      "title": "How 5G Technology Could Help One’s Everyday Life",
      "nonclickable": false,
      "openNewTab": false,
      "borderArticle": "border-color:#0074D9;",
      "borderTopArticle": "border-top-color:#0074D9;",
      "imageListing": "/sites/globe.com.ph/files/content/dam/globe/brie/AboutUs/newsroom/consumer/how-5g-technology-could-help-everyday-life/default-business-2-thumbnail-listing.jpg",
      "articleUrl": "https://www.globe.com.ph/about-us/newsroom/consumer/how-5g-technology-could-help-everyday-life.html",
      "columnType": "articles--type-3",
      "typeListing": "article",
      "imageMobile": "/sites/globe.com.ph/files/content/dam/globe/brie/AboutUs/newsroom/consumer/how-5g-technology-could-help-everyday-life/default-business-2-primary-thumbnail-m.jpg",
      "imageDesktop": "/sites/globe.com.ph/files/content/dam/globe/brie/AboutUs/newsroom/consumer/how-5g-technology-could-help-everyday-life/default-business-2-primary-thumbnail-d.jpg",
      "description": "Globe’s nationwide rollout of 5G technology is set to impact Filipinos’ lives in more ways than one. This next-generation network is causing a ripple of developments that can help consumers keep in step with today’s fast-paced life.",
      "datePosted": "Feb 08, 2021 | 08:01 AM",
      "titleFromTag": "Consumer"
    },
    {
      "title": "Improving Customer QoE at Globe Telecom",
      "nonclickable": false,
      "openNewTab": false,
      "borderArticle": "border-color:#0074D9;",
      "borderTopArticle": "border-top-color:#0074D9;",
      "imageListing": "/sites/globe.com.ph/files/content/dam/globe/brie/AboutUs/newsroom/corporate/improving-customer-qoe-globe-telecom/Corporate-globe-thumbnail-listing.jpg",
      "articleUrl": "https://www.globe.com.ph/about-us/newsroom/corporate/improving-customer-qoe-globe-telecom.html",
      "columnType": "articles--type-3",
      "typeListing": "article",
      "imageMobile": "/sites/globe.com.ph/files/content/dam/globe/brie/AboutUs/newsroom/corporate/improving-customer-qoe-globe-telecom/Corporate-globe-primary-thumbnail-m.jpg",
      "imageDesktop": "/sites/globe.com.ph/files/content/dam/globe/brie/AboutUs/newsroom/corporate/improving-customer-qoe-globe-telecom/Corporate-globe-primary-thumbnail-d.jpg",
      "description": "Globe selected ASSIA DSL Expresse for managing the performance of their xDSL network nationwide to improve their existing xDSL services because of DSL Expresse’s hardware-agnostic approach, advanced diagnostics, and data-driven optimization.",
      "datePosted": "Feb 08, 2021 | 08:00 AM",
      "titleFromTag": "Corporate"
    },
    {
      "title": "Globe at Home Prepaid WiFi LTE Advanced Is the Best Gift This V-Day for ‘Bae’",
      "nonclickable": false,
      "openNewTab": false,
      "borderArticle": "border-color:#0074D9;",
      "borderTopArticle": "border-top-color:#0074D9;",
      "imageListing": "/sites/globe.com.ph/files/content/dam/globe/brie/AboutUs/newsroom/consumer/prepaid-wifi-lte-advanced-v-day/newsroom-consumer-prepaid-wifi-vday-thumbnail-listing.jpg",
      "articleUrl": "https://www.globe.com.ph/about-us/newsroom/consumer/prepaid-wifi-lte-advanced-v-day.html",
      "columnType": "articles--type-3",
      "typeListing": "article",
      "imageMobile": "/sites/globe.com.ph/files/content/dam/globe/brie/AboutUs/newsroom/consumer/prepaid-wifi-lte-advanced-v-day/newsroom-consumer-prepaid-wifi-vday-primary-thumbnail-m.jpg",
      "imageDesktop": "/sites/globe.com.ph/files/content/dam/globe/brie/AboutUs/newsroom/consumer/prepaid-wifi-lte-advanced-v-day/newsroom-consumer-prepaid-wifi-vday-primary-thumbnail-d.jpg",
      "description": "Looking for a Valentine's gift? Gift your special Valentine a “reliable and dependable connectivity” with Globe At Home (GAH) Prepaid WiFi LTE-Advanced.",
      "datePosted": "Feb 07, 2021 | 03:55 PM",
      "titleFromTag": "Consumer"
    }
  ]
}
