{
  "status": 200,
  "page": 143,
  "totalPage": 298,
  "range": "1705-1716",
  "total": 3573,
  "result": [
    {
      "title": "Globe Paves Way for Our Lady of Manaoag Devotees To Continue Pilgrimage, Business Online",
      "nonclickable": false,
      "openNewTab": false,
      "borderArticle": "border-color:#1C91C5;",
      "borderTopArticle": "border-top-color:#1C91C5;",
      "imageListing": "/sites/globe.com.ph/files/content/dam/globe/brie/AboutUs/newsroom/sustainability/our-lady-of-manaoag-devotees-continue-pilgrimage/newsroom-sustainability-manaoag-devotees-online-thumbnail-listing.jpg",
      "articleUrl": "https://www.globe.com.ph/about-us/newsroom/sustainability/our-lady-of-manaoag-devotees-continue-pilgrimage.html",
      "columnType": "articles--type-3",
      "typeListing": "article",
      "imageMobile": "/sites/globe.com.ph/files/content/dam/globe/brie/AboutUs/newsroom/sustainability/our-lady-of-manaoag-devotees-continue-pilgrimage/newsroom-sustainability-manaoag-devotees-online-primary-thumbnail-m.jpg",
      "imageDesktop": "/sites/globe.com.ph/files/content/dam/globe/brie/AboutUs/newsroom/sustainability/our-lady-of-manaoag-devotees-continue-pilgrimage/newsroom-sustainability-manaoag-devotees-online-primary-thumbnail-d.jpg",
      "description": "Globe provides connectivity to Our Lady of Manaoag devotees and vendors in the church in Pangasinan to continue their devotions and attend masses online",
      "datePosted": "Feb 05, 2021 | 01:37 PM",
      "titleFromTag": "Sustainability"
    },
    {
      "title": "Eala Notches Hard-Earned Win Over German Foe; Advances To Last 8 of Rafa Nadal Academy ITF Tilt",
      "nonclickable": false,
      "openNewTab": false,
      "borderArticle": "border-color:#0074D9;",
      "borderTopArticle": "border-top-color:#0074D9;",
      "imageListing": "/sites/globe.com.ph/files/content/dam/globe/brie/AboutUs/newsroom/corporate/eala-notches-hard-earned-win-german-foe/corporate-eala-win-over-german-foe-thumbnail-listing.jpg",
      "articleUrl": "https://www.globe.com.ph/about-us/newsroom/corporate/eala-notches-hard-earned-win-german-foe.html",
      "columnType": "articles--type-3",
      "typeListing": "article",
      "imageMobile": "/sites/globe.com.ph/files/content/dam/globe/brie/AboutUs/newsroom/corporate/eala-notches-hard-earned-win-german-foe/corporate-eala-win-over-german-foe-primary-thumbnail-m.jpg",
      "imageDesktop": "/sites/globe.com.ph/files/content/dam/globe/brie/AboutUs/newsroom/corporate/eala-notches-hard-earned-win-german-foe/corporate-eala-win-over-german-foe-primary-thumbnail-d.jpg",
      "description": "The 15-year-old needed almost three hours to subdue her opponent who took out tournament top seed Margot Yerolymos of France in the opening round.",
      "datePosted": "Feb 05, 2021 | 01:37 PM",
      "titleFromTag": "Corporate"
    },
    {
      "title": "Globe eLibrary Introduces Children to Data Privacy and Security",
      "nonclickable": false,
      "openNewTab": false,
      "borderArticle": "border-color:#1C91C5;",
      "borderTopArticle": "border-top-color:#1C91C5;",
      "imageListing": "/sites/globe.com.ph/files/content/dam/globe/brie/AboutUs/newsroom/sustainability/globe-elibrary-data-privacy-security/newsroom-sustainability-eLibrary-data-privacy-thumbnail-listing.jpg",
      "articleUrl": "https://www.globe.com.ph/about-us/newsroom/sustainability/globe-elibrary-data-privacy-security.html",
      "columnType": "articles--type-3",
      "typeListing": "article",
      "imageMobile": "/sites/globe.com.ph/files/content/dam/globe/brie/AboutUs/newsroom/sustainability/globe-elibrary-data-privacy-security/newsroom-sustainability-eLibrary-data-privacy-primary-thumbnail-m.jpg",
      "imageDesktop": "/sites/globe.com.ph/files/content/dam/globe/brie/AboutUs/newsroom/sustainability/globe-elibrary-data-privacy-security/newsroom-sustainability-eLibrary-data-privacy-primary-thumbnail-d.jpg",
      "description": "Globe eLibrary includes data privacy and security for children in its list of books that are available to read or download for free.",
      "datePosted": "Feb 05, 2021 | 08:01 AM",
      "titleFromTag": "Sustainability"
    },
    {
      "title": "Globe Localizes Digital Care for Customers via Viber Communities",
      "nonclickable": false,
      "openNewTab": false,
      "borderArticle": "border-color:#0074D9;",
      "borderTopArticle": "border-top-color:#0074D9;",
      "imageListing": "/sites/globe.com.ph/files/content/dam/globe/brie/AboutUs/newsroom/corporate/globe-localizes-digital-care-viber-communities/newsroom-corporate-ph-digital-care-viber-thumbnail-listing.jpg",
      "articleUrl": "https://www.globe.com.ph/about-us/newsroom/corporate/globe-localizes-digital-care-viber-communities.html",
      "columnType": "articles--type-3",
      "typeListing": "article",
      "imageMobile": "/sites/globe.com.ph/files/content/dam/globe/brie/AboutUs/newsroom/corporate/globe-localizes-digital-care-viber-communities/newsroom-corporate-ph-digital-care-viber-primary-thumbnail-m.jpg",
      "imageDesktop": "/sites/globe.com.ph/files/content/dam/globe/brie/AboutUs/newsroom/corporate/globe-localizes-digital-care-viber-communities/newsroom-corporate-ph-digital-care-viber-primary-thumbnail-d.jpg",
      "description": "Globe has innovated localized Viber Communities to deliver a targeted and more focused servicing.",
      "datePosted": "Feb 05, 2021 | 08:01 AM",
      "titleFromTag": "Corporate"
    },
    {
      "title": "Resorts World Manila Prepares for a Digital 2021 with Globe 5G",
      "nonclickable": false,
      "openNewTab": false,
      "borderArticle": "border-color:#0074D9;",
      "borderTopArticle": "border-top-color:#0074D9;",
      "imageListing": "/sites/globe.com.ph/files/content/dam/globe/brie/AboutUs/newsroom/business/resorts-world-manila-digital-2021-globe-5g/newsroom-business-resorts-world-digital-thumbnail-listing.jpg",
      "articleUrl": "https://www.globe.com.ph/about-us/newsroom/business/resorts-world-manila-digital-2021-globe-5g.html",
      "columnType": "articles--type-3",
      "typeListing": "article",
      "imageMobile": "/sites/globe.com.ph/files/content/dam/globe/brie/AboutUs/newsroom/business/resorts-world-manila-digital-2021-globe-5g/newsroom-business-resorts-world-digital-primary-thumbnail-m.jpg",
      "imageDesktop": "/sites/globe.com.ph/files/content/dam/globe/brie/AboutUs/newsroom/business/resorts-world-manila-digital-2021-globe-5g/newsroom-business-resorts-world-digital-primary-thumbnail-d.jpg",
      "description": "Globe 5G’s free access allows all guests to experience up to 20x faster than LTE, fiber-fast speeds, which can reach up to 100 Mbps.",
      "datePosted": "Feb 04, 2021 | 11:07 AM",
      "titleFromTag": "Business"
    },
    {
      "title": "Globe Beefs Up Mobile, Data Services in Key Cities; Urges Customers To Use 5G-Ready 4G LTE SIMs and Devices",
      "nonclickable": false,
      "openNewTab": false,
      "borderArticle": "border-color:#0074D9;",
      "borderTopArticle": "border-top-color:#0074D9;",
      "imageListing": "/sites/globe.com.ph/files/content/dam/globe/brie/AboutUs/newsroom/corporate/globe-beefs-up-mobile-data-services-key-cities/corporate-default-7-thumbnail-listing.jpg",
      "articleUrl": "https://www.globe.com.ph/about-us/newsroom/corporate/globe-beefs-up-mobile-data-services-key-cities.html",
      "columnType": "articles--type-3",
      "typeListing": "article",
      "imageMobile": "/sites/globe.com.ph/files/content/dam/globe/brie/AboutUs/newsroom/corporate/globe-beefs-up-mobile-data-services-key-cities/corporate-default-7-primary-thumbnail-m.jpg",
      "imageDesktop": "/sites/globe.com.ph/files/content/dam/globe/brie/AboutUs/newsroom/corporate/globe-beefs-up-mobile-data-services-key-cities/corporate-default-7-primary-thumbnail-d.jpg",
      "description": "Globe customers with 5G-ready 4G LTE SIM card and 4G LTE can now enjoy enhanced mobile and data services in Boracay, Bacolod, Davao, and Cagayan De Oro Cities. ",
      "datePosted": "Feb 03, 2021 | 05:07 PM",
      "titleFromTag": "Corporate"
    },
    {
      "title": "PH Tops 5G Video Experience Improvement Globally, Tracks Thailand in Opensignal Report",
      "nonclickable": false,
      "openNewTab": false,
      "borderArticle": "border-color:#0074D9;",
      "borderTopArticle": "border-top-color:#0074D9;",
      "imageListing": "/sites/globe.com.ph/files/content/dam/globe/brie/AboutUs/newsroom/corporate/ph-tops-5g-video-experience-improvement-globally/newsroom-corporate-ph-tops-5g-video-thumbnail-listing.jpg",
      "articleUrl": "https://www.globe.com.ph/about-us/newsroom/corporate/ph-tops-5g-video-experience-improvement-globally.html",
      "columnType": "articles--type-3",
      "typeListing": "article",
      "imageMobile": "/sites/globe.com.ph/files/content/dam/globe/brie/AboutUs/newsroom/corporate/ph-tops-5g-video-experience-improvement-globally/newsroom-corporate-ph-tops-5g-video-primary-thumbnail-m.jpg",
      "imageDesktop": "/sites/globe.com.ph/files/content/dam/globe/brie/AboutUs/newsroom/corporate/ph-tops-5g-video-experience-improvement-globally/newsroom-corporate-ph-tops-5g-video-primary-thumbnail-d.jpg",
      "description": "During the January 21 briefing of DICT on the state of the country's internet, Secretary Roque laid down the country's aspiration to be at par with Vietnam and Thailand, both countries were cited as benchmarks of good connectivity.",
      "datePosted": "Feb 03, 2021 | 09:52 AM",
      "titleFromTag": "Corporate"
    },
    {
      "title": "‘Seamless Surfing’ with Globe At Home’s Stronger and Faster Prepaid WiFi ‘Doble-Bilis Boosters’",
      "nonclickable": false,
      "openNewTab": false,
      "borderArticle": "border-color:#0074D9;",
      "borderTopArticle": "border-top-color:#0074D9;",
      "imageListing": "/sites/globe.com.ph/files/content/dam/globe/brie/AboutUs/newsroom/consumer/seamless-surfing-globe-at-home-stronger-faster/newsroom-consumer-seamless-surfing-wifi-thumbnail-listing.jpg",
      "articleUrl": "https://www.globe.com.ph/about-us/newsroom/consumer/seamless-surfing-globe-at-home-stronger-faster.html",
      "columnType": "articles--type-3",
      "typeListing": "article",
      "imageMobile": "/sites/globe.com.ph/files/content/dam/globe/brie/AboutUs/newsroom/consumer/seamless-surfing-globe-at-home-stronger-faster/newsroom-consumer-seamless-surfing-wifi-primary-thumbnail-m.jpg",
      "imageDesktop": "/sites/globe.com.ph/files/content/dam/globe/brie/AboutUs/newsroom/consumer/seamless-surfing-globe-at-home-stronger-faster/newsroom-consumer-seamless-surfing-wifi-primary-thumbnail-d.jpg",
      "description": "The Globe At Home Prepaid WiFi LTE-advanced modem with “Doble-Bilis Boosters” now offers an internet connection 2x faster than any other Globe prepaid modem.",
      "datePosted": "Feb 02, 2021 | 04:04 PM",
      "titleFromTag": "Consumer"
    },
    {
      "title": "More Pinoys Using the Internet; Cost of Mobile Data ‘Cheaper’ in Philippines vs Thailand",
      "nonclickable": false,
      "openNewTab": false,
      "borderArticle": "border-color:#0074D9;",
      "borderTopArticle": "border-top-color:#0074D9;",
      "imageListing": "/sites/globe.com.ph/files/content/dam/globe/brie/AboutUs/newsroom/consumer/more-pinoys-using-internet/consumer-5g-fixed-wireless-access-thumbnail-listing.jpg",
      "articleUrl": "https://www.globe.com.ph/about-us/newsroom/consumer/more-pinoys-using-internet-mobile-data-cheaper-ph.html",
      "columnType": "articles--type-3",
      "typeListing": "article",
      "imageMobile": "/sites/globe.com.ph/files/content/dam/globe/brie/AboutUs/newsroom/consumer/more-pinoys-using-internet/consumer-5g-fixed-wireless-access-primary-thumbnail-m.jpg",
      "imageDesktop": "/sites/globe.com.ph/files/content/dam/globe/brie/AboutUs/newsroom/consumer/more-pinoys-using-internet/consumer-5g-fixed-wireless-access-primary-thumbnail-d.jpg",
      "description": "The pandemic accelerated the country’s digital transition as lockdowns restricted movement and mobility.",
      "datePosted": "Feb 02, 2021 | 11:39 AM",
      "titleFromTag": "Consumer"
    },
    {
      "title": "Globe Feted at Recent ASEAN Corporate Governance Scorecard",
      "nonclickable": false,
      "openNewTab": false,
      "borderArticle": "border-color:#0074D9;",
      "borderTopArticle": "border-top-color:#0074D9;",
      "imageListing": "/sites/globe.com.ph/files/content/dam/globe/brie/AboutUs/newsroom/corporate/globe-feted-asean-corporate-governance-scorecard/newsroom-corporate-globe-feted-asean-thumbnail-listing.jpg",
      "articleUrl": "https://www.globe.com.ph/about-us/newsroom/corporate/globe-feted-asean-corporate-governance-scorecard.html",
      "columnType": "articles--type-3",
      "typeListing": "article",
      "imageMobile": "/sites/globe.com.ph/files/content/dam/globe/brie/AboutUs/newsroom/corporate/globe-feted-asean-corporate-governance-scorecard/newsroom-corporate-globe-feted-asean-primary-thumbnail-m.jpg",
      "imageDesktop": "/sites/globe.com.ph/files/content/dam/globe/brie/AboutUs/newsroom/corporate/globe-feted-asean-corporate-governance-scorecard/newsroom-corporate-globe-feted-asean-primary-thumbnail-d.jpg",
      "description": "Globe dominated the ASEAN Corporate Governance Scorecard (ACGS) in a virtual awarding ceremony held on January 29.",
      "datePosted": "Feb 02, 2021 | 10:54 AM",
      "titleFromTag": "Corporate"
    },
    {
      "title": "Eala Jumps to 942nd in WTA World Ranking",
      "nonclickable": false,
      "openNewTab": false,
      "borderArticle": "border-color:#0074D9;",
      "borderTopArticle": "border-top-color:#0074D9;",
      "imageListing": "/sites/globe.com.ph/files/content/dam/globe/brie/AboutUs/newsroom/corporate/eala-jumps-942nd-wta-world-ranking/newsroom-corporate-eala-942nd-wta-thumbnail-listing.jpg",
      "articleUrl": "https://www.globe.com.ph/about-us/newsroom/corporate/eala-jumps-942nd-wta-world-ranking.html",
      "columnType": "articles--type-3",
      "typeListing": "article",
      "imageMobile": "/sites/globe.com.ph/files/content/dam/globe/brie/AboutUs/newsroom/corporate/eala-jumps-942nd-wta-world-ranking/newsroom-corporate-eala-942nd-wta-primary-thumbnail-m.jpg",
      "imageDesktop": "/sites/globe.com.ph/files/content/dam/globe/brie/AboutUs/newsroom/corporate/eala-jumps-942nd-wta-world-ranking/newsroom-corporate-eala-942nd-wta-primary-thumbnail-d.jpg",
      "description": "Boosted by her breakthrough win in Spain and a strong show in the succeeding tournament, Alex Eala has entered the top 1,000 of the WTA rankings.",
      "datePosted": "Feb 01, 2021 | 02:20 PM",
      "titleFromTag": "Corporate"
    },
    {
      "title": "Eala Bows to No. 7 Seed In-Albon in Rafa Nadal Academy ITF World Tennis Tour 2nd Leg",
      "nonclickable": false,
      "openNewTab": false,
      "borderArticle": "border-color:#0074D9;",
      "borderTopArticle": "border-top-color:#0074D9;",
      "imageListing": "/sites/globe.com.ph/files/content/dam/globe/brie/AboutUs/newsroom/corporate/eala-bows-to-number-7-seed-in-albon/corporate-eala-bows-no-7-seed-thumbnail-listing.jpg",
      "articleUrl": "https://www.globe.com.ph/about-us/newsroom/corporate/eala-bows-to-number-7-seed-in-albon.html",
      "columnType": "articles--type-3",
      "typeListing": "article",
      "imageMobile": "/sites/globe.com.ph/files/content/dam/globe/brie/AboutUs/newsroom/corporate/eala-bows-to-number-7-seed-in-albon/corporate-eala-bows-no-7-seed-primary-thumbnail-m.jpg",
      "imageDesktop": "/sites/globe.com.ph/files/content/dam/globe/brie/AboutUs/newsroom/corporate/eala-bows-to-number-7-seed-in-albon/corporate-eala-bows-no-7-seed-primary-thumbnail-d.jpg",
      "description": "Filipino tennis prodigy and Globe Ambassador Alex Eala bid to win a second consecutive title took a bump after she lost in the quarterfinals of the Rafael Nadal Academy ITF World Tennis Tournament’s second leg in Manacor, Mallorca in Spain.",
      "datePosted": "Feb 01, 2021 | 11:59 AM",
      "titleFromTag": "Corporate"
    }
  ]
}
