{
  "status": 200,
  "page": 144,
  "totalPage": 298,
  "range": "1717-1728",
  "total": 3573,
  "result": [
    {
      "title": "A Renewed Partnership Between De La Salle College of Saint Benilde and Globe for the Future of Digital Learning",
      "nonclickable": false,
      "openNewTab": false,
      "borderArticle": "border-color:#0074D9;",
      "borderTopArticle": "border-top-color:#0074D9;",
      "imageListing": "/sites/globe.com.ph/files/content/dam/globe/brie/AboutUs/newsroom/business/renewed-partnership-college-of-saint-benilde-digital-learning/newsroom-business-renewed-partnership-benilde-thumbnail-listing.jpg",
      "articleUrl": "https://www.globe.com.ph/about-us/newsroom/business/renewed-partnership-college-of-saint-benilde-digital-learning.html",
      "columnType": "articles--type-3",
      "typeListing": "article",
      "imageMobile": "/sites/globe.com.ph/files/content/dam/globe/brie/AboutUs/newsroom/business/renewed-partnership-college-of-saint-benilde-digital-learning/newsroom-business-renewed-partnership-benilde-primary-thumbnail-m.jpg",
      "imageDesktop": "/sites/globe.com.ph/files/content/dam/globe/brie/AboutUs/newsroom/business/renewed-partnership-college-of-saint-benilde-digital-learning/newsroom-business-renewed-partnership-benilde-primary-thumbnail-d.jpg",
      "description": "Educational institutions knew that LMS helps in the swift and efficient delivery of digital learning, which is why since acquiring Brightspace LMS back in 2015, De La Salle-College of Saint Benilde has renewed their partnership with Globe.",
      "datePosted": "Feb 01, 2021 | 11:06 AM",
      "titleFromTag": "Business"
    },
    {
      "title": "Globe Lights Up the Sky With ‘The Opening Act’ Drone Show",
      "nonclickable": false,
      "openNewTab": false,
      "borderArticle": "border-color:#0074D9;",
      "borderTopArticle": "border-top-color:#0074D9;",
      "imageListing": "/sites/globe.com.ph/files/content/dam/globe/brie/AboutUs/newsroom/consumer/blackpink-the-opening-act-drone-show/newsroom-consumer-blackpink-drone-show-thumbnail-listing.jpg",
      "articleUrl": "https://www.globe.com.ph/about-us/newsroom/consumer/blackpink-the-opening-act-drone-show.html",
      "columnType": "articles--type-3",
      "typeListing": "article",
      "imageMobile": "/sites/globe.com.ph/files/content/dam/globe/brie/AboutUs/newsroom/consumer/blackpink-the-opening-act-drone-show/newsroom-consumer-blackpink-drone-show-primary-thumbnail-m.jpg",
      "imageDesktop": "/sites/globe.com.ph/files/content/dam/globe/brie/AboutUs/newsroom/consumer/blackpink-the-opening-act-drone-show/newsroom-consumer-blackpink-drone-show-primary-thumbnail-d.jpg",
      "description": "Globe takes the excitement up a notch for all BLINKs eagerly awaiting THE SHOW by staging “The Opening Act,” a BLACKPINK-themed drone show last January 29.",
      "datePosted": "Jan 30, 2021 | 09:19 PM",
      "titleFromTag": "Consumer"
    },
    {
      "title": "Globe’s DIY Cup Sleeve Event Warms BLINKS Up for THE SHOW",
      "nonclickable": false,
      "openNewTab": false,
      "borderArticle": "border-color:#0074D9;",
      "borderTopArticle": "border-top-color:#0074D9;",
      "imageListing": "/sites/globe.com.ph/files/content/dam/globe/brie/AboutUs/newsroom/consumer/diy-cup-sleeve-event-warms-blinks-up/newsroom-consumer-diy-cup-sleeve-thumbnail-listing.jpg",
      "articleUrl": "https://www.globe.com.ph/about-us/newsroom/consumer/diy-cup-sleeve-event-warms-blinks-up.html",
      "columnType": "articles--type-3",
      "typeListing": "article",
      "imageMobile": "/sites/globe.com.ph/files/content/dam/globe/brie/AboutUs/newsroom/consumer/diy-cup-sleeve-event-warms-blinks-up/newsroom-consumer-diy-cup-sleeve-primary-thumbnail-m.jpg",
      "imageDesktop": "/sites/globe.com.ph/files/content/dam/globe/brie/AboutUs/newsroom/consumer/diy-cup-sleeve-event-warms-blinks-up/newsroom-consumer-diy-cup-sleeve-primary-thumbnail-d.jpg",
      "description": "BLINKs received kits with painting materials and freebies to enjoy their creations within the comfort of their own homes, guided by artist Allyana Leizel",
      "datePosted": "Jan 30, 2021 | 01:56 PM",
      "titleFromTag": "Consumer"
    },
    {
      "title": "#FightingHunger: Globe, Walang Iwanan Alliance Raise P4.9M for Poor Communities",
      "nonclickable": false,
      "openNewTab": false,
      "borderArticle": "border-color:#1C91C5;",
      "borderTopArticle": "border-top-color:#1C91C5;",
      "imageListing": "/sites/globe.com.ph/files/content/dam/globe/brie/AboutUs/newsroom/sustainability/globe-walang-iwanan-alliance-raise-funds-poor-communities/newsroom-sustainability-walang-iwanan-alliance-thumbnail-listing.jpg",
      "articleUrl": "https://www.globe.com.ph/about-us/newsroom/sustainability/globe-walang-iwanan-alliance-raise-funds-poor-communities.html",
      "columnType": "articles--type-3",
      "typeListing": "article",
      "imageMobile": "/sites/globe.com.ph/files/content/dam/globe/brie/AboutUs/newsroom/sustainability/globe-walang-iwanan-alliance-raise-funds-poor-communities/newsroom-sustainability-walang-iwanan-alliance-primary-thumbnail-m.jpg",
      "imageDesktop": "/sites/globe.com.ph/files/content/dam/globe/brie/AboutUs/newsroom/sustainability/globe-walang-iwanan-alliance-raise-funds-poor-communities/newsroom-sustainability-walang-iwanan-alliance-primary-thumbnail-d.jpg",
      "description": "Globe and Walang Iwanan Alliance gave at least 14,000 food and rice packs to disadvantaged and underserved communities in Mandaluyong, Paranaque, San Juan and other cities and municipalities in Luzon recently.",
      "datePosted": "Jan 29, 2021 | 05:15 PM",
      "titleFromTag": "Sustainability"
    },
    {
      "title": "As Internet Speeds Improve, Consistency Is Key in Achieving #FirstWorldNetwork",
      "nonclickable": false,
      "openNewTab": false,
      "borderArticle": "border-color:#0074D9;",
      "borderTopArticle": "border-top-color:#0074D9;",
      "imageListing": "/sites/globe.com.ph/files/content/dam/globe/brie/AboutUs/newsroom/corporate/internet-speeds-improve-consistency-key-firstworldnetwork/corporate-default-6-thumbnail-listing.jpg",
      "articleUrl": "https://www.globe.com.ph/about-us/newsroom/corporate/internet-speeds-improve-consistency-key-firstworldnetwork.html",
      "columnType": "articles--type-3",
      "typeListing": "article",
      "imageMobile": "/sites/globe.com.ph/files/content/dam/globe/brie/AboutUs/newsroom/corporate/internet-speeds-improve-consistency-key-firstworldnetwork/corporate-default-6-primary-thumbnail-m.jpg",
      "imageDesktop": "/sites/globe.com.ph/files/content/dam/globe/brie/AboutUs/newsroom/corporate/internet-speeds-improve-consistency-key-firstworldnetwork/corporate-default-6-primary-thumbnail-d.jpg",
      "description": "Globe’s nationwide tower builds have resulted in a ‘sustained and consistent’ network with better connectivity experience for its customers.",
      "datePosted": "Jan 29, 2021 | 05:37 AM",
      "titleFromTag": "Corporate"
    },
    {
      "title": "LIST: What Are Budget-Friendly Globe 5G Devices?",
      "nonclickable": false,
      "openNewTab": false,
      "borderArticle": "border-color:#0074D9;",
      "borderTopArticle": "border-top-color:#0074D9;",
      "imageListing": "/sites/globe.com.ph/files/content/dam/globe/brie/AboutUs/newsroom/consumer/budget-friendly-globe-5g-devices/newsroom-consumer-budget-friendly-5g-device-thumbnail-listing.jpg",
      "articleUrl": "https://www.globe.com.ph/about-us/newsroom/consumer/budget-friendly-globe-5g-devices.html",
      "columnType": "articles--type-3",
      "typeListing": "article",
      "imageMobile": "/sites/globe.com.ph/files/content/dam/globe/brie/AboutUs/newsroom/consumer/budget-friendly-globe-5g-devices/newsroom-consumer-budget-friendly-5g-device-primary-thumbnail-m.jpg",
      "imageDesktop": "/sites/globe.com.ph/files/content/dam/globe/brie/AboutUs/newsroom/consumer/budget-friendly-globe-5g-devices/newsroom-consumer-budget-friendly-5g-device-primary-thumbnail-d.jpg",
      "description": "To enjoy the complete 5G experience, users need a 5G-capable mobile phone with a 4G/LTE SIM which are both compatible with Globe’s upgraded network.",
      "datePosted": "Jan 28, 2021 | 01:31 PM",
      "titleFromTag": "Consumer"
    },
    {
      "title": "Eala Upsets No.2 Seed Bjorklund in 2nd Leg of Rafa Nadal Academy ITF World Tennis Tour",
      "nonclickable": false,
      "openNewTab": false,
      "borderArticle": "border-color:#0074D9;",
      "borderTopArticle": "border-top-color:#0074D9;",
      "imageListing": "/sites/globe.com.ph/files/content/dam/globe/brie/AboutUs/newsroom/corporate/eala-wins-way-first-itf-pro-womens-finals/newsroom-corporate-eala-wins-itf-finals-listing.jpg",
      "articleUrl": "https://www.globe.com.ph/about-us/newsroom/corporate/eala-upsets-number-2-seed-bjorklund.html",
      "columnType": "articles--type-3",
      "typeListing": "article",
      "imageMobile": "/sites/globe.com.ph/files/content/dam/globe/brie/AboutUs/newsroom/corporate/eala-wins-way-first-itf-pro-womens-finals/newsroom-corporate-eala-wins-itf-finals-primary-thumbnail-m.jpg",
      "imageDesktop": "/sites/globe.com.ph/files/content/dam/globe/brie/AboutUs/newsroom/corporate/eala-wins-way-first-itf-pro-womens-finals/newsroom-corporate-eala-wins-itf-finals-primary-thumbnail-d.jpg",
      "description": "The Filipino pride showed no fear against the older and more experienced Swede by taking the first set, 6-4, setting the tone for an upset win.",
      "datePosted": "Jan 28, 2021 | 01:05 PM",
      "titleFromTag": "Corporate"
    },
    {
      "title": "Globe’s Pervasive 4G LTE Network Meets Increased Mobile Data Demand",
      "nonclickable": false,
      "openNewTab": false,
      "borderArticle": "border-color:#0074D9;",
      "borderTopArticle": "border-top-color:#0074D9;",
      "imageListing": "/sites/globe.com.ph/files/content/dam/globe/brie/AboutUs/newsroom/corporate/4g-lte-network-meets-mobile-data-demand/default-business-5-thumbnail-listing.jpg",
      "articleUrl": "https://www.globe.com.ph/about-us/newsroom/corporate/4g-lte-network-meets-mobile-data-demand.html",
      "columnType": "articles--type-3",
      "typeListing": "article",
      "imageMobile": "/sites/globe.com.ph/files/content/dam/globe/brie/AboutUs/newsroom/corporate/4g-lte-network-meets-mobile-data-demand/default-business-5-primary-thumbnail-m.jpg",
      "imageDesktop": "/sites/globe.com.ph/files/content/dam/globe/brie/AboutUs/newsroom/corporate/4g-lte-network-meets-mobile-data-demand/default-business-5-primary-thumbnail-d.jpg",
      "description": "Globe’s wide-reaching 4G LTE network has helped to facilitate better connectivity, business continuity and enhanced productivity nationwide.",
      "datePosted": "Jan 27, 2021 | 01:39 PM",
      "titleFromTag": "Corporate"
    },
    {
      "title": "Making the Advertising Business Model Work in the Year of the Pandemic By Onat Roldan",
      "nonclickable": false,
      "openNewTab": false,
      "borderArticle": "border-color:#0074D9;",
      "borderTopArticle": "border-top-color:#0074D9;",
      "imageListing": "/sites/globe.com.ph/files/content/dam/globe/brie/AboutUs/newsroom/corporate/making-advertising-business-model-work-year-of-pandemic/newsroom-corporate-making-business-model-thumbnail-listing.jpg",
      "articleUrl": "https://www.globe.com.ph/about-us/newsroom/corporate/making-advertising-business-model-work-year-of-pandemic.html",
      "columnType": "articles--type-3",
      "typeListing": "article",
      "imageMobile": "/sites/globe.com.ph/files/content/dam/globe/brie/AboutUs/newsroom/corporate/making-advertising-business-model-work-year-of-pandemic/newsroom-corporate-making-business-model-primary-thumbnail-m.jpg",
      "imageDesktop": "/sites/globe.com.ph/files/content/dam/globe/brie/AboutUs/newsroom/corporate/making-advertising-business-model-work-year-of-pandemic/newsroom-corporate-making-business-model-primary-thumbnail-d.jpg",
      "description": "2020 was a challenging and unforgettable year due to the COVID-19 pandemic, which not only paused the world but also took hundreds of thousands of lives.",
      "datePosted": "Jan 27, 2021 | 11:37 AM",
      "titleFromTag": "Corporate"
    },
    {
      "title": "Ready for BLACKPINK: THE SHOW? Don’t forget your tickets!",
      "nonclickable": false,
      "openNewTab": false,
      "borderArticle": "border-color:#0074D9;",
      "borderTopArticle": "border-top-color:#0074D9;",
      "imageListing": "/sites/globe.com.ph/files/content/dam/globe/brie/AboutUs/newsroom/consumer/ready-for-blackpink--the-show--don’t-forget-your-tickets!/newsroom-consumer-blackpink-the-show-thumbnail-listing.jpg",
      "articleUrl": "https://www.globe.com.ph/about-us/newsroom/consumer/ready-for-blackpink-the-show.html",
      "columnType": "articles--type-3",
      "typeListing": "article",
      "imageMobile": "/sites/globe.com.ph/files/content/dam/globe/brie/AboutUs/newsroom/consumer/ready-for-blackpink--the-show--don’t-forget-your-tickets!/newsroom-consumer-blackpink-the-show-primary-thumbnail-m.jpg",
      "imageDesktop": "/sites/globe.com.ph/files/content/dam/globe/brie/AboutUs/newsroom/consumer/ready-for-blackpink--the-show--don’t-forget-your-tickets!/newsroom-consumer-blackpink-the-show-primary-thumbnail-d.jpg",
      "description": "Globe gave a thousand BLINKs the surprise of their lives with a promo allowing fans membership access to the concert during a livestream event last Friday.",
      "datePosted": "Jan 27, 2021 | 11:37 AM",
      "titleFromTag": "Consumer"
    },
    {
      "title": "Iloilo City, 4G LTE Ready Na! Customers Hinimok Na Kumuha Na Ng 5G-Ready 4G LTE SIM – LIBRE!",
      "nonclickable": false,
      "openNewTab": false,
      "borderArticle": "border-color:#0074D9;",
      "borderTopArticle": "border-top-color:#0074D9;",
      "imageListing": "/sites/globe.com.ph/files/content/dam/globe/brie/AboutUs/newsroom/consumer/iloilo-city-4g-lte-ready/corporate-default-7-thumbnail-listing.jpg",
      "articleUrl": "https://www.globe.com.ph/about-us/newsroom/consumer/iloilo-city-4g-lte-ready.html",
      "columnType": "articles--type-3",
      "typeListing": "article",
      "imageMobile": "/sites/globe.com.ph/files/content/dam/globe/brie/AboutUs/newsroom/consumer/iloilo-city-4g-lte-ready/corporate-default-7-primary-thumbnail-m.jpg",
      "imageDesktop": "/sites/globe.com.ph/files/content/dam/globe/brie/AboutUs/newsroom/consumer/iloilo-city-4g-lte-ready/corporate-default-7-primary-thumbnail-d.jpg",
      "description": "Dahil sa patuloy na pagpapalawak at pag-upgrade ng Globe ng mga teknolohiyang gamit nito,  4G LTE  ready na ang network nito sa lungsod.",
      "datePosted": "Jan 27, 2021 | 11:36 AM",
      "titleFromTag": "Consumer"
    },
    {
      "title": "Globe myBusiness Offers Exclusive Perks to Registered Business Owners",
      "nonclickable": false,
      "openNewTab": false,
      "borderArticle": "border-color:#0074D9;",
      "borderTopArticle": "border-top-color:#0074D9;",
      "imageListing": "/sites/globe.com.ph/files/content/dam/globe/brie/AboutUs/newsroom/business/gmb-bplo-offers/version-2/newsroom-business-exclusive-perks-owners-thumbnail-listing.jpg",
      "articleUrl": "https://www.globe.com.ph/about-us/newsroom/business/globe-mybusiness-exclusive-perks-registered-business-owners.html",
      "columnType": "articles--type-3",
      "typeListing": "article",
      "imageMobile": "/sites/globe.com.ph/files/content/dam/globe/brie/AboutUs/newsroom/business/gmb-bplo-offers/version-2/newsroom-business-exclusive-perks-owners-primary-thumbnail-m.jpg",
      "imageDesktop": "/sites/globe.com.ph/files/content/dam/globe/brie/AboutUs/newsroom/business/gmb-bplo-offers/version-2/newsroom-business-exclusive-perks-owners-primary-thumbnail-d.jpg",
      "description": "Globe myBusiness offers exclusive perks and deals that will help entrepreneurs build their businesses better and aid them in their day-to-day operations.",
      "datePosted": "Jan 27, 2021 | 10:56 AM",
      "titleFromTag": "Business"
    }
  ]
}
