{
  "status": 200,
  "page": 145,
  "totalPage": 298,
  "range": "1729-1740",
  "total": 3573,
  "result": [
    {
      "title": "Globe myBusiness Reinvents Your Success With Samsung Galaxy S21",
      "nonclickable": false,
      "openNewTab": false,
      "borderArticle": "border-color:#0074D9;",
      "borderTopArticle": "border-top-color:#0074D9;",
      "imageListing": "/sites/globe.com.ph/files/content/dam/globe/brie/AboutUs/newsroom/business/gmb-offers-samsung-galaxy-s21/newsroom-business-samsung-galaxy-s21-thumbnail-listing.jpg",
      "articleUrl": "https://www.globe.com.ph/about-us/newsroom/business/globe-mybusiness-reinvents-your-success-samsung-galaxy-s21.html",
      "columnType": "articles--type-3",
      "typeListing": "article",
      "imageMobile": "/sites/globe.com.ph/files/content/dam/globe/brie/AboutUs/newsroom/business/gmb-offers-samsung-galaxy-s21/newsroom-business-samsung-galaxy-s21-primary-thumbnail-m.jpg",
      "imageDesktop": "/sites/globe.com.ph/files/content/dam/globe/brie/AboutUs/newsroom/business/gmb-offers-samsung-galaxy-s21/newsroom-business-samsung-galaxy-s21-primary-thumbnail-d.jpg",
      "description": "Globe myBusiness is offering a deal you won't want to pass up on the latest technology developments and the newest technological partner for your business.",
      "datePosted": "Jan 27, 2021 | 09:50 AM",
      "titleFromTag": "Business"
    },
    {
      "title": "'Fastest, More Advanced' Globe At Home Prepaid WiFi Provides Essential Connectivity in New Normal",
      "nonclickable": false,
      "openNewTab": false,
      "borderArticle": "border-color:#0074D9;",
      "borderTopArticle": "border-top-color:#0074D9;",
      "imageListing": "/sites/globe.com.ph/files/content/dam/globe/brie/AboutUs/newsroom/consumer/mas-pinabilis-pinalakas-globe-at-home-prepaid-wifi/newsroom-consumer-mas-pinabilis-wifi-thumbnail-listing.jpg",
      "articleUrl": "https://www.globe.com.ph/about-us/newsroom/consumer/fastest-more-advanced-globe-at-home-prepaid-wifi.html",
      "columnType": "articles--type-3",
      "typeListing": "article",
      "imageMobile": "/sites/globe.com.ph/files/content/dam/globe/brie/AboutUs/newsroom/consumer/mas-pinabilis-pinalakas-globe-at-home-prepaid-wifi/newsroom-consumer-mas-pinabilis-wifi-primary-thumbnail-m.jpg",
      "imageDesktop": "/sites/globe.com.ph/files/content/dam/globe/brie/AboutUs/newsroom/consumer/mas-pinabilis-pinalakas-globe-at-home-prepaid-wifi/newsroom-consumer-mas-pinabilis-wifi-primary-thumbnail-d.jpg",
      "description": "Globe At Home Prepaid WiFi is available in several promo offers packed with freebies depending on the subscriber’s budget.",
      "datePosted": "Jan 26, 2021 | 10:23 AM",
      "titleFromTag": "Consumer"
    },
    {
      "title": "Alex Eala Earns Praise From the ‘King of Clay’ Rafael Nadal",
      "nonclickable": false,
      "openNewTab": false,
      "borderArticle": "border-color:#0074D9;",
      "borderTopArticle": "border-top-color:#0074D9;",
      "imageListing": "/sites/globe.com.ph/files/content/dam/globe/brie/AboutUs/newsroom/corporate/eala-earns-praise-from-rafael-nadal/newsroom-corporate-eala-praise-nadal-thumbnail-listing.jpg",
      "articleUrl": "https://www.globe.com.ph/about-us/newsroom/corporate/eala-earns-praise-from-rafael-nadal.html",
      "columnType": "articles--type-3",
      "typeListing": "article",
      "imageMobile": "/sites/globe.com.ph/files/content/dam/globe/brie/AboutUs/newsroom/corporate/eala-earns-praise-from-rafael-nadal/newsroom-corporate-eala-praise-nadal-primary-thumbnail-m.jpg",
      "imageDesktop": "/sites/globe.com.ph/files/content/dam/globe/brie/AboutUs/newsroom/corporate/eala-earns-praise-from-rafael-nadal/newsroom-corporate-eala-praise-nadal-top-banner-d.jpg",
      "description": "Rafael Nadal, one of the world's greatest tennis players with 20 Grand Slam wins and 13 French Open titles, praised Eala for her feat.",
      "datePosted": "Jan 25, 2021 | 02:04 PM",
      "titleFromTag": "Corporate"
    },
    {
      "title": "Globe’s Mobile Consistency Score™ in Bulacan Continues To Improve",
      "nonclickable": false,
      "openNewTab": false,
      "borderArticle": "border-color:#0074D9;",
      "borderTopArticle": "border-top-color:#0074D9;",
      "imageListing": "/sites/globe.com.ph/files/content/dam/globe/brie/AboutUs/newsroom/common/updated/Corporate-globe-thumbnail-listing.jpg",
      "articleUrl": "https://www.globe.com.ph/about-us/newsroom/corporate/mobile-consistency-score-bulacan-improves.html",
      "columnType": "articles--type-3",
      "typeListing": "article",
      "imageMobile": "/sites/globe.com.ph/files/content/dam/globe/brie/AboutUs/newsroom/common/updated/Corporate-globe-primary-thumbnail-m.jpg",
      "imageDesktop": "/sites/globe.com.ph/files/content/dam/globe/brie/AboutUs/newsroom/common/updated/Corporate-globe-primary-thumbnail-d.jpg",
      "description": "Globe customers in Bulacan are now reaping the benefits of the company’s unrelenting efforts to upgrade its network infrastructure in the province.",
      "datePosted": "Jan 25, 2021 | 11:31 AM",
      "titleFromTag": "Corporate"
    },
    {
      "title": "917Ventures, Puregold Offer Same-Day Grocery Delivery via PureGo",
      "nonclickable": false,
      "openNewTab": false,
      "borderArticle": "border-color:#0074D9;",
      "borderTopArticle": "border-top-color:#0074D9;",
      "imageListing": "/sites/globe.com.ph/files/content/dam/globe/brie/AboutUs/newsroom/917ventures/puregold-same-day-grocery-delivery-purego/newsroom-917ventures-purego-same-day-thumbnail-listing.jpg",
      "articleUrl": "https://www.globe.com.ph/about-us/newsroom/917ventures/puregold-same-day-grocery-delivery-purego.html",
      "columnType": "articles--type-3",
      "typeListing": "article",
      "imageMobile": "/sites/globe.com.ph/files/content/dam/globe/brie/AboutUs/newsroom/917ventures/puregold-same-day-grocery-delivery-purego/newsroom-917ventures-purego-same-day-primary-thumbnail-m.jpg",
      "imageDesktop": "/sites/globe.com.ph/files/content/dam/globe/brie/AboutUs/newsroom/917ventures/puregold-same-day-grocery-delivery-purego/newsroom-917ventures-purego-same-day-primary-thumbnail-d.jpg",
      "description": "917Ventures, Inc. and Puregold have teamed up to launch PureGo, an ecommerce platform that delivers an easy online grocery shopping experience.",
      "datePosted": "Jan 25, 2021 | 11:30 AM",
      "titleFromTag": "917Ventures"
    },
    {
      "title": "Eala Takes Rafa Nadal Academy World Tennis Tour Crown; Wins First-Ever ITF Professional Singles Title",
      "nonclickable": false,
      "openNewTab": false,
      "borderArticle": "border-color:#0074D9;",
      "borderTopArticle": "border-top-color:#0074D9;",
      "imageListing": "/sites/globe.com.ph/files/content/dam/globe/brie/AboutUs/newsroom/corporate/eala-wins-first-ever-itf-professional-singlestitle/newsroom-corporate-eala-rafa-nadal-crown-thumbnail-listing.jpg",
      "articleUrl": "https://www.globe.com.ph/about-us/newsroom/corporate/eala-wins-first-itf-professional-singles-title.html",
      "columnType": "articles--type-3",
      "typeListing": "article",
      "imageMobile": "/sites/globe.com.ph/files/content/dam/globe/brie/AboutUs/newsroom/corporate/eala-wins-first-ever-itf-professional-singlestitle/newsroom-corporate-eala-rafa-nadal-crown-primary-thumbnail-m.jpg",
      "imageDesktop": "/sites/globe.com.ph/files/content/dam/globe/brie/AboutUs/newsroom/corporate/eala-wins-first-ever-itf-professional-singlestitle/newsroom-corporate-eala-rafa-nadal-crown-primary-thumbnail-d.jpg",
      "description": "The 15-year-old Fillipina became the first-ever tennis player from the Philippines to win an ITF professional singles title in the history of the sport.",
      "datePosted": "Jan 25, 2021 | 11:30 AM",
      "titleFromTag": "Corporate"
    },
    {
      "title": "BLINKS Rave on Social Media As Globe Gives Away 1000 Concert Tickets",
      "nonclickable": false,
      "openNewTab": false,
      "borderArticle": "border-color:#0074D9;",
      "borderTopArticle": "border-top-color:#0074D9;",
      "imageListing": "/sites/globe.com.ph/files/content/dam/globe/brie/AboutUs/newsroom/consumer/globe-gives-away-1000-blackpink-concert-tickets/newsroom-consumer-blinks-1000-tickets-thumbnail-listing.jpg",
      "articleUrl": "https://www.globe.com.ph/about-us/newsroom/consumer/globe-gives-away-1000-blackpink-concert-tickets.html",
      "columnType": "articles--type-3",
      "typeListing": "article",
      "imageMobile": "/sites/globe.com.ph/files/content/dam/globe/brie/AboutUs/newsroom/consumer/globe-gives-away-1000-blackpink-concert-tickets/newsroom-consumer-blinks-1000-tickets-primary-thumbnail-m.jpg",
      "imageDesktop": "/sites/globe.com.ph/files/content/dam/globe/brie/AboutUs/newsroom/consumer/globe-gives-away-1000-blackpink-concert-tickets/newsroom-consumer-blinks-1000-tickets-primary-thumbnail-d.jpg",
      "description": "On Friday night,  Globe gave away 1000 The Show tickets to BLACKPINK fans as a gesture of appreciation to those who waited at least two hours during the kick-off event of Korea's most sought-after girl group concert at the end of this month.",
      "datePosted": "Jan 25, 2021 | 11:29 AM",
      "titleFromTag": "Consumer"
    },
    {
      "title": "Alex Wins Her Way to Her First ITF Pro Women’s Finals",
      "nonclickable": false,
      "openNewTab": false,
      "borderArticle": "border-color:#0074D9;",
      "borderTopArticle": "border-top-color:#0074D9;",
      "imageListing": "/sites/globe.com.ph/files/content/dam/globe/brie/AboutUs/newsroom/corporate/eala-wins-way-first-itf-pro-womens-finals/newsroom-corporate-eala-wins-itf-finals-listing.jpg",
      "articleUrl": "https://www.globe.com.ph/about-us/newsroom/corporate/eala-wins-way-first-itf-pro-womens-finals.html",
      "columnType": "articles--type-3",
      "typeListing": "article",
      "imageMobile": "/sites/globe.com.ph/files/content/dam/globe/brie/AboutUs/newsroom/corporate/eala-wins-way-first-itf-pro-womens-finals/newsroom-corporate-eala-wins-itf-finals-primary-thumbnail-m.jpg",
      "imageDesktop": "/sites/globe.com.ph/files/content/dam/globe/brie/AboutUs/newsroom/corporate/eala-wins-way-first-itf-pro-womens-finals/newsroom-corporate-eala-wins-itf-finals-primary-thumbnail-d.jpg",
      "description": "Filipino tennis prodigy and Globe Ambassador Alex Eala defeated Adithya Karunaratne of Hong Kong in straight sets, 6-3, 6-4 to enter the finals of the Rafael Nadal Academy World Tennis Tour in Manacor, Spain.",
      "datePosted": "Jan 23, 2021 | 08:54 PM",
      "titleFromTag": "Corporate"
    },
    {
      "title": "Eala Barges Into Semis of Rafa Nadal Tennis Tournament",
      "nonclickable": false,
      "openNewTab": false,
      "borderArticle": "border-color:#0074D9;",
      "borderTopArticle": "border-top-color:#0074D9;",
      "imageListing": "/sites/globe.com.ph/files/content/dam/globe/brie/AboutUs/newsroom/corporate/eala-barges-semis-rafa-nadal-tennis-tournament/newsroom-corporate-eala-semis-rafa-thumbnail-listing.jpg",
      "articleUrl": "https://www.globe.com.ph/about-us/newsroom/corporate/eala-barges-semis-rafa-nadal-tennis-tournament.html",
      "columnType": "articles--type-3",
      "typeListing": "article",
      "imageMobile": "/sites/globe.com.ph/files/content/dam/globe/brie/AboutUs/newsroom/corporate/eala-barges-semis-rafa-nadal-tennis-tournament/newsroom-corporate-eala-semis-rafa-primary-thumbnail-m.jpg",
      "imageDesktop": "/sites/globe.com.ph/files/content/dam/globe/brie/AboutUs/newsroom/corporate/eala-barges-semis-rafa-nadal-tennis-tournament/newsroom-corporate-eala-semis-rafa-primary-thumbnail-d.jpg",
      "description": "Filipino tennis prodigy Alex Eala booked a semifinals seat in the Rafael Nadal Academy World Tennis Tour as she beat ITF singles world #14 Carole Monnet. ",
      "datePosted": "Jan 23, 2021 | 04:32 PM",
      "titleFromTag": "Corporate"
    },
    {
      "title": "Globe Beefs Up Tower Builds, Product Offers and Partnerships To Keep Customers Happy",
      "nonclickable": false,
      "openNewTab": false,
      "borderArticle": "border-color:#0074D9;",
      "borderTopArticle": "border-top-color:#0074D9;",
      "imageListing": "/sites/globe.com.ph/files/content/dam/globe/brie/AboutUs/newsroom/common/updated/Corporate-globe-thumbnail-listing.jpg",
      "articleUrl": "https://www.globe.com.ph/about-us/newsroom/corporate/globe-beefs-up-tower-builds-product-offers-partnerships.html",
      "columnType": "articles--type-3",
      "typeListing": "article",
      "imageMobile": "/sites/globe.com.ph/files/content/dam/globe/brie/AboutUs/newsroom/common/updated/Corporate-globe-primary-thumbnail-m.jpg",
      "imageDesktop": "/sites/globe.com.ph/files/content/dam/globe/brie/AboutUs/newsroom/common/updated/Corporate-globe-primary-thumbnail-d.jpg",
      "description": "As the country reels from the effects of a global health crisis, major businesses and industries have now been pushed to go digital. In effect, never has the need for fast, reliable internet service been more felt.",
      "datePosted": "Jan 22, 2021 | 05:44 PM",
      "titleFromTag": "Corporate"
    },
    {
      "title": "Globe At Home Broadband Customers Get Free Upgrades",
      "nonclickable": false,
      "openNewTab": false,
      "borderArticle": "border-color:#0074D9;",
      "borderTopArticle": "border-top-color:#0074D9;",
      "imageListing": "/sites/globe.com.ph/files/content/dam/globe/brie/AboutUs/newsroom/consumer/globe-at-home-broadband-customers-free-upgrades/newsroom-consumer-gah-free-upgrades-thumbnail-listing.jpg",
      "articleUrl": "https://www.globe.com.ph/about-us/newsroom/consumer/globe-at-home-broadband-customers-free-upgrades.html",
      "columnType": "articles--type-3",
      "typeListing": "article",
      "imageMobile": "/sites/globe.com.ph/files/content/dam/globe/brie/AboutUs/newsroom/consumer/globe-at-home-broadband-customers-free-upgrades/newsroom-consumer-gah-free-upgrades-primary-thumbnail-m.jpg",
      "imageDesktop": "/sites/globe.com.ph/files/content/dam/globe/brie/AboutUs/newsroom/consumer/globe-at-home-broadband-customers-free-upgrades/newsroom-consumer-gah-free-upgrades-primary-thumbnail-d.jpg",
      "description": "Many loyal Globe At Home broadband customers received free upgrades as part of the telco’s program to adjust plans given the increasing needs of the customers.",
      "datePosted": "Jan 22, 2021 | 03:04 PM",
      "titleFromTag": "Consumer"
    },
    {
      "title": "HOMESURF99: Mas Sulit Na Internet Mula Sa Globe at Home Prepaid WiFi Para Sa Masang Pinoy",
      "nonclickable": false,
      "openNewTab": false,
      "borderArticle": "border-color:#0074D9;",
      "borderTopArticle": "border-top-color:#0074D9;",
      "imageListing": "/sites/globe.com.ph/files/content/dam/globe/brie/AboutUs/newsroom/consumer/homesurf99-mas-sulit-na-internet/newsroom-consumer-homesurf-99-thumbnail-listing.jpg",
      "articleUrl": "https://www.globe.com.ph/about-us/newsroom/consumer/homesurf99-mas-sulit-na-internet.html",
      "columnType": "articles--type-3",
      "typeListing": "article",
      "imageMobile": "/sites/globe.com.ph/files/content/dam/globe/brie/AboutUs/newsroom/consumer/homesurf99-mas-sulit-na-internet/newsroom-consumer-homesurf-99-primary-thumbnail-m.jpg",
      "imageDesktop": "/sites/globe.com.ph/files/content/dam/globe/brie/AboutUs/newsroom/consumer/homesurf99-mas-sulit-na-internet/newsroom-consumer-homesurf-99-primary-thumbnail-d.jpg",
      "description": "Para sa mas sulit at abot kayang internet, gumamit ng HOMESURF99, magaan sa bulsa ngunit bigatin ang data hatid ng Globe At Home Prepaid WiFi.",
      "datePosted": "Jan 22, 2021 | 02:52 PM",
      "titleFromTag": "Consumer"
    }
  ]
}
