{
  "status": 200,
  "page": 146,
  "totalPage": 298,
  "range": "1741-1752",
  "total": 3573,
  "result": [
    {
      "title": "Globe-Powered ISDApp Helps Fisherfolks To Safely Navigate Seas",
      "nonclickable": false,
      "openNewTab": false,
      "borderArticle": "border-color:#1C91C5;",
      "borderTopArticle": "border-top-color:#1C91C5;",
      "imageListing": "/sites/globe.com.ph/files/content/dam/globe/brie/AboutUs/newsroom/sustainability/globe-powered-isdapp-helps-fisherfolks-navigate-seas/newsroom-sustainability-isdapp-navigate-seas-thumbnail-listing.jpg",
      "articleUrl": "https://www.globe.com.ph/about-us/newsroom/sustainability/globe-powered-isdapp-helps-fisherfolks-navigate-seas.html",
      "columnType": "articles--type-3",
      "typeListing": "article",
      "imageMobile": "/sites/globe.com.ph/files/content/dam/globe/brie/AboutUs/newsroom/sustainability/globe-powered-isdapp-helps-fisherfolks-navigate-seas/newsroom-sustainability-isdapp-navigate-seas-primary-thumbnail-m.jpg",
      "imageDesktop": "/sites/globe.com.ph/files/content/dam/globe/brie/AboutUs/newsroom/sustainability/globe-powered-isdapp-helps-fisherfolks-navigate-seas/newsroom-sustainability-isdapp-navigate-seas-primary-thumbnail-d.jpg",
      "description": "Fisherfolks in the coastal areas of the Philippines can look forward to a brighter and safer year ahead with the development of ISDApp.",
      "datePosted": "Jan 22, 2021 | 12:52 PM",
      "titleFromTag": "Sustainability"
    },
    {
      "title": "Globe Leads in Telco Builds, Tower Construction",
      "nonclickable": false,
      "openNewTab": false,
      "borderArticle": "border-color:#0074D9;",
      "borderTopArticle": "border-top-color:#0074D9;",
      "imageListing": "/sites/globe.com.ph/files/content/dam/globe/brie/AboutUs/newsroom/common/default-15/default-corporate-9-thumbnail-listing.jpg",
      "articleUrl": "https://www.globe.com.ph/about-us/newsroom/corporate/globe-leads-telco-builds-tower-construction.html",
      "columnType": "articles--type-3",
      "typeListing": "article",
      "imageMobile": "/sites/globe.com.ph/files/content/dam/globe/brie/AboutUs/newsroom/common/default-15/default-corporate-9-primary-thumbnail-m.jpg",
      "imageDesktop": "/sites/globe.com.ph/files/content/dam/globe/brie/AboutUs/newsroom/common/default-15/default-corporate-9-primary-thumbnail-d.jpg",
      "description": "Globe led in telco infrastructure builds and tower construction over its competitors based on a National Telecommunications Commission report to Malacanang.",
      "datePosted": "Jan 21, 2021 | 06:51 PM",
      "titleFromTag": "Corporate"
    },
    {
      "title": "Philippines Improves by 13 Spots in Global Speedtest Ranking",
      "nonclickable": false,
      "openNewTab": false,
      "borderArticle": "border-color:#0074D9;",
      "borderTopArticle": "border-top-color:#0074D9;",
      "imageListing": "/sites/globe.com.ph/files/content/dam/globe/brie/AboutUs/newsroom/corporate/philippines-improves-global-speedtest-ranking/newsroom-corporate-philippines-speedtest-ranking-thumbnail-listing.jpg",
      "articleUrl": "https://www.globe.com.ph/about-us/newsroom/corporate/philippines-improves-global-speedtest-ranking.html",
      "columnType": "articles--type-3",
      "typeListing": "article",
      "imageMobile": "/sites/globe.com.ph/files/content/dam/globe/brie/AboutUs/newsroom/corporate/philippines-improves-global-speedtest-ranking/newsroom-corporate-philippines-speedtest-ranking-primary-thumbnail-m.jpg",
      "imageDesktop": "/sites/globe.com.ph/files/content/dam/globe/brie/AboutUs/newsroom/corporate/philippines-improves-global-speedtest-ranking/newsroom-corporate-philippines-speedtest-ranking-primary-thumbnail-d.jpg",
      "description": "In December, the country’s average mobile download speed was higher at 22.5 Mbps compared to 18.49 Mbps in November 2020.",
      "datePosted": "Jan 21, 2021 | 02:58 PM",
      "titleFromTag": "Corporate"
    },
    {
      "title": "80% of Metro Manila Now With Globe’s 5G Outdoor Coverage",
      "nonclickable": false,
      "openNewTab": false,
      "borderArticle": "border-color:#0074D9;",
      "borderTopArticle": "border-top-color:#0074D9;",
      "imageListing": "/sites/globe.com.ph/files/content/dam/globe/brie/AboutUs/newsroom/common/default-2/default-business-2-thumbnail-listing.jpg",
      "articleUrl": "https://www.globe.com.ph/about-us/newsroom/corporate/80-percent-metro-manila-globe-5g-outdoor-coverage.html",
      "columnType": "articles--type-3",
      "typeListing": "article",
      "imageMobile": "/sites/globe.com.ph/files/content/dam/globe/brie/AboutUs/newsroom/common/default-2/default-business-2-primary-thumbnail-m.jpg",
      "imageDesktop": "/sites/globe.com.ph/files/content/dam/globe/brie/AboutUs/newsroom/common/default-2/default-business-2-primary-thumbnail-d.jpg",
      "description": "The company has upgraded 884 locations in Metro Manila into 5G-ready sites to make 5G service available to its customers.",
      "datePosted": "Jan 21, 2021 | 08:36 AM",
      "titleFromTag": "Corporate"
    },
    {
      "title": "Asticom Hopes To Break Into the Multi-Billion Peso Shared Services Market With ABSI",
      "nonclickable": false,
      "openNewTab": false,
      "borderArticle": "border-color:#0074D9;",
      "borderTopArticle": "border-top-color:#0074D9;",
      "imageListing": "/sites/globe.com.ph/files/content/dam/globe/brie/AboutUs/newsroom/common/updated/Corporate-globe-thumbnail-listing.jpg",
      "articleUrl": "https://www.globe.com.ph/about-us/newsroom/corporate/asticom-hopes-to-enter-multi-billion-peso-shared-services-market.html",
      "columnType": "articles--type-3",
      "typeListing": "article",
      "imageMobile": "/sites/globe.com.ph/files/content/dam/globe/brie/AboutUs/newsroom/common/updated/Corporate-globe-primary-thumbnail-m.jpg",
      "imageDesktop": "/sites/globe.com.ph/files/content/dam/globe/brie/AboutUs/newsroom/common/updated/Corporate-globe-primary-thumbnail-d.jpg",
      "description": "Asticom Technology, Inc. hopes to enter the multi-billion peso shared services market with its first subsidiary, Asti Business Services, Inc.",
      "datePosted": "Jan 20, 2021 | 01:38 PM",
      "titleFromTag": "Corporate"
    },
    {
      "title": "Globe’s Intensive Builds Yield Positive Results",
      "nonclickable": false,
      "openNewTab": false,
      "borderArticle": "border-color:#0074D9;",
      "borderTopArticle": "border-top-color:#0074D9;",
      "imageListing": "/sites/globe.com.ph/files/content/dam/globe/brie/AboutUs/newsroom/common/default-15/default-corporate-9-thumbnail-listing.jpg",
      "articleUrl": "https://www.globe.com.ph/about-us/newsroom/corporate/globe-intensive-builds-yield-positive-results.html",
      "columnType": "articles--type-3",
      "typeListing": "article",
      "imageMobile": "/sites/globe.com.ph/files/content/dam/globe/brie/AboutUs/newsroom/common/default-15/default-corporate-9-primary-thumbnail-m.jpg",
      "imageDesktop": "/sites/globe.com.ph/files/content/dam/globe/brie/AboutUs/newsroom/common/default-15/default-corporate-9-primary-thumbnail-d.jpg",
      "description": "Globe's aggressive upgrades have produced positive results for subscribers, with mobile and broadband internet speed steadily improving across the country.",
      "datePosted": "Jan 20, 2021 | 01:38 PM",
      "titleFromTag": "Corporate"
    },
    {
      "title": "Globe Boosts Network Modernization Efforts in Pampanga, Laguna, and Batangas",
      "nonclickable": false,
      "openNewTab": false,
      "borderArticle": "border-color:#0074D9;",
      "borderTopArticle": "border-top-color:#0074D9;",
      "imageListing": "/sites/globe.com.ph/files/content/dam/globe/brie/AboutUs/newsroom/common/default-14/newsroom-corporate-globe-high-remarks-thumbnail-listing.jpg",
      "articleUrl": "https://www.globe.com.ph/about-us/newsroom/corporate/network-modernization-efforts-pampanga-laguna-batangas.html",
      "columnType": "articles--type-3",
      "typeListing": "article",
      "imageMobile": "/sites/globe.com.ph/files/content/dam/globe/brie/AboutUs/newsroom/common/default-14/newsroom-corporate-globe-high-remarks-primary-thumbnail-m.jpg",
      "imageDesktop": "/sites/globe.com.ph/files/content/dam/globe/brie/AboutUs/newsroom/common/default-14/newsroom-corporate-globe-high-remarks-primary-thumbnail-d.jpg",
      "description": "Globe’s network upgrade efforts are expected to result in better quality of calls, SMS and data services for its customers in Pampanga, Laguna and Batangas.",
      "datePosted": "Jan 20, 2021 | 01:09 PM",
      "titleFromTag": "Corporate"
    },
    {
      "title": "G na G na sa 4G! #Alamin: Bakit Kailangan Mag-Level Up sa 4G?",
      "nonclickable": false,
      "openNewTab": false,
      "borderArticle": "border-color:#0074D9;",
      "borderTopArticle": "border-top-color:#0074D9;",
      "imageListing": "/sites/globe.com.ph/files/content/dam/globe/brie/AboutUs/newsroom/common/default-2/default-business-2-thumbnail-listing.jpg",
      "articleUrl": "https://www.globe.com.ph/about-us/newsroom/consumer/bakit-kailangan-mag-level-up-4g.html",
      "columnType": "articles--type-3",
      "typeListing": "article",
      "imageMobile": "/sites/globe.com.ph/files/content/dam/globe/brie/AboutUs/newsroom/common/default-2/default-business-2-primary-thumbnail-m.jpg",
      "imageDesktop": "/sites/globe.com.ph/files/content/dam/globe/brie/AboutUs/newsroom/common/default-2/default-business-2-primary-thumbnail-d.jpg",
      "description": "Ngayong 2021, asahan ang patuloy na “digital connection” sa pang-araw araw na gawain with 4G.",
      "datePosted": "Jan 18, 2021 | 03:08 PM",
      "titleFromTag": "Consumer"
    },
    {
      "title": "Globe Full Speed Ahead in Upgrading Network to 4G LTE in Visayas and Mindanao",
      "nonclickable": false,
      "openNewTab": false,
      "borderArticle": "border-color:#0074D9;",
      "borderTopArticle": "border-top-color:#0074D9;",
      "imageListing": "/sites/globe.com.ph/files/content/dam/globe/brie/AboutUs/newsroom/common/default-5/corporate-default-6-thumbnail-listing.jpg",
      "articleUrl": "https://www.globe.com.ph/about-us/newsroom/corporate/full-speed-ahead-upgrading-network-visayas-mindanao.html",
      "columnType": "articles--type-3",
      "typeListing": "article",
      "imageMobile": "/sites/globe.com.ph/files/content/dam/globe/brie/AboutUs/newsroom/common/default-5/corporate-default-6-primary-thumbnail-m.jpg",
      "imageDesktop": "/sites/globe.com.ph/files/content/dam/globe/brie/AboutUs/newsroom/common/default-5/corporate-default-6-primary-thumbnail-d.jpg",
      "description": "Globe aims to continue its network development as it eyes several cities in Visayas and Mindanao to be upgraded to 4G LTE technologies.",
      "datePosted": "Jan 18, 2021 | 11:26 AM",
      "titleFromTag": "Corporate"
    },
    {
      "title": "KonsultaMD and Shopee Launch “MomDays” To Help Filipino Moms Learn the Benefits of Telemedicine",
      "nonclickable": false,
      "openNewTab": false,
      "borderArticle": "border-color:#0074D9;",
      "borderTopArticle": "border-top-color:#0074D9;",
      "imageListing": "/sites/globe.com.ph/files/content/dam/globe/brie/AboutUs/newsroom/consumer/konsultamd-shopee-launch-momdays/newsroom-consumer-konsultamd-shopee-momdays-thumbnail-listing.jpg",
      "articleUrl": "https://www.globe.com.ph/about-us/newsroom/consumer/konsultamd-shopee-launch-momdays.html",
      "columnType": "articles--type-3",
      "typeListing": "article",
      "imageMobile": "/sites/globe.com.ph/files/content/dam/globe/brie/AboutUs/newsroom/consumer/konsultamd-shopee-launch-momdays/newsroom-consumer-konsultamd-shopee-momdays-primary-thumbnail-m.jpg",
      "imageDesktop": "/sites/globe.com.ph/files/content/dam/globe/brie/AboutUs/newsroom/consumer/konsultamd-shopee-launch-momdays/newsroom-consumer-konsultamd-shopee-momdays-primary-thumbnail-d.jpg",
      "description": "KonsultaMD, along with Shopee, gives 24/7 access to licensed doctors as well as Shopee MomDays to help working moms and promote awareness about telemedicine.",
      "datePosted": "Jan 18, 2021 | 09:07 AM",
      "titleFromTag": "Consumer"
    },
    {
      "title": "Make This a Year for Reinvention With Globe and Samsung Galaxy S21+ 5G and S21 Ultra 5G",
      "nonclickable": false,
      "openNewTab": false,
      "borderArticle": "border-color:#0074D9;",
      "borderTopArticle": "border-top-color:#0074D9;",
      "imageListing": "/sites/globe.com.ph/files/content/dam/globe/brie/AboutUs/newsroom/consumer/year-for-reinvention-samsung-galaxy-s21/newsroom-consumer-samsung-galaxy-s21-thumbnail-listing.jpg",
      "articleUrl": "https://www.globe.com.ph/about-us/newsroom/consumer/year-for-reinvention-samsung-galaxy-s21.html",
      "columnType": "articles--type-3",
      "typeListing": "article",
      "imageMobile": "/sites/globe.com.ph/files/content/dam/globe/brie/AboutUs/newsroom/consumer/year-for-reinvention-samsung-galaxy-s21/newsroom-consumer-samsung-galaxy-s21-primary-thumbnail-m.jpg",
      "imageDesktop": "/sites/globe.com.ph/files/content/dam/globe/brie/AboutUs/newsroom/consumer/year-for-reinvention-samsung-galaxy-s21/newsroom-consumer-samsung-galaxy-s21-primary-thumbnail-d.jpg",
      "description": "All three models under the series, namely the S21, S21+, and S21 Ultra, are 5G-ready and packed with state-of-the-art features which when combined  with the 5G network of Globe are sure to open up a new world of possibilities for users.",
      "datePosted": "Jan 18, 2021 | 09:07 AM",
      "titleFromTag": "Consumer"
    },
    {
      "title": "Globe Site Builds Help Dagupan Residents Prepare for the Future",
      "nonclickable": false,
      "openNewTab": false,
      "borderArticle": "border-color:#0074D9;",
      "borderTopArticle": "border-top-color:#0074D9;",
      "imageListing": "/sites/globe.com.ph/files/content/dam/globe/brie/AboutUs/newsroom/corporate/globe-site-builds-help-dagupan-residents-prepare-future/newsroom-corporate-globe-dagupan-residents-thumbnail-listing.jpg",
      "articleUrl": "https://www.globe.com.ph/about-us/newsroom/corporate/globe-site-builds-help-dagupan-residents-prepare-future.html",
      "columnType": "articles--type-3",
      "typeListing": "article",
      "imageMobile": "/sites/globe.com.ph/files/content/dam/globe/brie/AboutUs/newsroom/corporate/globe-site-builds-help-dagupan-residents-prepare-future/newsroom-corporate-globe-dagupan-residents-primary-thumbnail-m.jpg",
      "imageDesktop": "/sites/globe.com.ph/files/content/dam/globe/brie/AboutUs/newsroom/corporate/globe-site-builds-help-dagupan-residents-prepare-future/newsroom-corporate-globe-dagupan-residents-primary-thumbnail-d.jpg",
      "description": "Globe has been building new cell sites to fulfill the telco's commitment to have 4G LTE nationwide, in areas such as Brgy. Tambac, Dagupan.",
      "datePosted": "Jan 15, 2021 | 10:29 AM",
      "titleFromTag": "Corporate"
    }
  ]
}
