{
  "status": 200,
  "page": 147,
  "totalPage": 298,
  "range": "1753-1764",
  "total": 3573,
  "result": [
    {
      "title": "PH Broadband Now Faster, More Affordable and Cheaper Than Global Average",
      "nonclickable": false,
      "openNewTab": false,
      "borderArticle": "border-color:#0074D9;",
      "borderTopArticle": "border-top-color:#0074D9;",
      "imageListing": "/sites/globe.com.ph/files/content/dam/globe/brie/AboutUs/newsroom/common/default-11/default-business-5-thumbnail-listing.jpg",
      "articleUrl": "https://www.globe.com.ph/about-us/newsroom/corporate/ph-broadband-now-faster-affordable-cheaper-global-average.html",
      "columnType": "articles--type-3",
      "typeListing": "article",
      "imageMobile": "/sites/globe.com.ph/files/content/dam/globe/brie/AboutUs/newsroom/common/default-11/default-business-5-primary-thumbnail-m.jpg",
      "imageDesktop": "/sites/globe.com.ph/files/content/dam/globe/brie/AboutUs/newsroom/common/default-11/default-business-5-primary-thumbnail-d.jpg",
      "description": "Globe’s continuous efforts to improve its network performance have resulted in more affordable and faster internet services for its broadband customers.",
      "datePosted": "Jan 15, 2021 | 10:29 AM",
      "titleFromTag": "Corporate"
    },
    {
      "title": "Globe and NPC Launch Partnership on Digital Citizenship",
      "nonclickable": false,
      "openNewTab": false,
      "borderArticle": "border-color:#0074D9;",
      "borderTopArticle": "border-top-color:#0074D9;",
      "imageListing": "/sites/globe.com.ph/files/content/dam/globe/brie/AboutUs/newsroom/partners/globe-npc-launch-partnership-digital-citizenship/newsroom-partners-npc-partnership-digital-thumbnail-listing.jpg",
      "articleUrl": "https://www.globe.com.ph/about-us/newsroom/partners/globe-npc-launch-partnership-digital-citizenship.html",
      "columnType": "articles--type-3",
      "typeListing": "article",
      "imageMobile": "/sites/globe.com.ph/files/content/dam/globe/brie/AboutUs/newsroom/partners/globe-npc-launch-partnership-digital-citizenship/newsroom-partners-npc-partnership-digital-primary-thumbnail-m.jpg",
      "imageDesktop": "/sites/globe.com.ph/files/content/dam/globe/brie/AboutUs/newsroom/partners/globe-npc-launch-partnership-digital-citizenship/newsroom-partners-npc-partnership-digital-primary-thumbnail-d.jpg",
      "description": "The National Privacy Commission (NPC) has launched a partnership with Globe to promote digital responsibility and data privacy among the Filipino youth.",
      "datePosted": "Jan 14, 2021 | 11:17 AM",
      "titleFromTag": "Partners"
    },
    {
      "title": "Why 3G is Obsolete and What You Can Do About It",
      "nonclickable": false,
      "openNewTab": false,
      "borderArticle": "border-color:#0074D9;",
      "borderTopArticle": "border-top-color:#0074D9;",
      "imageListing": "/sites/globe.com.ph/files/content/dam/globe/brie/AboutUs/newsroom/common/default-4/default-consumer-3-thumbnail-listing.jpg",
      "articleUrl": "https://www.globe.com.ph/about-us/newsroom/corporate/why-3g-is-obsolete.html",
      "columnType": "articles--type-3",
      "typeListing": "article",
      "imageMobile": "/sites/globe.com.ph/files/content/dam/globe/brie/AboutUs/newsroom/common/default-4/default-consumer-3-primary-thumbnail-m.jpg",
      "imageDesktop": "/sites/globe.com.ph/files/content/dam/globe/brie/AboutUs/newsroom/common/default-4/default-consumer-3-primary-thumbnail-d.jpg",
      "description": "Since last year, Globe has been strongly pushing its customers to embrace newer technologies for a better internet experience.",
      "datePosted": "Jan 14, 2021 | 11:15 AM",
      "titleFromTag": "Corporate"
    },
    {
      "title": "Globe Platinum Customers Honor Medical Frontliners with Noche Buena Feasts on Christmas Eve",
      "nonclickable": false,
      "openNewTab": false,
      "borderArticle": "border-color:#0074D9;",
      "borderTopArticle": "border-top-color:#0074D9;",
      "imageListing": "/sites/globe.com.ph/files/content/dam/globe/brie/AboutUs/newsroom/consumer/platinum-customers-honor-medical-frontliners/newsroom-consumer-platinum-medical-frontliners-thumbnail-listing.jpg",
      "articleUrl": "https://www.globe.com.ph/about-us/newsroom/consumer/platinum-customers-honor-medical-frontliners.html",
      "columnType": "articles--type-3",
      "typeListing": "article",
      "imageMobile": "/sites/globe.com.ph/files/content/dam/globe/brie/AboutUs/newsroom/consumer/platinum-customers-honor-medical-frontliners/newsroom-consumer-platinum-medical-frontliners-primary-thumbnail-m.jpg",
      "imageDesktop": "/sites/globe.com.ph/files/content/dam/globe/brie/AboutUs/newsroom/consumer/platinum-customers-honor-medical-frontliners/newsroom-consumer-platinum-medical-frontliners-primary-thumbnail-d.jpg",
      "description": "Last Christmas Eve, Globe Platinum made special deliveries to key hospitals across the country that were at the forefront against the COVID-19 pandemic.",
      "datePosted": "Jan 14, 2021 | 10:42 AM",
      "titleFromTag": "Consumer"
    },
    {
      "title": "Globe Supports Government Initiative to Fight Online Child Pornography",
      "nonclickable": false,
      "openNewTab": false,
      "borderArticle": "border-color:#0074D9;",
      "borderTopArticle": "border-top-color:#0074D9;",
      "imageListing": "/sites/globe.com.ph/files/content/dam/globe/brie/AboutUs/newsroom/common/updated/Corporate-globe-thumbnail-listing.jpg",
      "articleUrl": "https://www.globe.com.ph/about-us/newsroom/corporate/globe-supports-government-initiative-fight-online-child-pornography.html",
      "columnType": "articles--type-3",
      "typeListing": "article",
      "imageMobile": "/sites/globe.com.ph/files/content/dam/globe/brie/AboutUs/newsroom/common/updated/Corporate-globe-primary-thumbnail-m.jpg",
      "imageDesktop": "/sites/globe.com.ph/files/content/dam/globe/brie/AboutUs/newsroom/common/updated/Corporate-globe-primary-thumbnail-d.jpg",
      "description": "Globe welcomes the government's move to end online child pornography, with Cabinet Secretary Karlo Nograles urging ISPs like Globe to stand against this crime.",
      "datePosted": "Jan 13, 2021 | 05:03 PM",
      "titleFromTag": "Corporate"
    },
    {
      "title": "Globe’s Clean-Up Efforts Earn Praise in Iloilo City",
      "nonclickable": false,
      "openNewTab": false,
      "borderArticle": "border-color:#1C91C5;",
      "borderTopArticle": "border-top-color:#1C91C5;",
      "imageListing": "/sites/globe.com.ph/files/content/dam/globe/brie/AboutUs/newsroom/sustainability/asticom-launches-subsidiary-local-international-expansion/newsroom-sustainability-cleanup-praise-iloilo-thumbnail-listing.jpg",
      "articleUrl": "https://www.globe.com.ph/about-us/newsroom/sustainability/asticom-launches-subsidiary-local-international-expansion.html",
      "columnType": "articles--type-3",
      "typeListing": "article",
      "imageMobile": "/sites/globe.com.ph/files/content/dam/globe/brie/AboutUs/newsroom/sustainability/asticom-launches-subsidiary-local-international-expansion/newsroom-sustainability-cleanup-praise-iloilo-primary-thumbnail-m.jpg",
      "imageDesktop": "/sites/globe.com.ph/files/content/dam/globe/brie/AboutUs/newsroom/sustainability/asticom-launches-subsidiary-local-international-expansion/newsroom-sustainability-cleanup-praise-iloilo-primary-thumbnail-d.jpg",
      "description": "Globe was cited by no less than Iloilo Mayor Jerry Treñas for its efforts to make the city's environment clean and safe. The citation was in reference to the recent cable clearing operation done by the telco.",
      "datePosted": "Jan 13, 2021 | 02:44 PM",
      "titleFromTag": "Sustainability"
    },
    {
      "title": "Globe Builds Teacher Skills on Early Language Literacy",
      "nonclickable": false,
      "openNewTab": false,
      "borderArticle": "border-color:#1C91C5;",
      "borderTopArticle": "border-top-color:#1C91C5;",
      "imageListing": "/sites/globe.com.ph/files/content/dam/globe/brie/AboutUs/newsroom/sustainability/globe-builds-teacher-skills-early-language-literacy/default-sustainability-1-thumbnail-listing.jpg",
      "articleUrl": "https://www.globe.com.ph/about-us/newsroom/sustainability/globe-builds-teacher-skills-early-language-literacy.html",
      "columnType": "articles--type-3",
      "typeListing": "article",
      "imageMobile": "/sites/globe.com.ph/files/content/dam/globe/brie/AboutUs/newsroom/sustainability/globe-builds-teacher-skills-early-language-literacy/default-sustainability-1-primary-thumbnail-m.jpg",
      "imageDesktop": "/sites/globe.com.ph/files/content/dam/globe/brie/AboutUs/newsroom/sustainability/globe-builds-teacher-skills-early-language-literacy/default-sustainability-1-primary-thumbnail-d.jpg",
      "description": "Globe has launched another professional development training for teachers now focusing on early language literacy.",
      "datePosted": "Jan 13, 2021 | 11:47 AM",
      "titleFromTag": "Sustainability"
    },
    {
      "title": "Asticom Launches Subsidiary for Local and International Expansion",
      "nonclickable": false,
      "openNewTab": false,
      "borderArticle": "border-color:#0074D9;",
      "borderTopArticle": "border-top-color:#0074D9;",
      "imageListing": "/sites/globe.com.ph/files/content/dam/globe/brie/AboutUs/newsroom/corporate/asticom-launches-subsidiary-local-international-expansion/newsroom-corporate-asticom-launches-subsidiary-thumbnail-listing.jpg",
      "articleUrl": "https://www.globe.com.ph/about-us/newsroom/corporate/asticom-launches-subsidiary-local-international-expansion.html",
      "columnType": "articles--type-3",
      "typeListing": "article",
      "imageMobile": "/sites/globe.com.ph/files/content/dam/globe/brie/AboutUs/newsroom/corporate/asticom-launches-subsidiary-local-international-expansion/newsroom-corporate-asticom-launches-subsidiary-primary-thumbnail-m.jpg",
      "imageDesktop": "/sites/globe.com.ph/files/content/dam/globe/brie/AboutUs/newsroom/corporate/asticom-launches-subsidiary-local-international-expansion/newsroom-corporate-asticom-launches-subsidiary-primary-thumbnail-d.jpg",
      "description": "Asticom Technology, Inc is launching its first subsidiary, Asti Business Services, Inc. (ABSI), a move that will propel the company to be the number one shared services provider in the Philippines and Asia.",
      "datePosted": "Jan 13, 2021 | 11:47 AM",
      "titleFromTag": "Corporate"
    },
    {
      "title": "Globe Lets More Pinoys Enjoy the Promise of 5G",
      "nonclickable": false,
      "openNewTab": false,
      "borderArticle": "border-color:#0074D9;",
      "borderTopArticle": "border-top-color:#0074D9;",
      "imageListing": "/sites/globe.com.ph/files/content/dam/globe/brie/AboutUs/newsroom/corporate/5g-console-less-gaming/newsroom-corporate-5g-console-gaming-thumbnail-listing.jpg",
      "articleUrl": "https://www.globe.com.ph/about-us/newsroom/corporate/pinoys-enjoy-5g.html",
      "columnType": "articles--type-3",
      "typeListing": "article",
      "imageMobile": "/sites/globe.com.ph/files/content/dam/globe/brie/AboutUs/newsroom/corporate/5g-console-less-gaming/newsroom-corporate-5g-console-gaming-primary-thumbnail-m.jpg",
      "imageDesktop": "/sites/globe.com.ph/files/content/dam/globe/brie/AboutUs/newsroom/corporate/5g-console-less-gaming/newsroom-corporate-5g-console-gaming-primary-thumbnail-d.jpg",
      "description": "Globe’s relentless modernization of its network has made it possible for its 5G technology to be available to more customers in more areas in the country.",
      "datePosted": "Jan 12, 2021 | 11:34 AM",
      "titleFromTag": "Corporate"
    },
    {
      "title": "Globe Awards Gilat Multi-Million US Dollar Managed Service Contract for Significant Expansion of Cellular Backhaul Project",
      "nonclickable": false,
      "openNewTab": false,
      "borderArticle": "border-color:#0074D9;",
      "borderTopArticle": "border-top-color:#0074D9;",
      "imageListing": "/sites/globe.com.ph/files/content/dam/globe/brie/AboutUs/newsroom/corporate/gilat-multi-million-us-dollar-managed-service-contract/Corporate-globe-thumbnail-listing.jpg",
      "articleUrl": "https://www.globe.com.ph/about-us/newsroom/corporate/gilat-multi-million-us-dollar-managed-service-contract.html",
      "columnType": "articles--type-3",
      "typeListing": "article",
      "imageMobile": "/sites/globe.com.ph/files/content/dam/globe/brie/AboutUs/newsroom/corporate/gilat-multi-million-us-dollar-managed-service-contract/Corporate-globe-primary-thumbnail-m.jpg",
      "imageDesktop": "/sites/globe.com.ph/files/content/dam/globe/brie/AboutUs/newsroom/corporate/gilat-multi-million-us-dollar-managed-service-contract/Corporate-globe-primary-thumbnail-d.jpg",
      "description": "Gilat's robust end-to-end solution will enable Globe to meet its goal of providing high-quality service throughout the Philippines",
      "datePosted": "Jan 11, 2021 | 04:46 PM",
      "titleFromTag": "Corporate"
    },
    {
      "title": "Globe Site Builds Prepare More Regions for Nationwide 4G LTE Standards",
      "nonclickable": false,
      "openNewTab": false,
      "borderArticle": "border-color:#0074D9;",
      "borderTopArticle": "border-top-color:#0074D9;",
      "imageListing": "/sites/globe.com.ph/files/content/dam/globe/brie/AboutUs/newsroom/corporate/site-builds-prepare-nationwide-4g-lte-standards/newsroom-corporate-nationwide-4g-lte-thumbnail-listing.jpg",
      "articleUrl": "https://www.globe.com.ph/about-us/newsroom/corporate/site-builds-prepare-nationwide-4g-lte-standards.html",
      "columnType": "articles--type-3",
      "typeListing": "article",
      "imageMobile": "/sites/globe.com.ph/files/content/dam/globe/brie/AboutUs/newsroom/corporate/site-builds-prepare-nationwide-4g-lte-standards/newsroom-corporate-nationwide-4g-lte-primary-thumbnail-m.jpg",
      "imageDesktop": "/sites/globe.com.ph/files/content/dam/globe/brie/AboutUs/newsroom/corporate/site-builds-prepare-nationwide-4g-lte-standards/newsroom-corporate-nationwide-4g-lte-primary-thumbnail-d.jpg",
      "description": "Globe's 4G LTE and 5G technologies are reshaping experiences through fixed internet and mobile speed data alongside new cell site builds in December 2020.",
      "datePosted": "Jan 11, 2021 | 01:48 PM",
      "titleFromTag": "Corporate"
    },
    {
      "title": "Globe Partners With Microsoft Office 365 to Power Virtual Education",
      "nonclickable": false,
      "openNewTab": false,
      "borderArticle": "border-color:#0074D9;",
      "borderTopArticle": "border-top-color:#0074D9;",
      "imageListing": "/sites/globe.com.ph/files/content/dam/globe/brie/AboutUs/newsroom/business/globe-partners-with-microsoft-office-365/newsroom-business-microsoft-office-365-thumbnail-listing.jpg",
      "articleUrl": "https://www.globe.com.ph/about-us/newsroom/business/globe-partners-with-microsoft-office-365.html",
      "columnType": "articles--type-3",
      "typeListing": "article",
      "imageMobile": "/sites/globe.com.ph/files/content/dam/globe/brie/AboutUs/newsroom/business/globe-partners-with-microsoft-office-365/newsroom-business-microsoft-office-365-primary-thumbnail-m.jpg",
      "imageDesktop": "/sites/globe.com.ph/files/content/dam/globe/brie/AboutUs/newsroom/business/globe-partners-with-microsoft-office-365/newsroom-business-microsoft-office-365-primary-thumbnail-d.jpg",
      "description": "Globe expands its initiatives to maximize digital education through Microsoft Office 365 solutions.",
      "datePosted": "Jan 11, 2021 | 01:19 PM",
      "titleFromTag": "Business"
    }
  ]
}
