{
  "status": 200,
  "page": 148,
  "totalPage": 298,
  "range": "1765-1776",
  "total": 3573,
  "result": [
    {
      "title": "Globe Readies Malacañang, Senate and Congress for 5G Upgrades",
      "nonclickable": false,
      "openNewTab": false,
      "borderArticle": "border-color:#0074D9;",
      "borderTopArticle": "border-top-color:#0074D9;",
      "imageListing": "/sites/globe.com.ph/files/content/dam/globe/brie/AboutUs/newsroom/common/updated/Corporate-globe-thumbnail-listing.jpg",
      "articleUrl": "https://www.globe.com.ph/about-us/newsroom/corporate/malacanang-senate-congress-5g-upgrades.html",
      "columnType": "articles--type-3",
      "typeListing": "article",
      "imageMobile": "/sites/globe.com.ph/files/content/dam/globe/brie/AboutUs/newsroom/common/updated/Corporate-globe-primary-thumbnail-m.jpg",
      "imageDesktop": "/sites/globe.com.ph/files/content/dam/globe/brie/AboutUs/newsroom/common/updated/Corporate-globe-primary-thumbnail-d.jpg",
      "description": "Globe plans to upgrade to further improve its indoor coverage solutions in several buildings in Malacanang Palace, Senate, and the House of Representatives.",
      "datePosted": "Jan 08, 2021 | 08:45 PM",
      "titleFromTag": "Corporate"
    },
    {
      "title": "GCash Attracts Fresh Investment From Bow Wave",
      "nonclickable": false,
      "openNewTab": false,
      "borderArticle": "border-color:#0074D9;",
      "borderTopArticle": "border-top-color:#0074D9;",
      "imageListing": "/sites/globe.com.ph/files/content/dam/globe/brie/AboutUs/newsroom/common/updated/Corporate-globe-thumbnail-listing.jpg",
      "articleUrl": "https://www.globe.com.ph/about-us/newsroom/corporate/gcash-attracts-fresh-investment-bow-wave.html",
      "columnType": "articles--type-3",
      "typeListing": "article",
      "imageMobile": "/sites/globe.com.ph/files/content/dam/globe/brie/AboutUs/newsroom/common/updated/Corporate-globe-primary-thumbnail-m.jpg",
      "imageDesktop": "/sites/globe.com.ph/files/content/dam/globe/brie/AboutUs/newsroom/common/updated/Corporate-globe-primary-thumbnail-d.jpg",
      "description": "Mynt raised over $175 million in capital from Bow Wave and its existing shareholders in multiple tranches, with post-money valuation close to $1 billion.",
      "datePosted": "Jan 08, 2021 | 04:45 PM",
      "titleFromTag": "Corporate"
    },
    {
      "title": "Globe Keeps Family Traditions Alive on Network Service Enhancements; Gears Up for Robust #FirstWorldNetwork in 2021",
      "nonclickable": false,
      "openNewTab": false,
      "borderArticle": "border-color:#0074D9;",
      "borderTopArticle": "border-top-color:#0074D9;",
      "imageListing": "/sites/globe.com.ph/files/content/dam/globe/brie/AboutUs/newsroom/common/default-11/default-business-5-thumbnail-listing.jpg",
      "articleUrl": "https://www.globe.com.ph/about-us/newsroom/corporate/globe-keeps-family-traditions-alive.html",
      "columnType": "articles--type-3",
      "typeListing": "article",
      "imageMobile": "/sites/globe.com.ph/files/content/dam/globe/brie/AboutUs/newsroom/common/default-11/default-business-5-primary-thumbnail-m.jpg",
      "imageDesktop": "/sites/globe.com.ph/files/content/dam/globe/brie/AboutUs/newsroom/common/default-11/default-business-5-primary-thumbnail-d.jpg",
      "description": "Globe’s network builds and expansion initiatives paved the way for valued family traditions to continue during the holiday season despite of the pandemic.",
      "datePosted": "Jan 08, 2021 | 11:09 AM",
      "titleFromTag": "Corporate"
    },
    {
      "title": "Globe Transforms Customer Support With Outbound Calls",
      "nonclickable": false,
      "openNewTab": false,
      "borderArticle": "border-color:#0074D9;",
      "borderTopArticle": "border-top-color:#0074D9;",
      "imageListing": "/sites/globe.com.ph/files/content/dam/globe/brie/AboutUs/newsroom/common/updated/Corporate-globe-thumbnail-listing.jpg",
      "articleUrl": "https://www.globe.com.ph/about-us/newsroom/consumer/globe-transforms-customer-support-outbound-calls.html",
      "columnType": "articles--type-3",
      "typeListing": "article",
      "imageMobile": "/sites/globe.com.ph/files/content/dam/globe/brie/AboutUs/newsroom/common/updated/Corporate-globe-primary-thumbnail-m.jpg",
      "imageDesktop": "/sites/globe.com.ph/files/content/dam/globe/brie/AboutUs/newsroom/common/updated/Corporate-globe-primary-thumbnail-d.jpg",
      "description": "Globe has accelerated its shift to digital platforms to continue to support the needs of customers in the new normal.",
      "datePosted": "Jan 06, 2021 | 04:43 PM",
      "titleFromTag": "Consumer"
    },
    {
      "title": "Fiber an Advantage in Property Building Plans, Globe Says",
      "nonclickable": false,
      "openNewTab": false,
      "borderArticle": "border-color:#0074D9;",
      "borderTopArticle": "border-top-color:#0074D9;",
      "imageListing": "/sites/globe.com.ph/files/content/dam/globe/brie/AboutUs/newsroom/corporate/fiber-advantage-property-building-plans/newsroom-corporate-fiber-advantage-property-thumbnail-listing.jpg",
      "articleUrl": "https://www.globe.com.ph/about-us/newsroom/corporate/fiber-advantage-property-building-plans.html",
      "columnType": "articles--type-3",
      "typeListing": "article",
      "imageMobile": "/sites/globe.com.ph/files/content/dam/globe/brie/AboutUs/newsroom/corporate/fiber-advantage-property-building-plans/newsroom-corporate-fiber-advantage-property-primary-thumbnail-m.jpg",
      "imageDesktop": "/sites/globe.com.ph/files/content/dam/globe/brie/AboutUs/newsroom/corporate/fiber-advantage-property-building-plans/newsroom-corporate-fiber-advantage-property-primary-thumbnail-d.jpg",
      "description": "Homes of Filipinos continue to upgrade digitally to meet their daily demands, and for some, upgrades mean a new home altogether.",
      "datePosted": "Jan 06, 2021 | 02:14 PM",
      "titleFromTag": "Corporate"
    },
    {
      "title": "GCash in 2020 Catalyzing Growth of the New Digital Economy",
      "nonclickable": false,
      "openNewTab": false,
      "borderArticle": "border-color:#0074D9;",
      "borderTopArticle": "border-top-color:#0074D9;",
      "imageListing": "/sites/globe.com.ph/files/content/dam/globe/brie/AboutUs/newsroom/917ventures/gcash-2020-catalyzing-growth-new-digital-economy/newsroom-917ventures-gcash-catalyzing-growth-thumbnail-listing.jpg",
      "articleUrl": "https://www.globe.com.ph/about-us/newsroom/917ventures/gcash-2020-catalyzing-growth-new-digital-economy.html",
      "columnType": "articles--type-3",
      "typeListing": "article",
      "imageMobile": "/sites/globe.com.ph/files/content/dam/globe/brie/AboutUs/newsroom/917ventures/gcash-2020-catalyzing-growth-new-digital-economy/newsroom-917ventures-gcash-catalyzing-growth-primary-thumbnail-m.jpg",
      "imageDesktop": "/sites/globe.com.ph/files/content/dam/globe/brie/AboutUs/newsroom/917ventures/gcash-2020-catalyzing-growth-new-digital-economy/newsroom-917ventures-gcash-catalyzing-growth-primary-thumbnail-d.jpg",
      "description": "2020 has been a year full of challenges, with the world still reeling from the effects of the COVID-19 economically.",
      "datePosted": "Jan 05, 2021 | 01:13 PM",
      "titleFromTag": "917Ventures"
    },
    {
      "title": "GCash Drives PH Digital Transformation, Hits Over PHP 1 Trillion Transactions in 2020",
      "nonclickable": false,
      "openNewTab": false,
      "borderArticle": "border-color:#0074D9;",
      "borderTopArticle": "border-top-color:#0074D9;",
      "imageListing": "/sites/globe.com.ph/files/content/dam/globe/brie/AboutUs/newsroom/917ventures/gcash-drives-ph-digital-transformation/newsroom-917ventures-gcash-drives-PH-thumbnail-listing.jpg",
      "articleUrl": "https://www.globe.com.ph/about-us/newsroom/917ventures/gcash-drives-ph-digital-transformation.html",
      "columnType": "articles--type-3",
      "typeListing": "article",
      "imageMobile": "/sites/globe.com.ph/files/content/dam/globe/brie/AboutUs/newsroom/917ventures/gcash-drives-ph-digital-transformation/newsroom-917ventures-gcash-drives-PH-primary-thumbnail-m.jpg",
      "imageDesktop": "/sites/globe.com.ph/files/content/dam/globe/brie/AboutUs/newsroom/917ventures/gcash-drives-ph-digital-transformation/newsroom-917ventures-gcash-drives-PH-primary-thumbnail-d.jpg",
      "description": "GCash exceeded its 2020 business targets and continues to empower millions of Filipinos with digital financial tools and services for the new normal.",
      "datePosted": "Jan 05, 2021 | 10:01 AM",
      "titleFromTag": "917Ventures"
    },
    {
      "title": "Globe Subsidiary, Cascadeo, Wins Managed Services Provider of the Year",
      "nonclickable": false,
      "openNewTab": false,
      "borderArticle": "border-color:#0074D9;",
      "borderTopArticle": "border-top-color:#0074D9;",
      "imageListing": "/sites/globe.com.ph/files/content/dam/globe/brie/AboutUs/newsroom/business/cascadeo-wins-managed-services-provider-of-the-year/newsroom-business-cascadeo-provider-year-thumbnail-listing.jpg",
      "articleUrl": "https://www.globe.com.ph/about-us/newsroom/business/cascadeo-wins-managed-services-provider-of-the-year.html",
      "columnType": "articles--type-3",
      "typeListing": "article",
      "imageMobile": "/sites/globe.com.ph/files/content/dam/globe/brie/AboutUs/newsroom/business/cascadeo-wins-managed-services-provider-of-the-year/newsroom-business-cascadeo-provider-year-primary-thumbnail-m.jpg",
      "imageDesktop": "/sites/globe.com.ph/files/content/dam/globe/brie/AboutUs/newsroom/business/cascadeo-wins-managed-services-provider-of-the-year/newsroom-business-cascadeo-provider-year-primary-thumbnail-d.jpg",
      "description": "Globe's professional and managed services arm, Cascadeo, won Managed Services Provider of the Year at the Channel Partner Insight Innovation Awards 2020.",
      "datePosted": "Jan 04, 2021 | 02:29 PM",
      "titleFromTag": "Business"
    },
    {
      "title": "Globe Sets Up Over 100 E-Waste Collection Points Nationwide",
      "nonclickable": false,
      "openNewTab": false,
      "borderArticle": "border-color:#1C91C5;",
      "borderTopArticle": "border-top-color:#1C91C5;",
      "imageListing": "/sites/globe.com.ph/files/content/dam/globe/brie/AboutUs/newsroom/sustainability/globe-sets-up-100-e-waste-collection-points-nationwide/newsroom-sustainability-e-waste-points-thumbnail-listing.jpg",
      "articleUrl": "https://www.globe.com.ph/about-us/newsroom/sustainability/globe-sets-up-100-e-waste-collection-points-nationwide.html",
      "columnType": "articles--type-3",
      "typeListing": "article",
      "imageMobile": "/sites/globe.com.ph/files/content/dam/globe/brie/AboutUs/newsroom/sustainability/globe-sets-up-100-e-waste-collection-points-nationwide/newsroom-sustainability-e-waste-points-primary-thumbnail-m.jpg",
      "imageDesktop": "/sites/globe.com.ph/files/content/dam/globe/brie/AboutUs/newsroom/sustainability/globe-sets-up-100-e-waste-collection-points-nationwide/newsroom-sustainability-e-waste-points-primary-thumbnail-d.jpg",
      "description": "As part of its environmental protection advocacy, Globe has set up over 100 e-waste collection points nationwide.",
      "datePosted": "Jan 04, 2021 | 02:28 PM",
      "titleFromTag": "Sustainability"
    },
    {
      "title": "Globe’s Consistency Score Improved Across All PH Regions",
      "nonclickable": false,
      "openNewTab": false,
      "borderArticle": "border-color:#0074D9;",
      "borderTopArticle": "border-top-color:#0074D9;",
      "imageListing": "/sites/globe.com.ph/files/content/dam/globe/brie/AboutUs/newsroom/common/updated/Corporate-globe-thumbnail-listing.jpg",
      "articleUrl": "https://www.globe.com.ph/about-us/newsroom/corporate/consistency-score-improved-across-all-ph-regions.html",
      "columnType": "articles--type-3",
      "typeListing": "article",
      "imageMobile": "/sites/globe.com.ph/files/content/dam/globe/brie/AboutUs/newsroom/common/updated/Corporate-globe-primary-thumbnail-m.jpg",
      "imageDesktop": "/sites/globe.com.ph/files/content/dam/globe/brie/AboutUs/newsroom/common/updated/Corporate-globe-primary-thumbnail-d.jpg",
      "description": "The telco’s network infrastructure developments, carried out by expanding its reach through new site builds and network upgrades all over the country, are now being validated by an increase in mobile consistency scores across all regions.",
      "datePosted": "Jan 04, 2021 | 02:20 PM",
      "titleFromTag": "Corporate"
    },
    {
      "title": "Globe, ZSL Philippines Partner on Mangrove Protection for Climate Resilient Coastal Communities",
      "nonclickable": false,
      "openNewTab": false,
      "borderArticle": "border-color:#0074D9;",
      "borderTopArticle": "border-top-color:#0074D9;",
      "imageListing": "/sites/globe.com.ph/files/content/dam/globe/brie/AboutUs/newsroom/corporate/globe-zsl-philippines-partner-mangrove-protection/newsroom-corporate-globe-zsl-mangrove-thumbnail-listing.jpg",
      "articleUrl": "https://www.globe.com.ph/about-us/newsroom/corporate/globe-zsl-philippines-partner-mangrove-protection.html",
      "columnType": "articles--type-3",
      "typeListing": "article",
      "imageMobile": "/sites/globe.com.ph/files/content/dam/globe/brie/AboutUs/newsroom/corporate/globe-zsl-philippines-partner-mangrove-protection/newsroom-corporate-globe-zsl-mangrove-primary-thumbnail-m.jpg",
      "imageDesktop": "/sites/globe.com.ph/files/content/dam/globe/brie/AboutUs/newsroom/corporate/globe-zsl-philippines-partner-mangrove-protection/newsroom-corporate-globe-zsl-mangrove-primary-thumbnail-d.jpg",
      "description": "Globe has sealed a five-year partnership with the ZSL Philippines for the protection and rehabilitation of local mangrove forests which are being threatened by the conversion of vast areas into ponds for commercial fish and shrimp farming.",
      "datePosted": "Dec 29, 2020 | 03:29 PM",
      "titleFromTag": "Corporate"
    },
    {
      "title": "Brands Can Now Create Unique and Personalized Experiences on GCash via AdSpark",
      "nonclickable": false,
      "openNewTab": false,
      "borderArticle": "border-color:#0074D9;",
      "borderTopArticle": "border-top-color:#0074D9;",
      "imageListing": "/sites/globe.com.ph/files/content/dam/globe/brie/AboutUs/newsroom/corporate/create-unique-personalized-experiences-gcash-adspark/newsroom-corporate-personalized-gcash-adspark-thumbnail-listing.jpg",
      "articleUrl": "https://www.globe.com.ph/about-us/newsroom/corporate/create-unique-personalized-experiences-gcash-adspark.html",
      "columnType": "articles--type-3",
      "typeListing": "article",
      "imageMobile": "/sites/globe.com.ph/files/content/dam/globe/brie/AboutUs/newsroom/corporate/create-unique-personalized-experiences-gcash-adspark/newsroom-corporate-personalized-gcash-adspark-primary-thumbnail-m.jpg",
      "imageDesktop": "/sites/globe.com.ph/files/content/dam/globe/brie/AboutUs/newsroom/corporate/create-unique-personalized-experiences-gcash-adspark/newsroom-corporate-personalized-gcash-adspark-social-media-thumbnail.png",
      "description": "AdSpark extends ad inventory on GCash, allowing businesses to engage with customers and update them about their favorite brands.",
      "datePosted": "Dec 29, 2020 | 02:26 PM",
      "titleFromTag": "Corporate"
    }
  ]
}
