{
  "status": 200,
  "page": 149,
  "totalPage": 298,
  "range": "1777-1788",
  "total": 3573,
  "result": [
    {
      "title": "Globe Gives FREE 10GB Data to Selected Globe at Home Prepaid WiFi Customers",
      "nonclickable": false,
      "openNewTab": false,
      "borderArticle": "border-color:#0074D9;",
      "borderTopArticle": "border-top-color:#0074D9;",
      "imageListing": "/sites/globe.com.ph/files/content/dam/globe/brie/AboutUs/newsroom/common/default-4/default-consumer-3-thumbnail-listing.jpg",
      "articleUrl": "https://www.globe.com.ph/about-us/newsroom/consumer/free-data-globe-at-home-prepaid-wifi.html",
      "columnType": "articles--type-3",
      "typeListing": "article",
      "imageMobile": "/sites/globe.com.ph/files/content/dam/globe/brie/AboutUs/newsroom/common/default-4/default-consumer-3-primary-thumbnail-m.jpg",
      "imageDesktop": "/sites/globe.com.ph/files/content/dam/globe/brie/AboutUs/newsroom/common/default-4/default-consumer-3-primary-thumbnail-d.jpg",
      "description": "This is the company's response to customers who experienced difficulty or were unable to reload their modems/devices since the latter part of October 2020.",
      "datePosted": "Dec 29, 2020 | 01:55 PM",
      "titleFromTag": "Consumer"
    },
    {
      "title": "Reinvent Your World With Globe and BLACKPINK!",
      "nonclickable": false,
      "openNewTab": false,
      "borderArticle": "border-color:#0074D9;",
      "borderTopArticle": "border-top-color:#0074D9;",
      "imageListing": "/sites/globe.com.ph/files/content/dam/globe/brie/AboutUs/newsroom/corporate/reinvent-your-world-with-globe-blackpink/newsroom-corporate-globe-online-piracy-thumbnail-listing.jpg",
      "articleUrl": "https://www.globe.com.ph/about-us/newsroom/corporate/reinvent-your-world-with-globe-blackpink.html",
      "columnType": "articles--type-3",
      "typeListing": "article",
      "imageMobile": "/sites/globe.com.ph/files/content/dam/globe/brie/AboutUs/newsroom/corporate/reinvent-your-world-with-globe-blackpink/newsroom-corporate-globe-online-piracy-primary-thumbnail-m.jpg",
      "imageDesktop": "/sites/globe.com.ph/files/content/dam/globe/brie/AboutUs/newsroom/corporate/reinvent-your-world-with-globe-blackpink/newsroom-corporate-globe-online-piracy-primary-thumbnail-d.jpg",
      "description": "Globe has launched its newest campaign with global K-Pop group, BLACKPINK, to bring world-class connectivity and entertainment to customers.",
      "datePosted": "Dec 28, 2020 | 02:31 PM",
      "titleFromTag": "Corporate"
    },
    {
      "title": "HOPELINE 24/7 Mental Health Support Now in HealthNow App",
      "nonclickable": false,
      "openNewTab": false,
      "borderArticle": "border-color:#1C91C5;",
      "borderTopArticle": "border-top-color:#1C91C5;",
      "imageListing": "/sites/globe.com.ph/files/content/dam/globe/brie/AboutUs/newsroom/sustainability/hopeline-mental-health-support-healthnow-app/newsroom-sustainability-hopeline-mental-health-thumbnail-listing.jpg",
      "articleUrl": "https://www.globe.com.ph/about-us/newsroom/sustainability/hopeline-mental-health-support-healthnow-app.html",
      "columnType": "articles--type-3",
      "typeListing": "article",
      "imageMobile": "/sites/globe.com.ph/files/content/dam/globe/brie/AboutUs/newsroom/sustainability/hopeline-mental-health-support-healthnow-app/newsroom-sustainability-hopeline-mental-health-primary-thumbnail-m.jpg",
      "imageDesktop": "/sites/globe.com.ph/files/content/dam/globe/brie/AboutUs/newsroom/sustainability/hopeline-mental-health-support-healthnow-app/newsroom-sustainability-hopeline-mental-health-primary-thumbnail-d.jpg",
      "description": "HOPELINE can be found under HealthNow app’s Urgent Help button in the welcome page. Globe and TM subscribers will be able to call the hotline toll-free.",
      "datePosted": "Dec 28, 2020 | 01:42 PM",
      "titleFromTag": "Sustainability"
    },
    {
      "title": "Globe Persistent in Fighting Online Piracy",
      "nonclickable": false,
      "openNewTab": false,
      "borderArticle": "border-color:#0074D9;",
      "borderTopArticle": "border-top-color:#0074D9;",
      "imageListing": "/sites/globe.com.ph/files/content/dam/globe/brie/AboutUs/newsroom/corporate/globe-persistent-in-fighting-online-piracy/newsroom-corporate-globe-online-piracy-thumbnail-listing.jpg",
      "articleUrl": "https://www.globe.com.ph/about-us/newsroom/corporate/globe-persistent-in-fighting-online-piracy.html",
      "columnType": "articles--type-3",
      "typeListing": "article",
      "imageMobile": "/sites/globe.com.ph/files/content/dam/globe/brie/AboutUs/newsroom/corporate/globe-persistent-in-fighting-online-piracy/newsroom-corporate-globe-online-piracy-primary-thumbnail-m.jpg",
      "imageDesktop": "/sites/globe.com.ph/files/content/dam/globe/brie/AboutUs/newsroom/corporate/globe-persistent-in-fighting-online-piracy/newsroom-corporate-globe-online-piracy-primary-thumbnail-d.jpg",
      "description": "Encouraging #PlayItRight, Globe has embraced the social responsibility of educating its customers to become responsible and intelligent custodians of content",
      "datePosted": "Dec 28, 2020 | 11:43 AM",
      "titleFromTag": "Corporate"
    },
    {
      "title": "Surge in Online Sales Proof of Globe’s Robust Internet Nationwide",
      "nonclickable": false,
      "openNewTab": false,
      "borderArticle": "border-color:#0074D9;",
      "borderTopArticle": "border-top-color:#0074D9;",
      "imageListing": "/sites/globe.com.ph/files/content/dam/globe/brie/AboutUs/newsroom/common/default-11/default-business-5-primary-thumbnail-m.jpg",
      "articleUrl": "https://www.globe.com.ph/about-us/newsroom/corporate/surge-online-sales-proof-globe-robust-internet.html",
      "columnType": "articles--type-3",
      "typeListing": "article",
      "imageMobile": "/sites/globe.com.ph/files/content/dam/globe/brie/AboutUs/newsroom/common/default-11/default-business-5-primary-thumbnail-m.jpg",
      "imageDesktop": "/sites/globe.com.ph/files/content/dam/globe/brie/AboutUs/newsroom/common/default-11/default-business-5-primary-thumbnail-d.jpg",
      "description": "According to the latest report on mobile data experience Ookla®, Globe has been keeping up with the increased demand of Filipinos nationwide for better data experience with LTE performance in download speed.",
      "datePosted": "Dec 28, 2020 | 11:20 AM",
      "titleFromTag": "Corporate"
    },
    {
      "title": "Globe Demonstrates Environmental Transparency by Disclosing Through CDP, Receives B- Rating for Climate Change Action",
      "nonclickable": false,
      "openNewTab": false,
      "borderArticle": "border-color:#0074D9;",
      "borderTopArticle": "border-top-color:#0074D9;",
      "imageListing": "/sites/globe.com.ph/files/content/dam/globe/brie/AboutUs/newsroom/corporate/globe-demonstrates-environmental-transparency/newsroom-corporate-globe-environmental-transparency-thumbnail-listing.jpg",
      "articleUrl": "https://www.globe.com.ph/about-us/newsroom/corporate/globe-demonstrates-environmental-transparency.html",
      "columnType": "articles--type-3",
      "typeListing": "article",
      "imageMobile": "/sites/globe.com.ph/files/content/dam/globe/brie/AboutUs/newsroom/corporate/globe-demonstrates-environmental-transparency/newsroom-corporate-globe-environmental-transparency-primary-thumbnail-m.jpg",
      "imageDesktop": "/sites/globe.com.ph/files/content/dam/globe/brie/AboutUs/newsroom/corporate/globe-demonstrates-environmental-transparency/newsroom-corporate-globe-environmental-transparency-primary-thumbnail-d.jpg",
      "description": "Globe further strengthened its commitment to environmental transparency by disclosing its environmental impact through the Carbon Disclosure Project.",
      "datePosted": "Dec 23, 2020 | 02:33 PM",
      "titleFromTag": "Corporate"
    },
    {
      "title": "Globe Partners With Aboitiz InfraCapital to Provide Affordable Internet in Key Urban VisMin Cities",
      "nonclickable": false,
      "openNewTab": false,
      "borderArticle": "border-color:#0074D9;",
      "borderTopArticle": "border-top-color:#0074D9;",
      "imageListing": "/sites/globe.com.ph/files/content/dam/globe/brie/AboutUs/newsroom/common/updated/Corporate-globe-thumbnail-listing.jpg",
      "articleUrl": "https://www.globe.com.ph/about-us/newsroom/corporate/globe-partners-with-aboitiz-infracapital.html",
      "columnType": "articles--type-3",
      "typeListing": "article",
      "imageMobile": "/sites/globe.com.ph/files/content/dam/globe/brie/AboutUs/newsroom/common/updated/Corporate-globe-primary-thumbnail-m.jpg",
      "imageDesktop": "/sites/globe.com.ph/files/content/dam/globe/brie/AboutUs/newsroom/common/updated/Corporate-globe-primary-thumbnail-d.jpg",
      "description": "Globe Telecom and Aboitiz InfraCapital join forces in accelerating the availability of community broadband access in select barangays in Davao and Cebu, through the former’s KonekTayo WiFi service.",
      "datePosted": "Dec 23, 2020 | 12:13 PM",
      "titleFromTag": "Corporate"
    },
    {
      "title": "GoWiFi Gives Frontline Heroes the Gift of Connection This Christmas Season",
      "nonclickable": false,
      "openNewTab": false,
      "borderArticle": "border-color:#0074D9;",
      "borderTopArticle": "border-top-color:#0074D9;",
      "imageListing": "/sites/globe.com.ph/files/content/dam/globe/brie/AboutUs/newsroom/common/default-3/corporate-default-7-thumbnail-listing.jpg",
      "articleUrl": "https://www.globe.com.ph/about-us/newsroom/corporate/gowifi-gives-frontline-heroes-gift-connection-christmas.html",
      "columnType": "articles--type-3",
      "typeListing": "article",
      "imageMobile": "/sites/globe.com.ph/files/content/dam/globe/brie/AboutUs/newsroom/common/default-3/corporate-default-7-primary-thumbnail-m.jpg",
      "imageDesktop": "/sites/globe.com.ph/files/content/dam/globe/brie/AboutUs/newsroom/common/default-3/corporate-default-7-primary-thumbnail-d.jpg",
      "description": "This Yuletide season, GoWiFi shows its support for medical frontliners by giving free unlimited internet access to different hospitals nationwide.",
      "datePosted": "Dec 23, 2020 | 12:07 PM",
      "titleFromTag": "Corporate"
    },
    {
      "title": "Globe Sustains Rollout Drive With 211 New Cell Sites and 867 Site Upgrades in November",
      "nonclickable": false,
      "openNewTab": false,
      "borderArticle": "border-color:#0074D9;",
      "borderTopArticle": "border-top-color:#0074D9;",
      "imageListing": "/sites/globe.com.ph/files/content/dam/globe/brie/AboutUs/newsroom/common/default-5/corporate-default-6-thumbnail-listing.jpg",
      "articleUrl": "https://www.globe.com.ph/about-us/newsroom/corporate/globe-sustains-rollout-drive-november.html",
      "columnType": "articles--type-3",
      "typeListing": "article",
      "imageMobile": "/sites/globe.com.ph/files/content/dam/globe/brie/AboutUs/newsroom/common/default-5/corporate-default-6-primary-thumbnail-m.jpg",
      "imageDesktop": "/sites/globe.com.ph/files/content/dam/globe/brie/AboutUs/newsroom/common/default-5/corporate-default-6-primary-thumbnail-d.jpg",
      "description": "Globe continues to improve its services in more locations in the country in November despite the continuing impact of the COVID-19 pandemic.",
      "datePosted": "Dec 23, 2020 | 12:02 PM",
      "titleFromTag": "Corporate"
    },
    {
      "title": "Globe Improves Network Services in Six Locations in Cebu City",
      "nonclickable": false,
      "openNewTab": false,
      "borderArticle": "border-color:#0074D9;",
      "borderTopArticle": "border-top-color:#0074D9;",
      "imageListing": "/sites/globe.com.ph/files/content/dam/globe/brie/AboutUs/newsroom/corporate/ambitious-network-upgrade-anew/updates/newsroom-corporate-network-upgrade-thumbnail-listing.jpg",
      "articleUrl": "https://www.globe.com.ph/about-us/newsroom/corporate/globe-improves-network-services-cebu-city.html",
      "columnType": "articles--type-3",
      "typeListing": "article",
      "imageMobile": "/sites/globe.com.ph/files/content/dam/globe/brie/AboutUs/newsroom/corporate/ambitious-network-upgrade-anew/updates/newsroom-corporate-network-upgrade-primary-thumbnail-m.jpg",
      "imageDesktop": "/sites/globe.com.ph/files/content/dam/globe/brie/AboutUs/newsroom/corporate/ambitious-network-upgrade-anew/updates/newsroom-corporate-network-upgrade-primary-thumbnail-d.jpg",
      "description": "Globe’s continued network upgrades and modernization in Visayas has resulted in better data and call experience and improved data services for mobile customers.",
      "datePosted": "Dec 22, 2020 | 02:13 PM",
      "titleFromTag": "Corporate"
    },
    {
      "title": "RUSH Launches Digital and Data Program with Unilever U-COIN",
      "nonclickable": false,
      "openNewTab": false,
      "borderArticle": "border-color:#0074D9;",
      "borderTopArticle": "border-top-color:#0074D9;",
      "imageListing": "/sites/globe.com.ph/files/content/dam/globe/brie/AboutUs/newsroom/917ventures/rush-launches-digital-data-program-unilever-u-coin/newsroom-917ventures-rush-unilever-u-coin-thumbnail-listing.jpg",
      "articleUrl": "https://www.globe.com.ph/about-us/newsroom/917ventures/rush-launches-digital-data-program-unilever-u-coin.html",
      "columnType": "articles--type-3",
      "typeListing": "article",
      "imageMobile": "/sites/globe.com.ph/files/content/dam/globe/brie/AboutUs/newsroom/917ventures/rush-launches-digital-data-program-unilever-u-coin/newsroom-917ventures-rush-unilever-u-coin-primary-thumbnail-m.jpg",
      "imageDesktop": "/sites/globe.com.ph/files/content/dam/globe/brie/AboutUs/newsroom/917ventures/rush-launches-digital-data-program-unilever-u-coin/newsroom-917ventures-rush-unilever-u-coin-primary-thumbnail-d.jpg",
      "description": "RUSH, a 917Ventures, Inc. loyalty and e-commerce solutions provider, has launched a partnership with Unilever through a digital rewards program called U-COIN.",
      "datePosted": "Dec 22, 2020 | 02:06 PM",
      "titleFromTag": "917Ventures"
    },
    {
      "title": "Globe Set to Fast Track Cell Tower Installations in 24 More Areas with One-Stop Permit Shops",
      "nonclickable": false,
      "openNewTab": false,
      "borderArticle": "border-color:#0074D9;",
      "borderTopArticle": "border-top-color:#0074D9;",
      "imageListing": "/sites/globe.com.ph/files/content/dam/globe/brie/AboutUs/newsroom/common/default-5/corporate-default-6-thumbnail-listing.jpg",
      "articleUrl": "https://www.globe.com.ph/about-us/newsroom/corporate/fast-track-cell-tower-installations.html",
      "columnType": "articles--type-3",
      "typeListing": "article",
      "imageMobile": "/sites/globe.com.ph/files/content/dam/globe/brie/AboutUs/newsroom/common/default-5/corporate-default-6-primary-thumbnail-m.jpg",
      "imageDesktop": "/sites/globe.com.ph/files/content/dam/globe/brie/AboutUs/newsroom/common/default-5/corporate-default-6-primary-thumbnail-d.jpg",
      "description": "Globe is counting for more LGUs in the coming weeks to ease up on their permitting requirements as the company targets to install 2,000 cell towers in 2021.",
      "datePosted": "Dec 22, 2020 | 10:30 AM",
      "titleFromTag": "Corporate"
    }
  ]
}
