{
  "status": 200,
  "page": 15,
  "totalPage": 298,
  "range": "169-180",
  "total": 3573,
  "result": [
    {
      "title": "Globe Empowers Creativity through Tech with ‘Wisdom of Da Vinci’ AI Experience",
      "nonclickable": false,
      "openNewTab": false,
      "borderArticle": "border-color:#0074D9;",
      "borderTopArticle": "border-top-color:#0074D9;",
      "imageListing": "/sites/globe.com.ph/files/content/dam/globe/brie/About-us/Newsroom/image/Consumer/Globe-Empowers-Creativity/NEWSROOM-CONSUMER-Globe-empowers-creativity-through-tech-with-_Wisdom-of-Da-Vinci_-AI-experience-thumbnail-listing.jpg",
      "articleUrl": "https://www.globe.com.ph/about-us/newsroom/consumer/creativity-through-tech-wisdom-da-vinci-ai-experience.html",
      "columnType": "articles--type-3",
      "typeListing": "article",
      "imageMobile": "/sites/globe.com.ph/files/content/dam/globe/brie/About-us/Newsroom/image/Consumer/Globe-Empowers-Creativity/NEWSROOM-CONSUMER-Globe-empowers-creativity-through-tech-with-_Wisdom-of-Da-Vinci_-AI-experience-primary-thumbnail-m.jpg",
      "imageDesktop": "/sites/globe.com.ph/files/content/dam/globe/brie/About-us/Newsroom/image/Consumer/Globe-Empowers-Creativity/NEWSROOM-CONSUMER-Globe-empowers-creativity-through-tech-with-_Wisdom-of-Da-Vinci_-AI-experience-primary-thumbnail-d.jpg",
      "description": "Globe empowers creativity through technology by bringing \"Wisdom of Da Vinci: An Immersive AI Experience\" to the Philippines.",
      "datePosted": "Aug 08, 2023 | 01:33 PM",
      "titleFromTag": "Consumer"
    },
    {
      "title": "Globe is Ph’s Most Reliable Network 5 Times in a Row",
      "nonclickable": false,
      "openNewTab": false,
      "borderArticle": "border-color:#0074D9;",
      "borderTopArticle": "border-top-color:#0074D9;",
      "imageListing": "/sites/globe.com.ph/files/content/dam/globe/brie/AboutUs/newsroom/common/default-corporate-5/corp-thumbnail-listing.jpg",
      "articleUrl": "https://www.globe.com.ph/about-us/newsroom/corporate/globe-is-most-reliable-network-5-times-in-a-row.html",
      "columnType": "articles--type-3",
      "typeListing": "article",
      "imageMobile": "/sites/globe.com.ph/files/content/dam/globe/brie/AboutUs/newsroom/common/default-corporate-5/corp-primary-thumbnail-m.jpg",
      "imageDesktop": "/sites/globe.com.ph/files/content/dam/globe/brie/AboutUs/newsroom/common/default-corporate-5/corp-primary-thumbnail-d.jpg",
      "description": "Globe retained its acclaim as the Most Reliable Mobile Network in the Philippines 5 times in a row by Ookla®, the global leader in internet testing & analysis.",
      "datePosted": "Aug 08, 2023 | 09:41 AM",
      "titleFromTag": "Corporate"
    },
    {
      "title": "Globe Blocks New Record High 2.2 B Spam, Scam SMS in H1",
      "nonclickable": false,
      "openNewTab": false,
      "borderArticle": "border-color:#0074D9;",
      "borderTopArticle": "border-top-color:#0074D9;",
      "imageListing": "/sites/globe.com.ph/files/content/dam/globe/brie/AboutUs/newsroom/common/default-mobile-3/Newsroom-Total-Globe-Default-Images-Mobile-3-thumbnail-listing.jpg",
      "articleUrl": "https://www.globe.com.ph/about-us/newsroom/corporate/record-high-2-billion-spam-scam-sms-h1-2023.html",
      "columnType": "articles--type-3",
      "typeListing": "article",
      "imageMobile": "/sites/globe.com.ph/files/content/dam/globe/brie/AboutUs/newsroom/common/default-mobile-3/Newsroom-Total-Globe-Default-Images-Mobile-3-primary-thumbnail-m.jpg",
      "imageDesktop": "/sites/globe.com.ph/files/content/dam/globe/brie/AboutUs/newsroom/common/default-mobile-3/Newsroom-Total-Globe-Default-Images-Mobile-3-primary-thumbnail-d.jpg",
      "description": "Globe blocked 2.2 billion scam & spam messages from Jan-Jun, a nearly four-fold increase from the 615.01 million it logged in the same period last year.",
      "datePosted": "Aug 08, 2023 | 09:40 AM",
      "titleFromTag": "Corporate"
    },
    {
      "title": "Globe Leads Telecom Innovation with First Ever Private 5G SA Network in PH",
      "nonclickable": false,
      "openNewTab": false,
      "borderArticle": "border-color:#0074D9;",
      "borderTopArticle": "border-top-color:#0074D9;",
      "imageListing": "/sites/globe.com.ph/files/content/dam/globe/brie/About-us/Newsroom/image/Corporate/telecom-innovation-first-ever-private-5g-sa-network-ph/thumbnail-listing.jpg",
      "articleUrl": "https://www.globe.com.ph/about-us/newsroom/corporate/telecom-innovation-first-ever-private-5g-sa-network-ph.html",
      "columnType": "articles--type-3",
      "typeListing": "article",
      "imageMobile": "/sites/globe.com.ph/files/content/dam/globe/brie/About-us/Newsroom/image/Corporate/telecom-innovation-first-ever-private-5g-sa-network-ph/primary-thumbnail-m.jpg",
      "imageDesktop": "/sites/globe.com.ph/files/content/dam/globe/brie/About-us/Newsroom/image/Corporate/telecom-innovation-first-ever-private-5g-sa-network-ph/primary-thumbnail-d.jpg",
      "description": "Globe partners with Hewlett Packard Enterprise (HPE) and successfully showcased the first-ever Private 5G Standalone (5G SA) Network in the country.",
      "datePosted": "Aug 08, 2023 | 09:38 AM",
      "titleFromTag": "Corporate"
    },
    {
      "title": "Globe Selects Amdocs’ Data Intelligence Services to Deliver Value to Its Customers via a Multi-Year Managed Services Agreement",
      "nonclickable": false,
      "openNewTab": false,
      "borderArticle": "border-color:#0074D9;",
      "borderTopArticle": "border-top-color:#0074D9;",
      "imageListing": "/sites/globe.com.ph/files/content/dam/globe/brie/AboutUs/newsroom/common/default-total-globe-partners-1/thumbnail-listing.jpg",
      "articleUrl": "https://www.globe.com.ph/about-us/newsroom/corporate/amdocs-data-intelligence-services.html",
      "columnType": "articles--type-3",
      "typeListing": "article",
      "imageMobile": "/sites/globe.com.ph/files/content/dam/globe/brie/AboutUs/newsroom/common/default-total-globe-partners-1/primary-thumbnail-m.jpg",
      "imageDesktop": "/sites/globe.com.ph/files/content/dam/globe/brie/AboutUs/newsroom/common/default-total-globe-partners-1/primary-thumbnail-d.jpg",
      "description": "Globe  has selected Amdocs, a leading provider of software and services to communications and media companies, to manage their data lake platform.",
      "datePosted": "Aug 07, 2023 | 08:07 AM",
      "titleFromTag": "Corporate"
    },
    {
      "title": "Globe Selects Amdocs to Transform Its Cloud Business Operations, Unifying IT and Business Metrics for Enhanced Customer Experience",
      "nonclickable": false,
      "openNewTab": false,
      "borderArticle": "border-color:#0074D9;",
      "borderTopArticle": "border-top-color:#0074D9;",
      "imageListing": "/sites/globe.com.ph/files/content/dam/globe/brie/AboutUs/newsroom/common/default-eg-1/eg-default-images-thumbnail-listing.jpg",
      "articleUrl": "https://www.globe.com.ph/about-us/newsroom/corporate/amdocs-transform-cloud-business-operations.html",
      "columnType": "articles--type-3",
      "typeListing": "article",
      "imageMobile": "/sites/globe.com.ph/files/content/dam/globe/brie/AboutUs/newsroom/common/default-eg-1/eg-default-images-primary-thumbnail-m.jpg",
      "imageDesktop": "/sites/globe.com.ph/files/content/dam/globe/brie/AboutUs/newsroom/common/default-eg-1/eg-default-images-primary-thumbnail-d.jpg",
      "description": "Amdocs announced the expansion of its strategic partnership with Globe to transform its IT operations to deliver stable services worthy of customers loyalty. ",
      "datePosted": "Aug 07, 2023 | 08:06 AM",
      "titleFromTag": "Corporate"
    },
    {
      "title": "Globe Enables Megaworld’s Transition to Zoom for Elevated Customer Experience",
      "nonclickable": false,
      "openNewTab": false,
      "borderArticle": "border-color:#0074D9;",
      "borderTopArticle": "border-top-color:#0074D9;",
      "imageListing": "/sites/globe.com.ph/files/content/dam/globe/brie/AboutUs/newsroom/business/megaworlds-transition-to-zoom/v2/eg-megaworldxzoom-thumbnail-listing.jpg",
      "articleUrl": "https://www.globe.com.ph/about-us/newsroom/business/megaworlds-transition-to-zoom.html",
      "columnType": "articles--type-3",
      "typeListing": "article",
      "imageMobile": "/sites/globe.com.ph/files/content/dam/globe/brie/AboutUs/newsroom/business/megaworlds-transition-to-zoom/v2/eg-megaworldxzoom-primary-thumbnail-m.jpg",
      "imageDesktop": "/sites/globe.com.ph/files/content/dam/globe/brie/AboutUs/newsroom/business/megaworlds-transition-to-zoom/v2/eg-megaworldxzoom-primary-thumbnail-d.jpg",
      "description": "Globe Business, in collaboration with Zoom, helps Megaworld transform communication through embracing modern technology and utilizing digital innovation",
      "datePosted": "Aug 04, 2023 | 04:05 PM",
      "titleFromTag": "Business"
    },
    {
      "title": "Globe Releases Enhanced Environmental Policy, Takes Strong Stance on Circularity and Responsible Production and Consumption",
      "nonclickable": false,
      "openNewTab": false,
      "borderArticle": "border-color:#1C91C5;",
      "borderTopArticle": "border-top-color:#1C91C5;",
      "imageListing": "/sites/globe.com.ph/files/content/dam/globe/brie/AboutUs/newsroom/sustainability/Globe-Group-Partners-with-Aklan-LGU-to-Encourage-Responsible-Tourism-in-Love-Boracay-2023/corp-default-images-thumbnail-listing.jpg",
      "articleUrl": "https://www.globe.com.ph/about-us/newsroom/sustainability/enhanced-environmental-policy.html",
      "columnType": "articles--type-3",
      "typeListing": "article",
      "imageMobile": "/sites/globe.com.ph/files/content/dam/globe/brie/AboutUs/newsroom/sustainability/Globe-Group-Partners-with-Aklan-LGU-to-Encourage-Responsible-Tourism-in-Love-Boracay-2023/corp-default-images-primary-thumbnail-m.jpg",
      "imageDesktop": "/sites/globe.com.ph/files/content/dam/globe/brie/AboutUs/newsroom/sustainability/Globe-Group-Partners-with-Aklan-LGU-to-Encourage-Responsible-Tourism-in-Love-Boracay-2023/corp-default-images-primary-thumbnail-d.jpg",
      "description": "Globe releases updated Environmental Sustainability Policy that emphasizes the significance of circularity and responsible production and consumption.",
      "datePosted": "Aug 04, 2023 | 01:41 PM",
      "titleFromTag": "Sustainability"
    },
    {
      "title": "KodeGo Bridges STEM Gender-Employment Gap, Opens New Opportunities For Women in Tech",
      "nonclickable": false,
      "openNewTab": false,
      "borderArticle": "border-color:#0074D9;",
      "borderTopArticle": "border-top-color:#0074D9;",
      "imageListing": "/sites/globe.com.ph/files/content/dam/globe/brie/About-us/Newsroom/image/Consumer/kodego-bridges-stem-gender-employment-gap/thumbnail-listing.jpg",
      "articleUrl": "https://www.globe.com.ph/about-us/newsroom/consumer/kodego-bridges-stem-gender-employment-gap.html",
      "columnType": "articles--type-3",
      "typeListing": "article",
      "imageMobile": "/sites/globe.com.ph/files/content/dam/globe/brie/About-us/Newsroom/image/Consumer/kodego-bridges-stem-gender-employment-gap/primary-thumbnail-m.jpg",
      "imageDesktop": "/sites/globe.com.ph/files/content/dam/globe/brie/About-us/Newsroom/image/Consumer/kodego-bridges-stem-gender-employment-gap/primary-thumbnail-d.jpg",
      "description": "KodeGo opens new opportunities for women in tech to address gender disparity in local employment.",
      "datePosted": "Aug 03, 2023 | 10:25 AM",
      "titleFromTag": "Consumer"
    },
    {
      "title": "Globe Named PH’s Strongest Brand by Brand Finance",
      "nonclickable": false,
      "openNewTab": false,
      "borderArticle": "border-color:#0074D9;",
      "borderTopArticle": "border-top-color:#0074D9;",
      "imageListing": "/sites/globe.com.ph/files/content/dam/globe/brie/AboutUs/newsroom/corporate/globe-named-ph-best-mobile-network-infrastructure-company/Corporate-globe-thumbnail-listing.jpg",
      "articleUrl": "https://www.globe.com.ph/about-us/newsroom/corporate/philippines-strongest-brand.html",
      "columnType": "articles--type-3",
      "typeListing": "article",
      "imageMobile": "/sites/globe.com.ph/files/content/dam/globe/brie/AboutUs/newsroom/corporate/globe-named-ph-best-mobile-network-infrastructure-company/Corporate-globe-primary-thumbnail-m.jpg",
      "imageDesktop": "/sites/globe.com.ph/files/content/dam/globe/brie/AboutUs/newsroom/corporate/globe-named-ph-best-mobile-network-infrastructure-company/Corporate-globe-primary-thumbnail-d.jpg",
      "description": "Globe has been named the Philippines’ strongest brand by Brand Finance, the world's leading independent brand valuation and strategy consultancy.",
      "datePosted": "Aug 03, 2023 | 10:24 AM",
      "titleFromTag": "Corporate"
    },
    {
      "title": "  Globe Introduces Gudi at Exciting TOYCON PH Debut, Ignites Toy Creators’ Imagination",
      "nonclickable": false,
      "openNewTab": false,
      "borderArticle": "border-color:#0074D9;",
      "borderTopArticle": "border-top-color:#0074D9;",
      "imageListing": "/sites/globe.com.ph/files/content/dam/globe/brie/About-us/Newsroom/image/Consumer/Globe-Introduces-Gudi-at-Exciting-TOYCON/NEWSROOM-CONSUMER-Globe-introduces-Gudi-at-exciting-ToyCon-PH-debut,-ignites-toy-creators_-imagination-thumbnail-listing.jpg",
      "articleUrl": "https://www.globe.com.ph/about-us/newsroom/consumer/globe-introduces-gudi-exciting-toycon-ph-debut.html",
      "columnType": "articles--type-3",
      "typeListing": "article",
      "imageMobile": "/sites/globe.com.ph/files/content/dam/globe/brie/About-us/Newsroom/image/Consumer/Globe-Introduces-Gudi-at-Exciting-TOYCON/NEWSROOM-CONSUMER-Globe-introduces-Gudi-at-exciting-ToyCon-PH-debut,-ignites-toy-creators_-imagination-primary-thumbnail-m.jpg",
      "imageDesktop": "/sites/globe.com.ph/files/content/dam/globe/brie/About-us/Newsroom/image/Consumer/Globe-Introduces-Gudi-at-Exciting-TOYCON/NEWSROOM-CONSUMER-Globe-introduces-Gudi-at-exciting-ToyCon-PH-debut,-ignites-toy-creators_-imagination-primary-thumbnail-d.jpg",
      "description": "Globe presents Gudi, the Globe GDay character, to the toy industry at TOYCON Philippines.",
      "datePosted": "Aug 02, 2023 | 01:33 PM",
      "titleFromTag": "Consumer"
    },
    {
      "title": "August 2023 Updates: Globe SIM Registration Portal",
      "nonclickable": false,
      "openNewTab": false,
      "borderArticle": "border-color:#0074D9;",
      "borderTopArticle": "border-top-color:#0074D9;",
      "imageListing": "/sites/globe.com.ph/files/content/dam/globe/brie/AboutUs/newsroom/common/default-total-globe-2/newsroom-total-globe-default-2-thumbnail-listing.jpg",
      "articleUrl": "https://www.globe.com.ph/about-us/newsroom/corporate/sim-registration-august-2023.html",
      "columnType": "articles--type-3",
      "typeListing": "article",
      "imageMobile": "/sites/globe.com.ph/files/content/dam/globe/brie/AboutUs/newsroom/common/default-total-globe-2/newsroom-total-globe-default-2-primary-thumbnail-m.jpg",
      "imageDesktop": "/sites/globe.com.ph/files/content/dam/globe/brie/AboutUs/newsroom/common/default-total-globe-2/newsroom-total-globe-default-2-primary-thumbnail-d.jpg",
      "description": "Read the August 2023 updates on Globe's SIM Registration here.",
      "datePosted": "Aug 02, 2023 | 11:06 AM",
      "titleFromTag": "Corporate"
    }
  ]
}
