{
  "status": 200,
  "page": 150,
  "totalPage": 298,
  "range": "1789-1800",
  "total": 3573,
  "result": [
    {
      "title": "IAU Sets the Pace for the Better Normal of Aviation Education With Globe",
      "nonclickable": false,
      "openNewTab": false,
      "borderArticle": "border-color:#0074D9;",
      "borderTopArticle": "border-top-color:#0074D9;",
      "imageListing": "/sites/globe.com.ph/files/content/dam/globe/brie/AboutUs/newsroom/corporate/iau-sets-pace-better-normal-aviation-education/newsroom-corporate-iau-aviation-education-thumbnail-listing.jpg",
      "articleUrl": "https://www.globe.com.ph/about-us/newsroom/corporate/iau-sets-pace-better-normal-aviation-education.html",
      "columnType": "articles--type-3",
      "typeListing": "article",
      "imageMobile": "/sites/globe.com.ph/files/content/dam/globe/brie/AboutUs/newsroom/corporate/iau-sets-pace-better-normal-aviation-education/newsroom-corporate-iau-aviation-education-primary-thumbnail-m.jpg",
      "imageDesktop": "/sites/globe.com.ph/files/content/dam/globe/brie/AboutUs/newsroom/corporate/iau-sets-pace-better-normal-aviation-education/newsroom-corporate-iau-aviation-education-primary-thumbnail-d.jpg",
      "description": "IAU sought the assistance of Globe Telecom to provide continuous online education to its students via an integrated LMS named ALTIMETER.",
      "datePosted": "Dec 21, 2020 | 03:19 PM",
      "titleFromTag": "Corporate"
    },
    {
      "title": "Globe Uses SMS to Make Learning Available to All",
      "nonclickable": false,
      "openNewTab": false,
      "borderArticle": "border-color:#0074D9;",
      "borderTopArticle": "border-top-color:#0074D9;",
      "imageListing": "/sites/globe.com.ph/files/content/dam/globe/brie/AboutUs/newsroom/corporate/globe-uses-sms-make-learning-available-all/newsroom-corporate-globe-sms-learning-thumbnail-listing.jpg",
      "articleUrl": "https://www.globe.com.ph/about-us/newsroom/corporate/globe-uses-sms-make-learning-available-all.html",
      "columnType": "articles--type-3",
      "typeListing": "article",
      "imageMobile": "/sites/globe.com.ph/files/content/dam/globe/brie/AboutUs/newsroom/corporate/globe-uses-sms-make-learning-available-all/newsroom-corporate-globe-sms-learning-primary-thumbnail-m.jpg",
      "imageDesktop": "/sites/globe.com.ph/files/content/dam/globe/brie/AboutUs/newsroom/corporate/globe-uses-sms-make-learning-available-all/newsroom-corporate-globe-sms-learning-primary-thumbnail-d.jpg",
      "description": "Globe is using the most common platform Filipinos have access to—short messaging service (SMS) or text messages—to help the PH gov't reach more learners.",
      "datePosted": "Dec 21, 2020 | 02:58 PM",
      "titleFromTag": "Corporate"
    },
    {
      "title": "Globe Customers Recreate Noche Buena for Families in Albay Through Their Rewards Points",
      "nonclickable": false,
      "openNewTab": false,
      "borderArticle": "border-color:#0074D9;",
      "borderTopArticle": "border-top-color:#0074D9;",
      "imageListing": "/sites/globe.com.ph/files/content/dam/globe/brie/AboutUs/newsroom/corporate/globe-customers-recreate-noche-buena-families-albay/newsroom-corporate-noche-buena-albay-thumbnail-listing.jpg",
      "articleUrl": "https://www.globe.com.ph/about-us/newsroom/corporate/globe-customers-recreate-noche-buena-families-albay.html",
      "columnType": "articles--type-3",
      "typeListing": "article",
      "imageMobile": "/sites/globe.com.ph/files/content/dam/globe/brie/AboutUs/newsroom/corporate/globe-customers-recreate-noche-buena-families-albay/newsroom-corporate-noche-buena-albay-primary-thumbnail-m.jpg",
      "imageDesktop": "/sites/globe.com.ph/files/content/dam/globe/brie/AboutUs/newsroom/corporate/globe-customers-recreate-noche-buena-families-albay/newsroom-corporate-noche-buena-albay-primary-thumbnail-d.jpg",
      "description": "This Christmas, Globe customers extended a helping hand to displaced families in Albay, Bicol by using their Globe Rewards points to bring Christmas cheer.",
      "datePosted": "Dec 21, 2020 | 02:27 PM",
      "titleFromTag": "Corporate"
    },
    {
      "title": "Driver of Ride-Hailing App Finds Support in Globe’s QC Expansion",
      "nonclickable": false,
      "openNewTab": false,
      "borderArticle": "border-color:#0074D9;",
      "borderTopArticle": "border-top-color:#0074D9;",
      "imageListing": "/sites/globe.com.ph/files/content/dam/globe/brie/AboutUs/newsroom/corporate/tnvs-driver-finds-support-globe-qc-expansion/newsroom-corporate-driver-qc-expansion-thumbnail-listing.jpg",
      "articleUrl": "https://www.globe.com.ph/about-us/newsroom/corporate/tnvs-driver-finds-support-globe-qc-expansion.html",
      "columnType": "articles--type-3",
      "typeListing": "article",
      "imageMobile": "/sites/globe.com.ph/files/content/dam/globe/brie/AboutUs/newsroom/corporate/tnvs-driver-finds-support-globe-qc-expansion/newsroom-corporate-driver-qc-expansion-primary-thumbnail-m.jpg",
      "imageDesktop": "/sites/globe.com.ph/files/content/dam/globe/brie/AboutUs/newsroom/corporate/tnvs-driver-finds-support-globe-qc-expansion/newsroom-corporate-driver-qc-expansion-primary-thumbnail-d.jpg",
      "description": "TNVS app driver Sigfried Ragay was thankful that his location, Quezon City, was among the 16 cities in Metro Manila that welcomed the installation of new towers and the upgrading of sites from the obsolete 2G and 3G to 4G/LTE technology.",
      "datePosted": "Dec 21, 2020 | 02:07 PM",
      "titleFromTag": "Corporate"
    },
    {
      "title": "Globe Platinum Customers Craft Holiday Art at Home to Raise Homeschool Kits #ForFutureHeroes From Baseco",
      "nonclickable": false,
      "openNewTab": false,
      "borderArticle": "border-color:#0074D9;",
      "borderTopArticle": "border-top-color:#0074D9;",
      "imageListing": "/sites/globe.com.ph/files/content/dam/globe/brie/AboutUs/newsroom/corporate/globe-platinum-holiday-crafts-weekend/newsroom-corporate-platinum-holiday-crafts-thumbnail-listing.jpg",
      "articleUrl": "https://www.globe.com.ph/about-us/newsroom/corporate/globe-platinum-holiday-crafts-weekend.html",
      "columnType": "articles--type-3",
      "typeListing": "article",
      "imageMobile": "/sites/globe.com.ph/files/content/dam/globe/brie/AboutUs/newsroom/corporate/globe-platinum-holiday-crafts-weekend/newsroom-corporate-platinum-holiday-crafts-primary-thumbnail-m.jpg",
      "imageDesktop": "/sites/globe.com.ph/files/content/dam/globe/brie/AboutUs/newsroom/corporate/globe-platinum-holiday-crafts-weekend/newsroom-corporate-platinum-holiday-crafts-primary-thumbnail-d.jpg",
      "description": "Globe Platinum gives World Vision school kits that include school supplies and learning modules approved by the Philippine Department of Education.",
      "datePosted": "Dec 18, 2020 | 01:32 PM",
      "titleFromTag": "Corporate"
    },
    {
      "title": "Here’s How Globe At Home Recreates Holiday Traditions at Home",
      "nonclickable": false,
      "openNewTab": false,
      "borderArticle": "border-color:#0074D9;",
      "borderTopArticle": "border-top-color:#0074D9;",
      "imageListing": "/sites/globe.com.ph/files/content/dam/globe/brie/AboutUs/newsroom/consumer/globe-at-home-recreates-holiday-traditions/newsroom-consumer-gah-holiday-traditions-thumbnail-listing.jpg",
      "articleUrl": "https://www.globe.com.ph/about-us/newsroom/consumer/globe-at-home-recreates-holiday-traditions.html",
      "columnType": "articles--type-3",
      "typeListing": "article",
      "imageMobile": "/sites/globe.com.ph/files/content/dam/globe/brie/AboutUs/newsroom/consumer/globe-at-home-recreates-holiday-traditions/newsroom-consumer-gah-holiday-traditions-primary-thumbnail-m.jpg",
      "imageDesktop": "/sites/globe.com.ph/files/content/dam/globe/brie/AboutUs/newsroom/consumer/globe-at-home-recreates-holiday-traditions/newsroom-consumer-gah-holiday-traditions-primary-thumbnail-d.jpg",
      "description": "Filipino families have Globe At Home as a reliable partner when it comes to matters of connectivity.",
      "datePosted": "Dec 18, 2020 | 11:09 AM",
      "titleFromTag": "Consumer"
    },
    {
      "title": "Globe's Strong Connectivity in Marikina Spells Better Disaster Preparedness for its Residents",
      "nonclickable": false,
      "openNewTab": false,
      "borderArticle": "border-color:#0074D9;",
      "borderTopArticle": "border-top-color:#0074D9;",
      "imageListing": "/sites/globe.com.ph/files/content/dam/globe/brie/AboutUs/newsroom/corporate/strong-connectivity-better-disaster-preparedness-marikina/newsroom-corporate-strong-connectivity-marikina-thumbnail-listing.jpg",
      "articleUrl": "https://www.globe.com.ph/about-us/newsroom/corporate/strong-connectivity-better-disaster-preparedness-marikina.html",
      "columnType": "articles--type-3",
      "typeListing": "article",
      "imageMobile": "/sites/globe.com.ph/files/content/dam/globe/brie/AboutUs/newsroom/corporate/strong-connectivity-better-disaster-preparedness-marikina/newsroom-corporate-strong-connectivity-marikina-primary-thumbnail-m.jpg",
      "imageDesktop": "/sites/globe.com.ph/files/content/dam/globe/brie/AboutUs/newsroom/corporate/strong-connectivity-better-disaster-preparedness-marikina/newsroom-corporate-strong-connectivity-marikina-primary-thumbnail-d.jpg",
      "description": "In Marikina, Globe installed two new cell sites and 146 sites were upgraded to fulfill the telco's commitment to have 4G everywhere.",
      "datePosted": "Dec 17, 2020 | 02:59 PM",
      "titleFromTag": "Corporate"
    },
    {
      "title": "MMFF 2020 Stars Invite OFWs to Watch This Year’s Films Online",
      "nonclickable": false,
      "openNewTab": false,
      "borderArticle": "border-color:#0074D9;",
      "borderTopArticle": "border-top-color:#0074D9;",
      "imageListing": "/sites/globe.com.ph/files/content/dam/globe/brie/AboutUs/newsroom/consumer/mmff-2020-stars-invite-ofws/newsroom-consumer-mmff-invite-ofws-thumbnail-listing.jpg",
      "articleUrl": "https://www.globe.com.ph/about-us/newsroom/consumer/mmff-2020-stars-invite-ofws.html",
      "columnType": "articles--type-3",
      "typeListing": "article",
      "imageMobile": "/sites/globe.com.ph/files/content/dam/globe/brie/AboutUs/newsroom/consumer/mmff-2020-stars-invite-ofws/newsroom-consumer-mmff-invite-ofws-primary-thumbnail-m.jpg",
      "imageDesktop": "/sites/globe.com.ph/files/content/dam/globe/brie/AboutUs/newsroom/consumer/mmff-2020-stars-invite-ofws/newsroom-consumer-mmff-invite-ofws-primary-thumbnail-d.jpg",
      "description": "The 46th edition of the MMFF via UPSTREAM and in partnership with GMovies opens on Christmas Day, December 25, 2020 until January 7, 2021.",
      "datePosted": "Dec 17, 2020 | 10:42 AM",
      "titleFromTag": "Consumer"
    },
    {
      "title": "917Ventures Holds Search for Business-Empowering Innovative Ideas",
      "nonclickable": false,
      "openNewTab": false,
      "borderArticle": "border-color:#0074D9;",
      "borderTopArticle": "border-top-color:#0074D9;",
      "imageListing": "/sites/globe.com.ph/files/content/dam/globe/brie/AboutUs/newsroom/917ventures/business-empowering-innovative-ideas/newsroom-917ventures-empowering-innovative-ideas-thumbnail-listing.jpg",
      "articleUrl": "https://www.globe.com.ph/about-us/newsroom/917ventures/business-empowering-innovative-ideas.html",
      "columnType": "articles--type-3",
      "typeListing": "article",
      "imageMobile": "/sites/globe.com.ph/files/content/dam/globe/brie/AboutUs/newsroom/917ventures/business-empowering-innovative-ideas/newsroom-917ventures-empowering-innovative-ideas-primary-thumbnail-m.jpg",
      "imageDesktop": "/sites/globe.com.ph/files/content/dam/globe/brie/AboutUs/newsroom/917ventures/business-empowering-innovative-ideas/newsroom-917ventures-empowering-innovative-ideas-primary-thumbnail-d.jpg",
      "description": "917Ventures launched Velocity in 2020, a venture incubation program. Anyone with viable ideas related to the 917Ventures focus areas were encouraged to join.",
      "datePosted": "Dec 16, 2020 | 05:30 PM",
      "titleFromTag": "917Ventures"
    },
    {
      "title": "Globe Donates Employee Christmas Party Funds to COVID-19, Disaster Beneficiaries",
      "nonclickable": false,
      "openNewTab": false,
      "borderArticle": "border-color:#0074D9;",
      "borderTopArticle": "border-top-color:#0074D9;",
      "imageListing": "/sites/globe.com.ph/files/content/dam/globe/brie/AboutUs/newsroom/corporate/globe-donates-employee-christmas-party-funds/newsroom-corporate-employee-donates-funds-thumbnail-listing.jpg",
      "articleUrl": "https://www.globe.com.ph/about-us/newsroom/corporate/globe-donates-employee-christmas-party-funds.html",
      "columnType": "articles--type-3",
      "typeListing": "article",
      "imageMobile": "/sites/globe.com.ph/files/content/dam/globe/brie/AboutUs/newsroom/corporate/globe-donates-employee-christmas-party-funds/newsroom-corporate-employee-donates-funds-primary-thumbnail-m.jpg",
      "imageDesktop": "/sites/globe.com.ph/files/content/dam/globe/brie/AboutUs/newsroom/corporate/globe-donates-employee-christmas-party-funds/newsroom-corporate-employee-donates-funds-primary-thumbnail-d.jpg",
      "description": "Beneficiaries of the donation are long-standing partners of Globe in its mission to address the United Nations Sustainable Development Goals.",
      "datePosted": "Dec 16, 2020 | 03:48 PM",
      "titleFromTag": "Corporate"
    },
    {
      "title": "Globe ESG Rating Upgraded to “A” From MSCI",
      "nonclickable": false,
      "openNewTab": false,
      "borderArticle": "border-color:#0074D9;",
      "borderTopArticle": "border-top-color:#0074D9;",
      "imageListing": "/sites/globe.com.ph/files/content/dam/globe/brie/AboutUs/newsroom/corporate/msci-esg-rating-upgraded/newsroom-corporate-msci-esg-rating-thumbnail-listing.jpg",
      "articleUrl": "https://www.globe.com.ph/about-us/newsroom/corporate/msci-esg-rating-upgraded.html",
      "columnType": "articles--type-3",
      "typeListing": "article",
      "imageMobile": "/sites/globe.com.ph/files/content/dam/globe/brie/AboutUs/newsroom/corporate/msci-esg-rating-upgraded/newsroom-corporate-msci-esg-rating-primary-thumbnail-m.jpg",
      "imageDesktop": "/sites/globe.com.ph/files/content/dam/globe/brie/AboutUs/newsroom/corporate/msci-esg-rating-upgraded/newsroom-corporate-msci-esg-rating-primary-thumbnail-d.jpg",
      "description": "Globe receives a rating of A in the MSCI ESG Ratings assessment.",
      "datePosted": "Dec 16, 2020 | 03:20 PM",
      "titleFromTag": "Corporate"
    },
    {
      "title": "Globe Installs 99 New Cell Towers and Upgrades 917 Sites in QC",
      "nonclickable": false,
      "openNewTab": false,
      "borderArticle": "border-color:#0074D9;",
      "borderTopArticle": "border-top-color:#0074D9;",
      "imageListing": "/sites/globe.com.ph/files/content/dam/globe/brie/AboutUs/newsroom/common/default-14/newsroom-corporate-globe-high-remarks-thumbnail-listing.jpg",
      "articleUrl": "https://www.globe.com.ph/about-us/newsroom/corporate/99-new-cell-towers-qc.html",
      "columnType": "articles--type-3",
      "typeListing": "article",
      "imageMobile": "/sites/globe.com.ph/files/content/dam/globe/brie/AboutUs/newsroom/common/default-14/newsroom-corporate-globe-high-remarks-primary-thumbnail-m.jpg",
      "imageDesktop": "/sites/globe.com.ph/files/content/dam/globe/brie/AboutUs/newsroom/common/default-14/newsroom-corporate-globe-high-remarks-primary-thumbnail-d.jpg",
      "description": "Quezon City is one of the major cities which has seen a major boost with the company’s efforts as it has installed at least 99 new cell towers and has completed 917 site upgrades from January to November this year.",
      "datePosted": "Dec 16, 2020 | 10:29 AM",
      "titleFromTag": "Corporate"
    }
  ]
}
