{
  "status": 200,
  "page": 151,
  "totalPage": 298,
  "range": "1801-1812",
  "total": 3573,
  "result": [
    {
      "title": "917Ventures, Puregold Partner for an Easier Online Grocery Shopping Experience with PureGo",
      "nonclickable": false,
      "openNewTab": false,
      "borderArticle": "border-color:#0074D9;",
      "borderTopArticle": "border-top-color:#0074D9;",
      "imageListing": "/sites/globe.com.ph/files/content/dam/globe/brie/AboutUs/newsroom/917ventures/purego-easier-online-grocery-shopping-experience/newsroom-917ventures-puregold-online-purego-thumbnail-listing.jpg",
      "articleUrl": "https://www.globe.com.ph/about-us/newsroom/917ventures/purego-easier-online-grocery-shopping-experience.html",
      "columnType": "articles--type-3",
      "typeListing": "article",
      "imageMobile": "/sites/globe.com.ph/files/content/dam/globe/brie/AboutUs/newsroom/917ventures/purego-easier-online-grocery-shopping-experience/newsroom-917ventures-puregold-online-purego-primary-thumbnail-m.jpg",
      "imageDesktop": "/sites/globe.com.ph/files/content/dam/globe/brie/AboutUs/newsroom/917ventures/purego-easier-online-grocery-shopping-experience/newsroom-917ventures-puregold-online-purego-primary-thumbnail-d.jpg",
      "description": "With PureGo, there’s no need to go through the hassle of a typical grocery trip which usually involves lots of walking, lining up, and carrying heavy bags.",
      "datePosted": "Dec 15, 2020 | 02:30 PM",
      "titleFromTag": "917Ventures"
    },
    {
      "title": "Globe Brings Innovative, Affordable WiFi Solutions to Pasig City",
      "nonclickable": false,
      "openNewTab": false,
      "borderArticle": "border-color:#0074D9;",
      "borderTopArticle": "border-top-color:#0074D9;",
      "imageListing": "/sites/globe.com.ph/files/content/dam/globe/brie/AboutUs/newsroom/corporate/innovative-affordable-wifi-solutions-pasig-city/thumbnail-listing_ 288x170.png",
      "articleUrl": "https://www.globe.com.ph/about-us/newsroom/corporate/innovative-affordable-wifi-solutions-pasig-city.html",
      "columnType": "articles--type-3",
      "typeListing": "article",
      "imageMobile": "/sites/globe.com.ph/files/content/dam/globe/brie/AboutUs/newsroom/common/default-2/default-business-2-primary-banner-m.jpg",
      "imageDesktop": "/sites/globe.com.ph/files/content/dam/globe/brie/AboutUs/newsroom/corporate/innovative-affordable-wifi-solutions-pasig-city/primary-thumbnail-d_ 860x400.png",
      "description": "Globe and the Pasig City local government embarked on a new partnership to provide high-speed and affordable internet access through GoWiFi and KonekTayo WiFi.",
      "datePosted": "Dec 15, 2020 | 01:40 PM",
      "titleFromTag": "Corporate"
    },
    {
      "title": "32-M Customers Benefiting from Improved Services in 80 Provinces with Network Upgrades",
      "nonclickable": false,
      "openNewTab": false,
      "borderArticle": "border-color:#0074D9;",
      "borderTopArticle": "border-top-color:#0074D9;",
      "imageListing": "/sites/globe.com.ph/files/content/dam/globe/brie/AboutUs/newsroom/common/default-2/default-business-2-thumbnail-listing.jpg",
      "articleUrl": "https://www.globe.com.ph/about-us/newsroom/corporate/32-m-customers-benefiting-improved-services.html",
      "columnType": "articles--type-3",
      "typeListing": "article",
      "imageMobile": "/sites/globe.com.ph/files/content/dam/globe/brie/AboutUs/newsroom/common/default-2/default-business-2-primary-thumbnail-m.jpg",
      "imageDesktop": "/sites/globe.com.ph/files/content/dam/globe/brie/AboutUs/newsroom/common/default-2/default-business-2-primary-thumbnail-d.jpg",
      "description": "The new site installations and site upgrades are currently benefiting at least 32 million customers who use their call, text and data services.",
      "datePosted": "Dec 15, 2020 | 11:05 AM",
      "titleFromTag": "Corporate"
    },
    {
      "title": "Globe Launches Virtual Donation Drive for 12 Charitable Institutions",
      "nonclickable": false,
      "openNewTab": false,
      "borderArticle": "border-color:#0074D9;",
      "borderTopArticle": "border-top-color:#0074D9;",
      "imageListing": "/sites/globe.com.ph/files/content/dam/globe/brie/AboutUs/newsroom/corporate/globe-launches-virtual-donation-drive/newsroom-corporate-virtual-donation-drive-thumbnail-listing.jpg",
      "articleUrl": "https://www.globe.com.ph/about-us/newsroom/corporate/globe-launches-virtual-donation-drive.html",
      "columnType": "articles--type-3",
      "typeListing": "article",
      "imageMobile": "/sites/globe.com.ph/files/content/dam/globe/brie/AboutUs/newsroom/corporate/globe-launches-virtual-donation-drive/newsroom-corporate-virtual-donation-drive-primary-thumbnail-m.jpg",
      "imageDesktop": "/sites/globe.com.ph/files/content/dam/globe/brie/AboutUs/newsroom/corporate/globe-launches-virtual-donation-drive/newsroom-corporate-virtual-donation-drive-primary-thumbnail-d.jpg",
      "description": "Globe pursues its annual Christmas tradition of helping non-profit groups by hosting a virtual fund-raising event that benefits 12 charitable organizations.",
      "datePosted": "Dec 14, 2020 | 02:42 PM",
      "titleFromTag": "Corporate"
    },
    {
      "title": "The iPhone 12 is Here, and You’ll Love it More with Globe 5G",
      "nonclickable": false,
      "openNewTab": false,
      "borderArticle": "border-color:#0074D9;",
      "borderTopArticle": "border-top-color:#0074D9;",
      "imageListing": "/sites/globe.com.ph/files/content/dam/globe/brie/AboutUs/newsroom/consumer/iphone-12-is-here/newsroom-consumer-iphone-12-thumbnail-listing.jpg",
      "articleUrl": "https://www.globe.com.ph/about-us/newsroom/consumer/iphone-12-is-here.html",
      "columnType": "articles--type-3",
      "typeListing": "article",
      "imageMobile": "/sites/globe.com.ph/files/content/dam/globe/brie/AboutUs/newsroom/consumer/iphone-12-is-here/newsroom-consumer-iphone-12-primary-thumbnail-m.jpg",
      "imageDesktop": "/sites/globe.com.ph/files/content/dam/globe/brie/AboutUs/newsroom/consumer/iphone-12-is-here/newsroom-consumer-iphone-12-primary-thumbnail-d.jpg",
      "description": "Much like any other new iPhone series, the arrival of the iPhone 12 has been hotly anticipated by fans worldwide including the Philippines.",
      "datePosted": "Dec 14, 2020 | 02:37 PM",
      "titleFromTag": "Consumer"
    },
    {
      "title": "Globe Taps Habi, TFP for Teacher Skills Enhancement",
      "nonclickable": false,
      "openNewTab": false,
      "borderArticle": "border-color:#0074D9;",
      "borderTopArticle": "border-top-color:#0074D9;",
      "imageListing": "/sites/globe.com.ph/files/content/dam/globe/brie/AboutUs/newsroom/corporate/globe-taps-habi-tfp-teacher-skills-enhancement/newsroom-corporate-habi-tfp-teachers-thumbnail-listing.jpg",
      "articleUrl": "https://www.globe.com.ph/about-us/newsroom/corporate/globe-taps-habi-tfp-teacher-skills-enhancement.html",
      "columnType": "articles--type-3",
      "typeListing": "article",
      "imageMobile": "/sites/globe.com.ph/files/content/dam/globe/brie/AboutUs/newsroom/corporate/globe-taps-habi-tfp-teacher-skills-enhancement/newsroom-corporate-habi-tfp-teachers-primary-thumbnail-m.jpg",
      "imageDesktop": "/sites/globe.com.ph/files/content/dam/globe/brie/AboutUs/newsroom/corporate/globe-taps-habi-tfp-teacher-skills-enhancement/newsroom-corporate-habi-tfp-teachers-primary-thumbnail-d.jpg",
      "description": "Globe has tapped non-profit groups Habi Education Lab and Teach for the Philippines to create educational materials designed to further enhance the skills of public school teachers especially on digital learning.",
      "datePosted": "Dec 11, 2020 | 05:24 PM",
      "titleFromTag": "Corporate"
    },
    {
      "title": "Globe Eyes to Build 2,000 New Cell Sites in 2021",
      "nonclickable": false,
      "openNewTab": false,
      "borderArticle": "border-color:#0074D9;",
      "borderTopArticle": "border-top-color:#0074D9;",
      "imageListing": "/sites/globe.com.ph/files/content/dam/globe/brie/AboutUs/newsroom/common/default-5/corporate-default-6-thumbnail-listing.jpg",
      "articleUrl": "https://www.globe.com.ph/about-us/newsroom/corporate/2000-new-cell-sites-2021.html",
      "columnType": "articles--type-3",
      "typeListing": "article",
      "imageMobile": "/sites/globe.com.ph/files/content/dam/globe/brie/AboutUs/newsroom/common/default-5/corporate-default-6-primary-thumbnail-m.jpg",
      "imageDesktop": "/sites/globe.com.ph/files/content/dam/globe/brie/AboutUs/newsroom/common/default-5/corporate-default-6-primary-thumbnail-d.jpg",
      "description": "Globe will continue to build the momentum of its aggressive network expansion as it targets to install a record number of new cell sites or towers in more cities and municipalities in the country next year.",
      "datePosted": "Dec 11, 2020 | 12:17 PM",
      "titleFromTag": "Corporate"
    },
    {
      "title": "Globe, Gawad Kalinga Unveil Partnership to Power Residents With Affordable Internet",
      "nonclickable": false,
      "openNewTab": false,
      "borderArticle": "border-color:#0074D9;",
      "borderTopArticle": "border-top-color:#0074D9;",
      "imageListing": "/sites/globe.com.ph/files/content/dam/globe/brie/AboutUs/newsroom/corporate/globe-gawad-kalinga-unveil-partnership/newsroom-corporate-gawad-kalinga-partnership-thumbnail-listing.jpg",
      "articleUrl": "https://www.globe.com.ph/about-us/newsroom/corporate/globe-gawad-kalinga-unveil-partnership.html",
      "columnType": "articles--type-3",
      "typeListing": "article",
      "imageMobile": "/sites/globe.com.ph/files/content/dam/globe/brie/AboutUs/newsroom/corporate/globe-gawad-kalinga-unveil-partnership/newsroom-corporate-gawad-kalinga-partnership-primary-thumbnail-m.jpg",
      "imageDesktop": "/sites/globe.com.ph/files/content/dam/globe/brie/AboutUs/newsroom/corporate/globe-gawad-kalinga-unveil-partnership/newsroom-corporate-gawad-kalinga-partnership-primary-thumbnail-d.jpg",
      "description": "Globe Telecom formally announced their new partnership with Gawad Kalinga to provide access to high-speed, reliable and low-cost internet for Gawad Kalinga village residents in Parañaque, Sta. Rosa, Laguna and Imus, Cavite last December 10.",
      "datePosted": "Dec 11, 2020 | 11:42 AM",
      "titleFromTag": "Corporate"
    },
    {
      "title": "Globe Uses Global Best Practice for Customer Service",
      "nonclickable": false,
      "openNewTab": false,
      "borderArticle": "border-color:#0074D9;",
      "borderTopArticle": "border-top-color:#0074D9;",
      "imageListing": "/sites/globe.com.ph/files/content/dam/globe/brie/AboutUs/newsroom/corporate/global-best-practice-customer-service/newsroom-corporate-best-practice-service-thumbnail-listing.jpg",
      "articleUrl": "https://www.globe.com.ph/about-us/newsroom/corporate/global-best-practice-customer-service.html",
      "columnType": "articles--type-3",
      "typeListing": "article",
      "imageMobile": "/sites/globe.com.ph/files/content/dam/globe/brie/AboutUs/newsroom/corporate/global-best-practice-customer-service/newsroom-corporate-best-practice-service-primary-thumbnail-m.jpg",
      "imageDesktop": "/sites/globe.com.ph/files/content/dam/globe/brie/AboutUs/newsroom/corporate/global-best-practice-customer-service/newsroom-corporate-best-practice-service-primary-thumbnail-d.jpg",
      "description": "Today, chatbots are reshaping the way companies interact with their customers especially under the new normal.",
      "datePosted": "Dec 11, 2020 | 11:08 AM",
      "titleFromTag": "Corporate"
    },
    {
      "title": "Globe Rewards: Converting Points Into Purpose",
      "nonclickable": false,
      "openNewTab": false,
      "borderArticle": "border-color:#1C91C5;",
      "borderTopArticle": "border-top-color:#1C91C5;",
      "imageListing": "/sites/globe.com.ph/files/content/dam/globe/brie/AboutUs/newsroom/sustainability/globe-rewards-converting-points-into-purpose/newsroom-sustainability-rewards-converting-points-thumbnail-listing.jpg",
      "articleUrl": "https://www.globe.com.ph/about-us/newsroom/sustainability/globe-rewards-converting-points-into-purpose.html",
      "columnType": "articles--type-3",
      "typeListing": "article",
      "imageMobile": "/sites/globe.com.ph/files/content/dam/globe/brie/AboutUs/newsroom/sustainability/globe-rewards-converting-points-into-purpose/newsroom-sustainability-rewards-converting-points-primary-thumbnail-m.jpg",
      "imageDesktop": "/sites/globe.com.ph/files/content/dam/globe/brie/AboutUs/newsroom/sustainability/globe-rewards-converting-points-into-purpose/newsroom-sustainability-rewards-converting-points-primary-thumbnail-d.jpg",
      "description": "Globe prides itself with enabling customers to participate in ways to do a #GlobeofGood.",
      "datePosted": "Dec 10, 2020 | 02:28 PM",
      "titleFromTag": "Sustainability"
    },
    {
      "title": "Globe Steps Up Drive for Online Responsibility; Advocates Fact Checks Against Fake News",
      "nonclickable": false,
      "openNewTab": false,
      "borderArticle": "border-color:#1C91C5;",
      "borderTopArticle": "border-top-color:#1C91C5;",
      "imageListing": "/sites/globe.com.ph/files/content/dam/globe/brie/AboutUs/newsroom/sustainability/online-responsibility-fact-check/newsroom-sustainability-online-responsibility-check-thumbnail-listing.jpg",
      "articleUrl": "https://www.globe.com.ph/about-us/newsroom/sustainability/online-responsibility-fact-check.html",
      "columnType": "articles--type-3",
      "typeListing": "article",
      "imageMobile": "/sites/globe.com.ph/files/content/dam/globe/brie/AboutUs/newsroom/sustainability/online-responsibility-fact-check/newsroom-sustainability-online-responsibility-check-primary-thumbnail-m.jpg",
      "imageDesktop": "/sites/globe.com.ph/files/content/dam/globe/brie/AboutUs/newsroom/sustainability/online-responsibility-fact-check/newsroom-sustainability-online-responsibility-check-primary-thumbnail-d.jpg",
      "description": "Globe is quick to point out that online threats are real and there are people who use the internet other than serving good intentions.",
      "datePosted": "Dec 10, 2020 | 02:18 PM",
      "titleFromTag": "Sustainability"
    },
    {
      "title": "Roque Acknowledges Telco Service Improvement; NTC Pushes Govt Spending for ICT Infra",
      "nonclickable": false,
      "openNewTab": false,
      "borderArticle": "border-color:#0074D9;",
      "borderTopArticle": "border-top-color:#0074D9;",
      "imageListing": "/sites/globe.com.ph/files/content/dam/globe/brie/AboutUs/newsroom/common/default-14/newsroom-corporate-globe-high-remarks-thumbnail-listing.jpg",
      "articleUrl": "https://www.globe.com.ph/about-us/newsroom/corporate/telco-service-improvements.html",
      "columnType": "articles--type-3",
      "typeListing": "article",
      "imageMobile": "/sites/globe.com.ph/files/content/dam/globe/brie/AboutUs/newsroom/common/default-14/newsroom-corporate-globe-high-remarks-primary-thumbnail-m.jpg",
      "imageDesktop": "/sites/globe.com.ph/files/content/dam/globe/brie/AboutUs/newsroom/common/default-14/newsroom-corporate-globe-high-remarks-primary-thumbnail-d.jpg",
      "description": "Globe President and CEO Ernest Cu said the company has made tremendous strides in its bid to improve its network and internet services.",
      "datePosted": "Dec 10, 2020 | 09:32 AM",
      "titleFromTag": "Corporate"
    }
  ]
}
