{
  "status": 200,
  "page": 152,
  "totalPage": 298,
  "range": "1813-1824",
  "total": 3573,
  "result": [
    {
      "title": "Globe Extols LGUs Supporting Ease in Permit Requirements",
      "nonclickable": false,
      "openNewTab": false,
      "borderArticle": "border-color:#0074D9;",
      "borderTopArticle": "border-top-color:#0074D9;",
      "imageListing": "/sites/globe.com.ph/files/content/dam/globe/brie/AboutUs/newsroom/common/updated/Corporate-globe-thumbnail-listing.jpg",
      "articleUrl": "https://www.globe.com.ph/about-us/newsroom/corporate/globe-extols-lgu-supporting-ease-permit-requirements.html",
      "columnType": "articles--type-3",
      "typeListing": "article",
      "imageMobile": "/sites/globe.com.ph/files/content/dam/globe/brie/AboutUs/newsroom/common/updated/Corporate-globe-primary-thumbnail-m.jpg",
      "imageDesktop": "/sites/globe.com.ph/files/content/dam/globe/brie/AboutUs/newsroom/common/updated/Corporate-globe-primary-thumbnail-d.jpg",
      "description": "Globe lauds several LGUs which have been instrumental in authorizing the provision of 1,857 permits since July until November this year, allowing the company to expedite its aggressive network expansion plans.",
      "datePosted": "Dec 09, 2020 | 11:20 AM",
      "titleFromTag": "Corporate"
    },
    {
      "title": "Globe Boosts Connectivity in Talisay City With 18 New Cell Sites",
      "nonclickable": false,
      "openNewTab": false,
      "borderArticle": "border-color:#0074D9;",
      "borderTopArticle": "border-top-color:#0074D9;",
      "imageListing": "/sites/globe.com.ph/files/content/dam/globe/brie/AboutUs/newsroom/common/default-5/corporate-default-6-thumbnail-listing.jpg",
      "articleUrl": "https://www.globe.com.ph/about-us/newsroom/corporate/globe-boosts-connectivity-talisay-city.html",
      "columnType": "articles--type-3",
      "typeListing": "article",
      "imageMobile": "/sites/globe.com.ph/files/content/dam/globe/brie/AboutUs/newsroom/common/default-5/corporate-default-6-primary-thumbnail-m.jpg",
      "imageDesktop": "/sites/globe.com.ph/files/content/dam/globe/brie/AboutUs/newsroom/common/default-5/corporate-default-6-primary-thumbnail-d.jpg",
      "description": "Globe continues its aggressive network roll out with the approval to build 18 new cell sites in the city of Talisay in Cebu.",
      "datePosted": "Dec 09, 2020 | 10:50 AM",
      "titleFromTag": "Corporate"
    },
    {
      "title": "Globe myBusiness Joins the Philippine Software Industry Association’s SOFTCON.ph 2020",
      "nonclickable": false,
      "openNewTab": false,
      "borderArticle": "border-color:#0074D9;",
      "borderTopArticle": "border-top-color:#0074D9;",
      "imageListing": "/sites/globe.com.ph/files/content/dam/globe/brie/AboutUs/newsroom/business/globe-mybusiness-softcon-2020/newsroom-business-mybusiness-softcon-2020-thumbnail-listing.jpg",
      "articleUrl": "https://www.globe.com.ph/about-us/newsroom/business/globe-mybusiness-softcon-2020.html",
      "columnType": "articles--type-3",
      "typeListing": "article",
      "imageMobile": "/sites/globe.com.ph/files/content/dam/globe/brie/AboutUs/newsroom/business/globe-mybusiness-softcon-2020/newsroom-business-mybusiness-softcon-2020-primary-thumbnail-m.jpg",
      "imageDesktop": "/sites/globe.com.ph/files/content/dam/globe/brie/AboutUs/newsroom/business/globe-mybusiness-softcon-2020/newsroom-business-crisis-management-webinar-primary-thumbnail-d.jpg",
      "description": "Globe myBusiness hosted the breakout session “How to Integrate Security Into DevOps with Confidence,” an exciting panel led by Jayden Aung, the Regional Cloud Security Architect of Check Point Software Technologies.",
      "datePosted": "Dec 09, 2020 | 08:56 AM",
      "titleFromTag": "Business"
    },
    {
      "title": "Customers Give Globe High Remarks on Network Improvements",
      "nonclickable": false,
      "openNewTab": false,
      "borderArticle": "border-color:#0074D9;",
      "borderTopArticle": "border-top-color:#0074D9;",
      "imageListing": "/sites/globe.com.ph/files/content/dam/globe/brie/AboutUs/newsroom/common/default-14/newsroom-corporate-globe-high-remarks-thumbnail-listing.jpg",
      "articleUrl": "https://www.globe.com.ph/about-us/newsroom/corporate/customers-high-remarks-network-improvements.html",
      "columnType": "articles--type-3",
      "typeListing": "article",
      "imageMobile": "/sites/globe.com.ph/files/content/dam/globe/brie/AboutUs/newsroom/common/default-14/newsroom-corporate-globe-high-remarks-primary-thumbnail-m.jpg",
      "imageDesktop": "/sites/globe.com.ph/files/content/dam/globe/brie/AboutUs/newsroom/common/default-14/newsroom-corporate-globe-high-remarks-primary-thumbnail-d.jpg",
      "description": "Globe posts high scores from customers in several categories when it comes to its mobile and data services.",
      "datePosted": "Dec 07, 2020 | 02:54 PM",
      "titleFromTag": "Corporate"
    },
    {
      "title": "Globe’s Aggressive Builds and Expansion Drive Service Improvements",
      "nonclickable": false,
      "openNewTab": false,
      "borderArticle": "border-color:#0074D9;",
      "borderTopArticle": "border-top-color:#0074D9;",
      "imageListing": "/sites/globe.com.ph/files/content/dam/globe/brie/AboutUs/newsroom/common/default-5/corporate-default-6-thumbnail-listing.jpg",
      "articleUrl": "https://www.globe.com.ph/about-us/newsroom/corporate/aggressive-builds-expansion-drive-service-improvements.html",
      "columnType": "articles--type-3",
      "typeListing": "article",
      "imageMobile": "/sites/globe.com.ph/files/content/dam/globe/brie/AboutUs/newsroom/common/default-5/corporate-default-6-primary-thumbnail-m.jpg",
      "imageDesktop": "/sites/globe.com.ph/files/content/dam/globe/brie/AboutUs/newsroom/common/default-5/corporate-default-6-primary-thumbnail-d.jpg",
      "description": "Globe was able to secure 1,857 permits for 2020 through the support of the Bayanihan to Recover as One Act, and other concerned parties",
      "datePosted": "Dec 07, 2020 | 02:54 PM",
      "titleFromTag": "Corporate"
    },
    {
      "title": "Globe Network Keeps Up With Other Countries, OFW Shares",
      "nonclickable": false,
      "openNewTab": false,
      "borderArticle": "border-color:#0074D9;",
      "borderTopArticle": "border-top-color:#0074D9;",
      "imageListing": "/sites/globe.com.ph/files/content/dam/globe/brie/AboutUs/newsroom/corporate/globe-keeps-up-with-other-countries/newsroom-corporate-globe-other-countries-thumbnail-listing.jpg",
      "articleUrl": "https://www.globe.com.ph/about-us/newsroom/corporate/globe-keeps-up-with-other-countries.html",
      "columnType": "articles--type-3",
      "typeListing": "article",
      "imageMobile": "/sites/globe.com.ph/files/content/dam/globe/brie/AboutUs/newsroom/corporate/globe-keeps-up-with-other-countries/newsroom-corporate-globe-other-countries-primary-thumbnail-m.jpg",
      "imageDesktop": "/sites/globe.com.ph/files/content/dam/globe/brie/AboutUs/newsroom/corporate/globe-keeps-up-with-other-countries/newsroom-corporate-globe-other-countries-primary-thumbnail-d.jpg",
      "description": "Globe’s continuous network developments has resulted better connectivity and data experience in cities and municipalities in the country.",
      "datePosted": "Dec 07, 2020 | 10:53 AM",
      "titleFromTag": "Corporate"
    },
    {
      "title": "Recreate the Way You Learn With Globe’s Prepaid WiFi Internet Kit for Education",
      "nonclickable": false,
      "openNewTab": false,
      "borderArticle": "border-color:#0074D9;",
      "borderTopArticle": "border-top-color:#0074D9;",
      "imageListing": "/sites/globe.com.ph/files/content/dam/globe/brie/AboutUs/newsroom/business/prepaid-wifi-internet-kit-for-education/newsroom-business-prepaid-wifi-education-thumbnail-listing.jpg",
      "articleUrl": "https://www.globe.com.ph/about-us/newsroom/business/prepaid-wifi-internet-kit-for-education.html",
      "columnType": "articles--type-3",
      "typeListing": "article",
      "imageMobile": "/sites/globe.com.ph/files/content/dam/globe/brie/AboutUs/newsroom/business/prepaid-wifi-internet-kit-for-education/newsroom-business-prepaid-wifi-education-primary-thumbnail-m.jpg",
      "imageDesktop": "/sites/globe.com.ph/files/content/dam/globe/brie/AboutUs/newsroom/business/prepaid-wifi-internet-kit-for-education/newsroom-business-prepaid-wifi-education-primary-thumbnail-d.jpg",
      "description": "A growing list of learning institutions have partnered with Globe for its Prepaid Internet Kit for Education.",
      "datePosted": "Dec 07, 2020 | 09:53 AM",
      "titleFromTag": "Business"
    },
    {
      "title": "GCash Seals Leadership in Financial Technology",
      "nonclickable": false,
      "openNewTab": false,
      "borderArticle": "border-color:#0074D9;",
      "borderTopArticle": "border-top-color:#0074D9;",
      "imageListing": "/sites/globe.com.ph/files/content/dam/globe/brie/AboutUs/newsroom/corporate/gcash-seals-leadership-financial-technology/newsroom-corporate-gcash-leadership-financial-thumbnail-listing.jpg",
      "articleUrl": "https://www.globe.com.ph/about-us/newsroom/corporate/gcash-seals-leadership-financial-technology.html",
      "columnType": "articles--type-3",
      "typeListing": "article",
      "imageMobile": "/sites/globe.com.ph/files/content/dam/globe/brie/AboutUs/newsroom/corporate/gcash-seals-leadership-financial-technology/newsroom-corporate-gcash-leadership-financial-primary-thumbnail-m.jpg",
      "imageDesktop": "/sites/globe.com.ph/files/content/dam/globe/brie/AboutUs/newsroom/corporate/gcash-seals-leadership-financial-technology/newsroom-corporate-gcash-leadership-financial-primary-thumbnail-d.jpg",
      "description": "GCash takes premium position for leading the country that has seen a stark rise in financial technology innovations over the past months due to the natural shift of consumers to digital solutions as a way of life.",
      "datePosted": "Dec 07, 2020 | 08:57 AM",
      "titleFromTag": "Corporate"
    },
    {
      "title": "Globe Cell Site Builds Provide Benefits That Go Beyond Critical Needs",
      "nonclickable": false,
      "openNewTab": false,
      "borderArticle": "border-color:#0074D9;",
      "borderTopArticle": "border-top-color:#0074D9;",
      "imageListing": "/sites/globe.com.ph/files/content/dam/globe/brie/AboutUs/newsroom/common/updated/Corporate-globe-thumbnail-listing.jpg",
      "articleUrl": "https://www.globe.com.ph/about-us/newsroom/corporate/cell-site-builds-provide-benefits.html",
      "columnType": "articles--type-3",
      "typeListing": "article",
      "imageMobile": "/sites/globe.com.ph/files/content/dam/globe/brie/AboutUs/newsroom/common/updated/Corporate-globe-primary-thumbnail-m.jpg",
      "imageDesktop": "/sites/globe.com.ph/files/content/dam/globe/brie/AboutUs/newsroom/common/updated/Corporate-globe-primary-thumbnail-d.jpg",
      "description": "Better connectivity and data experience are now being felt nationwide.",
      "datePosted": "Dec 07, 2020 | 02:54 AM",
      "titleFromTag": "Corporate"
    },
    {
      "title": "More Globe Offices Nationwide Using Clean Energy",
      "nonclickable": false,
      "openNewTab": false,
      "borderArticle": "border-color:#1C91C5;",
      "borderTopArticle": "border-top-color:#1C91C5;",
      "imageListing": "/sites/globe.com.ph/files/content/dam/globe/brie/AboutUs/newsroom/sustainability/globe-offices-nationwide-clean-energy/newsroom-sustainability-offices-clean-energy-thumbnail-listing.jpg",
      "articleUrl": "https://www.globe.com.ph/about-us/newsroom/sustainability/globe-offices-nationwide-clean-energy.html",
      "columnType": "articles--type-3",
      "typeListing": "article",
      "imageMobile": "/sites/globe.com.ph/files/content/dam/globe/brie/AboutUs/newsroom/sustainability/globe-offices-nationwide-clean-energy/newsroom-sustainability-offices-clean-energy-primary-thumbnail-m.jpg",
      "imageDesktop": "/sites/globe.com.ph/files/content/dam/globe/brie/AboutUs/newsroom/sustainability/globe-offices-nationwide-clean-energy/newsroom-sustainability-offices-clean-energy-primary-thumbnail-d.jpg",
      "description": "Globe is continuously innovating to enhance energy and resource efficiency, undertaking best practices beyond regular compliance in its day-to-day operations. ",
      "datePosted": "Dec 04, 2020 | 01:46 PM",
      "titleFromTag": "Sustainability"
    },
    {
      "title": "Globe Creates Positive Societal Impact Through Volunteerism",
      "nonclickable": false,
      "openNewTab": false,
      "borderArticle": "border-color:#1C91C5;",
      "borderTopArticle": "border-top-color:#1C91C5;",
      "imageListing": "/sites/globe.com.ph/files/content/dam/globe/brie/AboutUs/newsroom/sustainability/positive-societal-impact-volunteerism/newsroom-sustainability-positive-societal-impact-thumbnail-listing.jpg",
      "articleUrl": "https://www.globe.com.ph/about-us/newsroom/sustainability/positive-societal-impact-volunteerism.html",
      "columnType": "articles--type-3",
      "typeListing": "article",
      "imageMobile": "/sites/globe.com.ph/files/content/dam/globe/brie/AboutUs/newsroom/sustainability/positive-societal-impact-volunteerism/newsroom-sustainability-positive-societal-impact-primary-thumbnail-m.jpg",
      "imageDesktop": "/sites/globe.com.ph/files/content/dam/globe/brie/AboutUs/newsroom/sustainability/positive-societal-impact-volunteerism/newsroom-sustainability-positive-societal-impact-primary-thumbnail-d.jpg",
      "description": "Globe has pivoted its volunteering  efforts  by enabling its employees and customers to share their talents and resources from the safety of their homes.",
      "datePosted": "Dec 04, 2020 | 12:02 PM",
      "titleFromTag": "Sustainability"
    },
    {
      "title": "Globe Media Excellence Awards 2020 Honor Exemplary Works of Media and Bloggers Amid the Pandemic",
      "nonclickable": false,
      "openNewTab": false,
      "borderArticle": "border-color:#0074D9;",
      "borderTopArticle": "border-top-color:#0074D9;",
      "imageListing": "/sites/globe.com.ph/files/content/dam/globe/brie/AboutUs/newsroom/corporate/globe-media-excellence-awards-2020-honor-media-bloggers/newsroom-corporate-gmea-2020-bloggers-thumbnail-listing.jpg",
      "articleUrl": "https://www.globe.com.ph/about-us/newsroom/corporate/globe-media-excellence-awards-2020-honor-media-bloggers.html",
      "columnType": "articles--type-3",
      "typeListing": "article",
      "imageMobile": "/sites/globe.com.ph/files/content/dam/globe/brie/AboutUs/newsroom/corporate/globe-media-excellence-awards-2020-honor-media-bloggers/newsroom-corporate-gmea-2020-bloggers-primary-thumbnail-m.jpg",
      "imageDesktop": "/sites/globe.com.ph/files/content/dam/globe/brie/AboutUs/newsroom/corporate/globe-media-excellence-awards-2020-honor-media-bloggers/newsroom-corporate-gmea-2020-bloggers-primary-thumbnail-d.jpg",
      "description": "For 2020, GMEA received over 400 entries from Visayas and Mindanao. ",
      "datePosted": "Dec 03, 2020 | 03:01 PM",
      "titleFromTag": "Corporate"
    }
  ]
}
