{
  "status": 200,
  "page": 153,
  "totalPage": 298,
  "range": "1825-1836",
  "total": 3573,
  "result": [
    {
      "title": "Time to Innovate Your Fitness Regimen: Do It With Globe Postpaid",
      "nonclickable": false,
      "openNewTab": false,
      "borderArticle": "border-color:#0074D9;",
      "borderTopArticle": "border-top-color:#0074D9;",
      "imageListing": "/sites/globe.com.ph/files/content/dam/globe/brie/AboutUs/newsroom/consumer/innovate-fitness-regimen-globe-postpaid/newsroom-consumer-innovate-fitness-regimen-thumbnail-listing.jpg",
      "articleUrl": "https://www.globe.com.ph/about-us/newsroom/consumer/innovate-fitness-regimen-globe-postpaid.html",
      "columnType": "articles--type-3",
      "typeListing": "article",
      "imageMobile": "/sites/globe.com.ph/files/content/dam/globe/brie/AboutUs/newsroom/consumer/innovate-fitness-regimen-globe-postpaid/newsroom-consumer-innovate-fitness-regimen-primary-thumbnail-m.jpg",
      "imageDesktop": "/sites/globe.com.ph/files/content/dam/globe/brie/AboutUs/newsroom/consumer/innovate-fitness-regimen-globe-postpaid/newsroom-consumer-innovate-fitness-regimen-primary-thumbnail-d.jpg",
      "description": "Work on your fitness goals from home with Globe Postpaid’s ThePLAN and Saddle Row.",
      "datePosted": "Dec 02, 2020 | 01:51 PM",
      "titleFromTag": "Consumer"
    },
    {
      "title": "Globe myBusiness Enlightens Entrepreneurs in HR and Crisis Management Webinar",
      "nonclickable": false,
      "openNewTab": false,
      "borderArticle": "border-color:#0074D9;",
      "borderTopArticle": "border-top-color:#0074D9;",
      "imageListing": "/sites/globe.com.ph/files/content/dam/globe/brie/AboutUs/newsroom/business/hr-crisis-management-webinar/newsroom-business-crisis-management-webinar-thumbnail-listing.jpg",
      "articleUrl": "https://www.globe.com.ph/about-us/newsroom/business/hr-crisis-management-webinar.html",
      "columnType": "articles--type-3",
      "typeListing": "article",
      "imageMobile": "/sites/globe.com.ph/files/content/dam/globe/brie/AboutUs/newsroom/business/hr-crisis-management-webinar/newsroom-business-crisis-management-webinar-primary-thumbnail-m.jpg",
      "imageDesktop": "/sites/globe.com.ph/files/content/dam/globe/brie/AboutUs/newsroom/business/hr-crisis-management-webinar/newsroom-business-crisis-management-webinar-primary-thumbnail-d.jpg",
      "description": "Globe myBusiness, in partnership with the MNCCI, held a webinar last Nov. 21, 2020 for business owners struggling to empower their employees in times of crisis.",
      "datePosted": "Dec 02, 2020 | 01:34 PM",
      "titleFromTag": "Business"
    },
    {
      "title": "Globe’s Sustainability Practice Empowers Customers to Help Frontliners",
      "nonclickable": false,
      "openNewTab": false,
      "borderArticle": "border-color:#1C91C5;",
      "borderTopArticle": "border-top-color:#1C91C5;",
      "imageListing": "/sites/globe.com.ph/files/content/dam/globe/brie/AboutUs/newsroom/sustainability/sustainability-practice-empowers-customers-help-frontliners/newsroom-sustainability-empowers-customers-frontliners-thumbnail-listing.jpg",
      "articleUrl": "https://www.globe.com.ph/about-us/newsroom/sustainability/sustainability-practice-empowers-customers-help-frontliners.html",
      "columnType": "articles--type-3",
      "typeListing": "article",
      "imageMobile": "/sites/globe.com.ph/files/content/dam/globe/brie/AboutUs/newsroom/sustainability/sustainability-practice-empowers-customers-help-frontliners/newsroom-sustainability-empowers-customers-frontliners-primary-thumbnail-m.jpg",
      "imageDesktop": "/sites/globe.com.ph/files/content/dam/globe/brie/AboutUs/newsroom/sustainability/sustainability-practice-empowers-customers-help-frontliners/newsroom-sustainability-empowers-customers-frontliners-primary-thumbnail-d.jpg",
      "description": "Engaging customers in its various sustainability programs is one of the many ways Globe empowers its communities of subscribers and business partners.",
      "datePosted": "Dec 02, 2020 | 12:32 PM",
      "titleFromTag": "Sustainability"
    },
    {
      "title": "Globe Gives Support to Promising Pro Boxer Martin Ahead of Crucial Bout",
      "nonclickable": false,
      "openNewTab": false,
      "borderArticle": "border-color:#0074D9;",
      "borderTopArticle": "border-top-color:#0074D9;",
      "imageListing": "/sites/globe.com.ph/files/content/dam/globe/brie/AboutUs/newsroom/corporate/globe-supports-boxer-carl-jammes-martin/newsroom-corporate-boxer-carl-martin-thumbnail-listing.jpg",
      "articleUrl": "https://www.globe.com.ph/about-us/newsroom/corporate/globe-supports-boxer-carl-jammes-martin.html",
      "columnType": "articles--type-3",
      "typeListing": "article",
      "imageMobile": "/sites/globe.com.ph/files/content/dam/globe/brie/AboutUs/newsroom/corporate/globe-supports-boxer-carl-jammes-martin/newsroom-corporate-boxer-carl-martin-primary-thumbnail-m.jpg",
      "imageDesktop": "/sites/globe.com.ph/files/content/dam/globe/brie/AboutUs/newsroom/corporate/globe-supports-boxer-carl-jammes-martin/newsroom-corporate-boxer-carl-martin-primary-thumbnail-d.jpg",
      "description": "Globe pledges its support to boxer Carl Jammes Martin as he takes on a veteran fighter from the South.",
      "datePosted": "Dec 02, 2020 | 10:06 AM",
      "titleFromTag": "Corporate"
    },
    {
      "title": "Globe Has Most Consistent 4G Network in 13 Out of 17 PH Regions",
      "nonclickable": false,
      "openNewTab": false,
      "borderArticle": "border-color:#0074D9;",
      "borderTopArticle": "border-top-color:#0074D9;",
      "imageListing": "/sites/globe.com.ph/files/content/dam/globe/brie/AboutUs/newsroom/common/default-2/default-business-2-thumbnail-listing.jpg",
      "articleUrl": "https://www.globe.com.ph/about-us/newsroom/corporate/most-consistent-4g-network-13-regions.html",
      "columnType": "articles--type-3",
      "typeListing": "article",
      "imageMobile": "/sites/globe.com.ph/files/content/dam/globe/brie/AboutUs/newsroom/common/default-2/default-business-2-primary-thumbnail-m.jpg",
      "imageDesktop": "/sites/globe.com.ph/files/content/dam/globe/brie/AboutUs/newsroom/common/default-2/default-business-2-primary-thumbnail-d.jpg",
      "description": "Globe has demonstrated consistent performance improvements year on year in providing fast and reliable data services in the most critical areas of the country.",
      "datePosted": "Dec 02, 2020 | 09:42 AM",
      "titleFromTag": "Corporate"
    },
    {
      "title": "Globe Recreates Christmas for all Filipinos in this Year's Fully Digital Wonderful World of Globe",
      "nonclickable": false,
      "openNewTab": false,
      "borderArticle": "border-color:#0074D9;",
      "borderTopArticle": "border-top-color:#0074D9;",
      "imageListing": "/sites/globe.com.ph/files/content/dam/globe/brie/AboutUs/newsroom/corporate/wonderful-world-of-globe/newsroom-corporate-wonderful-world-globe-thumbnail-listing.jpg",
      "articleUrl": "https://www.globe.com.ph/about-us/newsroom/corporate/wonderful-world-of-globe.html",
      "columnType": "articles--type-3",
      "typeListing": "article",
      "imageMobile": "/sites/globe.com.ph/files/content/dam/globe/brie/AboutUs/newsroom/corporate/wonderful-world-of-globe/newsroom-corporate-wonderful-world-globe-primary-thumbnail-m.jpg",
      "imageDesktop": "/sites/globe.com.ph/files/content/dam/globe/brie/AboutUs/newsroom/corporate/wonderful-world-of-globe/newsroom-corporate-wonderful-world-globe-primary-thumbnail-d.jpg",
      "description": "Globe Recreates the Christmas We Love on Fully Digital WWG - Globe Newsroom",
      "datePosted": "Dec 01, 2020 | 11:59 AM",
      "titleFromTag": "Corporate"
    },
    {
      "title": "Globe Seals Brand Endorsement of Biggest Global Music Group BLACKPINK",
      "nonclickable": false,
      "openNewTab": false,
      "borderArticle": "border-color:#0074D9;",
      "borderTopArticle": "border-top-color:#0074D9;",
      "imageListing": "/sites/globe.com.ph/files/content/dam/globe/brie/AboutUs/newsroom/corporate/brand-endorsement-blackpink/newsroom-corporate-brand-endorsement-blackpink-thumbnail-listing.jpg",
      "articleUrl": "https://www.globe.com.ph/about-us/newsroom/corporate/brand-endorsement-blackpink.html",
      "columnType": "articles--type-3",
      "typeListing": "article",
      "imageMobile": "/sites/globe.com.ph/files/content/dam/globe/brie/AboutUs/newsroom/corporate/brand-endorsement-blackpink/newsroom-corporate-brand-endorsement-blackpink-primary-thumbnail-m.jpg",
      "imageDesktop": "/sites/globe.com.ph/files/content/dam/globe/brie/AboutUs/newsroom/corporate/brand-endorsement-blackpink/newsroom-corporate-brand-endorsement-blackpink-primary-thumbnail-d.jpg",
      "description": "Globe welcomes the biggest international music group, BLACKPINK, into its family!",
      "datePosted": "Dec 01, 2020 | 11:59 AM",
      "titleFromTag": "Corporate"
    },
    {
      "title": "Globe Doubles Up Support for Typhoons Rolly and Ulysses Victims",
      "nonclickable": false,
      "openNewTab": false,
      "borderArticle": "border-color:#0074D9;",
      "borderTopArticle": "border-top-color:#0074D9;",
      "imageListing": "/sites/globe.com.ph/files/content/dam/globe/brie/AboutUs/newsroom/corporate/globe-doubles-up-support-typhoons-rolly-ulysses-victims/newsroom-corporate-support-typhoon-victims-thumbnail-listing.jpg",
      "articleUrl": "https://www.globe.com.ph/about-us/newsroom/corporate/globe-doubles-up-support-typhoons-rolly-ulysses-victims.html",
      "columnType": "articles--type-3",
      "typeListing": "article",
      "imageMobile": "/sites/globe.com.ph/files/content/dam/globe/brie/AboutUs/newsroom/corporate/globe-doubles-up-support-typhoons-rolly-ulysses-victims/newsroom-corporate-support-typhoon-victims-primary-thumbnail-m.jpg",
      "imageDesktop": "/sites/globe.com.ph/files/content/dam/globe/brie/AboutUs/newsroom/corporate/globe-doubles-up-support-typhoons-rolly-ulysses-victims/newsroom-corporate-support-typhoon-victims-primary-thumbnail-d.jpg",
      "description": "The telco also has been providing meal packs to more than 16,000 families since the aftermath of Typhoons Quinta, Rolly and Ulysses.",
      "datePosted": "Nov 27, 2020 | 03:55 PM",
      "titleFromTag": "Corporate"
    },
    {
      "title": "Globe Rolls Out Its VoLTE Service in Visayas & Mindanao in 2021",
      "nonclickable": false,
      "openNewTab": false,
      "borderArticle": "border-color:#0074D9;",
      "borderTopArticle": "border-top-color:#0074D9;",
      "imageListing": "/sites/globe.com.ph/files/content/dam/globe/brie/AboutUs/newsroom/common/default-11/default-business-5-thumbnail-listing.jpg",
      "articleUrl": "https://www.globe.com.ph/about-us/newsroom/corporate/volte-service-roll-out-visayas-mindanao-2021.html",
      "columnType": "articles--type-3",
      "typeListing": "article",
      "imageMobile": "/sites/globe.com.ph/files/content/dam/globe/brie/AboutUs/newsroom/common/default-11/default-business-5-primary-thumbnail-m.jpg",
      "imageDesktop": "/sites/globe.com.ph/files/content/dam/globe/brie/AboutUs/newsroom/common/default-11/default-business-5-primary-thumbnail-d.jpg",
      "description": "The company says the expansion of its VoLTE coverage will include the entire provinces of Cebu, Davao Del Sur and Davao Del Norte as early as January next year.",
      "datePosted": "Nov 27, 2020 | 02:24 PM",
      "titleFromTag": "Corporate"
    },
    {
      "title": "917Ventures Launches Venture Incubation Program in SEA",
      "nonclickable": false,
      "openNewTab": false,
      "borderArticle": "border-color:#0074D9;",
      "borderTopArticle": "border-top-color:#0074D9;",
      "imageListing": "/sites/globe.com.ph/files/content/dam/globe/brie/AboutUs/newsroom/917ventures/incubation-program-velocity-launch/newsroom-917ventures-incubation-program-seas-thumbnail-listing.jpg",
      "articleUrl": "https://www.globe.com.ph/about-us/newsroom/917ventures/incubation-program-velocity-launch.html",
      "columnType": "articles--type-3",
      "typeListing": "article",
      "imageMobile": "/sites/globe.com.ph/files/content/dam/globe/brie/AboutUs/newsroom/917ventures/incubation-program-velocity-launch/newsroom-917ventures-incubation-program-seas-primary-thumbnail-m.jpg",
      "imageDesktop": "/sites/globe.com.ph/files/content/dam/globe/brie/AboutUs/newsroom/917ventures/incubation-program-velocity-launch/newsroom-917ventures-incubation-program-seas-primary-thumbnail-d.jpg",
      "description": "The program called Velocity seeks to gather the best innovators in Southeast Asia with an initial grant of up to $50,000.",
      "datePosted": "Nov 27, 2020 | 12:14 PM",
      "titleFromTag": "917Ventures"
    },
    {
      "title": "GoWiFi Extends Free Internet Connection in Key Negros Occidental Public Areas",
      "nonclickable": false,
      "openNewTab": false,
      "borderArticle": "border-color:#0074D9;",
      "borderTopArticle": "border-top-color:#0074D9;",
      "imageListing": "/sites/globe.com.ph/files/content/dam/globe/brie/AboutUs/newsroom/common/default-11/default-business-5-thumbnail-listing.jpg",
      "articleUrl": "https://www.globe.com.ph/about-us/newsroom/corporate/gowifi-free-internet-negros-occidental-public-areas.html",
      "columnType": "articles--type-3",
      "typeListing": "article",
      "imageMobile": "/sites/globe.com.ph/files/content/dam/globe/brie/AboutUs/newsroom/common/default-11/default-business-5-primary-thumbnail-m.jpg",
      "imageDesktop": "/sites/globe.com.ph/files/content/dam/globe/brie/AboutUs/newsroom/common/default-11/default-business-5-primary-thumbnail-d.jpg",
      "description": "With over 2,800 sites nationwide, GoWiFi continues to make high-quality internet connection accessible and affordable to more Filipinos.",
      "datePosted": "Nov 27, 2020 | 12:14 PM",
      "titleFromTag": "Corporate"
    },
    {
      "title": "Shop for a Cause This Christmas at Globe myBusiness Gift Local E-Bazaar",
      "nonclickable": false,
      "openNewTab": false,
      "borderArticle": "border-color:#0074D9;",
      "borderTopArticle": "border-top-color:#0074D9;",
      "imageListing": "/sites/globe.com.ph/files/content/dam/globe/brie/AboutUs/newsroom/business/gift-local-e-bazaar/newsroom-gift-local-bazaar-thumbnail-listing.jpg",
      "articleUrl": "https://www.globe.com.ph/about-us/newsroom/business/gift-local-e-bazaar.html",
      "columnType": "articles--type-3",
      "typeListing": "article",
      "imageMobile": "/sites/globe.com.ph/files/content/dam/globe/brie/AboutUs/newsroom/business/gift-local-e-bazaar/newsroom-gift-local-bazaar-primary-thumbnail-m.jpg",
      "imageDesktop": "/sites/globe.com.ph/files/content/dam/globe/brie/AboutUs/newsroom/business/gift-local-e-bazaar/newsroom-gift-local-bazaar-primary-thumbnail-d.jpg",
      "description": "The Globe myBusiness Gift Local E-Bazaar in Lazada from November 27 to 29 will feature SME merchants, & bazaaristas from the retail, food, & tourism industries",
      "datePosted": "Nov 26, 2020 | 03:47 PM",
      "titleFromTag": "Business"
    }
  ]
}
