{
  "status": 200,
  "page": 154,
  "totalPage": 298,
  "range": "1837-1848",
  "total": 3573,
  "result": [
    {
      "title": "Students in Baseco, Manila Receive Almost a Thousand World Vision School Kits Raised by Globe Platinum Customers",
      "nonclickable": false,
      "openNewTab": false,
      "borderArticle": "border-color:#0074D9;",
      "borderTopArticle": "border-top-color:#0074D9;",
      "imageListing": "/sites/globe.com.ph/files/content/dam/globe/brie/AboutUs/newsroom/citizenship/baseco-students-school-kits-globe-platinum-customers/newsroom-citizenship-world-vision-kits-thumbnail-listing.jpg",
      "articleUrl": "https://www.globe.com.ph/about-us/newsroom/citizenship/baseco-students-school-kits-globe-platinum-customers.html",
      "columnType": "articles--type-3",
      "typeListing": "article",
      "imageMobile": "/sites/globe.com.ph/files/content/dam/globe/brie/AboutUs/newsroom/citizenship/baseco-students-school-kits-globe-platinum-customers/newsroom-citizenship-world-vision-kits-primary-thumbnail-m.jpg",
      "imageDesktop": "/sites/globe.com.ph/files/content/dam/globe/brie/AboutUs/newsroom/citizenship/baseco-students-school-kits-globe-platinum-customers/newsroom-citizenship-world-vision-kits-primary-thumbnail-d.jpg",
      "description": "Globe Platinum customers showed their support for our youth by helping children from the Baseco Compound in Manila continue their education at home.",
      "datePosted": "Nov 26, 2020 | 03:17 PM",
      "titleFromTag": "Citizenship"
    },
    {
      "title": "Great Deals on Mobile and Broadband Plans Await at the Gift Love, Gift Local Online Sale ",
      "nonclickable": false,
      "openNewTab": false,
      "borderArticle": "border-color:#0074D9;",
      "borderTopArticle": "border-top-color:#0074D9;",
      "imageListing": "/sites/globe.com.ph/files/content/dam/globe/brie/AboutUs/newsroom/business/gift-love-gift-local-online-sale/newsroom-business-gift-love-online-thumbnail-listing.jpg",
      "articleUrl": "https://www.globe.com.ph/about-us/newsroom/business/gift-love-gift-local-online-sale.html",
      "columnType": "articles--type-3",
      "typeListing": "article",
      "imageMobile": "/sites/globe.com.ph/files/content/dam/globe/brie/AboutUs/newsroom/business/gift-love-gift-local-online-sale/newsroom-business-gift-love-online-primary-thumbnail-m.jpg",
      "imageDesktop": "/sites/globe.com.ph/files/content/dam/globe/brie/AboutUs/newsroom/business/gift-love-gift-local-online-sale/newsroom-business-gift-love-online-primary-thumbnail-d.jpg",
      "description": "To help SMEs rebuild in time for the holiday season, Globe myBusiness is currently holding the Gift Love, Gift Local Online sale until November 30, 2020.",
      "datePosted": "Nov 26, 2020 | 02:34 PM",
      "titleFromTag": "Business"
    },
    {
      "title": "Christmas MMFF Lineup Revealed, to be Streamed via UPSTREAM",
      "nonclickable": false,
      "openNewTab": false,
      "borderArticle": "border-color:#0074D9;",
      "borderTopArticle": "border-top-color:#0074D9;",
      "imageListing": "/sites/globe.com.ph/files/content/dam/globe/brie/AboutUs/newsroom/partners/christmas-mmff-lineup-upstream/newsroom-partners-christmas-mmff-upstream-thumbnail-listing.jpg",
      "articleUrl": "https://www.globe.com.ph/about-us/newsroom/partners/christmas-mmff-lineup-upstream.html",
      "columnType": "articles--type-3",
      "typeListing": "article",
      "imageMobile": "/sites/globe.com.ph/files/content/dam/globe/brie/AboutUs/newsroom/partners/christmas-mmff-lineup-upstream/newsroom-partners-christmas-mmff-upstream-primary-thumbnail-m.jpg",
      "imageDesktop": "/sites/globe.com.ph/files/content/dam/globe/brie/AboutUs/newsroom/partners/christmas-mmff-lineup-upstream/newsroom-partners-christmas-mmff-upstream-primary-thumbnail-d.jpg",
      "description": "All ten films of the 2020 MMFF will be made available by UPSTREAM via streaming here and internationally from December 25, 2020 to January 7, 2021.",
      "datePosted": "Nov 26, 2020 | 02:06 PM",
      "titleFromTag": "Partners"
    },
    {
      "title": "Asticom Provides Job Opportunities Amid the Pandemic",
      "nonclickable": false,
      "openNewTab": false,
      "borderArticle": "border-color:#1C91C5;",
      "borderTopArticle": "border-top-color:#1C91C5;",
      "imageListing": "/sites/globe.com.ph/files/content/dam/globe/brie/AboutUs/newsroom/common/default-13/default-partners-1-thumbnail-listing.jpg",
      "articleUrl": "https://www.globe.com.ph/about-us/newsroom/sustainability/asticom-provides-job-opportunities-amid-pandemic.html",
      "columnType": "articles--type-3",
      "typeListing": "article",
      "imageMobile": "/sites/globe.com.ph/files/content/dam/globe/brie/AboutUs/newsroom/common/default-13/default-partners-1-primary-thumbnail-m.jpg",
      "imageDesktop": "/sites/globe.com.ph/files/content/dam/globe/brie/AboutUs/newsroom/common/default-13/default-partners-1-primary-thumbnail-d.jpg",
      "description": "Despite govermnet restrictions, Asticom was able to open 2,814 opportunities to job seekers, a quarter of which were given to fresh graduates, employees with no prior working experience, and skilled workers.",
      "datePosted": "Nov 25, 2020 | 01:27 PM",
      "titleFromTag": "Sustainability"
    },
    {
      "title": "Globe Media Excellence Awards Goes Digital",
      "nonclickable": false,
      "openNewTab": false,
      "borderArticle": "border-color:#0074D9;",
      "borderTopArticle": "border-top-color:#0074D9;",
      "imageListing": "/sites/globe.com.ph/files/content/dam/globe/brie/AboutUs/newsroom/corporate/globe-media-excellence-awards-goes-digital-2020/newsroom-corporate-gmea-goes-digital-thumbnail-listing.jpg",
      "articleUrl": "https://www.globe.com.ph/about-us/newsroom/corporate/globe-media-excellence-awards-goes-digital-2020.html",
      "columnType": "articles--type-3",
      "typeListing": "article",
      "imageMobile": "/sites/globe.com.ph/files/content/dam/globe/brie/AboutUs/newsroom/corporate/globe-media-excellence-awards-goes-digital-2020/newsroom-corporate-gmea-goes-digital-primary-thumbnail-m.jpg",
      "imageDesktop": "/sites/globe.com.ph/files/content/dam/globe/brie/AboutUs/newsroom/corporate/globe-media-excellence-awards-goes-digital-2020/newsroom-corporate-gmea-goes-digital-primary-thumbnail-d.jpg",
      "description": "This year's GMEA honors media, bloggers, social media influencers as front liners in the time of pandemic.",
      "datePosted": "Nov 24, 2020 | 01:27 PM",
      "titleFromTag": "Corporate"
    },
    {
      "title": "Transformative Power of 5G Seen to Impact PH Education, Health and Entertainment Sectors",
      "nonclickable": false,
      "openNewTab": false,
      "borderArticle": "border-color:#0074D9;",
      "borderTopArticle": "border-top-color:#0074D9;",
      "imageListing": "/sites/globe.com.ph/files/content/dam/globe/brie/AboutUs/newsroom/corporate/5g-impact-ph-education-health-entertainment/newsroom-corporate-5g-impact-sectors-thumbnail-listing.jpg",
      "articleUrl": "https://www.globe.com.ph/about-us/newsroom/corporate/5g-impact-ph-education-health-entertainment.html",
      "columnType": "articles--type-3",
      "typeListing": "article",
      "imageMobile": "/sites/globe.com.ph/files/content/dam/globe/brie/AboutUs/newsroom/corporate/5g-impact-ph-education-health-entertainment/newsroom-corporate-5g-impact-sectors-primary-thumbnail-m.jpg",
      "imageDesktop": "/sites/globe.com.ph/files/content/dam/globe/brie/AboutUs/newsroom/corporate/5g-impact-ph-education-health-entertainment/newsroom-corporate-5g-impact-sectors-primary-thumbnail-d.jpg",
      "description": "5G technology has huge benefits for students, teachers to help them overcome the challenges of not being physically present in classrooms due to the pandemic.",
      "datePosted": "Nov 24, 2020 | 01:22 PM",
      "titleFromTag": "Corporate"
    },
    {
      "title": "Globe Supports Relaunch of 8888 SMS Service Platform",
      "nonclickable": false,
      "openNewTab": false,
      "borderArticle": "border-color:#0074D9;",
      "borderTopArticle": "border-top-color:#0074D9;",
      "imageListing": "/sites/globe.com.ph/files/content/dam/globe/brie/AboutUs/newsroom/common/updated/Corporate-globe-thumbnail-listing.jpg",
      "articleUrl": "https://www.globe.com.ph/about-us/newsroom/corporate/relaunch-8888-sms-service-platform.html",
      "columnType": "articles--type-3",
      "typeListing": "article",
      "imageMobile": "/sites/globe.com.ph/files/content/dam/globe/brie/AboutUs/newsroom/common/updated/Corporate-globe-primary-thumbnail-m.jpg",
      "imageDesktop": "/sites/globe.com.ph/files/content/dam/globe/brie/AboutUs/newsroom/common/updated/Corporate-globe-primary-thumbnail-d.jpg",
      "description": "The 8888 CCC receives complaints and grievances from the public daily through the 8888 phone hotline.",
      "datePosted": "Nov 24, 2020 | 12:07 PM",
      "titleFromTag": "Corporate"
    },
    {
      "title": "Globe Encourages Rainforestation to Combat Adverse Effects of Natural Hazards and Climate Change",
      "nonclickable": false,
      "openNewTab": false,
      "borderArticle": "border-color:#1C91C5;",
      "borderTopArticle": "border-top-color:#1C91C5;",
      "imageListing": "/sites/globe.com.ph/files/content/dam/globe/brie/AboutUs/newsroom/sustainability/globe-encourages-rainforestation/newsroom-sustainability-reinforestation-thumbnail-listing.jpg",
      "articleUrl": "https://www.globe.com.ph/about-us/newsroom/sustainability/globe-encourages-rainforestation.html",
      "columnType": "articles--type-3",
      "typeListing": "article",
      "imageMobile": "/sites/globe.com.ph/files/content/dam/globe/brie/AboutUs/newsroom/sustainability/globe-encourages-rainforestation/newsroom-sustainability-reinforestation-primary-thumbnail-m.jpg",
      "imageDesktop": "/sites/globe.com.ph/files/content/dam/globe/brie/AboutUs/newsroom/sustainability/globe-encourages-rainforestation/newsroom-sustainability-reinforestation-primary-thumbnail-d.jpg",
      "description": "Nature-based solutions such as rainforestation and watershed conservation play a vital role in mitigating the adverse effects of natural phenomena.",
      "datePosted": "Nov 23, 2020 | 02:53 PM",
      "titleFromTag": "Sustainability"
    },
    {
      "title": "Globe Grabs 2 Awards at International Finance 8th Annual Awards\t",
      "nonclickable": false,
      "openNewTab": false,
      "borderArticle": "border-color:#0074D9;",
      "borderTopArticle": "border-top-color:#0074D9;",
      "imageListing": "/sites/globe.com.ph/files/content/dam/globe/brie/AboutUs/newsroom/corporate/globe-grabs-2-international-finance-8th-annual-awards/newsroom-corporate-international-finance-awards-thumbnail-listing.jpg",
      "articleUrl": "https://www.globe.com.ph/about-us/newsroom/corporate/globe-grabs-2-international-finance-8th-annual-awards.html",
      "columnType": "articles--type-3",
      "typeListing": "article",
      "imageMobile": "/sites/globe.com.ph/files/content/dam/globe/brie/AboutUs/newsroom/corporate/globe-grabs-2-international-finance-8th-annual-awards/newsroom-corporate-international-finance-awards-primary-thumbnail-m.jpg",
      "imageDesktop": "/sites/globe.com.ph/files/content/dam/globe/brie/AboutUs/newsroom/corporate/globe-grabs-2-international-finance-8th-annual-awards/newsroom-corporate-international-finance-awards-primary-thumbnail-d.jpg",
      "description": "\"Globe Telecom is the only telco company in the Philippines to have won two prestigious awards at the International Finance 8th Annual Awards.\"",
      "datePosted": "Nov 23, 2020 | 11:23 AM",
      "titleFromTag": "Corporate"
    },
    {
      "title": "Globe’s New LTE Site Builds, Upgrades Boost Connectivity in 115 Barangays Nationwide",
      "nonclickable": false,
      "openNewTab": false,
      "borderArticle": "border-color:#0074D9;",
      "borderTopArticle": "border-top-color:#0074D9;",
      "imageListing": "/sites/globe.com.ph/files/content/dam/globe/brie/AboutUs/newsroom/corporate/lte-sites-boost-connectivity-barangays-nationwide/newsroom-corporate-new-lte-site-builds-thumbnail-listing.jpg",
      "articleUrl": "https://www.globe.com.ph/about-us/newsroom/corporate/lte-sites-boost-connectivity-barangays-nationwide.html",
      "columnType": "articles--type-3",
      "typeListing": "article",
      "imageMobile": "/sites/globe.com.ph/files/content/dam/globe/brie/AboutUs/newsroom/corporate/lte-sites-boost-connectivity-barangays-nationwide/newsroom-corporate-new-lte-site-builds-primary-thumbnail-m.jpg",
      "imageDesktop": "/sites/globe.com.ph/files/content/dam/globe/brie/AboutUs/newsroom/corporate/lte-sites-boost-connectivity-barangays-nationwide/newsroom-corporate-new-lte-site-builds-primary-thumbnail-d.jpg",
      "description": "LTE sites expansion improved the quality of services for Globe customers in several barangays. ",
      "datePosted": "Nov 23, 2020 | 11:03 AM",
      "titleFromTag": "Corporate"
    },
    {
      "title": "Eala Bows Out of the Las Palmas De Gran Canaria Tournament in Spain",
      "nonclickable": false,
      "openNewTab": false,
      "borderArticle": "border-color:#0074D9;",
      "borderTopArticle": "border-top-color:#0074D9;",
      "imageListing": "/sites/globe.com.ph/files/content/dam/globe/brie/AboutUs/newsroom/corporate/eala-bows-out-las-palmas-de-gran-canaria/newsroom-corporate-eala-las-palmas-thumbnail-listing.jpg",
      "articleUrl": "https://www.globe.com.ph/about-us/newsroom/corporate/eala-bows-out-las-palmas-de-gran-canaria.html",
      "columnType": "articles--type-3",
      "typeListing": "article",
      "imageMobile": "/sites/globe.com.ph/files/content/dam/globe/brie/AboutUs/newsroom/corporate/eala-bows-out-las-palmas-de-gran-canaria/newsroom-corporate-eala-las-palmas-primary-thumbnail-m.jpg",
      "imageDesktop": "/sites/globe.com.ph/files/content/dam/globe/brie/AboutUs/newsroom/corporate/eala-bows-out-las-palmas-de-gran-canaria/newsroom-corporate-eala-las-palmas-primary-thumbnail-d.jpg",
      "description": "Filipina tennis prodigy and Globe Ambassador Alex Eala failed to advance in the quarterfinals of the Las Palmas de Gran Canaria tournament in Spain after yielding to Lara Salden of Belgium in three sets.",
      "datePosted": "Nov 20, 2020 | 03:11 PM",
      "titleFromTag": "Corporate"
    },
    {
      "title": "Globe Strengthens Cloud-Based Services with Investment in Cascadeo",
      "nonclickable": false,
      "openNewTab": false,
      "borderArticle": "border-color:#0074D9;",
      "borderTopArticle": "border-top-color:#0074D9;",
      "imageListing": "/sites/globe.com.ph/files/content/dam/globe/brie/AboutUs/newsroom/business/strenghtened-cloud-based-services-cascadeo/newsroom-business-cloud-services-cascadeo-thumbnail-listing.jpg",
      "articleUrl": "https://www.globe.com.ph/about-us/newsroom/business/strenghtened-cloud-based-services-cascadeo.html",
      "columnType": "articles--type-3",
      "typeListing": "article",
      "imageMobile": "/sites/globe.com.ph/files/content/dam/globe/brie/AboutUs/newsroom/business/strenghtened-cloud-based-services-cascadeo/newsroom-business-cloud-services-cascadeo-primary-thumbnail-m.jpg",
      "imageDesktop": "/sites/globe.com.ph/files/content/dam/globe/brie/AboutUs/newsroom/business/strenghtened-cloud-based-services-cascadeo/newsroom-business-cloud-services-cascadeo-primary-thumbnail-d.jpg",
      "description": "Globe invests in the tech-driven cloud-managed services provider after signing a purchase agreement this year, transitioning their partnership since 2019.",
      "datePosted": "Nov 20, 2020 | 02:11 PM",
      "titleFromTag": "Business"
    }
  ]
}
