{
  "status": 200,
  "page": 155,
  "totalPage": 298,
  "range": "1849-1860",
  "total": 3573,
  "result": [
    {
      "title": "Full Service Restoration in Camarines Norte and Quezon",
      "nonclickable": false,
      "openNewTab": false,
      "borderArticle": "border-color:#0074D9;",
      "borderTopArticle": "border-top-color:#0074D9;",
      "imageListing": "/sites/globe.com.ph/files/content/dam/globe/brie/AboutUs/newsroom/common/default-5/corporate-default-6-thumbnail-listing.jpg",
      "articleUrl": "https://www.globe.com.ph/about-us/newsroom/corporate/full-service-restoration-camarines-norte-quezon.html",
      "columnType": "articles--type-3",
      "typeListing": "article",
      "imageMobile": "/sites/globe.com.ph/files/content/dam/globe/brie/AboutUs/newsroom/common/default-5/corporate-default-6-primary-thumbnail-m.jpg",
      "imageDesktop": "/sites/globe.com.ph/files/content/dam/globe/brie/AboutUs/newsroom/common/default-5/corporate-default-6-primary-thumbnail-d.jpg",
      "description": "Customers in these areas affected by Typhoon Ulysses may now access mobile and data services for their critical communication needs.",
      "datePosted": "Nov 20, 2020 | 11:48 AM",
      "titleFromTag": "Corporate"
    },
    {
      "title": "Globe Platinum Customers Enjoy Virtual Gardening Workshops, While Raising Homeschool Kits for World Vision",
      "nonclickable": false,
      "openNewTab": false,
      "borderArticle": "border-color:#1C91C5;",
      "borderTopArticle": "border-top-color:#1C91C5;",
      "imageListing": "/sites/globe.com.ph/files/content/dam/globe/brie/About-us/Newsroom/image/Sustainability/globe-platinum-customers-enjoy-virtual-gardening-workshops/newsroom-sustainability-homegrown-weekend-thumbnail-listing.jpg",
      "articleUrl": "https://www.globe.com.ph/about-us/newsroom/sustainability/globe-platinum-homegrown-weekend.html",
      "columnType": "articles--type-3",
      "typeListing": "article",
      "imageMobile": "/sites/globe.com.ph/files/content/dam/globe/brie/About-us/Newsroom/image/Sustainability/globe-platinum-customers-enjoy-virtual-gardening-workshops/newsroom-sustainability-homegrown-weekend-primary-thumbnail-m.jpg",
      "imageDesktop": "/sites/globe.com.ph/files/content/dam/globe/brie/About-us/Newsroom/image/Sustainability/globe-platinum-customers-enjoy-virtual-gardening-workshops/newsroom-sustainability-homegrown-weekend-primary-thumbnail-d.jpg",
      "description": "Globe Platinum customers took part in Homegrown Weekend, which raised 357 World Vision school kits for children from Baseco Compound, Manila.",
      "datePosted": "Nov 19, 2020 | 05:38 PM",
      "titleFromTag": "Sustainability"
    },
    {
      "title": "Eala Shocks Jones in Opening Round of Las Palmas Canaria Tilt",
      "nonclickable": false,
      "openNewTab": false,
      "borderArticle": "border-color:#0074D9;",
      "borderTopArticle": "border-top-color:#0074D9;",
      "imageListing": "/sites/globe.com.ph/files/content/dam/globe/brie/AboutUs/newsroom/corporate/eala-opening-round-las-palmas-canaria/newsroom-corporate-eala-opening-round-thumbnail-listing.jpg",
      "articleUrl": "https://www.globe.com.ph/about-us/newsroom/corporate/eala-opening-round-las-palmas-canaria.html",
      "columnType": "articles--type-3",
      "typeListing": "article",
      "imageMobile": "/sites/globe.com.ph/files/content/dam/globe/brie/AboutUs/newsroom/corporate/eala-opening-round-las-palmas-canaria/newsroom-corporate-eala-opening-round-primary-thumbnail-m.jpg",
      "imageDesktop": "/sites/globe.com.ph/files/content/dam/globe/brie/AboutUs/newsroom/corporate/eala-opening-round-las-palmas-canaria/newsroom-corporate-eala-opening-round-primary-thumbnail-d.jpg",
      "description": "Alex Eala stunned number 8 seed Francesca Jones of Great Britain to open her campaign in the Las Palmas de Gran Canaria in Spain on the right track.",
      "datePosted": "Nov 19, 2020 | 04:07 PM",
      "titleFromTag": "Corporate"
    },
    {
      "title": "Globe Launches Financial Care Program for Postpaid Customers",
      "nonclickable": false,
      "openNewTab": false,
      "borderArticle": "border-color:#0074D9;",
      "borderTopArticle": "border-top-color:#0074D9;",
      "imageListing": "/sites/globe.com.ph/files/content/dam/globe/brie/About-us/Newsroom/image/Consumer/globe-launches-financial-care-program-for-postpaid-customers/newsroom-consumer-financial-program-postpaid-thumbnail-listing.jpg",
      "articleUrl": "https://www.globe.com.ph/about-us/newsroom/consumer/financial-care-program-postpaid-customers.html",
      "columnType": "articles--type-3",
      "typeListing": "article",
      "imageMobile": "/sites/globe.com.ph/files/content/dam/globe/brie/About-us/Newsroom/image/Consumer/globe-launches-financial-care-program-for-postpaid-customers/newsroom-consumer-financial-program-postpaid-primary-thumbnail-m.jpg",
      "imageDesktop": "/sites/globe.com.ph/files/content/dam/globe/brie/About-us/Newsroom/image/Consumer/globe-launches-financial-care-program-for-postpaid-customers/newsroom-consumer-financial-program-postpaid-primary-thumbnail-d.jpg",
      "description": "Globe is offering its customers a financial care program that enables them to remain connected & get through livelihood challenges brought by the pandemic",
      "datePosted": "Nov 19, 2020 | 02:25 PM",
      "titleFromTag": "Consumer"
    },
    {
      "title": "Tuloy Pa Rin ang Pasko: TM FunPasko Brings the Joys of Pinoy Christmas Traditions Online",
      "nonclickable": false,
      "openNewTab": false,
      "borderArticle": "border-color:#0074D9;",
      "borderTopArticle": "border-top-color:#0074D9;",
      "imageListing": "/sites/globe.com.ph/files/content/dam/globe/brie/About-us/Newsroom/image/Consumer/11252020/newsroom-consumer-tm-funpasko-christmas-thumbnail-listing.jpg",
      "articleUrl": "https://www.globe.com.ph/about-us/newsroom/consumer/tm-funpasko-pinoy-christmas-traditions-online.html",
      "columnType": "articles--type-3",
      "typeListing": "article",
      "imageMobile": "/sites/globe.com.ph/files/content/dam/globe/brie/About-us/Newsroom/image/Consumer/11252020/newsroom-consumer-tm-funpasko-christmas-primary-thumbnail-m.jpg",
      "imageDesktop": "/sites/globe.com.ph/files/content/dam/globe/brie/About-us/Newsroom/image/Consumer/11252020/newsroom-consumer-tm-funpasko-christmas-primary-thumbnail-d.jpg",
      "description": "Awesome surprises are in store for all Ka-TMs with the TM FunPasko celebration, from November 18 to December 31.",
      "datePosted": "Nov 19, 2020 | 02:09 PM",
      "titleFromTag": "Consumer"
    },
    {
      "title": "Full Service Restoration in Camarines Sur",
      "nonclickable": false,
      "openNewTab": false,
      "borderArticle": "border-color:#0074D9;",
      "borderTopArticle": "border-top-color:#0074D9;",
      "imageListing": "/sites/globe.com.ph/files/content/dam/globe/brie/AboutUs/newsroom/corporate/service-restoration-camarines-sur/corporate-default-6-thumbnail-listing.jpg",
      "articleUrl": "https://www.globe.com.ph/about-us/newsroom/corporate/service-restoration-camarines-sur.html",
      "columnType": "articles--type-3",
      "typeListing": "article",
      "imageMobile": "/sites/globe.com.ph/files/content/dam/globe/brie/AboutUs/newsroom/corporate/service-restoration-camarines-sur/corporate-default-6-primary-thumbnail-m.jpg",
      "imageDesktop": "/sites/globe.com.ph/files/content/dam/globe/brie/AboutUs/newsroom/corporate/service-restoration-camarines-sur/corporate-default-6-primary-thumbnail-d.jpg",
      "description": "Globe has fully restored its voice, text and internet services in Camarines Sur.",
      "datePosted": "Nov 19, 2020 | 11:42 AM",
      "titleFromTag": "Corporate"
    },
    {
      "title": "Piso Para Sa #BagyoPH Victims: GMovies and UPSTREAM Raise Funds for Typhoon-Hit Communities",
      "nonclickable": false,
      "openNewTab": false,
      "borderArticle": "border-color:#1C91C5;",
      "borderTopArticle": "border-top-color:#1C91C5;",
      "imageListing": "/sites/globe.com.ph/files/content/dam/globe/brie/About-us/Newsroom/image/Sustainability/gmovies-upstream-raise-funds-typhoon-hit-communities/newsroom-sustainability-upstream-raise-funds-thumbnail-listing.jpg",
      "articleUrl": "https://www.globe.com.ph/about-us/newsroom/sustainability/gmovies-upstream-raise-funds-typhoon-hit-communities.html",
      "columnType": "articles--type-3",
      "typeListing": "article",
      "imageMobile": "/sites/globe.com.ph/files/content/dam/globe/brie/About-us/Newsroom/image/Sustainability/gmovies-upstream-raise-funds-typhoon-hit-communities/newsroom-sustainability-upstream-raise-funds-primary-thumbnail-m.jpg",
      "imageDesktop": "/sites/globe.com.ph/files/content/dam/globe/brie/About-us/Newsroom/image/Sustainability/gmovies-upstream-raise-funds-typhoon-hit-communities/newsroom-sustainability-upstream-raise-funds-primary-thumbnail-d.jpg",
      "description": "The fundraising campaign is another way to care for our fellow Filipinos while helping the pandemic-challenged film industry.",
      "datePosted": "Nov 18, 2020 | 05:38 PM",
      "titleFromTag": "Sustainability"
    },
    {
      "title": "Globe myBusiness and LEAD Philippines Partner to Bring Learning Events for Parents, Teachers and Educational Institutions",
      "nonclickable": false,
      "openNewTab": false,
      "borderArticle": "border-color:#0074D9;",
      "borderTopArticle": "border-top-color:#0074D9;",
      "imageListing": "/sites/globe.com.ph/files/content/dam/globe/brie/AboutUs/newsroom/business/globe-mybusiness-lead-philippines-partnership/newsroom-business-LEAD-philippines-partnership-thumbnail-listing.jpg",
      "articleUrl": "https://www.globe.com.ph/about-us/newsroom/business/globe-mybusiness-lead-philippines-partnership.html",
      "columnType": "articles--type-3",
      "typeListing": "article",
      "imageMobile": "/sites/globe.com.ph/files/content/dam/globe/brie/AboutUs/newsroom/business/globe-mybusiness-lead-philippines-partnership/newsroom-business-LEAD-philippines-partnership-primary-thumbnail-m.jpg",
      "imageDesktop": "/sites/globe.com.ph/files/content/dam/globe/brie/AboutUs/newsroom/business/globe-mybusiness-lead-philippines-partnership/newsroom-business-LEAD-philippines-partnership-primary-thumbnail-d.jpg",
      "description": "Globe myBusiness and LEAD Philippines presented a webinar for parents and educators on how to protect their children and students against tech's harms.",
      "datePosted": "Nov 18, 2020 | 02:00 PM",
      "titleFromTag": "Business"
    },
    {
      "title": "Keeping Customers Happy Is Key to Company Success ",
      "nonclickable": false,
      "openNewTab": false,
      "borderArticle": "border-color:#0074D9;",
      "borderTopArticle": "border-top-color:#0074D9;",
      "imageListing": "/sites/globe.com.ph/files/content/dam/globe/brie/AboutUs/newsroom/corporate/corporate-keeping-customers-happy/newsroom-corporate-keeping-customers-happy-thumbnail-listing.jpg",
      "articleUrl": "https://www.globe.com.ph/about-us/newsroom/corporate/keeping-customers-happy-key-company-success.html",
      "columnType": "articles--type-3",
      "typeListing": "article",
      "imageMobile": "/sites/globe.com.ph/files/content/dam/globe/brie/AboutUs/newsroom/corporate/corporate-keeping-customers-happy/newsroom-corporate-keeping-customers-happy-primary-thumbnail-m.jpg",
      "imageDesktop": "/sites/globe.com.ph/files/content/dam/globe/brie/AboutUs/newsroom/corporate/corporate-keeping-customers-happy/newsroom-corporate-keeping-customers-happy-primary-thumbnail-d.jpg",
      "description": "For a decade now, Globe has adopted a very customer-centric culture where the customers serve as a beacon for everything the company does. ",
      "datePosted": "Nov 18, 2020 | 11:42 AM",
      "titleFromTag": "Corporate"
    },
    {
      "title": "People’s Champ Pacquiao Donates Globe Endorsement Fee to Rolly and Ulysses Victims",
      "nonclickable": false,
      "openNewTab": false,
      "borderArticle": "border-color:#0074D9;",
      "borderTopArticle": "border-top-color:#0074D9;",
      "imageListing": "/sites/globe.com.ph/files/content/dam/globe/brie/About-us/Newsroom/image/Corporate/pacquiao-donates-globe-endorsement-fee/newsroom-corporate-pacquiao-donates-typhoon-thumbnail-listing.jpg",
      "articleUrl": "https://www.globe.com.ph/about-us/newsroom/corporate/pacquiao-donates-globe-endorsement-fee-typhoon-victims.html",
      "columnType": "articles--type-3",
      "typeListing": "article",
      "imageMobile": "/sites/globe.com.ph/files/content/dam/globe/brie/About-us/Newsroom/image/Corporate/pacquiao-donates-globe-endorsement-fee/newsroom-corporate-pacquiao-donates-typhoon-primary-thumbnail-m.jpg",
      "imageDesktop": "/sites/globe.com.ph/files/content/dam/globe/brie/About-us/Newsroom/image/Corporate/pacquiao-donates-globe-endorsement-fee/newsroom-corporate-pacquiao-donates-typhoon-primary-thumbnail-d.jpg",
      "description": "Senator and People’s Champ Manny Pacquiao announced that he is donating his Globe endorsement fees to victims of typhoons Rolly and Ulysses. ",
      "datePosted": "Nov 18, 2020 | 11:34 AM",
      "titleFromTag": "Corporate"
    },
    {
      "title": "Globe Announces “People’s Champ” Manny Pacquiao As Newest Brand Ambassador",
      "nonclickable": false,
      "openNewTab": false,
      "borderArticle": "border-color:#0074D9;",
      "borderTopArticle": "border-top-color:#0074D9;",
      "imageListing": "/sites/globe.com.ph/files/content/dam/globe/brie/AboutUs/newsroom/corporate/manny-pacquiao-newest-globe-brand-ambassador/newsroom-corporate-peoples-champ-ambassador-thumbnail-listing.jpg",
      "articleUrl": "https://www.globe.com.ph/about-us/newsroom/corporate/manny-pacquiao-newest-globe-brand-ambassador.html",
      "columnType": "articles--type-3",
      "typeListing": "article",
      "imageMobile": "/sites/globe.com.ph/files/content/dam/globe/brie/AboutUs/newsroom/corporate/manny-pacquiao-newest-globe-brand-ambassador/newsroom-corporate-peoples-champ-ambassador-primary-thumbnail-m.jpg",
      "imageDesktop": "/sites/globe.com.ph/files/content/dam/globe/brie/AboutUs/newsroom/corporate/manny-pacquiao-newest-globe-brand-ambassador/newsroom-corporate-peoples-champ-ambassador-primary-thumbnail-d.jpg",
      "description": "\"Globe and Manny share a common desire to uplift people’s lives, which makes him a fitting ambassador for us,” Ernest Cu, Globe President and CEO said.",
      "datePosted": "Nov 18, 2020 | 11:33 AM",
      "titleFromTag": "Corporate"
    },
    {
      "title": "Globe Expands 5G Coverage in 17 Cities in NCR, Visayas & Mindanao",
      "nonclickable": false,
      "openNewTab": false,
      "borderArticle": "border-color:#0074D9;",
      "borderTopArticle": "border-top-color:#0074D9;",
      "imageListing": "/sites/globe.com.ph/files/content/dam/globe/brie/AboutUs/newsroom/common/default-11/default-business-5-thumbnail-listing.jpg",
      "articleUrl": "https://www.globe.com.ph/about-us/newsroom/corporate/globe-expands-5g-coverage-17-cities.html",
      "columnType": "articles--type-3",
      "typeListing": "article",
      "imageMobile": "/sites/globe.com.ph/files/content/dam/globe/brie/AboutUs/newsroom/common/default-11/default-business-5-primary-thumbnail-m.jpg",
      "imageDesktop": "/sites/globe.com.ph/files/content/dam/globe/brie/AboutUs/newsroom/common/default-11/default-business-5-primary-thumbnail-d.jpg",
      "description": "Globe expanded its 5G coverage to 17 key cities in Metro Manila, Visayas and Mindanao, in line with its goal to improve connectivity in the Philippines.",
      "datePosted": "Nov 18, 2020 | 11:33 AM",
      "titleFromTag": "Corporate"
    }
  ]
}
