{
  "status": 200,
  "page": 156,
  "totalPage": 298,
  "range": "1861-1872",
  "total": 3573,
  "result": [
    {
      "title": "Globe Deploys More Libreng Tawag, Libreng WiFi Sites, Distributes Relief Goods for Typhoon Ulysses Victims",
      "nonclickable": false,
      "openNewTab": false,
      "borderArticle": "border-color:#0074D9;",
      "borderTopArticle": "border-top-color:#0074D9;",
      "imageListing": "/sites/globe.com.ph/files/content/dam/globe/brie/AboutUs/newsroom/corporate/libreng-tawag-libreng-wifi-relief-goods/newsroom-corporate-libreng-tawag-ulysses-thumbnail-listing.jpg",
      "articleUrl": "https://www.globe.com.ph/about-us/newsroom/corporate/libreng-tawag-libreng-wifi-relief-goods.html",
      "columnType": "articles--type-3",
      "typeListing": "article",
      "imageMobile": "/sites/globe.com.ph/files/content/dam/globe/brie/AboutUs/newsroom/corporate/libreng-tawag-libreng-wifi-relief-goods/newsroom-corporate-libreng-tawag-ulysses-primary-thumbnail-m.jpg",
      "imageDesktop": "/sites/globe.com.ph/files/content/dam/globe/brie/AboutUs/newsroom/corporate/libreng-tawag-libreng-wifi-relief-goods/newsroom-corporate-libreng-tawag-ulysses-primary-thumbnail-d.jpg",
      "description": "Globe deployed Dyip Sagip: Libreng Tawag, Libreng Charging and Libreng Wifi to more areas and distributed more meal packs to aid victims of Typhoon Ulysses.",
      "datePosted": "Nov 17, 2020 | 09:06 AM",
      "titleFromTag": "Corporate"
    },
    {
      "title": "Globe Business Virtually Paves the Way for Courageous Leadership at Lead-In 2020",
      "nonclickable": false,
      "openNewTab": false,
      "borderArticle": "border-color:#0074D9;",
      "borderTopArticle": "border-top-color:#0074D9;",
      "imageListing": "/sites/globe.com.ph/files/content/dam/globe/brie/AboutUs/newsroom/business/globe-business-virtually-paves/newsroom-business-courageous-leadership-2020-thumbnail-listing.jpg",
      "articleUrl": "https://www.globe.com.ph/about-us/newsroom/business/courageous-leadership-lead-in-2020.html",
      "columnType": "articles--type-3",
      "typeListing": "article",
      "imageMobile": "/sites/globe.com.ph/files/content/dam/globe/brie/AboutUs/newsroom/business/globe-business-virtually-paves/newsroom-business-courageous-leadership-2020-primary-thumbnail-m.jpg",
      "imageDesktop": "/sites/globe.com.ph/files/content/dam/globe/brie/AboutUs/newsroom/business/globe-business-virtually-paves/newsroom-business-courageous-leadership-2020-primary-thumbnail-d.jpg",
      "description": "Globe Business held its annual Leadership Innovation Forum (Lead-In) in virtual style, gathering business leaders and executives amid unconventional times.",
      "datePosted": "Nov 16, 2020 | 02:00 PM",
      "titleFromTag": "Business"
    },
    {
      "title": "More Filipino Homes Shift to Broadband Fiber for Faster Connectivity",
      "nonclickable": false,
      "openNewTab": false,
      "borderArticle": "border-color:#0074D9;",
      "borderTopArticle": "border-top-color:#0074D9;",
      "imageListing": "/sites/globe.com.ph/files/content/dam/globe/brie/AboutUs/newsroom/consumer/globe-5g-fixed-wireless-access-strategy-connect-ph-homes/consumer-5g-fixed-wireless-access-thumbnail-listing.jpg",
      "articleUrl": "https://www.globe.com.ph/about-us/newsroom/consumer/filipino-homes-broadband-fiber-faster-connectivity.html",
      "columnType": "articles--type-3",
      "typeListing": "article",
      "imageMobile": "/sites/globe.com.ph/files/content/dam/globe/brie/AboutUs/newsroom/consumer/globe-5g-fixed-wireless-access-strategy-connect-ph-homes/consumer-5g-fixed-wireless-access-primary-thumbnail-m.jpg",
      "imageDesktop": "/sites/globe.com.ph/files/content/dam/globe/brie/AboutUs/newsroom/consumer/globe-5g-fixed-wireless-access-strategy-connect-ph-homes/consumer-5g-fixed-wireless-access-primary-thumbnail-d.jpg",
      "description": "As of September 2020, Globe At Home has seen 183% growth in new customers who availed of broadband fiber plans compared to the same period last year.",
      "datePosted": "Nov 16, 2020 | 11:34 AM",
      "titleFromTag": "Consumer"
    },
    {
      "title": "Full Service Restoration in Bataan and Ifugao",
      "nonclickable": false,
      "openNewTab": false,
      "borderArticle": "border-color:#0074D9;",
      "borderTopArticle": "border-top-color:#0074D9;",
      "imageListing": "/sites/globe.com.ph/files/content/dam/globe/brie/AboutUs/newsroom/corporate/full-service-restoration-bataan-ifugao/newsroom-corporate-restoration-bataan-ifugao-thumbnail-listing.jpg",
      "articleUrl": "https://www.globe.com.ph/about-us/newsroom/corporate/full-service-restoration-bataan-ifugao.html",
      "columnType": "articles--type-3",
      "typeListing": "article",
      "imageMobile": "/sites/globe.com.ph/files/content/dam/globe/brie/AboutUs/newsroom/corporate/full-service-restoration-bataan-ifugao/newsroom-corporate-restoration-bataan-ifugao-primary-thumbnail-m.jpg",
      "imageDesktop": "/sites/globe.com.ph/files/content/dam/globe/brie/AboutUs/newsroom/corporate/full-service-restoration-bataan-ifugao/newsroom-corporate-restoration-bataan-ifugao-primary-thumbnail-d.jpg",
      "description": "Globe has fully restored its voice, text and internet services in Bataan and Ifugao.",
      "datePosted": "Nov 16, 2020 | 09:06 AM",
      "titleFromTag": "Corporate"
    },
    {
      "title": "Full Service Restoration in Aurora, Bulacan, Isabela, Masbate, Nueva Ecija, and Sorsogon",
      "nonclickable": false,
      "openNewTab": false,
      "borderArticle": "border-color:#0074D9;",
      "borderTopArticle": "border-top-color:#0074D9;",
      "imageListing": "/sites/globe.com.ph/files/content/dam/globe/brie/AboutUs/newsroom/common/updated/Corporate-globe-thumbnail-listing.jpg",
      "articleUrl": "https://www.globe.com.ph/about-us/newsroom/corporate/service-restoration-aurora-bulacan-isabela-masbate-nueva-ecija-sorsogon.html",
      "columnType": "articles--type-3",
      "typeListing": "article",
      "imageMobile": "/sites/globe.com.ph/files/content/dam/globe/brie/AboutUs/newsroom/common/updated/Corporate-globe-primary-thumbnail-m.jpg",
      "imageDesktop": "/sites/globe.com.ph/files/content/dam/globe/brie/AboutUs/newsroom/common/updated/Corporate-globe-primary-thumbnail-d.jpg",
      "description": "Globe has fully restored its voice, text and internet services in Aurora, Bulacan, Isabela, Masbate, Nueva Ecija, and Sorsogon.",
      "datePosted": "Nov 16, 2020 | 09:06 AM",
      "titleFromTag": "Corporate"
    },
    {
      "title": "Full Service Restoration in Kalinga Province",
      "nonclickable": false,
      "openNewTab": false,
      "borderArticle": "border-color:#0074D9;",
      "borderTopArticle": "border-top-color:#0074D9;",
      "imageListing": "/sites/globe.com.ph/files/content/dam/globe/brie/AboutUs/newsroom/common/updated/Corporate-globe-thumbnail-listing.jpg",
      "articleUrl": "https://www.globe.com.ph/about-us/newsroom/corporate/full-service-restoration-kalinga.html",
      "columnType": "articles--type-3",
      "typeListing": "article",
      "imageMobile": "/sites/globe.com.ph/files/content/dam/globe/brie/AboutUs/newsroom/common/updated/Corporate-globe-primary-thumbnail-m.jpg",
      "imageDesktop": "/sites/globe.com.ph/files/content/dam/globe/brie/AboutUs/newsroom/common/updated/Corporate-globe-primary-thumbnail-d.jpg",
      "description": "Globe has fully restored its voice, text, and internet services in Kalinga.",
      "datePosted": "Nov 14, 2020 | 04:15 PM",
      "titleFromTag": "Corporate"
    },
    {
      "title": "Full Service Restoration in Batanes, Batangas, Cavite, and Laguna",
      "nonclickable": false,
      "openNewTab": false,
      "borderArticle": "border-color:#0074D9;",
      "borderTopArticle": "border-top-color:#0074D9;",
      "imageListing": "/sites/globe.com.ph/files/content/dam/globe/brie/AboutUs/newsroom/common/updated/Corporate-globe-thumbnail-listing.jpg",
      "articleUrl": "https://www.globe.com.ph/about-us/newsroom/corporate/service-restoration-batanes-batangas-cavite-laguna.html",
      "columnType": "articles--type-3",
      "typeListing": "article",
      "imageMobile": "/sites/globe.com.ph/files/content/dam/globe/brie/AboutUs/newsroom/common/updated/Corporate-globe-primary-thumbnail-m.jpg",
      "imageDesktop": "/sites/globe.com.ph/files/content/dam/globe/brie/AboutUs/newsroom/common/updated/Corporate-globe-primary-thumbnail-d.jpg",
      "description": "Globe has fully restored its voice, text and internet services in Batanes, Batangas, Cavite, Laguna.",
      "datePosted": "Nov 14, 2020 | 03:28 PM",
      "titleFromTag": "Corporate"
    },
    {
      "title": "Over 6,000 Teachers From 146 Public Schools Receive Connectivity Support From Globe, AFI",
      "nonclickable": false,
      "openNewTab": false,
      "borderArticle": "border-color:#0074D9;",
      "borderTopArticle": "border-top-color:#0074D9;",
      "imageListing": "/sites/globe.com.ph/files/content/dam/globe/brie/AboutUs/newsroom/corporate/corporate-public-high-school-teachers/newsroom-sustainability-public-school-connectivity-thumbnail-listing.jpg",
      "articleUrl": "https://www.globe.com.ph/about-us/newsroom/corporate/public-school-teachers-connectivity-support-afi.html",
      "columnType": "articles--type-3",
      "typeListing": "article",
      "imageMobile": "/sites/globe.com.ph/files/content/dam/globe/brie/AboutUs/newsroom/corporate/corporate-public-high-school-teachers/newsroom-sustainability-public-school-connectivity-primary-thumbnail-m.jpg",
      "imageDesktop": "/sites/globe.com.ph/files/content/dam/globe/brie/AboutUs/newsroom/corporate/corporate-public-high-school-teachers/newsroom-sustainability-public-school-connectivity-primary-thumbnail-d.jpg",
      "description": "The teachers received connectivity assistance from Globe Telecom and Ayala Foundation for the delivery of distance or blended learning to the teachers  in support of the DepEd's Sulong Edukalidad Program.",
      "datePosted": "Nov 13, 2020 | 05:03 PM",
      "titleFromTag": "Corporate"
    },
    {
      "title": "Globe Network Performance Pulls Up in Opensignal Latest Report",
      "nonclickable": false,
      "openNewTab": false,
      "borderArticle": "border-color:#0074D9;",
      "borderTopArticle": "border-top-color:#0074D9;",
      "imageListing": "/sites/globe.com.ph/files/content/dam/globe/brie/AboutUs/newsroom/common/default-11/default-business-5-thumbnail-listing.jpg",
      "articleUrl": "https://www.globe.com.ph/about-us/newsroom/corporate/network-performance-improvement-opensignal-report.html",
      "columnType": "articles--type-3",
      "typeListing": "article",
      "imageMobile": "/sites/globe.com.ph/files/content/dam/globe/brie/AboutUs/newsroom/common/default-11/default-business-5-primary-thumbnail-m.jpg",
      "imageDesktop": "/sites/globe.com.ph/files/content/dam/globe/brie/AboutUs/newsroom/common/default-11/default-business-5-primary-thumbnail-d.jpg",
      "description": "Opensignal's Philippines Mobile Network Experience November 2020 report noted that Globe leads in Voice App Experience as well as Games Experience.",
      "datePosted": "Nov 13, 2020 | 02:23 PM",
      "titleFromTag": "Corporate"
    },
    {
      "title": "Globe Starts 4Q With Strong Momentum on Site Builds, Fiber to Homes in October",
      "nonclickable": false,
      "openNewTab": false,
      "borderArticle": "border-color:#0074D9;",
      "borderTopArticle": "border-top-color:#0074D9;",
      "imageListing": "/sites/globe.com.ph/files/content/dam/globe/brie/AboutUs/newsroom/common/updated/Corporate-globe-thumbnail-listing.jpg",
      "articleUrl": "https://www.globe.com.ph/about-us/newsroom/corporate/globe-starts-4q-strong-momentum.html",
      "columnType": "articles--type-3",
      "typeListing": "article",
      "imageMobile": "/sites/globe.com.ph/files/content/dam/globe/brie/AboutUs/newsroom/common/updated/Corporate-globe-primary-thumbnail-m.jpg",
      "imageDesktop": "/sites/globe.com.ph/files/content/dam/globe/brie/AboutUs/newsroom/common/updated/Corporate-globe-primary-thumbnail-d.jpg",
      "description": "Despite existing quarantine protocols and travel restrictions, Globe’s current builds remain ahead of schedule and steadily increasing for Q4 2020.",
      "datePosted": "Nov 13, 2020 | 10:29 AM",
      "titleFromTag": "Corporate"
    },
    {
      "title": "Globe Provides Free Mobile Services to Customers Hit by Typhoon Ulysses",
      "nonclickable": false,
      "openNewTab": false,
      "borderArticle": "border-color:#0074D9;",
      "borderTopArticle": "border-top-color:#0074D9;",
      "imageListing": "/sites/globe.com.ph/files/content/dam/globe/brie/AboutUs/newsroom/common/default-3/corporate-default-7-thumbnail-listing.jpg",
      "articleUrl": "https://www.globe.com.ph/about-us/newsroom/corporate/free-mobile-services-typhoon-ulysses.html",
      "columnType": "articles--type-3",
      "typeListing": "article",
      "imageMobile": "/sites/globe.com.ph/files/content/dam/globe/brie/AboutUs/newsroom/common/default-3/corporate-default-7-primary-thumbnail-m.jpg",
      "imageDesktop": "/sites/globe.com.ph/files/content/dam/globe/brie/AboutUs/newsroom/common/default-3/corporate-default-7-primary-thumbnail-d.jpg",
      "description": "Globe is supporting  its mobile customers in areas hit by Typhoon Ulysses with free mobile services.",
      "datePosted": "Nov 12, 2020 | 05:26 PM",
      "titleFromTag": "Corporate"
    },
    {
      "title": "Globe At Home Quickly Responds to Customers' Needs with Calamity Offers to More Areas Affected by Typhoons Rolly and Ulysses",
      "nonclickable": false,
      "openNewTab": false,
      "borderArticle": "border-color:#0074D9;",
      "borderTopArticle": "border-top-color:#0074D9;",
      "imageListing": "/sites/globe.com.ph/files/content/dam/globe/brie/AboutUs/newsroom/common/updated/Corporate-globe-thumbnail-listing.jpg",
      "articleUrl": "https://www.globe.com.ph/about-us/newsroom/corporate/globe-at-home-calamity-offers.html",
      "columnType": "articles--type-3",
      "typeListing": "article",
      "imageMobile": "/sites/globe.com.ph/files/content/dam/globe/brie/AboutUs/newsroom/common/updated/Corporate-globe-primary-thumbnail-m.jpg",
      "imageDesktop": "/sites/globe.com.ph/files/content/dam/globe/brie/AboutUs/newsroom/common/updated/Corporate-globe-primary-thumbnail-d.jpg",
      "description": "Globe At Home extends its offers to impacted customers in more areas affected by the twin calamities.",
      "datePosted": "Nov 12, 2020 | 04:26 PM",
      "titleFromTag": "Corporate"
    }
  ]
}
