{
  "status": 200,
  "page": 157,
  "totalPage": 298,
  "range": "1873-1884",
  "total": 3573,
  "result": [
    {
      "title": "Globe At Home Powers Digital Learning for Public Schools with WiFi2TEACH Program",
      "nonclickable": false,
      "openNewTab": false,
      "borderArticle": "border-color:#0074D9;",
      "borderTopArticle": "border-top-color:#0074D9;",
      "imageListing": "/sites/globe.com.ph/files/content/dam/globe/brie/AboutUs/newsroom/corporate/digital-learning-public-schools-wifi2teach/newsroom-corporate-gah-wifi2teach-program-thumbnail-listing.jpg",
      "articleUrl": "https://www.globe.com.ph/about-us/newsroom/corporate/digital-learning-public-schools-wifi2teach.html",
      "columnType": "articles--type-3",
      "typeListing": "article",
      "imageMobile": "/sites/globe.com.ph/files/content/dam/globe/brie/AboutUs/newsroom/corporate/digital-learning-public-schools-wifi2teach/newsroom-corporate-gah-wifi2teach-program-primary-thumbnail-m.jpg",
      "imageDesktop": "/sites/globe.com.ph/files/content/dam/globe/brie/AboutUs/newsroom/corporate/digital-learning-public-schools-wifi2teach/newsroom-corporate-gah-wifi2teach-program-primary-thumbnail-d.jpg",
      "description": "Globe At Home has begun carrying out its pledge to support public schools, by donating 2,000 modems to selected teachers.",
      "datePosted": "Nov 11, 2020 | 02:16 PM",
      "titleFromTag": "Corporate"
    },
    {
      "title": "Globe Business and UnionBank, Partners in Digital Transformation",
      "nonclickable": false,
      "openNewTab": false,
      "borderArticle": "border-color:#0074D9;",
      "borderTopArticle": "border-top-color:#0074D9;",
      "imageListing": "/sites/globe.com.ph/files/content/dam/globe/brie/AboutUs/newsroom/business/globe-business-unionbank-digital-transformation/newsroom-business-globe-unionbank-partnership-thumbnail-listing.jpg",
      "articleUrl": "https://www.globe.com.ph/about-us/newsroom/business/globe-business-unionbank-digital-transformation.html",
      "columnType": "articles--type-3",
      "typeListing": "article",
      "imageMobile": "/sites/globe.com.ph/files/content/dam/globe/brie/AboutUs/newsroom/business/globe-business-unionbank-digital-transformation/newsroom-business-globe-unionbank-partnership-primary-thumbnail-m.jpg",
      "imageDesktop": "/sites/globe.com.ph/files/content/dam/globe/brie/AboutUs/newsroom/business/globe-business-unionbank-digital-transformation/newsroom-business-globe-unionbank-partnership-primary-thumbnail-d.jpg",
      "description": "Globe supported Union Bank of the Philippines in digitizing its work from home setup through Globe Pocket WiFis, Postpaid lines, and video conferencing tools.",
      "datePosted": "Nov 11, 2020 | 01:49 PM",
      "titleFromTag": "Business"
    },
    {
      "title": "Globe Sees 4G LTE As New PH Standard for Mobile Internet",
      "nonclickable": false,
      "openNewTab": false,
      "borderArticle": "border-color:#0074D9;",
      "borderTopArticle": "border-top-color:#0074D9;",
      "imageListing": "/sites/globe.com.ph/files/content/dam/globe/brie/AboutUs/newsroom/common/default-8/default-corporate-2-thumbnail-listing.jpg",
      "articleUrl": "https://www.globe.com.ph/about-us/newsroom/corporate/4g-lte-new-ph-standard-mobile-internet.html",
      "columnType": "articles--type-3",
      "typeListing": "article",
      "imageMobile": "/sites/globe.com.ph/files/content/dam/globe/brie/AboutUs/newsroom/common/default-8/default-corporate-2-primary-thumbnail-m.jpg",
      "imageDesktop": "/sites/globe.com.ph/files/content/dam/globe/brie/AboutUs/newsroom/common/default-8/default-corporate-2-primary-thumbnail-d.jpg",
      "description": "With ongoing network upgrades, the telco’s capacity using advanced wireless networks 4G LTE, & 5G will enable Globe customers to enjoy a better data experience.",
      "datePosted": "Nov 11, 2020 | 10:42 AM",
      "titleFromTag": "Corporate"
    },
    {
      "title": "Philippine Women’s University Adopts Advanced Digital Technology from Globe for Online Learning",
      "nonclickable": false,
      "openNewTab": false,
      "borderArticle": "border-color:#0074D9;",
      "borderTopArticle": "border-top-color:#0074D9;",
      "imageListing": "/sites/globe.com.ph/files/content/dam/globe/brie/AboutUs/newsroom/business/philippine-womens-university-advanced-digital-technology/newsroom-business-pwu-digital-technology-thumbnail-listing.jpg",
      "articleUrl": "https://www.globe.com.ph/about-us/newsroom/business/philippine-womens-university-advanced-digital-technology.html",
      "columnType": "articles--type-3",
      "typeListing": "article",
      "imageMobile": "/sites/globe.com.ph/files/content/dam/globe/brie/AboutUs/newsroom/business/philippine-womens-university-advanced-digital-technology/newsroom-business-pwu-digital-technology-primary-thumbnail-m.jpg",
      "imageDesktop": "/sites/globe.com.ph/files/content/dam/globe/brie/AboutUs/newsroom/business/philippine-womens-university-advanced-digital-technology/newsroom-business-pwu-digital-technology-primary-thumbnail-d.jpg",
      "description": "PWU has partnered with Globe and acquired the integrations of G Suite Enterprise for Education to take digital learning to an advanced level. ",
      "datePosted": "Nov 10, 2020 | 04:41 PM",
      "titleFromTag": "Business"
    },
    {
      "title": "Globe Bags Seven Nominations in PANAta Awards 2020",
      "nonclickable": false,
      "openNewTab": false,
      "borderArticle": "border-color:#0074D9;",
      "borderTopArticle": "border-top-color:#0074D9;",
      "imageListing": "/sites/globe.com.ph/files/content/dam/globe/brie/AboutUs/newsroom/common/updated/Corporate-globe-thumbnail-listing.jpg",
      "articleUrl": "https://www.globe.com.ph/about-us/newsroom/corporate/seven-nominations-panata-awards-2020.html",
      "columnType": "articles--type-3",
      "typeListing": "article",
      "imageMobile": "/sites/globe.com.ph/files/content/dam/globe/brie/AboutUs/newsroom/common/updated/Corporate-globe-primary-thumbnail-m.jpg",
      "imageDesktop": "/sites/globe.com.ph/files/content/dam/globe/brie/AboutUs/newsroom/common/updated/Corporate-globe-primary-thumbnail-d.jpg",
      "description": "PANAta Awards is the premier annual recognition program for effective marketing communication materials of the Philippine Association of National Advertisers (PANA).",
      "datePosted": "Nov 10, 2020 | 01:19 PM",
      "titleFromTag": "Corporate"
    },
    {
      "title": "Full Service Restoration in Albay and Camarines Sur",
      "nonclickable": false,
      "openNewTab": false,
      "borderArticle": "border-color:#0074D9;",
      "borderTopArticle": "border-top-color:#0074D9;",
      "imageListing": "/sites/globe.com.ph/files/content/dam/globe/brie/AboutUs/newsroom/common/updated/Corporate-globe-thumbnail-listing.jpg",
      "articleUrl": "https://www.globe.com.ph/about-us/newsroom/corporate/full-service-restoration-albay-camarines-sur.html",
      "columnType": "articles--type-3",
      "typeListing": "article",
      "imageMobile": "/sites/globe.com.ph/files/content/dam/globe/brie/AboutUs/newsroom/common/updated/Corporate-globe-primary-thumbnail-m.jpg",
      "imageDesktop": "/sites/globe.com.ph/files/content/dam/globe/brie/AboutUs/newsroom/common/updated/Corporate-globe-primary-thumbnail-d.jpg",
      "description": "Globe has fully restored its voice, text and internet services in the provinces of Albay and Camarines Sur. ",
      "datePosted": "Nov 09, 2020 | 09:00 PM",
      "titleFromTag": "Corporate"
    },
    {
      "title": "Globe First to Restore Mobile and Data Services in Tiwi, Albay",
      "nonclickable": false,
      "openNewTab": false,
      "borderArticle": "border-color:#0074D9;",
      "borderTopArticle": "border-top-color:#0074D9;",
      "imageListing": "/sites/globe.com.ph/files/content/dam/globe/brie/AboutUs/newsroom/corporate/first-to-restore-mobile-data-services-tiwi-albay/newsroom-corporate-restores-data-tiwi-albay-thumbnail-listing.jpg",
      "articleUrl": "https://www.globe.com.ph/about-us/newsroom/corporate/first-to-restore-mobile-data-services-tiwi-albay.html",
      "columnType": "articles--type-3",
      "typeListing": "article",
      "imageMobile": "/sites/globe.com.ph/files/content/dam/globe/brie/AboutUs/newsroom/corporate/first-to-restore-mobile-data-services-tiwi-albay/newsroom-corporate-restores-data-tiwi-albay-primary-thumbnail-m.jpg",
      "imageDesktop": "/sites/globe.com.ph/files/content/dam/globe/brie/AboutUs/newsroom/corporate/first-to-restore-mobile-data-services-tiwi-albay/newsroom-corporate-restores-data-tiwi-albay-primary-thumbnail-d.jpg",
      "description": "The company’s network operations team has been working shifts, and trekking land and sea to ensure that mobile and data services are restored.",
      "datePosted": "Nov 09, 2020 | 05:29 PM",
      "titleFromTag": "Corporate"
    },
    {
      "title": "Globe Is the Only Telco to Give Free Data to Broadband Customers in Areas Hit by Typhoon Rolly",
      "nonclickable": false,
      "openNewTab": false,
      "borderArticle": "border-color:#0074D9;",
      "borderTopArticle": "border-top-color:#0074D9;",
      "imageListing": "/sites/globe.com.ph/files/content/dam/globe/brie/AboutUs/newsroom/common/updated/Corporate-globe-thumbnail-listing.jpg",
      "articleUrl": "https://www.globe.com.ph/about-us/newsroom/corporate/free-data-broadband-customers-typhoon-rolly.html",
      "columnType": "articles--type-3",
      "typeListing": "article",
      "imageMobile": "/sites/globe.com.ph/files/content/dam/globe/brie/AboutUs/newsroom/common/updated/Corporate-globe-primary-thumbnail-m.jpg",
      "imageDesktop": "/sites/globe.com.ph/files/content/dam/globe/brie/AboutUs/newsroom/common/updated/Corporate-globe-primary-thumbnail-d.jpg",
      "description": "\"Globe is the only telco company to provide free data to its broadband users in the typhoon-ravaged provinces of Albay, Catanduanes, and Camarines Sur.\"",
      "datePosted": "Nov 09, 2020 | 04:05 PM",
      "titleFromTag": "Corporate"
    },
    {
      "title": "Early Preps, Good Comms Key Factors in LGUs’ Disaster Resilience",
      "nonclickable": false,
      "openNewTab": false,
      "borderArticle": "border-color:#1C91C5;",
      "borderTopArticle": "border-top-color:#1C91C5;",
      "imageListing": "/sites/globe.com.ph/files/content/dam/globe/brie/AboutUs/newsroom/sustainability/key-factors-lgu-disaster-resilience/newsroom-sustainability-lgu-disaster-resilience-thumbnail-listing.jpg",
      "articleUrl": "https://www.globe.com.ph/about-us/newsroom/sustainability/key-factors-lgu-disaster-resilience.html",
      "columnType": "articles--type-3",
      "typeListing": "article",
      "imageMobile": "/sites/globe.com.ph/files/content/dam/globe/brie/AboutUs/newsroom/sustainability/key-factors-lgu-disaster-resilience/newsroom-sustainability-lgu-disaster-resilience-primary-thumbnail-m.jpg",
      "imageDesktop": "/sites/globe.com.ph/files/content/dam/globe/brie/AboutUs/newsroom/sustainability/key-factors-lgu-disaster-resilience/newsroom-sustainability-lgu-disaster-resilience-primary-thumbnail-d.jpg",
      "description": "As proven by the Albay Provincial Government, preparing early for a forthcoming typhoon or storm is effective in mitigating effects on the province.",
      "datePosted": "Nov 09, 2020 | 03:13 PM",
      "titleFromTag": "Sustainability"
    },
    {
      "title": "Increased Data Consumption Drives Globe’s Performance in the First 9 Months of 2020",
      "nonclickable": false,
      "openNewTab": false,
      "borderArticle": "border-color:#0074D9;",
      "borderTopArticle": "border-top-color:#0074D9;",
      "imageListing": "/sites/globe.com.ph/files/content/dam/globe/brie/AboutUs/newsroom/common/default-4/default-consumer-3-thumbnail-listing.jpg",
      "articleUrl": "https://www.globe.com.ph/about-us/newsroom/corporate/increased-data-consumption-drives-performance-2020.html",
      "columnType": "articles--type-3",
      "typeListing": "article",
      "imageMobile": "/sites/globe.com.ph/files/content/dam/globe/brie/AboutUs/newsroom/common/default-4/default-consumer-3-primary-thumbnail-m.jpg",
      "imageDesktop": "/sites/globe.com.ph/files/content/dam/globe/brie/AboutUs/newsroom/common/default-4/default-consumer-3-primary-thumbnail-d.jpg",
      "description": "Data-related revenues for the nine-month period made up 75% of total service revenues.",
      "datePosted": "Nov 09, 2020 | 01:49 PM",
      "titleFromTag": "Corporate"
    },
    {
      "title": "Aldersgate College, Inc. Stays Safe and Healthy in the New Normal With the Help of Globe and KonsultaMD",
      "nonclickable": false,
      "openNewTab": false,
      "borderArticle": "border-color:#0074D9;",
      "borderTopArticle": "border-top-color:#0074D9;",
      "imageListing": "/sites/globe.com.ph/files/content/dam/globe/brie/AboutUs/newsroom/business/aldersgate-college-konsultamd-partnership/newsroom-business-aldersgate-college-konsultamd-thumbnail-listing.jpg",
      "articleUrl": "https://www.globe.com.ph/about-us/newsroom/business/aldersgate-college-konsultamd-partnership.html",
      "columnType": "articles--type-3",
      "typeListing": "article",
      "imageMobile": "/sites/globe.com.ph/files/content/dam/globe/brie/AboutUs/newsroom/business/aldersgate-college-konsultamd-partnership/newsroom-business-aldersgate-college-konsultamd-primary-thumbnail-m.jpg",
      "imageDesktop": "/sites/globe.com.ph/files/content/dam/globe/brie/AboutUs/newsroom/business/aldersgate-college-konsultamd-partnership/newsroom-business-aldersgate-college-konsultamd-primary-thumbnail-d.jpg",
      "description": "Aldersgate College, Inc. has acquired a fixed budget plan for KonsultaMD through its partnership with Globe.",
      "datePosted": "Nov 06, 2020 | 04:24 PM",
      "titleFromTag": "Business"
    },
    {
      "title": "Globe Secures 250+ Permits in October to Build More Cell Towers",
      "nonclickable": false,
      "openNewTab": false,
      "borderArticle": "border-color:#0074D9;",
      "borderTopArticle": "border-top-color:#0074D9;",
      "imageListing": "/sites/globe.com.ph/files/content/dam/globe/brie/AboutUs/newsroom/corporate/secures-permits-build-more-cell-towers-nationwide/newsroom-corporate-permits-cell-towers-thumbnail-listing.jpg",
      "articleUrl": "https://www.globe.com.ph/about-us/newsroom/corporate/250-permits-october-cell-towers.html",
      "columnType": "articles--type-3",
      "typeListing": "article",
      "imageMobile": "/sites/globe.com.ph/files/content/dam/globe/brie/AboutUs/newsroom/corporate/secures-permits-build-more-cell-towers-nationwide/newsroom-corporate-permits-cell-towers-primary-thumbnail-m.jpg",
      "imageDesktop": "/sites/globe.com.ph/files/content/dam/globe/brie/AboutUs/newsroom/corporate/secures-permits-build-more-cell-towers-nationwide/newsroom-corporate-permits-cell-towers-primary-thumbnail-d.jpg",
      "description": "Globe secured at least 252 permits from local government units in order to build more cell towers in key areas of the country in the last quarter of 2020.",
      "datePosted": "Nov 06, 2020 | 04:02 PM",
      "titleFromTag": "Corporate"
    }
  ]
}
