{
  "status": 200,
  "page": 158,
  "totalPage": 298,
  "range": "1885-1896",
  "total": 3573,
  "result": [
    {
      "title": "Globe Restores Mobile and Data Services in 14 Municipalities in Albay",
      "nonclickable": false,
      "openNewTab": false,
      "borderArticle": "border-color:#0074D9;",
      "borderTopArticle": "border-top-color:#0074D9;",
      "imageListing": "/sites/globe.com.ph/files/content/dam/globe/brie/AboutUs/newsroom/corporate/globe-restores-mobile-data-services-albay/newsroom-corporate-restores-network-albay-thumbnail-listing.jpg",
      "articleUrl": "https://www.globe.com.ph/about-us/newsroom/corporate/globe-restores-mobile-data-services-albay.html",
      "columnType": "articles--type-3",
      "typeListing": "article",
      "imageMobile": "/sites/globe.com.ph/files/content/dam/globe/brie/AboutUs/newsroom/corporate/globe-restores-mobile-data-services-albay/newsroom-corporate-restores-network-albay-primary-thumbnail-m.jpg",
      "imageDesktop": "/sites/globe.com.ph/files/content/dam/globe/brie/AboutUs/newsroom/corporate/globe-restores-mobile-data-services-albay/newsroom-corporate-restores-network-albay-primary-thumbnail-d.jpg",
      "description": "Globe has successfully restored its voice, text, and internet services in 14 Municipalities in Albay.",
      "datePosted": "Nov 06, 2020 | 01:55 PM",
      "titleFromTag": "Corporate"
    },
    {
      "title": "Globe Enables Online Learning for Oriental Mindoro Students With Pre-Loaded SIM Cards",
      "nonclickable": false,
      "openNewTab": false,
      "borderArticle": "border-color:#1C91C5;",
      "borderTopArticle": "border-top-color:#1C91C5;",
      "imageListing": "/sites/globe.com.ph/files/content/dam/globe/brie/AboutUs/newsroom/sustainability/online-learning-oriental-mindoro-pre-loaded-sim/newsroom-sustainability-learning-oriental-mindoro-thumbnail-listing.jpg",
      "articleUrl": "https://www.globe.com.ph/about-us/newsroom/sustainability/online-learning-oriental-mindoro-pre-loaded-sim.html",
      "columnType": "articles--type-3",
      "typeListing": "article",
      "imageMobile": "/sites/globe.com.ph/files/content/dam/globe/brie/AboutUs/newsroom/sustainability/online-learning-oriental-mindoro-pre-loaded-sim/newsroom-sustainability-learning-oriental-mindoro-primary-thumbnail-m.jpg",
      "imageDesktop": "/sites/globe.com.ph/files/content/dam/globe/brie/AboutUs/newsroom/sustainability/online-learning-oriental-mindoro-pre-loaded-sim/newsroom-sustainability-learning-oriental-mindoro-primary-thumbnail-d.jpg",
      "description": "Globe donated at least 10,230 pre-loaded SIM cards worth P6 million to Grade 12 students of Oriental Mindoro to help ensure no student is left behind.",
      "datePosted": "Nov 06, 2020 | 01:20 PM",
      "titleFromTag": "Sustainability"
    },
    {
      "title": "Globe Forefront 2020 Presents Digital Learning and Teaching Strategies with British Council’s Graham Stanley",
      "nonclickable": false,
      "openNewTab": false,
      "borderArticle": "border-color:#0074D9;",
      "borderTopArticle": "border-top-color:#0074D9;",
      "imageListing": "/sites/globe.com.ph/files/content/dam/globe/brie/AboutUs/newsroom/business/world-teachers-day-forefront-2020/newsroom-business-teachers-day-forefront-thumbnail-listing.jpg",
      "articleUrl": "https://www.globe.com.ph/about-us/newsroom/business/world-teachers-day-forefront-2020.html",
      "columnType": "articles--type-3",
      "typeListing": "article",
      "imageMobile": "/sites/globe.com.ph/files/content/dam/globe/brie/AboutUs/newsroom/business/world-teachers-day-forefront-2020/newsroom-business-teachers-day-forefront-primary-thumbnail-m.jpg",
      "imageDesktop": "/sites/globe.com.ph/files/content/dam/globe/brie/AboutUs/newsroom/business/world-teachers-day-forefront-2020/newsroom-business-teachers-day-forefront-primary-thumbnail-d.jpg",
      "description": "Through Forefront, educators and institutionshad come together to exchange views on a variety of issues pertaining to remote learning and teaching.",
      "datePosted": "Nov 06, 2020 | 09:21 AM",
      "titleFromTag": "Business"
    },
    {
      "title": "Globe myBusiness Launches #GiftLocal Campaign to Support Local SMEs this Holiday Season",
      "nonclickable": false,
      "openNewTab": false,
      "borderArticle": "border-color:#0074D9;",
      "borderTopArticle": "border-top-color:#0074D9;",
      "imageListing": "/sites/globe.com.ph/files/content/dam/globe/brie/AboutUs/newsroom/business/gift-local-campaign-sme-holiday-season/newsroom-business-giftlocal-holiday-smes-thumbnail-listing.jpg",
      "articleUrl": "https://www.globe.com.ph/about-us/newsroom/business/gift-local-campaign-sme-holiday-season.html",
      "columnType": "articles--type-3",
      "typeListing": "article",
      "imageMobile": "/sites/globe.com.ph/files/content/dam/globe/brie/AboutUs/newsroom/business/gift-local-campaign-sme-holiday-season/newsroom-business-giftlocal-holiday-smes-primary-thumbnail-m.jpg",
      "imageDesktop": "/sites/globe.com.ph/files/content/dam/globe/brie/AboutUs/newsroom/business/gift-local-campaign-sme-holiday-season/newsroom-business-giftlocal-holiday-smes-primary-thumbnail-d.jpg",
      "description": "Globe myBusiness is holding a 3-day E-Bazaar with Lazada, happening from November 27 to 29.",
      "datePosted": "Nov 05, 2020 | 12:19 PM",
      "titleFromTag": "Business"
    },
    {
      "title": "Globe Restores Network in San Andres and Virac in Catanduanes; Bombon, Bula, Cabusao, Calabanga, Del Gallego and Lupi in Camarines Sur",
      "nonclickable": false,
      "openNewTab": false,
      "borderArticle": "border-color:#0074D9;",
      "borderTopArticle": "border-top-color:#0074D9;",
      "imageListing": "/sites/globe.com.ph/files/content/dam/globe/brie/AboutUs/newsroom/corporate/globe-restores-network-catanduanes-camarines-sur/newsroom-corporate-restores-network-camarines-thumbnail-listing.jpg",
      "articleUrl": "https://www.globe.com.ph/about-us/newsroom/corporate/globe-restores-network-catanduanes-camarines-sur.html",
      "columnType": "articles--type-3",
      "typeListing": "article",
      "imageMobile": "/sites/globe.com.ph/files/content/dam/globe/brie/AboutUs/newsroom/corporate/globe-restores-network-catanduanes-camarines-sur/newsroom-corporate-restores-network-camarines-primary-thumbnail-m.jpg",
      "imageDesktop": "/sites/globe.com.ph/files/content/dam/globe/brie/AboutUs/newsroom/corporate/globe-restores-network-catanduanes-camarines-sur/newsroom-corporate-restores-network-camarines-primary-thumbnail-d.jpg",
      "description": "All Globe cell sites in the two areas in Catanduanes and the six municipalities in Camarines Sur are now fully operational.",
      "datePosted": "Nov 04, 2020 | 04:20 PM",
      "titleFromTag": "Corporate"
    },
    {
      "title": "Globe Provides Free Unli Call, Text to All Globe Prepaid/TM Customers in Catanduanes, Albay, Camarines Sur",
      "nonclickable": false,
      "openNewTab": false,
      "borderArticle": "border-color:#0074D9;",
      "borderTopArticle": "border-top-color:#0074D9;",
      "imageListing": "/sites/globe.com.ph/files/content/dam/globe/brie/AboutUs/newsroom/consumer/free-unli-calls-texts-catanduanes-albay-camsur/newsroom-consumer-free-unli-call-thumbnail-listing.jpg",
      "articleUrl": "https://www.globe.com.ph/about-us/newsroom/consumer/free-unli-calls-texts-catanduanes-albay-camsur.html",
      "columnType": "articles--type-3",
      "typeListing": "article",
      "imageMobile": "/sites/globe.com.ph/files/content/dam/globe/brie/AboutUs/newsroom/consumer/free-unli-calls-texts-catanduanes-albay-camsur/newsroom-consumer-free-unli-call-primary-thumbnail-m.jpg",
      "imageDesktop": "/sites/globe.com.ph/files/content/dam/globe/brie/AboutUs/newsroom/consumer/free-unli-calls-texts-catanduanes-albay-camsur/newsroom-consumer-free-unli-call-primary-thumbnail-d.jpg",
      "description": "Free unlimited calls and texts to Globe/TM for three days to all Globe prepaid customers in Catanduanes, Albay, and Camarines Sur to help bridge loved ones",
      "datePosted": "Nov 04, 2020 | 03:16 PM",
      "titleFromTag": "Consumer"
    },
    {
      "title": "Globe Restores Network in NCR, Rizal, Batangas, Camarines Norte, Marinduque, Sorsogon, Samar and Western Samar",
      "nonclickable": false,
      "openNewTab": false,
      "borderArticle": "border-color:#0074D9;",
      "borderTopArticle": "border-top-color:#0074D9;",
      "imageListing": "/sites/globe.com.ph/files/content/dam/globe/brie/AboutUs/newsroom/common/default-5/corporate-default-6-thumbnail-listing.jpg",
      "articleUrl": "https://www.globe.com.ph/about-us/newsroom/corporate/globe-restores-network-typhoon-rolly.html",
      "columnType": "articles--type-3",
      "typeListing": "article",
      "imageMobile": "/sites/globe.com.ph/files/content/dam/globe/brie/AboutUs/newsroom/common/default-5/corporate-default-6-primary-thumbnail-m.jpg",
      "imageDesktop": "/sites/globe.com.ph/files/content/dam/globe/brie/AboutUs/newsroom/common/default-5/corporate-default-6-primary-thumbnail-d.jpg",
      "description": "Globe has restored its network coverage in NCR, Rizal, Batangas, Camarines Norte, Marinduque, Sorsogon, Samar and Western Samar which were heavily affected in the aftermath of Super Typhoon Rolly.",
      "datePosted": "Nov 04, 2020 | 11:01 AM",
      "titleFromTag": "Corporate"
    },
    {
      "title": "Globe Conducts Initial Relief Efforts in Typhoon-Hit Areas",
      "nonclickable": false,
      "openNewTab": false,
      "borderArticle": "border-color:#0074D9;",
      "borderTopArticle": "border-top-color:#0074D9;",
      "imageListing": "/sites/globe.com.ph/files/content/dam/globe/brie/AboutUs/newsroom/citizenship/initial-relief-efforts-typhoon-hit-areas/newsroom-citizenship-initial-relief-typhoon-thumbnail-listing.jpg",
      "articleUrl": "https://www.globe.com.ph/about-us/newsroom/citizenship/initial-relief-efforts-typhoon-hit-areas.html",
      "columnType": "articles--type-3",
      "typeListing": "article",
      "imageMobile": "/sites/globe.com.ph/files/content/dam/globe/brie/AboutUs/newsroom/citizenship/initial-relief-efforts-typhoon-hit-areas/newsroom-citizenship-initial-relief-typhoon-primary-thumbnail-m.jpg",
      "imageDesktop": "/sites/globe.com.ph/files/content/dam/globe/brie/AboutUs/newsroom/citizenship/initial-relief-efforts-typhoon-hit-areas/newsroom-citizenship-initial-relief-typhoon-primary-thumbnail-d.jpg",
      "description": "Globe has mobilized its disaster relief teams in the Bicol region following the devastating impact of typhoon Rolly to several provinces in the area.",
      "datePosted": "Nov 03, 2020 | 07:03 PM",
      "titleFromTag": "Citizenship"
    },
    {
      "title": "Overall State of PH Internet Improved Considerably in Past 2.5 Years",
      "nonclickable": false,
      "openNewTab": false,
      "borderArticle": "border-color:#0074D9;",
      "borderTopArticle": "border-top-color:#0074D9;",
      "imageListing": "/sites/globe.com.ph/files/content/dam/globe/brie/AboutUs/newsroom/common/default-10/default-consumer-2-thumbnail-listing.jpg",
      "articleUrl": "https://www.globe.com.ph/about-us/newsroom/corporate/overall-state-ph-internet-improved.html",
      "columnType": "articles--type-3",
      "typeListing": "article",
      "imageMobile": "/sites/globe.com.ph/files/content/dam/globe/brie/AboutUs/newsroom/common/default-10/default-consumer-2-primary-thumbnail-m.jpg",
      "imageDesktop": "/sites/globe.com.ph/files/content/dam/globe/brie/AboutUs/newsroom/common/default-10/default-consumer-2-primary-thumbnail-d.jpg",
      "description": "Globe Telecom refuted a World Bank report that cited 2G remains to be the dominant technology and that PH is on the wrong side of the regional “digital divide.”",
      "datePosted": "Nov 03, 2020 | 11:19 AM",
      "titleFromTag": "Corporate"
    },
    {
      "title": "Globe Posts Significant Network Improvements, Says International Analytics Firms",
      "nonclickable": false,
      "openNewTab": false,
      "borderArticle": "border-color:#0074D9;",
      "borderTopArticle": "border-top-color:#0074D9;",
      "imageListing": "/sites/globe.com.ph/files/content/dam/globe/brie/AboutUs/newsroom/common/default-2/default-business-2-thumbnail-listing.jpg",
      "articleUrl": "https://www.globe.com.ph/about-us/newsroom/corporate/significant-network-improvements.html",
      "columnType": "articles--type-3",
      "typeListing": "article",
      "imageMobile": "/sites/globe.com.ph/files/content/dam/globe/brie/AboutUs/newsroom/common/default-2/default-business-2-primary-thumbnail-m.jpg",
      "imageDesktop": "/sites/globe.com.ph/files/content/dam/globe/brie/AboutUs/newsroom/common/default-2/default-business-2-primary-thumbnail-d.jpg",
      "description": "Globe network improvements posted significant increases on various mobile experience metrics recognized by independent, international mobile analytics firms.",
      "datePosted": "Nov 02, 2020 | 01:27 PM",
      "titleFromTag": "Corporate"
    },
    {
      "title": "Monthly Active Users of Globe Self-Service Apps Increase by 250%",
      "nonclickable": false,
      "openNewTab": false,
      "borderArticle": "border-color:#0074D9;",
      "borderTopArticle": "border-top-color:#0074D9;",
      "imageListing": "/sites/globe.com.ph/files/content/dam/globe/brie/AboutUs/newsroom/common/default-6/corporate-default-8-thumbnail-listing.jpg",
      "articleUrl": "https://www.globe.com.ph/about-us/newsroom/corporate/globe-self-service-app-users-increase.html",
      "columnType": "articles--type-3",
      "typeListing": "article",
      "imageMobile": "/sites/globe.com.ph/files/content/dam/globe/brie/AboutUs/newsroom/common/default-6/corporate-default-8-primary-thumbnail-m.jpg",
      "imageDesktop": "/sites/globe.com.ph/files/content/dam/globe/brie/AboutUs/newsroom/common/default-6/corporate-default-8-primary-thumbnail-d.jpg",
      "description": "Monthly active users of Globe’s self-service apps have grown significantly in the past nine months.",
      "datePosted": "Oct 30, 2020 | 02:33 PM",
      "titleFromTag": "Corporate"
    },
    {
      "title": "Google Cloud Awards Globe Business with Premier Partner Status",
      "nonclickable": false,
      "openNewTab": false,
      "borderArticle": "border-color:#0074D9;",
      "borderTopArticle": "border-top-color:#0074D9;",
      "imageListing": "/sites/globe.com.ph/files/content/dam/globe/brie/AboutUs/newsroom/business/globe-business-google-cloud-premier-partner/newsroom-business-google-cloud-awards-thumbnail-listing.jpg",
      "articleUrl": "https://www.globe.com.ph/about-us/newsroom/business/globe-business-google-cloud-premier-partner.html",
      "columnType": "articles--type-3",
      "typeListing": "article",
      "imageMobile": "/sites/globe.com.ph/files/content/dam/globe/brie/AboutUs/newsroom/business/globe-business-google-cloud-premier-partner/newsroom-business-google-cloud-awards-primary-thumbnail-m.jpg",
      "imageDesktop": "/sites/globe.com.ph/files/content/dam/globe/brie/AboutUs/newsroom/business/globe-business-google-cloud-premier-partner/newsroom-business-google-cloud-awards-primary-thumbnail-d.jpg",
      "description": "Globe Business, the enterprise arm of Globe Telecom, announced that it gained Premier Partner status from Google Cloud.",
      "datePosted": "Oct 30, 2020 | 01:53 PM",
      "titleFromTag": "Business"
    }
  ]
}
