{
  "status": 200,
  "page": 159,
  "totalPage": 298,
  "range": "1897-1908",
  "total": 3573,
  "result": [
    {
      "title": "Globe Deploys WiFi Jeepneys to Help Communities Affected by Typhoon Quinta",
      "nonclickable": false,
      "openNewTab": false,
      "borderArticle": "border-color:#0074D9;",
      "borderTopArticle": "border-top-color:#0074D9;",
      "imageListing": "/sites/globe.com.ph/files/content/dam/globe/brie/AboutUs/newsroom/citizenship/wifi-jeepneys-help-communities-typhoon-quinta/newsroom-citizenship-wifi-jeepneys-quinta-thumbnail-listing.jpg",
      "articleUrl": "https://www.globe.com.ph/about-us/newsroom/citizenship/wifi-jeepneys-help-communities-typhoon-quinta.html",
      "columnType": "articles--type-3",
      "typeListing": "article",
      "imageMobile": "/sites/globe.com.ph/files/content/dam/globe/brie/AboutUs/newsroom/citizenship/wifi-jeepneys-help-communities-typhoon-quinta/newsroom-citizenship-wifi-jeepneys-quinta-primary-thumbnail-m.jpg",
      "imageDesktop": "/sites/globe.com.ph/files/content/dam/globe/brie/AboutUs/newsroom/citizenship/wifi-jeepneys-help-communities-typhoon-quinta/newsroom-citizenship-wifi-jeepneys-quinta-primary-thumbnail-d.jpg",
      "description": "Globe is deploying WiFi jeepneys to handle Libreng Tawag, Libreng Charging, and Libreng WiFi services in Marinduque and Oriental Mindoro.",
      "datePosted": "Oct 29, 2020 | 03:37 PM",
      "titleFromTag": "Citizenship"
    },
    {
      "title": "GCash Reigns as the No.1 Finance App in PH – App Annie Data",
      "nonclickable": false,
      "openNewTab": false,
      "borderArticle": "border-color:#0074D9;",
      "borderTopArticle": "border-top-color:#0074D9;",
      "imageListing": "/sites/globe.com.ph/files/content/dam/globe/brie/AboutUs/newsroom/917ventures/gcash-adopts-alipay-risk-technology/newsroom-917ventures-gcash-adopts-alipay-thumbnail-listing.jpg",
      "articleUrl": "https://www.globe.com.ph/about-us/newsroom/917ventures/gcash-number-one-finance-app-ph.html",
      "columnType": "articles--type-3",
      "typeListing": "article",
      "imageMobile": "/sites/globe.com.ph/files/content/dam/globe/brie/AboutUs/newsroom/917ventures/gcash-adopts-alipay-risk-technology/newsroom-917ventures-gcash-adopts-alipay-primary-thumbnail-m.jpg",
      "imageDesktop": "/sites/globe.com.ph/files/content/dam/globe/brie/AboutUs/newsroom/917ventures/gcash-adopts-alipay-risk-technology/newsroom-917ventures-gcash-adopts-alipay-primary-thumbnail-d.jpg",
      "description": "According to App Annie, GCash has recorded a breakthrough of over 10 million app downloads in just the first nine months of 2020.",
      "datePosted": "Oct 29, 2020 | 02:02 PM",
      "titleFromTag": "917Ventures"
    },
    {
      "title": "Globe Ups Investments in Fiber to the Home By 189%",
      "nonclickable": false,
      "openNewTab": false,
      "borderArticle": "border-color:#0074D9;",
      "borderTopArticle": "border-top-color:#0074D9;",
      "imageListing": "/sites/globe.com.ph/files/content/dam/globe/brie/AboutUs/newsroom/corporate/fiber-to-the-home-investments-189-percent/newsroom-corporate-investments-fiber-home-thumbnail-listing.jpg",
      "articleUrl": "https://www.globe.com.ph/about-us/newsroom/corporate/fiber-to-the-home-investments-189-percent.html",
      "columnType": "articles--type-3",
      "typeListing": "article",
      "imageMobile": "/sites/globe.com.ph/files/content/dam/globe/brie/AboutUs/newsroom/corporate/fiber-to-the-home-investments-189-percent/newsroom-corporate-investments-fiber-home-primary-thumbnail-m.jpg",
      "imageDesktop": "/sites/globe.com.ph/files/content/dam/globe/brie/AboutUs/newsroom/corporate/fiber-to-the-home-investments-189-percent/newsroom-corporate-investments-fiber-home-primary-thumbnail-d.jpg",
      "description": "As of August this year, Globe already increased its fiber rollouts by nearly 52% compared to full year 2019.",
      "datePosted": "Oct 29, 2020 | 09:17 AM",
      "titleFromTag": "Corporate"
    },
    {
      "title": "Globe Hope Bank Presents Inspiring Stories to Uplift the Spirits",
      "nonclickable": false,
      "openNewTab": false,
      "borderArticle": "border-color:#0074D9;",
      "borderTopArticle": "border-top-color:#0074D9;",
      "imageListing": "/sites/globe.com.ph/files/content/dam/globe/brie/AboutUs/newsroom/sustainability/globe-hope-bank-inspiring-stories/newsroom-business-hope-bank-stories-thumbnail-listing.jpg",
      "articleUrl": "https://www.globe.com.ph/about-us/newsroom/sustainability/globe-hope-bank-inspiring-stories.html",
      "columnType": "articles--type-3",
      "typeListing": "article",
      "imageMobile": "/sites/globe.com.ph/files/content/dam/globe/brie/AboutUs/newsroom/sustainability/globe-hope-bank-inspiring-stories/newsroom-business-hope-bank-stories-primary-thumbnail-m.jpg",
      "imageDesktop": "/sites/globe.com.ph/files/content/dam/globe/brie/AboutUs/newsroom/sustainability/globe-hope-bank-inspiring-stories/newsroom-business-hope-bank-stories-primary-thumbnail-d.jpg",
      "description": "Globe launched the Kwento ng Tagumpay campaign which features real stories of triumph against the devastating effects of the pandemic.",
      "datePosted": "Oct 28, 2020 | 03:54 PM",
      "titleFromTag": "Sustainability"
    },
    {
      "title": "Globe myBusiness Launches ‘Business Diaries’ Featuring The Henry Hotel",
      "nonclickable": false,
      "openNewTab": false,
      "borderArticle": "border-color:#0074D9;",
      "borderTopArticle": "border-top-color:#0074D9;",
      "imageListing": "/sites/globe.com.ph/files/content/dam/globe/brie/AboutUs/newsroom/business/business-diaries-the-henry-hotel/newsroom-business-diaries-henry-hotel-thumbnail-listing.jpg",
      "articleUrl": "https://www.globe.com.ph/about-us/newsroom/business/business-diaries-the-henry-hotel.html",
      "columnType": "articles--type-3",
      "typeListing": "article",
      "imageMobile": "/sites/globe.com.ph/files/content/dam/globe/brie/AboutUs/newsroom/business/business-diaries-the-henry-hotel/newsroom-business-diaries-henry-hotel-primary-thumbnail-m.jpg",
      "imageDesktop": "/sites/globe.com.ph/files/content/dam/globe/brie/AboutUs/newsroom/business/business-diaries-the-henry-hotel/newsroom-business-diaries-henry-hotel-primary-thumbnail-d.jpg",
      "description": "Join the celebration! Globe myBusiness honors tourism businesses for enhancing safety and elevating tourism with Business Diaries. Explore the journey!",
      "datePosted": "Oct 28, 2020 | 02:05 PM",
      "titleFromTag": "Business"
    },
    {
      "title": "Globe Platinum Launches Electric Studio Partnership with Exclusive Perks to Keep Customers on Track with their Fitness Goals at Home",
      "nonclickable": false,
      "openNewTab": false,
      "borderArticle": "border-color:#0074D9;",
      "borderTopArticle": "border-top-color:#0074D9;",
      "imageListing": "/sites/globe.com.ph/files/content/dam/globe/brie/AboutUs/newsroom/partners/globe-platinum-electric-studio-partnership/newsroom-partners-platinum-electric-studio-thumbnail-listing.jpg",
      "articleUrl": "https://www.globe.com.ph/about-us/newsroom/partners/globe-platinum-electric-studio-partnership.html",
      "columnType": "articles--type-3",
      "typeListing": "article",
      "imageMobile": "/sites/globe.com.ph/files/content/dam/globe/brie/AboutUs/newsroom/partners/globe-platinum-electric-studio-partnership/newsroom-partners-platinum-electric-studio-primary-thumbnail-m.jpg",
      "imageDesktop": "/sites/globe.com.ph/files/content/dam/globe/brie/AboutUs/newsroom/partners/globe-platinum-electric-studio-partnership/newsroom-partners-platinum-electric-studio-primary-thumbnail-d.jpg",
      "description": "Globe Platinum customers get an extra week of classes when they purchase any 7-day class package from October 23 to November 6.",
      "datePosted": "Oct 28, 2020 | 11:57 AM",
      "titleFromTag": "Partners"
    },
    {
      "title": "Video Streaming Experience is Better Using the Globe Network",
      "nonclickable": false,
      "openNewTab": false,
      "borderArticle": "border-color:#0074D9;",
      "borderTopArticle": "border-top-color:#0074D9;",
      "imageListing": "/sites/globe.com.ph/files/content/dam/globe/brie/AboutUs/newsroom/common/corporate-default-5/default-corporate-5-thumbnail-listing.jpg",
      "articleUrl": "https://www.globe.com.ph/about-us/newsroom/corporate/better-video-content-experience.html",
      "columnType": "articles--type-3",
      "typeListing": "article",
      "imageMobile": "/sites/globe.com.ph/files/content/dam/globe/brie/AboutUs/newsroom/common/corporate-default-5/default-corporate-5-primary-thumbnail-m.jpg",
      "imageDesktop": "/sites/globe.com.ph/files/content/dam/globe/brie/AboutUs/newsroom/common/corporate-default-5/default-corporate-5-primary-thumbnail-d.jpg",
      "description": "Globe is giving consumers something to be happy about as its network upgrades are improving, especially when it comes to the mobile video viewing experience.",
      "datePosted": "Oct 28, 2020 | 09:21 AM",
      "titleFromTag": "Corporate"
    },
    {
      "title": "Globe Virtual Hangouts Kicked Off the Road to Super Gamer Fest 2020",
      "nonclickable": false,
      "openNewTab": false,
      "borderArticle": "border-color:#0074D9;",
      "borderTopArticle": "border-top-color:#0074D9;",
      "imageListing": "/sites/globe.com.ph/files/content/dam/globe/brie/AboutUs/newsroom/consumer/virtual-hangouts-super-gamer-fest-2020/updates/newsroom-consumer-virtual-hangouts-fest-thumbnail-listing.jpg",
      "articleUrl": "https://www.globe.com.ph/about-us/newsroom/consumer/virtual-hangouts-super-gamer-fest-2020.html",
      "columnType": "articles--type-3",
      "typeListing": "article",
      "imageMobile": "/sites/globe.com.ph/files/content/dam/globe/brie/AboutUs/newsroom/consumer/virtual-hangouts-super-gamer-fest-2020/updates/newsroom-consumer-virtual-hangouts-fest-primary-thumbnail-m.jpg",
      "imageDesktop": "/sites/globe.com.ph/files/content/dam/globe/brie/AboutUs/newsroom/consumer/virtual-hangouts-super-gamer-fest-2020/updates/newsroom-consumer-virtual-hangouts-fest-primary-thumbnail-d.jpg",
      "description": "Virtual Hangouts offers four different kinds of online events catering to the Gen Z youth, and one of the most exciting is esports.",
      "datePosted": "Oct 27, 2020 | 05:35 PM",
      "titleFromTag": "Consumer"
    },
    {
      "title": "Globe Promotes Love for Local Films, Calls Stop to Digital Piracy",
      "nonclickable": false,
      "openNewTab": false,
      "borderArticle": "border-color:#0074D9;",
      "borderTopArticle": "border-top-color:#0074D9;",
      "imageListing": "/sites/globe.com.ph/files/content/dam/globe/brie/AboutUs/newsroom/partners/love-local-films-stop-digital-piracy/newsroom-partners-love-local-films-thumbnail-listing.jpg",
      "articleUrl": "https://www.globe.com.ph/about-us/newsroom/partners/love-local-films-stop-digital-piracy.html",
      "columnType": "articles--type-3",
      "typeListing": "article",
      "imageMobile": "/sites/globe.com.ph/files/content/dam/globe/brie/AboutUs/newsroom/partners/love-local-films-stop-digital-piracy/newsroom-partners-love-local-films-primary-thumbnail-m.jpg",
      "imageDesktop": "/sites/globe.com.ph/files/content/dam/globe/brie/AboutUs/newsroom/partners/love-local-films-stop-digital-piracy/newsroom-partners-love-local-films-primary-thumbnail-d.jpg",
      "description": "Globe continues to promote love for homegrown treasures such as locally-produced movies by being the exclusive presenter of the 2020 Metro Manila Film Festival.",
      "datePosted": "Oct 27, 2020 | 10:31 AM",
      "titleFromTag": "Partners"
    },
    {
      "title": "Public School Teachers Get Specialized Training from Globe",
      "nonclickable": false,
      "openNewTab": false,
      "borderArticle": "border-color:#1C91C5;",
      "borderTopArticle": "border-top-color:#1C91C5;",
      "imageListing": "/sites/globe.com.ph/files/content/dam/globe/brie/AboutUs/newsroom/sustainability/public-school-teachers-specialized-training/newsroom-sustainability-public-teacher-training-thumbnail-listing.jpg",
      "articleUrl": "https://www.globe.com.ph/about-us/newsroom/sustainability/public-school-teachers-specialized-training.html",
      "columnType": "articles--type-3",
      "typeListing": "article",
      "imageMobile": "/sites/globe.com.ph/files/content/dam/globe/brie/AboutUs/newsroom/sustainability/public-school-teachers-specialized-training/newsroom-sustainability-public-teacher-training-primary-thumbnail-m.jpg",
      "imageDesktop": "/sites/globe.com.ph/files/content/dam/globe/brie/AboutUs/newsroom/sustainability/public-school-teachers-specialized-training/newsroom-sustainability-public-teacher-training-primary-thumbnail-d.jpg",
      "description": "Globe further enhances its support to the Department of Education (DepEd) by helping public school educators keep up with the demands of the new normal.",
      "datePosted": "Oct 27, 2020 | 10:14 AM",
      "titleFromTag": "Sustainability"
    },
    {
      "title": "Globe myBusiness and Check Point Help Protect Your Business Across All Devices",
      "nonclickable": false,
      "openNewTab": false,
      "borderArticle": "border-color:#0074D9;",
      "borderTopArticle": "border-top-color:#0074D9;",
      "imageListing": "/sites/globe.com.ph/files/content/dam/globe/brie/AboutUs/newsroom/business/check-point-help-protect-business-all-devices/newsroom-business-check-point-devices-thumbnail-listing.jpg",
      "articleUrl": "https://www.globe.com.ph/about-us/newsroom/business/check-point-help-protect-business-all-devices.html",
      "columnType": "articles--type-3",
      "typeListing": "article",
      "imageMobile": "/sites/globe.com.ph/files/content/dam/globe/brie/AboutUs/newsroom/business/check-point-help-protect-business-all-devices/newsroom-business-check-point-devices-primary-thumbnail-m.jpg",
      "imageDesktop": "/sites/globe.com.ph/files/content/dam/globe/brie/AboutUs/newsroom/business/check-point-help-protect-business-all-devices/newsroom-business-check-point-devices-primary-thumbnail-d.jpg",
      "description": "Globe myBusiness has partnered with Check Point to provide customers the best in endpoint and cloud security for team’s mobiles, desktops, and cloud networks.",
      "datePosted": "Oct 26, 2020 | 12:10 PM",
      "titleFromTag": "Business"
    },
    {
      "title": "Globe Partners With MMDA to Bring the Christmas Tradition of MMFF to Filipino Homes via Upstream",
      "nonclickable": false,
      "openNewTab": false,
      "borderArticle": "border-color:#0074D9;",
      "borderTopArticle": "border-top-color:#0074D9;",
      "imageListing": "/sites/globe.com.ph/files/content/dam/globe/brie/AboutUs/newsroom/corporate/globe-mmda-bring-mmff-upstream/newsroom-corporate-mmda-mmff-upstream-thumbnail-listing.jpg",
      "articleUrl": "https://www.globe.com.ph/about-us/newsroom/corporate/globe-mmda-bring-mmff-upstream.html",
      "columnType": "articles--type-3",
      "typeListing": "article",
      "imageMobile": "/sites/globe.com.ph/files/content/dam/globe/brie/AboutUs/newsroom/corporate/globe-mmda-bring-mmff-upstream/newsroom-corporate-mmda-mmff-upstream-primary-thumbnail-m.jpg",
      "imageDesktop": "/sites/globe.com.ph/files/content/dam/globe/brie/AboutUs/newsroom/corporate/globe-mmda-bring-mmff-upstream/newsroom-corporate-mmda-mmff-upstream-primary-thumbnail-d.jpg",
      "description": "MMDA has inked a partnership with Globe Telecom as the exclusive presenter for this year’s MMFF.",
      "datePosted": "Oct 26, 2020 | 11:21 AM",
      "titleFromTag": "Corporate"
    }
  ]
}
