{
  "status": 200,
  "page": 16,
  "totalPage": 298,
  "range": "181-192",
  "total": 3573,
  "result": [
    {
      "title": "Globe Reports 746 Cable Theft Incidents from Jan-May 2023, 1,600 Customers Affected by Connectivity Disruptions",
      "nonclickable": false,
      "openNewTab": false,
      "borderArticle": "border-color:#1C91C5;",
      "borderTopArticle": "border-top-color:#1C91C5;",
      "imageListing": "/sites/globe.com.ph/files/content/dam/globe/brie/AboutUs/newsroom/corporate/globe-completes-sites-upgrades/corporate-default-6-thumbnail-listing.jpg",
      "articleUrl": "https://www.globe.com.ph/about-us/newsroom/corporate/746-cable-theft-incidents-jan-may-2023.html",
      "columnType": "articles--type-3",
      "typeListing": "article",
      "imageMobile": "/sites/globe.com.ph/files/content/dam/globe/brie/AboutUs/newsroom/corporate/globe-completes-sites-upgrades/corporate-default-6-primary-thumbnail-m.jpg",
      "imageDesktop": "/sites/globe.com.ph/files/content/dam/globe/brie/AboutUs/newsroom/corporate/globe-completes-sites-upgrades/corporate-default-6-primary-thumbnail-d.jpg",
      "description": "Globe recorded 746 incidents of cable theft in the first five months of the year, affecting at least 1,600 customers who experienced connectivity issues.",
      "datePosted": "Aug 02, 2023 | 09:44 AM",
      "titleFromTag": "Corporate"
    },
    {
      "title": "Globe Business Showcases Cybersecurity Solutions in Immersive 'CyberHeist 2023’",
      "nonclickable": false,
      "openNewTab": false,
      "borderArticle": "border-color:#0074D9;",
      "borderTopArticle": "border-top-color:#0074D9;",
      "imageListing": "/sites/globe.com.ph/files/content/dam/globe/brie/AboutUs/newsroom/business/cybersecurity-solutions-immersive-cyberheist-2023/eg-cyberheist-thumbnail-listing.jpg",
      "articleUrl": "https://www.globe.com.ph/about-us/newsroom/business/cybersecurity-solutions-cyberheist-2023.html",
      "columnType": "articles--type-3",
      "typeListing": "article",
      "imageMobile": "/sites/globe.com.ph/files/content/dam/globe/brie/AboutUs/newsroom/business/cybersecurity-solutions-immersive-cyberheist-2023/eg-cyberheist-primary-thumbnail-m.jpg",
      "imageDesktop": "/sites/globe.com.ph/files/content/dam/globe/brie/AboutUs/newsroom/business/cybersecurity-solutions-immersive-cyberheist-2023/eg-cyberheist-primary-thumbnail-d.jpg",
      "description": "Globe Business opened \"CyberHeist 2023” activity that highlights cybersecurity.",
      "datePosted": "Aug 02, 2023 | 09:07 AM",
      "titleFromTag": "Business"
    },
    {
      "title": "Globe Business Masterclass for Microfinance: Digital Marketing is Key to Reaching Larger Audiences",
      "nonclickable": false,
      "openNewTab": false,
      "borderArticle": "border-color:#0074D9;",
      "borderTopArticle": "border-top-color:#0074D9;",
      "imageListing": "/sites/globe.com.ph/files/content/dam/globe/brie/AboutUs/newsroom/business/globe-business-masterclass-for-microfinance/sg-default-images-thumbnail-listing.jpg",
      "articleUrl": "https://www.globe.com.ph/about-us/newsroom/business/masterclass-microfinance.html",
      "columnType": "articles--type-3",
      "typeListing": "article",
      "imageMobile": "/sites/globe.com.ph/files/content/dam/globe/brie/AboutUs/newsroom/business/globe-business-masterclass-for-microfinance/sg-default-images-primary-thumbnail-m.jpg",
      "imageDesktop": "/sites/globe.com.ph/files/content/dam/globe/brie/AboutUs/newsroom/business/globe-business-masterclass-for-microfinance/sg-default-images-primary-thumbnail-d.jpg",
      "description": "Globe Business launch webinar to help strengthen microfinance institutions through digital marketing.",
      "datePosted": "Aug 01, 2023 | 11:52 AM",
      "titleFromTag": "Business"
    },
    {
      "title": "Globe Business Aims to Strengthen the IT-BPM Sector with New Digital Masterclass Series",
      "nonclickable": false,
      "openNewTab": false,
      "borderArticle": "border-color:#0074D9;",
      "borderTopArticle": "border-top-color:#0074D9;",
      "imageListing": "/sites/globe.com.ph/files/content/dam/globe/brie/AboutUs/newsroom/common/default-corporate-tech-3/newsroom-corporate-tech-3-thumbnail-listing.jpg",
      "articleUrl": "https://www.globe.com.ph/about-us/newsroom/business/strengthen-it-bpm-sector.html",
      "columnType": "articles--type-3",
      "typeListing": "article",
      "imageMobile": "/sites/globe.com.ph/files/content/dam/globe/brie/AboutUs/newsroom/common/default-corporate-tech-3/newsroom-corporate-tech-3-primary-thumbnail-m.jpg",
      "imageDesktop": "/sites/globe.com.ph/files/content/dam/globe/brie/AboutUs/newsroom/common/default-corporate-tech-3/newsroom-corporate-tech-3-primary-thumbnail-d.jpg",
      "description": "Globe Business launch webinar to help strengthen the IT-BPM Sector in the Philippines.",
      "datePosted": "Aug 01, 2023 | 09:34 AM",
      "titleFromTag": "Business"
    },
    {
      "title": "PhilTower Announces Full Operation of 250 VisMin Towers Turned Over by Globe",
      "nonclickable": false,
      "openNewTab": false,
      "borderArticle": "border-color:#0074D9;",
      "borderTopArticle": "border-top-color:#0074D9;",
      "imageListing": "/sites/globe.com.ph/files/content/dam/globe/brie/AboutUs/newsroom/common/default-corporate-main/newsroom-default-corporate-thumbnail-listing.jpg",
      "articleUrl": "https://www.globe.com.ph/about-us/newsroom/corporate/philtower-full-operation-250-vismin-towers.html",
      "columnType": "articles--type-3",
      "typeListing": "article",
      "imageMobile": "/sites/globe.com.ph/files/content/dam/globe/brie/AboutUs/newsroom/common/default-corporate-main/newsroom-default-corporate-primary-thumbnail-m.jpg",
      "imageDesktop": "/sites/globe.com.ph/files/content/dam/globe/brie/AboutUs/newsroom/common/default-corporate-main/newsroom-default-corporate-primary-thumbnail-d.jpg",
      "description": "PhilTower, the country’s leading Towerco, has announced full operation of towers taken over from Globe in February 2023, scoring a quick turnaround.",
      "datePosted": "Jul 31, 2023 | 01:53 PM",
      "titleFromTag": "Corporate"
    },
    {
      "title": "Drawing a Better Future: Kwentoon Joins Globe’s The Hapag Movement to Boost Local Talent and Combat Hunger",
      "nonclickable": false,
      "openNewTab": false,
      "borderArticle": "border-color:#0074D9;",
      "borderTopArticle": "border-top-color:#0074D9;",
      "imageListing": "/sites/globe.com.ph/files/content/dam/globe/brie/AboutUs/newsroom/common/default-prepaid-gen-z-mobile/thumbnail-listing.jpg",
      "articleUrl": "https://www.globe.com.ph/about-us/newsroom/sustainability/kwentoon-joins-the-hapag-movement.html",
      "columnType": "articles--type-3",
      "typeListing": "article",
      "imageMobile": "/sites/globe.com.ph/files/content/dam/globe/brie/AboutUs/newsroom/common/default-prepaid-gen-z-mobile/primary-thumbnail-m.jpg",
      "imageDesktop": "/sites/globe.com.ph/files/content/dam/globe/brie/AboutUs/newsroom/common/default-prepaid-gen-z-mobile/primary-thumbnail-d.jpg",
      "description": "Kwentoon, a Philippine start-up connecting young audiences to selected visual content, teamed up with The Hapag Movement to help address involuntary hunger.",
      "datePosted": "Jul 31, 2023 | 11:24 AM",
      "titleFromTag": "Sustainability"
    },
    {
      "title": "Globe Initiates Typhoon Relief, Provides Connectivity Support in Egay-Hit Areas",
      "nonclickable": false,
      "openNewTab": false,
      "borderArticle": "border-color:#0074D9;",
      "borderTopArticle": "border-top-color:#0074D9;",
      "imageListing": "/sites/globe.com.ph/files/content/dam/globe/brie/AboutUs/newsroom/common/default-sustainability-4/sustainability-listing-thumbnail.jpg",
      "articleUrl": "https://www.globe.com.ph/about-us/newsroom/sustainability/connectivity-support-egay-hit-areas.html",
      "columnType": "articles--type-3",
      "typeListing": "article",
      "imageMobile": "/sites/globe.com.ph/files/content/dam/globe/brie/AboutUs/newsroom/common/default-sustainability-4/sustainability-primary-banner-m.jpg",
      "imageDesktop": "/sites/globe.com.ph/files/content/dam/globe/brie/AboutUs/newsroom/common/default-sustainability-4/sustainability-primary-thumbnail.jpg",
      "description": "Globe has deployed connectivity support in Northern Luzon areas affected by Typhoon Egay, including call, charging, and wifi booths and free mobile services. ",
      "datePosted": "Jul 31, 2023 | 11:21 AM",
      "titleFromTag": "Sustainability"
    },
    {
      "title": "KonsultaMD, Etiqa Philippines Partner Up to Make Digital Health More Accessible to Filipinos",
      "nonclickable": false,
      "openNewTab": false,
      "borderArticle": "border-color:#0074D9;",
      "borderTopArticle": "border-top-color:#0074D9;",
      "imageListing": "/sites/globe.com.ph/files/content/dam/globe/brie/AboutUs/newsroom/corporate/konsultamd-etiqa-philippines-partner-up/thumbnail-listing.jpg",
      "articleUrl": "https://www.globe.com.ph/about-us/newsroom/corporate/konsultamd-etiqa-ph-make-digital-health-more-accessible-filipinos.html",
      "columnType": "articles--type-3",
      "typeListing": "article",
      "imageMobile": "/sites/globe.com.ph/files/content/dam/globe/brie/AboutUs/newsroom/corporate/konsultamd-etiqa-philippines-partner-up/primary-thumbnail-m.jpg",
      "imageDesktop": "/sites/globe.com.ph/files/content/dam/globe/brie/AboutUs/newsroom/corporate/konsultamd-etiqa-philippines-partner-up/primary-thumbnail-d.jpg",
      "description": "Etiqa Philippines, in collaboration with KonsultaMD enhances digital health access for Filipinos by allowing Etiqa members to avail free consultations. ",
      "datePosted": "Jul 31, 2023 | 11:20 AM",
      "titleFromTag": "Corporate"
    },
    {
      "title": "Velocity 2023: 917Ventures Fuels Innovation and Collaboration to Transform Lives",
      "nonclickable": false,
      "openNewTab": false,
      "borderArticle": "border-color:#0074D9;",
      "borderTopArticle": "border-top-color:#0074D9;",
      "imageListing": "/sites/globe.com.ph/files/content/dam/globe/brie/AboutUs/newsroom/corporate/917ventures-fuels-innovation-and-collaboration-to-transform-lives/corp-thumbnail-listing.jpg",
      "articleUrl": "https://www.globe.com.ph/about-us/newsroom/corporate/917ventures-fuels-innovation-collaboration-transform-lives.html",
      "columnType": "articles--type-3",
      "typeListing": "article",
      "imageMobile": "/sites/globe.com.ph/files/content/dam/globe/brie/AboutUs/newsroom/corporate/917ventures-fuels-innovation-and-collaboration-to-transform-lives/primary-thumbnail-m.jpg",
      "imageDesktop": "/sites/globe.com.ph/files/content/dam/globe/brie/AboutUs/newsroom/corporate/917ventures-fuels-innovation-and-collaboration-to-transform-lives/corp-primary-thumbnail-d.jpg",
      "description": "917Ventures once again demonstrated its commitment to fostering innovation, collaboration, and entrepreneurship with the recent completion of Velocity 2023.",
      "datePosted": "Jul 27, 2023 | 01:33 PM",
      "titleFromTag": "Corporate"
    },
    {
      "title": "Globe, ATIN Global Bring Piece of Sistine Chapel to Globe Headquarters",
      "nonclickable": false,
      "openNewTab": false,
      "borderArticle": "border-color:#0074D9;",
      "borderTopArticle": "border-top-color:#0074D9;",
      "imageListing": "/sites/globe.com.ph/files/content/dam/globe/brie/AboutUs/newsroom/sustainability/atin-global-bring-piece-of-sistine-chapel-to-globe-headquarters/corp-michel-angelo-sistine-chapel-thumbnail-listing.jpg",
      "articleUrl": "https://www.globe.com.ph/about-us/newsroom/sustainability/piece-of-sistine-chapel-globe-headquarters.html",
      "columnType": "articles--type-3",
      "typeListing": "article",
      "imageMobile": "/sites/globe.com.ph/files/content/dam/globe/brie/AboutUs/newsroom/sustainability/atin-global-bring-piece-of-sistine-chapel-to-globe-headquarters/corp-michel-angelo-sistine-chapel-primary-thumbnail-m.jpg",
      "imageDesktop": "/sites/globe.com.ph/files/content/dam/globe/brie/AboutUs/newsroom/sustainability/atin-global-bring-piece-of-sistine-chapel-to-globe-headquarters/corp-michel-angelo-sistine-chapel-primary-thumbnail-d.jpg",
      "description": "The Globe Tower is now host to a breathtaking reproduction of Michelangelo’s renowned fresco, “The Last Judgment,” from the iconic Sistine Chapel.",
      "datePosted": "Jul 27, 2023 | 01:32 PM",
      "titleFromTag": "Sustainability"
    },
    {
      "title": "Globe's Marisalve Ciocson-Co is in Legal 500 GC Powerlist Southeast Asia",
      "nonclickable": false,
      "openNewTab": false,
      "borderArticle": "border-color:#0074D9;",
      "borderTopArticle": "border-top-color:#0074D9;",
      "imageListing": "/sites/globe.com.ph/files/content/dam/globe/brie/AboutUs/newsroom/corporate/marisalve-ciocson-co-in-legal-500-gc-powerlist-southeast-asia/corp-marisalve-c-thumbnail-listing.jpg",
      "articleUrl": "https://www.globe.com.ph/about-us/newsroom/corporate/marisalve-ciocson-co-in-legal-500-gc-powerlist-southeast-asia.html",
      "columnType": "articles--type-3",
      "typeListing": "article",
      "imageMobile": "/sites/globe.com.ph/files/content/dam/globe/brie/AboutUs/newsroom/corporate/marisalve-ciocson-co-in-legal-500-gc-powerlist-southeast-asia/corp-marisalve-c-primary-thumbnail-m.jpg",
      "imageDesktop": "/sites/globe.com.ph/files/content/dam/globe/brie/AboutUs/newsroom/corporate/marisalve-ciocson-co-in-legal-500-gc-powerlist-southeast-asia/corp-marisalve-c-primary-thumbnail-d.jpg",
      "description": "Globe’s Chief Compliance Officer Marisalve Ciocson-Co has been included in the Legal 500’s GC Powerlist Southeast Asia.",
      "datePosted": "Jul 26, 2023 | 05:17 PM",
      "titleFromTag": "Corporate"
    },
    {
      "title": "Globe Lauds President’s Tech-Driven Vision Outlined in SONA, Vows Support with Innovative Solutions",
      "nonclickable": false,
      "openNewTab": false,
      "borderArticle": "border-color:#0074D9;",
      "borderTopArticle": "border-top-color:#0074D9;",
      "imageListing": "/sites/globe.com.ph/files/content/dam/globe/brie/AboutUs/newsroom/common/corporate-default-image-1/corp-thumbnail-listing.jpg",
      "articleUrl": "https://www.globe.com.ph/about-us/newsroom/corporate/globe-lauds-presidents-tech-driven-vision-sona.html",
      "columnType": "articles--type-3",
      "typeListing": "article",
      "imageMobile": "/sites/globe.com.ph/files/content/dam/globe/brie/AboutUs/newsroom/common/corporate-default-image-1/corp-primary-thumbnail-m.jpg",
      "imageDesktop": "/sites/globe.com.ph/files/content/dam/globe/brie/AboutUs/newsroom/common/corporate-default-image-1/corp-primary-thumbnail-d.jpg",
      "description": "Globe applauds President Ferdinand Marcos Jr.'s strong emphasis on digital transformation as a cornerstone of national progress in his second SONA.",
      "datePosted": "Jul 26, 2023 | 05:16 PM",
      "titleFromTag": "Corporate"
    }
  ]
}
