{
  "status": 200,
  "page": 160,
  "totalPage": 298,
  "range": "1909-1920",
  "total": 3573,
  "result": [
    {
      "title": "140 Municipalities, Cities Experience Better Connectivity With Globe’s 4G LTE Upgrades",
      "nonclickable": false,
      "openNewTab": false,
      "borderArticle": "border-color:#0074D9;",
      "borderTopArticle": "border-top-color:#0074D9;",
      "imageListing": "/sites/globe.com.ph/files/content/dam/globe/brie/AboutUs/newsroom/common/default-11/default-business-5-thumbnail-listing.jpg",
      "articleUrl": "https://www.globe.com.ph/about-us/newsroom/corporate/140-municipalities-cities-4g-lte-upgrades.html",
      "columnType": "articles--type-3",
      "typeListing": "article",
      "imageMobile": "/sites/globe.com.ph/files/content/dam/globe/brie/AboutUs/newsroom/common/default-11/default-business-5-primary-thumbnail-m.jpg",
      "imageDesktop": "/sites/globe.com.ph/files/content/dam/globe/brie/AboutUs/newsroom/common/default-11/default-business-5-primary-thumbnail-d.jpg",
      "description": "Globe’s aggressive network upgrades are beginning to yield results in better customer experience in at least 140 municipalities and cities recently.",
      "datePosted": "Oct 26, 2020 | 10:01 AM",
      "titleFromTag": "Corporate"
    },
    {
      "title": "Rotary Club of Diliman Fosters Service Above Self With Globe Partnership",
      "nonclickable": false,
      "openNewTab": false,
      "borderArticle": "border-color:#0074D9;",
      "borderTopArticle": "border-top-color:#0074D9;",
      "imageListing": "/sites/globe.com.ph/files/content/dam/globe/brie/AboutUs/newsroom/business/rotary-club-of-diliman-partners-with-globe/newsroom-business-rotary-club-diliman-thumbnail-listing.jpg",
      "articleUrl": "https://www.globe.com.ph/about-us/newsroom/business/rotary-club-of-diliman-partners-with-globe.html",
      "columnType": "articles--type-3",
      "typeListing": "article",
      "imageMobile": "/sites/globe.com.ph/files/content/dam/globe/brie/AboutUs/newsroom/business/rotary-club-of-diliman-partners-with-globe/newsroom-business-rotary-club-diliman-primary-thumbnail-m.jpg",
      "imageDesktop": "/sites/globe.com.ph/files/content/dam/globe/brie/AboutUs/newsroom/business/rotary-club-of-diliman-partners-with-globe/newsroom-business-rotary-club-diliman-primary-thumbnail-d.jpg",
      "description": "The Rotary Club of Diliman has partnered with Globe in providing Prepaid WiFi kits to teachers in Quezon City to enable online education.",
      "datePosted": "Oct 23, 2020 | 04:40 PM",
      "titleFromTag": "Business"
    },
    {
      "title": "Globe Introduces Mobile Health Solution with GoHealth",
      "nonclickable": false,
      "openNewTab": false,
      "borderArticle": "border-color:#0074D9;",
      "borderTopArticle": "border-top-color:#0074D9;",
      "imageListing": "/sites/globe.com.ph/files/content/dam/globe/brie/AboutUs/newsroom/consumer/globe-introduces-mobile-health-solution-gohealth/newsroom-consumer-mobile-health-solution-thumbnail-listing.jpg",
      "articleUrl": "https://www.globe.com.ph/about-us/newsroom/consumer/globe-introduces-mobile-health-solution-gohealth.html",
      "columnType": "articles--type-3",
      "typeListing": "article",
      "imageMobile": "/sites/globe.com.ph/files/content/dam/globe/brie/AboutUs/newsroom/consumer/globe-introduces-mobile-health-solution-gohealth/newsroom-consumer-mobile-health-solution-primary-thumbnail-m.jpg",
      "imageDesktop": "/sites/globe.com.ph/files/content/dam/globe/brie/AboutUs/newsroom/consumer/globe-introduces-mobile-health-solution-gohealth/newsroom-consumer-mobile-health-solution-primary-thumbnail-d.jpg",
      "description": "Globe has partnered with insurance provider Pacific Cross and telemedicine service KonsultaMD to bring GoHealth.",
      "datePosted": "Oct 23, 2020 | 04:33 PM",
      "titleFromTag": "Consumer"
    },
    {
      "title": "Globe Bags Best Corporate Governance – Asia 2019 Award for Telecoms",
      "nonclickable": false,
      "openNewTab": false,
      "borderArticle": "border-color:#0074D9;",
      "borderTopArticle": "border-top-color:#0074D9;",
      "imageListing": "/sites/globe.com.ph/files/content/dam/globe/brie/AboutUs/newsroom/corporate/best-corporate-governance-asia-2019-award-for-telecoms/newsroom-corporate-best-corporate-governance-thumbnail-listing.jpg",
      "articleUrl": "https://www.globe.com.ph/about-us/newsroom/corporate/best-corporate-governance-asia-2019-award-for-telecoms.html",
      "columnType": "articles--type-3",
      "typeListing": "article",
      "imageMobile": "/sites/globe.com.ph/files/content/dam/globe/brie/AboutUs/newsroom/corporate/best-corporate-governance-asia-2019-award-for-telecoms/newsroom-corporate-best-corporate-governance-primary-thumbnail-m.jpg",
      "imageDesktop": "/sites/globe.com.ph/files/content/dam/globe/brie/AboutUs/newsroom/corporate/best-corporate-governance-asia-2019-award-for-telecoms/newsroom-corporate-best-corporate-governance-primary-thumbnail-d.jpg",
      "description": "Globe Telecom was recently awarded the “Best Corporate Governance - Telecoms - Asia 2019” from London’s Ethical Boardroom.",
      "datePosted": "Oct 23, 2020 | 04:25 PM",
      "titleFromTag": "Corporate"
    },
    {
      "title": "Globe myBusiness and the Metro Naga Chamber of Commerce Co-Sponsor Bicol Business Month",
      "nonclickable": false,
      "openNewTab": false,
      "borderArticle": "border-color:#0074D9;",
      "borderTopArticle": "border-top-color:#0074D9;",
      "imageListing": "/sites/globe.com.ph/files/content/dam/globe/brie/AboutUs/newsroom/common/default-12/default-corporate-1-thumbnail-listing.jpg",
      "articleUrl": "https://www.globe.com.ph/about-us/newsroom/business/globe-mybusiness-metro-naga-chamber-of-commerce-launch-webinars.html",
      "columnType": "articles--type-3",
      "typeListing": "article",
      "imageMobile": "/sites/globe.com.ph/files/content/dam/globe/brie/AboutUs/newsroom/common/default-12/default-corporate-1-primary-thumbnail-m.jpg",
      "imageDesktop": "/sites/globe.com.ph/files/content/dam/globe/brie/AboutUs/newsroom/common/default-12/default-corporate-1-primary-thumbnail-d.jpg",
      "description": "Globe myBusiness and Bicol’s local government launch webinars to help SMEs that are struggling to navigate the New Normal.",
      "datePosted": "Oct 23, 2020 | 10:02 AM",
      "titleFromTag": "Business"
    },
    {
      "title": "Vic Imperial Appliance Corporation Embraces Automation With the Help of Globe myBusiness",
      "nonclickable": false,
      "openNewTab": false,
      "borderArticle": "border-color:#0074D9;",
      "borderTopArticle": "border-top-color:#0074D9;",
      "imageListing": "/sites/globe.com.ph/files/content/dam/globe/brie/AboutUs/newsroom/business/vic-imperial-appliance-corporation-embraces-automation/newsroom-business-vic-imperial-appliance-thumbnail-listing.jpg",
      "articleUrl": "https://www.globe.com.ph/about-us/newsroom/business/vic-imperial-appliance-corporation-embraces-automation.html",
      "columnType": "articles--type-3",
      "typeListing": "article",
      "imageMobile": "/sites/globe.com.ph/files/content/dam/globe/brie/AboutUs/newsroom/business/vic-imperial-appliance-corporation-embraces-automation/newsroom-business-vic-imperial-appliance-primary-thumbnail-m.jpg",
      "imageDesktop": "/sites/globe.com.ph/files/content/dam/globe/brie/AboutUs/newsroom/business/vic-imperial-appliance-corporation-embraces-automation/newsroom-business-vic-imperial-appliance-primary-thumbnail-d.jpg",
      "description": "Vic Imperial Appliance Corporation (Imperial Appliance Plaza) has partnered with Globe by acquiring Corporate Management Solutions (CMS), with the aim of transforming and automating its processes.",
      "datePosted": "Oct 23, 2020 | 09:38 AM",
      "titleFromTag": "Business"
    },
    {
      "title": "Colegio De San Jose Adapts Virtual Learning in the New Normal in Partnership With Globe",
      "nonclickable": false,
      "openNewTab": false,
      "borderArticle": "border-color:#0074D9;",
      "borderTopArticle": "border-top-color:#0074D9;",
      "imageListing": "/sites/globe.com.ph/files/content/dam/globe/brie/AboutUs/newsroom/business/colegio-de-san-jose-adapts-virtual-learning/newsroom-business-colegio-san-jose-thumbnail-listing.jpg",
      "articleUrl": "https://www.globe.com.ph/about-us/newsroom/business/colegio-de-san-jose-adapts-virtual-learning.html",
      "columnType": "articles--type-3",
      "typeListing": "article",
      "imageMobile": "/sites/globe.com.ph/files/content/dam/globe/brie/AboutUs/newsroom/business/colegio-de-san-jose-adapts-virtual-learning/newsroom-business-colegio-san-jose-primary-thumbnail-m.jpg",
      "imageDesktop": "/sites/globe.com.ph/files/content/dam/globe/brie/AboutUs/newsroom/business/colegio-de-san-jose-adapts-virtual-learning/newsroom-business-colegio-san-jose-primary-thumbnail-d.jpg",
      "description": "Colegio de San Jose will adopt both asynchronous and synchronous learning through Brightspace Learning Management System (LMS) Lite.",
      "datePosted": "Oct 23, 2020 | 09:34 AM",
      "titleFromTag": "Business"
    },
    {
      "title": "Protect Your Business with These Security Solutions from Globe myBusiness",
      "nonclickable": false,
      "openNewTab": false,
      "borderArticle": "border-color:#0074D9;",
      "borderTopArticle": "border-top-color:#0074D9;",
      "imageListing": "/sites/globe.com.ph/files/content/dam/globe/brie/AboutUs/newsroom/business/globe-mybusiness-security-solutions/newsroom-business-proected-mybusiness-security-thumbnail-listing.jpg",
      "articleUrl": "https://www.globe.com.ph/about-us/newsroom/business/globe-mybusiness-security-solutions.html",
      "columnType": "articles--type-3",
      "typeListing": "article",
      "imageMobile": "/sites/globe.com.ph/files/content/dam/globe/brie/AboutUs/newsroom/business/globe-mybusiness-security-solutions/newsroom-business-proected-mybusiness-security-primary-thumbnail-m.jpg",
      "imageDesktop": "/sites/globe.com.ph/files/content/dam/globe/brie/AboutUs/newsroom/business/globe-mybusiness-security-solutions/newsroom-business-proected-mybusiness-security-primary-thumbnail-d.jpg",
      "description": "Globe myBusiness has the right solutions to keep your businesses running securely during times of uncertainty.",
      "datePosted": "Oct 23, 2020 | 08:01 AM",
      "titleFromTag": "Business"
    },
    {
      "title": "Globe Moves Mobile Data Customers to 4G LTE for Better Experience",
      "nonclickable": false,
      "openNewTab": false,
      "borderArticle": "border-color:#0074D9;",
      "borderTopArticle": "border-top-color:#0074D9;",
      "imageListing": "/sites/globe.com.ph/files/content/dam/globe/brie/AboutUs/newsroom/common/default-8/default-corporate-2-thumbnail-listing.jpg",
      "articleUrl": "https://www.globe.com.ph/about-us/newsroom/corporate/mobile-data-customers-4g-lte-better-experience.html",
      "columnType": "articles--type-3",
      "typeListing": "article",
      "imageMobile": "/sites/globe.com.ph/files/content/dam/globe/brie/AboutUs/newsroom/common/default-8/default-corporate-2-primary-thumbnail-m.jpg",
      "imageDesktop": "/sites/globe.com.ph/files/content/dam/globe/brie/AboutUs/newsroom/common/default-8/default-corporate-2-primary-thumbnail-d.jpg",
      "description": "Globe urges mobile customers to migrate to 4G/LTE to improve further their connectivity and data experience brought by modernization efforts",
      "datePosted": "Oct 22, 2020 | 10:56 AM",
      "titleFromTag": "Corporate"
    },
    {
      "title": "Watch the Chooks-to-Go Pilipinas 3x3 President’s Cup Powered by TM on BEAM TV",
      "nonclickable": false,
      "openNewTab": false,
      "borderArticle": "border-color:#0074D9;",
      "borderTopArticle": "border-top-color:#0074D9;",
      "imageListing": "/sites/globe.com.ph/files/content/dam/globe/brie/AboutUs/newsroom/partners/chooks-to-go-3x3-presidents-cup/newsroom-partners-chooks-presidents-cup-thumbnail-listing.jpg",
      "articleUrl": "https://www.globe.com.ph/about-us/newsroom/partners/chooks-to-go-3x3-presidents-cup.html",
      "columnType": "articles--type-3",
      "typeListing": "article",
      "imageMobile": "/sites/globe.com.ph/files/content/dam/globe/brie/AboutUs/newsroom/partners/chooks-to-go-3x3-presidents-cup/newsroom-partners-chooks-presidents-cup-primary-thumbnail-m.jpg",
      "imageDesktop": "/sites/globe.com.ph/files/content/dam/globe/brie/AboutUs/newsroom/partners/chooks-to-go-3x3-presidents-cup/newsroom-partners-chooks-presidents-cup-primary-thumbnail-d.jpg",
      "description": "The games of the league's first conference for its 2020 season will air live through the @ChookstoGoPilipinas FB Page and the Chooks3x3TM Channel via Digital TV",
      "datePosted": "Oct 22, 2020 | 10:19 AM",
      "titleFromTag": "Partners"
    },
    {
      "title": "Let’s VoLTE In for Simultaneous Browsing and Voice Calls. Is Your Device Ready?",
      "nonclickable": false,
      "openNewTab": false,
      "borderArticle": "border-color:#0074D9;",
      "borderTopArticle": "border-top-color:#0074D9;",
      "imageListing": "/sites/globe.com.ph/files/content/dam/globe/brie/AboutUs/newsroom/common/default-4/default-consumer-3-thumbnail-listing.jpg",
      "articleUrl": "https://www.globe.com.ph/about-us/newsroom/corporate/volte-simultaneous-browsing-voice-calls.html",
      "columnType": "articles--type-3",
      "typeListing": "article",
      "imageMobile": "/sites/globe.com.ph/files/content/dam/globe/brie/AboutUs/newsroom/common/default-4/default-consumer-3-primary-thumbnail-m.jpg",
      "imageDesktop": "/sites/globe.com.ph/files/content/dam/globe/brie/AboutUs/newsroom/common/default-4/default-consumer-3-primary-thumbnail-d.jpg",
      "description": "After 3G, LTE, 4G, and 5G, comes VoLTE which is short for Voice over LTE, a technology designed to allow simultaneous mobile browsing and voice calls.",
      "datePosted": "Oct 21, 2020 | 11:11 AM",
      "titleFromTag": "Corporate"
    },
    {
      "title": "Recreate the Way We Learn: Globe Prepares Students for the New School Year with Go50 and GoTOK",
      "nonclickable": false,
      "openNewTab": false,
      "borderArticle": "border-color:#0074D9;",
      "borderTopArticle": "border-top-color:#0074D9;",
      "imageListing": "/sites/globe.com.ph/files/content/dam/globe/brie/AboutUs/newsroom/consumer/globe-prepares-students-new-school-year-go50-gotok/newsroom-consumer-students-go50-gotok-thumbnail-listing.jpg",
      "articleUrl": "https://www.globe.com.ph/about-us/newsroom/consumer/globe-prepares-students-new-school-year-go50-gotok.html",
      "columnType": "articles--type-3",
      "typeListing": "article",
      "imageMobile": "/sites/globe.com.ph/files/content/dam/globe/brie/AboutUs/newsroom/consumer/globe-prepares-students-new-school-year-go50-gotok/newsroom-consumer-students-go50-gotok-primary-thumbnail-m.jpg",
      "imageDesktop": "/sites/globe.com.ph/files/content/dam/globe/brie/AboutUs/newsroom/consumer/globe-prepares-students-new-school-year-go50-gotok/newsroom-consumer-students-go50-gotok-primary-thumbnail-d.jpg",
      "description": "To ensure no student gets left behind, Globe Prepaid launched the better and more affordable Go50 and GoTOK promos  for the every student's needs.",
      "datePosted": "Oct 20, 2020 | 06:31 PM",
      "titleFromTag": "Consumer"
    }
  ]
}
