{
  "status": 200,
  "page": 161,
  "totalPage": 298,
  "range": "1921-1932",
  "total": 3573,
  "result": [
    {
      "title": "Globe Fully-Enables VoLTE in NCR, Rizal, Bulacan, Cavite for Simultaneous Browsing and Voice Calls",
      "nonclickable": false,
      "openNewTab": false,
      "borderArticle": "border-color:#0074D9;",
      "borderTopArticle": "border-top-color:#0074D9;",
      "imageListing": "/sites/globe.com.ph/files/content/dam/globe/brie/AboutUs/newsroom/corporate/volte-fully-enabled-ncr-rizal-bulacan-cavite/newsroom-corporate-volte-ncr-rizal-thumbnail-listing.jpg",
      "articleUrl": "https://www.globe.com.ph/about-us/newsroom/corporate/volte-fully-enabled-ncr-rizal-bulacan-cavite.html",
      "columnType": "articles--type-3",
      "typeListing": "article",
      "imageMobile": "/sites/globe.com.ph/files/content/dam/globe/brie/AboutUs/newsroom/corporate/volte-fully-enabled-ncr-rizal-bulacan-cavite/newsroom-corporate-volte-ncr-rizal-primary-thumbnail-m.jpg",
      "imageDesktop": "/sites/globe.com.ph/files/content/dam/globe/brie/AboutUs/newsroom/corporate/volte-fully-enabled-ncr-rizal-bulacan-cavite/newsroom-corporate-volte-ncr-rizal-primary-thumbnail-d.jpg",
      "description": "Globe has fully-enabled Voice Over Long Term Evolution (VoLTE) in the National Capital Region, Rizal, Bulacan, and Cavite.",
      "datePosted": "Oct 20, 2020 | 02:01 PM",
      "titleFromTag": "Corporate"
    },
    {
      "title": "LCC, Globe Present Webinar to Help LGUs Become Disaster Resilient",
      "nonclickable": false,
      "openNewTab": false,
      "borderArticle": "border-color:#0074D9;",
      "borderTopArticle": "border-top-color:#0074D9;",
      "imageListing": "/sites/globe.com.ph/files/content/dam/globe/brie/AboutUs/newsroom/citizenship/lcc-globe-webinar-lgus-disaster-resilient/newsroom-citizenship-lcc-webinar-lgus-thumbnail-listing.jpg",
      "articleUrl": "https://www.globe.com.ph/about-us/newsroom/citizenship/lcc-globe-webinar-lgus-disaster-resilient.html",
      "columnType": "articles--type-3",
      "typeListing": "article",
      "imageMobile": "/sites/globe.com.ph/files/content/dam/globe/brie/AboutUs/newsroom/citizenship/lcc-globe-webinar-lgus-disaster-resilient/newsroom-citizenship-lcc-webinar-lgus-primary-thumbnail-m.jpg",
      "imageDesktop": "/sites/globe.com.ph/files/content/dam/globe/brie/AboutUs/newsroom/citizenship/lcc-globe-webinar-lgus-disaster-resilient/newsroom-citizenship-lcc-webinar-lgus-primary-thumbnail-d.jpg",
      "description": "For its 7th session, the Liveable Cities Lab will focus on building resilient cities and towns to enable LGUs to prepare and be resilient.",
      "datePosted": "Oct 20, 2020 | 12:18 PM",
      "titleFromTag": "Citizenship"
    },
    {
      "title": "Globe Removes Consumer 3G SIMs Across Distribution Chains",
      "nonclickable": false,
      "openNewTab": false,
      "borderArticle": "border-color:#0074D9;",
      "borderTopArticle": "border-top-color:#0074D9;",
      "imageListing": "/sites/globe.com.ph/files/content/dam/globe/brie/AboutUs/newsroom/common/updated/Corporate-globe-thumbnail-listing.jpg",
      "articleUrl": "https://www.globe.com.ph/about-us/newsroom/corporate/3g-sims-removal-distribution-chains.html",
      "columnType": "articles--type-3",
      "typeListing": "article",
      "imageMobile": "/sites/globe.com.ph/files/content/dam/globe/brie/AboutUs/newsroom/common/updated/Corporate-globe-primary-thumbnail-m.jpg",
      "imageDesktop": "/sites/globe.com.ph/files/content/dam/globe/brie/AboutUs/newsroom/common/updated/Corporate-globe-primary-thumbnail-d.jpg",
      "description": "Globe announced the completion of the removal of consumer 3G SIMs across its retail and distribution chains.",
      "datePosted": "Oct 19, 2020 | 04:05 PM",
      "titleFromTag": "Corporate"
    },
    {
      "title": "Globe Launches KonekTayo School Bus WiFi in Manila",
      "nonclickable": false,
      "openNewTab": false,
      "borderArticle": "border-color:#0074D9;",
      "borderTopArticle": "border-top-color:#0074D9;",
      "imageListing": "/sites/globe.com.ph/files/content/dam/globe/brie/AboutUs/newsroom/corporate/konek-tayo-school-bus-wifi/newsroom-corporate-konek-tayo-wifi-thumbnail-listing.jpg",
      "articleUrl": "https://www.globe.com.ph/about-us/newsroom/corporate/konek-tayo-school-bus-wifi.html",
      "columnType": "articles--type-3",
      "typeListing": "article",
      "imageMobile": "/sites/globe.com.ph/files/content/dam/globe/brie/AboutUs/newsroom/corporate/konek-tayo-school-bus-wifi/newsroom-corporate-konek-tayo-wifi-primary-thumbnail-m.jpg",
      "imageDesktop": "/sites/globe.com.ph/files/content/dam/globe/brie/AboutUs/newsroom/corporate/konek-tayo-school-bus-wifi/newsroom-corporate-konek-tayo-wifi-primary-thumbnail-d.jpg",
      "description": "Globe launched the School Bus WiFi program in Manila City last October 19, 2020 in line with its continued efforts to make internet accessible to Filipinos.",
      "datePosted": "Oct 19, 2020 | 02:44 PM",
      "titleFromTag": "Corporate"
    },
    {
      "title": "Globe Launches First-Ever Shareable Data Promo With SHARE&SURF249",
      "nonclickable": false,
      "openNewTab": false,
      "borderArticle": "border-color:#0074D9;",
      "borderTopArticle": "border-top-color:#0074D9;",
      "imageListing": "/sites/globe.com.ph/files/content/dam/globe/brie/AboutUs/newsroom/consumer/globe-launches-share-and-surf249/newsroom-consumer-upgrade-4g-5g-sim-thumbnail-listing.jpg",
      "articleUrl": "https://www.globe.com.ph/about-us/newsroom/consumer/globe-launches-share-and-surf249.html",
      "columnType": "articles--type-3",
      "typeListing": "article",
      "imageMobile": "/sites/globe.com.ph/files/content/dam/globe/brie/AboutUs/newsroom/consumer/globe-launches-share-and-surf249/newsroom-consumer-upgrade-4g-5g-sim-primary-thumbnail-m.jpg",
      "imageDesktop": "/sites/globe.com.ph/files/content/dam/globe/brie/AboutUs/newsroom/consumer/globe-launches-share-and-surf249/newsroom-consumer-upgrade-4g-5g-sim-primary-thumbnail-d.jpg",
      "description": "Perfect for families, orgmates or barkada, the new Globe SHARE&SURF249 promo allows #DataForSharing with not just one, but up to four people and devices.",
      "datePosted": "Oct 19, 2020 | 09:47 AM",
      "titleFromTag": "Consumer"
    },
    {
      "title": "Globe myBusiness Empowers Cooperatives in the CALABARZON Region  for Life in the New Normal",
      "nonclickable": false,
      "openNewTab": false,
      "borderArticle": "border-color:#0074D9;",
      "borderTopArticle": "border-top-color:#0074D9;",
      "imageListing": "/sites/globe.com.ph/files/content/dam/globe/brie/AboutUs/newsroom/business/calabarzon-cooperatives-new-normal/newsroom-business-sg-calabarzon-thumbnail-listing.jpg",
      "articleUrl": "https://www.globe.com.ph/about-us/newsroom/business/calabarzon-cooperatives-new-normal.html",
      "columnType": "articles--type-3",
      "typeListing": "article",
      "imageMobile": "/sites/globe.com.ph/files/content/dam/globe/brie/AboutUs/newsroom/business/calabarzon-cooperatives-new-normal/newsroom-business-sg-calabarzon-primary-thumbnail-m.jpg",
      "imageDesktop": "/sites/globe.com.ph/files/content/dam/globe/brie/AboutUs/newsroom/business/calabarzon-cooperatives-new-normal/newsroom-business-sg-calabarzon-primary-thumbnail-d.jpg",
      "description": "Globe myBusiness in partnership with the CDA of CALABARZON  enabled cooperatives with digital solutions that will help them navigate life amid COVD-19.",
      "datePosted": "Oct 16, 2020 | 03:14 PM",
      "titleFromTag": "Business"
    },
    {
      "title": "Get This Rare Chance to Replace Your 2G/3G Phone With Budget-Wise 4G LTE Device",
      "nonclickable": false,
      "openNewTab": false,
      "borderArticle": "border-color:#0074D9;",
      "borderTopArticle": "border-top-color:#0074D9;",
      "imageListing": "/sites/globe.com.ph/files/content/dam/globe/brie/AboutUs/newsroom/common/default-10/default-consumer-2-thumbnail-listing.jpg",
      "articleUrl": "https://www.globe.com.ph/about-us/newsroom/consumer/replace-2G-3G-phone-4g-lte-device.html",
      "columnType": "articles--type-3",
      "typeListing": "article",
      "imageMobile": "/sites/globe.com.ph/files/content/dam/globe/brie/AboutUs/newsroom/common/default-10/default-consumer-2-primary-thumbnail-m.jpg",
      "imageDesktop": "/sites/globe.com.ph/files/content/dam/globe/brie/AboutUs/newsroom/common/default-10/default-consumer-2-primary-thumbnail-d.jpg",
      "description": "If you are a Globe customer, here is a rare chance to make that switch to a 4G LTE device at a budget friendly price! ",
      "datePosted": "Oct 16, 2020 | 03:14 PM",
      "titleFromTag": "Consumer"
    },
    {
      "title": "Globe, UP Virata School of Business Partner to Support Marginalized Students in Remote Learning",
      "nonclickable": false,
      "openNewTab": false,
      "borderArticle": "border-color:#0074D9;",
      "borderTopArticle": "border-top-color:#0074D9;",
      "imageListing": "/sites/globe.com.ph/files/content/dam/globe/brie/AboutUs/newsroom/business/up-virata-school-of-business-remote-learning/newsroom-business-up-virata-learning-thumbnail-listing.jpg",
      "articleUrl": "https://www.globe.com.ph/about-us/newsroom/business/up-virata-school-of-business-remote-learning.html",
      "columnType": "articles--type-3",
      "typeListing": "article",
      "imageMobile": "/sites/globe.com.ph/files/content/dam/globe/brie/AboutUs/newsroom/business/up-virata-school-of-business-remote-learning/newsroom-business-up-virata-learning-primary-thumbnail-m.jpg",
      "imageDesktop": "/sites/globe.com.ph/files/content/dam/globe/brie/AboutUs/newsroom/business/up-virata-school-of-business-remote-learning/newsroom-business-up-virata-learning-primary-thumbnail-d.jpg",
      "description": "UP Virata School of Business (VSB) was able to aid its students with their connectivity needs in partnership with Globe myBusiness. ",
      "datePosted": "Oct 16, 2020 | 09:43 AM",
      "titleFromTag": "Business"
    },
    {
      "title": "New Survey Shows Philippines Among Highest in Online Piracy in Southeast Asia",
      "nonclickable": false,
      "openNewTab": false,
      "borderArticle": "border-color:#0074D9;",
      "borderTopArticle": "border-top-color:#0074D9;",
      "imageListing": "/sites/globe.com.ph/files/content/dam/globe/brie/AboutUs/newsroom/common/default-3/corporate-default-7-thumbnail-listing.jpg",
      "articleUrl": "https://www.globe.com.ph/about-us/newsroom/consumer/philippines-highest-online-piracy-southeast-asia.html",
      "columnType": "articles--type-3",
      "typeListing": "article",
      "imageMobile": "/sites/globe.com.ph/files/content/dam/globe/brie/AboutUs/newsroom/common/default-3/corporate-default-7-primary-thumbnail-m.jpg",
      "imageDesktop": "/sites/globe.com.ph/files/content/dam/globe/brie/AboutUs/newsroom/common/default-3/corporate-default-7-primary-thumbnail-d.jpg",
      "description": "Nearly half (49%) of online Filipinos admit to using streaming piracy websites or torrent sites.",
      "datePosted": "Oct 15, 2020 | 12:50 PM",
      "titleFromTag": "Consumer"
    },
    {
      "title": "It’s Time to Upgrade to a Globe 4G LTE/5G-Ready SIM for Free",
      "nonclickable": false,
      "openNewTab": false,
      "borderArticle": "border-color:#0074D9;",
      "borderTopArticle": "border-top-color:#0074D9;",
      "imageListing": "/sites/globe.com.ph/files/content/dam/globe/brie/AboutUs/newsroom/consumer/free-upgrade-4g-lte-5g-ready-sim/newsroom-consumer-upgrade-4g-5g-sim-thumbnail-listing.jpg",
      "articleUrl": "https://www.globe.com.ph/about-us/newsroom/consumer/free-upgrade-4g-lte-5g-ready-sim.html",
      "columnType": "articles--type-3",
      "typeListing": "article",
      "imageMobile": "/sites/globe.com.ph/files/content/dam/globe/brie/AboutUs/newsroom/consumer/free-upgrade-4g-lte-5g-ready-sim/newsroom-consumer-upgrade-4g-5g-sim-primary-thumbnail-m.jpg",
      "imageDesktop": "/sites/globe.com.ph/files/content/dam/globe/brie/AboutUs/newsroom/consumer/free-upgrade-4g-lte-5g-ready-sim/newsroom-consumer-upgrade-4g-5g-sim-primary-thumbnail-d.jpg",
      "description": "Switch to a 4G LTE/5G-ready SIM and open exciting activities available on the internet.",
      "datePosted": "Oct 14, 2020 | 05:23 PM",
      "titleFromTag": "Consumer"
    },
    {
      "title": "Globe myBusiness Tackles Importance of Educational Technology for Continuous Learning",
      "nonclickable": false,
      "openNewTab": false,
      "borderArticle": "border-color:#0074D9;",
      "borderTopArticle": "border-top-color:#0074D9;",
      "imageListing": "/sites/globe.com.ph/files/content/dam/globe/brie/AboutUs/newsroom/business/importance-educational-technology-continuous-learning/newsroom-business-importance-educational-technology-thumbnail-listing.jpg",
      "articleUrl": "https://www.globe.com.ph/about-us/newsroom/business/importance-educational-technology-continuous-learning.html",
      "columnType": "articles--type-3",
      "typeListing": "article",
      "imageMobile": "/sites/globe.com.ph/files/content/dam/globe/brie/AboutUs/newsroom/business/importance-educational-technology-continuous-learning/newsroom-business-importance-educational-technology-primary-thumbnail-m.jpg",
      "imageDesktop": "/sites/globe.com.ph/files/content/dam/globe/brie/AboutUs/newsroom/business/importance-educational-technology-continuous-learning/newsroom-business-importance-educational-technology-primary-thumbnail-d.jpg",
      "description": "Undeniably, the shift to distance learning poses a big challenge to the education sector.",
      "datePosted": "Oct 14, 2020 | 03:57 PM",
      "titleFromTag": "Business"
    },
    {
      "title": "‘Gaya Sa Pelikula’ Cast Dishes About Latest Episode on Globe Poppin",
      "nonclickable": false,
      "openNewTab": false,
      "borderArticle": "border-color:#0074D9;",
      "borderTopArticle": "border-top-color:#0074D9;",
      "imageListing": "/sites/globe.com.ph/files/content/dam/globe/brie/AboutUs/newsroom/consumer/gaya-sa-pelikula-cast-dishes-about-latest-episode/newsroom-consumer-gaya-sa-pelikula-thumbnail-listing.jpg",
      "articleUrl": "https://www.globe.com.ph/about-us/newsroom/consumer/gaya-sa-pelikula-cast-dishes-about-latest-episode.html",
      "columnType": "articles--type-3",
      "typeListing": "article",
      "imageMobile": "/sites/globe.com.ph/files/content/dam/globe/brie/AboutUs/newsroom/consumer/gaya-sa-pelikula-cast-dishes-about-latest-episode/newsroom-consumer-gaya-sa-pelikula-primary-thumbnail-m.jpg",
      "imageDesktop": "/sites/globe.com.ph/files/content/dam/globe/brie/AboutUs/newsroom/consumer/gaya-sa-pelikula-cast-dishes-about-latest-episode/newsroom-consumer-gaya-sa-pelikula-primary-thumbnail-d.jpg",
      "description": "Join Ian Pangilinan and Paolo Pangilinan as they share their thoughts and reactions about the just-released episode and the work behind the scenes",
      "datePosted": "Oct 14, 2020 | 01:55 PM",
      "titleFromTag": "Consumer"
    }
  ]
}
