{
  "status": 200,
  "page": 162,
  "totalPage": 298,
  "range": "1933-1944",
  "total": 3573,
  "result": [
    {
      "title": "SME Owners Need Telehealth Now More Than Ever to Protect Businesses",
      "nonclickable": false,
      "openNewTab": false,
      "borderArticle": "border-color:#0074D9;",
      "borderTopArticle": "border-top-color:#0074D9;",
      "imageListing": "/sites/globe.com.ph/files/content/dam/globe/brie/AboutUs/newsroom/business/sme-owners-need-telehealth-protect-businesses/newsroom-business-owners-telehealth-protect-thumbnail-listing.jpg",
      "articleUrl": "https://www.globe.com.ph/about-us/newsroom/business/sme-owners-need-telehealth-protect-businesses.html",
      "columnType": "articles--type-3",
      "typeListing": "article",
      "imageMobile": "/sites/globe.com.ph/files/content/dam/globe/brie/AboutUs/newsroom/business/sme-owners-need-telehealth-protect-businesses/newsroom-business-owners-telehealth-protect-primary-thumbnail-m.jpg",
      "imageDesktop": "/sites/globe.com.ph/files/content/dam/globe/brie/AboutUs/newsroom/business/sme-owners-need-telehealth-protect-businesses/newsroom-business-owners-telehealth-protect-primary-thumbnail-d.jpg",
      "description": "Globe myBusiness brought together expert speakers to talk about telemedicine and how businesses can stay afloat throughout the new normal.",
      "datePosted": "Oct 14, 2020 | 08:23 AM",
      "titleFromTag": "Business"
    },
    {
      "title": "Globe Exceeds Site Builds, Upgrades in September",
      "nonclickable": false,
      "openNewTab": false,
      "borderArticle": "border-color:#0074D9;",
      "borderTopArticle": "border-top-color:#0074D9;",
      "imageListing": "/sites/globe.com.ph/files/content/dam/globe/brie/AboutUs/newsroom/corporate/exceeds-site-builds-upgrades-september/newsroom-corporate-exceeds-site-upgrade-thumbnail-listing.jpg",
      "articleUrl": "https://www.globe.com.ph/about-us/newsroom/corporate/exceeds-site-builds-upgrades-september.html",
      "columnType": "articles--type-3",
      "typeListing": "article",
      "imageMobile": "/sites/globe.com.ph/files/content/dam/globe/brie/AboutUs/newsroom/corporate/exceeds-site-builds-upgrades-september/newsroom-corporate-exceeds-site-upgrade-primary-thumbnail-m.jpg",
      "imageDesktop": "/sites/globe.com.ph/files/content/dam/globe/brie/AboutUs/newsroom/corporate/exceeds-site-builds-upgrades-september/newsroom-corporate-exceeds-site-upgrade-primary-thumbnail-d.jpg",
      "description": "Globe’s target of expanding further its network capability and capacity has exceeded its forecast, moving into the last quarter of the year.",
      "datePosted": "Oct 13, 2020 | 06:17 PM",
      "titleFromTag": "Corporate"
    },
    {
      "title": "Globe wins Asia’s Best CEO, CFO, CSR at Corporate Governance Awards",
      "nonclickable": false,
      "openNewTab": false,
      "borderArticle": "border-color:#0074D9;",
      "borderTopArticle": "border-top-color:#0074D9;",
      "imageListing": "/sites/globe.com.ph/files/content/dam/globe/brie/AboutUs/newsroom/common/updated/Corporate-globe-thumbnail-listing.jpg",
      "articleUrl": "https://www.globe.com.ph/about-us/newsroom/corporate/globe-wins-corporate-governance-awards.html",
      "columnType": "articles--type-3",
      "typeListing": "article",
      "imageMobile": "/sites/globe.com.ph/files/content/dam/globe/brie/AboutUs/newsroom/common/updated/Corporate-globe-primary-thumbnail-m.jpg",
      "imageDesktop": "/sites/globe.com.ph/files/content/dam/globe/brie/AboutUs/newsroom/common/updated/Corporate-globe-primary-thumbnail-d.jpg",
      "description": "Globe's Ernest Cu is Asia’s Best CEO & Rizza Maniego-Eala is Asia’s Best CFO (Investor Relations) at the Corporate Governance Asia Awards’ 10th Asia Excellence.",
      "datePosted": "Oct 13, 2020 | 03:50 PM",
      "titleFromTag": "Corporate"
    },
    {
      "title": "South Luzon Thermal Energy Corporation, Globe Business Link up for IoT-Enabled Power Plant",
      "nonclickable": false,
      "openNewTab": false,
      "borderArticle": "border-color:#0074D9;",
      "borderTopArticle": "border-top-color:#0074D9;",
      "imageListing": "/sites/globe.com.ph/files/content/dam/globe/brie/AboutUs/newsroom/business/sltec-partners-globe-business-power-plant/newsroom-business-sltec-power-plant-thumbnail-listing.jpg",
      "articleUrl": "https://www.globe.com.ph/about-us/newsroom/business/sltec-partners-globe-business-power-plant.html",
      "columnType": "articles--type-3",
      "typeListing": "article",
      "imageMobile": "/sites/globe.com.ph/files/content/dam/globe/brie/AboutUs/newsroom/business/sltec-partners-globe-business-power-plant/newsroom-business-sltec-power-plant-primary-thumbnail-m.jpg",
      "imageDesktop": "/sites/globe.com.ph/files/content/dam/globe/brie/AboutUs/newsroom/business/sltec-partners-globe-business-power-plant/newsroom-business-sltec-power-plant-primary-thumbnail-d.jpg",
      "description": "Globe Telecom partners with SLTEC to enhance the latter’s data collection, analytics, and power plant production through the IoT-enabled Globe Direct Internet.",
      "datePosted": "Oct 13, 2020 | 12:47 PM",
      "titleFromTag": "Business"
    },
    {
      "title": "Eala Moves Up to World's No. 2 in Juniors ITF World Rankings",
      "nonclickable": false,
      "openNewTab": false,
      "borderArticle": "border-color:#0074D9;",
      "borderTopArticle": "border-top-color:#0074D9;",
      "imageListing": "/sites/globe.com.ph/files/content/dam/globe/brie/AboutUs/newsroom/corporate/eala-worlds-number-2-juniors-itf-world-rankings/newsroom-corporate-eala-worlds-num2-thumbnail-listing.jpg",
      "articleUrl": "https://www.globe.com.ph/about-us/newsroom/corporate/eala-worlds-number-2-juniors-itf-world-rankings.html",
      "columnType": "articles--type-3",
      "typeListing": "article",
      "imageMobile": "/sites/globe.com.ph/files/content/dam/globe/brie/AboutUs/newsroom/corporate/eala-worlds-number-2-juniors-itf-world-rankings/newsroom-corporate-eala-worlds-num2-primary-thumbnail-m.jpg",
      "imageDesktop": "/sites/globe.com.ph/files/content/dam/globe/brie/AboutUs/newsroom/corporate/eala-worlds-number-2-juniors-itf-world-rankings/newsroom-corporate-eala-worlds-num2-primary-thumbnail-d.jpg",
      "description": "Eala’s number 2 spot is the highest ever accomplished by a Filipina tennis player in the history of the sport. ",
      "datePosted": "Oct 13, 2020 | 12:35 PM",
      "titleFromTag": "Corporate"
    },
    {
      "title": "Light Up the Sky With BLACKPINK on Netflix With Globe",
      "nonclickable": false,
      "openNewTab": false,
      "borderArticle": "border-color:#0074D9;",
      "borderTopArticle": "border-top-color:#0074D9;",
      "imageListing": "/sites/globe.com.ph/files/content/dam/globe/brie/AboutUs/newsroom/consumer/blackpink-light-up-the-sky-netflix/newsroom-consumer-blackpink-documentary-netflix-thumbnail-listing.jpg",
      "articleUrl": "https://www.globe.com.ph/about-us/newsroom/consumer/blackpink-light-up-the-sky-netflix.html",
      "columnType": "articles--type-3",
      "typeListing": "article",
      "imageMobile": "/sites/globe.com.ph/files/content/dam/globe/brie/AboutUs/newsroom/consumer/blackpink-light-up-the-sky-netflix/newsroom-consumer-blackpink-documentary-netflix-primary-thumbnail-m.jpg",
      "imageDesktop": "/sites/globe.com.ph/files/content/dam/globe/brie/AboutUs/newsroom/consumer/blackpink-light-up-the-sky-netflix/newsroom-consumer-blackpink-documentary-netflix-primary-thumbnail-d.jpg",
      "description": "Stream the world premiere of Netflix’s BLACKPINK: LIGHT UP THE SKY on October 14 best enjoyed through Globe.",
      "datePosted": "Oct 12, 2020 | 05:00 PM",
      "titleFromTag": "Consumer"
    },
    {
      "title": "Globe Rallied Behind Filipina Tennis Prodigy Alex Eala in 2020 French Open Juniors Bid",
      "nonclickable": false,
      "openNewTab": false,
      "borderArticle": "border-color:#0074D9;",
      "borderTopArticle": "border-top-color:#0074D9;",
      "imageListing": "/sites/globe.com.ph/files/content/dam/globe/brie/AboutUs/newsroom/corporate/globe-rallied-alex-eala-2020-french-open-juniors/newsroom-corporate-rallied-alex-eala-thumbnail-listing.jpg",
      "articleUrl": "https://www.globe.com.ph/about-us/newsroom/corporate/globe-rallied-alex-eala-2020-french-open-juniors.html",
      "columnType": "articles--type-3",
      "typeListing": "article",
      "imageMobile": "/sites/globe.com.ph/files/content/dam/globe/brie/AboutUs/newsroom/corporate/globe-rallied-alex-eala-2020-french-open-juniors/newsroom-corporate-rallied-alex-eala-primary-thumbnail-m.jpg",
      "imageDesktop": "/sites/globe.com.ph/files/content/dam/globe/brie/AboutUs/newsroom/corporate/globe-rallied-alex-eala-2020-french-open-juniors/newsroom-corporate-rallied-alex-eala-primary-thumbnail-d.jpg",
      "description": "\"Globe believes that with the correct encouragement and motivation, more local athletes like Alex Eala may become champions and leave a legacy.\"",
      "datePosted": "Oct 12, 2020 | 02:28 PM",
      "titleFromTag": "Corporate"
    },
    {
      "title": "Globe Business Bags Gold Stevie® Awards From the 2020 IBAs",
      "nonclickable": false,
      "openNewTab": false,
      "borderArticle": "border-color:#0074D9;",
      "borderTopArticle": "border-top-color:#0074D9;",
      "imageListing": "/sites/globe.com.ph/files/content/dam/globe/brie/AboutUs/newsroom/business/globe-business-gold-stevie-awards-2020-ibas/newsroom-business-gold-stevie-awards-thumbnail-listing.jpg",
      "articleUrl": "https://www.globe.com.ph/about-us/newsroom/business/globe-business-gold-stevie-awards-2020-ibas.html",
      "columnType": "articles--type-3",
      "typeListing": "article",
      "imageMobile": "/sites/globe.com.ph/files/content/dam/globe/brie/AboutUs/newsroom/business/globe-business-gold-stevie-awards-2020-ibas/newsroom-business-gold-stevie-awards-primary-thumbnail-m.jpg",
      "imageDesktop": "/sites/globe.com.ph/files/content/dam/globe/brie/AboutUs/newsroom/business/globe-business-gold-stevie-awards-2020-ibas/newsroom-business-gold-stevie-awards-primary-thumbnail-d.jpg",
      "description": "Globe Business won four awards in the 17th Annual International Business Awards® (IBAs), which is scheduled to hold a virtual ceremony on December 1, 2020.",
      "datePosted": "Oct 12, 2020 | 01:37 PM",
      "titleFromTag": "Business"
    },
    {
      "title": "HYBrain Partners with Globe myBusiness to Reshape the Healthcare Business Landscape",
      "nonclickable": false,
      "openNewTab": false,
      "borderArticle": "border-color:#0074D9;",
      "borderTopArticle": "border-top-color:#0074D9;",
      "imageListing": "/sites/globe.com.ph/files/content/dam/globe/brie/AboutUs/newsroom/business/hybrain-globe-mybusiness-reshape-healthcare-business/newsroom-business-hybrain-healthcare-thumbnail-listing.jpg",
      "articleUrl": "https://www.globe.com.ph/about-us/newsroom/business/hybrain-globe-mybusiness-reshape-healthcare-business.html",
      "columnType": "articles--type-3",
      "typeListing": "article",
      "imageMobile": "/sites/globe.com.ph/files/content/dam/globe/brie/AboutUs/newsroom/business/hybrain-globe-mybusiness-reshape-healthcare-business/newsroom-business-hybrain-healthcare-primary-thumbnail-m.jpg",
      "imageDesktop": "/sites/globe.com.ph/files/content/dam/globe/brie/AboutUs/newsroom/business/hybrain-globe-mybusiness-reshape-healthcare-business/newsroom-business-hybrain-healthcare-primary-thumbnail-d.jpg",
      "description": "Like Globe myBusiness who put up the Globe Partner Network to empower businesses, HYBrain commits to the belief that their clients’ success is their success.",
      "datePosted": "Oct 12, 2020 | 08:45 AM",
      "titleFromTag": "Business"
    },
    {
      "title": "Globe myBusiness Educates Entrepreneurs on Digital Marketing Options in Online Seminar",
      "nonclickable": false,
      "openNewTab": false,
      "borderArticle": "border-color:#0074D9;",
      "borderTopArticle": "border-top-color:#0074D9;",
      "imageListing": "/sites/globe.com.ph/files/content/dam/globe/brie/AboutUs/newsroom/business/digital-marketing-options-online-seminar/newsroom-business-entrepreneurs-digital-marketing-thumbnail-listing.jpg",
      "articleUrl": "https://www.globe.com.ph/about-us/newsroom/business/digital-marketing-options-online-seminar.html",
      "columnType": "articles--type-3",
      "typeListing": "article",
      "imageMobile": "/sites/globe.com.ph/files/content/dam/globe/brie/AboutUs/newsroom/business/digital-marketing-options-online-seminar/newsroom-business-entrepreneurs-digital-marketing-primary-thumbnail-m.jpg",
      "imageDesktop": "/sites/globe.com.ph/files/content/dam/globe/brie/AboutUs/newsroom/business/digital-marketing-options-online-seminar/newsroom-business-entrepreneurs-digital-marketing-primary-thumbnail-d.jpg",
      "description": "Globe myBusiness featured its experts in a webinar for SMEs to explore video creation, live events, and other digital marketing avenues.",
      "datePosted": "Oct 09, 2020 | 07:31 PM",
      "titleFromTag": "Business"
    },
    {
      "title": "College of Our Lady Mt. Carmel Partners With Globe for Flexible Learning in the “New Normal” of Education",
      "nonclickable": false,
      "openNewTab": false,
      "borderArticle": "border-color:#0074D9;",
      "borderTopArticle": "border-top-color:#0074D9;",
      "imageListing": "/sites/globe.com.ph/files/content/dam/globe/brie/AboutUs/newsroom/business/colmc-partners-globe-flexible-learning/newsroom-business-colmc-flexible-learning-thumbnail-listing.jpg",
      "articleUrl": "https://www.globe.com.ph/about-us/newsroom/business/colmc-partners-globe-flexible-learning.html",
      "columnType": "articles--type-3",
      "typeListing": "article",
      "imageMobile": "/sites/globe.com.ph/files/content/dam/globe/brie/AboutUs/newsroom/business/colmc-partners-globe-flexible-learning/newsroom-business-colmc-flexible-learning-primary-thumbnail-m.jpg",
      "imageDesktop": "/sites/globe.com.ph/files/content/dam/globe/brie/AboutUs/newsroom/business/colmc-partners-globe-flexible-learning/newsroom-business-colmc-flexible-learning-primary-thumbnail-d.jpg",
      "description": "COLMC has established a partnership with Globe as its internet provider and adopted its Learning Management System known as Brightspace.",
      "datePosted": "Oct 09, 2020 | 06:01 PM",
      "titleFromTag": "Business"
    },
    {
      "title": "Santiago Trillana Academy Advances Towards Digital Education With the Help of Globe",
      "nonclickable": false,
      "openNewTab": false,
      "borderArticle": "border-color:#0074D9;",
      "borderTopArticle": "border-top-color:#0074D9;",
      "imageListing": "/sites/globe.com.ph/files/content/dam/globe/brie/AboutUs/newsroom/business/santiago-trillana-academy-digital-education/newsroom-business-colmc-flexible-learning-thumbnail-listing.jpg",
      "articleUrl": "https://www.globe.com.ph/about-us/newsroom/business/santiago-trillana-academy-digital-education.html",
      "columnType": "articles--type-3",
      "typeListing": "article",
      "imageMobile": "/sites/globe.com.ph/files/content/dam/globe/brie/AboutUs/newsroom/business/santiago-trillana-academy-digital-education/newsroom-business-colmc-flexible-learning-primary-thumbnail-m.jpg",
      "imageDesktop": "/sites/globe.com.ph/files/content/dam/globe/brie/AboutUs/newsroom/business/santiago-trillana-academy-digital-education/newsroom-business-colmc-flexible-learning-primary-thumbnail-d.jpg",
      "description": "For Santiago Trillana Academy (STA), the pandemic was a challenge that pushed the school to partner with Globe for their Brightspace Learning Management System.",
      "datePosted": "Oct 09, 2020 | 04:07 PM",
      "titleFromTag": "Business"
    }
  ]
}
