{
  "status": 200,
  "page": 163,
  "totalPage": 298,
  "range": "1945-1956",
  "total": 3573,
  "result": [
    {
      "title": "4,000 Parañaque Educators Get Free Telehealth Services From KonsultaMD, Zeal",
      "nonclickable": false,
      "openNewTab": false,
      "borderArticle": "border-color:#0074D9;",
      "borderTopArticle": "border-top-color:#0074D9;",
      "imageListing": "/sites/globe.com.ph/files/content/dam/globe/brie/AboutUs/newsroom/917ventures/paranaque-educators-free-telehealth-services/newsroom-917ventures-paranaque-educators-teleheath-thumbnail-listing.jpg",
      "articleUrl": "https://www.globe.com.ph/about-us/newsroom/917ventures/paranaque-educators-free-telehealth-services.html",
      "columnType": "articles--type-3",
      "typeListing": "article",
      "imageMobile": "/sites/globe.com.ph/files/content/dam/globe/brie/AboutUs/newsroom/917ventures/paranaque-educators-free-telehealth-services/newsroom-917ventures-paranaque-educators-teleheath-primary-thumbnail-m.jpg",
      "imageDesktop": "/sites/globe.com.ph/files/content/dam/globe/brie/AboutUs/newsroom/917ventures/paranaque-educators-free-telehealth-services/newsroom-917ventures-paranaque-educators-teleheath-primary-thumbnail-d.jpg",
      "description": "KonsultaMD and ZRewards by Zeal partnered with DepED Parañaque in honoring the heroes who are at the forefront of public school education.",
      "datePosted": "Oct 09, 2020 | 04:01 PM",
      "titleFromTag": "917Ventures"
    },
    {
      "title": "Connected With Internet at Home, Here’s How to Make the Most Out of Your Home WiFi",
      "nonclickable": false,
      "openNewTab": false,
      "borderArticle": "border-color:#0074D9;",
      "borderTopArticle": "border-top-color:#0074D9;",
      "imageListing": "/sites/globe.com.ph/files/content/dam/globe/brie/AboutUs/newsroom/consumer/how-to-make-most-home-wifi/newsroom-consumer-make-home-wifi-thumbnail-listing.jpg",
      "articleUrl": "https://www.globe.com.ph/about-us/newsroom/consumer/how-to-make-most-home-wifi.html",
      "columnType": "articles--type-3",
      "typeListing": "article",
      "imageMobile": "/sites/globe.com.ph/files/content/dam/globe/brie/AboutUs/newsroom/consumer/how-to-make-most-home-wifi/newsroom-consumer-make-home-wifi-primary-thumbnail-m.jpg",
      "imageDesktop": "/sites/globe.com.ph/files/content/dam/globe/brie/AboutUs/newsroom/consumer/how-to-make-most-home-wifi/newsroom-consumer-make-home-wifi-primary-thumbnail-d.jpg",
      "description": "Here are some tips to improve your home internet experience.",
      "datePosted": "Oct 09, 2020 | 03:57 PM",
      "titleFromTag": "Consumer"
    },
    {
      "title": "Eala Barges Into Semifinals of the 2020 French Open Juniors",
      "nonclickable": false,
      "openNewTab": false,
      "borderArticle": "border-color:#0074D9;",
      "borderTopArticle": "border-top-color:#0074D9;",
      "imageListing": "/sites/globe.com.ph/files/content/dam/globe/brie/AboutUs/newsroom/common/updated/Corporate-globe-thumbnail-listing.jpg",
      "articleUrl": "https://www.globe.com.ph/about-us/newsroom/corporate/eala-semifinals-2020-french-open-juniors.html",
      "columnType": "articles--type-3",
      "typeListing": "article",
      "imageMobile": "/sites/globe.com.ph/files/content/dam/globe/brie/AboutUs/newsroom/common/updated/Corporate-globe-primary-thumbnail-m.jpg",
      "imageDesktop": "/sites/globe.com.ph/files/content/dam/globe/brie/AboutUs/newsroom/common/updated/Corporate-globe-primary-thumbnail-d.jpg",
      "description": "Globe Ambassador Alex Eala beat Linda Noskova in their last 8 match-up to enter the 2020 French Open's junior girls tournament semifinals.",
      "datePosted": "Oct 09, 2020 | 01:20 PM",
      "titleFromTag": "Corporate"
    },
    {
      "title": "Eala Clinches Spot in the Last 8 of Juniors French Open",
      "nonclickable": false,
      "openNewTab": false,
      "borderArticle": "border-color:#0074D9;",
      "borderTopArticle": "border-top-color:#0074D9;",
      "imageListing": "/sites/globe.com.ph/files/content/dam/globe/brie/AboutUs/newsroom/corporate/eala-last-8-juniors-french-open/newsroom-corporate-eala-last-8-thumbnail-listing.jpg",
      "articleUrl": "https://www.globe.com.ph/about-us/newsroom/corporate/eala-last-8-juniors-french-open.html",
      "columnType": "articles--type-3",
      "typeListing": "article",
      "imageMobile": "/sites/globe.com.ph/files/content/dam/globe/brie/AboutUs/newsroom/corporate/eala-last-8-juniors-french-open/newsroom-corporate-eala-last-8-primary-thumbnail-m.jpg",
      "imageDesktop": "/sites/globe.com.ph/files/content/dam/globe/brie/AboutUs/newsroom/corporate/eala-last-8-juniors-french-open/newsroom-corporate-eala-last-8-primary-thumbnail-d.jpg",
      "description": "The Filipina tennis prodigy’s win secured her first-ever singles quarterfinals appearance in a Grand Slam event.",
      "datePosted": "Oct 08, 2020 | 01:14 PM",
      "titleFromTag": "Corporate"
    },
    {
      "title": "Globe Creates eModules to Guide Educators and Learners on Responsible Online Behavior",
      "nonclickable": false,
      "openNewTab": false,
      "borderArticle": "border-color:#1C91C5;",
      "borderTopArticle": "border-top-color:#1C91C5;",
      "imageListing": "/sites/globe.com.ph/files/content/dam/globe/brie/AboutUs/newsroom/sustainability/emodules-responsible-online-behavior/newsroom-sustainability-emodules-online-behavior-thumbnail-listing.jpg",
      "articleUrl": "https://www.globe.com.ph/about-us/newsroom/sustainability/emodules-responsible-online-behavior.html",
      "columnType": "articles--type-3",
      "typeListing": "article",
      "imageMobile": "/sites/globe.com.ph/files/content/dam/globe/brie/AboutUs/newsroom/sustainability/emodules-responsible-online-behavior/newsroom-sustainability-emodules-online-behavior-primary-thumbnail-m.jpg",
      "imageDesktop": "/sites/globe.com.ph/files/content/dam/globe/brie/AboutUs/newsroom/sustainability/emodules-responsible-online-behavior/newsroom-sustainability-emodules-online-behavior-primary-thumbnail-d.jpg",
      "description": "Globe has launched the first of a series of eModules designed to promote proper online behavior among the youth.",
      "datePosted": "Oct 08, 2020 | 12:21 PM",
      "titleFromTag": "Sustainability"
    },
    {
      "title": "Globe Targets Installation of at Least 800 Cell Sites in 4Q2020",
      "nonclickable": false,
      "openNewTab": false,
      "borderArticle": "border-color:#0074D9;",
      "borderTopArticle": "border-top-color:#0074D9;",
      "imageListing": "/sites/globe.com.ph/files/content/dam/globe/brie/AboutUs/newsroom/corporate/targets-installation-800-cell-sites-4q2020/newsroom-corporate-installation-cell-sites-thumbnail-listing.jpg",
      "articleUrl": "https://www.globe.com.ph/about-us/newsroom/corporate/targets-installation-800-cell-sites-4q2020.html",
      "columnType": "articles--type-3",
      "typeListing": "article",
      "imageMobile": "/sites/globe.com.ph/files/content/dam/globe/brie/AboutUs/newsroom/corporate/targets-installation-800-cell-sites-4q2020/newsroom-corporate-installation-cell-sites-primary-thumbnail-m.jpg",
      "imageDesktop": "/sites/globe.com.ph/files/content/dam/globe/brie/AboutUs/newsroom/corporate/targets-installation-800-cell-sites-4q2020/newsroom-corporate-installation-cell-sites-primary-thumbnail-d.jpg",
      "description": "Globe is eyeing to install at least 800 cell sites in the last three months of 2020 to close out another year of its network expansion on a high note. ",
      "datePosted": "Oct 08, 2020 | 07:55 AM",
      "titleFromTag": "Corporate"
    },
    {
      "title": "Recreate Movie Nights: Globe Opens the World to Amazon Prime Video’s Critically-Acclaimed and Binge Worthy Watch Line-up",
      "nonclickable": false,
      "openNewTab": false,
      "borderArticle": "border-color:#0074D9;",
      "borderTopArticle": "border-top-color:#0074D9;",
      "imageListing": "/sites/globe.com.ph/files/content/dam/globe/brie/AboutUs/newsroom/business/recreate-movie-nights-amazon-prime-video/newsroom-consumer-amazon-prime-video-thumbnail-listing.jpg",
      "articleUrl": "https://www.globe.com.ph/about-us/newsroom/consumer/recreate-movie-nights-amazon-prime-video.html",
      "columnType": "articles--type-3",
      "typeListing": "article",
      "imageMobile": "/sites/globe.com.ph/files/content/dam/globe/brie/AboutUs/newsroom/business/recreate-movie-nights-amazon-prime-video/newsroom-consumer-amazon-prime-video-primary-thumbnail-m.jpg",
      "imageDesktop": "/sites/globe.com.ph/files/content/dam/globe/brie/AboutUs/newsroom/business/recreate-movie-nights-amazon-prime-video/newsroom-consumer-amazon-prime-video-primary-thumbnail-d.jpg",
      "description": "Recreate your movie nights with Globe and Amazon Prime Video.",
      "datePosted": "Oct 07, 2020 | 07:20 PM",
      "titleFromTag": "Consumer"
    },
    {
      "title": "Air Link International Aviation College (ALIAC) partners with Globe for its online learning enabler program",
      "nonclickable": false,
      "openNewTab": false,
      "borderArticle": "border-color:#0074D9;",
      "borderTopArticle": "border-top-color:#0074D9;",
      "imageListing": "/sites/globe.com.ph/files/content/dam/globe/brie/AboutUs/newsroom/business/aliac-partners-globe-online-learning-enabler-program/newsroom-business-aliac-online-learning-thumbnail-listing.jpg",
      "articleUrl": "https://www.globe.com.ph/about-us/newsroom/business/aliac-partners-globe-online-learning-enabler-program.html",
      "columnType": "articles--type-3",
      "typeListing": "article",
      "imageMobile": "/sites/globe.com.ph/files/content/dam/globe/brie/AboutUs/newsroom/business/aliac-partners-globe-online-learning-enabler-program/newsroom-business-aliac-online-learning-primary-thumbnail-m.jpg",
      "imageDesktop": "/sites/globe.com.ph/files/content/dam/globe/brie/AboutUs/newsroom/business/aliac-partners-globe-online-learning-enabler-program/newsroom-business-aliac-online-learning-primary-thumbnail-d.jpg",
      "description": "Air Link International Aviation College partnered with Globe to provide their students and teachers with Internet modems for online teaching and learning.",
      "datePosted": "Oct 07, 2020 | 04:01 PM",
      "titleFromTag": "Business"
    },
    {
      "title": "Spring Valley and Globe myBusiness: How These Visionaries are Pinning Technology in the Philippine Map",
      "nonclickable": false,
      "openNewTab": false,
      "borderArticle": "border-color:#0074D9;",
      "borderTopArticle": "border-top-color:#0074D9;",
      "imageListing": "/sites/globe.com.ph/files/content/dam/globe/brie/AboutUs/newsroom/common/default-11/default-business-5-thumbnail-listing.jpg",
      "articleUrl": "https://www.globe.com.ph/about-us/newsroom/business/globe-mybusiness-spring-valley-partnership.html",
      "columnType": "articles--type-3",
      "typeListing": "article",
      "imageMobile": "/sites/globe.com.ph/files/content/dam/globe/brie/AboutUs/newsroom/common/default-11/default-business-5-primary-thumbnail-m.jpg",
      "imageDesktop": "/sites/globe.com.ph/files/content/dam/globe/brie/AboutUs/newsroom/common/default-11/default-business-5-primary-thumbnail-d.jpg",
      "description": "Visionaries are putting all their efforts in keeping us connected and offering virtual ways for demand to meet supply for almost any commodity.",
      "datePosted": "Oct 07, 2020 | 10:24 AM",
      "titleFromTag": "Business"
    },
    {
      "title": "Family’s Role in One’s Mental Health: Why Is It Important?",
      "nonclickable": false,
      "openNewTab": false,
      "borderArticle": "border-color:#1C91C5;",
      "borderTopArticle": "border-top-color:#1C91C5;",
      "imageListing": "/sites/globe.com.ph/files/content/dam/globe/brie/AboutUs/newsroom/sustainability/importance-family-role-mental-health/newsroom-sustainability-importance-family-role-thumbnail-listing.jpg",
      "articleUrl": "https://www.globe.com.ph/about-us/newsroom/sustainability/importance-family-role-mental-health.html",
      "columnType": "articles--type-3",
      "typeListing": "article",
      "imageMobile": "/sites/globe.com.ph/files/content/dam/globe/brie/AboutUs/newsroom/sustainability/importance-family-role-mental-health/newsroom-sustainability-importance-family-role-primary-thumbnail-m.jpg",
      "imageDesktop": "/sites/globe.com.ph/files/content/dam/globe/brie/AboutUs/newsroom/sustainability/importance-family-role-mental-health/newsroom-sustainability-importance-family-role-primary-thumbnail-d.jpg",
      "description": "Studies show that family relationships can have both short and long-term effects on one’s mental health and even physical health.",
      "datePosted": "Oct 07, 2020 | 10:17 AM",
      "titleFromTag": "Sustainability"
    },
    {
      "title": "Globe At Home Prepaid WiFi Launches a GCash Exclusive: Bigger and Better HomeSURF599+ and 1499+",
      "nonclickable": false,
      "openNewTab": false,
      "borderArticle": "border-color:#0074D9;",
      "borderTopArticle": "border-top-color:#0074D9;",
      "imageListing": "/sites/globe.com.ph/files/content/dam/globe/brie/AboutUs/newsroom/consumer/globe-at-home-prepaid-wifi-gcash-exclusive-homesurf/newsroom-consumer-prepaid-wifi-homesurf-thumbnail-listing.jpg",
      "articleUrl": "https://www.globe.com.ph/about-us/newsroom/consumer/globe-at-home-prepaid-wifi-gcash-exclusive-homesurf.html",
      "columnType": "articles--type-3",
      "typeListing": "article",
      "imageMobile": "/sites/globe.com.ph/files/content/dam/globe/brie/AboutUs/newsroom/consumer/globe-at-home-prepaid-wifi-gcash-exclusive-homesurf/newsroom-consumer-prepaid-wifi-homesurf-primary-thumbnail-m.jpg",
      "imageDesktop": "/sites/globe.com.ph/files/content/dam/globe/brie/AboutUs/newsroom/consumer/globe-at-home-prepaid-wifi-gcash-exclusive-homesurf/newsroom-consumer-prepaid-wifi-homesurf-primary-thumbnail-d.jpg",
      "description": "Globe at Home Prepaid Wifi introduced its leveled-up HomeSURF599+ and 1499+ promos with bigger data allocation & extended promo validity, exclusively on Gcash",
      "datePosted": "Oct 07, 2020 | 10:17 AM",
      "titleFromTag": "Consumer"
    },
    {
      "title": "Eala Books Ticket to 3rd Round of 2020 French Open Juniors",
      "nonclickable": false,
      "openNewTab": false,
      "borderArticle": "border-color:#0074D9;",
      "borderTopArticle": "border-top-color:#0074D9;",
      "imageListing": "/sites/globe.com.ph/files/content/dam/globe/brie/AboutUs/newsroom/corporate/eala-3rd-round-2020-french-open-juniors/newsroom-corporate-eala-3rd-round-thumbnail-listing.jpg",
      "articleUrl": "https://www.globe.com.ph/about-us/newsroom/corporate/eala-3rd-round-2020-french-open-juniors.html",
      "columnType": "articles--type-3",
      "typeListing": "article",
      "imageMobile": "/sites/globe.com.ph/files/content/dam/globe/brie/AboutUs/newsroom/corporate/eala-3rd-round-2020-french-open-juniors/newsroom-corporate-eala-3rd-round-primary-thumbnail-m.jpg",
      "imageDesktop": "/sites/globe.com.ph/files/content/dam/globe/brie/AboutUs/newsroom/corporate/eala-3rd-round-2020-french-open-juniors/newsroom-corporate-eala-3rd-round-primary-thumbnail-d.jpg",
      "description": "The 15 year-old and world number 4 will face Spanish bet Leyre Romero Gormaz in the third round.",
      "datePosted": "Oct 06, 2020 | 01:45 PM",
      "titleFromTag": "Corporate"
    }
  ]
}
