{
  "status": 200,
  "page": 164,
  "totalPage": 298,
  "range": "1957-1968",
  "total": 3573,
  "result": [
    {
      "title": "GoWiFi Offers High-Speed Public WiFi in Key Areas in Misamis",
      "nonclickable": false,
      "openNewTab": false,
      "borderArticle": "border-color:#0074D9;",
      "borderTopArticle": "border-top-color:#0074D9;",
      "imageListing": "/sites/globe.com.ph/files/content/dam/globe/brie/AboutUs/newsroom/common/updated/Corporate-globe-thumbnail-listing.jpg",
      "articleUrl": "https://www.globe.com.ph/about-us/newsroom/consumer/gowifi-high-speed-public-wifi-misamis.html",
      "columnType": "articles--type-3",
      "typeListing": "article",
      "imageMobile": "/sites/globe.com.ph/files/content/dam/globe/brie/AboutUs/newsroom/common/updated/Corporate-globe-primary-thumbnail-m.jpg",
      "imageDesktop": "/sites/globe.com.ph/files/content/dam/globe/brie/AboutUs/newsroom/common/updated/Corporate-globe-primary-thumbnail-d.jpg",
      "description": "GoWiFi provides reliable internet access in high-traffic locations in the Misamis province such as hospitals, airports, supermarkets and government offices. ",
      "datePosted": "Oct 06, 2020 | 11:59 AM",
      "titleFromTag": "Consumer"
    },
    {
      "title": "Globe Proactively Engages in Corporate Governance Best Practices",
      "nonclickable": false,
      "openNewTab": false,
      "borderArticle": "border-color:#0074D9;",
      "borderTopArticle": "border-top-color:#0074D9;",
      "imageListing": "/sites/globe.com.ph/files/content/dam/globe/brie/AboutUs/newsroom/common/updated/Corporate-globe-thumbnail-listing.jpg",
      "articleUrl": "https://www.globe.com.ph/about-us/newsroom/corporate/engages-corporate-governance-best-practices.html",
      "columnType": "articles--type-3",
      "typeListing": "article",
      "imageMobile": "/sites/globe.com.ph/files/content/dam/globe/brie/AboutUs/newsroom/common/updated/Corporate-globe-primary-thumbnail-m.jpg",
      "imageDesktop": "/sites/globe.com.ph/files/content/dam/globe/brie/AboutUs/newsroom/common/updated/Corporate-globe-primary-thumbnail-d.jpg",
      "description": "The pandemic has raised significant challenges given the restrictions, issues, and risks that businesses need to face daily in their operations.",
      "datePosted": "Oct 06, 2020 | 10:58 AM",
      "titleFromTag": "Corporate"
    },
    {
      "title": "PH Among Top 10 Countries Worldwide in Telco Investments",
      "nonclickable": false,
      "openNewTab": false,
      "borderArticle": "border-color:#0074D9;",
      "borderTopArticle": "border-top-color:#0074D9;",
      "imageListing": "/sites/globe.com.ph/files/content/dam/globe/brie/AboutUs/newsroom/common/updated/Corporate-globe-thumbnail-listing.jpg",
      "articleUrl": "https://www.globe.com.ph/about-us/newsroom/corporate/ph-among-top-10-countries-worldwide-telco-investments.html",
      "columnType": "articles--type-3",
      "typeListing": "article",
      "imageMobile": "/sites/globe.com.ph/files/content/dam/globe/brie/AboutUs/newsroom/common/updated/Corporate-globe-primary-thumbnail-m.jpg",
      "imageDesktop": "/sites/globe.com.ph/files/content/dam/globe/brie/AboutUs/newsroom/common/updated/Corporate-globe-primary-thumbnail-d.jpg",
      "description": "The Philippines is among the Top 10 countries in the world when it comes to investments in telecommunications based on the IMD World Digital Competitiveness Rankings of 2020.",
      "datePosted": "Oct 05, 2020 | 02:00 PM",
      "titleFromTag": "Corporate"
    },
    {
      "title": "Arellano University Partners With Globe for the Efficient Delivery of Its Blended Learning Platform for School Year 2020–2021",
      "nonclickable": false,
      "openNewTab": false,
      "borderArticle": "border-color:#0074D9;",
      "borderTopArticle": "border-top-color:#0074D9;",
      "imageListing": "/sites/globe.com.ph/files/content/dam/globe/brie/AboutUs/newsroom/business/au-blended-learning-platform/newsroom-business-arellano-university-platform-thumbnail-listing.jpg",
      "articleUrl": "https://www.globe.com.ph/about-us/newsroom/business/au-blended-learning-platform.html",
      "columnType": "articles--type-3",
      "typeListing": "article",
      "imageMobile": "/sites/globe.com.ph/files/content/dam/globe/brie/AboutUs/newsroom/business/au-blended-learning-platform/newsroom-business-arellano-university-platform-primary-thumbnail-m.jpg",
      "imageDesktop": "/sites/globe.com.ph/files/content/dam/globe/brie/AboutUs/newsroom/business/au-blended-learning-platform/newsroom-business-arellano-university-platform-primary-thumbnail-d.jpg",
      "description": "Arellano University partnered with Globe in the acquisition of Internet modems suitable for blended learning.",
      "datePosted": "Oct 05, 2020 | 02:00 PM",
      "titleFromTag": "Business"
    },
    {
      "title": "Globe Network Expansion Brings Telehealth to More People Across PH",
      "nonclickable": false,
      "openNewTab": false,
      "borderArticle": "border-color:#0074D9;",
      "borderTopArticle": "border-top-color:#0074D9;",
      "imageListing": "/sites/globe.com.ph/files/content/dam/globe/brie/AboutUs/newsroom/consumer/globe-expansion-brings-telehealth-more-people/newsroom-consumer-globe-expansion-telehealth-thumbnail-listing.jpg",
      "articleUrl": "https://www.globe.com.ph/about-us/newsroom/consumer/globe-expansion-brings-telehealth-more-people.html",
      "columnType": "articles--type-3",
      "typeListing": "article",
      "imageMobile": "/sites/globe.com.ph/files/content/dam/globe/brie/AboutUs/newsroom/consumer/globe-expansion-brings-telehealth-more-people/newsroom-consumer-globe-expansion-telehealth-primary-thumbnail-m.jpg",
      "imageDesktop": "/sites/globe.com.ph/files/content/dam/globe/brie/AboutUs/newsroom/consumer/globe-expansion-brings-telehealth-more-people/newsroom-consumer-globe-expansion-telehealth-primary-thumbnail-d.jpg",
      "description": "Globe Telecom’s aggressive network upgrade and expansion is envisioned to bring telemedicine services to more people across the country.",
      "datePosted": "Oct 05, 2020 | 12:42 PM",
      "titleFromTag": "Consumer"
    },
    {
      "title": "Providing Sustainable Solutions to the Education Sector",
      "nonclickable": false,
      "openNewTab": false,
      "borderArticle": "border-color:#1C91C5;",
      "borderTopArticle": "border-top-color:#1C91C5;",
      "imageListing": "/sites/globe.com.ph/files/content/dam/globe/brie/AboutUs/newsroom/sustainability/providing-sustainable-solutions-education-sector/newsroom-sustainability-providing-solutions-education-thumbnail-listing.jpg",
      "articleUrl": "https://www.globe.com.ph/about-us/newsroom/sustainability/providing-sustainable-solutions-education-sector.html",
      "columnType": "articles--type-3",
      "typeListing": "article",
      "imageMobile": "/sites/globe.com.ph/files/content/dam/globe/brie/AboutUs/newsroom/sustainability/providing-sustainable-solutions-education-sector/newsroom-sustainability-providing-solutions-education-primary-thumbnail-m.jpg",
      "imageDesktop": "/sites/globe.com.ph/files/content/dam/globe/brie/AboutUs/newsroom/sustainability/providing-sustainable-solutions-education-sector/newsroom-sustainability-providing-solutions-education-primary-thumbnail-d.jpg",
      "description": "Globe is doing its part to make the government’s task easier by lending its resources so educators can deliver quality education even from a distance.",
      "datePosted": "Oct 05, 2020 | 12:36 PM",
      "titleFromTag": "Sustainability"
    },
    {
      "title": "Globe Presents FOREFRONT: The 2020 National Conference on Digital Learning",
      "nonclickable": false,
      "openNewTab": false,
      "borderArticle": "border-color:#0074D9;",
      "borderTopArticle": "border-top-color:#0074D9;",
      "imageListing": "/sites/globe.com.ph/files/content/dam/globe/brie/AboutUs/newsroom/business/forefront-2020-national-conference-digital-learning/newsroom-business-forefront-2020-conference-thumbnail-listing.jpg",
      "articleUrl": "https://www.globe.com.ph/about-us/newsroom/business/forefront-2020-national-conference-digital-learning.html",
      "columnType": "articles--type-3",
      "typeListing": "article",
      "imageMobile": "/sites/globe.com.ph/files/content/dam/globe/brie/AboutUs/newsroom/business/forefront-2020-national-conference-digital-learning/newsroom-business-forefront-2020-conference-primary-thumbnail-m.jpg",
      "imageDesktop": "/sites/globe.com.ph/files/content/dam/globe/brie/AboutUs/newsroom/business/forefront-2020-national-conference-digital-learning/newsroom-business-forefront-2020-conference-primary-thumbnail-d.jpg",
      "description": "To celebrate hardworking individuals and contribute to knowledge sharing in education, Globe held Forefront: The 2020 National Conference on Digital Learning.",
      "datePosted": "Oct 04, 2020 | 11:49 AM",
      "titleFromTag": "Business"
    },
    {
      "title": "AC Health, 917Ventures Urge Doctors Nationwide to Embrace Telehealth",
      "nonclickable": false,
      "openNewTab": false,
      "borderArticle": "border-color:#0074D9;",
      "borderTopArticle": "border-top-color:#0074D9;",
      "imageListing": "/sites/globe.com.ph/files/content/dam/globe/brie/AboutUs/newsroom/917ventures/ac-health-917ventures-urge-doctors-embrace-telehealth/newsroom-917ventures-ac-telehealth-thumbnail-listing.jpg",
      "articleUrl": "https://www.globe.com.ph/about-us/newsroom/917ventures/ac-health-917ventures-urge-doctors-embrace-telehealth.html",
      "columnType": "articles--type-3",
      "typeListing": "article",
      "imageMobile": "/sites/globe.com.ph/files/content/dam/globe/brie/AboutUs/newsroom/917ventures/ac-health-917ventures-urge-doctors-embrace-telehealth/newsroom-917ventures-ac-telehealth-primary-thumbnail-m.jpg",
      "imageDesktop": "/sites/globe.com.ph/files/content/dam/globe/brie/AboutUs/newsroom/917ventures/ac-health-917ventures-urge-doctors-embrace-telehealth/newsroom-917ventures-ac-telehealth-primary-thumbnail-d.jpg",
      "description": "AC Health and 917Ventures are urging doctors nationwide to embrace telehealth to address the primary healthcare needs of patients. ",
      "datePosted": "Oct 02, 2020 | 11:19 PM",
      "titleFromTag": "917Ventures"
    },
    {
      "title": "Globe Secures 700+ Permits to Build More Cell Towers Nationwide",
      "nonclickable": false,
      "openNewTab": false,
      "borderArticle": "border-color:#0074D9;",
      "borderTopArticle": "border-top-color:#0074D9;",
      "imageListing": "/sites/globe.com.ph/files/content/dam/globe/brie/AboutUs/newsroom/corporate/secures-permits-build-more-cell-towers-nationwide/newsroom-corporate-permits-cell-towers-thumbnail-listing.jpg",
      "articleUrl": "https://www.globe.com.ph/about-us/newsroom/corporate/secures-permits-build-more-cell-towers-nationwide.html",
      "columnType": "articles--type-3",
      "typeListing": "article",
      "imageMobile": "/sites/globe.com.ph/files/content/dam/globe/brie/AboutUs/newsroom/corporate/secures-permits-build-more-cell-towers-nationwide/newsroom-corporate-permits-cell-towers-primary-thumbnail-m.jpg",
      "imageDesktop": "/sites/globe.com.ph/files/content/dam/globe/brie/AboutUs/newsroom/corporate/secures-permits-build-more-cell-towers-nationwide/newsroom-corporate-permits-cell-towers-primary-thumbnail-d.jpg",
      "description": "Globe has acquired a total of 715 permits from various LGUs all over the country to spur its bid to improve voice and data experience of its customers.",
      "datePosted": "Oct 02, 2020 | 09:56 PM",
      "titleFromTag": "Corporate"
    },
    {
      "title": "Catch Lee Know, HyunJin, Felix, Seungmin and I.N of Stray Kids on Globe Kmmunity PH LIVE for Free Fanmeet",
      "nonclickable": false,
      "openNewTab": false,
      "borderArticle": "border-color:#0074D9;",
      "borderTopArticle": "border-top-color:#0074D9;",
      "imageListing": "/sites/globe.com.ph/files/content/dam/globe/brie/AboutUs/newsroom/consumer/stray-kids-kmmunity-ph-live-free-fanmeet/newsroom-consumer-stray-kids-kmmunity-thumbnail-listing.jpg",
      "articleUrl": "https://www.globe.com.ph/about-us/newsroom/consumer/stray-kids-kmmunity-ph-live-free-fanmeet.html",
      "columnType": "articles--type-3",
      "typeListing": "article",
      "imageMobile": "/sites/globe.com.ph/files/content/dam/globe/brie/AboutUs/newsroom/consumer/stray-kids-kmmunity-ph-live-free-fanmeet/newsroom-consumer-stray-kids-kmmunity-primary-thumbnail-m.jpg",
      "imageDesktop": "/sites/globe.com.ph/files/content/dam/globe/brie/AboutUs/newsroom/consumer/stray-kids-kmmunity-ph-live-free-fanmeet/newsroom-consumer-stray-kids-kmmunity-primary-thumbnail-d.jpg",
      "description": "While multiple fan events and concerts were postponed this year, the Korean fever in the Philippines is still on full swing!",
      "datePosted": "Oct 02, 2020 | 04:05 PM",
      "titleFromTag": "Consumer"
    },
    {
      "title": "Globe Ambassador Alex Eala Is Seeded No. 2 at French Open Jrs.",
      "nonclickable": false,
      "openNewTab": false,
      "borderArticle": "border-color:#0074D9;",
      "borderTopArticle": "border-top-color:#0074D9;",
      "imageListing": "/sites/globe.com.ph/files/content/dam/globe/brie/AboutUs/newsroom/corporate/alex-eala-seeded-number-2-french-open-juniors/newsroom-corporate-alex-eala-seeded-thumbnail-listing.jpg",
      "articleUrl": "https://www.globe.com.ph/about-us/newsroom/corporate/alex-eala-seeded-number-2-french-open-juniors.html",
      "columnType": "articles--type-3",
      "typeListing": "article",
      "imageMobile": "/sites/globe.com.ph/files/content/dam/globe/brie/AboutUs/newsroom/corporate/alex-eala-seeded-number-2-french-open-juniors/newsroom-corporate-alex-eala-seeded-primary-thumbnail-m.jpg",
      "imageDesktop": "/sites/globe.com.ph/files/content/dam/globe/brie/AboutUs/newsroom/corporate/alex-eala-seeded-number-2-french-open-juniors/newsroom-corporate-alex-eala-seeded-primary-thumbnail-d.jpg",
      "description": "Filipina tennis prodigy and Globe Ambassador Alex Eala is seeded number 2 in the 2020 French Open's junior girls’ tournament at Roland Garros in Paris, France.",
      "datePosted": "Oct 02, 2020 | 02:30 PM",
      "titleFromTag": "Corporate"
    },
    {
      "title": "Globe Ramps Up Fiber Rollouts in NCR, Bulacan, and Other Areas",
      "nonclickable": false,
      "openNewTab": false,
      "borderArticle": "border-color:#0074D9;",
      "borderTopArticle": "border-top-color:#0074D9;",
      "imageListing": "/sites/globe.com.ph/files/content/dam/globe/brie/AboutUs/newsroom/common/default-2/default-business-2-thumbnail-listing.jpg",
      "articleUrl": "https://www.globe.com.ph/about-us/newsroom/corporate/fiber-rollouts-ncr-bulacan-other-areas.html",
      "columnType": "articles--type-3",
      "typeListing": "article",
      "imageMobile": "/sites/globe.com.ph/files/content/dam/globe/brie/AboutUs/newsroom/common/default-2/default-business-2-primary-thumbnail-m.jpg",
      "imageDesktop": "/sites/globe.com.ph/files/content/dam/globe/brie/AboutUs/newsroom/common/default-2/default-business-2-primary-thumbnail-d.jpg",
      "description": "Globe put up additional fiberized lines in Metro Manila, Bulacan, Cavite, and other areas to address gaps in the country's broadband internet connectivity.",
      "datePosted": "Oct 02, 2020 | 02:05 PM",
      "titleFromTag": "Corporate"
    }
  ]
}
