{
  "status": 200,
  "page": 165,
  "totalPage": 298,
  "range": "1969-1980",
  "total": 3573,
  "result": [
    {
      "title": "Globe Holds Webinar on Family’s Role on Mental Health",
      "nonclickable": false,
      "openNewTab": false,
      "borderArticle": "border-color:#0074D9;",
      "borderTopArticle": "border-top-color:#0074D9;",
      "imageListing": "/sites/globe.com.ph/files/content/dam/globe/brie/AboutUs/newsroom/citizenship/webinar-family-role-mental-health/newsroom-citizenship-webinar-mental-health-thumbnail-listing.jpg",
      "articleUrl": "https://www.globe.com.ph/about-us/newsroom/citizenship/webinar-family-role-mental-health.html",
      "columnType": "articles--type-3",
      "typeListing": "article",
      "imageMobile": "/sites/globe.com.ph/files/content/dam/globe/brie/AboutUs/newsroom/citizenship/webinar-family-role-mental-health/newsroom-citizenship-webinar-mental-health-primary-thumbnail-m.jpg",
      "imageDesktop": "/sites/globe.com.ph/files/content/dam/globe/brie/AboutUs/newsroom/citizenship/webinar-family-role-mental-health/newsroom-citizenship-webinar-mental-health-primary-thumbnail-d.jpg",
      "description": "Globe dedicates the next leg of its #StartANewDay webinar to the “Family’s Role on One’s Mental Health”.",
      "datePosted": "Oct 01, 2020 | 01:42 PM",
      "titleFromTag": "Citizenship"
    },
    {
      "title": "Globe Telecom Wins Bid to Aid Quezon City’s Home-Based Learning Program",
      "nonclickable": false,
      "openNewTab": false,
      "borderArticle": "border-color:#0074D9;",
      "borderTopArticle": "border-top-color:#0074D9;",
      "imageListing": "/sites/globe.com.ph/files/content/dam/globe/brie/AboutUs/newsroom/business/wins-bid-quezon-city-home-based-learning-program/updates/Working-Files-thumbnail-listing.jpg",
      "articleUrl": "https://www.globe.com.ph/about-us/newsroom/business/wins-bid-quezon-city-home-based-learning-program.html",
      "columnType": "articles--type-3",
      "typeListing": "article",
      "imageMobile": "/sites/globe.com.ph/files/content/dam/globe/brie/AboutUs/newsroom/business/wins-bid-quezon-city-home-based-learning-program/updates/Working-Files-primary-thumbnail-m.jpg",
      "imageDesktop": "/sites/globe.com.ph/files/content/dam/globe/brie/AboutUs/newsroom/business/wins-bid-quezon-city-home-based-learning-program/updates/Working-Files-primary-thumbnail-d.jpg",
      "description": "Through Globe Education Solutions, pupils from Grades 7 to 12 can benefit from the same quality of online education that private school students experience.",
      "datePosted": "Oct 01, 2020 | 10:31 AM",
      "titleFromTag": "Business"
    },
    {
      "title": "Globe Gains Momentum on Data and Video Experience Improvements, Well-ahead of Aggressive Builds",
      "nonclickable": false,
      "openNewTab": false,
      "borderArticle": "border-color:#0074D9;",
      "borderTopArticle": "border-top-color:#0074D9;",
      "imageListing": "/sites/globe.com.ph/files/content/dam/globe/brie/AboutUs/newsroom/corporate/globe-gains-momentum-data-video-experience-improvements/updates/newsroom-corporate-globe-gains-momentum-thumbnail-listing.jpg",
      "articleUrl": "https://www.globe.com.ph/about-us/newsroom/corporate/globe-gains-momentum-data-video-experience-improvements.html",
      "columnType": "articles--type-3",
      "typeListing": "article",
      "imageMobile": "/sites/globe.com.ph/files/content/dam/globe/brie/AboutUs/newsroom/corporate/globe-gains-momentum-data-video-experience-improvements/updates/newsroom-corporate-globe-gains-momentum-primary-thumbnail-m.jpg",
      "imageDesktop": "/sites/globe.com.ph/files/content/dam/globe/brie/AboutUs/newsroom/corporate/globe-gains-momentum-data-video-experience-improvements/updates/newsroom-corporate-globe-gains-momentum-primary-thumbnail-d.jpg",
      "description": "4G base stations of Globe increased, putting up 28% more than 2018, doubling the deployment of massive MIMO sites, thus considerably adding more data capacity.",
      "datePosted": "Sep 30, 2020 | 09:28 AM",
      "titleFromTag": "Corporate"
    },
    {
      "title": "University of the Philippines Rural High School Supports Students’ Connectivity for eLearning by Partnering with Globe",
      "nonclickable": false,
      "openNewTab": false,
      "borderArticle": "border-color:#0074D9;",
      "borderTopArticle": "border-top-color:#0074D9;",
      "imageListing": "/sites/globe.com.ph/files/content/dam/globe/brie/AboutUs/newsroom/business/uprhs-supports-students-connectivity-elearning/newsroom-business-uprhs-connectivity-elearning-thumbnail-listing.jpg",
      "articleUrl": "https://www.globe.com.ph/about-us/newsroom/business/uprhs-supports-students-connectivity-elearning.html",
      "columnType": "articles--type-3",
      "typeListing": "article",
      "imageMobile": "/sites/globe.com.ph/files/content/dam/globe/brie/AboutUs/newsroom/business/uprhs-supports-students-connectivity-elearning/newsroom-business-uprhs-connectivity-elearning-primary-thumbnail-m.jpg",
      "imageDesktop": "/sites/globe.com.ph/files/content/dam/globe/brie/AboutUs/newsroom/business/uprhs-supports-students-connectivity-elearning/newsroom-business-uprhs-connectivity-elearning-primary-thumbnail-d.jpg",
      "description": "UPLB's UPRHS secured Globe’s EDUC Load Up plan and Amber SMS service to enable blended learning.",
      "datePosted": "Sep 29, 2020 | 10:43 PM",
      "titleFromTag": "Business"
    },
    {
      "title": "TM Partners with Chooks-to-Go Pilipinas 3X3 League to Elevate Pinoy Basketball",
      "nonclickable": false,
      "openNewTab": false,
      "borderArticle": "border-color:#0074D9;",
      "borderTopArticle": "border-top-color:#0074D9;",
      "imageListing": "/sites/globe.com.ph/files/content/dam/globe/brie/AboutUs/newsroom/partners/tm-partners-chooks-to-go-elevate-pinoy-basketball/newsroom-partners-chooks-basketball-thumbnail-listing.jpg",
      "articleUrl": "https://www.globe.com.ph/about-us/newsroom/partners/tm-partners-chooks-to-go-elevate-pinoy-basketball.html",
      "columnType": "articles--type-3",
      "typeListing": "article",
      "imageMobile": "/sites/globe.com.ph/files/content/dam/globe/brie/AboutUs/newsroom/partners/tm-partners-chooks-to-go-elevate-pinoy-basketball/Project-Listicle-0930-optimized.jpg",
      "imageDesktop": "/sites/globe.com.ph/files/content/dam/globe/brie/AboutUs/newsroom/partners/tm-partners-chooks-to-go-elevate-pinoy-basketball/newsroom-partners-chooks-basketball-primary-thumbnail-d.jpg",
      "description": "TM has partnered with Chooks-to-Go Pilipinas 3X3 to show its support for Pinoy basketball and help top local talents take part in international competitions.",
      "datePosted": "Sep 28, 2020 | 01:21 PM",
      "titleFromTag": "Partners"
    },
    {
      "title": "Malayan Colleges Mindanao Gears Up for Modernized Learning with Globe Telecom",
      "nonclickable": false,
      "openNewTab": false,
      "borderArticle": "border-color:#0074D9;",
      "borderTopArticle": "border-top-color:#0074D9;",
      "imageListing": "/sites/globe.com.ph/files/content/dam/globe/brie/AboutUs/newsroom/business/malayan-colleges-mindanao-modernized-learning/newsroom-business-malayan-colleges-mindanao-thumbnail-listing.jpg",
      "articleUrl": "https://www.globe.com.ph/about-us/newsroom/business/malayan-colleges-mindanao-modernized-learning.html",
      "columnType": "articles--type-3",
      "typeListing": "article",
      "imageMobile": "/sites/globe.com.ph/files/content/dam/globe/brie/AboutUs/newsroom/business/malayan-colleges-mindanao-modernized-learning/newsroom-business-malayan-colleges-mindanao-primary-thumbnail-m.jpg",
      "imageDesktop": "/sites/globe.com.ph/files/content/dam/globe/brie/AboutUs/newsroom/business/malayan-colleges-mindanao-modernized-learning/newsroom-business-malayan-colleges-mindanao-primary-thumbnail-d.jpg",
      "description": "Malayan Colleges Mindanao (MCM) has prepared for an entirely digital classroom structure through Zoom Video Conferencing with Globe. ",
      "datePosted": "Sep 28, 2020 | 01:21 PM",
      "titleFromTag": "Business"
    },
    {
      "title": "Japan Philippine Institute of Technology Adopts New Learning Platform Fit for New Normal From Globe",
      "nonclickable": false,
      "openNewTab": false,
      "borderArticle": "border-color:#0074D9;",
      "borderTopArticle": "border-top-color:#0074D9;",
      "imageListing": "/sites/globe.com.ph/files/content/dam/globe/brie/AboutUs/newsroom/business/jpi-adopts-globe-new-normal-learning-platform/newsroom-business-jpi-learning-platform-thumbnail-listing.jpg",
      "articleUrl": "https://www.globe.com.ph/about-us/newsroom/business/jpi-adopts-globe-new-normal-learning-platform.html",
      "columnType": "articles--type-3",
      "typeListing": "article",
      "imageMobile": "/sites/globe.com.ph/files/content/dam/globe/brie/AboutUs/newsroom/business/jpi-adopts-globe-new-normal-learning-platform/newsroom-business-jpi-learning-platform-primary-thumbnail-m.jpg",
      "imageDesktop": "/sites/globe.com.ph/files/content/dam/globe/brie/AboutUs/newsroom/business/jpi-adopts-globe-new-normal-learning-platform/newsroom-business-jpi-learning-platform-primary-thumbnail-d.jpg",
      "description": "As more schools transition to online learning, Japan Philippine Institute of Technology partnered with Globe for the Brightspace Learning Management System.",
      "datePosted": "Sep 28, 2020 | 11:57 AM",
      "titleFromTag": "Business"
    },
    {
      "title": "Win Garena Shells for Call of Duty Mobile Through Globe and Coda Pay",
      "nonclickable": false,
      "openNewTab": false,
      "borderArticle": "border-color:#0074D9;",
      "borderTopArticle": "border-top-color:#0074D9;",
      "imageListing": "/sites/globe.com.ph/files/content/dam/globe/brie/AboutUs/newsroom/consumer/win-garena-shells-cod-mobile-globe-coda-pay/newsroom-consumer-win-garena-shells-thumbnail-listing.jpg",
      "articleUrl": "https://www.globe.com.ph/about-us/newsroom/consumer/win-garena-shells-cod-mobile-globe-coda-pay.html",
      "columnType": "articles--type-3",
      "typeListing": "article",
      "imageMobile": "/sites/globe.com.ph/files/content/dam/globe/brie/AboutUs/newsroom/consumer/win-garena-shells-cod-mobile-globe-coda-pay/newsroom-consumer-win-garena-shells-primary-thumbnail-m.jpg",
      "imageDesktop": "/sites/globe.com.ph/files/content/dam/globe/brie/AboutUs/newsroom/consumer/win-garena-shells-cod-mobile-globe-coda-pay/newsroom-consumer-win-garena-shells-primary-thumbnail-d.jpg",
      "description": "Up to 50,000 Garena shells to be given away by Coda Shop for Call of Duty Mobile, to gamers who use their Globe or TM Prepaid load to pay",
      "datePosted": "Sep 28, 2020 | 11:43 AM",
      "titleFromTag": "Consumer"
    },
    {
      "title": "Globe Calls for Support to Vulnerable Communities Amid the Pandemic",
      "nonclickable": false,
      "openNewTab": false,
      "borderArticle": "border-color:#1C91C5;",
      "borderTopArticle": "border-top-color:#1C91C5;",
      "imageListing": "/sites/globe.com.ph/files/content/dam/globe/brie/AboutUs/newsroom/sustainability/globe-calls-support-vulnerable-communities-amid-pandemic/newsroom-sustainability-globe-calls-support-thumbnail-listing.jpg",
      "articleUrl": "https://www.globe.com.ph/about-us/newsroom/sustainability/globe-calls-support-vulnerable-communities-amid-pandemic.html",
      "columnType": "articles--type-3",
      "typeListing": "article",
      "imageMobile": "/sites/globe.com.ph/files/content/dam/globe/brie/AboutUs/newsroom/sustainability/globe-calls-support-vulnerable-communities-amid-pandemic/newsroom-sustainability-globe-calls-support-primary-thumbnail-m.jpg",
      "imageDesktop": "/sites/globe.com.ph/files/content/dam/globe/brie/AboutUs/newsroom/sustainability/globe-calls-support-vulnerable-communities-amid-pandemic/newsroom-sustainability-globe-calls-support-primary-thumbnail-d.jpg",
      "description": "Globe partnered with Walang Iwanan Alliance, a new citizen-led initiative that seeks to mitigate poverty and hunger's effects among communities.",
      "datePosted": "Sep 28, 2020 | 11:26 AM",
      "titleFromTag": "Sustainability"
    },
    {
      "title": "Globe Boosts 4G Network Capacity in NCR, Rizal, Bulacan and Cavite",
      "nonclickable": false,
      "openNewTab": false,
      "borderArticle": "border-color:#0074D9;",
      "borderTopArticle": "border-top-color:#0074D9;",
      "imageListing": "/sites/globe.com.ph/files/content/dam/globe/brie/AboutUs/newsroom/corporate/globe-boosts-4g-network-capacity-ncr-rizal-bulacan-cavite/update/newsroom-corporate-4g-network-capacity-thumbnail-listing.jpg",
      "articleUrl": "https://www.globe.com.ph/about-us/newsroom/corporate/globe-boosts-4g-network-capacity-ncr-rizal-bulacan-cavite.html",
      "columnType": "articles--type-3",
      "typeListing": "article",
      "imageMobile": "/sites/globe.com.ph/files/content/dam/globe/brie/AboutUs/newsroom/corporate/globe-boosts-4g-network-capacity-ncr-rizal-bulacan-cavite/update/newsroom-corporate-4g-network-capacity-primary-thumbnail-m.jpg",
      "imageDesktop": "/sites/globe.com.ph/files/content/dam/globe/brie/AboutUs/newsroom/corporate/globe-boosts-4g-network-capacity-ncr-rizal-bulacan-cavite/update/newsroom-corporate-4g-network-capacity-primary-thumbnail-d.jpg",
      "description": "Globe’s efforts to modernize its services further have resulted with the successful upgrade of its network to provide incremental 4G capacity in Metro Manila and most areas of Rizal, Bulacan and Cavite.",
      "datePosted": "Sep 28, 2020 | 11:26 AM",
      "titleFromTag": "Corporate"
    },
    {
      "title": "Globe Fires Up 5G Sites in Metro Manila Cities: Find Out if Your Location Is 5G Ready.",
      "nonclickable": false,
      "openNewTab": false,
      "borderArticle": "border-color:#0074D9;",
      "borderTopArticle": "border-top-color:#0074D9;",
      "imageListing": "/sites/globe.com.ph/files/content/dam/globe/brie/AboutUs/newsroom/common/default-5/corporate-default-6-thumbnail-listing.jpg",
      "articleUrl": "https://www.globe.com.ph/about-us/newsroom/corporate/globe-fires-up-5g-sites-metro-manila.html",
      "columnType": "articles--type-3",
      "typeListing": "article",
      "imageMobile": "/sites/globe.com.ph/files/content/dam/globe/brie/AboutUs/newsroom/common/default-5/corporate-default-6-primary-thumbnail-m.jpg",
      "imageDesktop": "/sites/globe.com.ph/files/content/dam/globe/brie/AboutUs/newsroom/common/default-5/corporate-default-6-primary-thumbnail-d.jpg",
      "description": "Globe is committed to making 5G technology accessible to more areas in Metro Manila and nearby locations.",
      "datePosted": "Sep 25, 2020 | 04:00 PM",
      "titleFromTag": "Corporate"
    },
    {
      "title": "Globe Appeals to NTC to Amend Rules on Illegal Repeaters",
      "nonclickable": false,
      "openNewTab": false,
      "borderArticle": "border-color:#0074D9;",
      "borderTopArticle": "border-top-color:#0074D9;",
      "imageListing": "/sites/globe.com.ph/files/content/dam/globe/brie/AboutUs/newsroom/common/updated/Corporate-globe-thumbnail-listing.jpg",
      "articleUrl": "https://www.globe.com.ph/about-us/newsroom/corporate/globe-appeals-ntc-amend-rules-illegal-repeaters.html",
      "columnType": "articles--type-3",
      "typeListing": "article",
      "imageMobile": "/sites/globe.com.ph/files/content/dam/globe/brie/AboutUs/newsroom/common/updated/Corporate-globe-primary-thumbnail-m.jpg",
      "imageDesktop": "/sites/globe.com.ph/files/content/dam/globe/brie/AboutUs/newsroom/common/updated/Corporate-globe-primary-thumbnail-d.jpg",
      "description": "Globe recently submitted its proposal to NTC to amend the NTC Memo, (NTC MO 01-02-2013)  to curb the use of illegal repeaters proliferating in online stores. ",
      "datePosted": "Sep 25, 2020 | 03:36 PM",
      "titleFromTag": "Corporate"
    }
  ]
}
