{
  "status": 200,
  "page": 166,
  "totalPage": 298,
  "range": "1981-1992",
  "total": 3573,
  "result": [
    {
      "title": "Emperador Distillers Inc., Globe Business Enhance Communications and Operations Using Samsung Knox",
      "nonclickable": false,
      "openNewTab": false,
      "borderArticle": "border-color:#0074D9;",
      "borderTopArticle": "border-top-color:#0074D9;",
      "imageListing": "/sites/globe.com.ph/files/content/dam/globe/brie/AboutUs/newsroom/business/emperador-enhances-operations-samsung-knox/newsroom-business-emperador-distillers-operations-thumbnail-listing.jpg",
      "articleUrl": "https://www.globe.com.ph/about-us/newsroom/business/emperador-enhances-operations-samsung-knox.html",
      "columnType": "articles--type-3",
      "typeListing": "article",
      "imageMobile": "/sites/globe.com.ph/files/content/dam/globe/brie/AboutUs/newsroom/business/emperador-enhances-operations-samsung-knox/newsroom-business-emperador-distillers-operations-primary-thumbnail-m.jpg",
      "imageDesktop": "/sites/globe.com.ph/files/content/dam/globe/brie/AboutUs/newsroom/business/emperador-enhances-operations-samsung-knox/newsroom-business-emperador-distillers-operations-primary-thumbnail-d.jpg",
      "description": "Emperador Distillers, Inc. worked with Globe to enhance the former’s enterprise communications and operations.",
      "datePosted": "Sep 25, 2020 | 02:58 PM",
      "titleFromTag": "Business"
    },
    {
      "title": "10 Years After Introducing Data, Globe Embarks on Ambitious Network Upgrade Anew",
      "nonclickable": false,
      "openNewTab": false,
      "borderArticle": "border-color:#0074D9;",
      "borderTopArticle": "border-top-color:#0074D9;",
      "imageListing": "/sites/globe.com.ph/files/content/dam/globe/brie/AboutUs/newsroom/corporate/ambitious-network-upgrade-anew/updates/newsroom-corporate-network-upgrade-thumbnail-listing.jpg",
      "articleUrl": "https://www.globe.com.ph/about-us/newsroom/corporate/ambitious-network-upgrade-anew.html",
      "columnType": "articles--type-3",
      "typeListing": "article",
      "imageMobile": "/sites/globe.com.ph/files/content/dam/globe/brie/AboutUs/newsroom/corporate/ambitious-network-upgrade-anew/updates/newsroom-corporate-network-upgrade-primary-thumbnail-m.jpg",
      "imageDesktop": "/sites/globe.com.ph/files/content/dam/globe/brie/AboutUs/newsroom/corporate/ambitious-network-upgrade-anew/updates/newsroom-corporate-network-upgrade-primary-thumbnail-d.jpg",
      "description": "Globe announces its largest network upgrade to date, 10 years after it introduced data with its nationwide network transformation program.",
      "datePosted": "Sep 24, 2020 | 09:55 AM",
      "titleFromTag": "Corporate"
    },
    {
      "title": "Globe Wins Global Rising Star Award for Most Improved Video Experience",
      "nonclickable": false,
      "openNewTab": false,
      "borderArticle": "border-color:#0074D9;",
      "borderTopArticle": "border-top-color:#0074D9;",
      "imageListing": "/sites/globe.com.ph/files/content/dam/globe/brie/AboutUs/newsroom/corporate/global-rising-star-award-most-improved-video-experience/newsroom-corporate-global-rising-award-thumbnail-listing.jpg",
      "articleUrl": "https://www.globe.com.ph/about-us/newsroom/corporate/global-rising-star-award-most-improved-video-experience.html",
      "columnType": "articles--type-3",
      "typeListing": "article",
      "imageMobile": "/sites/globe.com.ph/files/content/dam/globe/brie/AboutUs/newsroom/corporate/global-rising-star-award-most-improved-video-experience/newsroom-corporate-global-rising-award-primary-thumbnail-m.jpg",
      "imageDesktop": "/sites/globe.com.ph/files/content/dam/globe/brie/AboutUs/newsroom/corporate/global-rising-star-award-most-improved-video-experience/newsroom-corporate-global-rising-award-primary-thumbnail-d.jpg",
      "description": "Globe has been awarded by independent mobile analytics firm Opensignal1 as one of the most improved telcos in video experience worldwide.",
      "datePosted": "Sep 23, 2020 | 12:07 PM",
      "titleFromTag": "Corporate"
    },
    {
      "title": "Upgrade 2G/3G SIMs to 4G for Better Data Experience",
      "nonclickable": false,
      "openNewTab": false,
      "borderArticle": "border-color:#0074D9;",
      "borderTopArticle": "border-top-color:#0074D9;",
      "imageListing": "/sites/globe.com.ph/files/content/dam/globe/brie/AboutUs/newsroom/consumer/upgrade-4g-better-data-experience/newsroom-consumer-upgrade-4g-thumbnail-listing.jpg",
      "articleUrl": "https://www.globe.com.ph/about-us/newsroom/consumer/upgrade-4g-better-data-experience.html",
      "columnType": "articles--type-3",
      "typeListing": "article",
      "imageMobile": "/sites/globe.com.ph/files/content/dam/globe/brie/AboutUs/newsroom/consumer/upgrade-4g-better-data-experience/newsroom-consumer-upgrade-4g-primary-thumbnail-m.jpg",
      "imageDesktop": "/sites/globe.com.ph/files/content/dam/globe/brie/AboutUs/newsroom/consumer/upgrade-4g-better-data-experience/newsroom-consumer-upgrade-4g-primary-thumbnail-d.jpg",
      "description": "Globe is giving its customers a way to have better connectivity and data experience by helping them shift from 2G/3G to 4G without any cost.",
      "datePosted": "Sep 23, 2020 | 10:07 AM",
      "titleFromTag": "Consumer"
    },
    {
      "title": "PH Broadband Prices Have Dropped by More Than 60% Since 2016",
      "nonclickable": false,
      "openNewTab": false,
      "borderArticle": "border-color:#0074D9;",
      "borderTopArticle": "border-top-color:#0074D9;",
      "imageListing": "/sites/globe.com.ph/files/content/dam/globe/brie/AboutUs/newsroom/corporate/ph-broadband-prices-dropped-2016/newsroom-corporate-broadband-prices-dropped-thumbnail-listing.jpg",
      "articleUrl": "https://www.globe.com.ph/about-us/newsroom/corporate/ph-broadband-prices-dropped-2016.html",
      "columnType": "articles--type-3",
      "typeListing": "article",
      "imageMobile": "/sites/globe.com.ph/files/content/dam/globe/brie/AboutUs/newsroom/corporate/ph-broadband-prices-dropped-2016/newsroom-corporate-broadband-prices-dropped-primary-thumbnail-m.jpg",
      "imageDesktop": "/sites/globe.com.ph/files/content/dam/globe/brie/AboutUs/newsroom/corporate/ph-broadband-prices-dropped-2016/newsroom-corporate-broadband-prices-dropped-primary-thumbnail-d.jpg",
      "description": "Sustained efforts by Globe to improve its network performance over the years have resulted in more affordable internet services to its broadband customers.",
      "datePosted": "Sep 22, 2020 | 12:17 PM",
      "titleFromTag": "Corporate"
    },
    {
      "title": "Globe Signs UNGC Statement on Renewed Global Cooperation",
      "nonclickable": false,
      "openNewTab": false,
      "borderArticle": "border-color:#1C91C5;",
      "borderTopArticle": "border-top-color:#1C91C5;",
      "imageListing": "/sites/globe.com.ph/files/content/dam/globe/brie/AboutUs/newsroom/sustainability/ungc-statement-renewed-global-cooperation/newsroom-sustainability-ungc-global-cooperation-thumbnail-listing.jpg",
      "articleUrl": "https://www.globe.com.ph/about-us/newsroom/sustainability/ungc-statement-renewed-global-cooperation.html",
      "columnType": "articles--type-3",
      "typeListing": "article",
      "imageMobile": "/sites/globe.com.ph/files/content/dam/globe/brie/AboutUs/newsroom/sustainability/ungc-statement-renewed-global-cooperation/newsroom-sustainability-ungc-global-cooperation-primary-thumbnail-m.jpg",
      "imageDesktop": "/sites/globe.com.ph/files/content/dam/globe/brie/AboutUs/newsroom/sustainability/ungc-statement-renewed-global-cooperation/newsroom-sustainability-ungc-global-cooperation-primary-thumbnail-d.jpg",
      "description": "By signing the Statement, Globe, through its President and CEO Ernest Cu, demonstrates its commitment in upholding the 10 UNGC principles and the UNSDGs.",
      "datePosted": "Sep 22, 2020 | 08:31 AM",
      "titleFromTag": "Sustainability"
    },
    {
      "title": "Chooks-to-Go Goes Full-On Digital with Globe Business, AdSpark Chatbot",
      "nonclickable": false,
      "openNewTab": false,
      "borderArticle": "border-color:#0074D9;",
      "borderTopArticle": "border-top-color:#0074D9;",
      "imageListing": "/sites/globe.com.ph/files/content/dam/globe/brie/AboutUs/newsroom/business/chooks-to-go-digital-globe-business-adspark-chatbot/newsroom-business-adspark-chatbot-thumbnail-listing.jpg",
      "articleUrl": "https://www.globe.com.ph/about-us/newsroom/business/chooks-to-go-digital-globe-business-adspark-chatbot.html",
      "columnType": "articles--type-3",
      "typeListing": "article",
      "imageMobile": "/sites/globe.com.ph/files/content/dam/globe/brie/AboutUs/newsroom/business/chooks-to-go-digital-globe-business-adspark-chatbot/newsroom-business-adspark-chatbot-primary-thumbnail-m.jpg",
      "imageDesktop": "/sites/globe.com.ph/files/content/dam/globe/brie/AboutUs/newsroom/business/chooks-to-go-digital-globe-business-adspark-chatbot/newsroom-business-adspark-chatbot-primary-thumbnail-d.jpg",
      "description": "Bounty Agro Ventures, Inc. (BAVI) tapped Globe Business to optimize its digital operations and provide customers with contactless access to food products.  ",
      "datePosted": "Sep 22, 2020 | 12:00 AM",
      "titleFromTag": "Business"
    },
    {
      "title": "Globe Announces More Areas in Metro Manila as 5G Ready: Taguig, Pasig, Mandaluyong, Marikina, Parañaque, Muntinlupa, Las Piñas, Valenzuela, and Caloocan",
      "nonclickable": false,
      "openNewTab": false,
      "borderArticle": "border-color:#0074D9;",
      "borderTopArticle": "border-top-color:#0074D9;",
      "imageListing": "/sites/globe.com.ph/files/content/dam/globe/brie/AboutUs/newsroom/common/default-10/default-consumer-2-thumbnail-listing.jpg",
      "articleUrl": "https://www.globe.com.ph/about-us/newsroom/corporate/more-areas-metro-manila-5g-ready.html",
      "columnType": "articles--type-3",
      "typeListing": "article",
      "imageMobile": "/sites/globe.com.ph/files/content/dam/globe/brie/AboutUs/newsroom/common/default-10/default-consumer-2-primary-thumbnail-m.jpg",
      "imageDesktop": "/sites/globe.com.ph/files/content/dam/globe/brie/AboutUs/newsroom/common/default-10/default-consumer-2-primary-thumbnail-d.jpg",
      "description": "These new 5G ready cities include Taguig, Pasig, Mandaluyong, Marikina, Paranaque, Muntinlupa, Las Pin͂as, Valenzuela, and Caloocan.",
      "datePosted": "Sep 19, 2020 | 09:04 AM",
      "titleFromTag": "Corporate"
    },
    {
      "title": "Globe Partners with DLSU for World-Class STEM Education",
      "nonclickable": false,
      "openNewTab": false,
      "borderArticle": "border-color:#1C91C5;",
      "borderTopArticle": "border-top-color:#1C91C5;",
      "imageListing": "/sites/globe.com.ph/files/content/dam/globe/brie/AboutUs/newsroom/sustainability/dlsu-world-class-stem-education/newsroom-sustainability-dlsu-stem-education-thumbnail-listing.jpg",
      "articleUrl": "https://www.globe.com.ph/about-us/newsroom/sustainability/dlsu-world-class-stem-education.html",
      "columnType": "articles--type-3",
      "typeListing": "article",
      "imageMobile": "/sites/globe.com.ph/files/content/dam/globe/brie/AboutUs/newsroom/sustainability/dlsu-world-class-stem-education/newsroom-sustainability-dlsu-stem-education-primary-thumbnail-m.jpg",
      "imageDesktop": "/sites/globe.com.ph/files/content/dam/globe/brie/AboutUs/newsroom/sustainability/dlsu-world-class-stem-education/newsroom-sustainability-dlsu-stem-education-primary-thumbnail-d.jpg",
      "description": "Globe has partnered with De La Salle University (DLSU) to enhance the delivery of world class STEM education to its students. ",
      "datePosted": "Sep 18, 2020 | 02:06 PM",
      "titleFromTag": "Sustainability"
    },
    {
      "title": "GoWiFi Provides High-Speed Internet Across Key Areas in Davao",
      "nonclickable": false,
      "openNewTab": false,
      "borderArticle": "border-color:#0074D9;",
      "borderTopArticle": "border-top-color:#0074D9;",
      "imageListing": "/sites/globe.com.ph/files/content/dam/globe/brie/AboutUs/newsroom/common/default-4/default-consumer-3-thumbnail-listing.jpg",
      "articleUrl": "https://www.globe.com.ph/about-us/newsroom/corporate/gowifi-high-speed-internet-davao.html",
      "columnType": "articles--type-3",
      "typeListing": "article",
      "imageMobile": "/sites/globe.com.ph/files/content/dam/globe/brie/AboutUs/newsroom/common/default-4/default-consumer-3-primary-thumbnail-m.jpg",
      "imageDesktop": "/sites/globe.com.ph/files/content/dam/globe/brie/AboutUs/newsroom/common/default-4/default-consumer-3-primary-thumbnail-d.jpg",
      "description": "GoWiFi delivers free internet connectivity in key Davao locations such as hospitals, government offices, and airports in the province.",
      "datePosted": "Sep 18, 2020 | 10:32 AM",
      "titleFromTag": "Corporate"
    },
    {
      "title": "Loading Your Globe Prepaid and TM Now Made Easy with the Puregold Mobile App",
      "nonclickable": false,
      "openNewTab": false,
      "borderArticle": "border-color:#0074D9;",
      "borderTopArticle": "border-top-color:#0074D9;",
      "imageListing": "/sites/globe.com.ph/files/content/dam/globe/brie/AboutUs/newsroom/consumer/loading-prepaid-tm-easy-puregold-mobile-app/newsroom-consumer-loading-puregold-app-thumbnail-listing.jpg",
      "articleUrl": "https://www.globe.com.ph/about-us/newsroom/consumer/loading-prepaid-tm-easy-puregold-mobile-app.html",
      "columnType": "articles--type-3",
      "typeListing": "article",
      "imageMobile": "/sites/globe.com.ph/files/content/dam/globe/brie/AboutUs/newsroom/consumer/loading-prepaid-tm-easy-puregold-mobile-app/newsroom-consumer-loading-puregold-app-primary-thumbnail-m.jpg",
      "imageDesktop": "/sites/globe.com.ph/files/content/dam/globe/brie/AboutUs/newsroom/consumer/loading-prepaid-tm-easy-puregold-mobile-app/newsroom-consumer-loading-puregold-app-primary-thumbnail-d.jpg",
      "description": "Customers of Puregold have been saying goodbye to the hassle of long queues with the Puregold Mobile App powered by Globe Telecom.",
      "datePosted": "Sep 17, 2020 | 05:45 PM",
      "titleFromTag": "Consumer"
    },
    {
      "title": "Globe Honored as Employer of the Year - Telecom Stevie® Award Winner in 2020 Stevie Awards for Great Employers",
      "nonclickable": false,
      "openNewTab": false,
      "borderArticle": "border-color:#0074D9;",
      "borderTopArticle": "border-top-color:#0074D9;",
      "imageListing": "/sites/globe.com.ph/files/content/dam/globe/brie/AboutUs/newsroom/corporate/telecom-stevie-award-great-employers/newsroom-corporate-telecom-stevie-award-thumbnail-listing.jpg",
      "articleUrl": "https://www.globe.com.ph/about-us/newsroom/corporate/telecom-stevie-award-great-employers.html",
      "columnType": "articles--type-3",
      "typeListing": "article",
      "imageMobile": "/sites/globe.com.ph/files/content/dam/globe/brie/AboutUs/newsroom/corporate/telecom-stevie-award-great-employers/newsroom-corporate-telecom-stevie-award-primary-thumbnail-m.jpg",
      "imageDesktop": "/sites/globe.com.ph/files/content/dam/globe/brie/AboutUs/newsroom/corporate/telecom-stevie-award-great-employers/newsroom-corporate-telecom-stevie-award-primary-thumbnail-d.jpg",
      "description": "For the third consecutive year, Globe Telecom bagged the Gold Stevie Awards for Employer of the Year in Telecommunications.",
      "datePosted": "Sep 17, 2020 | 01:19 PM",
      "titleFromTag": "Corporate"
    }
  ]
}
