{
  "status": 200,
  "page": 167,
  "totalPage": 298,
  "range": "1993-2004",
  "total": 3573,
  "result": [
    {
      "title": "ZRewards, Partners Turn Over Care Packages to Jeepney Drivers",
      "nonclickable": false,
      "openNewTab": false,
      "borderArticle": "border-color:#0074D9;",
      "borderTopArticle": "border-top-color:#0074D9;",
      "imageListing": "/sites/globe.com.ph/files/content/dam/globe/brie/AboutUs/newsroom/917ventures/zrewards-care-packages-jeepney-drivers/newsroom-917ventures-partners-care-packages-thumbnail-listing.jpg",
      "articleUrl": "https://www.globe.com.ph/about-us/newsroom/917ventures/zrewards-care-packages-jeepney-drivers.html",
      "columnType": "articles--type-3",
      "typeListing": "article",
      "imageMobile": "/sites/globe.com.ph/files/content/dam/globe/brie/AboutUs/newsroom/917ventures/zrewards-care-packages-jeepney-drivers/newsroom-917ventures-partners-care-packages-primary-thumbnail-m.jpg",
      "imageDesktop": "/sites/globe.com.ph/files/content/dam/globe/brie/AboutUs/newsroom/917ventures/zrewards-care-packages-jeepney-drivers/newsroom-917ventures-partners-care-packages-primary-thumbnail-d.jpg",
      "description": "ZRewards by Zeal, in partnership with Lalamove and Minimart.ph, turned over care packages composed of food, toiletries, laundry supplies & protective equipment.",
      "datePosted": "Sep 16, 2020 | 02:20 PM",
      "titleFromTag": "917Ventures"
    },
    {
      "title": "Globe At Home Gives Assistance to Frontliners in Western Visayas Medical Center",
      "nonclickable": false,
      "openNewTab": false,
      "borderArticle": "border-color:#0074D9;",
      "borderTopArticle": "border-top-color:#0074D9;",
      "imageListing": "/sites/globe.com.ph/files/content/dam/globe/brie/AboutUs/newsroom/citizenship/globe-at-home-assistance-frontliners-wvmc/newsroom-citizenship-assistance-frontliners-wvmc-thumbnail-listing.jpg",
      "articleUrl": "https://www.globe.com.ph/about-us/newsroom/citizenship/globe-at-home-assistance-frontliners-wvmc.html",
      "columnType": "articles--type-3",
      "typeListing": "article",
      "imageMobile": "/sites/globe.com.ph/files/content/dam/globe/brie/AboutUs/newsroom/citizenship/globe-at-home-assistance-frontliners-wvmc/newsroom-citizenship-assistance-frontliners-wvmc-primary-thumbnail-m.jpg",
      "imageDesktop": "/sites/globe.com.ph/files/content/dam/globe/brie/AboutUs/newsroom/citizenship/globe-at-home-assistance-frontliners-wvmc/newsroom-citizenship-assistance-frontliners-wvmc-primary-thumbnail-d.jpg",
      "description": "Together with its loyal customers, Globe At Home was able to raise a total of PhP 1,782,000 which will be used by WVMC.",
      "datePosted": "Sep 16, 2020 | 01:34 PM",
      "titleFromTag": "Citizenship"
    },
    {
      "title": "Addressing Work-Related Mental Health Issues of Educators",
      "nonclickable": false,
      "openNewTab": false,
      "borderArticle": "border-color:#0074D9;",
      "borderTopArticle": "border-top-color:#0074D9;",
      "imageListing": "/sites/globe.com.ph/files/content/dam/globe/brie/AboutUs/newsroom/citizenship/work-related-mental-health-issues-educators/newsroom-citizenship-work-related-mental-thumbnail-listing.jpg",
      "articleUrl": "https://www.globe.com.ph/about-us/newsroom/citizenship/work-related-mental-health-issues-educators.html",
      "columnType": "articles--type-3",
      "typeListing": "article",
      "imageMobile": "/sites/globe.com.ph/files/content/dam/globe/brie/AboutUs/newsroom/citizenship/work-related-mental-health-issues-educators/newsroom-citizenship-work-related-mental-primary-thumbnail-m.jpg",
      "imageDesktop": "/sites/globe.com.ph/files/content/dam/globe/brie/AboutUs/newsroom/citizenship/work-related-mental-health-issues-educators/newsroom-citizenship-work-related-mentals-primary-thumbnail-d.jpg",
      "description": "The sudden shift in the way education is delivered in the country was truly jolting, but it can also be the best time to learn new teaching & learning methods",
      "datePosted": "Sep 15, 2020 | 01:13 PM",
      "titleFromTag": "Citizenship"
    },
    {
      "title": "Globe Gives Back to Loyal Customers with 0917 National G Day Festivities",
      "nonclickable": false,
      "openNewTab": false,
      "borderArticle": "border-color:#0074D9;",
      "borderTopArticle": "border-top-color:#0074D9;",
      "imageListing": "/sites/globe.com.ph/files/content/dam/globe/brie/AboutUs/newsroom/consumer/globe-gives-back-national-g-day/newsroom-consumer-national-g-day-thumbnail-listing.jpg",
      "articleUrl": "https://www.globe.com.ph/about-us/newsroom/consumer/globe-gives-back-national-g-day.html",
      "columnType": "articles--type-3",
      "typeListing": "article",
      "imageMobile": "/sites/globe.com.ph/files/content/dam/globe/brie/AboutUs/newsroom/consumer/globe-gives-back-national-g-day/newsroom-consumer-national-g-day-primary-thumbnail-m.jpg",
      "imageDesktop": "/sites/globe.com.ph/files/content/dam/globe/brie/AboutUs/newsroom/consumer/globe-gives-back-national-g-day/newsroom-consumer-national-g-day-primary-thumbnail-d.jpg",
      "description": "Given the challenging times we are in, Globe aims to make this year’s National G Day a way to empower and enable its customers as they face the new normal.",
      "datePosted": "Sep 15, 2020 | 10:13 AM",
      "titleFromTag": "Consumer"
    },
    {
      "title": "LCC, Globe Present Tech Tools to Help LGUs Transact Faster",
      "nonclickable": false,
      "openNewTab": false,
      "borderArticle": "border-color:#0074D9;",
      "borderTopArticle": "border-top-color:#0074D9;",
      "imageListing": "/sites/globe.com.ph/files/content/dam/globe/brie/AboutUs/newsroom/corporate/lcc-tech-tools-lgus-transact-faster/newsroom-corporate-lcc-tech-tools-thumbnail-listing.jpg",
      "articleUrl": "https://www.globe.com.ph/about-us/newsroom/corporate/lcc-tech-tools-lgus-transact-faster.html",
      "columnType": "articles--type-3",
      "typeListing": "article",
      "imageMobile": "/sites/globe.com.ph/files/content/dam/globe/brie/AboutUs/newsroom/corporate/lcc-tech-tools-lgus-transact-faster/newsroom-corporate-lcc-tech-tools-primary-thumbnail-m.jpg",
      "imageDesktop": "/sites/globe.com.ph/files/content/dam/globe/brie/AboutUs/newsroom/corporate/lcc-tech-tools-lgus-transact-faster/newsroom-corporate-lcc-tech-tools-primary-thumbnail-d.jpg",
      "description": "The fifth Liveable Cities Lab will focus on GovTech: Technology for Government Transactions.",
      "datePosted": "Sep 14, 2020 | 04:10 PM",
      "titleFromTag": "Corporate"
    },
    {
      "title": "San Pablo Colleges, Inc. Gets AHEAD with the Help of Globe",
      "nonclickable": false,
      "openNewTab": false,
      "borderArticle": "border-color:#0074D9;",
      "borderTopArticle": "border-top-color:#0074D9;",
      "imageListing": "/sites/globe.com.ph/files/content/dam/globe/brie/AboutUs/newsroom/business/san-pablo-colleges-inc-ahead/newsroom-business-san-pablo-colleges-thumbnail-listing.jpg",
      "articleUrl": "https://www.globe.com.ph/about-us/newsroom/business/san-pablo-colleges-inc-ahead.html",
      "columnType": "articles--type-3",
      "typeListing": "article",
      "imageMobile": "/sites/globe.com.ph/files/content/dam/globe/brie/AboutUs/newsroom/business/san-pablo-colleges-inc-ahead/newsroom-business-san-pablo-colleges-primary-thumbnail-m.jpg",
      "imageDesktop": "/sites/globe.com.ph/files/content/dam/globe/brie/AboutUs/newsroom/business/san-pablo-colleges-inc-ahead/newsroom-business-san-pablo-colleges-primary-thumbnail-d.jpg",
      "description": "The school secured Brightspace (LMS) licenses and integrated it with the Alternative Home/Hybrid Education and Asynchronous Distance Learning (AHEAD) platform.",
      "datePosted": "Sep 14, 2020 | 11:31 AM",
      "titleFromTag": "Business"
    },
    {
      "title": "Globe Offers Free WiFi for Cebuanos",
      "nonclickable": false,
      "openNewTab": false,
      "borderArticle": "border-color:#0074D9;",
      "borderTopArticle": "border-top-color:#0074D9;",
      "imageListing": "/sites/globe.com.ph/files/content/dam/globe/brie/AboutUs/newsroom/common/default-6/corporate-default-8-thumbnail-listing.jpg",
      "articleUrl": "https://www.globe.com.ph/about-us/newsroom/corporate/free-wifi-cebuanos.html",
      "columnType": "articles--type-3",
      "typeListing": "article",
      "imageMobile": "/sites/globe.com.ph/files/content/dam/globe/brie/AboutUs/newsroom/common/default-6/corporate-default-8-primary-thumbnail-m.jpg",
      "imageDesktop": "/sites/globe.com.ph/files/content/dam/globe/brie/AboutUs/newsroom/common/default-6/corporate-default-8-primary-thumbnail-d.jpg",
      "description": "GoWiFi has been continuously expanding its services to provide customers with better WiFi experience anytime and anywhere.",
      "datePosted": "Sep 14, 2020 | 11:21 AM",
      "titleFromTag": "Corporate"
    },
    {
      "title": "Globe Spearheads Network Upgrades in Key VisMin Cities",
      "nonclickable": false,
      "openNewTab": false,
      "borderArticle": "border-color:#0074D9;",
      "borderTopArticle": "border-top-color:#0074D9;",
      "imageListing": "/sites/globe.com.ph/files/content/dam/globe/brie/AboutUs/newsroom/common/default-5/corporate-default-6-thumbnail-listing.jpg",
      "articleUrl": "https://www.globe.com.ph/about-us/newsroom/corporate/network-upgrades-key-vismin-cities.html",
      "columnType": "articles--type-3",
      "typeListing": "article",
      "imageMobile": "/sites/globe.com.ph/files/content/dam/globe/brie/AboutUs/newsroom/common/default-5/corporate-default-6-primary-thumbnail-m.jpg",
      "imageDesktop": "/sites/globe.com.ph/files/content/dam/globe/brie/AboutUs/newsroom/common/default-5/corporate-default-6-primary-thumbnail-d.jpg",
      "description": "Globe has started its network upgrades in eight key areas of Visayas and Mindanao to address the growing connectivity needs of its customers.",
      "datePosted": "Sep 12, 2020 | 02:52 PM",
      "titleFromTag": "Corporate"
    },
    {
      "title": "Globe Encourages Suppliers to Adopt Sustainable Practices",
      "nonclickable": false,
      "openNewTab": false,
      "borderArticle": "border-color:#1C91C5;",
      "borderTopArticle": "border-top-color:#1C91C5;",
      "imageListing": "/sites/globe.com.ph/files/content/dam/globe/brie/AboutUs/newsroom/sustainability/suppliers-adopt-sustainable-practices/newsroom-sustainability-suppliers-adopt-sustainable-thumbnail-listing.jpg",
      "articleUrl": "https://www.globe.com.ph/about-us/newsroom/sustainability/suppliers-adopt-sustainable-practices.html",
      "columnType": "articles--type-3",
      "typeListing": "article",
      "imageMobile": "/sites/globe.com.ph/files/content/dam/globe/brie/AboutUs/newsroom/sustainability/suppliers-adopt-sustainable-practices/newsroom-sustainability-suppliers-adopt-sustainable-primary-thumbnail-m.jpg",
      "imageDesktop": "/sites/globe.com.ph/files/content/dam/globe/brie/AboutUs/newsroom/sustainability/suppliers-adopt-sustainable-practices/newsroom-sustainability-suppliers-adopt-sustainable-primary-thumbnail-d.jpg",
      "description": "The company’s 1,000+ suppliers were asked to support Globe’s ambition to deliver substantial indirect economic impact in its operating ecosystem.",
      "datePosted": "Sep 11, 2020 | 01:57 PM",
      "titleFromTag": "Sustainability"
    },
    {
      "title": "Globe Installs New Cell Site, 635 Site Upgrades in Quezon City",
      "nonclickable": false,
      "openNewTab": false,
      "borderArticle": "border-color:#0074D9;",
      "borderTopArticle": "border-top-color:#0074D9;",
      "imageListing": "/sites/globe.com.ph/files/content/dam/globe/brie/AboutUs/newsroom/corporate/new-cell-sites-635-upgrades-quezon-city/newsroom-corporate-cell-sites-qc-thumbnail-listing.jpg",
      "articleUrl": "https://www.globe.com.ph/about-us/newsroom/corporate/new-cell-sites-635-upgrades-quezon-city.html",
      "columnType": "articles--type-3",
      "typeListing": "article",
      "imageMobile": "/sites/globe.com.ph/files/content/dam/globe/brie/AboutUs/newsroom/corporate/new-cell-sites-635-upgrades-quezon-city/newsroom-corporate-cell-sites-qc-primary-thumbnail-m.jpg",
      "imageDesktop": "/sites/globe.com.ph/files/content/dam/globe/brie/AboutUs/newsroom/corporate/new-cell-sites-635-upgrades-quezon-city/newsroom-corporate-cell-sites-qc-primary-thumbnail-d.jpg",
      "description": "Aside from its aggressive network roll out in the provinces, Globe has also expanded its capability and connectivity in Quezon City.",
      "datePosted": "Sep 11, 2020 | 12:13 PM",
      "titleFromTag": "Corporate"
    },
    {
      "title": "Globe Gets 190 Permits in August from 85 LGUs Complying with JMC",
      "nonclickable": false,
      "openNewTab": false,
      "borderArticle": "border-color:#0074D9;",
      "borderTopArticle": "border-top-color:#0074D9;",
      "imageListing": "/sites/globe.com.ph/files/content/dam/globe/brie/AboutUs/newsroom/corporate/190-permits-august-85-lgus-complying-jmc/newsroom-corporate-permits-lgus-jmc-thumbnail-listing.jpg",
      "articleUrl": "https://www.globe.com.ph/about-us/newsroom/corporate/190-permits-august-85-lgus-complying-jmc.html",
      "columnType": "articles--type-3",
      "typeListing": "article",
      "imageMobile": "/sites/globe.com.ph/files/content/dam/globe/brie/AboutUs/newsroom/corporate/190-permits-august-85-lgus-complying-jmc/newsroom-corporate-permits-lgus-jmc-primary-thumbnail-m.jpg",
      "imageDesktop": "/sites/globe.com.ph/files/content/dam/globe/brie/AboutUs/newsroom/corporate/190-permits-august-85-lgus-complying-jmc/newsroom-corporate-permits-lgus-jmc-primary-thumbnail-d.jpg",
      "description": "Of the 190 permits granted, 37 were given in record time by 17 local government units.",
      "datePosted": "Sep 10, 2020 | 02:14 PM",
      "titleFromTag": "Corporate"
    },
    {
      "title": "APEC Schools Brings Online Learning Home with Globe Telecom",
      "nonclickable": false,
      "openNewTab": false,
      "borderArticle": "border-color:#0074D9;",
      "borderTopArticle": "border-top-color:#0074D9;",
      "imageListing": "/sites/globe.com.ph/files/content/dam/globe/brie/AboutUs/newsroom/business/apec-schools-online-learning/newsroom-business-apec-online-learning-thumbnail-listing.jpg",
      "articleUrl": "https://www.globe.com.ph/about-us/newsroom/business/apec-schools-online-learning.html",
      "columnType": "articles--type-3",
      "typeListing": "article",
      "imageMobile": "/sites/globe.com.ph/files/content/dam/globe/brie/AboutUs/newsroom/business/apec-schools-online-learning/newsroom-business-apec-online-learning-primary-thumbnail-m.jpg",
      "imageDesktop": "/sites/globe.com.ph/files/content/dam/globe/brie/AboutUs/newsroom/business/apec-schools-online-learning/newsroom-business-apec-online-learning-primary-thumbnail-d.jpg",
      "description": "The Affordable Private Education Center, Inc., also known as APEC Schools, enlisted Globe as its partner for its Online Learning Program.",
      "datePosted": "Sep 09, 2020 | 07:05 PM",
      "titleFromTag": "Business"
    }
  ]
}
