{
  "status": 200,
  "page": 168,
  "totalPage": 298,
  "range": "2005-2016",
  "total": 3573,
  "result": [
    {
      "title": "Globe Postpaid Brings You One Step Closer to Experiencing #Globe5G with Discounted Prices for 5G Devices",
      "nonclickable": false,
      "openNewTab": false,
      "borderArticle": "border-color:#0074D9;",
      "borderTopArticle": "border-top-color:#0074D9;",
      "imageListing": "/sites/globe.com.ph/files/content/dam/globe/brie/AboutUs/newsroom/consumer/postpaid-discounted-prices-5g-devices/newsroom-consumer-postpaid-discounted-5g-thumbnail-listing.jpg",
      "articleUrl": "https://www.globe.com.ph/about-us/newsroom/consumer/postpaid-discounted-prices-5g-devices.html",
      "columnType": "articles--type-3",
      "typeListing": "article",
      "imageMobile": "/sites/globe.com.ph/files/content/dam/globe/brie/AboutUs/newsroom/consumer/postpaid-discounted-prices-5g-devices/newsroom-consumer-postpaid-discounted-5g-primary-thumbnail-m.jpg",
      "imageDesktop": "/sites/globe.com.ph/files/content/dam/globe/brie/AboutUs/newsroom/consumer/postpaid-discounted-prices-5g-devices/newsroom-consumer-postpaid-discounted-5g-primary-thumbnail-d.jpg",
      "description": "For as low as P1,299 a month, more customers can revolutionize the way they work, learn, play and stay connected w/ Globe Postpaid 5G device plans.",
      "datePosted": "Sep 09, 2020 | 02:55 PM",
      "titleFromTag": "Consumer"
    },
    {
      "title": "Keeping Kids Safe Even with Increased Online Exposure During Pandemic",
      "nonclickable": false,
      "openNewTab": false,
      "borderArticle": "border-color:#1C91C5;",
      "borderTopArticle": "border-top-color:#1C91C5;",
      "imageListing": "/sites/globe.com.ph/files/content/dam/globe/brie/AboutUs/newsroom/sustainability/keeping-kids-safe-increased-online-exposure/newsroom-sustainability-keeping-kids-safe-thumbnail-listing.jpg",
      "articleUrl": "https://www.globe.com.ph/about-us/newsroom/sustainability/keeping-kids-safe-increased-online-exposure.html",
      "columnType": "articles--type-3",
      "typeListing": "article",
      "imageMobile": "/sites/globe.com.ph/files/content/dam/globe/brie/AboutUs/newsroom/sustainability/keeping-kids-safe-increased-online-exposure/newsroom-sustainability-keeping-kids-safe-primary-thumbnail-m.jpg",
      "imageDesktop": "/sites/globe.com.ph/files/content/dam/globe/brie/AboutUs/newsroom/sustainability/keeping-kids-safe-increased-online-exposure/newsroom-sustainability-keeping-kids-safe-primary-thumbnail-d.jpg",
      "description": "The “Gabay Bahay: An Online Parenting Series” discussed different ways that can guide the parents, including how to navigate the Internet safely.",
      "datePosted": "Sep 09, 2020 | 12:17 PM",
      "titleFromTag": "Sustainability"
    },
    {
      "title": "Watch the 2020 NBA Playoffs Live via NBA League Pass Now Available on GCash",
      "nonclickable": false,
      "openNewTab": false,
      "borderArticle": "border-color:#0074D9;",
      "borderTopArticle": "border-top-color:#0074D9;",
      "imageListing": "/sites/globe.com.ph/files/content/dam/globe/brie/AboutUs/newsroom/consumer/2020-playoffs-nba-league-pass-gcash/newsroom-consumer-nba-league-pass-thumbnail-listing.jpg",
      "articleUrl": "https://www.globe.com.ph/about-us/newsroom/consumer/2020-playoffs-nba-league-pass-gcash.html",
      "columnType": "articles--type-3",
      "typeListing": "article",
      "imageMobile": "/sites/globe.com.ph/files/content/dam/globe/brie/AboutUs/newsroom/consumer/2020-playoffs-nba-league-pass-gcash/newsroom-consumer-nba-league-pass-primary-thumbnail-m.jpg",
      "imageDesktop": "/sites/globe.com.ph/files/content/dam/globe/brie/AboutUs/newsroom/consumer/2020-playoffs-nba-league-pass-gcash/newsroom-consumer-nba-league-pass-primary-thumbnail-d.jpg",
      "description": "Basketball fanatics and Globe customers can make their game-winning play by subscribing to NBA League Pass with Globe and GCash.",
      "datePosted": "Sep 09, 2020 | 11:58 AM",
      "titleFromTag": "Consumer"
    },
    {
      "title": "Globe’s Partnership with Tower Companies Underway to Build 900 Sites",
      "nonclickable": false,
      "openNewTab": false,
      "borderArticle": "border-color:#0074D9;",
      "borderTopArticle": "border-top-color:#0074D9;",
      "imageListing": "/sites/globe.com.ph/files/content/dam/globe/brie/AboutUs/newsroom/common/updated/Corporate-globe-thumbnail-listing.jpg",
      "articleUrl": "https://www.globe.com.ph/about-us/newsroom/partners/partnership-tower-companies-900-sites.html",
      "columnType": "articles--type-3",
      "typeListing": "article",
      "imageMobile": "/sites/globe.com.ph/files/content/dam/globe/brie/AboutUs/newsroom/common/updated/Corporate-globe-primary-thumbnail-m.jpg",
      "imageDesktop": "/sites/globe.com.ph/files/content/dam/globe/brie/AboutUs/newsroom/common/updated/Corporate-globe-primary-thumbnail-d.jpg",
      "description": "Globe continues to make significant headway in its tower builds through partnerships with several tower companies (towercos).",
      "datePosted": "Sep 09, 2020 | 11:54 AM",
      "titleFromTag": "Partners"
    },
    {
      "title": "Light of the World Christian Academy of Makati Innovates with Globe for a Better Normal",
      "nonclickable": false,
      "openNewTab": false,
      "borderArticle": "border-color:#0074D9;",
      "borderTopArticle": "border-top-color:#0074D9;",
      "imageListing": "/sites/globe.com.ph/files/content/dam/globe/brie/AboutUs/newsroom/business/light-of-the-world-christian-academy-makati-innovates/newsroom-business-christian-academy-makati-thumbnail-listing.jpg",
      "articleUrl": "https://www.globe.com.ph/about-us/newsroom/business/light-of-the-world-christian-academy-makati-innovates.html",
      "columnType": "articles--type-3",
      "typeListing": "article",
      "imageMobile": "/sites/globe.com.ph/files/content/dam/globe/brie/AboutUs/newsroom/business/light-of-the-world-christian-academy-makati-innovates/newsroom-business-christian-academy-makati-primary-thumbnail-m.jpg",
      "imageDesktop": "/sites/globe.com.ph/files/content/dam/globe/brie/AboutUs/newsroom/business/light-of-the-world-christian-academy-makati-innovates/newsroom-business-christian-academy-makati-primary-thumbnail-d.jpg",
      "description": "Through Globe, CAM secured Brightspace Learning Management System (LMS) licenses and incorporated it into the CAM Virtual Classroom.",
      "datePosted": "Sep 09, 2020 | 11:52 AM",
      "titleFromTag": "Business"
    },
    {
      "title": "Globe Platinum Customers Raise Homeschool Kits for Children in Baseco, while Enjoying Fitness Perks At Home",
      "nonclickable": false,
      "openNewTab": false,
      "borderArticle": "border-color:#0074D9;",
      "borderTopArticle": "border-top-color:#0074D9;",
      "imageListing": "/sites/globe.com.ph/files/content/dam/globe/brie/AboutUs/newsroom/consumer/platinum-homeschool-kits-baseco-fitness-perks/newsroom-consumer-platinum-homeschool-kits-thumbnail-listing.jpg",
      "articleUrl": "https://www.globe.com.ph/about-us/newsroom/consumer/platinum-homeschool-kits-baseco-fitness-perks.html",
      "columnType": "articles--type-3",
      "typeListing": "article",
      "imageMobile": "/sites/globe.com.ph/files/content/dam/globe/brie/AboutUs/newsroom/consumer/platinum-homeschool-kits-baseco-fitness-perks/newsroom-consumer-platinum-homeschool-kits-primary-thumbnail-m.jpg",
      "imageDesktop": "/sites/globe.com.ph/files/content/dam/globe/brie/AboutUs/newsroom/consumer/platinum-homeschool-kits-baseco-fitness-perks/newsroom-consumer-platinum-homeschool-kits-primary-thumbnail-d.jpg",
      "description": "Last September 4-6, Globe Platinum customers attended Electric Weekend, an exclusive 3 day event with free fitness workouts led by Electric Studio instructors.",
      "datePosted": "Sep 08, 2020 | 02:38 PM",
      "titleFromTag": "Consumer"
    },
    {
      "title": "Experience It All with Globe at Home",
      "nonclickable": false,
      "openNewTab": false,
      "borderArticle": "border-color:#0074D9;",
      "borderTopArticle": "border-top-color:#0074D9;",
      "imageListing": "/sites/globe.com.ph/files/content/dam/globe/brie/AboutUs/newsroom/consumer/experience-all-globe-at-home/newsroom-consume-experience-gah-thumbnail-listing.jpg",
      "articleUrl": "https://www.globe.com.ph/about-us/newsroom/consumer/experience-all-globe-at-home.html",
      "columnType": "articles--type-3",
      "typeListing": "article",
      "imageMobile": "/sites/globe.com.ph/files/content/dam/globe/brie/AboutUs/newsroom/consumer/experience-all-globe-at-home/newsroom-consume-experience-gah-primary-thumbnail-m.jpg",
      "imageDesktop": "/sites/globe.com.ph/files/content/dam/globe/brie/AboutUs/newsroom/consumer/experience-all-globe-at-home/newsroom-consume-experience-gah-primary-thumbnail-d.jpg",
      "description": "Globe At Home offers a complete set of experiences for every type of household.",
      "datePosted": "Sep 08, 2020 | 12:31 PM",
      "titleFromTag": "Consumer"
    },
    {
      "title": "Catch the Cast of Running Man at Globe Kmmunity PH LIVE for a Free Fan Meet",
      "nonclickable": false,
      "openNewTab": false,
      "borderArticle": "border-color:#0074D9;",
      "borderTopArticle": "border-top-color:#0074D9;",
      "imageListing": "/sites/globe.com.ph/files/content/dam/globe/brie/AboutUs/newsroom/consumer/running-man-cast-kmmunity-ph-live/newsroom-consumer-running-man-kmunnity-thumbnail-listing.jpg",
      "articleUrl": "https://www.globe.com.ph/about-us/newsroom/consumer/running-man-cast-kmmunity-ph-live.html",
      "columnType": "articles--type-3",
      "typeListing": "article",
      "imageMobile": "/sites/globe.com.ph/files/content/dam/globe/brie/AboutUs/newsroom/consumer/running-man-cast-kmmunity-ph-live/newsroom-consumer-running-man-kmunnity-primary-thumbnail-m.jpg",
      "imageDesktop": "/sites/globe.com.ph/files/content/dam/globe/brie/AboutUs/newsroom/consumer/running-man-cast-kmmunity-ph-live/newsroom-consumer-running-man-kmunnity-primary-thumbnail-d.jpg",
      "description": "Globe’s Kmmunity PH just got bigger and better with the addition of several channels to bring more quality K-Culture content to fans.",
      "datePosted": "Sep 08, 2020 | 11:21 AM",
      "titleFromTag": "Consumer"
    },
    {
      "title": "CDO Foodsphere Makes Globe Cloud its Top Digital Solution",
      "nonclickable": false,
      "openNewTab": false,
      "borderArticle": "border-color:#0074D9;",
      "borderTopArticle": "border-top-color:#0074D9;",
      "imageListing": "/sites/globe.com.ph/files/content/dam/globe/brie/AboutUs/newsroom/business/cdo-foodsphere-globe-cloud-solution/newsroom-business-cdo-foodsphere-cloud-thumbnail-listing.jpg",
      "articleUrl": "https://www.globe.com.ph/about-us/newsroom/business/cdo-foodsphere-globe-cloud-solution.html",
      "columnType": "articles--type-3",
      "typeListing": "article",
      "imageMobile": "/sites/globe.com.ph/files/content/dam/globe/brie/AboutUs/newsroom/business/cdo-foodsphere-globe-cloud-solution/newsroom-business-cdo-foodsphere-cloud-primary-thumbnail-m.jpg",
      "imageDesktop": "/sites/globe.com.ph/files/content/dam/globe/brie/AboutUs/newsroom/business/cdo-foodsphere-globe-cloud-solution/newsroom-business-cdo-foodsphere-cloud-primary-thumbnail-d.jpg",
      "description": "Globe Business, together with Amazon Web Services (AWS), conducted a Proof of Concept (POC) with CDO Foodsphere.",
      "datePosted": "Sep 07, 2020 | 05:49 PM",
      "titleFromTag": "Business"
    },
    {
      "title": "Teachers, Students Get Free Access to CHED Online Learning Portal",
      "nonclickable": false,
      "openNewTab": false,
      "borderArticle": "border-color:#1C91C5;",
      "borderTopArticle": "border-top-color:#1C91C5;",
      "imageListing": "/sites/globe.com.ph/files/content/dam/globe/brie/AboutUs/newsroom/sustainability/free-access-ched-learning-portal/newsroom-sustainability-ched-learning-portal-thumbnail-listing.jpg",
      "articleUrl": "https://www.globe.com.ph/about-us/newsroom/sustainability/free-access-ched-learning-portal.html",
      "columnType": "articles--type-3",
      "typeListing": "article",
      "imageMobile": "/sites/globe.com.ph/files/content/dam/globe/brie/AboutUs/newsroom/sustainability/free-access-ched-learning-portal/newsroom-sustainability-ched-learning-portal-primary-thumbnail-m.jpg",
      "imageDesktop": "/sites/globe.com.ph/files/content/dam/globe/brie/AboutUs/newsroom/sustainability/free-access-ched-learning-portal/newsroom-sustainability-ched-learning-portal-primary-thumbnail-d.jpg",
      "description": "Globe has partnered with CHED in offering free data access to the agency’s online learning portal for Globe and TM customers.",
      "datePosted": "Sep 07, 2020 | 01:28 PM",
      "titleFromTag": "Sustainability"
    },
    {
      "title": "Pandemic Spurs Increase in ECPay Partners, Customers",
      "nonclickable": false,
      "openNewTab": false,
      "borderArticle": "border-color:#0074D9;",
      "borderTopArticle": "border-top-color:#0074D9;",
      "imageListing": "/sites/globe.com.ph/files/content/dam/globe/brie/AboutUs/newsroom/common/default-3/corporate-default-7-thumbnail-listing.jpg",
      "articleUrl": "https://www.globe.com.ph/about-us/newsroom/corporate/pandemic-increase-ecpay-partners-customers.html",
      "columnType": "articles--type-3",
      "typeListing": "article",
      "imageMobile": "/sites/globe.com.ph/files/content/dam/globe/brie/AboutUs/newsroom/common/default-3/corporate-default-7-primary-thumbnail-m.jpg",
      "imageDesktop": "/sites/globe.com.ph/files/content/dam/globe/brie/AboutUs/newsroom/common/default-3/corporate-default-7-primary-thumbnail-d.jpg",
      "description": "The service currently has direct access to about 27 million customers nationwide using various digital channels.",
      "datePosted": "Sep 07, 2020 | 01:27 PM",
      "titleFromTag": "Corporate"
    },
    {
      "title": "Globe E-skwela Highlights the Right Mindset and Marketing Strategy for Distance Learning",
      "nonclickable": false,
      "openNewTab": false,
      "borderArticle": "border-color:#0074D9;",
      "borderTopArticle": "border-top-color:#0074D9;",
      "imageListing": "/sites/globe.com.ph/files/content/dam/globe/brie/AboutUs/newsroom/business/e-skwela-right-mindset-marketing-strategy/newsroom-business-e-skwela-right-mindset-thumbnail-listing.jpg",
      "articleUrl": "https://www.globe.com.ph/about-us/newsroom/business/e-skwela-right-mindset-marketing-strategy.html",
      "columnType": "articles--type-3",
      "typeListing": "article",
      "imageMobile": "/sites/globe.com.ph/files/content/dam/globe/brie/AboutUs/newsroom/business/e-skwela-right-mindset-marketing-strategy/newsroom-business-e-skwela-right-mindset-primary-thumbnail-m.jpg",
      "imageDesktop": "/sites/globe.com.ph/files/content/dam/globe/brie/AboutUs/newsroom/business/e-skwela-right-mindset-marketing-strategy/newsroom-business-e-skwela-right-mindset-primary-thumbnail-d.jpg",
      "description": "The discussion highlighted the mindset that teachers must have at this time of crisis as well as how schools can strengthen their marketing in the new normal.",
      "datePosted": "Sep 04, 2020 | 04:05 PM",
      "titleFromTag": "Business"
    }
  ]
}
