{
  "status": 200,
  "page": 169,
  "totalPage": 298,
  "range": "2017-2028",
  "total": 3573,
  "result": [
    {
      "title": "Globe Secures Permits to Build More Towers in Vigan, Other Cities",
      "nonclickable": false,
      "openNewTab": false,
      "borderArticle": "border-color:#0074D9;",
      "borderTopArticle": "border-top-color:#0074D9;",
      "imageListing": "/sites/globe.com.ph/files/content/dam/globe/brie/AboutUs/newsroom/common/default-5/corporate-default-6-thumbnail-listing.jpg",
      "articleUrl": "https://www.globe.com.ph/about-us/newsroom/corporate/permits-build-more-towers-vigan-other-cities.html",
      "columnType": "articles--type-3",
      "typeListing": "article",
      "imageMobile": "/sites/globe.com.ph/files/content/dam/globe/brie/AboutUs/newsroom/common/default-5/corporate-default-6-primary-thumbnail-m.jpg",
      "imageDesktop": "/sites/globe.com.ph/files/content/dam/globe/brie/AboutUs/newsroom/common/default-5/corporate-default-6-primary-thumbnail-d.jpg",
      "description": "Permits to build cell sites were given in Sto. Domingo, Agoo & Vigan in Ilocos Sur while permits were also secured in Sto. Tomas & Batangas City in Batangas.  ",
      "datePosted": "Sep 04, 2020 | 09:45 AM",
      "titleFromTag": "Corporate"
    },
    {
      "title": "Self-Help Made Easier with Globe Digital Apps",
      "nonclickable": false,
      "openNewTab": false,
      "borderArticle": "border-color:#0074D9;",
      "borderTopArticle": "border-top-color:#0074D9;",
      "imageListing": "/sites/globe.com.ph/files/content/dam/globe/brie/AboutUs/newsroom/consumer/self-help-made-easier-globe-digital-apps/newsroom-917ventures-self-help-apps-thumbnail-listing.jpg",
      "articleUrl": "https://www.globe.com.ph/about-us/newsroom/consumer/self-help-made-easier-globe-digital-apps.html",
      "columnType": "articles--type-3",
      "typeListing": "article",
      "imageMobile": "/sites/globe.com.ph/files/content/dam/globe/brie/AboutUs/newsroom/consumer/self-help-made-easier-globe-digital-apps/newsroom-917ventures-self-help-apps-primary-thumbnail-m.jpg",
      "imageDesktop": "/sites/globe.com.ph/files/content/dam/globe/brie/AboutUs/newsroom/consumer/self-help-made-easier-globe-digital-apps/newsroom-917ventures-self-help-apps-primary-thumbnail-d.jpg",
      "description": "Both apps have a feedback form where customers can email their questions or concerns which Globe customer service agents will answer within 24 hours.",
      "datePosted": "Sep 03, 2020 | 09:13 AM",
      "titleFromTag": "Business"
    },
    {
      "title": "Globe, Mano Amiga Bring STEM Program to Underprivileged Students",
      "nonclickable": false,
      "openNewTab": false,
      "borderArticle": "border-color:#1C91C5;",
      "borderTopArticle": "border-top-color:#1C91C5;",
      "imageListing": "/sites/globe.com.ph/files/content/dam/globe/brie/AboutUs/newsroom/sustainability/mano-amiga-stem-program-underpivileged-students/newsroom-sustainability-mano-amiga-stem-thumbnail-listing.jpg",
      "articleUrl": "https://www.globe.com.ph/about-us/newsroom/sustainability/mano-amiga-stem-program-underprivileged-students.html",
      "columnType": "articles--type-3",
      "typeListing": "article",
      "imageMobile": "/sites/globe.com.ph/files/content/dam/globe/brie/AboutUs/newsroom/sustainability/mano-amiga-stem-program-underpivileged-students/newsroom-sustainability-mano-amiga-stem-primary-thumbnail-m.jpg",
      "imageDesktop": "/sites/globe.com.ph/files/content/dam/globe/brie/AboutUs/newsroom/sustainability/mano-amiga-stem-program-underpivileged-students/newsroom-sustainability-mano-amiga-stem-primary-thumbnail-d.jpg",
      "description": "Demand for Science, Technology, Engineering and Mathematics (STEM)-related occupation is among the highest and best paid these days.",
      "datePosted": "Sep 02, 2020 | 02:01 PM",
      "titleFromTag": "Sustainability"
    },
    {
      "title": "ZRewards, Globe Games Launch Mobile Legends Cosplay Contest",
      "nonclickable": false,
      "openNewTab": false,
      "borderArticle": "border-color:#0074D9;",
      "borderTopArticle": "border-top-color:#0074D9;",
      "imageListing": "/sites/globe.com.ph/files/content/dam/globe/brie/AboutUs/newsroom/917ventures/mobile-legends-cosplay-contest/newsroom-917ventures-mobile-legends-contest-thumbnail-listing.jpg",
      "articleUrl": "https://www.globe.com.ph/about-us/newsroom/917ventures/mobile-legends-cosplay-contest.html",
      "columnType": "articles--type-3",
      "typeListing": "article",
      "imageMobile": "/sites/globe.com.ph/files/content/dam/globe/brie/AboutUs/newsroom/917ventures/mobile-legends-cosplay-contest/newsroom-917ventures-mobile-legends-contest-primary-thumbnail-m.jpg",
      "imageDesktop": "/sites/globe.com.ph/files/content/dam/globe/brie/AboutUs/newsroom/917ventures/mobile-legends-cosplay-contest/newsroom-917ventures-mobile-legends-contest-primary-thumbnail-d.jpg",
      "description": "ZRewards by Zeal and Globe Games and eSport came together for an online cosplay competition that will run until September 6, 2020.",
      "datePosted": "Sep 02, 2020 | 01:53 PM",
      "titleFromTag": "917Ventures"
    },
    {
      "title": "Globe At Home, DepEd Equip Selected Public School Teachers with Connectivity for Digital Learning",
      "nonclickable": false,
      "openNewTab": false,
      "borderArticle": "border-color:#1C91C5;",
      "borderTopArticle": "border-top-color:#1C91C5;",
      "imageListing": "/sites/globe.com.ph/files/content/dam/globe/brie/AboutUs/newsroom/sustainability/public-school-teachers-connectivity/newsroom-business-public-school-teachers-thumbnail-listing.jpg",
      "articleUrl": "https://www.globe.com.ph/about-us/newsroom/sustainability/public-school-teachers-connectivity.html",
      "columnType": "articles--type-3",
      "typeListing": "article",
      "imageMobile": "/sites/globe.com.ph/files/content/dam/globe/brie/AboutUs/newsroom/sustainability/public-school-teachers-connectivity/newsroom-business-public-school-teachers-primary-thumbnail-m.jpg",
      "imageDesktop": "/sites/globe.com.ph/files/content/dam/globe/brie/AboutUs/newsroom/sustainability/public-school-teachers-connectivity/newsroom-business-public-school-teachers-primary-thumbnail-d.jpg",
      "description": "Globe At Home recognizes this pressing demand of educators for a fast, reliable, and affordable internet connection.",
      "datePosted": "Sep 01, 2020 | 02:29 PM",
      "titleFromTag": "Sustainability"
    },
    {
      "title": "LCC, Globe Give LGUs First and Knowledge on Data Mining",
      "nonclickable": false,
      "openNewTab": false,
      "borderArticle": "border-color:#0074D9;",
      "borderTopArticle": "border-top-color:#0074D9;",
      "imageListing": "/sites/globe.com.ph/files/content/dam/globe/brie/AboutUs/newsroom/business/lcc-lgu-knowledge-data-mining/newsroom-business-lcc-data-mining-thumbnail-listing.jpg",
      "articleUrl": "https://www.globe.com.ph/about-us/newsroom/business/liveable-cities-labs-webinar-sessions.html",
      "columnType": "articles--type-3",
      "typeListing": "article",
      "imageMobile": "/sites/globe.com.ph/files/content/dam/globe/brie/AboutUs/newsroom/business/lcc-lgu-knowledge-data-mining/newsroom-business-lcc-data-mining-primary-thumbnail-m.jpg",
      "imageDesktop": "/sites/globe.com.ph/files/content/dam/globe/brie/AboutUs/newsroom/business/lcc-lgu-knowledge-data-mining/newsroom-business-lcc-data-mining-primary-thumbnail-d.jpg",
      "description": "The Liveable Cities Lab's 4th section focused on Digital Transformation in a Post-GCQ World: Data Analytics 101: The Value and Use of Data for Managing LGUs.",
      "datePosted": "Sep 01, 2020 | 11:50 AM",
      "titleFromTag": "Business"
    },
    {
      "title": "Ace Saatchi & Saatchi’s Starlighters and Dentsu Jaime Syfu’s Team DJS Advance to Finals of  First-Ever Adobo Cup Inter-Agency Esports Tournament",
      "nonclickable": false,
      "openNewTab": false,
      "borderArticle": "border-color:#0074D9;",
      "borderTopArticle": "border-top-color:#0074D9;",
      "imageListing": "/sites/globe.com.ph/files/content/dam/globe/brie/AboutUs/newsroom/partners/starlighters-team-djs-adobo-cup/newsroom-partners-starlighters-adobo-cup-thumbnail-listing.jpg",
      "articleUrl": "https://www.globe.com.ph/about-us/newsroom/partners/starlighters-team-djs-adobo-cup.html",
      "columnType": "articles--type-3",
      "typeListing": "article",
      "imageMobile": "/sites/globe.com.ph/files/content/dam/globe/brie/AboutUs/newsroom/partners/starlighters-team-djs-adobo-cup/newsroom-partners-starlighters-adobo-cup-primary-thumbnail-m.jpg",
      "imageDesktop": "/sites/globe.com.ph/files/content/dam/globe/brie/AboutUs/newsroom/partners/starlighters-team-djs-adobo-cup/newsroom-partners-starlighters-adobo-cup-primary-thumbnail-d.jpg",
      "description": "The top two teams, Ace Saatchi & Saatchi’s Starlighters and Dentsu Jaime Syfu’s Team DJS shall battle it out in the grand finals set on September 1.",
      "datePosted": "Aug 31, 2020 | 12:11 PM",
      "titleFromTag": "Partners"
    },
    {
      "title": "Globe Sees Stronger Data Demand for Rest of 2020",
      "nonclickable": false,
      "openNewTab": false,
      "borderArticle": "border-color:#0074D9;",
      "borderTopArticle": "border-top-color:#0074D9;",
      "imageListing": "/sites/globe.com.ph/files/content/dam/globe/brie/AboutUs/newsroom/common/default-4/default-consumer-3-thumbnail-listing.jpg",
      "articleUrl": "https://www.globe.com.ph/about-us/newsroom/corporate/stronger-data-demand-2020.html",
      "columnType": "articles--type-3",
      "typeListing": "article",
      "imageMobile": "/sites/globe.com.ph/files/content/dam/globe/brie/AboutUs/newsroom/common/default-4/default-consumer-3-primary-thumbnail-m.jpg",
      "imageDesktop": "/sites/globe.com.ph/files/content/dam/globe/brie/AboutUs/newsroom/common/default-4/default-consumer-3-primary-thumbnail-d.jpg",
      "description": "With more and more sectors of the country embracing the new normal, Globe remains optimistic that strong data demand will continue for the rest of the year.",
      "datePosted": "Aug 31, 2020 | 11:51 AM",
      "titleFromTag": "Corporate"
    },
    {
      "title": "917Ventures Launches FreebieMNL, a Social Gateway to Discounts and Vouchers",
      "nonclickable": false,
      "openNewTab": false,
      "borderArticle": "border-color:#0074D9;",
      "borderTopArticle": "border-top-color:#0074D9;",
      "imageListing": "/sites/globe.com.ph/files/content/dam/globe/brie/AboutUs/newsroom/917ventures/freebiemnl-launch/newsroom-917ventures-freebiemnl-discounts-voucher-thumbnail-listing.jpg",
      "articleUrl": "https://www.globe.com.ph/about-us/newsroom/917ventures/freebiemnl-launch.html",
      "columnType": "articles--type-3",
      "typeListing": "article",
      "imageMobile": "/sites/globe.com.ph/files/content/dam/globe/brie/AboutUs/newsroom/917ventures/freebiemnl-launch/newsroom-917ventures-freebiemnl-discounts-voucher-primary-thumbnail-m.jpg",
      "imageDesktop": "/sites/globe.com.ph/files/content/dam/globe/brie/AboutUs/newsroom/917ventures/freebiemnl-launch/newsroom-917ventures-freebiemnl-discounts-voucher-primary-thumbnail-d.jpg",
      "description": "FreebieMNL offers users a world of vouchers, discounts and freebies all accessible through social media messaging platforms and their website.",
      "datePosted": "Aug 28, 2020 | 03:59 PM",
      "titleFromTag": "917Ventures"
    },
    {
      "title": "Saint Peter’s College of Ormoc School Year 2020-2021 All Set for the New Normal with Globe",
      "nonclickable": false,
      "openNewTab": false,
      "borderArticle": "border-color:#0074D9;",
      "borderTopArticle": "border-top-color:#0074D9;",
      "imageListing": "/sites/globe.com.ph/files/content/dam/globe/brie/AboutUs/newsroom/business/saint-peters-college-ormoc-new-normal/newsroom-business-saint-peters-college-thumbnail-listing.jpg",
      "articleUrl": "https://www.globe.com.ph/about-us/newsroom/business/saint-peters-college-ormoc-new-normal.html",
      "columnType": "articles--type-3",
      "typeListing": "article",
      "imageMobile": "/sites/globe.com.ph/files/content/dam/globe/brie/AboutUs/newsroom/business/saint-peters-college-ormoc-new-normal/newsroom-business-saint-peters-college-primary-thumbnail-m.jpg",
      "imageDesktop": "/sites/globe.com.ph/files/content/dam/globe/brie/AboutUs/newsroom/business/saint-peters-college-ormoc-new-normal/newsroom-business-saint-peters-college-primary-thumbnail-d.jpg",
      "description": "In partnership with Globe, Saint Peter's College Ormoc will ensure continuity of education powered by Brightspace Learning Management Systems (LMS).",
      "datePosted": "Aug 28, 2020 | 03:06 PM",
      "titleFromTag": "Business"
    },
    {
      "title": "Filipino-Owned Radiowealth Finance Advances Digital Growth with Globe Business and Cascadeo",
      "nonclickable": false,
      "openNewTab": false,
      "borderArticle": "border-color:#0074D9;",
      "borderTopArticle": "border-top-color:#0074D9;",
      "imageListing": "/sites/globe.com.ph/files/content/dam/globe/brie/AboutUs/newsroom/business/radiowealth-finance-globe-cascadeo/newsroom-business-filipino-radiowealth-finance-thumbnail-listing.jpg",
      "articleUrl": "https://www.globe.com.ph/about-us/newsroom/business/radiowealth-finance-advances-digital-growth.html",
      "columnType": "articles--type-3",
      "typeListing": "article",
      "imageMobile": "/sites/globe.com.ph/files/content/dam/globe/brie/AboutUs/newsroom/business/radiowealth-finance-globe-cascadeo/newsroom-business-filipino-radiowealth-finance-primary-thumbnail-m.jpg",
      "imageDesktop": "/sites/globe.com.ph/files/content/dam/globe/brie/AboutUs/newsroom/business/radiowealth-finance-globe-cascadeo/newsroom-business-filipino-radiowealth-finance-primary-thumbnail-d.jpg",
      "description": "Globe Business collaborated with Cascadeo to support Radiowealth Finance Company, Inc. (RFC) in its journey towards a digitally transformed future. ",
      "datePosted": "Aug 28, 2020 | 02:21 PM",
      "titleFromTag": "Business"
    },
    {
      "title": "During Pandemic, Care for Customers Prevails on Digital",
      "nonclickable": false,
      "openNewTab": false,
      "borderArticle": "border-color:#0074D9;",
      "borderTopArticle": "border-top-color:#0074D9;",
      "imageListing": "/sites/globe.com.ph/files/content/dam/globe/brie/AboutUs/newsroom/common/default-6/corporate-default-8-thumbnail-listing.jpg",
      "articleUrl": "https://www.globe.com.ph/about-us/newsroom/consumer/pandemic-care-customers-digital.html",
      "columnType": "articles--type-3",
      "typeListing": "article",
      "imageMobile": "/sites/globe.com.ph/files/content/dam/globe/brie/AboutUs/newsroom/common/default-6/corporate-default-8-primary-thumbnail-m.jpg",
      "imageDesktop": "/sites/globe.com.ph/files/content/dam/globe/brie/AboutUs/newsroom/common/default-6/corporate-default-8-primary-thumbnail-d.jpg",
      "description": "With many areas struggling under different forms of community quarantine, Globe has innovated its way of caring for customers using digital platforms.",
      "datePosted": "Aug 28, 2020 | 11:38 AM",
      "titleFromTag": "Consumer"
    }
  ]
}
