{
  "status": 200,
  "page": 17,
  "totalPage": 298,
  "range": "193-204",
  "total": 3573,
  "result": [
    {
      "title": "Globe Readies Network, Prepositions Personnel and Supplies for Potential Impact of Typhoon Egay",
      "nonclickable": false,
      "openNewTab": false,
      "borderArticle": "border-color:#0074D9;",
      "borderTopArticle": "border-top-color:#0074D9;",
      "imageListing": "/sites/globe.com.ph/files/content/dam/globe/brie/AboutUs/newsroom/sustainability/globe-readies-network-prepositions-personnel-and-supplies-for-potential-impact-of-typhoon-egay/corp-listing-thumbnail.jpg",
      "articleUrl": "https://www.globe.com.ph/about-us/newsroom/sustainability/globe-readies-network-potential-impact-typhoon-egay.html",
      "columnType": "articles--type-3",
      "typeListing": "article",
      "imageMobile": "/sites/globe.com.ph/files/content/dam/globe/brie/AboutUs/newsroom/sustainability/globe-readies-network-prepositions-personnel-and-supplies-for-potential-impact-of-typhoon-egay/corp-primary-banner-m.jpg",
      "imageDesktop": "/sites/globe.com.ph/files/content/dam/globe/brie/AboutUs/newsroom/sustainability/globe-readies-network-prepositions-personnel-and-supplies-for-potential-impact-of-typhoon-egay/corp-primary-thumbnail.jpg",
      "description": "Globe has started to prepare its network, prepositioning personnel and supplies in anticipation of the potential impact of Typhoon Egay.",
      "datePosted": "Jul 25, 2023 | 01:25 PM",
      "titleFromTag": "Sustainability"
    },
    {
      "title": "Asticom CEO Shares Ways to Integrate New Technology Towards Thriving Workplaces",
      "nonclickable": false,
      "openNewTab": false,
      "borderArticle": "border-color:#0074D9;",
      "borderTopArticle": "border-top-color:#0074D9;",
      "imageListing": "/sites/globe.com.ph/files/content/dam/globe/brie/AboutUs/newsroom/common/default-eg-1/eg-default-images-thumbnail-listing.jpg",
      "articleUrl": "https://www.globe.com.ph/about-us/newsroom/corporate/asticom-ceo-ways-integrate-new-technology.html",
      "columnType": "articles--type-3",
      "typeListing": "article",
      "imageMobile": "/sites/globe.com.ph/files/content/dam/globe/brie/AboutUs/newsroom/common/default-eg-1/eg-default-images-primary-thumbnail-m.jpg",
      "imageDesktop": "/sites/globe.com.ph/files/content/dam/globe/brie/AboutUs/newsroom/common/default-eg-1/eg-default-images-primary-thumbnail-d.jpg",
      "description": "Asticom CEO shares insights on how artificial intelligence and automation can enhance human work.",
      "datePosted": "Jul 25, 2023 | 01:23 PM",
      "titleFromTag": "Corporate"
    },
    {
      "title": "RUSH, KonsultaMD Leaders Earn Spots in Prestigious Tatler Gen.T 2023 List",
      "nonclickable": false,
      "openNewTab": false,
      "borderArticle": "border-color:#0074D9;",
      "borderTopArticle": "border-top-color:#0074D9;",
      "imageListing": "/sites/globe.com.ph/files/content/dam/globe/brie/About-us/Newsroom/image/Corporate/rush-konsultamd-leaders-tatler-gent-2023-list/thumbnail-listing.jpg",
      "articleUrl": "https://www.globe.com.ph/about-us/newsroom/corporate/rush-konsultamd-leaders-tatler-gent-2023-list.html",
      "columnType": "articles--type-3",
      "typeListing": "article",
      "imageMobile": "/sites/globe.com.ph/files/content/dam/globe/brie/About-us/Newsroom/image/Corporate/rush-konsultamd-leaders-tatler-gent-2023-list/primary-thumbnail-m.jpg",
      "imageDesktop": "/sites/globe.com.ph/files/content/dam/globe/brie/About-us/Newsroom/image/Corporate/rush-konsultamd-leaders-tatler-gent-2023-list/primary-thumbnail-d.jpg",
      "description": "Two leaders from the Globe Group’s tech companies have made it to Tatler Asia's prestigious 2023 Gen.T List.",
      "datePosted": "Jul 25, 2023 | 12:45 PM",
      "titleFromTag": "Corporate"
    },
    {
      "title": "Globe’s INNOVANIA 2023: A Convergence of Cutting-Edge Technologies and Sustainable Solutions",
      "nonclickable": false,
      "openNewTab": false,
      "borderArticle": "border-color:#0074D9;",
      "borderTopArticle": "border-top-color:#0074D9;",
      "imageListing": "/sites/globe.com.ph/files/content/dam/globe/brie/AboutUs/newsroom/common/default-corporate-tech-3/newsroom-corporate-tech-3-thumbnail-listing.jpg",
      "articleUrl": "https://www.globe.com.ph/about-us/newsroom/corporate/innovania-2023.html",
      "columnType": "articles--type-3",
      "typeListing": "article",
      "imageMobile": "/sites/globe.com.ph/files/content/dam/globe/brie/AboutUs/newsroom/common/default-corporate-tech-3/newsroom-corporate-tech-3-primary-thumbnail-m.jpg",
      "imageDesktop": "/sites/globe.com.ph/files/content/dam/globe/brie/AboutUs/newsroom/common/default-corporate-tech-3/newsroom-corporate-tech-3-primary-thumbnail-d.jpg",
      "description": "Globe demonstrated its preparedness for cutting-edge 5G technologies and showcased sustainable and innovative technology solutions at INNOVANIA 2023.",
      "datePosted": "Jul 25, 2023 | 12:45 PM",
      "titleFromTag": "Corporate"
    },
    {
      "title": "‘Kaya Mo Now’: Globe At Home Launches GFiber Prepaid, PH’s First Affordable Fully Digital Home Prepaid Fiber WiFi Experience",
      "nonclickable": false,
      "openNewTab": false,
      "borderArticle": "border-color:#0074D9;",
      "borderTopArticle": "border-top-color:#0074D9;",
      "imageListing": "/sites/globe.com.ph/files/content/dam/globe/brie/AboutUs/newsroom/common/default-consumer-2/default-consumer-thumbnail-listing.jpg",
      "articleUrl": "https://www.globe.com.ph/about-us/newsroom/consumer/gfiber-prepaid-ph-first-affordable-fully-digital-home.html",
      "columnType": "articles--type-3",
      "typeListing": "article",
      "imageMobile": "/sites/globe.com.ph/files/content/dam/globe/brie/AboutUs/newsroom/common/default-consumer-2/default-consumer-primary-thumbnail-m.jpg",
      "imageDesktop": "/sites/globe.com.ph/files/content/dam/globe/brie/AboutUs/newsroom/common/default-consumer-2/default-consumer-primary-thumbnail-d.jpg",
      "description": "Globe At Home launches GFiber Prepaid, the Philippine’s first affordable home prepaid fiber internet that empowers Filipinos to go beyond their limits. ",
      "datePosted": "Jul 21, 2023 | 01:33 PM",
      "titleFromTag": "Consumer"
    },
    {
      "title": "Globe Redefines Best-in-Class Service at Platinum Summit 2023",
      "nonclickable": false,
      "openNewTab": false,
      "borderArticle": "border-color:#0074D9;",
      "borderTopArticle": "border-top-color:#0074D9;",
      "imageListing": "/sites/globe.com.ph/files/content/dam/globe/brie/About-us/Newsroom/image/Consumer/best-in-class-service-platinum-summit-2023/thumbnail-listing.jpg",
      "articleUrl": "https://www.globe.com.ph/about-us/newsroom/consumer/best-in-class-service-platinum-summit-2023.html",
      "columnType": "articles--type-3",
      "typeListing": "article",
      "imageMobile": "/sites/globe.com.ph/files/content/dam/globe/brie/About-us/Newsroom/image/Consumer/best-in-class-service-platinum-summit-2023/primary-thumbnail-m.jpg",
      "imageDesktop": "/sites/globe.com.ph/files/content/dam/globe/brie/About-us/Newsroom/image/Consumer/best-in-class-service-platinum-summit-2023/primary-thumbnail-d.jpg",
      "description": "Globe Platinum redefines its best-in-class service for its market of established leaders and decision-makers at the Platinum Summit 2023.",
      "datePosted": "Jul 21, 2023 | 01:33 PM",
      "titleFromTag": "Consumer"
    },
    {
      "title": "STT GDC Philippines Partners with Top PH Universities to Build Data Center Talent Pool",
      "nonclickable": false,
      "openNewTab": false,
      "borderArticle": "border-color:#0074D9;",
      "borderTopArticle": "border-top-color:#0074D9;",
      "imageListing": "/sites/globe.com.ph/files/content/dam/globe/brie/AboutUs/newsroom/corporate/stt-gdc-ph-partners-with-top-ph-univers/eg-default-images-thumbnail-listing.jpg",
      "articleUrl": "https://www.globe.com.ph/about-us/newsroom/corporate/stt-gdc-ph-partners-with-top-ph-universities.html",
      "columnType": "articles--type-3",
      "typeListing": "article",
      "imageMobile": "/sites/globe.com.ph/files/content/dam/globe/brie/AboutUs/newsroom/corporate/stt-gdc-ph-partners-with-top-ph-univers/eg-default-images-primary-thumbnail-m.jpg",
      "imageDesktop": "/sites/globe.com.ph/files/content/dam/globe/brie/AboutUs/newsroom/corporate/stt-gdc-ph-partners-with-top-ph-univers/eg-default-images-primary-thumbnail-d.jpg",
      "description": "STT GDCPhilippines and Singapore-based ST Telemedia Global Data Centres is building the country’s data center pool with the country's top universities.",
      "datePosted": "Jul 21, 2023 | 01:26 PM",
      "titleFromTag": "Corporate"
    },
    {
      "title": "Globe Business Celebrates International MSME Day",
      "nonclickable": false,
      "openNewTab": false,
      "borderArticle": "border-color:#0074D9;",
      "borderTopArticle": "border-top-color:#0074D9;",
      "imageListing": "/sites/globe.com.ph/files/content/dam/globe/brie/AboutUs/newsroom/common/default-business-6/sg-default-images-thumbnail-listing.jpg",
      "articleUrl": "https://www.globe.com.ph/about-us/newsroom/business/international-msme-day.html",
      "columnType": "articles--type-3",
      "typeListing": "article",
      "imageMobile": "/sites/globe.com.ph/files/content/dam/globe/brie/AboutUs/newsroom/common/default-business-6/sg-default-images-primary-thumbnail-m.jpg",
      "imageDesktop": "/sites/globe.com.ph/files/content/dam/globe/brie/AboutUs/newsroom/common/default-business-6/sg-default-images-primary-thumbnail-d.jpg",
      "description": "Globe Business celebrated International MSME Day and National MSME Week with its annual brand-building initiative, Saludo MSMEs.",
      "datePosted": "Jul 21, 2023 | 01:21 PM",
      "titleFromTag": "Business"
    },
    {
      "title": "Globe Signs Connectivity Index Rating MOU with DICT, Telcos for Better Indoor Internet Experience",
      "nonclickable": false,
      "openNewTab": false,
      "borderArticle": "border-color:#0074D9;",
      "borderTopArticle": "border-top-color:#0074D9;",
      "imageListing": "/sites/globe.com.ph/files/content/dam/globe/brie/AboutUs/newsroom/common/default-corporate-14/corp-default-images-thumbnail-listing.jpg",
      "articleUrl": "https://www.globe.com.ph/about-us/newsroom/corporate/connectivity-index-rating-mou-dict-telcos.html",
      "columnType": "articles--type-3",
      "typeListing": "article",
      "imageMobile": "/sites/globe.com.ph/files/content/dam/globe/brie/AboutUs/newsroom/common/default-corporate-14/corp-default-images-primary-thumbnail-m.jpg",
      "imageDesktop": "/sites/globe.com.ph/files/content/dam/globe/brie/AboutUs/newsroom/common/default-corporate-14/corp-default-images-primary-thumbnail-d.jpg",
      "description": "Globe welcomes the signing of a MOU between the telecom sector and the DICT on the establishment of a standard Connectivity Index Rating across the country.",
      "datePosted": "Jul 21, 2023 | 01:20 PM",
      "titleFromTag": "Corporate"
    },
    {
      "title": "Globe and MetaverseGo Push Web3 and Innovation Education in PH",
      "nonclickable": false,
      "openNewTab": false,
      "borderArticle": "border-color:#0074D9;",
      "borderTopArticle": "border-top-color:#0074D9;",
      "imageListing": "/sites/globe.com.ph/files/content/dam/globe/brie/AboutUs/newsroom/common/default-education-1/default-sustainability-1-thumbnail-listing.jpg",
      "articleUrl": "https://www.globe.com.ph/about-us/newsroom/corporate/globe-metaversego-push-web3-innovation-education-ph.html",
      "columnType": "articles--type-3",
      "typeListing": "article",
      "imageMobile": "/sites/globe.com.ph/files/content/dam/globe/brie/AboutUs/newsroom/common/default-education-1/default-sustainability-1-primary-thumbnail-m.jpg",
      "imageDesktop": "/sites/globe.com.ph/files/content/dam/globe/brie/AboutUs/newsroom/common/default-education-1/default-sustainability-1-primary-thumbnail-d.jpg",
      "description": "Globe, MetaverseGo partners to promote Web3 and Innovation Education in the Philippines.",
      "datePosted": "Jul 21, 2023 | 01:18 PM",
      "titleFromTag": "Corporate"
    },
    {
      "title": "Globe Bolsters PH Agriculture's Digital Transformation Through Connectivity Support to DA-ATI",
      "nonclickable": false,
      "openNewTab": false,
      "borderArticle": "border-color:#0074D9;",
      "borderTopArticle": "border-top-color:#0074D9;",
      "imageListing": "/sites/globe.com.ph/files/content/dam/globe/brie/AboutUs/newsroom/common/corporate-environmental-default/corp-default-image-thumbnail-listing.jpg",
      "articleUrl": "https://www.globe.com.ph/about-us/newsroom/corporate/globe-bolsters-ph-agricultures-digital-transformation.html",
      "columnType": "articles--type-3",
      "typeListing": "article",
      "imageMobile": "/sites/globe.com.ph/files/content/dam/globe/brie/AboutUs/newsroom/common/corporate-environmental-default/corp-default-image-primary-thumbnail-m.jpg",
      "imageDesktop": "/sites/globe.com.ph/files/content/dam/globe/brie/AboutUs/newsroom/common/corporate-environmental-default/corp-default-image-primary-thumbnail-d.jpg",
      "description": "Globe, in collaboration with DA-ATI, continues to support Philippine agriculture’s digital transformation through ₱1.09 million worth of donations. ",
      "datePosted": "Jul 19, 2023 | 09:30 AM",
      "titleFromTag": "Corporate"
    },
    {
      "title": "Globe Group: Rise in Digital Payments Key to Sustained Economic Recovery in PH",
      "nonclickable": false,
      "openNewTab": false,
      "borderArticle": "border-color:#0074D9;",
      "borderTopArticle": "border-top-color:#0074D9;",
      "imageListing": "/sites/globe.com.ph/files/content/dam/globe/brie/AboutUs/newsroom/common/default-corporate-13/corp-listing-thumbnail.jpg",
      "articleUrl": "https://www.globe.com.ph/about-us/newsroom/corporate/rise-in-digital-payments-key-to-sustained-economic-recovery-ph.html",
      "columnType": "articles--type-3",
      "typeListing": "article",
      "imageMobile": "/sites/globe.com.ph/files/content/dam/globe/brie/AboutUs/newsroom/common/default-corporate-13/corp-primary-banner-m.jpg",
      "imageDesktop": "/sites/globe.com.ph/files/content/dam/globe/brie/AboutUs/newsroom/common/default-corporate-13/corp-primary-thumbnail.jpg",
      "description": "Globe continues to see a positive outlook in the future, as the use of digital payments continues to rise.",
      "datePosted": "Jul 19, 2023 | 09:29 AM",
      "titleFromTag": "Corporate"
    }
  ]
}
