{
  "status": 200,
  "page": 170,
  "totalPage": 298,
  "range": "2029-2040",
  "total": 3573,
  "result": [
    {
      "title": "Globe’s 5G Service Now Available to Prepaid and TM Subscribers",
      "nonclickable": false,
      "openNewTab": false,
      "borderArticle": "border-color:#0074D9;",
      "borderTopArticle": "border-top-color:#0074D9;",
      "imageListing": "/sites/globe.com.ph/files/content/dam/globe/brie/AboutUs/newsroom/consumer/5g-available-prepaid-tm-subscribers/newsroom-consumer-5g-globe-tm-thumbnail-listing.jpg",
      "articleUrl": "https://www.globe.com.ph/about-us/newsroom/consumer/5g-available-prepaid-tm-subscribers.html",
      "columnType": "articles--type-3",
      "typeListing": "article",
      "imageMobile": "/sites/globe.com.ph/files/content/dam/globe/brie/AboutUs/newsroom/consumer/5g-available-prepaid-tm-subscribers/newsroom-consumer-5g-globe-tm-primary-thumbnail-m.jpg",
      "imageDesktop": "/sites/globe.com.ph/files/content/dam/globe/brie/AboutUs/newsroom/consumer/5g-available-prepaid-tm-subscribers/newsroom-consumer-5g-globe-tm-primary-thumbnail-d.jpg",
      "description": "The desire to serve this need is what propels Globe to bring internet connectivity, particularly the latest 5G technology, to more Filipinos. ",
      "datePosted": "Aug 27, 2020 | 02:08 PM",
      "titleFromTag": "Consumer"
    },
    {
      "title": "Tech-Voc Trainees Get Connectivity, Training Support from Globe",
      "nonclickable": false,
      "openNewTab": false,
      "borderArticle": "border-color:#1C91C5;",
      "borderTopArticle": "border-top-color:#1C91C5;",
      "imageListing": "/sites/globe.com.ph/files/content/dam/globe/brie/AboutUs/newsroom/sustainability/tech-voc-trainees-connectivity-training-support/newsroom-sustainability-tech-voc-trainees-thumbnail-listing.jpg",
      "articleUrl": "https://www.globe.com.ph/about-us/newsroom/sustainability/tech-voc-trainees-connectivity-training-support.html",
      "columnType": "articles--type-3",
      "typeListing": "article",
      "imageMobile": "/sites/globe.com.ph/files/content/dam/globe/brie/AboutUs/newsroom/sustainability/tech-voc-trainees-connectivity-training-support/newsroom-sustainability-tech-voc-trainees-primary-thumbnail-m.jpg",
      "imageDesktop": "/sites/globe.com.ph/files/content/dam/globe/brie/AboutUs/newsroom/sustainability/tech-voc-trainees-connectivity-training-support/newsroom-sustainability-tech-voc-trainees-primary-thumbnail-d.jpg",
      "description": "Over 750 combined trainees and scholars of PBEd and FPTI have received connectivity and communications assistance from Globe.",
      "datePosted": "Aug 27, 2020 | 01:27 PM",
      "titleFromTag": "Sustainability"
    },
    {
      "title": "Oriental Mindoro Boosts Connectivity with Globe",
      "nonclickable": false,
      "openNewTab": false,
      "borderArticle": "border-color:#0074D9;",
      "borderTopArticle": "border-top-color:#0074D9;",
      "imageListing": "/sites/globe.com.ph/files/content/dam/globe/brie/AboutUs/newsroom/corporate/oriental-mindoro-boosts-connectivity/newsroom-corporate-oriental-mindoro-connectivity-thumbnail-listing.jpg",
      "articleUrl": "https://www.globe.com.ph/about-us/newsroom/corporate/oriental-mindoro-boosts-connectivity.html",
      "columnType": "articles--type-3",
      "typeListing": "article",
      "imageMobile": "/sites/globe.com.ph/files/content/dam/globe/brie/AboutUs/newsroom/corporate/oriental-mindoro-boosts-connectivity/newsroom-corporate-oriental-mindoro-connectivity-primary-thumbnail-m.jpg",
      "imageDesktop": "/sites/globe.com.ph/files/content/dam/globe/brie/AboutUs/newsroom/corporate/oriental-mindoro-boosts-connectivity/newsroom-corporate-oriental-mindoro-connectivity-primary-thumbnail-d.jpg",
      "description": "The cell site installation in San Mariano will benefit at least four elementary and four secondary schools in Roxas.",
      "datePosted": "Aug 26, 2020 | 12:51 PM",
      "titleFromTag": "Corporate"
    },
    {
      "title": "KonsultaMD Gives LGUs Opportunity to Bring Doctors to Remote Brgys",
      "nonclickable": false,
      "openNewTab": false,
      "borderArticle": "border-color:#0074D9;",
      "borderTopArticle": "border-top-color:#0074D9;",
      "imageListing": "/sites/globe.com.ph/files/content/dam/globe/brie/AboutUs/newsroom/917ventures/konsultamd-lgu-doctors-remote-barangays/newsroom-917ventures-lgu-doctors-brgys-thumbnail-listing.jpg",
      "articleUrl": "https://www.globe.com.ph/about-us/newsroom/917ventures/konsultamd-lgu-doctors-remote-barangays.html",
      "columnType": "articles--type-3",
      "typeListing": "article",
      "imageMobile": "/sites/globe.com.ph/files/content/dam/globe/brie/AboutUs/newsroom/917ventures/konsultamd-lgu-doctors-remote-barangays/newsroom-917ventures-lgu-doctors-brgys-primary-thumbnail-m.jpg",
      "imageDesktop": "/sites/globe.com.ph/files/content/dam/globe/brie/AboutUs/newsroom/917ventures/konsultamd-lgu-doctors-remote-barangays/newsroom-917ventures-lgu-doctors-brgys-primary-thumbnail-d.jpg",
      "description": "KonsultaMD is giving LGUs the option of extending telemedicine to their constituents who live in far-out or remote barangays.",
      "datePosted": "Aug 25, 2020 | 10:23 AM",
      "titleFromTag": "917Ventures"
    },
    {
      "title": "HealthNow All-in-One Health App Launched by 917Ventures & AC Health",
      "nonclickable": false,
      "openNewTab": false,
      "borderArticle": "border-color:#0074D9;",
      "borderTopArticle": "border-top-color:#0074D9;",
      "imageListing": "/sites/globe.com.ph/files/content/dam/globe/brie/AboutUs/newsroom/917ventures/healthnow-app-917ventures-ac-health/newsroom-917ventures-healthnow-app-thumbnail-listing.jpg",
      "articleUrl": "https://www.globe.com.ph/about-us/newsroom/917ventures/healthnow-health-app-launched.html",
      "columnType": "articles--type-3",
      "typeListing": "article",
      "imageMobile": "/sites/globe.com.ph/files/content/dam/globe/brie/AboutUs/newsroom/917ventures/healthnow-app-917ventures-ac-health/newsroom-917ventures-healthnow-app-primary-thumbnail-m.jpg",
      "imageDesktop": "/sites/globe.com.ph/files/content/dam/globe/brie/AboutUs/newsroom/917ventures/healthnow-app-917ventures-ac-health/newsroom-917ventures-healthnow-app-primary-thumbnail-d.jpg",
      "description": "The app provides freedom of choice and flexibility, as users are provided with the options to consult with a doctor anytime, anywhere using video calls.",
      "datePosted": "Aug 24, 2020 | 03:51 PM",
      "titleFromTag": "917Ventures"
    },
    {
      "title": "Globe Campaigns Against Illegal Online Content",
      "nonclickable": false,
      "openNewTab": false,
      "borderArticle": "border-color:#0074D9;",
      "borderTopArticle": "border-top-color:#0074D9;",
      "imageListing": "/sites/globe.com.ph/files/content/dam/globe/brie/AboutUs/newsroom/corporate/campaigns-against-illegal-online-content/newsroom-corporate-campaigns-illegal-content-thumbnail-listing.jpg",
      "articleUrl": "https://www.globe.com.ph/about-us/newsroom/corporate/campaigns-against-illegal-online-content.html",
      "columnType": "articles--type-3",
      "typeListing": "article",
      "imageMobile": "/sites/globe.com.ph/files/content/dam/globe/brie/AboutUs/newsroom/corporate/campaigns-against-illegal-online-content/newsroom-corporate-campaigns-illegal-content-primary-thumbnail-m.jpg",
      "imageDesktop": "/sites/globe.com.ph/files/content/dam/globe/brie/AboutUs/newsroom/corporate/campaigns-against-illegal-online-content/newsroom-corporate-campaigns-illegal-content-primary-thumbnail-d.jpg",
      "description": "Globe Telecom strongly advocates against online piracy which enables illegal streaming or downloading of unfiltered content with its #PlayItRight campaign.",
      "datePosted": "Aug 24, 2020 | 10:55 AM",
      "titleFromTag": "Corporate"
    },
    {
      "title": "Globe Telecom Reigns as Multiple Awardee of Frost & Sullivan",
      "nonclickable": false,
      "openNewTab": false,
      "borderArticle": "border-color:#0074D9;",
      "borderTopArticle": "border-top-color:#0074D9;",
      "imageListing": "/sites/globe.com.ph/files/content/dam/globe/brie/AboutUs/newsroom/business/globe-frost-and-sullivan-multiple-awardee/newsroom-business-frost-sullivan-awardee-normal-thumbnail-listing.jpg",
      "articleUrl": "https://www.globe.com.ph/about-us/newsroom/business/globe-frost-and-sullivan-multiple-awardee.html",
      "columnType": "articles--type-3",
      "typeListing": "article",
      "imageMobile": "/sites/globe.com.ph/files/content/dam/globe/brie/AboutUs/newsroom/business/globe-frost-and-sullivan-multiple-awardee/newsroom-business-frost-sullivan-awardee-normal-primary-thumbnail-m.jpg",
      "imageDesktop": "/sites/globe.com.ph/files/content/dam/globe/brie/AboutUs/newsroom/business/globe-frost-and-sullivan-multiple-awardee/newsroom-business-frost-sullivan-awardee-normal-primary-thumbnail-d.jpg",
      "description": "Globe—through its enterprise arm, Globe Business—achieved yet another set of outstanding awards from global business and consulting firm, Frost & Sullivan.",
      "datePosted": "Aug 24, 2020 | 12:00 AM",
      "titleFromTag": "Business"
    },
    {
      "title": "Saint Anne Learning Center of Mandaue, Inc. Embraces New Normal of Online Learning with Globe",
      "nonclickable": false,
      "openNewTab": false,
      "borderArticle": "border-color:#0074D9;",
      "borderTopArticle": "border-top-color:#0074D9;",
      "imageListing": "/sites/globe.com.ph/files/content/dam/globe/brie/AboutUs/newsroom/business/salcmi-new-normal-digital-learning/newsroom-business-salcmi-new-normal-thumbnail-listing.jpg",
      "articleUrl": "https://www.globe.com.ph/about-us/newsroom/business/salcmi-new-normal-digital-learning.html",
      "columnType": "articles--type-3",
      "typeListing": "article",
      "imageMobile": "/sites/globe.com.ph/files/content/dam/globe/brie/AboutUs/newsroom/business/salcmi-new-normal-digital-learning/newsroom-business-salcmi-new-normal-primary-thumbnail-m.jpg",
      "imageDesktop": "/sites/globe.com.ph/files/content/dam/globe/brie/AboutUs/newsroom/business/salcmi-new-normal-digital-learning/newsroom-business-salcmi-new-normal-primary-thumbnail-d.jpg",
      "description": "The partnership between SALCMI and Globe aims to make this transition easy through Brightspace Learning Management System (LMS).",
      "datePosted": "Aug 20, 2020 | 11:42 AM",
      "titleFromTag": "Business"
    },
    {
      "title": "Globe, TM Customers Get Free Data Access to TESDA Online Courses",
      "nonclickable": false,
      "openNewTab": false,
      "borderArticle": "border-color:#1C91C5;",
      "borderTopArticle": "border-top-color:#1C91C5;",
      "imageListing": "/sites/globe.com.ph/files/content/dam/globe/brie/AboutUs/newsroom/sustainability/globe-tm-free-data-tesda-online-courses/newsroom-sustainability-globe-tm-free-data-thumbnail-listing.jpg",
      "articleUrl": "https://www.globe.com.ph/about-us/newsroom/sustainability/globe-tm-free-data-tesda-online-courses.html",
      "columnType": "articles--type-3",
      "typeListing": "article",
      "imageMobile": "/sites/globe.com.ph/files/content/dam/globe/brie/AboutUs/newsroom/sustainability/globe-tm-free-data-tesda-online-courses/newsroom-sustainability-globe-tm-free-data-primary-thumbnail-m.jpg",
      "imageDesktop": "/sites/globe.com.ph/files/content/dam/globe/brie/AboutUs/newsroom/sustainability/globe-tm-free-data-tesda-online-courses/newsroom-sustainability-globe-tm-free-data-primary-thumbnail-d.jpg",
      "description": "Globe and TM subscribers may now sharpen their technical skills or learn more online while staying at home without worrying about data connectivity cost.  ",
      "datePosted": "Aug 20, 2020 | 11:10 AM",
      "titleFromTag": "Sustainability"
    },
    {
      "title": "Globe 5G Successfully Tests Console-Less Gaming in the Philippines",
      "nonclickable": false,
      "openNewTab": false,
      "borderArticle": "border-color:#0074D9;",
      "borderTopArticle": "border-top-color:#0074D9;",
      "imageListing": "/sites/globe.com.ph/files/content/dam/globe/brie/AboutUs/newsroom/corporate/5g-console-less-gaming/newsroom-corporate-5g-console-gaming-thumbnail-listing.jpg",
      "articleUrl": "https://www.globe.com.ph/about-us/newsroom/corporate/5g-console-less-gaming.html",
      "columnType": "articles--type-3",
      "typeListing": "article",
      "imageMobile": "/sites/globe.com.ph/files/content/dam/globe/brie/AboutUs/newsroom/corporate/5g-console-less-gaming/newsroom-corporate-5g-console-gaming-primary-thumbnail-m.jpg",
      "imageDesktop": "/sites/globe.com.ph/files/content/dam/globe/brie/AboutUs/newsroom/corporate/5g-console-less-gaming/newsroom-corporate-5g-console-gaming-primary-thumbnail-d.jpg",
      "description": "Globe’s ultra fast 5G network played-out TEKKEN7 with a jaw-dropping ultra-low latency. ",
      "datePosted": "Aug 20, 2020 | 08:17 AM",
      "titleFromTag": "Corporate"
    },
    {
      "title": "PHINMA Education, Globe Enable Flexible Learning with Mobile Data for Students",
      "nonclickable": false,
      "openNewTab": false,
      "borderArticle": "border-color:#0074D9;",
      "borderTopArticle": "border-top-color:#0074D9;",
      "imageListing": "/sites/globe.com.ph/files/content/dam/globe/brie/AboutUs/newsroom/business/phinma-education-globe-flexible-learning/newsroom-business-phinma-education-flexible-thumbnail-listing.jpg",
      "articleUrl": "https://www.globe.com.ph/about-us/newsroom/business/phinma-education-globe-flexible-learning.html",
      "columnType": "articles--type-3",
      "typeListing": "article",
      "imageMobile": "/sites/globe.com.ph/files/content/dam/globe/brie/AboutUs/newsroom/business/phinma-education-globe-flexible-learning/newsroom-business-phinma-education-flexible-primary-thumbnail-m.jpg",
      "imageDesktop": "/sites/globe.com.ph/files/content/dam/globe/brie/AboutUs/newsroom/business/phinma-education-globe-flexible-learning/newsroom-business-phinma-education-flexible-primary-thumbnail-d.jpg",
      "description": "PHINMA Education recently partnered with Globe Telecom to provide mobile data to selected schools in its system as part of its FlexLearning@PHINMAEd program.",
      "datePosted": "Aug 19, 2020 | 05:30 PM",
      "titleFromTag": "Business"
    },
    {
      "title": "5G Networks, Phones Not Harmful, Will Not Fry Your Brain",
      "nonclickable": false,
      "openNewTab": false,
      "borderArticle": "border-color:#0074D9;",
      "borderTopArticle": "border-top-color:#0074D9;",
      "imageListing": "/sites/globe.com.ph/files/content/dam/globe/brie/AboutUs/newsroom/common/default-8/default-corporate-2-thumbnail-listing.jpg",
      "articleUrl": "https://www.globe.com.ph/about-us/newsroom/corporate/5g-networks-phones-not-harmful.html",
      "columnType": "articles--type-3",
      "typeListing": "article",
      "imageMobile": "/sites/globe.com.ph/files/content/dam/globe/brie/AboutUs/newsroom/common/default-8/default-corporate-2-primary-thumbnail-m.jpg",
      "imageDesktop": "/sites/globe.com.ph/files/content/dam/globe/brie/AboutUs/newsroom/common/default-8/default-corporate-2-primary-thumbnail-d.jpg",
      "description": "Avoid falling prey to misconceptions and misinformation on 5G technology or a 5G capable phone.",
      "datePosted": "Aug 19, 2020 | 05:05 PM",
      "titleFromTag": "Corporate"
    }
  ]
}
