{
  "status": 200,
  "page": 171,
  "totalPage": 298,
  "range": "2041-2052",
  "total": 3573,
  "result": [
    {
      "title": "Globe Invests in a System Integration and Business Application Company",
      "nonclickable": false,
      "openNewTab": false,
      "borderArticle": "border-color:#0074D9;",
      "borderTopArticle": "border-top-color:#0074D9;",
      "imageListing": "/sites/globe.com.ph/files/content/dam/globe/brie/AboutUs/newsroom/common/updated/Corporate-globe-thumbnail-listing.jpg",
      "articleUrl": "https://www.globe.com.ph/about-us/newsroom/corporate/globe-invests-third-pillar-business-applications.html",
      "columnType": "articles--type-3",
      "typeListing": "article",
      "imageMobile": "/sites/globe.com.ph/files/content/dam/globe/brie/AboutUs/newsroom/common/updated/Corporate-globe-primary-thumbnail-m.jpg",
      "imageDesktop": "/sites/globe.com.ph/files/content/dam/globe/brie/AboutUs/newsroom/common/updated/Corporate-globe-primary-thumbnail-d.jpg",
      "description": "Globe, through its wholly owned subsidiary, GTI Business Holdings, Inc., has entered into an agreement to acquire 67% stake in TPBAI.",
      "datePosted": "Aug 17, 2020 | 03:16 PM",
      "titleFromTag": "Corporate"
    },
    {
      "title": "Teachers Get Training Boost from Globe’s GFT Program",
      "nonclickable": false,
      "openNewTab": false,
      "borderArticle": "border-color:#1C91C5;",
      "borderTopArticle": "border-top-color:#1C91C5;",
      "imageListing": "/sites/globe.com.ph/files/content/dam/globe/brie/AboutUs/newsroom/sustainability/teachers-training-boost-gft-program/newsroom-sustainability-teachers-training-boost-thumbnail-listing.jpg",
      "articleUrl": "https://www.globe.com.ph/about-us/newsroom/sustainability/teachers-training-boost-gft-program.html",
      "columnType": "articles--type-3",
      "typeListing": "article",
      "imageMobile": "/sites/globe.com.ph/files/content/dam/globe/brie/AboutUs/newsroom/sustainability/teachers-training-boost-gft-program/newsroom-sustainability-teachers-training-boost-primary-thumbnail-m.jpg",
      "imageDesktop": "/sites/globe.com.ph/files/content/dam/globe/brie/AboutUs/newsroom/sustainability/teachers-training-boost-gft-program/newsroom-sustainability-teachers-training-boost-primary-thumbnail-d.jpg",
      "description": "Being a strong advocate of 21st century learning, Globe has lined up a modified series of training  under its Global Filipino Teachers (GFT) program.",
      "datePosted": "Aug 17, 2020 | 12:10 PM",
      "titleFromTag": "Sustainability"
    },
    {
      "title": "LCC, Experts to Weigh in on LGUs’ Health Issues Amid Pandemic",
      "nonclickable": false,
      "openNewTab": false,
      "borderArticle": "border-color:#0074D9;",
      "borderTopArticle": "border-top-color:#0074D9;",
      "imageListing": "/sites/globe.com.ph/files/content/dam/globe/brie/AboutUs/newsroom/business/lcc-experts-lgu-health-issues/newsroom-business-lcc-experts-lgu-thumbnail-listing.jpg",
      "articleUrl": "https://www.globe.com.ph/about-us/newsroom/business/lcc-experts-lgu-health-issues.html",
      "columnType": "articles--type-3",
      "typeListing": "article",
      "imageMobile": "/sites/globe.com.ph/files/content/dam/globe/brie/AboutUs/newsroom/business/lcc-experts-lgu-health-issues/newsroom-business-lcc-experts-lgu-primary-thumbnail-m.jpg",
      "imageDesktop": "/sites/globe.com.ph/files/content/dam/globe/brie/AboutUs/newsroom/business/lcc-experts-lgu-health-issues/newsroom-business-lcc-experts-lgu-primary-thumbnail-d.jpg",
      "description": "The Liveable Cities Labs is a series of webinar sessions to gear up cities with knowledge and insights for designing better solutions for their communities.",
      "datePosted": "Aug 17, 2020 | 11:58 AM",
      "titleFromTag": "Business"
    },
    {
      "title": "Globe First to Answer Liloan’s Call for Connectivity for its Barangays",
      "nonclickable": false,
      "openNewTab": false,
      "borderArticle": "border-color:#0074D9;",
      "borderTopArticle": "border-top-color:#0074D9;",
      "imageListing": "/sites/globe.com.ph/files/content/dam/globe/brie/AboutUs/newsroom/partners/liloan-call-for-connectivity/newsroom-partners-liloan-connectivity-barangays-thumbnail-listing.jpg",
      "articleUrl": "https://www.globe.com.ph/about-us/newsroom/partners/liloan-call-for-connectivity.html",
      "columnType": "articles--type-3",
      "typeListing": "article",
      "imageMobile": "/sites/globe.com.ph/files/content/dam/globe/brie/AboutUs/newsroom/partners/liloan-call-for-connectivity/newsroom-partners-liloan-connectivity-barangays-primary-thumbnail-m.jpg",
      "imageDesktop": "/sites/globe.com.ph/files/content/dam/globe/brie/AboutUs/newsroom/partners/liloan-call-for-connectivity/newsroom-partners-liloan-connectivity-barangays-primary-thumbnail-d.jpg",
      "description": "Mayor Christina Frasco, along with other officials of Liloan and Globe representatives, led the groundbreaking rites in San Roque.",
      "datePosted": "Aug 14, 2020 | 02:08 PM",
      "titleFromTag": "Partners"
    },
    {
      "title": "Globe Makes it to FTSE4Good Index Series for 5th Consecutive Year",
      "nonclickable": false,
      "openNewTab": false,
      "borderArticle": "border-color:#0074D9;",
      "borderTopArticle": "border-top-color:#0074D9;",
      "imageListing": "/sites/globe.com.ph/files/content/dam/globe/brie/AboutUs/newsroom/corporate/ftse4good-index-series-5th-year/newsroom-corporate-ftseforgood-5th-year-thumbnail-listing.jpg",
      "articleUrl": "https://www.globe.com.ph/about-us/newsroom/corporate/ftse4good-index-series-5th-year.html",
      "columnType": "articles--type-3",
      "typeListing": "article",
      "imageMobile": "/sites/globe.com.ph/files/content/dam/globe/brie/AboutUs/newsroom/corporate/ftse4good-index-series-5th-year/newsroom-corporate-ftseforgood-5th-year-primary-thumbnail-m.jpg",
      "imageDesktop": "/sites/globe.com.ph/files/content/dam/globe/brie/AboutUs/newsroom/corporate/ftse4good-index-series-5th-year/newsroom-corporate-ftseforgood-5th-year-primary-thumbnail-d.jpg",
      "description": "The FTSE4Good indices are used by a wide variety of market participants to create and assess responsible investment funds and other products.",
      "datePosted": "Aug 14, 2020 | 12:24 PM",
      "titleFromTag": "Corporate"
    },
    {
      "title": "Globe’s KapitWiFi Technology Bags Two Wins at 2020 APAC Stevie Awards",
      "nonclickable": false,
      "openNewTab": false,
      "borderArticle": "border-color:#0074D9;",
      "borderTopArticle": "border-top-color:#0074D9;",
      "imageListing": "/sites/globe.com.ph/files/content/dam/globe/brie/AboutUs/newsroom/common/updated/Corporate-globe-thumbnail-listing.jpg",
      "articleUrl": "https://www.globe.com.ph/about-us/newsroom/corporate/kapitwifi-two-wins-2020-apac-stevie-awards.html",
      "columnType": "articles--type-3",
      "typeListing": "article",
      "imageMobile": "/sites/globe.com.ph/files/content/dam/globe/brie/AboutUs/newsroom/common/updated/Corporate-globe-primary-thumbnail-m.jpg",
      "imageDesktop": "/sites/globe.com.ph/files/content/dam/globe/brie/AboutUs/newsroom/common/updated/Corporate-globe-primary-banner-d.jpg",
      "description": "Globe Telecom has again received international recognition as it bagged two Asia Pacific Stevie Awards in 2020 for KapitWiFi. ",
      "datePosted": "Aug 14, 2020 | 12:07 PM",
      "titleFromTag": "Corporate"
    },
    {
      "title": "Globe Urges LGUs to Explore E-Commerce, Cashless Payments",
      "nonclickable": false,
      "openNewTab": false,
      "borderArticle": "border-color:#0074D9;",
      "borderTopArticle": "border-top-color:#0074D9;",
      "imageListing": "/sites/globe.com.ph/files/content/dam/globe/brie/AboutUs/newsroom/business/lgus-e-commerce-cashless-payments/newsroom-business-lgus-cashless-payments-thumbnail-listing.jpg",
      "articleUrl": "https://www.globe.com.ph/about-us/newsroom/business/lgus-e-commerce-cashless-payments.html",
      "columnType": "articles--type-3",
      "typeListing": "article",
      "imageMobile": "/sites/globe.com.ph/files/content/dam/globe/brie/AboutUs/newsroom/business/lgus-e-commerce-cashless-payments/newsroom-business-lgus-cashless-payments-primary-thumbnail-m.jpg",
      "imageDesktop": "/sites/globe.com.ph/files/content/dam/globe/brie/AboutUs/newsroom/business/lgus-e-commerce-cashless-payments/newsroom-business-lgus-cashless-payments-primary-thumbnail-d.jpg",
      "description": "Globe encourages LGUs to boost their e-commerce for convenience and safety of their constituents and to help SMEs in their  online business. ",
      "datePosted": "Aug 14, 2020 | 11:42 AM",
      "titleFromTag": "Business"
    },
    {
      "title": "Globe and TM Recreate Sing-Along Bonding with WeSing",
      "nonclickable": false,
      "openNewTab": false,
      "borderArticle": "border-color:#0074D9;",
      "borderTopArticle": "border-top-color:#0074D9;",
      "imageListing": "/sites/globe.com.ph/files/content/dam/globe/brie/AboutUs/newsroom/partners/globe-tm-sing-along-bonding-wesing/newsroom-partners-globe-tm-wesing-thumbnail-listing.jpg",
      "articleUrl": "https://www.globe.com.ph/about-us/newsroom/partners/globe-tm-sing-along-bonding-wesing.html",
      "columnType": "articles--type-3",
      "typeListing": "article",
      "imageMobile": "/sites/globe.com.ph/files/content/dam/globe/brie/AboutUs/newsroom/partners/globe-tm-sing-along-bonding-wesing/newsroom-partners-globe-tm-wesing-primary-thumbnail-m.jpg",
      "imageDesktop": "/sites/globe.com.ph/files/content/dam/globe/brie/AboutUs/newsroom/partners/globe-tm-sing-along-bonding-wesing/newsroom-partners-globe-tm-wesing-primary-thumbnail-d.jpg",
      "description": "With the exclusive partnership with WeSing, Globe and TM customers can enjoy a digitized karaoke experience.",
      "datePosted": "Aug 13, 2020 | 01:43 PM",
      "titleFromTag": "Partners"
    },
    {
      "title": "Globe Platinum Brings More Memorable Experiences to Customers at Art in the Park Online",
      "nonclickable": false,
      "openNewTab": false,
      "borderArticle": "border-color:#0074D9;",
      "borderTopArticle": "border-top-color:#0074D9;",
      "imageListing": "/sites/globe.com.ph/files/content/dam/globe/brie/AboutUs/newsroom/consumer/platinum-customers-art-in-the-park-online/newsroom-consumer-platinum-customer-art-thumbnail-listing.jpg",
      "articleUrl": "https://www.globe.com.ph/about-us/newsroom/consumer/platinum-customers-art-in-the-park-online.html",
      "columnType": "articles--type-3",
      "typeListing": "article",
      "imageMobile": "/sites/globe.com.ph/files/content/dam/globe/brie/AboutUs/newsroom/consumer/platinum-customers-art-in-the-park-online/newsroom-consumer-platinum-customer-art-primary-thumbnail-m.jpg",
      "imageDesktop": "/sites/globe.com.ph/files/content/dam/globe/brie/AboutUs/newsroom/consumer/platinum-customers-art-in-the-park-online/newsroom-consumer-platinum-customer-art-primary-thumbnail-d.jpg",
      "description": "Celebrating eight years of partnership with Globe Platinum, Art in the Park is back this August 10-17, but this time fully virtual.",
      "datePosted": "Aug 13, 2020 | 12:38 PM",
      "titleFromTag": "Consumer"
    },
    {
      "title": "Globe Cloud Solutions Ready to Bridge Companies to Digital Transformation",
      "nonclickable": false,
      "openNewTab": false,
      "borderArticle": "border-color:#0074D9;",
      "borderTopArticle": "border-top-color:#0074D9;",
      "imageListing": "/sites/globe.com.ph/files/content/dam/globe/brie/AboutUs/newsroom/business/cloud-solutions-digital-transformation/newsroom-business-cloud-solutions-digital-thumbnail-listing.jpg",
      "articleUrl": "https://www.globe.com.ph/about-us/newsroom/business/cloud-solutions-digital-transformation.html",
      "columnType": "articles--type-3",
      "typeListing": "article",
      "imageMobile": "/sites/globe.com.ph/files/content/dam/globe/brie/AboutUs/newsroom/business/cloud-solutions-digital-transformation/newsroom-business-cloud-solutions-digital-primary-thumbnail-m.jpg",
      "imageDesktop": "/sites/globe.com.ph/files/content/dam/globe/brie/AboutUs/newsroom/business/cloud-solutions-digital-transformation/newsroom-business-cloud-solutions-digital-primary-thumbnail-d.jpg",
      "description": "Now, companies can enable remote work and automate operations to the maximum extent.",
      "datePosted": "Aug 12, 2020 | 02:51 PM",
      "titleFromTag": "Business"
    },
    {
      "title": "Globe and Mineski Reaffirm Strategic Alliance",
      "nonclickable": false,
      "openNewTab": false,
      "borderArticle": "border-color:#0074D9;",
      "borderTopArticle": "border-top-color:#0074D9;",
      "imageListing": "/sites/globe.com.ph/files/content/dam/globe/brie/AboutUs/newsroom/partners/globe-mineski-strategic-alliance/newsroom-partners-globe-mineski-alliance-thumbnail-listing.jpg",
      "articleUrl": "https://www.globe.com.ph/about-us/newsroom/partners/globe-mineski-strategic-alliance.html",
      "columnType": "articles--type-3",
      "typeListing": "article",
      "imageMobile": "/sites/globe.com.ph/files/content/dam/globe/brie/AboutUs/newsroom/partners/globe-mineski-strategic-alliance/newsroom-partners-globe-mineski-alliance-primary-thumbnail-m.jpg",
      "imageDesktop": "/sites/globe.com.ph/files/content/dam/globe/brie/AboutUs/newsroom/partners/globe-mineski-strategic-alliance/newsroom-partners-globe-mineski-alliance-primary-thumbnail-d.jpg",
      "description": "Committed to putting Philippine esports on the map, Globe has recently renewed its partnership with the country’s leading esports agency, Mineski Philippines.",
      "datePosted": "Aug 12, 2020 | 11:52 AM",
      "titleFromTag": "Partners"
    },
    {
      "title": "Globe Increases Foothold in Home Broadband Business, Attracts More Customers",
      "nonclickable": false,
      "openNewTab": false,
      "borderArticle": "border-color:#0074D9;",
      "borderTopArticle": "border-top-color:#0074D9;",
      "imageListing": "/sites/globe.com.ph/files/content/dam/globe/brie/AboutUs/newsroom/corporate/increase-foothold-home-broadband-business/newsroom-corporate-increase-foothold-broadband-thumbnail-listing.jpg",
      "articleUrl": "https://www.globe.com.ph/about-us/newsroom/corporate/increase-foothold-home-broadband-business.html",
      "columnType": "articles--type-3",
      "typeListing": "article",
      "imageMobile": "/sites/globe.com.ph/files/content/dam/globe/brie/AboutUs/newsroom/corporate/increase-foothold-home-broadband-business/newsroom-corporate-increase-foothold-broadband-primary-thumbnail-m.jpg",
      "imageDesktop": "/sites/globe.com.ph/files/content/dam/globe/brie/AboutUs/newsroom/corporate/increase-foothold-home-broadband-business/newsroom-corporate-increase-foothold-broadband-primary-thumbnail-d.jpg",
      "description": "The company’s home broadband subscriber base improved by 58% compared to H1 of 2019, with over 2.9 million subscribers. ",
      "datePosted": "Aug 12, 2020 | 11:09 AM",
      "titleFromTag": "Corporate"
    }
  ]
}
