{
  "status": 200,
  "page": 172,
  "totalPage": 298,
  "range": "2053-2064",
  "total": 3573,
  "result": [
    {
      "title": "XDE Logistics Modernizes Operations with Globe Business ICT Solutions",
      "nonclickable": false,
      "openNewTab": false,
      "borderArticle": "border-color:#0074D9;",
      "borderTopArticle": "border-top-color:#0074D9;",
      "imageListing": "/sites/globe.com.ph/files/content/dam/globe/brie/AboutUs/newsroom/business/xde-logistics-modernizes-operations/newsroom-business-xde-logistics-ict-thumbnail-listing.jpg",
      "articleUrl": "https://www.globe.com.ph/about-us/newsroom/business/xde-logistics-modernizes-operations.html",
      "columnType": "articles--type-3",
      "typeListing": "article",
      "imageMobile": "/sites/globe.com.ph/files/content/dam/globe/brie/AboutUs/newsroom/business/xde-logistics-modernizes-operations/newsroom-business-xde-logistics-ict-primary-thumbnail-m.jpg",
      "imageDesktop": "/sites/globe.com.ph/files/content/dam/globe/brie/AboutUs/newsroom/business/xde-logistics-modernizes-operations/newsroom-business-xde-logistics-ict-primary-thumbnail-d.jpg",
      "description": "Globe Business teamed up with XDE Logistics—formerly known as Ximex Delivery Express Inc., to support its digital transformation through various ICT solutions.",
      "datePosted": "Aug 11, 2020 | 04:02 PM",
      "titleFromTag": "Business"
    },
    {
      "title": "Teachers, Parents Join Globe and DepEd in Kids’ Cyber Safety Talk",
      "nonclickable": false,
      "openNewTab": false,
      "borderArticle": "border-color:#0074D9;",
      "borderTopArticle": "border-top-color:#0074D9;",
      "imageListing": "/sites/globe.com.ph/files/content/dam/globe/brie/AboutUs/newsroom/partners/teachers-parents-deped-cybersafety-talk/newsroom-partners-deped-cybersafety-talk-thumbnail-listing.jpg",
      "articleUrl": "https://www.globe.com.ph/about-us/newsroom/partners/teachers-parents-deped-cybersafety-talk.html",
      "columnType": "articles--type-3",
      "typeListing": "article",
      "imageMobile": "/sites/globe.com.ph/files/content/dam/globe/brie/AboutUs/newsroom/partners/teachers-parents-deped-cybersafety-talk/newsroom-partners-deped-cybersafety-talk-primary-thumbnail-m.jpg",
      "imageDesktop": "/sites/globe.com.ph/files/content/dam/globe/brie/AboutUs/newsroom/partners/teachers-parents-deped-cybersafety-talk/newsroom-partners-deped-cybersafety-talk-primary-thumbnail-d.jpg",
      "description": "The shift to online learning for school year 2020-2021 imposes a lot of challenges to teachers, parents and students alike.",
      "datePosted": "Aug 11, 2020 | 01:14 PM",
      "titleFromTag": "Partners"
    },
    {
      "title": "Online Education at Indiana Aerospace University Takes Flight with Globe",
      "nonclickable": false,
      "openNewTab": false,
      "borderArticle": "border-color:#0074D9;",
      "borderTopArticle": "border-top-color:#0074D9;",
      "imageListing": "/sites/globe.com.ph/files/content/dam/globe/brie/AboutUs/newsroom/business/indiana-aerospace-university-online-education/newsroom-business-indiana-aerospace-university-thumbnail-listing.jpg",
      "articleUrl": "https://www.globe.com.ph/about-us/newsroom/business/indiana-aerospace-university-online-education.html",
      "columnType": "articles--type-3",
      "typeListing": "article",
      "imageMobile": "/sites/globe.com.ph/files/content/dam/globe/brie/AboutUs/newsroom/business/indiana-aerospace-university-online-education/newsroom-business-indiana-aerospace-university-primary-thumbnail-m.jpg",
      "imageDesktop": "/sites/globe.com.ph/files/content/dam/globe/brie/AboutUs/newsroom/business/indiana-aerospace-university-online-education/newsroom-business-indiana-aerospace-university-primary-thumbnail-d.jpg",
      "description": "Indiana Aerospace University in Cebu has partnered with Globe to provide continuous online education through an integrated Learning Management system (LMS).",
      "datePosted": "Aug 11, 2020 | 01:07 PM",
      "titleFromTag": "Business"
    },
    {
      "title": "Globe Lauds LGUs Which Provide Connectivity to Constituents",
      "nonclickable": false,
      "openNewTab": false,
      "borderArticle": "border-color:#0074D9;",
      "borderTopArticle": "border-top-color:#0074D9;",
      "imageListing": "/sites/globe.com.ph/files/content/dam/globe/brie/AboutUs/newsroom/common/default-5/corporate-default-6-thumbnail-listing.jpg",
      "articleUrl": "https://www.globe.com.ph/about-us/newsroom/corporate/lgus-provide-connectivity-constituents.html",
      "columnType": "articles--type-3",
      "typeListing": "article",
      "imageMobile": "/sites/globe.com.ph/files/content/dam/globe/brie/AboutUs/newsroom/common/default-5/corporate-default-6-primary-thumbnail-m.jpg",
      "imageDesktop": "/sites/globe.com.ph/files/content/dam/globe/brie/AboutUs/newsroom/common/default-5/corporate-default-6-primary-thumbnail-d.jpg",
      "description": "Connectivity in cities and localities which have been equipped with infrastructure has improved their digital capabilities.",
      "datePosted": "Aug 11, 2020 | 10:59 AM",
      "titleFromTag": "Corporate"
    },
    {
      "title": "Globe Partners with Secureworks to Help Businesses Secure their Digital Transformation",
      "nonclickable": false,
      "openNewTab": false,
      "borderArticle": "border-color:#0074D9;",
      "borderTopArticle": "border-top-color:#0074D9;",
      "imageListing": "/sites/globe.com.ph/files/content/dam/globe/brie/AboutUs/newsroom/business/secureworks-business-digital-transformation/newsroom-business-secure-works-digital-thumbnail-listing.jpg",
      "articleUrl": "https://www.globe.com.ph/about-us/newsroom/business/secureworks-business-digital-transformation.html",
      "columnType": "articles--type-3",
      "typeListing": "article",
      "imageMobile": "/sites/globe.com.ph/files/content/dam/globe/brie/AboutUs/newsroom/business/secureworks-business-digital-transformation/newsroom-business-secure-works-digital-primary-thumbnail-m.jpg",
      "imageDesktop": "/sites/globe.com.ph/files/content/dam/globe/brie/AboutUs/newsroom/business/secureworks-business-digital-transformation/newsroom-business-secure-works-digital-primary-thumbnail-d.jpg",
      "description": "Globe Business has partnered with Secureworks to help customers strengthen their security posture against cyber threats in a digitally-connected world.",
      "datePosted": "Aug 10, 2020 | 10:08 AM",
      "titleFromTag": "Business"
    },
    {
      "title": "Tips for Gen Zs, Millennials in Coping with Mental Health Crisis",
      "nonclickable": false,
      "openNewTab": false,
      "borderArticle": "border-color:#0074D9;",
      "borderTopArticle": "border-top-color:#0074D9;",
      "imageListing": "/sites/globe.com.ph/files/content/dam/globe/brie/AboutUs/newsroom/citizenship/gen-z-millennials-mental-health-tips/newsroom-citizenship-tips-gen-z-thumbnail-listing.jpg",
      "articleUrl": "https://www.globe.com.ph/about-us/newsroom/citizenship/gen-z-millennials-mental-health-tips.html",
      "columnType": "articles--type-3",
      "typeListing": "article",
      "imageMobile": "/sites/globe.com.ph/files/content/dam/globe/brie/AboutUs/newsroom/citizenship/gen-z-millennials-mental-health-tips/newsroom-citizenship-tips-gen-z-primary-thumbnail-m.jpg",
      "imageDesktop": "/sites/globe.com.ph/files/content/dam/globe/brie/AboutUs/newsroom/citizenship/gen-z-millennials-mental-health-tips/newsroom-citizenship-tips-gen-z-primary-thumbnail-d.jpg",
      "description": "Globe Telecom, through its Hope Bank online community,  has launched the “#StartANewDay – Let’s talk about mental health” webinar series.",
      "datePosted": "Aug 08, 2020 | 10:21 AM",
      "titleFromTag": "Citizenship"
    },
    {
      "title": "foodpanda, Globe Business Help Riders Go the Extra Mile with New KaPanda Plan",
      "nonclickable": false,
      "openNewTab": false,
      "borderArticle": "border-color:#0074D9;",
      "borderTopArticle": "border-top-color:#0074D9;",
      "imageListing": "/sites/globe.com.ph/files/content/dam/globe/brie/AboutUs/newsroom/business/foodpanda-riders-kapanda-plan/newsroom-business-foodpanda-riders-kapanda-thumbnail-listing.jpg",
      "articleUrl": "https://www.globe.com.ph/about-us/newsroom/business/foodpanda-riders-kapanda-plan.html",
      "columnType": "articles--type-3",
      "typeListing": "article",
      "imageMobile": "/sites/globe.com.ph/files/content/dam/globe/brie/AboutUs/newsroom/business/foodpanda-riders-kapanda-plan/newsroom-business-foodpanda-riders-kapanda-primary-thumbnail-m.jpg",
      "imageDesktop": "/sites/globe.com.ph/files/content/dam/globe/brie/AboutUs/newsroom/business/foodpanda-riders-kapanda-plan/newsroom-business-foodpanda-riders-kapanda-primary-thumbnail-d.jpg",
      "description": "The partnership introduced the special postpaid line, KaPanda Plan 500.",
      "datePosted": "Aug 07, 2020 | 08:16 AM",
      "titleFromTag": "Business"
    },
    {
      "title": "The World of 5G is Within your Reach with Globe’s 5G-Ready Sims",
      "nonclickable": false,
      "openNewTab": false,
      "borderArticle": "border-color:#0074D9;",
      "borderTopArticle": "border-top-color:#0074D9;",
      "imageListing": "/sites/globe.com.ph/files/content/dam/globe/brie/AboutUs/newsroom/corporate/5g-ready-sims/newsroom-corporate-5g-ready-sims-thumbnail-listing.jpg",
      "articleUrl": "https://www.globe.com.ph/about-us/newsroom/corporate/5g-ready-sims.html",
      "columnType": "articles--type-3",
      "typeListing": "article",
      "imageMobile": "/sites/globe.com.ph/files/content/dam/globe/brie/AboutUs/newsroom/corporate/5g-ready-sims/newsroom-corporate-5g-ready-sims-primary-thumbnail-m.jpg",
      "imageDesktop": "/sites/globe.com.ph/files/content/dam/globe/brie/AboutUs/newsroom/corporate/5g-ready-sims/newsroom-corporate-5g-ready-sims-primary-thumbnail-d.jpg",
      "description": "As more Filipinos embrace fully the fast-paced digital life, Globe continues to introduce breakthrough innovations to impact the lives of its customers.",
      "datePosted": "Aug 06, 2020 | 01:18 PM",
      "titleFromTag": "Corporate"
    },
    {
      "title": "Globe Helps Sarangani’s Student-Athletes, Teacher-Coaches",
      "nonclickable": false,
      "openNewTab": false,
      "borderArticle": "border-color:#0074D9;",
      "borderTopArticle": "border-top-color:#0074D9;",
      "imageListing": "/sites/globe.com.ph/files/content/dam/globe/brie/AboutUs/newsroom/citizenship/sarangani-student-athletes-teacher-coaches/newsroom-citizenship-sarangani-student-athletes-thumbnail-listing.jpg",
      "articleUrl": "https://www.globe.com.ph/about-us/newsroom/citizenship/sarangani-student-athletes-teacher-coaches.html",
      "columnType": "articles--type-3",
      "typeListing": "article",
      "imageMobile": "/sites/globe.com.ph/files/content/dam/globe/brie/AboutUs/newsroom/citizenship/sarangani-student-athletes-teacher-coaches/newsroom-citizenship-sarangani-student-athletes-primary-thumbnail-m.jpg",
      "imageDesktop": "/sites/globe.com.ph/files/content/dam/globe/brie/AboutUs/newsroom/citizenship/sarangani-student-athletes-teacher-coaches/newsroom-citizenship-sarangani-student-athletes-primary-thumbnail-d.jpg",
      "description": "Globe has boosted Sarangani Province’s Sulong Karunungan and Sulong Atleta Development Programs by giving much-needed access to communication tools.",
      "datePosted": "Aug 06, 2020 | 10:26 AM",
      "titleFromTag": "Citizenship"
    },
    {
      "title": "Globe Keeps Customers Safe Through Use of Digital Channels",
      "nonclickable": false,
      "openNewTab": false,
      "borderArticle": "border-color:#0074D9;",
      "borderTopArticle": "border-top-color:#0074D9;",
      "imageListing": "/sites/globe.com.ph/files/content/dam/globe/brie/AboutUs/newsroom/common/default-6/corporate-default-8-thumbnail-listing.jpg",
      "articleUrl": "https://www.globe.com.ph/about-us/newsroom/consumer/customers-safe-digital-channels.html",
      "columnType": "articles--type-3",
      "typeListing": "article",
      "imageMobile": "/sites/globe.com.ph/files/content/dam/globe/brie/AboutUs/newsroom/common/default-6/corporate-default-8-primary-thumbnail-m.jpg",
      "imageDesktop": "/sites/globe.com.ph/files/content/dam/globe/brie/AboutUs/newsroom/common/default-6/corporate-default-8-primary-thumbnail-d.jpg",
      "description": "Globe assures its customers that they will continue to receive their updated monthly billing statements, this time through digital channels.",
      "datePosted": "Aug 05, 2020 | 01:20 PM",
      "titleFromTag": "Consumer"
    },
    {
      "title": "Impact of Pandemic Gives Greater Impetus to Digital and Self-Service Channels Amidst Reduced Customer Service Manpower",
      "nonclickable": false,
      "openNewTab": false,
      "borderArticle": "border-color:#0074D9;",
      "borderTopArticle": "border-top-color:#0074D9;",
      "imageListing": "/sites/globe.com.ph/files/content/dam/globe/brie/AboutUs/newsroom/corporate/pandemic-digital-self-service-channels/newsroom-corporate-impact-pandemic-impetus-thumbnail-listing.jpg",
      "articleUrl": "https://www.globe.com.ph/about-us/newsroom/corporate/pandemic-digital-self-service-channels.html",
      "columnType": "articles--type-3",
      "typeListing": "article",
      "imageMobile": "/sites/globe.com.ph/files/content/dam/globe/brie/AboutUs/newsroom/corporate/pandemic-digital-self-service-channels/newsroom-corporate-impact-pandemic-impetus-primary-thumbnail-m.jpg",
      "imageDesktop": "/sites/globe.com.ph/files/content/dam/globe/brie/AboutUs/newsroom/corporate/pandemic-digital-self-service-channels/newsroom-corporate-impact-pandemic-impetus-primary-thumbnail-d.jpg",
      "description": "Globe, despite its commitment to delivering good customer experience, is no exception to the constraints and challenges of BPOs.",
      "datePosted": "Aug 04, 2020 | 12:32 PM",
      "titleFromTag": "Corporate"
    },
    {
      "title": "Globe Prepares Top Achievers Private School Inc. for the New Normal of Digital Learning",
      "nonclickable": false,
      "openNewTab": false,
      "borderArticle": "border-color:#0074D9;",
      "borderTopArticle": "border-top-color:#0074D9;",
      "imageListing": "/sites/globe.com.ph/files/content/dam/globe/brie/AboutUs/newsroom/business/top-achievers-private-school-inc-digital-learning/newsroom-business-top-achievers-private-thumbnail-listing.jpg",
      "articleUrl": "https://www.globe.com.ph/about-us/newsroom/business/top-achievers-private-school-inc-digital-learning.html",
      "columnType": "articles--type-3",
      "typeListing": "article",
      "imageMobile": "/sites/globe.com.ph/files/content/dam/globe/brie/AboutUs/newsroom/business/top-achievers-private-school-inc-digital-learning/newsroom-business-top-achievers-private-primary-thumbnail-m.jpg",
      "imageDesktop": "/sites/globe.com.ph/files/content/dam/globe/brie/AboutUs/newsroom/business/top-achievers-private-school-inc-digital-learning/newsroom-business-top-achievers-private-primary-thumbnail-d.jpg",
      "description": "The partnership between Globe and TAPS aims to promote and provide a digital learning platform that will be accessible to students, parents, and teachers.",
      "datePosted": "Aug 03, 2020 | 02:51 PM",
      "titleFromTag": "Business"
    }
  ]
}
