{
  "status": 200,
  "page": 173,
  "totalPage": 298,
  "range": "2065-2076",
  "total": 3573,
  "result": [
    {
      "title": "Globe, Esports AcadArena Bring Summer Quarter 2020",
      "nonclickable": false,
      "openNewTab": false,
      "borderArticle": "border-color:#0074D9;",
      "borderTopArticle": "border-top-color:#0074D9;",
      "imageListing": "/sites/globe.com.ph/files/content/dam/globe/brie/AboutUs/newsroom/consumer/globe-esports-acadarena-bring-summer-quarter-2020/newsroom-consumer-globe-esports-acadarena-thumbnail-listing.jpg",
      "articleUrl": "https://www.globe.com.ph/about-us/newsroom/consumer/globe-esports-acadarena-bring-summer-quarter-2020.html",
      "columnType": "articles--type-3",
      "typeListing": "article",
      "imageMobile": "/sites/globe.com.ph/files/content/dam/globe/brie/AboutUs/newsroom/consumer/globe-esports-acadarena-bring-summer-quarter-2020/newsroom-consumer-globe-esports-acadarena-primary-thumbnail-m.jpg",
      "imageDesktop": "/sites/globe.com.ph/files/content/dam/globe/brie/AboutUs/newsroom/consumer/globe-esports-acadarena-bring-summer-quarter-2020/newsroom-consumer-globe-esports-acadarena-primary-thumbnail-d.jpg",
      "description": "Globe continues to empower the growing esports industry in the Philippines by tying up with Esports AcadArena. Visit Globe Newsroom for more.",
      "datePosted": "Aug 03, 2020 | 02:21 PM",
      "titleFromTag": "Consumer"
    },
    {
      "title": "Globe Bags 3-Peat Win as Frost & Sullivan’s ‘Telco of the Year’",
      "nonclickable": false,
      "openNewTab": false,
      "borderArticle": "border-color:#0074D9;",
      "borderTopArticle": "border-top-color:#0074D9;",
      "imageListing": "/sites/globe.com.ph/files/content/dam/globe/brie/AboutUs/newsroom/common/updated/Corporate-globe-thumbnail-listing.jpg",
      "articleUrl": "https://www.globe.com.ph/about-us/newsroom/corporate/3-peat-win-frost-sullivan.html",
      "columnType": "articles--type-3",
      "typeListing": "article",
      "imageMobile": "/sites/globe.com.ph/files/content/dam/globe/brie/AboutUs/newsroom/common/updated/Corporate-globe-primary-thumbnail-m.jpg",
      "imageDesktop": "/sites/globe.com.ph/files/content/dam/globe/brie/AboutUs/newsroom/common/updated/Corporate-globe-primary-thumbnail-d.jpg",
      "description": "For the third consecutive year, Globe took home accolades from the prestigious Frost & Sullivan Best Practices Awards.",
      "datePosted": "Aug 03, 2020 | 02:04 PM",
      "titleFromTag": "Corporate"
    },
    {
      "title": "Globe Appeals to LGUs to Ease Fees and Expedite Permits to Improve Connectivity",
      "nonclickable": false,
      "openNewTab": false,
      "borderArticle": "border-color:#0074D9;",
      "borderTopArticle": "border-top-color:#0074D9;",
      "imageListing": "/sites/globe.com.ph/files/content/dam/globe/brie/AboutUs/newsroom/corporate/globe-appeals-lgu-ease-fees-expedite-permits-improve-connectivity/newsroom-corporate-globe-appeals-lgu-thumbnail-listing.jpg",
      "articleUrl": "https://www.globe.com.ph/about-us/newsroom/corporate/globe-appeals-lgu-ease-fees-expedite-permits-improve-connectivity.html",
      "columnType": "articles--type-3",
      "typeListing": "article",
      "imageMobile": "/sites/globe.com.ph/files/content/dam/globe/brie/AboutUs/newsroom/corporate/globe-appeals-lgu-ease-fees-expedite-permits-improve-connectivity/newsroom-corporate-globe-appeals-lgu-primary-thumbnail-m.jpg",
      "imageDesktop": "/sites/globe.com.ph/files/content/dam/globe/brie/AboutUs/newsroom/corporate/globe-appeals-lgu-ease-fees-expedite-permits-improve-connectivity/newsroom-corporate-globe-appeals-lgu-primary-thumbnail-d.jpg",
      "description": "Globe President, CEO Ernest Cu appealed to LGUs to rationalize fees and expedite permit processing for building the infrastructure for improved connectivity.",
      "datePosted": "Aug 03, 2020 | 10:00 AM",
      "titleFromTag": "Corporate"
    },
    {
      "title": "Globe, DepEd Hold Training to Keep Teachers, Learners Safe Online",
      "nonclickable": false,
      "openNewTab": false,
      "borderArticle": "border-color:#0074D9;",
      "borderTopArticle": "border-top-color:#0074D9;",
      "imageListing": "/sites/globe.com.ph/files/content/dam/globe/brie/AboutUs/newsroom/partners/globe-deped-teachers-learners-safe-online/newsroom-partners-globe-deped-training-thumbnail-listing.jpg",
      "articleUrl": "https://www.globe.com.ph/about-us/newsroom/partners/globe-deped-teachers-learners-safe-online.html",
      "columnType": "articles--type-3",
      "typeListing": "article",
      "imageMobile": "/sites/globe.com.ph/files/content/dam/globe/brie/AboutUs/newsroom/partners/globe-deped-teachers-learners-safe-online/newsroom-partners-globe-deped-training-primary-thumbnail-m.jpg",
      "imageDesktop": "/sites/globe.com.ph/files/content/dam/globe/brie/AboutUs/newsroom/partners/globe-deped-teachers-learners-safe-online/newsroom-partners-globe-deped-training-primary-thumbnail-d.jpg",
      "description": "Globe and DepEd have joined hands to create a safe and healthy online learning environment for teachers, students, and home educators this coming school year.",
      "datePosted": "Jul 31, 2020 | 12:02 PM",
      "titleFromTag": "Partners"
    },
    {
      "title": "Globe Brings Basketball Madness to Filipino Fans Through Exclusive Partnership with HomeCourt",
      "nonclickable": false,
      "openNewTab": false,
      "borderArticle": "border-color:#0074D9;",
      "borderTopArticle": "border-top-color:#0074D9;",
      "imageListing": "/sites/globe.com.ph/files/content/dam/globe/brie/AboutUs/newsroom/consumer/globe-exclusive-partnership-homecourt/newsroom-consumer-basketball-madness-homecourt-thumbnail-listing.jpg",
      "articleUrl": "https://www.globe.com.ph/about-us/newsroom/consumer/globe-exclusive-partnership-homecourt.html",
      "columnType": "articles--type-3",
      "typeListing": "article",
      "imageMobile": "/sites/globe.com.ph/files/content/dam/globe/brie/AboutUs/newsroom/consumer/globe-exclusive-partnership-homecourt/newsroom-consumer-basketball-madness-homecourt-primary-thumbnail-m.jpg",
      "imageDesktop": "/sites/globe.com.ph/files/content/dam/globe/brie/AboutUs/newsroom/consumer/globe-exclusive-partnership-homecourt/newsroom-consumer-basketball-madness-homecourt-primary-thumbnail-d.jpg",
      "description": "Globe Telecom is looking to introduce Filipinos to a new way to play basketball with its newest sports and fitness partner, HomeCourt.",
      "datePosted": "Jul 30, 2020 | 06:01 PM",
      "titleFromTag": "Consumer"
    },
    {
      "title": "Globe Extends Assistance to Cebu City Hospitals, Barangays",
      "nonclickable": false,
      "openNewTab": false,
      "borderArticle": "border-color:#0074D9;",
      "borderTopArticle": "border-top-color:#0074D9;",
      "imageListing": "/sites/globe.com.ph/files/content/dam/globe/brie/AboutUs/newsroom/citizenship/assistance-cebu-city-hospitals-barangays/newsroom-citizenship-globe-assistance-cebu-thumbnail-listing.jpg",
      "articleUrl": "https://www.globe.com.ph/about-us/newsroom/citizenship/assistance-cebu-city-hospitals-barangays.html",
      "columnType": "articles--type-3",
      "typeListing": "article",
      "imageMobile": "/sites/globe.com.ph/files/content/dam/globe/brie/AboutUs/newsroom/citizenship/assistance-cebu-city-hospitals-barangays/newsroom-citizenship-globe-assistance-cebu-primary-thumbnail-m.jpg",
      "imageDesktop": "/sites/globe.com.ph/files/content/dam/globe/brie/AboutUs/newsroom/citizenship/assistance-cebu-city-hospitals-barangays/newsroom-citizenship-globe-assistance-cebu-primary-thumbnail-d.jpg",
      "description": "Globe continues to extend its assistance to select hospitals and barangays in the area to help ease the impact of the pandemic on medical and auxiliary staff.",
      "datePosted": "Jul 30, 2020 | 02:06 PM",
      "titleFromTag": "Citizenship"
    },
    {
      "title": "917Ventures, AC Health Team Up for New Healthcare App",
      "nonclickable": false,
      "openNewTab": false,
      "borderArticle": "border-color:#0074D9;",
      "borderTopArticle": "border-top-color:#0074D9;",
      "imageListing": "/sites/globe.com.ph/files/content/dam/globe/brie/AboutUs/newsroom/917ventures/ac-health-new-healthcare-app/newsroom-917ventures-ac-healthcare-app-thumbnail-listing.jpg",
      "articleUrl": "https://www.globe.com.ph/about-us/newsroom/917ventures/ac-health-new-healthcare-app.html",
      "columnType": "articles--type-3",
      "typeListing": "article",
      "imageMobile": "/sites/globe.com.ph/files/content/dam/globe/brie/AboutUs/newsroom/917ventures/ac-health-new-healthcare-app/newsroom-917ventures-ac-healthcare-app-primary-thumbnail-m.jpg",
      "imageDesktop": "/sites/globe.com.ph/files/content/dam/globe/brie/AboutUs/newsroom/917ventures/ac-health-new-healthcare-app/newsroom-917ventures-ac-healthcare-app-primary-thumbnail-d.jpg",
      "description": "The collaboration resulted in HealthNow, an all-in-one health app that will help Filipinos get the healthcare they need anytime, anywhere.",
      "datePosted": "Jul 28, 2020 | 04:26 PM",
      "titleFromTag": "917Ventures"
    },
    {
      "title": "Private, Public Schools Ask LGUs to Provide Connectivity",
      "nonclickable": false,
      "openNewTab": false,
      "borderArticle": "border-color:#0074D9;",
      "borderTopArticle": "border-top-color:#0074D9;",
      "imageListing": "/sites/globe.com.ph/files/content/dam/globe/brie/AboutUs/newsroom/business/private-public-schools-lgu-connectivity/newsroom-business-private-public-lgu-thumbnail-listing.jpg",
      "articleUrl": "https://www.globe.com.ph/about-us/newsroom/business/private-public-schools-lgu-connectivity.html",
      "columnType": "articles--type-3",
      "typeListing": "article",
      "imageMobile": "/sites/globe.com.ph/files/content/dam/globe/brie/AboutUs/newsroom/business/private-public-schools-lgu-connectivity/newsroom-business-private-public-lgu-primary-thumbnail-m.jpg",
      "imageDesktop": "/sites/globe.com.ph/files/content/dam/globe/brie/AboutUs/newsroom/business/private-public-schools-lgu-connectivity/newsroom-business-private-public-lgu-primary-thumbnail-d.jpg",
      "description": "The request highlighted the opening session of the Liveable Cities Labs: Webinar Series on the topic, \"Online Education Under COVID.\"",
      "datePosted": "Jul 28, 2020 | 04:02 PM",
      "titleFromTag": "Business"
    },
    {
      "title": "Globe Promotes Digital Learning with Cebu Technological University",
      "nonclickable": false,
      "openNewTab": false,
      "borderArticle": "border-color:#0074D9;",
      "borderTopArticle": "border-top-color:#0074D9;",
      "imageListing": "/sites/globe.com.ph/files/content/dam/globe/brie/AboutUs/newsroom/partners/digital-learning-cebu-technological-university/newsroom-partners-digital-learning-cebu-thumbnail-listing.jpg",
      "articleUrl": "https://www.globe.com.ph/about-us/newsroom/partners/digital-learning-cebu-technological-university.html",
      "columnType": "articles--type-3",
      "typeListing": "article",
      "imageMobile": "/sites/globe.com.ph/files/content/dam/globe/brie/AboutUs/newsroom/partners/digital-learning-cebu-technological-university/newsroom-partners-digital-learning-cebu-primary-thumbnail-m.jpg",
      "imageDesktop": "/sites/globe.com.ph/files/content/dam/globe/brie/AboutUs/newsroom/partners/digital-learning-cebu-technological-university/newsroom-partners-digital-learning-cebu-primary-thumbnail-d.jpg",
      "description": "Globe myBusiness has partnered with Cebu Technological University (CTU) by providing custom internet plans for remote learning. ",
      "datePosted": "Jul 28, 2020 | 02:57 PM",
      "titleFromTag": "Partners"
    },
    {
      "title": "Multi-billion Dollar Investments in Network Have Improved Services but Challenges Remain",
      "nonclickable": false,
      "openNewTab": false,
      "borderArticle": "border-color:#0074D9;",
      "borderTopArticle": "border-top-color:#0074D9;",
      "imageListing": "/sites/globe.com.ph/files/content/dam/globe/brie/AboutUs/newsroom/common/updated/Corporate-globe-thumbnail-listing.jpg",
      "articleUrl": "https://www.globe.com.ph/about-us/newsroom/corporate/investments-network-improve-services-challenges-remain.html",
      "columnType": "articles--type-3",
      "typeListing": "article",
      "imageMobile": "/sites/globe.com.ph/files/content/dam/globe/brie/AboutUs/newsroom/common/updated/Corporate-globe-primary-thumbnail-m.jpg",
      "imageDesktop": "/sites/globe.com.ph/files/content/dam/globe/brie/AboutUs/newsroom/common/updated/Corporate-globe-primary-thumbnail-d.jpg",
      "description": "Service performance & increased consumer demand for data are the key reasons why we have been investing billions of dollars to upgrade and improve our network.",
      "datePosted": "Jul 27, 2020 | 06:40 PM",
      "titleFromTag": "Corporate"
    },
    {
      "title": "Globe Pursues Content Creation Strategy for Differentiation",
      "nonclickable": false,
      "openNewTab": false,
      "borderArticle": "border-color:#0074D9;",
      "borderTopArticle": "border-top-color:#0074D9;",
      "imageListing": "/sites/globe.com.ph/files/content/dam/globe/brie/AboutUs/newsroom/corporate/content-creation-strategy-differentiation/newsroom-corporate-content-creation-strategy-thumbnail-listing.jpg",
      "articleUrl": "https://www.globe.com.ph/about-us/newsroom/corporate/content-creation-strategy-differentiation.html",
      "columnType": "articles--type-3",
      "typeListing": "article",
      "imageMobile": "/sites/globe.com.ph/files/content/dam/globe/brie/AboutUs/newsroom/corporate/content-creation-strategy-differentiation/newsroom-corporate-content-creation-strategy-primary-thumbnail-m.jpg",
      "imageDesktop": "/sites/globe.com.ph/files/content/dam/globe/brie/AboutUs/newsroom/corporate/content-creation-strategy-differentiation/newsroom-corporate-content-creation-strategy-primary-thumbnail-d.jpg",
      "description": "Globe is using a two-pronged approach in providing content to its consumers.",
      "datePosted": "Jul 27, 2020 | 01:01 PM",
      "titleFromTag": "Corporate"
    },
    {
      "title": "Cooperation Needed to Ensure Ample Fixed Broadband Infrastructure in New Normal",
      "nonclickable": false,
      "openNewTab": false,
      "borderArticle": "border-color:#0074D9;",
      "borderTopArticle": "border-top-color:#0074D9;",
      "imageListing": "/sites/globe.com.ph/files/content/dam/globe/brie/AboutUs/newsroom/corporate/cooperation-fixed-broadband-infra-new-normal/newsroom-corporate-broadband-infrastructure-thumbnail-listing.jpg",
      "articleUrl": "https://www.globe.com.ph/about-us/newsroom/corporate/cooperation-fixed-broadband-infra-new-normal.html",
      "columnType": "articles--type-3",
      "typeListing": "article",
      "imageMobile": "/sites/globe.com.ph/files/content/dam/globe/brie/AboutUs/newsroom/corporate/cooperation-fixed-broadband-infra-new-normal/newsroom-corporate-broadband-infrastructure-primary-thumbnail-m.jpg",
      "imageDesktop": "/sites/globe.com.ph/files/content/dam/globe/brie/AboutUs/newsroom/corporate/cooperation-fixed-broadband-infra-new-normal/newsroom-corporate-broadband-infrastructure-primary-thumbnail-d.jpg",
      "description": "The shift to the so-called “new normal” has never been more apparent as the pandemic made internet connectivity a basic essential in our daily lives.",
      "datePosted": "Jul 27, 2020 | 10:00 AM",
      "titleFromTag": "Corporate"
    }
  ]
}
