{
  "status": 200,
  "page": 174,
  "totalPage": 298,
  "range": "2077-2088",
  "total": 3573,
  "result": [
    {
      "title": "Manila Government, Globe Business Assist Public Schools with Data Plans for Online Learning",
      "nonclickable": false,
      "openNewTab": false,
      "borderArticle": "border-color:#0074D9;",
      "borderTopArticle": "border-top-color:#0074D9;",
      "imageListing": "/sites/globe.com.ph/files/content/dam/globe/brie/AboutUs/newsroom/business/manila-govt-globe-business-assist-public-schools/updated/newsroom-business-assist-public-schools-thumbnail-listing.jpg",
      "articleUrl": "https://www.globe.com.ph/about-us/newsroom/business/manila-govt-globe-business-assist-public-schools.html",
      "columnType": "articles--type-3",
      "typeListing": "article",
      "imageMobile": "/sites/globe.com.ph/files/content/dam/globe/brie/AboutUs/newsroom/business/manila-govt-globe-business-assist-public-schools/updated/newsroom-business-assist-public-schools-primary-thumbnail-m.jpg",
      "imageDesktop": "/sites/globe.com.ph/files/content/dam/globe/brie/AboutUs/newsroom/business/manila-govt-globe-business-assist-public-schools/updated/newsroom-business-assist-public-schools-primary-thumbnail-d.jpg",
      "description": "The city government of Manila will be providing public school students with free access to online learning platforms under Globe’s BatangMaynilaSurf Plans.",
      "datePosted": "Jul 24, 2020 | 11:58 AM",
      "titleFromTag": "Business"
    },
    {
      "title": "Join ZRewards for Free and Help LalaJeep Drivers",
      "nonclickable": false,
      "openNewTab": false,
      "borderArticle": "border-color:#0074D9;",
      "borderTopArticle": "border-top-color:#0074D9;",
      "imageListing": "/sites/globe.com.ph/files/content/dam/globe/brie/AboutUs/newsroom/917ventures/join-zrewards-help-lalajeep-drivers/newsroom-917ventures-zrewards-lalajeep-drivers-thumbnail-listing.jpg",
      "articleUrl": "https://www.globe.com.ph/about-us/newsroom/917ventures/join-zrewards-help-lalajeep-drivers.html",
      "columnType": "articles--type-3",
      "typeListing": "article",
      "imageMobile": "/sites/globe.com.ph/files/content/dam/globe/brie/AboutUs/newsroom/917ventures/join-zrewards-help-lalajeep-drivers/newsroom-917ventures-zrewards-lalajeep-drivers-primary-thumbnail-m.jpg",
      "imageDesktop": "/sites/globe.com.ph/files/content/dam/globe/brie/AboutUs/newsroom/917ventures/join-zrewards-help-lalajeep-drivers/newsroom-917ventures-zrewards-lalajeep-drivers-primary-thumbnail-d.jpg",
      "description": "ZRewards is the country’s newest online marketplace for discounts and freebies launched last July 15.",
      "datePosted": "Jul 24, 2020 | 11:46 AM",
      "titleFromTag": "917Ventures"
    },
    {
      "title": "Globe myBusiness Delivers a Cloud-Based Educational System for Rosemont Hills Montessori College",
      "nonclickable": false,
      "openNewTab": false,
      "borderArticle": "border-color:#0074D9;",
      "borderTopArticle": "border-top-color:#0074D9;",
      "imageListing": "/sites/globe.com.ph/files/content/dam/globe/brie/AboutUs/newsroom/business/globe-cloud-education-system-rosemont-hills-montessori-college/newsroom-business-system-rosemont-montessori-thumbnail-listing.jpg",
      "articleUrl": "https://www.globe.com.ph/about-us/newsroom/business/globe-cloud-education-system-rosemont-hills-montessori-college.html",
      "columnType": "articles--type-3",
      "typeListing": "article",
      "imageMobile": "/sites/globe.com.ph/files/content/dam/globe/brie/AboutUs/newsroom/business/globe-cloud-education-system-rosemont-hills-montessori-college/newsroom-business-system-rosemont-montessori-primary-thumbnail-m.jpg",
      "imageDesktop": "/sites/globe.com.ph/files/content/dam/globe/brie/AboutUs/newsroom/business/globe-cloud-education-system-rosemont-hills-montessori-college/newsroom-business-system-rosemont-montessori-primary-thumbnail-d.jpg",
      "description": "Globe myBusiness has partnered with Rosemont Hills Montessori College in implementing remote education through a Learning Management System.",
      "datePosted": "Jul 23, 2020 | 11:34 AM",
      "titleFromTag": "Business"
    },
    {
      "title": "Globe Teams up with Bataan LGU to Streamline SAP Processing",
      "nonclickable": false,
      "openNewTab": false,
      "borderArticle": "border-color:#0074D9;",
      "borderTopArticle": "border-top-color:#0074D9;",
      "imageListing": "/sites/globe.com.ph/files/content/dam/globe/brie/AboutUs/newsroom/partners/bataan-lgu-sap-processing/newsroom-partners-bataan-lgu-sap-thumbnail-listing.jpg",
      "articleUrl": "https://www.globe.com.ph/about-us/newsroom/partners/bataan-lgu-sap-processing.html",
      "columnType": "articles--type-3",
      "typeListing": "article",
      "imageMobile": "/sites/globe.com.ph/files/content/dam/globe/brie/AboutUs/newsroom/partners/bataan-lgu-sap-processing/newsroom-partners-bataan-lgu-sap-primary-thumbnail-m.jpg",
      "imageDesktop": "/sites/globe.com.ph/files/content/dam/globe/brie/AboutUs/newsroom/partners/bataan-lgu-sap-processing/newsroom-partners-bataan-lgu-sap-primary-thumbnail-d.jpg",
      "description": "The Bataan local government unit (LGU) has tapped Globe to streamline the processing and approval of its Social Amelioration Program (SAP) for constituents.",
      "datePosted": "Jul 23, 2020 | 10:01 AM",
      "titleFromTag": "Partners"
    },
    {
      "title": "Globe to Tackle Importance of Network Builds in LCC Webinar",
      "nonclickable": false,
      "openNewTab": false,
      "borderArticle": "border-color:#0074D9;",
      "borderTopArticle": "border-top-color:#0074D9;",
      "imageListing": "/sites/globe.com.ph/files/content/dam/globe/brie/AboutUs/newsroom/business/globe-tackle-network-build-importance-lcc-webinar/newsroom-business-network-builds-webinar-thumbnail-listing.jpg",
      "articleUrl": "https://www.globe.com.ph/about-us/newsroom/business/globe-tackle-network-build-importance-lcc-webinar.html",
      "columnType": "articles--type-3",
      "typeListing": "article",
      "imageMobile": "/sites/globe.com.ph/files/content/dam/globe/brie/AboutUs/newsroom/business/globe-tackle-network-build-importance-lcc-webinar/updated/newsroom-business-network-builds-webinar-primary-thumbnail-m.jpg",
      "imageDesktop": "/sites/globe.com.ph/files/content/dam/globe/brie/AboutUs/newsroom/business/globe-tackle-network-build-importance-lcc-webinar/updated/newsroom-business-network-builds-webinar-primary-thumbnail-d.jpg",
      "description": "Globe will tackle the need to expand its network to fast-track the country’s pivot to digital transformation at the opening of the Liveable Cities Labs.",
      "datePosted": "Jul 21, 2020 | 04:30 PM",
      "titleFromTag": "Business"
    },
    {
      "title": "KonsultaMD Registers 450% Jump in Consultations Due to Pandemic",
      "nonclickable": false,
      "openNewTab": false,
      "borderArticle": "border-color:#0074D9;",
      "borderTopArticle": "border-top-color:#0074D9;",
      "imageListing": "/sites/globe.com.ph/files/content/dam/globe/brie/AboutUs/newsroom/917ventures/konsultamd-450-jump-consultations/newsroom-917ventures-konsultamd-registers-450-thumbnail-listing.jpg",
      "articleUrl": "https://www.globe.com.ph/about-us/newsroom/917ventures/konsultamd-450-jump-consultations.html",
      "columnType": "articles--type-3",
      "typeListing": "article",
      "imageMobile": "/sites/globe.com.ph/files/content/dam/globe/brie/AboutUs/newsroom/917ventures/konsultamd-450-jump-consultations/newsroom-917ventures-konsultamd-registers-450-primary-thumbnail-m.jpg",
      "imageDesktop": "/sites/globe.com.ph/files/content/dam/globe/brie/AboutUs/newsroom/917ventures/konsultamd-450-jump-consultations/newsroom-917ventures-konsultamd-registers-450-primary-thumbnail-d.jpg",
      "description": "KonsultaMD, a 24/7 subscription-based telehealth service, registered a 450% jump in the number of consultations in April as compared to January this year. ",
      "datePosted": "Jul 21, 2020 | 09:38 AM",
      "titleFromTag": "917Ventures"
    },
    {
      "title": "Recreate New Normal with Globe’s Better Days, Better Deals Promo",
      "nonclickable": false,
      "openNewTab": false,
      "borderArticle": "border-color:#0074D9;",
      "borderTopArticle": "border-top-color:#0074D9;",
      "imageListing": "/sites/globe.com.ph/files/content/dam/globe/brie/AboutUs/newsroom/consumer/better-days-better-deals-promo/newsroom-consumer-betters-days-deals-thumbnail-listing.jpg",
      "articleUrl": "https://www.globe.com.ph/about-us/newsroom/consumer/better-days-better-deals-promo.html",
      "columnType": "articles--type-3",
      "typeListing": "article",
      "imageMobile": "/sites/globe.com.ph/files/content/dam/globe/brie/AboutUs/newsroom/consumer/better-days-better-deals-promo/newsroom-consumer-betters-days-deals-primary-thumbnail-m.jpg",
      "imageDesktop": "/sites/globe.com.ph/files/content/dam/globe/brie/AboutUs/newsroom/consumer/better-days-better-deals-promo/newsroom-consumer-betters-days-deals-primary-thumbnail-d.jpg",
      "description": "Globe is offering awesome devices and connectivity deals that will make education more accessible and seamless to Filipino students in this time of crisis.",
      "datePosted": "Jul 21, 2020 | 09:00 AM",
      "titleFromTag": "Consumer"
    },
    {
      "title": "Globe myBusiness Secures the Future of Digital Education at Bukidnon Faith Christian School, Inc.",
      "nonclickable": false,
      "openNewTab": false,
      "borderArticle": "border-color:#0074D9;",
      "borderTopArticle": "border-top-color:#0074D9;",
      "imageListing": "/sites/globe.com.ph/files/content/dam/globe/brie/AboutUs/newsroom/business/globe-mybusiness-digital-education-bukidnon-school/newsroom-business-digital-education-bukidnon--thumbnail-listing.jpg",
      "articleUrl": "https://www.globe.com.ph/about-us/newsroom/business/globe-mybusiness-digital-education-bukidnon-school.html",
      "columnType": "articles--type-3",
      "typeListing": "article",
      "imageMobile": "/sites/globe.com.ph/files/content/dam/globe/brie/AboutUs/newsroom/business/globe-mybusiness-digital-education-bukidnon-school/newsroom-business-digital-education-bukidnon--primary-thumbnail-m.jpg",
      "imageDesktop": "/sites/globe.com.ph/files/content/dam/globe/brie/AboutUs/newsroom/business/globe-mybusiness-digital-education-bukidnon-school/newsroom-business-digital-education-bukidnon--primary-thumbnail-d.jpg",
      "description": "Globe myBusiness partnered with Bukidnon Faith Christian School, Inc. by providing ICT tools that secure the future of education. Visit the Newsroom for more.",
      "datePosted": "Jul 20, 2020 | 02:23 PM",
      "titleFromTag": "Business"
    },
    {
      "title": "Globe and Google for Education to Transform Digital Learning in Local Schools",
      "nonclickable": false,
      "openNewTab": false,
      "borderArticle": "border-color:#0074D9;",
      "borderTopArticle": "border-top-color:#0074D9;",
      "imageListing": "/sites/globe.com.ph/files/content/dam/globe/brie/AboutUs/newsroom/business/globe-google-for-education-digital-learning/newsroom-business-globe-google-education-thumbnail-listing.jpg",
      "articleUrl": "https://www.globe.com.ph/about-us/newsroom/business/globe-google-for-education-digital-learning.html",
      "columnType": "articles--type-3",
      "typeListing": "article",
      "imageMobile": "/sites/globe.com.ph/files/content/dam/globe/brie/AboutUs/newsroom/business/globe-google-for-education-digital-learning/newsroom-business-globe-google-education-primary-thumbnail-m.jpg",
      "imageDesktop": "/sites/globe.com.ph/files/content/dam/globe/brie/AboutUs/newsroom/business/globe-google-for-education-digital-learning/newsroom-business-globe-google-education-primary-thumbnail-d.jpg",
      "description": "Globe is partnering with Google for Education to meet the growing demand for better academic services and transform the digital learning experience.",
      "datePosted": "Jul 20, 2020 | 01:24 PM",
      "titleFromTag": "Business"
    },
    {
      "title": "Get Ready to Experience Next-Gen Connectivity with Globe’s 5G Technology and Mobile Phones",
      "nonclickable": false,
      "openNewTab": false,
      "borderArticle": "border-color:#0074D9;",
      "borderTopArticle": "border-top-color:#0074D9;",
      "imageListing": "/sites/globe.com.ph/files/content/dam/globe/brie/AboutUs/newsroom/consumer/experience-next-gen-connectivity-5g-technology/newsroom-template-Consumer-thumbnail-listing.jpg",
      "articleUrl": "https://www.globe.com.ph/about-us/newsroom/consumer/next-gen-connectivity-globe-5g.html",
      "columnType": "articles--type-3",
      "typeListing": "article",
      "imageMobile": "/sites/globe.com.ph/files/content/dam/globe/brie/AboutUs/newsroom/consumer/experience-next-gen-connectivity-5g-technology/newsroom-template-Consumer-primary-thumbnail-m.jpg",
      "imageDesktop": "/sites/globe.com.ph/files/content/dam/globe/brie/AboutUs/newsroom/consumer/experience-next-gen-connectivity-5g-technology/newsroom-template-Consumer-primary-thumbnail-d.jpg",
      "description": "Faster and more reliable internet speeds for Globe Postpaid and Platinum subscribers in select locations in Makati and BGC with Globe’s 5G technology.",
      "datePosted": "Jul 17, 2020 | 02:29 PM",
      "titleFromTag": "Consumer"
    },
    {
      "title": "Globe and Ayala Enterprise Circle to Hold Free Webinar for SMEs for the New Normal",
      "nonclickable": false,
      "openNewTab": false,
      "borderArticle": "border-color:#0074D9;",
      "borderTopArticle": "border-top-color:#0074D9;",
      "imageListing": "/sites/globe.com.ph/files/content/dam/globe/brie/AboutUs/newsroom/business/globe-ayala-enterprise-circle-free-webinar-smes-new-normal/newsroom-template-Business-thumbnail-listing.jpg",
      "articleUrl": "https://www.globe.com.ph/about-us/newsroom/business/globe-ayala-enterprise-circle-free-webinar.html",
      "columnType": "articles--type-3",
      "typeListing": "article",
      "imageMobile": "/sites/globe.com.ph/files/content/dam/globe/brie/AboutUs/newsroom/business/globe-ayala-enterprise-circle-free-webinar-smes-new-normal/newsroom-template-Business-primary-thumbnail-m.jpg",
      "imageDesktop": "/sites/globe.com.ph/files/content/dam/globe/brie/AboutUs/newsroom/business/globe-ayala-enterprise-circle-free-webinar-smes-new-normal/newsroom-template-Business-primary-thumbnail-d.jpg",
      "description": "Globe myBusiness has partnered with the Ayala Enterprise Circle (AEC) for a webinar to provide support in jumpstarting this economic force.",
      "datePosted": "Jul 17, 2020 | 02:10 PM",
      "titleFromTag": "Business"
    },
    {
      "title": "To Support Distance Learning, Globe Sends Pre-Owned Laptops to Various Public Schools",
      "nonclickable": false,
      "openNewTab": false,
      "borderArticle": "border-color:#1C91C5;",
      "borderTopArticle": "border-top-color:#1C91C5;",
      "imageListing": "/sites/globe.com.ph/files/content/dam/globe/brie/AboutUs/newsroom/sustainability/globe-sends-pre-owned-laptops-public-schools/newsroom-sustainability-globe-sends-laptops-thumbnail-listing.jpg",
      "articleUrl": "https://www.globe.com.ph/about-us/newsroom/sustainability/globe-sends-pre-owned-laptops-public-schools.html",
      "columnType": "articles--type-3",
      "typeListing": "article",
      "imageMobile": "/sites/globe.com.ph/files/content/dam/globe/brie/AboutUs/newsroom/sustainability/globe-sends-pre-owned-laptops-public-schools/newsroom-sustainability-globe-sends-laptops-primary-thumbnail-m.jpg",
      "imageDesktop": "/sites/globe.com.ph/files/content/dam/globe/brie/AboutUs/newsroom/sustainability/globe-sends-pre-owned-laptops-public-schools/newsroom-sustainability-globe-sends-laptops-primary-thumbnail-d.jpg",
      "description": "For this initiative, Globe utilizes the laptops which employees normally return upon separation from the company or after three years of use. ",
      "datePosted": "Jul 16, 2020 | 03:47 PM",
      "titleFromTag": "Sustainability"
    }
  ]
}
