{
  "status": 200,
  "page": 175,
  "totalPage": 298,
  "range": "2089-2100",
  "total": 3573,
  "result": [
    {
      "title": "Globe At Home Postpaid Introduces New Innovative Promo Plans",
      "nonclickable": false,
      "openNewTab": false,
      "borderArticle": "border-color:#0074D9;",
      "borderTopArticle": "border-top-color:#0074D9;",
      "imageListing": "/sites/globe.com.ph/files/content/dam/globe/brie/AboutUs/newsroom/consumer/globe-at-home-postpaid-new-innovative-promo-plans/newsroom-consumer-gah-postpaid-plans-thumbnail-listing.jpg",
      "articleUrl": "https://www.globe.com.ph/about-us/newsroom/consumer/globe-at-home-postpaid-new-innovative-promo-plans.html",
      "columnType": "articles--type-3",
      "typeListing": "article",
      "imageMobile": "/sites/globe.com.ph/files/content/dam/globe/brie/AboutUs/newsroom/consumer/globe-at-home-postpaid-new-innovative-promo-plans/newsroom-consumer-gah-postpaid-plans-primary-thumbnail-m.jpg",
      "imageDesktop": "/sites/globe.com.ph/files/content/dam/globe/brie/AboutUs/newsroom/consumer/globe-at-home-postpaid-new-innovative-promo-plans/newsroom-consumer-gah-postpaid-plans-primary-thumbnail-d.jpg",
      "description": "Globe At Home is empowering families across the country to recreate the world right at home with its new postpaid plans.",
      "datePosted": "Jul 16, 2020 | 01:22 PM",
      "titleFromTag": "Consumer"
    },
    {
      "title": "Access a Universe of Amazing Exclusive Deals with ZRewards",
      "nonclickable": false,
      "openNewTab": false,
      "borderArticle": "border-color:#0074D9;",
      "borderTopArticle": "border-top-color:#0074D9;",
      "imageListing": "/sites/globe.com.ph/files/content/dam/globe/brie/AboutUs/newsroom/917ventures/amazing-exclusive-deals-zrewards/newsroom-917ventures-exclusive-deals-zrewards-thumbnail-listing.jpg",
      "articleUrl": "https://www.globe.com.ph/about-us/newsroom/917ventures/amazing-exclusive-deals-zrewards.html",
      "columnType": "articles--type-3",
      "typeListing": "article",
      "imageMobile": "/sites/globe.com.ph/files/content/dam/globe/brie/AboutUs/newsroom/917ventures/amazing-exclusive-deals-zrewards/newsroom-917ventures-exclusive-deals-zrewards-primary-thumbnail-m.jpg",
      "imageDesktop": "/sites/globe.com.ph/files/content/dam/globe/brie/AboutUs/newsroom/917ventures/amazing-exclusive-deals-zrewards/newsroom-917ventures-exclusive-deals-zrewards-primary-thumbnail-d.jpg",
      "description": "Beginning July 15, everyone will have a chance to unlock exciting and exclusive freebies and discounts never offered before courtesy of ZRewards by Zeal.",
      "datePosted": "Jul 14, 2020 | 01:55 PM",
      "titleFromTag": "917Ventures"
    },
    {
      "title": "CONNECT with Potential Partners for your Business with Globe",
      "nonclickable": false,
      "openNewTab": false,
      "borderArticle": "border-color:#0074D9;",
      "borderTopArticle": "border-top-color:#0074D9;",
      "imageListing": "/sites/globe.com.ph/files/content/dam/globe/brie/AboutUs/newsroom/business/connect-investors-enablers-suppliers-potential-customers/connect-investors-enablers-suppliers-potential-customers-thumbnail-listing.jpg",
      "articleUrl": "https://www.globe.com.ph/about-us/newsroom/business/connect-investors-enablers-suppliers-potential-customers.html",
      "columnType": "articles--type-3",
      "typeListing": "article",
      "imageMobile": "/sites/globe.com.ph/files/content/dam/globe/brie/AboutUs/newsroom/business/connect-investors-enablers-suppliers-potential-customers/connect-investors-enablers-suppliers-potential-customers-primary-thumbnail-m.jpg",
      "imageDesktop": "/sites/globe.com.ph/files/content/dam/globe/brie/AboutUs/newsroom/business/connect-investors-enablers-suppliers-potential-customers/connect-investors-enablers-suppliers-potential-customers-primary-thumbnail-d.jpg",
      "description": "Globe myBusiness Academy invites you to CONNECT, an online business matching event that helps MSMEs to recover in the new normal.",
      "datePosted": "Jul 13, 2020 | 02:07 PM",
      "titleFromTag": "Business"
    },
    {
      "title": "Globe Calls on Pinoys to Consume Only Legal Content Online",
      "nonclickable": false,
      "openNewTab": false,
      "borderArticle": "border-color:#0074D9;",
      "borderTopArticle": "border-top-color:#0074D9;",
      "imageListing": "/sites/globe.com.ph/files/content/dam/globe/brie/AboutUs/newsroom/common/corporate-default-5/default-corporate-5-thumbnail-listing.jpg",
      "articleUrl": "https://www.globe.com.ph/about-us/newsroom/corporate/consume-only-legal-content-online.html",
      "columnType": "articles--type-3",
      "typeListing": "article",
      "imageMobile": "/sites/globe.com.ph/files/content/dam/globe/brie/AboutUs/newsroom/common/corporate-default-5/default-corporate-5-primary-thumbnail-m.jpg",
      "imageDesktop": "/sites/globe.com.ph/files/content/dam/globe/brie/AboutUs/newsroom/common/corporate-default-5/default-corporate-5-primary-thumbnail-d.jpg",
      "description": "Globe, through its #PlayItRight campaign, continuously sends a strong message to the public to consume digital content the right way.",
      "datePosted": "Jul 13, 2020 | 01:14 PM",
      "titleFromTag": "Corporate"
    },
    {
      "title": "Globe, Virtualahan Help Recovering Drug Dependents to Start Anew",
      "nonclickable": false,
      "openNewTab": false,
      "borderArticle": "border-color:#1C91C5;",
      "borderTopArticle": "border-top-color:#1C91C5;",
      "imageListing": "/sites/globe.com.ph/files/content/dam/globe/brie/AboutUs/newsroom/sustainability/globe-virtualahan-help-drug-dependents-start-anew/newsroom-sustainability-virtualahan-recovering-drug-thumbnail-listing.jpg",
      "articleUrl": "https://www.globe.com.ph/about-us/newsroom/sustainability/globe-virtualahan-help-drug-dependents-start-anew.html",
      "columnType": "articles--type-3",
      "typeListing": "article",
      "imageMobile": "/sites/globe.com.ph/files/content/dam/globe/brie/AboutUs/newsroom/sustainability/globe-virtualahan-help-drug-dependents-start-anew/newsroom-sustainability-virtualahan-recovering-drug-primary-thumbnail-m.jpg",
      "imageDesktop": "/sites/globe.com.ph/files/content/dam/globe/brie/AboutUs/newsroom/sustainability/globe-virtualahan-help-drug-dependents-start-anew/newsroom-sustainability-virtualahan-recovering-drug-primary-thumbnail-d.jpg",
      "description": "Project New Life is a pioneering project in the Philippines that provides aftercare and reintegration support to recovering or former drug dependents.",
      "datePosted": "Jul 10, 2020 | 02:21 PM",
      "titleFromTag": "Sustainability"
    },
    {
      "title": "Globe Shares Tips to Keep Passwords and Accounts Secure",
      "nonclickable": false,
      "openNewTab": false,
      "borderArticle": "border-color:#0074D9;",
      "borderTopArticle": "border-top-color:#0074D9;",
      "imageListing": "/sites/globe.com.ph/files/content/dam/globe/brie/AboutUs/newsroom/corporate/globe-tips-keep-passwords-accounts-secure/newsroom-corporate-tips-password-secure-thumbnail-listing.jpg",
      "articleUrl": "https://www.globe.com.ph/about-us/newsroom/corporate/globe-tips-keep-passwords-accounts-secure.html",
      "columnType": "articles--type-3",
      "typeListing": "article",
      "imageMobile": "/sites/globe.com.ph/files/content/dam/globe/brie/AboutUs/newsroom/corporate/globe-tips-keep-passwords-accounts-secure/newsroom-corporate-tips-password-secure-primary-thumbnail-m.jpg",
      "imageDesktop": "/sites/globe.com.ph/files/content/dam/globe/brie/AboutUs/newsroom/corporate/globe-tips-keep-passwords-accounts-secure/newsroom-corporate-tips-password-secure-primary-thumbnail-d.jpg",
      "description": "Globe continues to promote proper online behavior and responsible internet usage among consumers to keep them safe from threats on the internet.",
      "datePosted": "Jul 10, 2020 | 01:30 PM",
      "titleFromTag": "Corporate"
    },
    {
      "title": "Asia Pacific College and National University Venture into Online Learning with Globe Business",
      "nonclickable": false,
      "openNewTab": false,
      "borderArticle": "border-color:#0074D9;",
      "borderTopArticle": "border-top-color:#0074D9;",
      "imageListing": "/sites/globe.com.ph/files/content/dam/globe/brie/AboutUs/newsroom/business/globe-business-ventures-online-learning-apc-nu/newsroom-business-apc-nu-online-thumbnail-listing.jpg",
      "articleUrl": "https://www.globe.com.ph/about-us/newsroom/business/globe-business-ventures-online-learning-apc-nu.html",
      "columnType": "articles--type-3",
      "typeListing": "article",
      "imageMobile": "/sites/globe.com.ph/files/content/dam/globe/brie/AboutUs/newsroom/business/globe-business-ventures-online-learning-apc-nu/newsroom-business-apc-nu-online-primary-thumbnail-m.jpg",
      "imageDesktop": "/sites/globe.com.ph/files/content/dam/globe/brie/AboutUs/newsroom/business/globe-business-ventures-online-learning-apc-nu/newsroom-business-apc-nu-online-primary-thumbnail-d.jpg",
      "description": "Asia Pacific College (APC) and National University (NU) partnered with Globe Business to offer free connectivity solutions. Visit Globe Newsroom for more.",
      "datePosted": "Jul 09, 2020 | 01:54 PM",
      "titleFromTag": "Business"
    },
    {
      "title": "Globe Embarks on Network Build Projects Nationwide",
      "nonclickable": false,
      "openNewTab": false,
      "borderArticle": "border-color:#0074D9;",
      "borderTopArticle": "border-top-color:#0074D9;",
      "imageListing": "/sites/globe.com.ph/files/content/dam/globe/brie/AboutUs/newsroom/corporate/keeping-network-running/newsroom-corporate-thumbnail-listing.jpg",
      "articleUrl": "https://www.globe.com.ph/about-us/newsroom/corporate/network-build-projects-nationwide.html",
      "columnType": "articles--type-3",
      "typeListing": "article",
      "imageMobile": "/sites/globe.com.ph/files/content/dam/globe/brie/AboutUs/newsroom/corporate/keeping-network-running/newsroom-corporate-primary-thumbnail-m.jpg",
      "imageDesktop": "/sites/globe.com.ph/files/content/dam/globe/brie/AboutUs/newsroom/corporate/keeping-network-running/newsroom-corporate-primary-thumbnail-d.jpg",
      "description": "Globe is set to expand further its network capability with simultaneous undertaking of cell site builds in different parts in the country.",
      "datePosted": "Jul 09, 2020 | 10:55 AM",
      "titleFromTag": "Corporate"
    },
    {
      "title": "Staying #ConnectedAsOne with GoWiFi",
      "nonclickable": false,
      "openNewTab": false,
      "borderArticle": "border-color:#0074D9;",
      "borderTopArticle": "border-top-color:#0074D9;",
      "imageListing": "/sites/globe.com.ph/files/content/dam/globe/brie/AboutUs/newsroom/corporate/staying-connected-as-one-gowifi/newsroom-corporate-connectedasone-thumbnail-listing.jpg",
      "articleUrl": "https://www.globe.com.ph/about-us/newsroom/corporate/staying-connected-as-one-gowifi.html",
      "columnType": "articles--type-3",
      "typeListing": "article",
      "imageMobile": "/sites/globe.com.ph/files/content/dam/globe/brie/AboutUs/newsroom/corporate/staying-connected-as-one-gowifi/newsroom-corporate-connectedasone-primary-thumbnail-m.jpg",
      "imageDesktop": "/sites/globe.com.ph/files/content/dam/globe/brie/AboutUs/newsroom/corporate/staying-connected-as-one-gowifi/newsroom-corporate-connectedasone-primary-thumbnail-d.jpg",
      "description": "Globe's public free and unli WiFi services continue to power and give thanks to frontliners with connectivity and tribute video.",
      "datePosted": "Jul 08, 2020 | 04:16 PM",
      "titleFromTag": "Corporate"
    },
    {
      "title": "Cebu Doctors’ University Boosts Digital Learning Efforts with Globe myBusiness",
      "nonclickable": false,
      "openNewTab": false,
      "borderArticle": "border-color:#0074D9;",
      "borderTopArticle": "border-top-color:#0074D9;",
      "imageListing": "/sites/globe.com.ph/files/content/dam/globe/brie/AboutUs/newsroom/business/cebu-doctors-university-digital-learning/newsroom-business-cebu-doctors-university-thumbnail-listing.jpg",
      "articleUrl": "https://www.globe.com.ph/about-us/newsroom/business/cebu-doctors-university-digital-learning.html",
      "columnType": "articles--type-3",
      "typeListing": "article",
      "imageMobile": "/sites/globe.com.ph/files/content/dam/globe/brie/AboutUs/newsroom/business/cebu-doctors-university-digital-learning/newsroom-business-cebu-doctors-university-primary-thumbnail-m.jpg",
      "imageDesktop": "/sites/globe.com.ph/files/content/dam/globe/brie/AboutUs/newsroom/business/cebu-doctors-university-digital-learning/newsroom-business-cebu-doctors-university-primary-thumbnail-d.jpg",
      "description": "Globe myBusiness partnered with the Cebu Doctors’ University (CDU) to digitally transform learning, so students can attend classes while they stay safe at home.",
      "datePosted": "Jul 07, 2020 | 04:01 PM",
      "titleFromTag": "Business"
    },
    {
      "title": "Globe Encourages Parents and Kids to be Responsible Digital Citizens",
      "nonclickable": false,
      "openNewTab": false,
      "borderArticle": "border-color:#0074D9;",
      "borderTopArticle": "border-top-color:#0074D9;",
      "imageListing": "/sites/globe.com.ph/files/content/dam/globe/brie/AboutUs/newsroom/citizenship/parents-kids-responsible-digital-citizens/newsroom-citizenship-globe-encourages-parents-thumbnail-listing.jpg",
      "articleUrl": "https://www.globe.com.ph/about-us/newsroom/citizenship/parents-kids-responsible-digital-citizens.html",
      "columnType": "articles--type-3",
      "typeListing": "article",
      "imageMobile": "/sites/globe.com.ph/files/content/dam/globe/brie/AboutUs/newsroom/citizenship/parents-kids-responsible-digital-citizens/newsroom-citizenship-globe-encourages-parents-primary-thumbnail-m.jpg",
      "imageDesktop": "/sites/globe.com.ph/files/content/dam/globe/brie/AboutUs/newsroom/citizenship/parents-kids-responsible-digital-citizens/newsroom-citizenship-globe-encourages-parents-primary-thumbnail-d.jpg",
      "description": "To help minimize the risk and promote responsible digital citizenship, Globe held an exclusive webinar called Kids & Tech: Parenting in the Digital Age.",
      "datePosted": "Jul 07, 2020 | 03:43 PM",
      "titleFromTag": "Citizenship"
    },
    {
      "title": "Gearing up for 5G: What’s Real and What’s Not",
      "nonclickable": false,
      "openNewTab": false,
      "borderArticle": "border-color:#0074D9;",
      "borderTopArticle": "border-top-color:#0074D9;",
      "imageListing": "/sites/globe.com.ph/files/content/dam/globe/brie/AboutUs/newsroom/corporate/5g-whats-real-whats-not/newsroom-corporate-gearing-5g-real-not-thumbnail-listing.jpg",
      "articleUrl": "https://www.globe.com.ph/about-us/newsroom/corporate/5g-whats-real-whats-not.html",
      "columnType": "articles--type-3",
      "typeListing": "article",
      "imageMobile": "/sites/globe.com.ph/files/content/dam/globe/brie/AboutUs/newsroom/corporate/5g-whats-real-whats-not/newsroom-corporate-gearing-5g-real-not-primary-thumbnail-m.jpg",
      "imageDesktop": "/sites/globe.com.ph/files/content/dam/globe/brie/AboutUs/newsroom/corporate/5g-whats-real-whats-not/newsroom-corporate-gearing-5g-real-not-primary-thumbnail-d.jpg",
      "description": "What’s the real deal about 5G? Globe will debunk five myths that surround the latest wireless technology.",
      "datePosted": "Jul 06, 2020 | 04:27 PM",
      "titleFromTag": "Corporate"
    }
  ]
}
