{
  "status": 200,
  "page": 176,
  "totalPage": 298,
  "range": "2101-2112",
  "total": 3573,
  "result": [
    {
      "title": "Caring for Customer Service Agents Amidst the Pandemic",
      "nonclickable": false,
      "openNewTab": false,
      "borderArticle": "border-color:#0074D9;",
      "borderTopArticle": "border-top-color:#0074D9;",
      "imageListing": "/sites/globe.com.ph/files/content/dam/globe/brie/AboutUs/newsroom/common/updated/Corporate-globe-thumbnail-listing.jpg",
      "articleUrl": "https://www.globe.com.ph/about-us/newsroom/corporate/caring-for-customer-service-agents-amidst-pandemic.html",
      "columnType": "articles--type-3",
      "typeListing": "article",
      "imageMobile": "/sites/globe.com.ph/files/content/dam/globe/brie/AboutUs/newsroom/common/updated/Corporate-globe-primary-thumbnail-m.jpg",
      "imageDesktop": "/sites/globe.com.ph/files/content/dam/globe/brie/AboutUs/newsroom/common/updated/Corporate-globe-primary-thumbnail-d.jpg",
      "description": "The situation prompted Globe and its vendor partners to work closely to address the needs of frontliners.",
      "datePosted": "Jul 03, 2020 | 03:26 PM",
      "titleFromTag": "Corporate"
    },
    {
      "title": "Globe CEO Sees Digitally-Powered Cities Moving Forward",
      "nonclickable": false,
      "openNewTab": false,
      "borderArticle": "border-color:#0074D9;",
      "borderTopArticle": "border-top-color:#0074D9;",
      "imageListing": "/sites/globe.com.ph/files/content/dam/globe/brie/AboutUs/newsroom/common/default-3/corporate-default-7-thumbnail-listing.jpg",
      "articleUrl": "https://www.globe.com.ph/about-us/newsroom/corporate/digitally-powered-cities-moving-forward.html",
      "columnType": "articles--type-3",
      "typeListing": "article",
      "imageMobile": "/sites/globe.com.ph/files/content/dam/globe/brie/AboutUs/newsroom/common/default-3/corporate-default-7-primary-thumbnail-m.jpg",
      "imageDesktop": "/sites/globe.com.ph/files/content/dam/globe/brie/AboutUs/newsroom/common/default-3/corporate-default-7-primary-thumbnail-d.jpg",
      "description": "Globe President and CEO Ernest Cu believes it is easier to introduce new tech innovations to Filipinos who openly embrace digitalization due to the pandemic.",
      "datePosted": "Jul 02, 2020 | 11:19 AM",
      "titleFromTag": "Corporate"
    },
    {
      "title": "Globe myBusiness Teams up with International LMS Providers to Boost Digital Learning Efforts in Local Schools",
      "nonclickable": false,
      "openNewTab": false,
      "borderArticle": "border-color:#0074D9;",
      "borderTopArticle": "border-top-color:#0074D9;",
      "imageListing": "/sites/globe.com.ph/files/content/dam/globe/brie/AboutUs/newsroom/business/globe-mybusiness-lms-providers-boost-digital-learning-local-schools/sustainability-un-research-body-cites-gfs-program-thumbnail-listing.jpg",
      "articleUrl": "https://www.globe.com.ph/about-us/newsroom/business/globe-mybusiness-lms-providers-boost-digital-learning-local-schools.html",
      "columnType": "articles--type-3",
      "typeListing": "article",
      "imageMobile": "/sites/globe.com.ph/files/content/dam/globe/brie/AboutUs/newsroom/business/globe-mybusiness-lms-providers-boost-digital-learning-local-schools/sustainability-un-research-body-cites-gfs-program-primary-thumbnail-m.jpg",
      "imageDesktop": "/sites/globe.com.ph/files/content/dam/globe/brie/AboutUs/newsroom/business/globe-mybusiness-lms-providers-boost-digital-learning-local-schools/sustainability-un-research-body-cites-gfs-program-primary-thumbnail-d.jpg",
      "description": "Globe myBusiness has partnered with LMS providers to ensure that schools are supported in deploying learning platforms to their students and teachers. ",
      "datePosted": "Jul 01, 2020 | 04:22 PM",
      "titleFromTag": "Business"
    },
    {
      "title": "Globe and Iloilo Strengthen Ties Amidst Pandemic",
      "nonclickable": false,
      "openNewTab": false,
      "borderArticle": "border-color:#0074D9;",
      "borderTopArticle": "border-top-color:#0074D9;",
      "imageListing": "/sites/globe.com.ph/files/content/dam/globe/brie/AboutUs/newsroom/common/updated/Corporate-globe-thumbnail-listing.jpg",
      "articleUrl": "https://www.globe.com.ph/about-us/newsroom/corporate/globe-iloilo-strengthen-ties-amidst-pandemic.html",
      "columnType": "articles--type-3",
      "typeListing": "article",
      "imageMobile": "/sites/globe.com.ph/files/content/dam/globe/brie/AboutUs/newsroom/common/updated/Corporate-globe-primary-thumbnail-m.jpg",
      "imageDesktop": "/sites/globe.com.ph/files/content/dam/globe/brie/AboutUs/newsroom/common/updated/Corporate-globe-primary-thumbnail-d.jpg",
      "description": "Iloilo City has acknowledged Globe’s significant role in helping the LGU’s fight against COVID-19.",
      "datePosted": "Jul 01, 2020 | 02:34 PM",
      "titleFromTag": "Corporate"
    },
    {
      "title": "Globe Reaches Out to Flash Flood Victims in Digos City",
      "nonclickable": false,
      "openNewTab": false,
      "borderArticle": "border-color:#0074D9;",
      "borderTopArticle": "border-top-color:#0074D9;",
      "imageListing": "/sites/globe.com.ph/files/content/dam/globe/brie/AboutUs/newsroom/citizenship/flash-flood-victims-digos-city/newsroom-citizenship-flood-victims-digos-thumbnail-listing.jpg",
      "articleUrl": "https://www.globe.com.ph/about-us/newsroom/citizenship/flash-flood-victims-digos-city.html",
      "columnType": "articles--type-3",
      "typeListing": "article",
      "imageMobile": "/sites/globe.com.ph/files/content/dam/globe/brie/AboutUs/newsroom/citizenship/flash-flood-victims-digos-city/newsroom-citizenship-flood-victims-digos-primary-thumbnail-m.jpg",
      "imageDesktop": "/sites/globe.com.ph/files/content/dam/globe/brie/AboutUs/newsroom/citizenship/flash-flood-victims-digos-city/newsroom-citizenship-flood-victims-digos-primary-thumbnail-d.jpg",
      "description": "Globe has reached out to residents of Digos City by setting up Libreng Tawag and Libreng Charging stations.",
      "datePosted": "Jun 30, 2020 | 01:34 PM",
      "titleFromTag": "Citizenship"
    },
    {
      "title": "Globe At Home Introduces Xtreme WiFi Plan 999",
      "nonclickable": false,
      "openNewTab": false,
      "borderArticle": "border-color:#0074D9;",
      "borderTopArticle": "border-top-color:#0074D9;",
      "imageListing": "/sites/globe.com.ph/files/content/dam/globe/brie/AboutUs/newsroom/consumer/globe-at-home-xtreme-wifi-plan-999/newsroom-consumer-xtreme-wifi-999-thumbnail-listing.jpg",
      "articleUrl": "https://www.globe.com.ph/about-us/newsroom/consumer/globe-at-home-xtreme-wifi-plan-999.html",
      "columnType": "articles--type-3",
      "typeListing": "article",
      "imageMobile": "/sites/globe.com.ph/files/content/dam/globe/brie/AboutUs/newsroom/consumer/globe-at-home-xtreme-wifi-plan-999/newsroom-consumer-xtreme-wifi-999-primary-thumbnail-m.jpg",
      "imageDesktop": "/sites/globe.com.ph/files/content/dam/globe/brie/AboutUs/newsroom/consumer/globe-at-home-xtreme-wifi-plan-999/newsroom-consumer-xtreme-wifi-999-primary-thumbnail-d.jpg",
      "description": "Globe At Home is ready to meet the increasing demand for fast and reliable internet with the new Xtreme WiFi Plan 999.",
      "datePosted": "Jun 30, 2020 | 01:05 PM",
      "titleFromTag": "Consumer"
    },
    {
      "title": "Globe Joins UN in Paying Tribute to MSMEs Economic Contribution",
      "nonclickable": false,
      "openNewTab": false,
      "borderArticle": "border-color:#0074D9;",
      "borderTopArticle": "border-top-color:#0074D9;",
      "imageListing": "/sites/globe.com.ph/files/content/dam/globe/brie/AboutUs/newsroom/business/globe-un-pay-tribute-msme-economic-contribution/newsroom-business-globe-un-msme-thumbnail-listing.jpg",
      "articleUrl": "https://www.globe.com.ph/about-us/newsroom/business/globe-un-pay-tribute-msme-economic-contribution.html",
      "columnType": "articles--type-3",
      "typeListing": "article",
      "imageMobile": "/sites/globe.com.ph/files/content/dam/globe/brie/AboutUs/newsroom/business/globe-un-pay-tribute-msme-economic-contribution/newsroom-business-globe-un-msme-primary-thumbnail-m.jpg",
      "imageDesktop": "/sites/globe.com.ph/files/content/dam/globe/brie/AboutUs/newsroom/business/globe-un-pay-tribute-msme-economic-contribution/newsroom-business-globe-un-msme-primary-thumbnail-d.jpg",
      "description": "The UN has declared June 27 as MSME Day and in line with the celebration, Globe myBusiness launched the Saludo SME campaign.",
      "datePosted": "Jun 30, 2020 | 11:01 AM",
      "titleFromTag": "Business"
    },
    {
      "title": "Globe Business and Zscaler Team Up to Strengthen PH Cybersecurity",
      "nonclickable": false,
      "openNewTab": false,
      "borderArticle": "border-color:#0074D9;",
      "borderTopArticle": "border-top-color:#0074D9;",
      "imageListing": "/sites/globe.com.ph/files/content/dam/globe/brie/AboutUs/newsroom/business/globe-business-zscaler-strengthen-ph-cybersecurity/newsroom-business-globe-Zscaler-cybersecurity-thumbnail-listing.jpg",
      "articleUrl": "https://www.globe.com.ph/about-us/newsroom/business/globe-business-zscaler-strengthen-ph-cybersecurity.html",
      "columnType": "articles--type-3",
      "typeListing": "article",
      "imageMobile": "/sites/globe.com.ph/files/content/dam/globe/brie/AboutUs/newsroom/business/globe-business-zscaler-strengthen-ph-cybersecurity/newsroom-business-globe-Zscaler-cybersecurity-primary-thumbnail-m.jpg",
      "imageDesktop": "/sites/globe.com.ph/files/content/dam/globe/brie/AboutUs/newsroom/business/globe-business-zscaler-strengthen-ph-cybersecurity/newsroom-business-globe-Zscaler-cybersecurity-primary-thumbnail-d.jpg",
      "description": "Globe Business joined the Zscaler Summit Partner Program to help companies drive their digital transformation, as business activities shift online.",
      "datePosted": "Jun 30, 2020 | 10:20 AM",
      "titleFromTag": "Business"
    },
    {
      "title": "Globe Kicks Off Tribute Campaign for Local SMEs with Special FB Live Event and Inspirational Video",
      "nonclickable": false,
      "openNewTab": false,
      "borderArticle": "border-color:#0074D9;",
      "borderTopArticle": "border-top-color:#0074D9;",
      "imageListing": "/sites/globe.com.ph/files/content/dam/globe/brie/AboutUs/newsroom/business/globe-kicks-off-saludosme-campaign/newsroom-business-campaign-sme-video-thumbnail-listing.jpg",
      "articleUrl": "https://www.globe.com.ph/about-us/newsroom/business/globe-kicks-off-saludosme-campaign.html",
      "columnType": "articles--type-3",
      "typeListing": "article",
      "imageMobile": "/sites/globe.com.ph/files/content/dam/globe/brie/AboutUs/newsroom/business/globe-kicks-off-saludosme-campaign/newsroom-business-campaign-sme-video-primary-thumbnail-m.jpg",
      "imageDesktop": "/sites/globe.com.ph/files/content/dam/globe/brie/AboutUs/newsroom/business/globe-kicks-off-saludosme-campaign/newsroom-business-campaign-sme-video-primary-thumbnail-d.jpg",
      "description": "The #SaludoSME campaign kicked off with a special Facebook Live event via the official Globe Business FB page. Visit Globe Newsroom for more.",
      "datePosted": "Jun 29, 2020 | 01:50 PM",
      "titleFromTag": "Business"
    },
    {
      "title": "Globe Esports Team Liyab Signs Health and Wellness Expert as New Strength and Conditioning Coach",
      "nonclickable": false,
      "openNewTab": false,
      "borderArticle": "border-color:#0074D9;",
      "borderTopArticle": "border-top-color:#0074D9;",
      "imageListing": "/sites/globe.com.ph/files/content/dam/globe/brie/AboutUs/newsroom/consumer/team-liyab-signs-health-wellness-expert/newsroom-consumer-esports-liyab-coach-thumbnail-listing.jpg",
      "articleUrl": "https://www.globe.com.ph/about-us/newsroom/consumer/team-liyab-signs-health-wellness-expert.html",
      "columnType": "articles--type-3",
      "typeListing": "article",
      "imageMobile": "/sites/globe.com.ph/files/content/dam/globe/brie/AboutUs/newsroom/consumer/team-liyab-signs-health-wellness-expert/newsroom-consumer-esports-liyab-coach-primary-thumbnail-m.jpg",
      "imageDesktop": "/sites/globe.com.ph/files/content/dam/globe/brie/AboutUs/newsroom/consumer/team-liyab-signs-health-wellness-expert/newsroom-consumer-esports-liyab-coach-primary-thumbnail-d.jpg",
      "description": "Team Liyab taps Strength and Conditioning coach Martin Alido to help its athletes become fit and well-equipped for their profession, while at home.",
      "datePosted": "Jun 29, 2020 | 01:50 PM",
      "titleFromTag": "Consumer"
    },
    {
      "title": "ZRewards, ZALORA Team up for up to 25% Shopping Discount",
      "nonclickable": false,
      "openNewTab": false,
      "borderArticle": "border-color:#0074D9;",
      "borderTopArticle": "border-top-color:#0074D9;",
      "imageListing": "/sites/globe.com.ph/files/content/dam/globe/brie/AboutUs/newsroom/917ventures/zrewards-zalora-team-up/newsroom-917ventures-zrewards-zalora-discount--thumbnail-listing.jpg",
      "articleUrl": "https://www.globe.com.ph/about-us/newsroom/917ventures/zrewards-zalora-team-up.html",
      "columnType": "articles--type-3",
      "typeListing": "article",
      "imageMobile": "/sites/globe.com.ph/files/content/dam/globe/brie/AboutUs/newsroom/917ventures/zrewards-zalora-team-up/newsroom-917ventures-zrewards-zalora-discount--primary-thumbnail-m.jpg",
      "imageDesktop": "/sites/globe.com.ph/files/content/dam/globe/brie/AboutUs/newsroom/917ventures/zrewards-zalora-team-up/newsroom-917ventures-zrewards-zalora-discount--primary-thumbnail-d.jpg",
      "description": "Shop and save with ZALORA and ZRewards by Zeal! Enjoy up to 25% discount at ZALORA’s Big Fashion Sale which runs until July 2.",
      "datePosted": "Jun 29, 2020 | 11:07 AM",
      "titleFromTag": "917Ventures"
    },
    {
      "title": "Globe Eyes Aggressive Cell Site builds in 3Q 2020",
      "nonclickable": false,
      "openNewTab": false,
      "borderArticle": "border-color:#0074D9;",
      "borderTopArticle": "border-top-color:#0074D9;",
      "imageListing": "/sites/globe.com.ph/files/content/dam/globe/brie/AboutUs/newsroom/common/default-5/corporate-default-6-thumbnail-listing.jpg",
      "articleUrl": "https://www.globe.com.ph/about-us/newsroom/corporate/aggressive-cell-site-builds-3q-2020.html",
      "columnType": "articles--type-3",
      "typeListing": "article",
      "imageMobile": "/sites/globe.com.ph/files/content/dam/globe/brie/AboutUs/newsroom/common/default-5/corporate-default-6-primary-thumbnail-m.jpg",
      "imageDesktop": "/sites/globe.com.ph/files/content/dam/globe/brie/AboutUs/newsroom/common/default-5/corporate-default-6-primary-thumbnail-d.jpg",
      "description": "The major cell site builds will start in July covering several areas in Metro Manila, North and South Luzon, Visayas and Mindanao.",
      "datePosted": "Jun 29, 2020 | 10:33 AM",
      "titleFromTag": "Corporate"
    }
  ]
}
