{
  "status": 200,
  "page": 177,
  "totalPage": 298,
  "range": "2113-2124",
  "total": 3573,
  "result": [
    {
      "title": "Stay Loud and Proud from Home with Globe & Pride@Tech",
      "nonclickable": false,
      "openNewTab": false,
      "borderArticle": "border-color:#0074D9;",
      "borderTopArticle": "border-top-color:#0074D9;",
      "imageListing": "/sites/globe.com.ph/files/content/dam/globe/brie/AboutUs/newsroom/consumer/pride-at-tech-pride-2020/newsroom-consumer-pride-at-tech-thumbnail-listing.jpg",
      "articleUrl": "https://www.globe.com.ph/about-us/newsroom/consumer/pride-at-tech-pride-2020.html",
      "columnType": "articles--type-3",
      "typeListing": "article",
      "imageMobile": "/sites/globe.com.ph/files/content/dam/globe/brie/AboutUs/newsroom/consumer/pride-at-tech-pride-2020/newsroom-consumer-pride-at-tech-primary-thumbnail-m.jpg",
      "imageDesktop": "/sites/globe.com.ph/files/content/dam/globe/brie/AboutUs/newsroom/consumer/pride-at-tech-pride-2020/newsroom-consumer-pride-at-tech-primary-thumbnail-d.jpg",
      "description": "This 2020, Globe Telecom, along with other technology leaders, is partnering with Pride@Tech to #Recreate #Pride2020.",
      "datePosted": "Jun 26, 2020 | 08:25 PM",
      "titleFromTag": "Consumer"
    },
    {
      "title": "Globe myBusiness Powers Ateneo de Davao’s Digital School Year",
      "nonclickable": false,
      "openNewTab": false,
      "borderArticle": "border-color:#0074D9;",
      "borderTopArticle": "border-top-color:#0074D9;",
      "imageListing": "/sites/globe.com.ph/files/content/dam/globe/brie/AboutUs/newsroom/business/globe-mybusiness-ateneo-de-davao-digital-school-year/thumbnail-listing.png",
      "articleUrl": "https://www.globe.com.ph/about-us/newsroom/business/globe-mybusiness-ateneo-de-davao-digital-school-year.html",
      "columnType": "articles--type-3",
      "typeListing": "article",
      "imageMobile": "/sites/globe.com.ph/files/content/dam/globe/brie/AboutUs/newsroom/business/globe-mybusiness-ateneo-de-davao-digital-school-year/primary-thumbnail-m.png",
      "imageDesktop": "/sites/globe.com.ph/files/content/dam/globe/brie/AboutUs/newsroom/business/globe-mybusiness-ateneo-de-davao-digital-school-year/primary-thumbnail-d.png",
      "description": "Globe myBusiness has partnered with Ateneo de Davao University (ADDU) by providing tailor-made internet plans for the next school year. ",
      "datePosted": "Jun 26, 2020 | 02:35 PM",
      "titleFromTag": "Business"
    },
    {
      "title": "Make Life Easier with GlobeOne and Globe At Home Apps",
      "nonclickable": false,
      "openNewTab": false,
      "borderArticle": "border-color:#0074D9;",
      "borderTopArticle": "border-top-color:#0074D9;",
      "imageListing": "/sites/globe.com.ph/files/content/dam/globe/brie/AboutUs/newsroom/consumer/make-life-easier-globeone-globe-at-home-apps/thumbnail-listing.png",
      "articleUrl": "https://www.globe.com.ph/about-us/newsroom/consumer/make-life-easier-globeone-globe-at-home-apps.html",
      "columnType": "articles--type-3",
      "typeListing": "article",
      "imageMobile": "/sites/globe.com.ph/files/content/dam/globe/brie/AboutUs/newsroom/consumer/make-life-easier-globeone-globe-at-home-apps/primary-thumbnail-m.png",
      "imageDesktop": "/sites/globe.com.ph/files/content/dam/globe/brie/AboutUs/newsroom/consumer/make-life-easier-globeone-globe-at-home-apps/primary-thumbnail-d.png",
      "description": "With just a few taps on their smartphones, they can monitor and track their usage and bill, request for tech support, buy load, and settle their balance.",
      "datePosted": "Jun 26, 2020 | 02:01 PM",
      "titleFromTag": "Consumer"
    },
    {
      "title": "Globe Partners with FBDFI to Boost Taguig’s Anti-COVID Efforts",
      "nonclickable": false,
      "openNewTab": false,
      "borderArticle": "border-color:#0074D9;",
      "borderTopArticle": "border-top-color:#0074D9;",
      "imageListing": "/sites/globe.com.ph/files/content/dam/globe/brie/AboutUs/newsroom/partners/fbdfi-boost-taguig-anti-covid-efforts/newsroom-partners-fbdfi-taguig-anti-covid-thumbnail-listing.jpg",
      "articleUrl": "https://www.globe.com.ph/about-us/newsroom/partners/fbdfi-boost-taguig-anti-covid-efforts.html",
      "columnType": "articles--type-3",
      "typeListing": "article",
      "imageMobile": "/sites/globe.com.ph/files/content/dam/globe/brie/AboutUs/newsroom/partners/fbdfi-boost-taguig-anti-covid-efforts/newsroom-partners-fbdfi-taguig-anti-covid-primary-thumbnail-m.jpg",
      "imageDesktop": "/sites/globe.com.ph/files/content/dam/globe/brie/AboutUs/newsroom/partners/fbdfi-boost-taguig-anti-covid-efforts/newsroom-partners-fbdfi-taguig-anti-covid-primary-thumbnail-d.jpg",
      "description": "Globe has partnered with Fort Bonifacio Development Foundation Inc. (FBDFI) to help Taguig City's residents and front liners in this time of pandemic.",
      "datePosted": "Jun 25, 2020 | 01:22 PM",
      "titleFromTag": "Partners"
    },
    {
      "title": "Globe E-skwela Tackles Online Lesson Creation and Materials Development",
      "nonclickable": false,
      "openNewTab": false,
      "borderArticle": "border-color:#0074D9;",
      "borderTopArticle": "border-top-color:#0074D9;",
      "imageListing": "/sites/globe.com.ph/files/content/dam/globe/brie/AboutUs/newsroom/business/e-skwela-online-lesson-materials-development/newsroom-business-eskwela-tackles-lesson-thumbnail-listing.jpg",
      "articleUrl": "https://www.globe.com.ph/about-us/newsroom/business/e-skwela-online-lesson-materials-development.html",
      "columnType": "articles--type-3",
      "typeListing": "article",
      "imageMobile": "/sites/globe.com.ph/files/content/dam/globe/brie/AboutUs/newsroom/business/e-skwela-online-lesson-materials-development/newsroom-business-eskwela-tackles-lesson-primary-thumbnail-m.jpg",
      "imageDesktop": "/sites/globe.com.ph/files/content/dam/globe/brie/AboutUs/newsroom/business/e-skwela-online-lesson-materials-development/newsroom-business-eskwela-tackles-lesson-primary-thumbnail-d.jpg",
      "description": "The panel of experts discussed and presented key concepts and teaching strategies on the topics of Learning Experience Design and Digital Storytelling.",
      "datePosted": "Jun 25, 2020 | 12:59 PM",
      "titleFromTag": "Business"
    },
    {
      "title": "Globe Provides Free Mobile Data Access to COVID KAYA, CART System",
      "nonclickable": false,
      "openNewTab": false,
      "borderArticle": "border-color:#0074D9;",
      "borderTopArticle": "border-top-color:#0074D9;",
      "imageListing": "/sites/globe.com.ph/files/content/dam/globe/brie/AboutUs/newsroom/corporate/free-mobile-data-covid-kaya-cart-system/newsroom-corporate-free-access-covid-kaya-thumbnail-listing.jpg",
      "articleUrl": "https://www.globe.com.ph/about-us/newsroom/corporate/free-mobile-data-covid-kaya-cart-system.html",
      "columnType": "articles--type-3",
      "typeListing": "article",
      "imageMobile": "/sites/globe.com.ph/files/content/dam/globe/brie/AboutUs/newsroom/corporate/free-mobile-data-covid-kaya-cart-system/newsroom-corporate-free-access-covid-kaya-primary-thumbnail-m.jpg",
      "imageDesktop": "/sites/globe.com.ph/files/content/dam/globe/brie/AboutUs/newsroom/corporate/free-mobile-data-covid-kaya-cart-system/newsroom-corporate-free-access-covid-kaya-primary-thumbnail-d.jpg",
      "description": "Globe partnered with DOH and WHO to provide free mobile data access to COVID KAYA and the CART System for fast, accurate, & real-time COVID-19 report delivery.",
      "datePosted": "Jun 24, 2020 | 12:00 PM",
      "titleFromTag": "Corporate"
    },
    {
      "title": "Globe Urges Customers to Use Reporting Tool for Spam/Scam Cases",
      "nonclickable": false,
      "openNewTab": false,
      "borderArticle": "border-color:#0074D9;",
      "borderTopArticle": "border-top-color:#0074D9;",
      "imageListing": "/sites/globe.com.ph/files/content/dam/globe/brie/AboutUs/newsroom/corporate/reporting-tool-spam-scam-cases/newsroom-corporate-tool-spam-scam-thumbnail-listing.jpg",
      "articleUrl": "https://www.globe.com.ph/about-us/newsroom/corporate/reporting-tool-spam-scam-cases.html",
      "columnType": "articles--type-3",
      "typeListing": "article",
      "imageMobile": "/sites/globe.com.ph/files/content/dam/globe/brie/AboutUs/newsroom/corporate/reporting-tool-spam-scam-cases/newsroom-corporate-tool-spam-scam-primary-thumbnail-m.jpg",
      "imageDesktop": "/sites/globe.com.ph/files/content/dam/globe/brie/AboutUs/newsroom/corporate/reporting-tool-spam-scam-cases/newsroom-corporate-tool-spam-scam-primary-thumbnail-d.jpg",
      "description": "By visiting https://www.globe.com.ph/stop-spam.html and filling out the online form, Globe customers can easily help put a stop to these illegal practices.",
      "datePosted": "Jun 23, 2020 | 06:42 PM",
      "titleFromTag": "Corporate"
    },
    {
      "title": "Globe Services and Assistance Package for COVID-19 Reaches P1.3B",
      "nonclickable": false,
      "openNewTab": false,
      "borderArticle": "border-color:#1C91C5;",
      "borderTopArticle": "border-top-color:#1C91C5;",
      "imageListing": "/sites/globe.com.ph/files/content/dam/globe/brie/AboutUs/newsroom/sustainability/globe-services-assistance-package-covid-19/thumbnail-listing.png",
      "articleUrl": "https://www.globe.com.ph/about-us/newsroom/sustainability/globe-services-assistance-package-covid-19.html",
      "columnType": "articles--type-3",
      "typeListing": "article",
      "imageMobile": "/sites/globe.com.ph/files/content/dam/globe/brie/AboutUs/newsroom/sustainability/globe-services-assistance-package-covid-19/primary-thumbnail-m.png",
      "imageDesktop": "/sites/globe.com.ph/files/content/dam/globe/brie/AboutUs/newsroom/sustainability/globe-services-assistance-package-covid-19/primary-thumbnail-d.png",
      "description": "Globe Telecom was able to come up with over P1.3 billion in combined services and assistance package for COVID-19. Visit Globe Newsroom for more.",
      "datePosted": "Jun 22, 2020 | 12:06 PM",
      "titleFromTag": "Sustainability"
    },
    {
      "title": "Globe Keeps Employees Engaged while Working Remotely",
      "nonclickable": false,
      "openNewTab": false,
      "borderArticle": "border-color:#0074D9;",
      "borderTopArticle": "border-top-color:#0074D9;",
      "imageListing": "/sites/globe.com.ph/files/content/dam/globe/brie/AboutUs/newsroom/corporate/globe-keeps-employees-engaged-working-remotely/thumbnail-listing.png",
      "articleUrl": "https://www.globe.com.ph/about-us/newsroom/corporate/globe-keeps-employees-engaged-working-remotely.html",
      "columnType": "articles--type-3",
      "typeListing": "article",
      "imageMobile": "/sites/globe.com.ph/files/content/dam/globe/brie/AboutUs/newsroom/corporate/globe-keeps-employees-engaged-working-remotely/primary-thumbnail-m.png",
      "imageDesktop": "/sites/globe.com.ph/files/content/dam/globe/brie/AboutUs/newsroom/corporate/globe-keeps-employees-engaged-working-remotely/primary-thumbnail-d.png",
      "description": "Those working from home deserve work-life balance. Globe Telecom ensured that its over 8,000 employees remain engaged even remotely through various activities.",
      "datePosted": "Jun 22, 2020 | 11:10 AM",
      "titleFromTag": "Corporate"
    },
    {
      "title": "Filipinos More Inclined to Use Digital Finance: GCash Transactions Balloon by 700% YoY in May",
      "nonclickable": false,
      "openNewTab": false,
      "borderArticle": "border-color:#0074D9;",
      "borderTopArticle": "border-top-color:#0074D9;",
      "imageListing": "/sites/globe.com.ph/files/content/dam/globe/brie/AboutUs/newsroom/partners/gcash-leverage-digital-tech-reduce-risk-viral-transmission/newsroom-template-thumbnail-listing.jpg",
      "articleUrl": "https://www.globe.com.ph/about-us/newsroom/917ventures/gcash-transactions-700percent-yoy-May.html",
      "columnType": "articles--type-3",
      "typeListing": "article",
      "imageMobile": "/sites/globe.com.ph/files/content/dam/globe/brie/AboutUs/newsroom/partners/gcash-leverage-digital-tech-reduce-risk-viral-transmission/newsroom-template-primary-thumbnail-m.jpg",
      "imageDesktop": "/sites/globe.com.ph/files/content/dam/globe/brie/AboutUs/newsroom/partners/gcash-leverage-digital-tech-reduce-risk-viral-transmission/newsroom-template-primary-thumbnail-d.jpg",
      "description": "GCash recorded unprecedented growth in May with transactions ballooning by 700 percent year-on-year. Visit Globe Newsroom for more.",
      "datePosted": "Jun 22, 2020 | 10:41 AM",
      "titleFromTag": "917Ventures"
    },
    {
      "title": "Globe Business Teams Up with 150 Enterprise Partners to Support Victoriano Luna Medical Center Frontliners in Fight Against COVID-19",
      "nonclickable": false,
      "openNewTab": false,
      "borderArticle": "border-color:#0074D9;",
      "borderTopArticle": "border-top-color:#0074D9;",
      "imageListing": "/sites/globe.com.ph/files/content/dam/globe/brie/AboutUs/newsroom/business/globe-business-150-enterprises-donate-ppes/thumbnail-listing.png",
      "articleUrl": "https://www.globe.com.ph/about-us/newsroom/business/globe-business-150-enterprises-donate-ppes.html",
      "columnType": "articles--type-3",
      "typeListing": "article",
      "imageMobile": "/sites/globe.com.ph/files/content/dam/globe/brie/AboutUs/newsroom/business/globe-business-150-enterprises-donate-ppes/primary-thumbnail-m.png",
      "imageDesktop": "/sites/globe.com.ph/files/content/dam/globe/brie/AboutUs/newsroom/business/globe-business-150-enterprises-donate-ppes/primary-thumbnail-d.png",
      "description": "Together with its top 150 business partners, Globe Business donated PHP1 million worth of Personal Protective Equipment to Victoriano Luna Medical Center.",
      "datePosted": "Jun 19, 2020 | 05:25 PM",
      "titleFromTag": "Business"
    },
    {
      "title": "Globe Supports Moves to Use Bayanihan Act to Accelerate Expansion",
      "nonclickable": false,
      "openNewTab": false,
      "borderArticle": "border-color:#0074D9;",
      "borderTopArticle": "border-top-color:#0074D9;",
      "imageListing": "/sites/globe.com.ph/files/content/dam/globe/brie/AboutUs/newsroom/corporate/globe-supports-bayanihan-act-accelerate-expansion/thumbnail-listing.png",
      "articleUrl": "https://www.globe.com.ph/about-us/newsroom/corporate/globe-supports-bayanihan-act-accelerate-expansion.html",
      "columnType": "articles--type-3",
      "typeListing": "article",
      "imageMobile": "/sites/globe.com.ph/files/content/dam/globe/brie/AboutUs/newsroom/corporate/globe-supports-bayanihan-act-accelerate-expansion/primary-thumbnail-m.png",
      "imageDesktop": "/sites/globe.com.ph/files/content/dam/globe/brie/AboutUs/newsroom/corporate/globe-supports-bayanihan-act-accelerate-expansion/primary-thumbnail-d.png",
      "description": "Globe is supporting moves to extend the Bayanihan Act to boost its target of building more cell sites all over the country. Visit Globe Newsroom for more.",
      "datePosted": "Jun 19, 2020 | 10:35 AM",
      "titleFromTag": "Corporate"
    }
  ]
}
