{
  "status": 200,
  "page": 178,
  "totalPage": 298,
  "range": "2125-2136",
  "total": 3573,
  "result": [
    {
      "title": "BL Actors TayNew and BrightWin Go to Meet Fans on VLive with Globe",
      "nonclickable": false,
      "openNewTab": false,
      "borderArticle": "border-color:#0074D9;",
      "borderTopArticle": "border-top-color:#0074D9;",
      "imageListing": "/sites/globe.com.ph/files/content/dam/globe/brie/AboutUs/newsroom/consumer/bl-actors-taynew-brightwin-meet-fans-vlive/newsroom-consumer-bl-actor-vlive-thumbnail-listing.jpg",
      "articleUrl": "https://www.globe.com.ph/about-us/newsroom/consumer/bl-actors-taynew-brightwin-meet-fans-vlive.html",
      "columnType": "articles--type-3",
      "typeListing": "article",
      "imageMobile": "/sites/globe.com.ph/files/content/dam/globe/brie/AboutUs/newsroom/consumer/bl-actors-taynew-brightwin-meet-fans-vlive/newsroom-consumer-bl-actor-vlive-primary-thumbnail-m.jpg",
      "imageDesktop": "/sites/globe.com.ph/files/content/dam/globe/brie/AboutUs/newsroom/consumer/bl-actors-taynew-brightwin-meet-fans-vlive/newsroom-consumer-bl-actor-vlive-primary-thumbnail-d.jpg",
      "description": "Filipino fans of the popular Boy Love (BL) phenomenon in Thailand can now be part of the biggest online meet and greet of BL stars worldwide.",
      "datePosted": "Jun 18, 2020 | 04:25 PM",
      "titleFromTag": "Consumer"
    },
    {
      "title": "Globe Platinum Customers Send Tokens of Gratitude to Frontliners through their Digital Assistant, Thea",
      "nonclickable": false,
      "openNewTab": false,
      "borderArticle": "border-color:#0074D9;",
      "borderTopArticle": "border-top-color:#0074D9;",
      "imageListing": "/sites/globe.com.ph/files/content/dam/globe/brie/AboutUs/newsroom/consumer/platinum-customers-tokens-gratitude-frontliners/thumbnail-listing.png",
      "articleUrl": "https://www.globe.com.ph/about-us/newsroom/consumer/platinum-customers-tokens-gratitude-frontliners.html",
      "columnType": "articles--type-3",
      "typeListing": "article",
      "imageMobile": "/sites/globe.com.ph/files/content/dam/globe/brie/AboutUs/newsroom/consumer/platinum-customers-tokens-gratitude-frontliners/primary-thumbnail-m.png",
      "imageDesktop": "/sites/globe.com.ph/files/content/dam/globe/brie/AboutUs/newsroom/consumer/platinum-customers-tokens-gratitude-frontliners/primary-thumbnail-d.png",
      "description": "From June 15 to September 15, Platinum customers can chat with Thea on the Facebook Messenger app and select the beneficiary of the tokens they want to send.",
      "datePosted": "Jun 18, 2020 | 03:47 PM",
      "titleFromTag": "Consumer"
    },
    {
      "title": "GOT7’s Park Jin Young Joins Globe Kmmunity PH For Virtual Hangout",
      "nonclickable": false,
      "openNewTab": false,
      "borderArticle": "border-color:#0074D9;",
      "borderTopArticle": "border-top-color:#0074D9;",
      "imageListing": "/sites/globe.com.ph/files/content/dam/globe/brie/AboutUs/newsroom/consumer/got7-park-jin-young-kmmunity-virtual-hangout/thumbnail-listing.png",
      "articleUrl": "https://www.globe.com.ph/about-us/newsroom/consumer/got7-park-jin-young-virtual-hangout.html",
      "columnType": "articles--type-3",
      "typeListing": "article",
      "imageMobile": "/sites/globe.com.ph/files/content/dam/globe/brie/AboutUs/newsroom/consumer/got7-park-jin-young-kmmunity-virtual-hangout/primary-thumbnail-m.png",
      "imageDesktop": "/sites/globe.com.ph/files/content/dam/globe/brie/AboutUs/newsroom/consumer/got7-park-jin-young-kmmunity-virtual-hangout/primary-thumbnail-d.png",
      "description": "GOT7’s Park Jin Young, more commonly known as Jinyoung, will be joining Globe’s Kmmunity PH Facebook group for an exclusive online meet and greet this June 19. ",
      "datePosted": "Jun 18, 2020 | 03:09 PM",
      "titleFromTag": "Consumer"
    },
    {
      "title": "Globe Pushes Network Expansion in Mindanao",
      "nonclickable": false,
      "openNewTab": false,
      "borderArticle": "border-color:#0074D9;",
      "borderTopArticle": "border-top-color:#0074D9;",
      "imageListing": "/sites/globe.com.ph/files/content/dam/globe/brie/AboutUs/newsroom/corporate/network-expansion-mindanao/thumbnail-listing.png",
      "articleUrl": "https://www.globe.com.ph/about-us/newsroom/corporate/network-expansion-mindanao.html",
      "columnType": "articles--type-3",
      "typeListing": "article",
      "imageMobile": "/sites/globe.com.ph/files/content/dam/globe/brie/AboutUs/newsroom/corporate/network-expansion-mindanao/primary-thumbnail-m.png",
      "imageDesktop": "/sites/globe.com.ph/files/content/dam/globe/brie/AboutUs/newsroom/corporate/network-expansion-mindanao/primary-thumbnail-d.png",
      "description": "Globe continues to sustain its network expansion in Mindanao as several projects all over the island, including one in Patikul, Sulu, get underway.",
      "datePosted": "Jun 18, 2020 | 11:18 AM",
      "titleFromTag": "Corporate"
    },
    {
      "title": "Globe E-skwela: Leveraging on Digital Tools for Online Learning",
      "nonclickable": false,
      "openNewTab": false,
      "borderArticle": "border-color:#0074D9;",
      "borderTopArticle": "border-top-color:#0074D9;",
      "imageListing": "/sites/globe.com.ph/files/content/dam/globe/brie/AboutUs/newsroom/business/e-skwela-digital-tools-online-learning/newsroom-business-eskwela-digital-learning-thumbnail-listing.jpg",
      "articleUrl": "https://www.globe.com.ph/about-us/newsroom/business/e-skwela-digital-tools-online-learning.html",
      "columnType": "articles--type-3",
      "typeListing": "article",
      "imageMobile": "/sites/globe.com.ph/files/content/dam/globe/brie/AboutUs/newsroom/business/e-skwela-digital-tools-online-learning/newsroom-business-eskwela-digital-learning-primary-thumbnail-m.jpg",
      "imageDesktop": "/sites/globe.com.ph/files/content/dam/globe/brie/AboutUs/newsroom/business/e-skwela-digital-tools-online-learning/newsroom-business-eskwela-digital-learning-primary-thumbnail-d.jpg",
      "description": "Globe myBusiness dedicated its fourth E-skwela webinar episode towards a discussion on the applications of digital instructional tools in online learning.",
      "datePosted": "Jun 18, 2020 | 10:13 AM",
      "titleFromTag": "Business"
    },
    {
      "title": "Para Sa Bagong Bukas: Globe myBusiness Strengthens Support for Local SMEs to Adapt to New Normal",
      "nonclickable": false,
      "openNewTab": false,
      "borderArticle": "border-color:#0074D9;",
      "borderTopArticle": "border-top-color:#0074D9;",
      "imageListing": "/sites/globe.com.ph/files/content/dam/globe/brie/AboutUs/newsroom/business/globe-mybusiness-support-local-SMEs-adapt-new-normal/thumbnail-listing.png",
      "articleUrl": "https://www.globe.com.ph/about-us/newsroom/business/local-SMEs-adapt-new-normal.html",
      "columnType": "articles--type-3",
      "typeListing": "article",
      "imageMobile": "/sites/globe.com.ph/files/content/dam/globe/brie/AboutUs/newsroom/business/globe-mybusiness-support-local-SMEs-adapt-new-normal/primary-thumbnail-m.png",
      "imageDesktop": "/sites/globe.com.ph/files/content/dam/globe/brie/AboutUs/newsroom/business/globe-mybusiness-support-local-SMEs-adapt-new-normal/primary-thumbnail-d.png",
      "description": "Globe myBusiness is giving recognition to local MSMEs - the modern-day heroes who play a critical role in the country’s economy this month.",
      "datePosted": "Jun 17, 2020 | 01:15 PM",
      "titleFromTag": "Business"
    },
    {
      "title": "Go for More with Globe Prepaid’s Newest and Biggest Go Promos",
      "nonclickable": false,
      "openNewTab": false,
      "borderArticle": "border-color:#0074D9;",
      "borderTopArticle": "border-top-color:#0074D9;",
      "imageListing": "/sites/globe.com.ph/files/content/dam/globe/brie/AboutUs/newsroom/consumer/prepaid-newest-biggest-go-promos/thumbnail-listing.png",
      "articleUrl": "https://www.globe.com.ph/about-us/newsroom/consumer/prepaid-newest-biggest-go-promos.html",
      "columnType": "articles--type-3",
      "typeListing": "article",
      "imageMobile": "/sites/globe.com.ph/files/content/dam/globe/brie/AboutUs/newsroom/consumer/prepaid-newest-biggest-go-promos/primary-thumbnail-m.png",
      "imageDesktop": "/sites/globe.com.ph/files/content/dam/globe/brie/AboutUs/newsroom/consumer/prepaid-newest-biggest-go-promos/primary-thumbnail-d.png",
      "description": "Gear up for the new normal as Globe Prepaid brings you its newest Go promos with the biggest GBs for all sites and apps!",
      "datePosted": "Jun 17, 2020 | 11:33 AM",
      "titleFromTag": "Consumer"
    },
    {
      "title": "Exciting Vouchers Await Customers From Globe Rewards",
      "nonclickable": false,
      "openNewTab": false,
      "borderArticle": "border-color:#0074D9;",
      "borderTopArticle": "border-top-color:#0074D9;",
      "imageListing": "/sites/globe.com.ph/files/content/dam/globe/brie/AboutUs/newsroom/consumer/exciting-vouchers-await-globe-rewards-customers/newsroom-consumer-vouchers-globe-rewards-thumbnail-listing.jpg",
      "articleUrl": "https://www.globe.com.ph/about-us/newsroom/consumer/exciting-vouchers-await-globe-rewards-customers.html",
      "columnType": "articles--type-3",
      "typeListing": "article",
      "imageMobile": "/sites/globe.com.ph/files/content/dam/globe/brie/AboutUs/newsroom/consumer/exciting-vouchers-await-globe-rewards-customers/newsroom-consumer-vouchers-globe-rewards-primary-thumbnail-m.jpg",
      "imageDesktop": "/sites/globe.com.ph/files/content/dam/globe/brie/AboutUs/newsroom/consumer/exciting-vouchers-await-globe-rewards-customers/newsroom-consumer-vouchers-globe-rewards-primary-thumbnail-d.jpg",
      "description": "Starting June 1 up to December 31, Globe and TM subscribers can use their reward points to avail of new & exclusive deals from Globe Rewards partners.",
      "datePosted": "Jun 16, 2020 | 10:39 AM",
      "titleFromTag": "Consumer"
    },
    {
      "title": "Globe Provides Connectivity for Returning OFWs in Clark City",
      "nonclickable": false,
      "openNewTab": false,
      "borderArticle": "border-color:#0074D9;",
      "borderTopArticle": "border-top-color:#0074D9;",
      "imageListing": "/sites/globe.com.ph/files/content/dam/globe/brie/AboutUs/newsroom/corporate/connectivity-returning-ofws-clark-city/newsroom-corporate-connectivity-ofw-clark-thumbnail-listing.jpg",
      "articleUrl": "https://www.globe.com.ph/about-us/newsroom/corporate/connectivity-returning-ofws-clark-city.html",
      "columnType": "articles--type-3",
      "typeListing": "article",
      "imageMobile": "/sites/globe.com.ph/files/content/dam/globe/brie/AboutUs/newsroom/corporate/connectivity-returning-ofws-clark-city/newsroom-corporate-connectivity-ofw-clark-primary-thumbnail-m.jpg",
      "imageDesktop": "/sites/globe.com.ph/files/content/dam/globe/brie/AboutUs/newsroom/corporate/connectivity-returning-ofws-clark-city/newsroom-corporate-connectivity-ofw-clark-primary-thumbnail-d.jpg",
      "description": "Globe will provide free, reliable and fast internet access to the We Heal As One Center-National Government Administrative Center (NGAC) in New Clark City. ",
      "datePosted": "Jun 15, 2020 | 12:05 PM",
      "titleFromTag": "Corporate"
    },
    {
      "title": "Globe Partners with ChildFund Philippines to Empower Filipino Children and Families in Time of COVID-19",
      "nonclickable": false,
      "openNewTab": false,
      "borderArticle": "border-color:#0074D9;",
      "borderTopArticle": "border-top-color:#0074D9;",
      "imageListing": "/sites/globe.com.ph/files/content/dam/globe/brie/AboutUs/newsroom/partners/globe-childfund-empower-filipino-kids/newsroom-partners-globe-childfund-thumbnail-listing.jpg",
      "articleUrl": "https://www.globe.com.ph/about-us/newsroom/partners/globe-childfund-empower-filipino-kids.html",
      "columnType": "articles--type-3",
      "typeListing": "article",
      "imageMobile": "/sites/globe.com.ph/files/content/dam/globe/brie/AboutUs/newsroom/partners/globe-childfund-empower-filipino-kids/newsroom-partners-globe-childfund-primary-thumbnail-m.jpg",
      "imageDesktop": "/sites/globe.com.ph/files/content/dam/globe/brie/AboutUs/newsroom/partners/globe-childfund-empower-filipino-kids/newsroom-partners-globe-childfund-primary-thumbnail-d.jpg",
      "description": "Globe will be providing SMS Blasting services to reach families and inform them on ways to keep their children safe from the COVID-19 pandemic.",
      "datePosted": "Jun 11, 2020 | 02:54 PM",
      "titleFromTag": "Partners"
    },
    {
      "title": "COVID-19 Response App RC143 Now FREE for all Globe/TM Subscribers",
      "nonclickable": false,
      "openNewTab": false,
      "borderArticle": "border-color:#0074D9;",
      "borderTopArticle": "border-top-color:#0074D9;",
      "imageListing": "/sites/globe.com.ph/files/content/dam/globe/brie/AboutUs/newsroom/partners/rc143-covid-response-app-free-globe-tm-subscribers/newsroom-partners-response-app-rc143-thumbnail-listing.jpg",
      "articleUrl": "https://www.globe.com.ph/about-us/newsroom/partners/rc143-covid-response-app-free-globe-tm-subscribers.html",
      "columnType": "articles--type-3",
      "typeListing": "article",
      "imageMobile": "/sites/globe.com.ph/files/content/dam/globe/brie/AboutUs/newsroom/partners/rc143-covid-response-app-free-globe-tm-subscribers/newsroom-partners-response-app-rc143-primary-thumbnail-m.jpg",
      "imageDesktop": "/sites/globe.com.ph/files/content/dam/globe/brie/AboutUs/newsroom/partners/rc143-covid-response-app-free-globe-tm-subscribers/newsroom-partners-response-app-rc143-primary-thumbnail-d.jpg",
      "description": "Globe has recently partnered with the Red Cross to provide support for RC143 by enabling mobile services like SMS alerts and app advisories.",
      "datePosted": "Jun 11, 2020 | 02:30 PM",
      "titleFromTag": "Partners"
    },
    {
      "title": "Digital Raises the Flag of Freedom in 2020",
      "nonclickable": false,
      "openNewTab": false,
      "borderArticle": "border-color:#0074D9;",
      "borderTopArticle": "border-top-color:#0074D9;",
      "imageListing": "/sites/globe.com.ph/files/content/dam/globe/brie/AboutUs/newsroom/partners/digital-raises-flag-of-freedom-2020-adspark/newsroom-partners-digital-flag-freedom-thumbnail-listing.jpg",
      "articleUrl": "https://www.globe.com.ph/about-us/newsroom/partners/digital-raises-flag-of-freedom-2020.html",
      "columnType": "articles--type-3",
      "typeListing": "article",
      "imageMobile": "/sites/globe.com.ph/files/content/dam/globe/brie/AboutUs/newsroom/partners/digital-raises-flag-of-freedom-2020-adspark/newsroom-partners-digital-flag-freedom-primary-thumbnail-m.jpg",
      "imageDesktop": "/sites/globe.com.ph/files/content/dam/globe/brie/AboutUs/newsroom/partners/digital-raises-flag-of-freedom-2020-adspark/newsroom-partners-digital-flag-freedom-primary-thumbnail-d.jpg",
      "description": "In its Independence Day report, AdSpark looked into 4 key areas where Filipinos harnessed digital as their means to circumvent hindrances during the pandemic.",
      "datePosted": "Jun 11, 2020 | 01:37 PM",
      "titleFromTag": "Partners"
    }
  ]
}
