{
  "status": 200,
  "page": 179,
  "totalPage": 298,
  "range": "2137-2148",
  "total": 3573,
  "result": [
    {
      "title": "DOH Volunteer Doctors Provide Video Consultation via KonsultaMD",
      "nonclickable": false,
      "openNewTab": false,
      "borderArticle": "border-color:#0074D9;",
      "borderTopArticle": "border-top-color:#0074D9;",
      "imageListing": "/sites/globe.com.ph/files/content/dam/globe/brie/AboutUs/newsroom/partners/doh-volunteer-doctors-provide-video-consultation-konsultamd/newsroom-partners-doctors-konsultamd-thumbnail-listing.jpg",
      "articleUrl": "https://www.globe.com.ph/about-us/newsroom/partners/doh-volunteer-doctors-provide-video-consultation-konsultamd.html",
      "columnType": "articles--type-3",
      "typeListing": "article",
      "imageMobile": "/sites/globe.com.ph/files/content/dam/globe/brie/AboutUs/newsroom/partners/doh-volunteer-doctors-provide-video-consultation-konsultamd/newsroom-partners-doctors-konsultamd-primary-thumbnail-m.jpg",
      "imageDesktop": "/sites/globe.com.ph/files/content/dam/globe/brie/AboutUs/newsroom/partners/doh-volunteer-doctors-provide-video-consultation-konsultamd/newsroom-partners-doctors-konsultamd-primary-thumbnail-d.jpg",
      "description": "Customers of KonsultaMD may now enjoy unlimited video consultation with any of the 30 volunteer telemedicine doctors in the DOH Healthcare Warrior Program.",
      "datePosted": "Jun 10, 2020 | 02:16 PM",
      "titleFromTag": "Partners"
    },
    {
      "title": "Globe Debunks 5G Myths Based on Experts’ Opinions and Studies",
      "nonclickable": false,
      "openNewTab": false,
      "borderArticle": "border-color:#0074D9;",
      "borderTopArticle": "border-top-color:#0074D9;",
      "imageListing": "/sites/globe.com.ph/files/content/dam/globe/brie/AboutUs/newsroom/corporate/5g-myths-debunked/thumbnail-listing.png",
      "articleUrl": "https://www.globe.com.ph/about-us/newsroom/corporate/5g-myths-debunked.html",
      "columnType": "articles--type-3",
      "typeListing": "article",
      "imageMobile": "/sites/globe.com.ph/files/content/dam/globe/brie/AboutUs/newsroom/corporate/5g-myths-debunked/primary-thumbnail-m.png",
      "imageDesktop": "/sites/globe.com.ph/files/content/dam/globe/brie/AboutUs/newsroom/corporate/5g-myths-debunked/primary-thumbnail-d.png",
      "description": "The World Health Organization (WHO) states there are no proven detrimental health effects caused by exposure to 5G or to any wireless technology up to this day.",
      "datePosted": "Jun 10, 2020 | 11:04 AM",
      "titleFromTag": "Corporate"
    },
    {
      "title": "Globe Esports Team Liyab Raises Donations for Philippine Heart Center",
      "nonclickable": false,
      "openNewTab": false,
      "borderArticle": "border-color:#0074D9;",
      "borderTopArticle": "border-top-color:#0074D9;",
      "imageListing": "/sites/globe.com.ph/files/content/dam/globe/brie/AboutUs/newsroom/corporate/team-liyab-donations-philippine-heart-center/thumbnail-listing.png",
      "articleUrl": "https://www.globe.com.ph/about-us/newsroom/corporate/team-liyab-donations-philippine-heart-center.html",
      "columnType": "articles--type-3",
      "typeListing": "article",
      "imageMobile": "/sites/globe.com.ph/files/content/dam/globe/brie/AboutUs/newsroom/corporate/team-liyab-donations-philippine-heart-center/primary-thumbnail-m.png",
      "imageDesktop": "/sites/globe.com.ph/files/content/dam/globe/brie/AboutUs/newsroom/corporate/team-liyab-donations-philippine-heart-center/primary-thumbnail-d.png",
      "description": "Dubbed ‘Starforge’, the online charity streaming event was launched in April 17 to 26 by Liyab and Esports AcadArena.",
      "datePosted": "Jun 09, 2020 | 05:01 PM",
      "titleFromTag": "Corporate"
    },
    {
      "title": "Globe Donates Gadgets, Food Packs to Taguig’s Efforts vs COVID-19",
      "nonclickable": false,
      "openNewTab": false,
      "borderArticle": "border-color:#1C91C5;",
      "borderTopArticle": "border-top-color:#1C91C5;",
      "imageListing": "/sites/globe.com.ph/files/content/dam/globe/brie/AboutUs/newsroom/sustainability/globe-donates-gadgets-food-packs/thumbnail-listing.png",
      "articleUrl": "https://www.globe.com.ph/about-us/newsroom/sustainability/globe-donates-gadgets-food-packs.html",
      "columnType": "articles--type-3",
      "typeListing": "article",
      "imageMobile": "/sites/globe.com.ph/files/content/dam/globe/brie/AboutUs/newsroom/sustainability/globe-donates-gadgets-food-packs/primary-thumbnail-m.png",
      "imageDesktop": "/sites/globe.com.ph/files/content/dam/globe/brie/AboutUs/newsroom/sustainability/globe-donates-gadgets-food-packs/primary-thumbnail-d.png",
      "description": "Globe has boosted Taguig City’s various initiatives to minimize the impact of the COVID-19 pandemic. Visit Globe Newsroom for more.",
      "datePosted": "Jun 08, 2020 | 11:31 AM",
      "titleFromTag": "Sustainability"
    },
    {
      "title": "Globe, Innove Sustain Increase in Tax Payments in 2019",
      "nonclickable": false,
      "openNewTab": false,
      "borderArticle": "border-color:#0074D9;",
      "borderTopArticle": "border-top-color:#0074D9;",
      "imageListing": "/sites/globe.com.ph/files/content/dam/globe/brie/AboutUs/newsroom/common/default-9/default-corporate-4-thumbnail-listing.jpg",
      "articleUrl": "https://www.globe.com.ph/about-us/newsroom/partners/globe-innove-increase-2019-tax-payments.html",
      "columnType": "articles--type-3",
      "typeListing": "article",
      "imageMobile": "/sites/globe.com.ph/files/content/dam/globe/brie/AboutUs/newsroom/common/default-9/default-corporate-4-primary-thumbnail-m.jpg",
      "imageDesktop": "/sites/globe.com.ph/files/content/dam/globe/brie/AboutUs/newsroom/common/default-9/default-corporate-4-primary-thumbnail-d.jpg",
      "description": "Globe and Innove Communications Inc.’s tax payments continue to rise for the fifth consecutive fiscal year in 2019. Visit Globe Newsroom for more.",
      "datePosted": "Jun 05, 2020 | 02:59 PM",
      "titleFromTag": "Partners"
    },
    {
      "title": "Globe Backs Race To Zero CO₂ Emissions Campaign",
      "nonclickable": false,
      "openNewTab": false,
      "borderArticle": "border-color:#1C91C5;",
      "borderTopArticle": "border-top-color:#1C91C5;",
      "imageListing": "/sites/globe.com.ph/files/content/dam/globe/brie/AboutUs/newsroom/sustainability/globe-backs-race-to-zero-co2-gas-emission-campaign/newsroom-sustainability-race-to-zero-campaign-thumbnail-listing.jpg",
      "articleUrl": "https://www.globe.com.ph/about-us/newsroom/sustainability/race-to-zero-co2-emissions-campaign.html",
      "columnType": "articles--type-3",
      "typeListing": "article",
      "imageMobile": "/sites/globe.com.ph/files/content/dam/globe/brie/AboutUs/newsroom/sustainability/globe-backs-race-to-zero-co2-gas-emission-campaign/newsroom-sustainability-race-to-zero-campaign-primary-thumbnail-m.jpg",
      "imageDesktop": "/sites/globe.com.ph/files/content/dam/globe/brie/AboutUs/newsroom/sustainability/globe-backs-race-to-zero-co2-gas-emission-campaign/newsroom-sustainability-race-to-zero-campaign-primary-thumbnail-d.jpg",
      "description": "Globe Telecom puts into action its commitment to reduce its carbon footprint by actively supporting the Race To Zero global campaign spearheaded by the UNFCCC and COP26 Presidency and backed by the GSMA.",
      "datePosted": "Jun 05, 2020 | 07:30 AM",
      "titleFromTag": "Sustainability"
    },
    {
      "title": "Globe Highlights Essential Role of E-Commerce for MSMEs",
      "nonclickable": false,
      "openNewTab": false,
      "borderArticle": "border-color:#0074D9;",
      "borderTopArticle": "border-top-color:#0074D9;",
      "imageListing": "/sites/globe.com.ph/files/content/dam/globe/brie/AboutUs/newsroom/business/globe-highlights-e-commerce-msme/newsroom-business-role-ecommerce-msme-thumbnail-listing.jpg",
      "articleUrl": "https://www.globe.com.ph/about-us/newsroom/business/globe-highlights-e-commerce-msme.html",
      "columnType": "articles--type-3",
      "typeListing": "article",
      "imageMobile": "/sites/globe.com.ph/files/content/dam/globe/brie/AboutUs/newsroom/business/globe-highlights-e-commerce-msme/newsroom-business-role-ecommerce-msme-primary-thumbnail-m.jpg",
      "imageDesktop": "/sites/globe.com.ph/files/content/dam/globe/brie/AboutUs/newsroom/business/globe-highlights-e-commerce-msme/newsroom-business-role-ecommerce-msme-primary-thumbnail-d.jpg",
      "description": "Globe myBusiness invited industry experts for its Business Consultation Caravan (BCC) online series to guide MSME entrepreneurs in taking their business online.",
      "datePosted": "Jun 04, 2020 | 12:45 PM",
      "titleFromTag": "Business"
    },
    {
      "title": "Globe Helps Pasig City Cope with COVID-19",
      "nonclickable": false,
      "openNewTab": false,
      "borderArticle": "border-color:#0074D9;",
      "borderTopArticle": "border-top-color:#0074D9;",
      "imageListing": "/sites/globe.com.ph/files/content/dam/globe/brie/AboutUs/newsroom/corporate/globe-helps-pasig-city-cope-covid-19/newsroom-corporate-globe-helps-pasig-thumbnail-listing.jpg",
      "articleUrl": "https://www.globe.com.ph/about-us/newsroom/corporate/globe-helps-pasig-city-cope-covid-19.html",
      "columnType": "articles--type-3",
      "typeListing": "article",
      "imageMobile": "/sites/globe.com.ph/files/content/dam/globe/brie/AboutUs/newsroom/corporate/globe-helps-pasig-city-cope-covid-19/newsroom-corporate-globe-helps-pasig-primary-thumbnail-m.jpg",
      "imageDesktop": "/sites/globe.com.ph/files/content/dam/globe/brie/AboutUs/newsroom/corporate/globe-helps-pasig-city-cope-covid-19/newsroom-corporate-globe-helps-pasig-primary-thumbnail-d.jpg",
      "description": "Globe supported the Pasig Local Government's campaign against COVID-19 with funding for testing, communication support and other important donations.",
      "datePosted": "Jun 04, 2020 | 12:41 PM",
      "titleFromTag": "Corporate"
    },
    {
      "title": "Globe Says Technology Use Improves Business Resiliency",
      "nonclickable": false,
      "openNewTab": false,
      "borderArticle": "border-color:#0074D9;",
      "borderTopArticle": "border-top-color:#0074D9;",
      "imageListing": "/sites/globe.com.ph/files/content/dam/globe/brie/AboutUs/newsroom/corporate/technology-improves-business-resiliency/thumbnail-listing.png",
      "articleUrl": "https://www.globe.com.ph/about-us/newsroom/corporate/technology-improves-business-resiliency.html",
      "columnType": "articles--type-3",
      "typeListing": "article",
      "imageMobile": "/sites/globe.com.ph/files/content/dam/globe/brie/AboutUs/newsroom/corporate/technology-improves-business-resiliency/update/primary-thumbnail-m.png",
      "imageDesktop": "/sites/globe.com.ph/files/content/dam/globe/brie/AboutUs/newsroom/corporate/technology-improves-business-resiliency/primary-thumbnail-d.png",
      "description": "Globe believes that adopting technology early has allowed the company to transition smoothly and securely to the full work from home set up.",
      "datePosted": "Jun 03, 2020 | 01:26 PM",
      "titleFromTag": "Corporate"
    },
    {
      "title": "Globe Offers Awesome Discounts at the 6.6 Comeback Deals",
      "nonclickable": false,
      "openNewTab": false,
      "borderArticle": "border-color:#0074D9;",
      "borderTopArticle": "border-top-color:#0074D9;",
      "imageListing": "/sites/globe.com.ph/files/content/dam/globe/brie/AboutUs/newsroom/consumer/awesome-discounts-6-6-comeback-deals/thumbnail-listing.png",
      "articleUrl": "https://www.globe.com.ph/about-us/newsroom/consumer/awesome-discounts-6-6-comeback-deals.html",
      "columnType": "articles--type-3",
      "typeListing": "article",
      "imageMobile": "/sites/globe.com.ph/files/content/dam/globe/brie/AboutUs/newsroom/consumer/awesome-discounts-6-6-comeback-deals/primary-thumbnail-m.png",
      "imageDesktop": "/sites/globe.com.ph/files/content/dam/globe/brie/AboutUs/newsroom/consumer/awesome-discounts-6-6-comeback-deals/primary-thumbnail-d.png",
      "description": "Globe’s 6.6 Comeback Deals will be available for a limited time period so add to cart now and check out on June 6!",
      "datePosted": "Jun 03, 2020 | 01:26 PM",
      "titleFromTag": "Consumer"
    },
    {
      "title": "Globe Supports Mandaluyong City During Pandemic",
      "nonclickable": false,
      "openNewTab": false,
      "borderArticle": "border-color:#0074D9;",
      "borderTopArticle": "border-top-color:#0074D9;",
      "imageListing": "/sites/globe.com.ph/files/content/dam/globe/brie/AboutUs/newsroom/corporate/globe-supports-mandaluyong-during-pandemic/newsroom-corporate-globe-supports-mandaluyong-thumbnail-listing.jpg",
      "articleUrl": "https://www.globe.com.ph/about-us/newsroom/corporate/globe-supports-mandaluyong-during-pandemic.html",
      "columnType": "articles--type-3",
      "typeListing": "article",
      "imageMobile": "/sites/globe.com.ph/files/content/dam/globe/brie/AboutUs/newsroom/corporate/globe-supports-mandaluyong-during-pandemic/newsroom-corporate-globe-supports-mandaluyong-primary-thumbnail-m.jpg",
      "imageDesktop": "/sites/globe.com.ph/files/content/dam/globe/brie/AboutUs/newsroom/corporate/globe-supports-mandaluyong-during-pandemic/newsroom-corporate-globe-supports-mandaluyong-primary-thumbnail-d.jpg",
      "description": "Globe is supporting the Mandaluyong City’s campaign to stop the spread of the COVID-19 pandemic.",
      "datePosted": "Jun 02, 2020 | 11:25 AM",
      "titleFromTag": "Corporate"
    },
    {
      "title": "Be Future-Ready with Globe myBusiness’ Online Business Consultation Caravan",
      "nonclickable": false,
      "openNewTab": false,
      "borderArticle": "border-color:#0074D9;",
      "borderTopArticle": "border-top-color:#0074D9;",
      "imageListing": "/sites/globe.com.ph/files/content/dam/globe/brie/AboutUs/newsroom/business/globe-mybusiness-online-business-consultation-caravan/newsroom-online-consultation-caravan-thumbnail-listing.jpg",
      "articleUrl": "https://www.globe.com.ph/about-us/newsroom/business/globe-mybusiness-online-business-consultation-caravan.html",
      "columnType": "articles--type-3",
      "typeListing": "article",
      "imageMobile": "/sites/globe.com.ph/files/content/dam/globe/brie/AboutUs/newsroom/business/globe-mybusiness-online-business-consultation-caravan/newsroom-online-consultation-caravan-primary-thumbnail-m.jpg",
      "imageDesktop": "/sites/globe.com.ph/files/content/dam/globe/brie/AboutUs/newsroom/business/globe-mybusiness-online-business-consultation-caravan/newsroom-online-consultation-caravan-primary-thumbnail-d.jpg",
      "description": "Globe myBusiness organized the Business Consultation Caravan (BCC) Online, a series of webinars to help entrepreneurs thrive during the COVID 19 pandemic. ",
      "datePosted": "Jun 01, 2020 | 04:01 PM",
      "titleFromTag": "Business"
    }
  ]
}
