{
  "status": 200,
  "page": 18,
  "totalPage": 298,
  "range": "205-216",
  "total": 3573,
  "result": [
    {
      "title": "Edventure, Huawei Join Forces to Make Quality Education Accessible to Learners Worldwide",
      "nonclickable": false,
      "openNewTab": false,
      "borderArticle": "border-color:#0074D9;",
      "borderTopArticle": "border-top-color:#0074D9;",
      "imageListing": "/sites/globe.com.ph/files/content/dam/globe/brie/AboutUs/newsroom/common/default-partners-2/default-partners-2-thumbnail-listing.jpg",
      "articleUrl": "https://www.globe.com.ph/about-us/newsroom/consumer/edventure-huawei-join-forces-make-quality-education-accessible.html",
      "columnType": "articles--type-3",
      "typeListing": "article",
      "imageMobile": "/sites/globe.com.ph/files/content/dam/globe/brie/AboutUs/newsroom/common/default-partners-2/default-partners-2-primary-thumbnail-m.jpg",
      "imageDesktop": "/sites/globe.com.ph/files/content/dam/globe/brie/AboutUs/newsroom/common/default-partners-2/default-partners-2-primary-thumbnail-d.jpg",
      "description": "Edventure, Huawei partners to make quality education accessible to learners worldwide.",
      "datePosted": "Jul 19, 2023 | 09:28 AM",
      "titleFromTag": "Consumer"
    },
    {
      "title": "Globe Donates ₱300K Worth of Rice to Boost Gov’t Relief Efforts in Areas Affected by Mayon Unrest",
      "nonclickable": false,
      "openNewTab": false,
      "borderArticle": "border-color:#0074D9;",
      "borderTopArticle": "border-top-color:#0074D9;",
      "imageListing": "/sites/globe.com.ph/files/content/dam/globe/brie/AboutUs/newsroom/corporate/globe-disaster-volcanic-response-mayon-taal/corp-default-image-thumbnail-listing.jpg",
      "articleUrl": "https://www.globe.com.ph/about-us/newsroom/sustainability/300-k-pesos-worth-of-rice-mayon-relief.html",
      "columnType": "articles--type-3",
      "typeListing": "article",
      "imageMobile": "/sites/globe.com.ph/files/content/dam/globe/brie/AboutUs/newsroom/corporate/globe-disaster-volcanic-response-mayon-taal/corp-default-image-primary-thumbnail-m.jpg",
      "imageDesktop": "/sites/globe.com.ph/files/content/dam/globe/brie/AboutUs/newsroom/corporate/globe-disaster-volcanic-response-mayon-taal/corp-default-image-primary-thumbnail-d.jpg",
      "description": "Globe donates ₱300K worth of rice to provide support for communities affected by Mayon Volcano’s unrest.",
      "datePosted": "Jul 19, 2023 | 09:27 AM",
      "titleFromTag": "Sustainability"
    },
    {
      "title": "Globe Unveils Game-Changing 5G-Connected Robots for Improved Operational Efficiency",
      "nonclickable": false,
      "openNewTab": false,
      "borderArticle": "border-color:#0074D9;",
      "borderTopArticle": "border-top-color:#0074D9;",
      "imageListing": "/sites/globe.com.ph/files/content/dam/globe/brie/About-us/Newsroom/image/Corporate/globe-unveils-game-changing-5g-connected-robots/thumbnail-listing.jpg",
      "articleUrl": "https://www.globe.com.ph/about-us/newsroom/corporate/globe-unveils-game-changing-5g-connected-robots.html",
      "columnType": "articles--type-3",
      "typeListing": "article",
      "imageMobile": "/sites/globe.com.ph/files/content/dam/globe/brie/About-us/Newsroom/image/Corporate/globe-unveils-game-changing-5g-connected-robots/primary-thumbnail-m.jpg",
      "imageDesktop": "/sites/globe.com.ph/files/content/dam/globe/brie/About-us/Newsroom/image/Corporate/globe-unveils-game-changing-5g-connected-robots/primary-thumbnail-d.jpg",
      "description": "Globe achieved a significant technological milestone as it unveils 5G-connected robots at the recent INNOVANIA: Technology and Innovations Day.",
      "datePosted": "Jul 17, 2023 | 10:14 AM",
      "titleFromTag": "Corporate"
    },
    {
      "title": "Globe At Home GFiber Prepaid Advances Digital Access and Literacy",
      "nonclickable": false,
      "openNewTab": false,
      "borderArticle": "border-color:#0074D9;",
      "borderTopArticle": "border-top-color:#0074D9;",
      "imageListing": "/sites/globe.com.ph/files/content/dam/globe/brie/AboutUs/newsroom/common/default-sustainability-1/default-sustainability-1-thumbnail-listing.jpg",
      "articleUrl": "https://www.globe.com.ph/about-us/newsroom/consumer/gfiber-prepaid-advances-digital-access-literacy.html",
      "columnType": "articles--type-3",
      "typeListing": "article",
      "imageMobile": "/sites/globe.com.ph/files/content/dam/globe/brie/AboutUs/newsroom/common/default-sustainability-1/default-sustainability-1-top-banner-m.jpg",
      "imageDesktop": "/sites/globe.com.ph/files/content/dam/globe/brie/AboutUs/newsroom/common/default-sustainability-1/default-sustainability-1-primary-thumbnail-d.jpg",
      "description": "Globe continues to advance digital access and literacy through GFiber Prepaid, a reliable and affordable prepaid fiber internet.",
      "datePosted": "Jul 14, 2023 | 10:53 AM",
      "titleFromTag": "Consumer"
    },
    {
      "title": "Globe Pilots GSMA ESG Metrics for Mobile in PH",
      "nonclickable": false,
      "openNewTab": false,
      "borderArticle": "border-color:#0074D9;",
      "borderTopArticle": "border-top-color:#0074D9;",
      "imageListing": "/sites/globe.com.ph/files/content/dam/globe/brie/AboutUs/newsroom/sustainability/globe-pilots-gsma-esg-metrics/corp-listing-thumbnail.jpg",
      "articleUrl": "https://www.globe.com.ph/about-us/newsroom/sustainability/globe-pilots-gsma-esg-metrics-mobile-ph.html",
      "columnType": "articles--type-3",
      "typeListing": "article",
      "imageMobile": "/sites/globe.com.ph/files/content/dam/globe/brie/AboutUs/newsroom/sustainability/globe-pilots-gsma-esg-metrics/corp-primary-banner-m.jpg",
      "imageDesktop": "/sites/globe.com.ph/files/content/dam/globe/brie/AboutUs/newsroom/sustainability/globe-pilots-gsma-esg-metrics/corp-primary-thumbnail.jpg",
      "description": "Globe takes proactive step as the first GSMA member in the Philippines to pilot-test the groundbreaking GSMA ESG Metrics for Mobile.",
      "datePosted": "Jul 14, 2023 | 10:52 AM",
      "titleFromTag": "Sustainability"
    },
    {
      "title": "July 2023 Updates: Globe SIM Registration Portal",
      "nonclickable": false,
      "openNewTab": false,
      "borderArticle": "border-color:#0074D9;",
      "borderTopArticle": "border-top-color:#0074D9;",
      "imageListing": "/sites/globe.com.ph/files/content/dam/globe/brie/AboutUs/newsroom/common/default-total-globe-2/newsroom-total-globe-default-2-thumbnail-listing.jpg",
      "articleUrl": "https://www.globe.com.ph/about-us/newsroom/corporate/sim-registration-july-2023.html",
      "columnType": "articles--type-3",
      "typeListing": "article",
      "imageMobile": "/sites/globe.com.ph/files/content/dam/globe/brie/AboutUs/newsroom/common/default-total-globe-2/newsroom-total-globe-default-2-primary-thumbnail-m.jpg",
      "imageDesktop": "/sites/globe.com.ph/files/content/dam/globe/brie/AboutUs/newsroom/common/default-total-globe-2/newsroom-total-globe-default-2-primary-thumbnail-d.jpg",
      "description": "Read the July 2023 updates on Globe's SIM Registration here.",
      "datePosted": "Jul 13, 2023 | 11:06 AM",
      "titleFromTag": "Corporate"
    },
    {
      "title": "Globe Teams Up with Yield Guild Games for Web3 Education in PH, Web3 Community Summit Slated on July 15",
      "nonclickable": false,
      "openNewTab": false,
      "borderArticle": "border-color:#0074D9;",
      "borderTopArticle": "border-top-color:#0074D9;",
      "imageListing": "/sites/globe.com.ph/files/content/dam/globe/brie/AboutUs/newsroom/common/default-partners-4/default-partners-4-primary-thumbnail-listing.jpg",
      "articleUrl": "https://www.globe.com.ph/about-us/newsroom/partners/globe-yield-guild-games-web3-education-ph.html",
      "columnType": "articles--type-3",
      "typeListing": "article",
      "imageMobile": "/sites/globe.com.ph/files/content/dam/globe/brie/AboutUs/newsroom/common/default-partners-4/default-partners-4-primary-primary-thumbnail-m.jpg",
      "imageDesktop": "/sites/globe.com.ph/files/content/dam/globe/brie/AboutUs/newsroom/common/default-partners-4/default-partners-4-primary-primary-thumbnail-d.jpg",
      "description": "Globe has cemented a strategic partnership with Yield Guild Games (YGG) to work together in expanding Web3 knowledge through community programs in PH.\r\n",
      "datePosted": "Jul 13, 2023 | 09:50 AM",
      "titleFromTag": "Partners"
    },
    {
      "title": "Globe Business “Mindhive” Innovation Series Accelerates the Digital Transformation of PH Enterprises",
      "nonclickable": false,
      "openNewTab": false,
      "borderArticle": "border-color:#0074D9;",
      "borderTopArticle": "border-top-color:#0074D9;",
      "imageListing": "/sites/globe.com.ph/files/content/dam/globe/brie/AboutUs/newsroom/business/globe-business-mindhive-innovation-series/eg-mindhive-thumbnail-listing.jpg",
      "articleUrl": "https://www.globe.com.ph/about-us/newsroom/business/mindhive-accelerates-digital-transformation-ph-enterprises.html",
      "columnType": "articles--type-3",
      "typeListing": "article",
      "imageMobile": "/sites/globe.com.ph/files/content/dam/globe/brie/AboutUs/newsroom/business/globe-business-mindhive-innovation-series/eg-mindhive-primary-thumbnail-m.jpg",
      "imageDesktop": "/sites/globe.com.ph/files/content/dam/globe/brie/AboutUs/newsroom/business/globe-business-mindhive-innovation-series/eg-mindhive--primary-thumbnail-d.jpg",
      "description": "Globe Business hosts a two-week immersive event called  “Mindhive: The 2023 Innovation Series” to revolutionize companies’ digital transformation programs.",
      "datePosted": "Jul 12, 2023 | 07:08 PM",
      "titleFromTag": "Business"
    },
    {
      "title": "Globe Advances Child Safety Through Collaboration with CPN and UNICEF for TeleCPU Center sa Barangay Project",
      "nonclickable": false,
      "openNewTab": false,
      "borderArticle": "border-color:#0074D9;",
      "borderTopArticle": "border-top-color:#0074D9;",
      "imageListing": "/sites/globe.com.ph/files/content/dam/globe/brie/AboutUs/newsroom/sustainability/globe-advances-child-safety-through-collaboration/thumbnail-listing.jpg",
      "articleUrl": "https://www.globe.com.ph/about-us/newsroom/sustainability/child-safety-through-collaboration-cpn-unicef.html",
      "columnType": "articles--type-3",
      "typeListing": "article",
      "imageMobile": "/sites/globe.com.ph/files/content/dam/globe/brie/AboutUs/newsroom/sustainability/globe-advances-child-safety-through-collaboration/primary-thumbnail-m.jpg",
      "imageDesktop": "/sites/globe.com.ph/files/content/dam/globe/brie/AboutUs/newsroom/sustainability/globe-advances-child-safety-through-collaboration/primary-thumbnail-d.jpg",
      "description": "Globe,  CPN, and UNICEF provide WiFi modem and mobile devices as part of the TeleCPU Center sa Barangay project.",
      "datePosted": "Jul 12, 2023 | 10:15 AM",
      "titleFromTag": "Sustainability"
    },
    {
      "title": "Globe Group Supports Cebu Provincial Government Service Caravan",
      "nonclickable": false,
      "openNewTab": false,
      "borderArticle": "border-color:#0074D9;",
      "borderTopArticle": "border-top-color:#0074D9;",
      "imageListing": "/sites/globe.com.ph/files/content/dam/globe/brie/About-us/Newsroom/image/Corporate/cebu-provincial-government-service-caravan/thumbnail-listing.jpg",
      "articleUrl": "https://www.globe.com.ph/about-us/newsroom/corporate/cebu-provincial-government-service-caravan.html",
      "columnType": "articles--type-3",
      "typeListing": "article",
      "imageMobile": "/sites/globe.com.ph/files/content/dam/globe/brie/About-us/Newsroom/image/Corporate/cebu-provincial-government-service-caravan/primary-thumbnail-m.jpg",
      "imageDesktop": "/sites/globe.com.ph/files/content/dam/globe/brie/About-us/Newsroom/image/Corporate/cebu-provincial-government-service-caravan/primary-thumbnail-d.jpg",
      "description": "Globe extended support to the provincial government of Cebu’s quarterly service caravan from mid-May to early June this year. ",
      "datePosted": "Jul 12, 2023 | 10:14 AM",
      "titleFromTag": "Corporate"
    },
    {
      "title": "Globe Builds Robust Data Privacy Culture, Concludes Successful Privacy Awareness Month",
      "nonclickable": false,
      "openNewTab": false,
      "borderArticle": "border-color:#0074D9;",
      "borderTopArticle": "border-top-color:#0074D9;",
      "imageListing": "/sites/globe.com.ph/files/content/dam/globe/brie/AboutUs/newsroom/corporate/globe-builds-robust-data-privacy-culture/corp-pam-thumbnail-listing.jpg",
      "articleUrl": "https://www.globe.com.ph/about-us/newsroom/corporate/globe-builds-robust-data-privacy-culture.html",
      "columnType": "articles--type-3",
      "typeListing": "article",
      "imageMobile": "/sites/globe.com.ph/files/content/dam/globe/brie/AboutUs/newsroom/corporate/globe-builds-robust-data-privacy-culture/corp-pam-primary-thumbnail-m.jpg",
      "imageDesktop": "/sites/globe.com.ph/files/content/dam/globe/brie/AboutUs/newsroom/corporate/globe-builds-robust-data-privacy-culture/corp-pam-primary-thumbnail-d.jpg",
      "description": "Globe held its 3rd annual Privacy Awareness Month, reaffirming its commitment to ingraining a robust data privacy culture within its diverse workforce.",
      "datePosted": "Jul 12, 2023 | 10:14 AM",
      "titleFromTag": "Corporate"
    },
    {
      "title": "Register Your SIM on the GCash App and Get 1 GB Free Globe Data",
      "nonclickable": false,
      "openNewTab": false,
      "borderArticle": "border-color:#0074D9;",
      "borderTopArticle": "border-top-color:#0074D9;",
      "imageListing": "/sites/globe.com.ph/files/content/dam/globe/brie/AboutUs/newsroom/common/default-total-globe-1/default-1-total-globe-thumbnail-listing.jpg",
      "articleUrl": "https://www.globe.com.ph/about-us/newsroom/corporate/register-sim-gcash-app-get-1-gb-data.html",
      "columnType": "articles--type-3",
      "typeListing": "article",
      "imageMobile": "/sites/globe.com.ph/files/content/dam/globe/brie/AboutUs/newsroom/common/default-total-globe-1/default-1-total-globe-primary-thumbnail-m.jpg",
      "imageDesktop": "/sites/globe.com.ph/files/content/dam/globe/brie/AboutUs/newsroom/common/default-total-globe-1/default-1-total-globe-primary-thumbnail-d.jpg",
      "description": "Users may now register their SIMs via GCash app and get 1 GB free data upon successful registration.",
      "datePosted": "Jul 11, 2023 | 09:34 AM",
      "titleFromTag": "Corporate"
    }
  ]
}
