{
  "status": 200,
  "page": 180,
  "totalPage": 298,
  "range": "2149-2160",
  "total": 3573,
  "result": [
    {
      "title": "Globe and V Live Bring Exclusive Content to K-Pop Fans",
      "nonclickable": false,
      "openNewTab": false,
      "borderArticle": "border-color:#0074D9;",
      "borderTopArticle": "border-top-color:#0074D9;",
      "imageListing": "/sites/globe.com.ph/files/content/dam/globe/brie/AboutUs/newsroom/partners/globe-v-live-bring-exclusive-content-kpop-fans/newsroom-partners-exclusive-content-kpop-thumbnail-listing.jpg",
      "articleUrl": "https://www.globe.com.ph/about-us/newsroom/partners/globe-v-live-bring-exclusive-content-kpop-fans.html",
      "columnType": "articles--type-3",
      "typeListing": "article",
      "imageMobile": "/sites/globe.com.ph/files/content/dam/globe/brie/AboutUs/newsroom/partners/globe-v-live-bring-exclusive-content-kpop-fans/newsroom-partners-exclusive-content-kpop-primary-thumbnail-m.jpg",
      "imageDesktop": "/sites/globe.com.ph/files/content/dam/globe/brie/AboutUs/newsroom/partners/globe-v-live-bring-exclusive-content-kpop-fans/newsroom-partners-exclusive-content-kpop-social-media-thumbnail.png",
      "description": "Globe ensures that users who are K-pop fans can continue to #KmmunityHwaiting and stay connected to their favorite KPop idols. ",
      "datePosted": "Jun 01, 2020 | 02:37 PM",
      "titleFromTag": "Partners"
    },
    {
      "title": "Globe Says Time has Come to Pivot from Cash to Digital",
      "nonclickable": false,
      "openNewTab": false,
      "borderArticle": "border-color:#0074D9;",
      "borderTopArticle": "border-top-color:#0074D9;",
      "imageListing": "/sites/globe.com.ph/files/content/dam/globe/brie/AboutUs/newsroom/corporate/globe-pivot-cash-to-digital/newsroom-corporate-cash-to-digital-thumbnail-listing.jpg",
      "articleUrl": "https://www.globe.com.ph/about-us/newsroom/corporate/globe-pivot-cash-to-digital.html",
      "columnType": "articles--type-3",
      "typeListing": "article",
      "imageMobile": "/sites/globe.com.ph/files/content/dam/globe/brie/AboutUs/newsroom/corporate/globe-pivot-cash-to-digital/newsroom-corporate-cash-to-digital-primary-thumbnail-m.jpg",
      "imageDesktop": "/sites/globe.com.ph/files/content/dam/globe/brie/AboutUs/newsroom/corporate/globe-pivot-cash-to-digital/newsroom-corporate-cash-to-digital-primary-thumbnail-d.jpg",
      "description": "The pivot from cash to digital as the primary mode of payment should happen now with the growing innovation brought by digital payments",
      "datePosted": "Jun 01, 2020 | 10:56 AM",
      "titleFromTag": "Corporate"
    },
    {
      "title": "GCash Powers EDSA Buses with Contactless Payment Capabilities",
      "nonclickable": false,
      "openNewTab": false,
      "borderArticle": "border-color:#0074D9;",
      "borderTopArticle": "border-top-color:#0074D9;",
      "imageListing": "/sites/globe.com.ph/files/content/dam/globe/brie/AboutUs/newsroom/917ventures/gcash-edsa-buses-contactless-payment/newsroom-917ventures-bus-contactless-payments-thumbnail-listing.jpg",
      "articleUrl": "https://www.globe.com.ph/about-us/newsroom/917ventures/gcash-edsa-buses-contactless-payment.html",
      "columnType": "articles--type-3",
      "typeListing": "article",
      "imageMobile": "/sites/globe.com.ph/files/content/dam/globe/brie/AboutUs/newsroom/917ventures/gcash-edsa-buses-contactless-payment/newsroom-917ventures-bus-contactless-payments-primary-thumbnail-m.jpg",
      "imageDesktop": "/sites/globe.com.ph/files/content/dam/globe/brie/AboutUs/newsroom/917ventures/gcash-edsa-buses-contactless-payment/newsroom-917ventures-bus-contactless-payments-primary-thumbnail-d.jpg",
      "description": "GCash is empowering its users to use their mobile wallets to safely pay for their bus fares, particularly the EDSA route. ",
      "datePosted": "May 30, 2020 | 09:00 AM",
      "titleFromTag": "917Ventures"
    },
    {
      "title": "Globe Continues to Build its 5G Network Despite GCQ",
      "nonclickable": false,
      "openNewTab": false,
      "borderArticle": "border-color:#0074D9;",
      "borderTopArticle": "border-top-color:#0074D9;",
      "imageListing": "/sites/globe.com.ph/files/content/dam/globe/brie/AboutUs/newsroom/corporate/globe-continues-build-5g-network-despite-gcq/newsroom-corporate-globe-build-5g-thumbnail-listing.jpg",
      "articleUrl": "https://www.globe.com.ph/about-us/newsroom/corporate/globe-continues-build-5g-network-despite-gcq.html",
      "columnType": "articles--type-3",
      "typeListing": "article",
      "imageMobile": "/sites/globe.com.ph/files/content/dam/globe/brie/AboutUs/newsroom/corporate/globe-continues-build-5g-network-despite-gcq/newsroom-corporate-globe-build-5g-primary-thumbnail-m.jpg",
      "imageDesktop": "/sites/globe.com.ph/files/content/dam/globe/brie/AboutUs/newsroom/corporate/globe-continues-build-5g-network-despite-gcq/newsroom-corporate-globe-build-5g-primary-thumbnail-d.jpg",
      "description": "As the country slowly works its way into the new normal, Globe remains steadfast in building its 5G network for launching in the coming weeks.",
      "datePosted": "May 29, 2020 | 07:03 PM",
      "titleFromTag": "Corporate"
    },
    {
      "title": "Globe, CHED Examine the Future of Higher Education",
      "nonclickable": false,
      "openNewTab": false,
      "borderArticle": "border-color:#0074D9;",
      "borderTopArticle": "border-top-color:#0074D9;",
      "imageListing": "/sites/globe.com.ph/files/content/dam/globe/brie/AboutUs/newsroom/business/globe-ched-examine-future-higher-education/thumbnail-listing.png",
      "articleUrl": "https://www.globe.com.ph/about-us/newsroom/business/globe-ched-examine-future-higher-education.html",
      "columnType": "articles--type-3",
      "typeListing": "article",
      "imageMobile": "/sites/globe.com.ph/files/content/dam/globe/brie/AboutUs/newsroom/business/globe-ched-examine-future-higher-education/primary-thumbnail-m.png",
      "imageDesktop": "/sites/globe.com.ph/files/content/dam/globe/brie/AboutUs/newsroom/business/globe-ched-examine-future-higher-education/primary-thumbnail-d.png",
      "description": "The disruption brought by the COVID-19 pandemic has given us a glimpse of the ‘new normal’ in the country’s education landscape.",
      "datePosted": "May 29, 2020 | 11:50 AM",
      "titleFromTag": "Business"
    },
    {
      "title": "GCash Send Money Safer vs Traditional Remittance",
      "nonclickable": false,
      "openNewTab": false,
      "borderArticle": "border-color:#0074D9;",
      "borderTopArticle": "border-top-color:#0074D9;",
      "imageListing": "/sites/globe.com.ph/files/content/dam/globe/brie/AboutUs/newsroom/917ventures/gcash-send-money-safer/newsroom-917ventures-gcash-send-money-thumbnail-listing.jpg",
      "articleUrl": "https://www.globe.com.ph/about-us/newsroom/917ventures/gcash-send-money-safer.html",
      "columnType": "articles--type-3",
      "typeListing": "article",
      "imageMobile": "/sites/globe.com.ph/files/content/dam/globe/brie/AboutUs/newsroom/917ventures/gcash-send-money-safer/newsroom-917ventures-gcash-send-money-primary-thumbnail-m.jpg",
      "imageDesktop": "/sites/globe.com.ph/files/content/dam/globe/brie/AboutUs/newsroom/917ventures/gcash-send-money-safer/newsroom-917ventures-gcash-send-money-primary-thumbnail-d.jpg",
      "description": "Facing a pandemic forced the whole world to reconsider the ways of human interaction to avoid the risk of virus transmission.",
      "datePosted": "May 28, 2020 | 03:27 PM",
      "titleFromTag": "917Ventures"
    },
    {
      "title": "Gathering Apart and Shoutouts: Making Meaning Out of the Crisis",
      "nonclickable": false,
      "openNewTab": false,
      "borderArticle": "border-color:#0074D9;",
      "borderTopArticle": "border-top-color:#0074D9;",
      "imageListing": "/sites/globe.com.ph/files/content/dam/globe/brie/AboutUs/newsroom/citizenship/making-meaning-out-of-crisis/newsroom-citizenship-gathering-apart-thumbnail-listing.jpg",
      "articleUrl": "https://www.globe.com.ph/about-us/newsroom/citizenship/making-meaning-out-of-crisis.html",
      "columnType": "articles--type-3",
      "typeListing": "article",
      "imageMobile": "/sites/globe.com.ph/files/content/dam/globe/brie/AboutUs/newsroom/citizenship/making-meaning-out-of-crisis/newsroom-citizenship-gathering-apart-primary-thumbnail-m.jpg",
      "imageDesktop": "/sites/globe.com.ph/files/content/dam/globe/brie/AboutUs/newsroom/citizenship/making-meaning-out-of-crisis/newsroom-citizenship-gathering-apart-primary-thumbnail-d.jpg",
      "description": "In a survey conducted by digital advertising company AdSpark, it showed that 17% of the respondents placed seeing peers on the top of their priorities.",
      "datePosted": "May 28, 2020 | 11:07 AM",
      "titleFromTag": "Citizenship"
    },
    {
      "title": "Globe Studios’ Henares Weighs In on the Internet’s Evolving Impact to Culture and Work",
      "nonclickable": false,
      "openNewTab": false,
      "borderArticle": "border-color:#0074D9;",
      "borderTopArticle": "border-top-color:#0074D9;",
      "imageListing": "/sites/globe.com.ph/files/content/dam/globe/brie/AboutUs/newsroom/common/default-8/default-corporate-2-thumbnail-listing.jpg",
      "articleUrl": "https://www.globe.com.ph/about-us/newsroom/consumer/henares-on-evolving-role-of-internet.html",
      "columnType": "articles--type-3",
      "typeListing": "article",
      "imageMobile": "/sites/globe.com.ph/files/content/dam/globe/brie/AboutUs/newsroom/common/default-8/default-corporate-2-primary-thumbnail-m.jpg",
      "imageDesktop": "/sites/globe.com.ph/files/content/dam/globe/brie/AboutUs/newsroom/common/default-8/default-corporate-2-primary-thumbnail-d.jpg",
      "description": "Globe Studios Head and Executive Quark Henares shared insights in part two of PURVEYR’s Perspectives, discussing the Internet. Visit Globe Newsroom for more.",
      "datePosted": "May 28, 2020 | 10:40 AM",
      "titleFromTag": "Consumer"
    },
    {
      "title": "Globe Continues Support for Frontliners and SMEs in New Rollouts of Project HEROES for HEROES",
      "nonclickable": false,
      "openNewTab": false,
      "borderArticle": "border-color:#0074D9;",
      "borderTopArticle": "border-top-color:#0074D9;",
      "imageListing": "/sites/globe.com.ph/files/content/dam/globe/brie/AboutUs/newsroom/business/globe-continues-heroes-for-heroes/newsroom-support-frontliners-sme-thumbnail-listing.jpg",
      "articleUrl": "https://www.globe.com.ph/about-us/newsroom/business/globe-continues-heroes-for-heroes.html",
      "columnType": "articles--type-3",
      "typeListing": "article",
      "imageMobile": "/sites/globe.com.ph/files/content/dam/globe/brie/AboutUs/newsroom/business/globe-continues-heroes-for-heroes/newsroom-support-frontliners-sme-primary-thumbnail-m.jpg",
      "imageDesktop": "/sites/globe.com.ph/files/content/dam/globe/brie/AboutUs/newsroom/business/globe-continues-heroes-for-heroes/newsroom-support-frontliners-sme-primary-thumbnail-d.jpg",
      "description": "HEROES for HEROES aims to aid healthcare frontliners through the distribution of free meal packages produced by partner food SMEs to select partner hospitals.",
      "datePosted": "May 27, 2020 | 10:23 AM",
      "titleFromTag": "Business"
    },
    {
      "title": "Level Up Your Digital Diskarte with a Bigger Globe At Home Prepaid WiFi HomeSURF199",
      "nonclickable": false,
      "openNewTab": false,
      "borderArticle": "border-color:#0074D9;",
      "borderTopArticle": "border-top-color:#0074D9;",
      "imageListing": "/sites/globe.com.ph/files/content/dam/globe/brie/AboutUs/newsroom/consumer/globe-at-home-bigger-homesurf199/newsroom-digital-diskarte-homesurf199-thumbnail-listing.jpg",
      "articleUrl": "https://www.globe.com.ph/about-us/newsroom/consumer/globe-at-home-bigger-homesurf199.html",
      "columnType": "articles--type-3",
      "typeListing": "article",
      "imageMobile": "/sites/globe.com.ph/files/content/dam/globe/brie/AboutUs/newsroom/consumer/globe-at-home-bigger-homesurf199/newsroom-digital-diskarte-homesurf199-primary-thumbnail-m.jpg",
      "imageDesktop": "/sites/globe.com.ph/files/content/dam/globe/brie/AboutUs/newsroom/consumer/globe-at-home-bigger-homesurf199/newsroom-digital-diskarte-homesurf199-primary-thumbnail-d.jpg",
      "description": "With a better and bigger HomeSURF199, customers can now access up to 30 GB of data, which includes FREE 1 GB daily access. Visit Globe Newsroom for more.",
      "datePosted": "May 27, 2020 | 09:52 AM",
      "titleFromTag": "Consumer"
    },
    {
      "title": "Globe Cellsite Builds Bring Jobs, Good Employment Benefits",
      "nonclickable": false,
      "openNewTab": false,
      "borderArticle": "border-color:#0074D9;",
      "borderTopArticle": "border-top-color:#0074D9;",
      "imageListing": "/sites/globe.com.ph/files/content/dam/globe/brie/AboutUs/newsroom/corporate/keeping-network-running/newsroom-corporate-thumbnail-listing.jpg",
      "articleUrl": "https://www.globe.com.ph/about-us/newsroom/corporate/globe-cellsite-builds-bring-jobs.html",
      "columnType": "articles--type-3",
      "typeListing": "article",
      "imageMobile": "/sites/globe.com.ph/files/content/dam/globe/brie/AboutUs/newsroom/corporate/keeping-network-running/newsroom-corporate-primary-thumbnail-m.jpg",
      "imageDesktop": "/sites/globe.com.ph/files/content/dam/globe/brie/AboutUs/newsroom/corporate/keeping-network-running/newsroom-corporate-primary-thumbnail-d.jpg",
      "description": "Keeping people connected requires a reliable network with capacity and coverage, and this is brings in more job opportunities. Visit Globe Newsroom for more.",
      "datePosted": "May 27, 2020 | 09:49 AM",
      "titleFromTag": "Corporate"
    },
    {
      "title": "Kalingang QC Beneficiaries May Opt for GCash for Disbursement Method",
      "nonclickable": false,
      "openNewTab": false,
      "borderArticle": "border-color:#0074D9;",
      "borderTopArticle": "border-top-color:#0074D9;",
      "imageListing": "/sites/globe.com.ph/files/content/dam/globe/brie/AboutUs/newsroom/partners/makati-disburse-financial-assistance-via-gcash/thumbnail-listing.png",
      "articleUrl": "https://www.globe.com.ph/about-us/newsroom/partners/kalinga-qc-opt-gcash.html",
      "columnType": "articles--type-3",
      "typeListing": "article",
      "imageMobile": "/sites/globe.com.ph/files/content/dam/globe/brie/AboutUs/newsroom/partners/makati-disburse-financial-assistance-via-gcash/primary-thumbnail-m.png",
      "imageDesktop": "/sites/globe.com.ph/files/content/dam/globe/brie/AboutUs/newsroom/partners/makati-disburse-financial-assistance-via-gcash/primary-thumbnail-d.png",
      "description": "Quezon City residents may opt to receive their supplemental financial assistance from the local government's Kalingang QC Program through GCash.",
      "datePosted": "May 26, 2020 | 11:40 AM",
      "titleFromTag": "Partners"
    }
  ]
}
