{
  "status": 200,
  "page": 181,
  "totalPage": 298,
  "range": "2161-2172",
  "total": 3573,
  "result": [
    {
      "title": "Globe E-skwela to Tackle Online Learning Tools in New Normal",
      "nonclickable": false,
      "openNewTab": false,
      "borderArticle": "border-color:#0074D9;",
      "borderTopArticle": "border-top-color:#0074D9;",
      "imageListing": "/sites/globe.com.ph/files/content/dam/globe/brie/AboutUs/newsroom/common/default-7/default-default-3-thumbnail-listing.jpg",
      "articleUrl": "https://www.globe.com.ph/about-us/newsroom/business/globe-eskwela-online-tools-new-normal.html",
      "columnType": "articles--type-3",
      "typeListing": "article",
      "imageMobile": "/sites/globe.com.ph/files/content/dam/globe/brie/AboutUs/newsroom/common/default-7/default-default-3-primary-thumbnail-m.jpg",
      "imageDesktop": "/sites/globe.com.ph/files/content/dam/globe/brie/AboutUs/newsroom/common/default-7/default-default-3-primary-thumbnail-d.jpg",
      "description": "Globe myBusiness held an E-skwela Online Learning Session to discuss the use of instructional tools for online learning and how these improve learning delivery.",
      "datePosted": "May 26, 2020 | 09:00 AM",
      "titleFromTag": "Business"
    },
    {
      "title": "Globe Pushes for Digital Empowerment in Customer Care",
      "nonclickable": false,
      "openNewTab": false,
      "borderArticle": "border-color:#0074D9;",
      "borderTopArticle": "border-top-color:#0074D9;",
      "imageListing": "/sites/globe.com.ph/files/content/dam/globe/brie/AboutUs/newsroom/common/default-6/corporate-default-8-thumbnail-listing.jpg",
      "articleUrl": "https://www.globe.com.ph/about-us/newsroom/corporate/globe-pushes-digital-empowerment-customer-care.html",
      "columnType": "articles--type-3",
      "typeListing": "article",
      "imageMobile": "/sites/globe.com.ph/files/content/dam/globe/brie/AboutUs/newsroom/common/default-6/corporate-default-8-primary-thumbnail-m.jpg",
      "imageDesktop": "/sites/globe.com.ph/files/content/dam/globe/brie/AboutUs/newsroom/common/default-6/corporate-default-8-primary-thumbnail-d.jpg",
      "description": "The company's digitalization efforts have proven their value in being able to serve its customers amidst the crisis.",
      "datePosted": "May 25, 2020 | 12:05 PM",
      "titleFromTag": "Corporate"
    },
    {
      "title": "Connectivity During COVID-19 is Crucial, GCash CEO Says",
      "nonclickable": false,
      "openNewTab": false,
      "borderArticle": "border-color:#0074D9;",
      "borderTopArticle": "border-top-color:#0074D9;",
      "imageListing": "/sites/globe.com.ph/files/content/dam/globe/brie/AboutUs/newsroom/common/default-4/default-consumer-3-thumbnail-listing.jpg",
      "articleUrl": "https://www.globe.com.ph/about-us/newsroom/917ventures/connectivity-covid-19-crucial-gcash-ceo.html",
      "columnType": "articles--type-3",
      "typeListing": "article",
      "imageMobile": "/sites/globe.com.ph/files/content/dam/globe/brie/AboutUs/newsroom/common/default-4/default-consumer-3-primary-thumbnail-m.jpg",
      "imageDesktop": "/sites/globe.com.ph/files/content/dam/globe/brie/AboutUs/newsroom/common/default-4/default-consumer-3-primary-thumbnail-d.jpg",
      "description": "The pandemic has changed virtually everything—especially the way people work. ",
      "datePosted": "May 23, 2020 | 01:01 PM",
      "titleFromTag": "917Ventures"
    },
    {
      "title": "GCash and Lazada Enable Makatizens to do More Online Groceries",
      "nonclickable": false,
      "openNewTab": false,
      "borderArticle": "border-color:#0074D9;",
      "borderTopArticle": "border-top-color:#0074D9;",
      "imageListing": "/sites/globe.com.ph/files/content/dam/globe/brie/AboutUs/newsroom/917ventures/gcash-lazada-makatizens-online-groceries/newsroom-917ventures-gcash-lazada-makatizens-thumbnail-listing.jpg",
      "articleUrl": "https://www.globe.com.ph/about-us/newsroom/917ventures/gcash-lazada-makatizens-online-groceries.html",
      "columnType": "articles--type-3",
      "typeListing": "article",
      "imageMobile": "/sites/globe.com.ph/files/content/dam/globe/brie/AboutUs/newsroom/917ventures/gcash-lazada-makatizens-online-groceries/newsroom-917ventures-gcash-lazada-makatizens-primary-thumbnail-m.jpg",
      "imageDesktop": "/sites/globe.com.ph/files/content/dam/globe/brie/AboutUs/newsroom/917ventures/gcash-lazada-makatizens-online-groceries/newsroom-917ventures-gcash-lazada-makatizens-primary-thumbnail-d.jpg",
      "description": "GCash also gives Makatizens another reason to shop for their grocery needs online. ",
      "datePosted": "May 22, 2020 | 05:35 PM",
      "titleFromTag": "917Ventures"
    },
    {
      "title": "KonsultaMD Releases Video App for 24/7 Medical Consultation",
      "nonclickable": false,
      "openNewTab": false,
      "borderArticle": "border-color:#0074D9;",
      "borderTopArticle": "border-top-color:#0074D9;",
      "imageListing": "/sites/globe.com.ph/files/content/dam/globe/brie/business/enterprise/Blog/Make-Your-Hospital-More-Efficient-with-Healthcare-Data-Storage-in-the-Cloud/oct-24-updates/EG-hospital-cloud-Blog-thumbnail-listing.jpg",
      "articleUrl": "https://www.globe.com.ph/about-us/newsroom/partners/konsultamd-video-app-medical-consultation.html",
      "columnType": "articles--type-3",
      "typeListing": "article",
      "imageMobile": "/sites/globe.com.ph/files/content/dam/globe/brie/business/enterprise/Blog/Make-Your-Hospital-More-Efficient-with-Healthcare-Data-Storage-in-the-Cloud/oct-24-updates/eg-hospital-cloud-blog-m.jpg",
      "imageDesktop": "/sites/globe.com.ph/files/content/dam/globe/brie/business/enterprise/Blog/Make-Your-Hospital-More-Efficient-with-Healthcare-Data-Storage-in-the-Cloud/oct-24-updates/EG-hospital-cloud-Blog-primary-thumbnail.jpg",
      "description": "KonsultaMD released an app for customers to engage in a teleconsultation with a licensed doctor anytime via voice or video. Visit Globe Newsroom for more.",
      "datePosted": "May 22, 2020 | 11:23 AM",
      "titleFromTag": "Partners"
    },
    {
      "title": "Globe Empowers Mompreneurs Facing Challenges Brought by COVID-19 Crisis",
      "nonclickable": false,
      "openNewTab": false,
      "borderArticle": "border-color:#0074D9;",
      "borderTopArticle": "border-top-color:#0074D9;",
      "imageListing": "/sites/globe.com.ph/files/content/dam/globe/brie/AboutUs/newsroom/business/mompreneurs-facing-challenges-covid-19-crisis/business-4-important-tips-to-make-thumbnail-listing.jpg",
      "articleUrl": "https://www.globe.com.ph/about-us/newsroom/business/globe-empowers-mompreneurs-covid-19.html",
      "columnType": "articles--type-3",
      "typeListing": "article",
      "imageMobile": "/sites/globe.com.ph/files/content/dam/globe/brie/AboutUs/newsroom/business/mompreneurs-facing-challenges-covid-19-crisis/business-4-important-tips-to-make-primary-thumbnail-m.jpg",
      "imageDesktop": "/sites/globe.com.ph/files/content/dam/globe/brie/AboutUs/newsroom/business/mompreneurs-facing-challenges-covid-19-crisis/business-4-important-tips-to-make-primary-thumbnail-d.jpg",
      "description": "Globe myBusiness showed its support for hardworking moms with a special Mother's Day webinar held last May 8.",
      "datePosted": "May 22, 2020 | 10:51 AM",
      "titleFromTag": "Business"
    },
    {
      "title": "Globe Harnesses Digital Technologies as PH Adjusts to New Normal",
      "nonclickable": false,
      "openNewTab": false,
      "borderArticle": "border-color:#0074D9;",
      "borderTopArticle": "border-top-color:#0074D9;",
      "imageListing": "/sites/globe.com.ph/files/content/dam/globe/brie/AboutUs/newsroom/common/default-2/default-business-2-thumbnail-listing.jpg",
      "articleUrl": "https://www.globe.com.ph/about-us/newsroom/corporate/globe-harnesses-digital-tech.html",
      "columnType": "articles--type-3",
      "typeListing": "article",
      "imageMobile": "/sites/globe.com.ph/files/content/dam/globe/brie/AboutUs/newsroom/common/default-2/default-business-2-primary-thumbnail-m.jpg",
      "imageDesktop": "/sites/globe.com.ph/files/content/dam/globe/brie/AboutUs/newsroom/common/default-2/default-business-2-primary-thumbnail-d.jpg",
      "description": "Globe Telecom is all set to harness digitalization to enhance operational efficiency and customer experience as the Philippines transitions to the new normal.",
      "datePosted": "May 22, 2020 | 09:57 AM",
      "titleFromTag": "Corporate"
    },
    {
      "title": "Globe Starts Weekly Rapid Antibody Testing of Frontline Employees",
      "nonclickable": false,
      "openNewTab": false,
      "borderArticle": "border-color:#0074D9;",
      "borderTopArticle": "border-top-color:#0074D9;",
      "imageListing": "/sites/globe.com.ph/files/content/dam/globe/brie/AboutUs/newsroom/corporate/globe-rapid-antibody-testing-employees/rapid-testing-newsroom-template-thumbnail-listing.jpg",
      "articleUrl": "https://www.globe.com.ph/about-us/newsroom/corporate/globe-rapid-antibody-testing-employees.html",
      "columnType": "articles--type-3",
      "typeListing": "article",
      "imageMobile": "/sites/globe.com.ph/files/content/dam/globe/brie/AboutUs/newsroom/corporate/globe-rapid-antibody-testing-employees/rapid-testing-newsroom-template-primary-thumbnail-m.jpg",
      "imageDesktop": "/sites/globe.com.ph/files/content/dam/globe/brie/AboutUs/newsroom/corporate/globe-rapid-antibody-testing-employees/rapid-testing-newsroom-template-primary-thumbnail-d.jpg",
      "description": "Globe Telecom has started the weekly rapid antibody testing of its frontliners to ensure that they are protected from COVID-19 spread and infection.",
      "datePosted": "May 21, 2020 | 09:29 AM",
      "titleFromTag": "Corporate"
    },
    {
      "title": "More Cashless Pinoys: GCash is Top Finance App for Android, iOS",
      "nonclickable": false,
      "openNewTab": false,
      "borderArticle": "border-color:#0074D9;",
      "borderTopArticle": "border-top-color:#0074D9;",
      "imageListing": "/sites/globe.com.ph/files/content/dam/globe/brie/AboutUs/newsroom/partners/gcash-leverage-digital-tech-reduce-risk-viral-transmission/newsroom-template-thumbnail-listing.jpg",
      "articleUrl": "https://www.globe.com.ph/about-us/newsroom/partners/gcash-top-finance-app-android-ios.html",
      "columnType": "articles--type-3",
      "typeListing": "article",
      "imageMobile": "/sites/globe.com.ph/files/content/dam/globe/brie/AboutUs/newsroom/partners/gcash-leverage-digital-tech-reduce-risk-viral-transmission/newsroom-template-primary-thumbnail-m.jpg",
      "imageDesktop": "/sites/globe.com.ph/files/content/dam/globe/brie/AboutUs/newsroom/partners/gcash-leverage-digital-tech-reduce-risk-viral-transmission/newsroom-template-primary-thumbnail-d.jpg",
      "description": "GCash emerges as the top finance app for Android and iOS devices, reflecting the growing reliance of Filipinos on digital finance for managing their finances.",
      "datePosted": "May 20, 2020 | 10:27 AM",
      "titleFromTag": "Partners"
    },
    {
      "title": "GCash Helps Extend Budgets During COVID-19 Emergency with GCredit",
      "nonclickable": false,
      "openNewTab": false,
      "borderArticle": "border-color:#0074D9;",
      "borderTopArticle": "border-top-color:#0074D9;",
      "imageListing": "/sites/globe.com.ph/files/content/dam/globe/brie/AboutUs/newsroom/917ventures/gcash-covid-19-emergency-gcredit/newsroom-917ventures-gcash-emergency-gcredit-thumbnail-listing.jpg",
      "articleUrl": "https://www.globe.com.ph/about-us/newsroom/917ventures/gcash-covid-19-emergency-gcredit.html",
      "columnType": "articles--type-3",
      "typeListing": "article",
      "imageMobile": "/sites/globe.com.ph/files/content/dam/globe/brie/AboutUs/newsroom/917ventures/gcash-covid-19-emergency-gcredit/newsroom-917ventures-gcash-emergency-gcredit-primary-thumbnail-m.jpg",
      "imageDesktop": "/sites/globe.com.ph/files/content/dam/globe/brie/AboutUs/newsroom/917ventures/gcash-covid-19-emergency-gcredit/newsroom-917ventures-gcash-emergency-gcredit-primary-thumbnail-d.jpg",
      "description": "GCredit is a revolving credit facility that can be tapped when a GCash user has a healthy GScore, the first trust score in the country. ",
      "datePosted": "May 20, 2020 | 10:14 AM",
      "titleFromTag": "917Ventures"
    },
    {
      "title": "Globe Partners with Philippine Red Cross to Support Rapid COVID-19 Response App",
      "nonclickable": false,
      "openNewTab": false,
      "borderArticle": "border-color:#0074D9;",
      "borderTopArticle": "border-top-color:#0074D9;",
      "imageListing": "/sites/globe.com.ph/files/content/dam/globe/brie/AboutUs/newsroom/partners/globe-philippine-red-cross-covid-19-response-app/newsroom-template-Corporate-thumbnail-listing.jpg",
      "articleUrl": "https://www.globe.com.ph/about-us/newsroom/partners/rapid-covid-19-response-app.html",
      "columnType": "articles--type-3",
      "typeListing": "article",
      "imageMobile": "/sites/globe.com.ph/files/content/dam/globe/brie/AboutUs/newsroom/partners/globe-philippine-red-cross-covid-19-response-app/updates/newsroom-template-Corporate-primary-thumbnail-m.jpg",
      "imageDesktop": "/sites/globe.com.ph/files/content/dam/globe/brie/AboutUs/newsroom/partners/globe-philippine-red-cross-covid-19-response-app/newsroom-template-Corporate-primary-thumbnail-d.jpg",
      "description": "Globe partners with the Philippines Red Cross to enable mobile services such as SMS alerts and app advisories to maximize RC143’s capabilities via Globe Labs",
      "datePosted": "May 19, 2020 | 10:13 AM",
      "titleFromTag": "Partners"
    },
    {
      "title": "Selected Globe Stores Reopen Beginning May 18",
      "nonclickable": false,
      "openNewTab": false,
      "borderArticle": "border-color:#0074D9;",
      "borderTopArticle": "border-top-color:#0074D9;",
      "imageListing": "/sites/globe.com.ph/files/content/dam/globe/brie/AboutUs/newsroom/common/default-4/default-consumer-3-thumbnail-listing.jpg",
      "articleUrl": "https://www.globe.com.ph/about-us/newsroom/consumer/select-globe-stores-reopen-may-18.html",
      "columnType": "articles--type-3",
      "typeListing": "article",
      "imageMobile": "/sites/globe.com.ph/files/content/dam/globe/brie/AboutUs/newsroom/common/default-4/default-consumer-3-primary-thumbnail-m.jpg",
      "imageDesktop": "/sites/globe.com.ph/files/content/dam/globe/brie/AboutUs/newsroom/common/default-4/default-consumer-3-primary-thumbnail-d.jpg",
      "description": "Globe Telecom is reopening select Stores with skeletal force teams beginning May 18 to serve the mobile and internet needs of its customers across the country.",
      "datePosted": "May 18, 2020 | 03:23 PM",
      "titleFromTag": "Consumer"
    }
  ]
}
