{
  "status": 200,
  "page": 182,
  "totalPage": 298,
  "range": "2173-2184",
  "total": 3573,
  "result": [
    {
      "title": "Globe myBusiness Rolls Out Second Phase of HEROES for HEROES Initiative in Connecting SMEs to Medical Frontliners",
      "nonclickable": false,
      "openNewTab": false,
      "borderArticle": "border-color:#0074D9;",
      "borderTopArticle": "border-top-color:#0074D9;",
      "imageListing": "/sites/globe.com.ph/files/content/dam/globe/brie/AboutUs/newsroom/business/globe-mybusiness-heroes-for-heroes-second-run/newsroom-template-Business-thumbnail-listing.jpg",
      "articleUrl": "https://www.globe.com.ph/about-us/newsroom/business/globe-mybusiness-heroes-for-heroes-second-run.html",
      "columnType": "articles--type-3",
      "typeListing": "article",
      "imageMobile": "/sites/globe.com.ph/files/content/dam/globe/brie/AboutUs/newsroom/business/globe-mybusiness-heroes-for-heroes-second-run/newsroom-template-Business-primary-thumbnail-m.jpg",
      "imageDesktop": "/sites/globe.com.ph/files/content/dam/globe/brie/AboutUs/newsroom/business/globe-mybusiness-heroes-for-heroes-second-run/newsroom-template-Business-primary-thumbnail-d.jpg",
      "description": "Globe myBusiness takes its part as key partner of mSMEs through a program that connects its food industry clients, whose heroes are their own frontliners who prepare meals for the heroes of the healthcare industry - the hospital frontliners. ",
      "datePosted": "May 18, 2020 | 01:27 PM",
      "titleFromTag": "Business"
    },
    {
      "title": "LRT2 Allows Globe to Build Capacity at Megatren During MECQ",
      "nonclickable": false,
      "openNewTab": false,
      "borderArticle": "border-color:#0074D9;",
      "borderTopArticle": "border-top-color:#0074D9;",
      "imageListing": "/sites/globe.com.ph/files/content/dam/globe/brie/AboutUs/newsroom/partners/lrt2-allows-globe-build-capacity-megatren/newsroom-template-Partners-thumbnail-listing.jpg",
      "articleUrl": "https://www.globe.com.ph/about-us/newsroom/partners/lrt2-allows-globe-build-capacity-megatren.html",
      "columnType": "articles--type-3",
      "typeListing": "article",
      "imageMobile": "/sites/globe.com.ph/files/content/dam/globe/brie/AboutUs/newsroom/partners/lrt2-allows-globe-build-capacity-megatren/newsroom-template-Partners-primary-thumbnail-m1.jpg",
      "imageDesktop": "/sites/globe.com.ph/files/content/dam/globe/brie/AboutUs/newsroom/partners/lrt2-allows-globe-build-capacity-megatren/newsroom-template-Partners-primary-thumbnail-d.jpg",
      "description": "The collaboration between  LRTA and Globe will allow the company to install several cell sites along the stretch of LRT2’s line from  Santolan Station in Quezon City  to Recto Station in Manila.",
      "datePosted": "May 18, 2020 | 11:27 AM",
      "titleFromTag": "Partners"
    },
    {
      "title": "Globe Offers up to 6 months Installment Payment for Postpaid Customers",
      "nonclickable": false,
      "openNewTab": false,
      "borderArticle": "border-color:#0074D9;",
      "borderTopArticle": "border-top-color:#0074D9;",
      "imageListing": "/sites/globe.com.ph/files/content/dam/globe/brie/AboutUs/newsroom/corporate/globe-postpaid-6-months-installment-payment/thumbnail-listing.png",
      "articleUrl": "https://www.globe.com.ph/about-us/newsroom/corporate/globe-postpaid-6-months-installment-payment.html",
      "columnType": "articles--type-3",
      "typeListing": "article",
      "imageMobile": "/sites/globe.com.ph/files/content/dam/globe/brie/AboutUs/newsroom/corporate/globe-postpaid-6-months-installment-payment/primary-thumbnail-m.png",
      "imageDesktop": "/sites/globe.com.ph/files/content/dam/globe/brie/AboutUs/newsroom/corporate/globe-postpaid-6-months-installment-payment/primary-thumbnail-d.png",
      "description": "All Globe Mobile Postpaid and Globe At Home customers, including business and enterprise customers, are eligible to avail of this program starting May 15, 2020. ",
      "datePosted": "May 15, 2020 | 10:34 AM",
      "titleFromTag": "Corporate"
    },
    {
      "title": "Globe Calls for Vigilance Against COVID-19-related Online Fraud",
      "nonclickable": false,
      "openNewTab": false,
      "borderArticle": "border-color:#0074D9;",
      "borderTopArticle": "border-top-color:#0074D9;",
      "imageListing": "/sites/globe.com.ph/files/content/dam/globe/brie/AboutUs/newsroom/corporate/vigilance-against-covid-19-related-fraud/thumbnail-listing.png",
      "articleUrl": "https://www.globe.com.ph/about-us/newsroom/corporate/vigilance-against-covid-19-related-fraud.html",
      "columnType": "articles--type-3",
      "typeListing": "article",
      "imageMobile": "/sites/globe.com.ph/files/content/dam/globe/brie/AboutUs/newsroom/corporate/vigilance-against-covid-19-related-fraud/primary-thumbnail-m.png",
      "imageDesktop": "/sites/globe.com.ph/files/content/dam/globe/brie/AboutUs/newsroom/corporate/vigilance-against-covid-19-related-fraud/primary-thumbnail-d.png",
      "description": "Globe Telecom cautions its customers to be extra vigilant and avoid becoming victims of online fraud, fake content, and cybersecurity attacks.",
      "datePosted": "May 15, 2020 | 09:28 AM",
      "titleFromTag": "Corporate"
    },
    {
      "title": "GCash Powers SAP Distribution for Drivers",
      "nonclickable": false,
      "openNewTab": false,
      "borderArticle": "border-color:#0074D9;",
      "borderTopArticle": "border-top-color:#0074D9;",
      "imageListing": "/sites/globe.com.ph/files/content/dam/globe/brie/AboutUs/newsroom/917ventures/gcash-sap-distribution-drivers/newsroom-917ventures-sap-distribution-drivers-thumbnail-listing.jpg",
      "articleUrl": "https://www.globe.com.ph/about-us/newsroom/917ventures/gcash-sap-distribution-drivers.html",
      "columnType": "articles--type-3",
      "typeListing": "article",
      "imageMobile": "/sites/globe.com.ph/files/content/dam/globe/brie/AboutUs/newsroom/917ventures/gcash-sap-distribution-drivers/newsroom-917ventures-sap-distribution-drivers-primary-thumbnail-m.jpg",
      "imageDesktop": "/sites/globe.com.ph/files/content/dam/globe/brie/AboutUs/newsroom/917ventures/gcash-sap-distribution-drivers/newsroom-917ventures-sap-distribution-drivers-primary-thumbnail-d.jpg",
      "description": "GCash will provide its secure and convenient contactless disbursement services at no cost to the government.",
      "datePosted": "May 14, 2020 | 05:11 PM",
      "titleFromTag": "917Ventures"
    },
    {
      "title": "Globe Launches Better Voice Call Experience with VoLTE & VoWiFi",
      "nonclickable": false,
      "openNewTab": false,
      "borderArticle": "border-color:#0074D9;",
      "borderTopArticle": "border-top-color:#0074D9;",
      "imageListing": "/sites/globe.com.ph/files/content/dam/globe/brie/AboutUs/newsroom/corporate/globe-launches-volte-vowifi/thumbnail-listing.png",
      "articleUrl": "https://www.globe.com.ph/about-us/newsroom/corporate/globe-launches-volte-vowifi.html",
      "columnType": "articles--type-3",
      "typeListing": "article",
      "imageMobile": "/sites/globe.com.ph/files/content/dam/globe/brie/AboutUs/newsroom/corporate/globe-launches-volte-vowifi/primary-thumbnail-m.png",
      "imageDesktop": "/sites/globe.com.ph/files/content/dam/globe/brie/AboutUs/newsroom/corporate/globe-launches-volte-vowifi/primary-thumbnail-d.png",
      "description": "Globe is launching its Voice Over LTE (VoLTE) service along with Voice Over WiFi (VoWiFi) that aims to improve voice call experience for its customers.",
      "datePosted": "May 13, 2020 | 03:30 PM",
      "titleFromTag": "Corporate"
    },
    {
      "title": "Globe Employees Volunteer as Customer Service Reps During Crisis",
      "nonclickable": false,
      "openNewTab": false,
      "borderArticle": "border-color:#0074D9;",
      "borderTopArticle": "border-top-color:#0074D9;",
      "imageListing": "/sites/globe.com.ph/files/content/dam/globe/brie/AboutUs/newsroom/corporate/globe-employees-volunteer-during-crisis/update/thumbnail-listing.png",
      "articleUrl": "https://www.globe.com.ph/about-us/newsroom/corporate/globe-employees-volunteer-during-crisis.html",
      "columnType": "articles--type-3",
      "typeListing": "article",
      "imageMobile": "/sites/globe.com.ph/files/content/dam/globe/brie/AboutUs/newsroom/corporate/globe-employees-volunteer-during-crisis/update/primary-thumbnail-m.png",
      "imageDesktop": "/sites/globe.com.ph/files/content/dam/globe/brie/AboutUs/newsroom/corporate/globe-employees-volunteer-during-crisis/update/primary-thumbnail-d.png",
      "description": "Globe put into action an employee volunteer program to  fill the void caused by the temporary shutdown of its outsourcing partners when the enhanced community quarantine took effect in Metro Manila last March 16.",
      "datePosted": "May 13, 2020 | 12:06 PM",
      "titleFromTag": "Corporate"
    },
    {
      "title": "GCash to Disburse Makati City’s P2.7B Financial Assistance to 500,000 Makatizens",
      "nonclickable": false,
      "openNewTab": false,
      "borderArticle": "border-color:#0074D9;",
      "borderTopArticle": "border-top-color:#0074D9;",
      "imageListing": "/sites/globe.com.ph/files/content/dam/globe/brie/AboutUs/newsroom/partners/makati-disburse-financial-assistance-via-gcash/thumbnail-listing.png",
      "articleUrl": "https://www.globe.com.ph/about-us/newsroom/partners/makati-disburse-financial-assistance-via-gcash.html",
      "columnType": "articles--type-3",
      "typeListing": "article",
      "imageMobile": "/sites/globe.com.ph/files/content/dam/globe/brie/AboutUs/newsroom/partners/makati-disburse-financial-assistance-via-gcash/primary-thumbnail-m.png",
      "imageDesktop": "/sites/globe.com.ph/files/content/dam/globe/brie/AboutUs/newsroom/partners/makati-disburse-financial-assistance-via-gcash/primary-thumbnail-d.png",
      "description": "Under its strengthened partnership with Makati City, GCash will be providing a digital disbursement facility for the expanded Makatizen Economic Relief Program.",
      "datePosted": "May 13, 2020 | 10:26 AM",
      "titleFromTag": "Partners"
    },
    {
      "title": "Having a Cellsite is One of the Best Decisions We Made – FEU-NRMF",
      "nonclickable": false,
      "openNewTab": false,
      "borderArticle": "border-color:#0074D9;",
      "borderTopArticle": "border-top-color:#0074D9;",
      "imageListing": "/sites/globe.com.ph/files/content/dam/globe/brie/AboutUs/newsroom/consumer/roaming-like-a-local/Newsroom-International-Default-Images-Solo-Travel-with-mobile-1-thumbnail-listing.jpg",
      "articleUrl": "https://www.globe.com.ph/about-us/newsroom/corporate/cellsite-best-decision-feu-nrmf.html",
      "columnType": "articles--type-3",
      "typeListing": "article",
      "imageMobile": "/sites/globe.com.ph/files/content/dam/globe/brie/AboutUs/newsroom/consumer/roaming-like-a-local/Newsroom-International-Default-Images-Solo-Travel-with-mobile-1-primary-thumbnail-m.jpg",
      "imageDesktop": "/sites/globe.com.ph/files/content/dam/globe/brie/AboutUs/newsroom/consumer/roaming-like-a-local/Newsroom-International-Default-Images-Solo-Travel-with-mobile-1-primary-thumbnail-d.jpg",
      "description": "Nino Reyes stresses the cell site's role in providing connectivity and implementing patient-centric health protocols for frontliners, patients, and loved ones.",
      "datePosted": "May 12, 2020 | 02:02 PM",
      "titleFromTag": "Corporate"
    },
    {
      "title": "Globe Partners with DOST to Improve COVID-19 Reporting and Tracing via TanodCOVID",
      "nonclickable": false,
      "openNewTab": false,
      "borderArticle": "border-color:#0074D9;",
      "borderTopArticle": "border-top-color:#0074D9;",
      "imageListing": "/sites/globe.com.ph/files/content/dam/globe/brie/AboutUs/newsroom/partners/globe-dost-improve-covid-19-reporting-tracing-via-tanodcovid/update/thumbnail-listing.png",
      "articleUrl": "https://www.globe.com.ph/about-us/newsroom/partners/globe-dost-improve-covid-19-reporting-tracing-via-tanodcovid.html",
      "columnType": "articles--type-3",
      "typeListing": "article",
      "imageMobile": "/sites/globe.com.ph/files/content/dam/globe/brie/AboutUs/newsroom/partners/globe-dost-improve-covid-19-reporting-tracing-via-tanodcovid/update/primary-thumbnail-m.png",
      "imageDesktop": "/sites/globe.com.ph/files/content/dam/globe/brie/AboutUs/newsroom/partners/globe-dost-improve-covid-19-reporting-tracing-via-tanodcovid/update/primary-thumbnail-d.png",
      "description": "An SMS-based self-reporting platform, TanodCOVID aims to improve the country’s capacity to trace suspected COVID-19 cases. ",
      "datePosted": "May 11, 2020 | 10:44 AM",
      "titleFromTag": "Partners"
    },
    {
      "title": "No Service Fees on Globe/TM Load and Promo Loans Extended Until May 28",
      "nonclickable": false,
      "openNewTab": false,
      "borderArticle": "border-color:#0074D9;",
      "borderTopArticle": "border-top-color:#0074D9;",
      "imageListing": "/sites/globe.com.ph/files/content/dam/globe/brie/AboutUs/newsroom/consumer/globe-tm-extend-waived-service-fees-may-28/thumbnail-listing.png",
      "articleUrl": "https://www.globe.com.ph/about-us/newsroom/consumer/globe-tm-extend-waived-service-fees-may-28.html",
      "columnType": "articles--type-3",
      "typeListing": "article",
      "imageMobile": "/sites/globe.com.ph/files/content/dam/globe/brie/AboutUs/newsroom/consumer/globe-tm-extend-waived-service-fees-may-28/primary-thumbnail-m.png",
      "imageDesktop": "/sites/globe.com.ph/files/content/dam/globe/brie/AboutUs/newsroom/consumer/globe-tm-extend-waived-service-fees-may-28/primary-thumbnail-d.png",
      "description": "To help Mobile Prepaid TM customers #SafeAtHome, Globe extended its waived service fees for its Globe load and promo loans until May 28, 2020.",
      "datePosted": "May 08, 2020 | 04:52 PM",
      "titleFromTag": "Consumer"
    },
    {
      "title": "COVID-19 Accelerates Digital Adoption in PH",
      "nonclickable": false,
      "openNewTab": false,
      "borderArticle": "border-color:#0074D9;",
      "borderTopArticle": "border-top-color:#0074D9;",
      "imageListing": "/sites/globe.com.ph/files/content/dam/globe/brie/AboutUs/newsroom/corporate/covid-19-accelerates-ph-digital-adoption/thumbnail-listing.png",
      "articleUrl": "https://www.globe.com.ph/about-us/newsroom/corporate/covid-19-accelerates-ph-digital-adoption.html",
      "columnType": "articles--type-3",
      "typeListing": "article",
      "imageMobile": "/sites/globe.com.ph/files/content/dam/globe/brie/AboutUs/newsroom/corporate/covid-19-accelerates-ph-digital-adoption/primary-thumbnail-m.png",
      "imageDesktop": "/sites/globe.com.ph/files/content/dam/globe/brie/AboutUs/newsroom/corporate/covid-19-accelerates-ph-digital-adoption/primary-thumbnail-d.png",
      "description": "Filipinos have looked towards technology to bridge the gap between how things were versus what they are now during COVID-19. Visit Globe Newsroom for more.",
      "datePosted": "May 08, 2020 | 11:11 AM",
      "titleFromTag": "Corporate"
    }
  ]
}
