{
  "status": 200,
  "page": 183,
  "totalPage": 298,
  "range": "2185-2196",
  "total": 3573,
  "result": [
    {
      "title": "Globe, DepEd to Tackle “New Normal” in High Education Learning",
      "nonclickable": false,
      "openNewTab": false,
      "borderArticle": "border-color:#0074D9;",
      "borderTopArticle": "border-top-color:#0074D9;",
      "imageListing": "/sites/globe.com.ph/files/content/dam/globe/brie/AboutUs/newsroom/business/globe-deped-tackle-new-normal/updates/thumbnail-listing.png",
      "articleUrl": "https://www.globe.com.ph/about-us/newsroom/business/globe-deped-tackle-new-normal.html",
      "columnType": "articles--type-3",
      "typeListing": "article",
      "imageMobile": "/sites/globe.com.ph/files/content/dam/globe/brie/AboutUs/newsroom/business/globe-deped-tackle-new-normal/updates/primary-thumbnail-m.png",
      "imageDesktop": "/sites/globe.com.ph/files/content/dam/globe/brie/AboutUs/newsroom/business/globe-deped-tackle-new-normal/updates/primary-thumbnail-d.png",
      "description": "Globe myBusiness and DepEd hosted the third part of the E-skwela webinar series to discuss higher education's current state in the Philippines last May 8, 2020.",
      "datePosted": "May 07, 2020 | 02:32 PM",
      "titleFromTag": "Business"
    },
    {
      "title": "Globe Urges LGUs to Rethink Permitting to Improve Connectivity",
      "nonclickable": false,
      "openNewTab": false,
      "borderArticle": "border-color:#0074D9;",
      "borderTopArticle": "border-top-color:#0074D9;",
      "imageListing": "/sites/globe.com.ph/files/content/dam/globe/brie/AboutUs/newsroom/corporate/globe-urges-lgus-rethink-permitting/thumbnail-listing.png",
      "articleUrl": "https://www.globe.com.ph/about-us/newsroom/corporate/globe-urges-lgus-rethink-permitting.html",
      "columnType": "articles--type-3",
      "typeListing": "article",
      "imageMobile": "/sites/globe.com.ph/files/content/dam/globe/brie/AboutUs/newsroom/corporate/globe-urges-lgus-rethink-permitting/primary-thumbnail-m.png",
      "imageDesktop": "/sites/globe.com.ph/files/content/dam/globe/brie/AboutUs/newsroom/corporate/globe-urges-lgus-rethink-permitting/primary-thumbnail-d.png",
      "description": "The idea of the \"new normal\" is posing another challenge to LGUs with their comprehension of the rollout of telecom and internet services in their areas.",
      "datePosted": "May 07, 2020 | 01:05 PM",
      "titleFromTag": "Corporate"
    },
    {
      "title": "QualiMed Partners with KonsultaMD and BizBox for Telemedicine Service",
      "nonclickable": false,
      "openNewTab": false,
      "borderArticle": "border-color:#0074D9;",
      "borderTopArticle": "border-top-color:#0074D9;",
      "imageListing": "/sites/globe.com.ph/files/content/dam/globe/brie/AboutUs/newsroom/partners/qualimed-konsultamd-bizbox-telemedicine/thumbnail-listing.png",
      "articleUrl": "https://www.globe.com.ph/about-us/newsroom/partners/qualimed-konsultamd-bizbox-telemedicine.html",
      "columnType": "articles--type-3",
      "typeListing": "article",
      "imageMobile": "/sites/globe.com.ph/files/content/dam/globe/brie/AboutUs/newsroom/partners/qualimed-konsultamd-bizbox-telemedicine/primary-thumbnail-m.png",
      "imageDesktop": "/sites/globe.com.ph/files/content/dam/globe/brie/AboutUs/newsroom/partners/qualimed-konsultamd-bizbox-telemedicine/primary-thumbnail-d.png",
      "description": "QualiMed Health Network launched TeleCheQ, its telemedicine service in partnership with KonsultaMD (for technology interface) and BizBox (for e-health records).",
      "datePosted": "May 07, 2020 | 10:44 AM",
      "titleFromTag": "Partners"
    },
    {
      "title": "COVID-19 Pandemic Makes Filipinos Mindful of Personal Finances",
      "nonclickable": false,
      "openNewTab": false,
      "borderArticle": "border-color:#0074D9;",
      "borderTopArticle": "border-top-color:#0074D9;",
      "imageListing": "/sites/globe.com.ph/files/content/dam/globe/brie/AboutUs/newsroom/citizenship/covid-19-makes-filipinos-mindful-finances/thumbnail-listing.png",
      "articleUrl": "https://www.globe.com.ph/about-us/newsroom/citizenship/covid-19-makes-filipinos-mindful-finances.html",
      "columnType": "articles--type-3",
      "typeListing": "article",
      "imageMobile": "/sites/globe.com.ph/files/content/dam/globe/brie/AboutUs/newsroom/citizenship/covid-19-makes-filipinos-mindful-finances/primary-thumbnail-m.png",
      "imageDesktop": "/sites/globe.com.ph/files/content/dam/globe/brie/AboutUs/newsroom/citizenship/covid-19-makes-filipinos-mindful-finances/primary-thumbnail-d.png",
      "description": "A white paper released by AdSpark, Inc. showed that consumption of Personal Finances as a topic grew by 800% from January 2020 to the end of March 2020.",
      "datePosted": "May 07, 2020 | 10:41 AM",
      "titleFromTag": "Citizenship"
    },
    {
      "title": "Globe myBusiness to Hold Special Webinar for Mompreneurs in Time for Mother’s Day",
      "nonclickable": false,
      "openNewTab": false,
      "borderArticle": "border-color:#0074D9;",
      "borderTopArticle": "border-top-color:#0074D9;",
      "imageListing": "/sites/globe.com.ph/files/content/dam/globe/brie/AboutUs/newsroom/business/globe-mybusiness-mompreneurs-webinar/thumbnail-listing.png",
      "articleUrl": "https://www.globe.com.ph/about-us/newsroom/business/globe-mybusiness-mompreneurs-webinar.html",
      "columnType": "articles--type-3",
      "typeListing": "article",
      "imageMobile": "/sites/globe.com.ph/files/content/dam/globe/brie/AboutUs/newsroom/business/globe-mybusiness-mompreneurs-webinar/primary-thumbnail-m.png",
      "imageDesktop": "/sites/globe.com.ph/files/content/dam/globe/brie/AboutUs/newsroom/business/globe-mybusiness-mompreneurs-webinar/primary-thumbnail-d.png",
      "description": "Globe myBusiness is harnessing the power of technology for mompreneurs with Invite Calm, a free and interactive webinar in time for the upcoming Mother’s Day. ",
      "datePosted": "May 06, 2020 | 02:12 PM",
      "titleFromTag": "Business"
    },
    {
      "title": "0917 Launches ‘Creative Xchange’ Online Learning Series",
      "nonclickable": false,
      "openNewTab": false,
      "borderArticle": "border-color:#0074D9;",
      "borderTopArticle": "border-top-color:#0074D9;",
      "imageListing": "/sites/globe.com.ph/files/content/dam/globe/brie/AboutUs/newsroom/consumer/0917-creative-xchange-online-learning-series/v2/thumbnail-listing.jpg",
      "articleUrl": "https://www.globe.com.ph/about-us/newsroom/consumer/0917-creative-xchange-online-learning-series.html",
      "columnType": "articles--type-3",
      "typeListing": "article",
      "imageMobile": "/sites/globe.com.ph/files/content/dam/globe/brie/AboutUs/newsroom/consumer/0917-creative-xchange-online-learning-series/v2/primary-thumbnail-m.jpg",
      "imageDesktop": "/sites/globe.com.ph/files/content/dam/globe/brie/AboutUs/newsroom/consumer/0917-creative-xchange-online-learning-series/v2/primary-thumbnail-d.jpg",
      "description": "0917 in partnership with Globe Studios and Wonder, is launching Creative Xchange—a series of online classes and talks that viewers can stream from their homes.",
      "datePosted": "May 04, 2020 | 01:38 PM",
      "titleFromTag": "Consumer"
    },
    {
      "title": "Globe Extends Free Unlimited WiFi to More LGUs and Hospitals Nationwide",
      "nonclickable": false,
      "openNewTab": false,
      "borderArticle": "border-color:#0074D9;",
      "borderTopArticle": "border-top-color:#0074D9;",
      "imageListing": "/sites/globe.com.ph/files/content/dam/globe/brie/AboutUs/newsroom/corporate/free-unli-wifi-extended-quarantine-areas/thumbnail-listing.png",
      "articleUrl": "https://www.globe.com.ph/about-us/newsroom/corporate/free-unli-wifi-extended-quarantine-areas.html",
      "columnType": "articles--type-3",
      "typeListing": "article",
      "imageMobile": "/sites/globe.com.ph/files/content/dam/globe/brie/AboutUs/newsroom/corporate/free-unli-wifi-extended-quarantine-areas/primary-thumbnail-m.png",
      "imageDesktop": "/sites/globe.com.ph/files/content/dam/globe/brie/AboutUs/newsroom/corporate/free-unli-wifi-extended-quarantine-areas/primary-thumbnail-d.png",
      "description": "With the extension of the ECQ in Metro Manila and other high-risk provinces to May 15, Globe is extending its free unlimited internet via GoWiFi for the benefit of medical frontliners and patients.",
      "datePosted": "May 04, 2020 | 08:22 AM",
      "titleFromTag": "Corporate"
    },
    {
      "title": "Globe Taps Stakeholders to Create Sustainable Future for PH",
      "nonclickable": false,
      "openNewTab": false,
      "borderArticle": "border-color:#1C91C5;",
      "borderTopArticle": "border-top-color:#1C91C5;",
      "imageListing": "/sites/globe.com.ph/files/content/dam/globe/brie/AboutUs/newsroom/common/default-sustainability-1/default-sustainability-2-thumbnail-listing.jpg",
      "articleUrl": "https://www.globe.com.ph/about-us/newsroom/sustainability/globe-taps-stakeholders-sustainable-future.html",
      "columnType": "articles--type-3",
      "typeListing": "article",
      "imageMobile": "/sites/globe.com.ph/files/content/dam/globe/brie/AboutUs/newsroom/common/default-sustainability-1/default-sustainability-2-primary-thumbnail-m.jpg",
      "imageDesktop": "/sites/globe.com.ph/files/content/dam/globe/brie/AboutUs/newsroom/common/default-sustainability-1/default-sustainability-2-primary-thumbnail-d.jpg",
      "description": "The company envisions the facilitation of individual customers and industries as a whole through digitization and connectivity to reduce carbon footprint.",
      "datePosted": "May 04, 2020 | 08:21 AM",
      "titleFromTag": "Sustainability"
    },
    {
      "title": "GCash Adopts Alipay’s Risk Technology to Bolster Security",
      "nonclickable": false,
      "openNewTab": false,
      "borderArticle": "border-color:#0074D9;",
      "borderTopArticle": "border-top-color:#0074D9;",
      "imageListing": "/sites/globe.com.ph/files/content/dam/globe/brie/AboutUs/newsroom/917ventures/gcash-adopts-alipay-risk-technology/newsroom-917ventures-gcash-adopts-alipay-thumbnail-listing.jpg",
      "articleUrl": "https://www.globe.com.ph/about-us/newsroom/917ventures/gcash-adopts-alipay-risk-technology.html",
      "columnType": "articles--type-3",
      "typeListing": "article",
      "imageMobile": "/sites/globe.com.ph/files/content/dam/globe/brie/AboutUs/newsroom/917ventures/gcash-adopts-alipay-risk-technology/newsroom-917ventures-gcash-adopts-alipay-primary-thumbnail-m.jpg",
      "imageDesktop": "/sites/globe.com.ph/files/content/dam/globe/brie/AboutUs/newsroom/917ventures/gcash-adopts-alipay-risk-technology/newsroom-917ventures-gcash-adopts-alipay-primary-thumbnail-d.jpg",
      "description": "GCash adopted new and enhanced security and risk technologies by Alipay, the world’s leading open digital lifestyle platform. ",
      "datePosted": "May 02, 2020 | 02:44 PM",
      "titleFromTag": "917Ventures"
    },
    {
      "title": "Adapting to the New Normal: Fintech is Bedrock of Digital Services as PH Fights Pandemic",
      "nonclickable": false,
      "openNewTab": false,
      "borderArticle": "border-color:#0074D9;",
      "borderTopArticle": "border-top-color:#0074D9;",
      "imageListing": "/sites/globe.com.ph/files/content/dam/globe/brie/AboutUs/newsroom/917ventures/fintech-bedrock-digital-services/newsroom-917ventures-fintech-bedrock-digital-thumbnail-listing.jpg",
      "articleUrl": "https://www.globe.com.ph/about-us/newsroom/917ventures/fintech-bedrock-digital-services.html",
      "columnType": "articles--type-3",
      "typeListing": "article",
      "imageMobile": "/sites/globe.com.ph/files/content/dam/globe/brie/AboutUs/newsroom/917ventures/fintech-bedrock-digital-services/newsroom-917ventures-fintech-bedrock-digital-primary-thumbnail-m.jpg",
      "imageDesktop": "/sites/globe.com.ph/files/content/dam/globe/brie/AboutUs/newsroom/917ventures/fintech-bedrock-digital-services/newsroom-917ventures-fintech-bedrock-digital-primary-thumbnail-d.jpg",
      "description": "Today, more and more Filipinos are embracing digital finance, seeing the value that it brings versus conventional cash. ",
      "datePosted": "May 01, 2020 | 12:26 PM",
      "titleFromTag": "917Ventures"
    },
    {
      "title": "Globe, DepEd Discuss Parent-Teacher Strategies for an Effective Digital Learning Experience at Home",
      "nonclickable": false,
      "openNewTab": false,
      "borderArticle": "border-color:#1C91C5;",
      "borderTopArticle": "border-top-color:#1C91C5;",
      "imageListing": "/sites/globe.com.ph/files/content/dam/globe/brie/AboutUs/newsroom/sustainability/effective-parent-teacher-strategies-digital-learning/thumbnail-listing.png",
      "articleUrl": "https://www.globe.com.ph/about-us/newsroom/sustainability/effective-parent-teacher-strategies-digital-learning.html",
      "columnType": "articles--type-3",
      "typeListing": "article",
      "imageMobile": "/sites/globe.com.ph/files/content/dam/globe/brie/AboutUs/newsroom/sustainability/effective-parent-teacher-strategies-digital-learning/primary-thumbnail-m.png",
      "imageDesktop": "/sites/globe.com.ph/files/content/dam/globe/brie/AboutUs/newsroom/sustainability/effective-parent-teacher-strategies-digital-learning/primary-thumbnail-d.png",
      "description": "The discussion on challenges and practices for experiential and collaborative activities aims to enhance the home learning experience for faculty and parents.",
      "datePosted": "Apr 30, 2020 | 10:40 AM",
      "titleFromTag": "Sustainability"
    },
    {
      "title": "Globe Customers Raise Over P36M Cash Donations for Hospitals Nationwide",
      "nonclickable": false,
      "openNewTab": false,
      "borderArticle": "border-color:#0074D9;",
      "borderTopArticle": "border-top-color:#0074D9;",
      "imageListing": "/sites/globe.com.ph/files/content/dam/globe/brie/AboutUs/newsroom/citizenship/globe-customers-raise-36m-cash-donations/thumbnail-listing.png",
      "articleUrl": "https://www.globe.com.ph/about-us/newsroom/citizenship/globe-customers-raise-36m-cash-donations.html",
      "columnType": "articles--type-3",
      "typeListing": "article",
      "imageMobile": "/sites/globe.com.ph/files/content/dam/globe/brie/AboutUs/newsroom/citizenship/globe-customers-raise-36m-cash-donations/primary-thumbnail-m.png",
      "imageDesktop": "/sites/globe.com.ph/files/content/dam/globe/brie/AboutUs/newsroom/citizenship/globe-customers-raise-36m-cash-donations/primary-thumbnail-d.png",
      "description": "A record P36M in cash donations for the benefit of health workers and frontliners in 11 medical institutions nationwide was successfully raised by 491,821 loyal Globe customers through their Globe Rewards Points.",
      "datePosted": "Apr 29, 2020 | 02:54 PM",
      "titleFromTag": "Citizenship"
    }
  ]
}
