{
  "status": 200,
  "page": 184,
  "totalPage": 298,
  "range": "2197-2208",
  "total": 3573,
  "result": [
    {
      "title": "Globe Announces Appointment of Martha Sazon as New Mynt CEO",
      "nonclickable": false,
      "openNewTab": false,
      "borderArticle": "border-color:#0074D9;",
      "borderTopArticle": "border-top-color:#0074D9;",
      "imageListing": "/sites/globe.com.ph/files/content/dam/globe/brie/AboutUs/newsroom/partners/martha-sazon-new-mynt-ceo/update/thumbnail-listing.png",
      "articleUrl": "https://www.globe.com.ph/about-us/newsroom/partners/martha-sazon-new-mynt-ceo.html",
      "columnType": "articles--type-3",
      "typeListing": "article",
      "imageMobile": "/sites/globe.com.ph/files/content/dam/globe/brie/AboutUs/newsroom/partners/martha-sazon-new-mynt-ceo/update/primary-thumbnail-m.png",
      "imageDesktop": "/sites/globe.com.ph/files/content/dam/globe/brie/AboutUs/newsroom/partners/martha-sazon-new-mynt-ceo/update/primary-thumbnail-d.png",
      "description": "Globe announced the appointment of Martha Sazon as new Chief Executive Officer of Mynt, operator of GCash, effective June 1, 2020.",
      "datePosted": "Apr 28, 2020 | 03:27 PM",
      "titleFromTag": "Partners"
    },
    {
      "title": "Globe Employees Raise P27.5M for COVID-19 Assistance; Includes PPEs, Face Shields for 50 Hospitals",
      "nonclickable": false,
      "openNewTab": false,
      "borderArticle": "border-color:#0074D9;",
      "borderTopArticle": "border-top-color:#0074D9;",
      "imageListing": "/sites/globe.com.ph/files/content/dam/globe/brie/AboutUs/newsroom/corporate/globe-employees-raise-funds-covid-19-assistance/thumbnail-listing.png",
      "articleUrl": "https://www.globe.com.ph/about-us/newsroom/corporate/globe-employees-raise-funds-covid-19-assistance.html",
      "columnType": "articles--type-3",
      "typeListing": "article",
      "imageMobile": "/sites/globe.com.ph/files/content/dam/globe/brie/AboutUs/newsroom/corporate/globe-employees-raise-funds-covid-19-assistance/primary-thumbnail-m.png",
      "imageDesktop": "/sites/globe.com.ph/files/content/dam/globe/brie/AboutUs/newsroom/corporate/globe-employees-raise-funds-covid-19-assistance/primary-thumbnail-d.png",
      "description": "Globe Telecom employees have raised over P27.5 million from a fundraising initiative primarily aimed at providing much-need personal protective equipment, face shields, and face masks to healthcare workers in 50 hospitals across the country.",
      "datePosted": "Apr 27, 2020 | 01:38 PM",
      "titleFromTag": "Corporate"
    },
    {
      "title": "Globe Extends Bill Payment Due Dates up to May 15",
      "nonclickable": false,
      "openNewTab": false,
      "borderArticle": "border-color:#0074D9;",
      "borderTopArticle": "border-top-color:#0074D9;",
      "imageListing": "/sites/globe.com.ph/files/content/dam/globe/brie/AboutUs/newsroom/corporate/globe-extends-bill-due-dates/newsroom-template-Corporate-thumbnail-listing.jpg",
      "articleUrl": "https://www.globe.com.ph/about-us/newsroom/corporate/globe-extends-bill-due-dates.html",
      "columnType": "articles--type-3",
      "typeListing": "article",
      "imageMobile": "/sites/globe.com.ph/files/content/dam/globe/brie/AboutUs/newsroom/corporate/globe-extends-bill-due-dates/newsroom-template-Corporate-primary-thumbnail-m.jpg",
      "imageDesktop": "/sites/globe.com.ph/files/content/dam/globe/brie/AboutUs/newsroom/corporate/globe-extends-bill-due-dates/newsroom-template-Corporate-primary-thumbnail-d.jpg",
      "description": "Globe Telecom bill payment due dates extended to May 15 for its mobile and broadband postpaid customers, including business and enterprise clients nationwide",
      "datePosted": "Apr 24, 2020 | 12:13 PM",
      "titleFromTag": "Corporate"
    },
    {
      "title": "#COVIDHeroes: Telco’s Homegrown Talents Come Together for Heartwarming Tribute",
      "nonclickable": false,
      "openNewTab": false,
      "borderArticle": "border-color:#0074D9;",
      "borderTopArticle": "border-top-color:#0074D9;",
      "imageListing": "/sites/globe.com.ph/files/content/dam/globe/brie/AboutUs/newsroom/corporate/globe-extends-bill-payment-due-dates-to-May-15/newsroom-template-Corporate-thumbnail-listing.jpg",
      "articleUrl": "https://www.globe.com.ph/about-us/newsroom/corporate/telco-homegrown-talents-give-heartwarming-tribute.html",
      "columnType": "articles--type-3",
      "typeListing": "article",
      "imageMobile": "/sites/globe.com.ph/files/content/dam/globe/brie/AboutUs/newsroom/corporate/globe-extends-bill-payment-due-dates-to-May-15/newsroom-template-Corporate-primary-thumbnail-m.jpg",
      "imageDesktop": "/sites/globe.com.ph/files/content/dam/globe/brie/AboutUs/newsroom/corporate/globe-extends-bill-payment-due-dates-to-May-15/newsroom-template-Corporate-primary-thumbnail-d.jpg",
      "description": "Through stitched videos, Globe Voices@Work (GV@W) performed their rendition of “Isang Dugo, Isang Lahi, Isang Musika” for the company’s own #COVIDHeroes.",
      "datePosted": "Apr 24, 2020 | 12:01 PM",
      "titleFromTag": "Corporate"
    },
    {
      "title": "Globe Extends Support to Military Front Liners Manning Command Centers, Checkpoints in Luzon",
      "nonclickable": false,
      "openNewTab": false,
      "borderArticle": "border-color:#0074D9;",
      "borderTopArticle": "border-top-color:#0074D9;",
      "imageListing": "/sites/globe.com.ph/files/content/dam/globe/brie/AboutUs/newsroom/corporate/globe-extends-support-to-military-frontliners-luzon/newsroom-template-Corporate-thumbnail-listing.jpg",
      "articleUrl": "https://www.globe.com.ph/about-us/newsroom/corporate/globe-extends-support-to-military-frontliners-luzon.html",
      "columnType": "articles--type-3",
      "typeListing": "article",
      "imageMobile": "/sites/globe.com.ph/files/content/dam/globe/brie/AboutUs/newsroom/corporate/globe-extends-support-to-military-frontliners-luzon/newsroom-template-Corporate-primary-thumbnail-m.jpg",
      "imageDesktop": "/sites/globe.com.ph/files/content/dam/globe/brie/AboutUs/newsroom/corporate/globe-extends-support-to-military-frontliners-luzon/newsroom-template-Corporate-primary-thumbnail-d.jpg",
      "description": "Globe has extended its support by providing much-needed gadgets, equipment, and technology to the front liners in uniform.",
      "datePosted": "Apr 24, 2020 | 10:49 AM",
      "titleFromTag": "Corporate"
    },
    {
      "title": "Globe Steps Up Measures to Mitigate Impact of Pandemic to Customers",
      "nonclickable": false,
      "openNewTab": false,
      "borderArticle": "border-color:#0074D9;",
      "borderTopArticle": "border-top-color:#0074D9;",
      "imageListing": "/sites/globe.com.ph/files/content/dam/globe/brie/AboutUs/newsroom/common/updated/Corporate-globe-thumbnail-listing.jpg",
      "articleUrl": "https://www.globe.com.ph/about-us/newsroom/corporate/globe-steps-up-measures-to-mitigate-impact-of-pandemic-to-customers.html",
      "columnType": "articles--type-3",
      "typeListing": "article",
      "imageMobile": "/sites/globe.com.ph/files/content/dam/globe/brie/AboutUs/newsroom/common/updated/Corporate-globe-primary-thumbnail-m.jpg",
      "imageDesktop": "/sites/globe.com.ph/files/content/dam/globe/brie/AboutUs/newsroom/common/updated/Corporate-globe-primary-thumbnail-d.jpg",
      "description": "Globe Telecom remains unwavering in its commitment to assist customers and mitigate the impact of this pandemic.",
      "datePosted": "Apr 23, 2020 | 11:24 AM",
      "titleFromTag": "Corporate"
    },
    {
      "title": "Globe Deploys Cell Site on Wheels (COW) at Rizal Memorial Stadium and PICC Forum",
      "nonclickable": false,
      "openNewTab": false,
      "borderArticle": "border-color:#0074D9;",
      "borderTopArticle": "border-top-color:#0074D9;",
      "imageListing": "/sites/globe.com.ph/files/content/dam/globe/brie/AboutUs/newsroom/corporate/cell-site-on-wheels-deployed/newsroom-template-Corporate-thumbnail-listing.jpg",
      "articleUrl": "https://www.globe.com.ph/about-us/newsroom/corporate/cell-site-on-wheels-deployed.html",
      "columnType": "articles--type-3",
      "typeListing": "article",
      "imageMobile": "/sites/globe.com.ph/files/content/dam/globe/brie/AboutUs/newsroom/corporate/cell-site-on-wheels-deployed/newsroom-template-Corporate-primary-thumbnail-m.jpg",
      "imageDesktop": "/sites/globe.com.ph/files/content/dam/globe/brie/AboutUs/newsroom/corporate/cell-site-on-wheels-deployed/newsroom-template-Corporate-primary-thumbnail-d.jpg",
      "description": "Globe has successfully deployed its Cell Site on Wheels (COW) at Rizal Memorial Stadium and PICC Forum, two designated COVID-19 quarantine areas.",
      "datePosted": "Apr 22, 2020 | 01:51 PM",
      "titleFromTag": "Corporate"
    },
    {
      "title": "Globe At Home Prepaid WiFi Extends HomeSURF199 Free Data Boost",
      "nonclickable": false,
      "openNewTab": false,
      "borderArticle": "border-color:#0074D9;",
      "borderTopArticle": "border-top-color:#0074D9;",
      "imageListing": "/sites/globe.com.ph/files/content/dam/globe/brie/AboutUs/newsroom/consumer/homesurf199-free-data-boost-extended/thumbnail-listing.png",
      "articleUrl": "https://www.globe.com.ph/about-us/newsroom/consumer/homesurf199-free-data-boost-extended.html",
      "columnType": "articles--type-3",
      "typeListing": "article",
      "imageMobile": "/sites/globe.com.ph/files/content/dam/globe/brie/AboutUs/newsroom/consumer/homesurf199-free-data-boost-extended/primary-thumbnail-m.png",
      "imageDesktop": "/sites/globe.com.ph/files/content/dam/globe/brie/AboutUs/newsroom/consumer/homesurf199-free-data-boost-extended/primary-thumbnail-d.png",
      "description": "Globe at Home Prepaid WiFi is extending the FREE additional GBs for HomeSURF199 until May 15, 2020.",
      "datePosted": "Apr 22, 2020 | 01:51 PM",
      "titleFromTag": "Consumer"
    },
    {
      "title": "Globe Assures Continuous AMAX Services, Call Cards Supply for Prepaid Globe, TM Customers During Extended ECQ",
      "nonclickable": false,
      "openNewTab": false,
      "borderArticle": "border-color:#0074D9;",
      "borderTopArticle": "border-top-color:#0074D9;",
      "imageListing": "/sites/globe.com.ph/files/content/dam/globe/brie/AboutUs/newsroom/consumer/amax-services-extended-ecq/newsroom-template-Consumer-thumbnail-listing.jpg",
      "articleUrl": "https://www.globe.com.ph/about-us/newsroom/consumer/amax-services-extended-ecq.html",
      "columnType": "articles--type-3",
      "typeListing": "article",
      "imageMobile": "/sites/globe.com.ph/files/content/dam/globe/brie/AboutUs/newsroom/consumer/amax-services-extended-ecq/newsroom-template-Consumer-primary-thumbnail-m.jpg",
      "imageDesktop": "/sites/globe.com.ph/files/content/dam/globe/brie/AboutUs/newsroom/consumer/amax-services-extended-ecq/newsroom-template-Consumer-primary-thumbnail-d.jpg",
      "description": "Globe assures Globe and TM prepaid customers that Share-a-Load and AMAX services will remain available despite the challenges brought by the COVID-19 pandemic.",
      "datePosted": "Apr 21, 2020 | 01:34 PM",
      "titleFromTag": "Consumer"
    },
    {
      "title": "Globe’s Integrated Approach to Value Creation, Sustainability, and Risk Management Drive 2019 Performance",
      "nonclickable": false,
      "openNewTab": false,
      "borderArticle": "border-color:#0074D9;",
      "borderTopArticle": "border-top-color:#0074D9;",
      "imageListing": "/sites/globe.com.ph/files/content/dam/globe/brie/AboutUs/newsroom/common/updated/Corporate-globe-thumbnail-listing.jpg",
      "articleUrl": "https://www.globe.com.ph/about-us/newsroom/corporate/globe-2019-performance.html",
      "columnType": "articles--type-3",
      "typeListing": "article",
      "imageMobile": "/sites/globe.com.ph/files/content/dam/globe/brie/AboutUs/newsroom/common/updated/Corporate-globe-primary-thumbnail-m.jpg",
      "imageDesktop": "/sites/globe.com.ph/files/content/dam/globe/brie/AboutUs/newsroom/common/updated/Corporate-globe-primary-thumbnail-d.jpg",
      "description": "In 2019, Globe recorded a robust performance driven by its integrated approach to value creation, sustainability, and risk management.",
      "datePosted": "Apr 21, 2020 | 10:05 AM",
      "titleFromTag": "Corporate"
    },
    {
      "title": "Globe Provides Free Data Access to DepEd’s Online Learning Platform",
      "nonclickable": false,
      "openNewTab": false,
      "borderArticle": "border-color:#1C91C5;",
      "borderTopArticle": "border-top-color:#1C91C5;",
      "imageListing": "/sites/globe.com.ph/files/content/dam/globe/brie/AboutUs/newsroom/sustainability/free-data-access-deped-commons/newsroom-template-2thumbnail-listing.jpg",
      "articleUrl": "https://www.globe.com.ph/about-us/newsroom/sustainability/free-data-access-deped-commons.html",
      "columnType": "articles--type-3",
      "typeListing": "article",
      "imageMobile": "/sites/globe.com.ph/files/content/dam/globe/brie/AboutUs/newsroom/sustainability/free-data-access-deped-commons/newsroom-template-2primary-thumbnail-m.jpg",
      "imageDesktop": "/sites/globe.com.ph/files/content/dam/globe/brie/AboutUs/newsroom/sustainability/free-data-access-deped-commons/newsroom-template-2primary-thumbnail-d.jpg",
      "description": "Teachers and students may now visit new online learning platform DepEd Commons without incurring data charges on their Globe or TM-powered smartphones.",
      "datePosted": "Apr 20, 2020 | 10:53 AM",
      "titleFromTag": "Sustainability"
    },
    {
      "title": "Heartwarming Globe Digital Film Shares Message of Hope and Connection Amid Isolation",
      "nonclickable": false,
      "openNewTab": false,
      "borderArticle": "border-color:#0074D9;",
      "borderTopArticle": "border-top-color:#0074D9;",
      "imageListing": "/sites/globe.com.ph/files/content/dam/globe/brie/AboutUs/newsroom/corporate/connection-amid-isolation/newsroom-template-thumbnail-listing.jpg",
      "articleUrl": "https://www.globe.com.ph/about-us/newsroom/corporate/connection-amid-isolation.html",
      "columnType": "articles--type-3",
      "typeListing": "article",
      "imageMobile": "/sites/globe.com.ph/files/content/dam/globe/brie/AboutUs/newsroom/corporate/connection-amid-isolation/newsroom-template-primary-thumbnail-m.jpg",
      "imageDesktop": "/sites/globe.com.ph/files/content/dam/globe/brie/AboutUs/newsroom/corporate/connection-amid-isolation/newsroom-template-primary-thumbnail-d.jpg",
      "description": "Globe remains committed to standing with Filipinos, sharing its message of hope through a video showing support and faith that we will all overcome this crisis.",
      "datePosted": "Apr 18, 2020 | 02:09 PM",
      "titleFromTag": "Corporate"
    }
  ]
}
