{
  "status": 200,
  "page": 185,
  "totalPage": 298,
  "range": "2209-2220",
  "total": 3573,
  "result": [
    {
      "title": "Telecom Technicians Keep Households Connected Amidst COVID-19 Threat",
      "nonclickable": false,
      "openNewTab": false,
      "borderArticle": "border-color:#0074D9;",
      "borderTopArticle": "border-top-color:#0074D9;",
      "imageListing": "/sites/globe.com.ph/files/content/dam/globe/brie/AboutUs/newsroom/corporate/telecom-technicians-covid-19/thumbnail-listing.jpg",
      "articleUrl": "https://www.globe.com.ph/about-us/newsroom/corporate/telecom-technicians-covid-19.html",
      "columnType": "articles--type-3",
      "typeListing": "article",
      "imageMobile": "/sites/globe.com.ph/files/content/dam/globe/brie/AboutUs/newsroom/corporate/telecom-technicians-covid-19/primary-thumbnail-m.jpg",
      "imageDesktop": "/sites/globe.com.ph/files/content/dam/globe/brie/AboutUs/newsroom/corporate/telecom-technicians-covid-19/primary-thumbnail-d.jpg",
      "description": "Despite the threat of COVID-19, hardworking telecom technicians bravely go to the field everyday to ensure that customers are connected even while under ECQ.",
      "datePosted": "Apr 17, 2020 | 04:09 PM",
      "titleFromTag": "Corporate"
    },
    {
      "title": "Globe Invests in Cloud Business to Expand ICT Capabilities",
      "nonclickable": false,
      "openNewTab": false,
      "borderArticle": "border-color:#0074D9;",
      "borderTopArticle": "border-top-color:#0074D9;",
      "imageListing": "/sites/globe.com.ph/files/content/dam/globe/brie/AboutUs/newsroom/common/updated/Corporate-globe-thumbnail-listing.jpg",
      "articleUrl": "https://www.globe.com.ph/about-us/newsroom/corporate/globe-cascadeo.html",
      "columnType": "articles--type-3",
      "typeListing": "article",
      "imageMobile": "/sites/globe.com.ph/files/content/dam/globe/brie/AboutUs/newsroom/common/updated/Corporate-globe-primary-thumbnail-m.jpg",
      "imageDesktop": "/sites/globe.com.ph/files/content/dam/globe/brie/AboutUs/newsroom/common/updated/Corporate-globe-primary-thumbnail-d.jpg",
      "description": "Globe has entered into an agreement to acquire all of the assets of US-based cloud consulting companies Cascadeo Corporation and Cascadeo Partners for US $4M.",
      "datePosted": "Apr 17, 2020 | 11:42 AM",
      "titleFromTag": "Corporate"
    },
    {
      "title": "Globe myBusiness Discusses e-Learning Opportunities Amid COVID-19 ECQ",
      "nonclickable": false,
      "openNewTab": false,
      "borderArticle": "border-color:#0074D9;",
      "borderTopArticle": "border-top-color:#0074D9;",
      "imageListing": "/sites/globe.com.ph/files/content/dam/globe/brie/AboutUs/newsroom/business/e-learning-covid-19-ecq/thumbnail-listing.jpg",
      "articleUrl": "https://www.globe.com.ph/about-us/newsroom/business/e-learning-covid-19-ecq.html",
      "columnType": "articles--type-3",
      "typeListing": "article",
      "imageMobile": "/sites/globe.com.ph/files/content/dam/globe/brie/AboutUs/newsroom/business/e-learning-covid-19-ecq/primary-thumbnail-m.jpg",
      "imageDesktop": "/sites/globe.com.ph/files/content/dam/globe/brie/AboutUs/newsroom/business/e-learning-covid-19-ecq/primary-thumbnail-d.jpg",
      "description": "About 200 educators joined Globe myBusiness' E-Skwela webinar on how to migrate classes online as schools have been closed under the COVID-19 ECQ protocols.",
      "datePosted": "Apr 15, 2020 | 02:32 PM",
      "titleFromTag": "Business"
    },
    {
      "title": "Mediatech Startup Kumu Raises US$5M Series A Funding Round From Openspace Ventures & PH Conglomerates",
      "nonclickable": false,
      "openNewTab": false,
      "borderArticle": "border-color:#0074D9;",
      "borderTopArticle": "border-top-color:#0074D9;",
      "imageListing": "/sites/globe.com.ph/files/content/dam/globe/brie/AboutUs/newsroom/partners/kumu-series-a-funding/thumbnail-listing.jpg",
      "articleUrl": "https://www.globe.com.ph/about-us/newsroom/partners/kumu-series-a-funding.html",
      "columnType": "articles--type-3",
      "typeListing": "article",
      "imageMobile": "/sites/globe.com.ph/files/content/dam/globe/brie/AboutUs/newsroom/partners/kumu-series-a-funding/primary-thumbnail-m.jpg",
      "imageDesktop": "/sites/globe.com.ph/files/content/dam/globe/brie/AboutUs/newsroom/partners/kumu-series-a-funding/primary-thumbnail-d.jpg",
      "description": "Live streaming app Kumu has announced that it has raised approximately US$5M in a Series A funding round to roll out new features and scale up its operations.",
      "datePosted": "Apr 14, 2020 | 02:15 PM",
      "titleFromTag": "Partners"
    },
    {
      "title": "Globe Encourages Customers to Share Inspiring Stories and Messages Through Hope Bank",
      "nonclickable": false,
      "openNewTab": false,
      "borderArticle": "border-color:#1C91C5;",
      "borderTopArticle": "border-top-color:#1C91C5;",
      "imageListing": "/sites/globe.com.ph/files/content/dam/globe/brie/AboutUs/newsroom/sustainability/hope-bank-inspiring-stories/thumbnail-listing.jpg",
      "articleUrl": "https://www.globe.com.ph/about-us/newsroom/sustainability/hope-bank-inspiring-stories.html",
      "columnType": "articles--type-3",
      "typeListing": "article",
      "imageMobile": "/sites/globe.com.ph/files/content/dam/globe/brie/AboutUs/newsroom/sustainability/hope-bank-inspiring-stories/primary-thumbnail-m.jpg",
      "imageDesktop": "/sites/globe.com.ph/files/content/dam/globe/brie/AboutUs/newsroom/sustainability/hope-bank-inspiring-stories/primary-thumbnail-d.jpg",
      "description": "Globe encourages its customers to share inspiring stories and messages to those suffering from fear, stress, anxiety, and depression in light of the pandemic.",
      "datePosted": "Apr 14, 2020 | 11:42 AM",
      "titleFromTag": "Sustainability"
    },
    {
      "title": "DOH Taps KonsultaMD for Free Public Telemedicine Advice",
      "nonclickable": false,
      "openNewTab": false,
      "borderArticle": "border-color:#0074D9;",
      "borderTopArticle": "border-top-color:#0074D9;",
      "imageListing": "/sites/globe.com.ph/files/content/dam/globe/brie/AboutUs/newsroom/partners/doh-taps-konsultamd-free-telemedicine/thumbnail-listing.jpg",
      "articleUrl": "https://www.globe.com.ph/about-us/newsroom/partners/doh-taps-konsultamd-free-telemedicine.html",
      "columnType": "articles--type-3",
      "typeListing": "article",
      "imageMobile": "/sites/globe.com.ph/files/content/dam/globe/brie/AboutUs/newsroom/partners/doh-taps-konsultamd-free-telemedicine/primary-thumbnail-m.jpg",
      "imageDesktop": "/sites/globe.com.ph/files/content/dam/globe/brie/AboutUs/newsroom/partners/doh-taps-konsultamd-free-telemedicine/primary-thumbnail-d.jpg",
      "description": "The Department of Health (DOH) has tapped KonsultaMD for the provision of free telemedicine advice to individuals who need non-emergency medical assistance.",
      "datePosted": "Apr 13, 2020 | 01:29 PM",
      "titleFromTag": "Partners"
    },
    {
      "title": "Fintech will Drive ‘New Normal,’ as Cash May Pose Risks on Health Safety",
      "nonclickable": false,
      "openNewTab": false,
      "borderArticle": "border-color:#0074D9;",
      "borderTopArticle": "border-top-color:#0074D9;",
      "imageListing": "/sites/globe.com.ph/files/content/dam/globe/brie/AboutUs/newsroom/917ventures/fintech-new-normal-cash-risk-health-safety/newsroom-917ventures-fintech-new-normal-thumbnail-listing.jpg",
      "articleUrl": "https://www.globe.com.ph/about-us/newsroom/917ventures/fintech-new-normal-cash-risk-health-safety.html",
      "columnType": "articles--type-3",
      "typeListing": "article",
      "imageMobile": "/sites/globe.com.ph/files/content/dam/globe/brie/AboutUs/newsroom/917ventures/fintech-new-normal-cash-risk-health-safety/newsroom-917ventures-fintech-new-normal-primary-thumbnail-m.jpg",
      "imageDesktop": "/sites/globe.com.ph/files/content/dam/globe/brie/AboutUs/newsroom/917ventures/fintech-new-normal-cash-risk-health-safety/newsroom-917ventures-fintech-new-normal-primary-thumbnail-d.jpg",
      "description": "GCash provides a better alternative to cash through reduced costs and efficiency of transactions, better transparency and security, and many others.",
      "datePosted": "Apr 13, 2020 | 11:00 AM",
      "titleFromTag": "917Ventures"
    },
    {
      "title": "Globe Powers Mental Health Services During COVID-19",
      "nonclickable": false,
      "openNewTab": false,
      "borderArticle": "border-color:#1C91C5;",
      "borderTopArticle": "border-top-color:#1C91C5;",
      "imageListing": "/sites/globe.com.ph/files/content/dam/globe/brie/AboutUs/newsroom/sustainability/mental-health-services-covid-19/thumbnail-listing.jpg",
      "articleUrl": "https://www.globe.com.ph/about-us/newsroom/sustainability/mental-health-services-covid-19.html",
      "columnType": "articles--type-3",
      "typeListing": "article",
      "imageMobile": "/sites/globe.com.ph/files/content/dam/globe/brie/AboutUs/newsroom/sustainability/mental-health-services-covid-19/primary-thumbnail-m.jpg",
      "imageDesktop": "/sites/globe.com.ph/files/content/dam/globe/brie/AboutUs/newsroom/sustainability/mental-health-services-covid-19/primary-thumbnail-d.jpg",
      "description": "Globe partnered with UP Diliman Psychosocial Services and Hopeline. to extend free counseling or psychotherapy services to those in need.",
      "datePosted": "Apr 08, 2020 | 03:40 PM",
      "titleFromTag": "Sustainability"
    },
    {
      "title": "Globe Studios via .giff Teams up With Local Filmmakers and Enthusiasts to Raise Funds for Daily Wage Film Workers",
      "nonclickable": false,
      "openNewTab": false,
      "borderArticle": "border-color:#1C91C5;",
      "borderTopArticle": "border-top-color:#1C91C5;",
      "imageListing": "/sites/globe.com.ph/files/content/dam/globe/brie/AboutUs/newsroom/sustainability/globe-studios-lockdown-cinema-club-raise-funds/thumbnail-listing.jpg",
      "articleUrl": "https://www.globe.com.ph/about-us/newsroom/sustainability/globe-studios-lockdown-cinema-club-raise-funds.html",
      "columnType": "articles--type-3",
      "typeListing": "article",
      "imageMobile": "/sites/globe.com.ph/files/content/dam/globe/brie/AboutUs/newsroom/sustainability/globe-studios-lockdown-cinema-club-raise-funds/primary-thumbnail-m.jpg",
      "imageDesktop": "/sites/globe.com.ph/files/content/dam/globe/brie/AboutUs/newsroom/sustainability/globe-studios-lockdown-cinema-club-raise-funds/primary-thumbnail-d.jpg",
      "description": "Globe Studios has teamed up with Lockdown Cinema Club to raise funds for daily wage film workers affected by the COVID-19 crisis.",
      "datePosted": "Apr 08, 2020 | 12:13 PM",
      "titleFromTag": "Sustainability"
    },
    {
      "title": "Globe Launches eLibrary to Provide Free Downloadable Ebooks, Interactive Videos for K-To-12 Students Nationwide",
      "nonclickable": false,
      "openNewTab": false,
      "borderArticle": "border-color:#1C91C5;",
      "borderTopArticle": "border-top-color:#1C91C5;",
      "imageListing": "/sites/globe.com.ph/files/content/dam/globe/brie/AboutUs/newsroom/sustainability/elibrary-k--to12-students/thumbnail-listing.jpg",
      "articleUrl": "https://www.globe.com.ph/about-us/newsroom/sustainability/elibrary-k--to12-students.html",
      "columnType": "articles--type-3",
      "typeListing": "article",
      "imageMobile": "/sites/globe.com.ph/files/content/dam/globe/brie/AboutUs/newsroom/sustainability/elibrary-k--to12-students/primary-thumbnail-m.jpg",
      "imageDesktop": "/sites/globe.com.ph/files/content/dam/globe/brie/AboutUs/newsroom/sustainability/elibrary-k--to12-students/primary-thumbnail-d.jpg",
      "description": "Globe launches eLibrary to provide free downloadable ebooks, interactive videos for K-to-12 students nationwide",
      "datePosted": "Apr 07, 2020 | 12:31 PM",
      "titleFromTag": "Sustainability"
    },
    {
      "title": "Makati Innovates Financial Aid Distribution Amid COVID-19 through GCash",
      "nonclickable": false,
      "openNewTab": false,
      "borderArticle": "border-color:#0074D9;",
      "borderTopArticle": "border-top-color:#0074D9;",
      "imageListing": "/sites/globe.com.ph/files/content/dam/globe/brie/AboutUs/newsroom/917ventures/makati-financial-aid-distribution-via-gcash/newsroom-917ventures-makati-innovates-financial-thumbnail-listing.jpg",
      "articleUrl": "https://www.globe.com.ph/about-us/newsroom/917ventures/makati-financial-aid-distribution-via-gcash.html",
      "columnType": "articles--type-3",
      "typeListing": "article",
      "imageMobile": "/sites/globe.com.ph/files/content/dam/globe/brie/AboutUs/newsroom/917ventures/makati-financial-aid-distribution-via-gcash/newsroom-917ventures-makati-innovates-financial-primary-thumbnail-m.jpg",
      "imageDesktop": "/sites/globe.com.ph/files/content/dam/globe/brie/AboutUs/newsroom/917ventures/makati-financial-aid-distribution-via-gcash/newsroom-917ventures-makati-innovates-financial-primary-thumbnail-d.jpg",
      "description": "Through GCash, the City of Makati will disburse the second tranche of financial aid to over 8,000 drivers. Visit Globe Newsroom for more.",
      "datePosted": "Apr 07, 2020 | 11:00 AM",
      "titleFromTag": "917Ventures"
    },
    {
      "title": "Globe Turns Over 1,000 Preloaded Mobile Phones to the Country’s Frontliners",
      "nonclickable": false,
      "openNewTab": false,
      "borderArticle": "border-color:#1C91C5;",
      "borderTopArticle": "border-top-color:#1C91C5;",
      "imageListing": "/sites/globe.com.ph/files/content/dam/globe/brie/AboutUs/newsroom/sustainability/1000-preloaded-phones-frontliners/thumbnail-listing.jpg",
      "articleUrl": "https://www.globe.com.ph/about-us/newsroom/sustainability/1000-preloaded-phones-frontliners.html",
      "columnType": "articles--type-3",
      "typeListing": "article",
      "imageMobile": "/sites/globe.com.ph/files/content/dam/globe/brie/AboutUs/newsroom/sustainability/1000-preloaded-phones-frontliners/primary-thumbnail-m.jpg",
      "imageDesktop": "/sites/globe.com.ph/files/content/dam/globe/brie/AboutUs/newsroom/sustainability/1000-preloaded-phones-frontliners/primary-thumbnail-d.jpg",
      "description": "Globe turns over 1,000 mobile phones to police, military, and naval forces and select hospitals nationwide.",
      "datePosted": "Apr 07, 2020 | 10:52 AM",
      "titleFromTag": "Sustainability"
    }
  ]
}
