{
  "status": 200,
  "page": 186,
  "totalPage": 298,
  "range": "2221-2232",
  "total": 3573,
  "result": [
    {
      "title": "Globe Addresses Loading Concerns of Prepaid Customers Through Loan Credits Without Service Fees",
      "nonclickable": false,
      "openNewTab": false,
      "borderArticle": "border-color:#0074D9;",
      "borderTopArticle": "border-top-color:#0074D9;",
      "imageListing": "/sites/globe.com.ph/files/content/dam/globe/brie/AboutUs/newsroom/common/default-4/default-consumer-3-thumbnail-listing.jpg",
      "articleUrl": "https://www.globe.com.ph/about-us/newsroom/consumer/loan-credits-no-service-fees.html",
      "columnType": "articles--type-3",
      "typeListing": "article",
      "imageMobile": "/sites/globe.com.ph/files/content/dam/globe/brie/AboutUs/newsroom/common/default-4/default-consumer-3-primary-thumbnail-m.jpg",
      "imageDesktop": "/sites/globe.com.ph/files/content/dam/globe/brie/AboutUs/newsroom/common/default-4/default-consumer-3-primary-thumbnail-d.jpg",
      "description": "Service fees for load and promo loans are temporarily waived for Globe and TM customers to ease the burden they are faced with at this time.",
      "datePosted": "Apr 06, 2020 | 02:16 PM",
      "titleFromTag": "Consumer"
    },
    {
      "title": "Makati City Leverages Fintech to Distribute Financial Aid to Students",
      "nonclickable": false,
      "openNewTab": false,
      "borderArticle": "border-color:#0074D9;",
      "borderTopArticle": "border-top-color:#0074D9;",
      "imageListing": "/sites/globe.com.ph/files/content/dam/globe/brie/AboutUs/newsroom/917ventures/makati-city-leverages-fintech-financial-aid-students/newsroom-917ventures-gcash-makati-financial-aid-thumbnail-listing.jpg",
      "articleUrl": "https://www.globe.com.ph/about-us/newsroom/917ventures/makati-city-leverages-fintech-financial-aid-students.html",
      "columnType": "articles--type-3",
      "typeListing": "article",
      "imageMobile": "/sites/globe.com.ph/files/content/dam/globe/brie/AboutUs/newsroom/917ventures/makati-city-leverages-fintech-financial-aid-students/newsroom-917ventures-gcash-makati-financial-aid-primary-thumbnail-m.jpg",
      "imageDesktop": "/sites/globe.com.ph/files/content/dam/globe/brie/AboutUs/newsroom/917ventures/makati-city-leverages-fintech-financial-aid-students/newsroom-917ventures-gcash-friendly-online-primary-thumbnail-d.jpg",
      "description": "The City of Makati will disburse financial assistance to 12,000 students and scholars via GCash. Visit Globe Newsroom for more.",
      "datePosted": "Apr 06, 2020 | 11:00 AM",
      "titleFromTag": "917Ventures"
    },
    {
      "title": "Pay Bills in Less than a Minute: GCash Encourages Filipinos to Digitally Settle Bills to Help Flatten the Curve",
      "nonclickable": false,
      "openNewTab": false,
      "borderArticle": "border-color:#0074D9;",
      "borderTopArticle": "border-top-color:#0074D9;",
      "imageListing": "/sites/globe.com.ph/files/content/dam/globe/brie/AboutUs/newsroom/917ventures/gcash-encourages-filipinos-digitally-settle-bills/newsroom-917ventures-gcash-pay-bills-thumbnail-listing.jpg",
      "articleUrl": "https://www.globe.com.ph/about-us/newsroom/917ventures/gcash-encourages-filipinos-digitally-settle-bills.html",
      "columnType": "articles--type-3",
      "typeListing": "article",
      "imageMobile": "/sites/globe.com.ph/files/content/dam/globe/brie/AboutUs/newsroom/917ventures/gcash-encourages-filipinos-digitally-settle-bills/newsroom-917ventures-gcash-pay-bills-primary-thumbnail-m.jpg",
      "imageDesktop": "/sites/globe.com.ph/files/content/dam/globe/brie/AboutUs/newsroom/917ventures/gcash-encourages-filipinos-digitally-settle-bills/newsroom-917ventures-gcash-pay-bills-primary-thumbnail-d.jpg",
      "description": "GCash has made it easier for its users to pay for their bills at the comforts of their homes through their smartphones. ",
      "datePosted": "Apr 05, 2020 | 03:08 PM",
      "titleFromTag": "917Ventures"
    },
    {
      "title": "Globe myBusiness Connects SMEs in Looking After Healthcare Frontliners",
      "nonclickable": false,
      "openNewTab": false,
      "borderArticle": "border-color:#0074D9;",
      "borderTopArticle": "border-top-color:#0074D9;",
      "imageListing": "/sites/globe.com.ph/files/content/dam/globe/brie/AboutUs/newsroom/business/supporting-healthcare-frontliners/thumbnail-listing.jpg",
      "articleUrl": "https://www.globe.com.ph/about-us/newsroom/business/supporting-healthcare-frontliners.html",
      "columnType": "articles--type-3",
      "typeListing": "article",
      "imageMobile": "/sites/globe.com.ph/files/content/dam/globe/brie/AboutUs/newsroom/business/supporting-healthcare-frontliners/primary-thumbnail-m.webp",
      "imageDesktop": "/sites/globe.com.ph/files/content/dam/globe/brie/AboutUs/newsroom/business/supporting-healthcare-frontliners/primary-thumbnail-d.jpg",
      "description": "Globe strengthens its support to medical and business frontliners in a collaborative effort with its partner institutions in the healthcare and food industries",
      "datePosted": "Apr 03, 2020 | 01:38 PM",
      "titleFromTag": "Business"
    },
    {
      "title": "GCash Provides More Affordable Digital Insurance Products Amid COVID-19 Situation",
      "nonclickable": false,
      "openNewTab": false,
      "borderArticle": "border-color:#0074D9;",
      "borderTopArticle": "border-top-color:#0074D9;",
      "imageListing": "/sites/globe.com.ph/files/content/dam/globe/brie/AboutUs/newsroom/917ventures/gcash-digital-insurance-products-covid-19/newsroom-917ventures-gcash-digital-insurance-thumbnail-listing.jpg",
      "articleUrl": "https://www.globe.com.ph/about-us/newsroom/917ventures/gcash-digital-insurance-products-covid-19.html",
      "columnType": "articles--type-3",
      "typeListing": "article",
      "imageMobile": "/sites/globe.com.ph/files/content/dam/globe/brie/AboutUs/newsroom/917ventures/gcash-digital-insurance-products-covid-19/newsroom-917ventures-gcash-digital-insurance-primary-thumbnail-m.jpg",
      "imageDesktop": "/sites/globe.com.ph/files/content/dam/globe/brie/AboutUs/newsroom/917ventures/gcash-digital-insurance-products-covid-19/newsroom-917ventures-gcash-digital-insurance-primary-thumbnail-d.jpg",
      "description": "GCash users can say goodbye to the conventional insurance plans because through GCash Insure, everything is at the tip of their fingertips.",
      "datePosted": "Apr 03, 2020 | 12:11 PM",
      "titleFromTag": "917Ventures"
    },
    {
      "title": "KonsultaMD to Host Live Webinars on COVID-19, Mental Health and more",
      "nonclickable": false,
      "openNewTab": false,
      "borderArticle": "border-color:#0074D9;",
      "borderTopArticle": "border-top-color:#0074D9;",
      "imageListing": "/sites/globe.com.ph/files/content/dam/globe/brie/AboutUs/newsroom/partners/konsultamd-webinars-covid-19/thumbnail-listing.jpg",
      "articleUrl": "https://www.globe.com.ph/about-us/newsroom/partners/konsultamd-webinars-covid-19.html",
      "columnType": "articles--type-3",
      "typeListing": "article",
      "imageMobile": "/sites/globe.com.ph/files/content/dam/globe/brie/AboutUs/newsroom/partners/konsultamd-webinars-covid-19/primary-thumbnail-m.jpg",
      "imageDesktop": "/sites/globe.com.ph/files/content/dam/globe/brie/AboutUs/newsroom/partners/konsultamd-webinars-covid-19/primary-thumbnail-d.jpg",
      "description": "KonsultaMD is hosting live webinars on COVID-19, mental health, and other health issues to help Filipinos with concerns about their well-being.",
      "datePosted": "Apr 02, 2020 | 11:42 AM",
      "titleFromTag": "Partners"
    },
    {
      "title": "GCash Encourages Filipinos to Do their Groceries Online Amid COVID-19 Pandemic",
      "nonclickable": false,
      "openNewTab": false,
      "borderArticle": "border-color:#0074D9;",
      "borderTopArticle": "border-top-color:#0074D9;",
      "imageListing": "/sites/globe.com.ph/files/content/dam/globe/brie/AboutUs/newsroom/917ventures/gcash-encourages-do-groceries-amid-covid19/newsroom-917ventures-gcash-online-groceries-thumbnail-listing.jpg",
      "articleUrl": "https://www.globe.com.ph/about-us/newsroom/917ventures/gcash-encourages-do-groceries-amid-covid19.html",
      "columnType": "articles--type-3",
      "typeListing": "article",
      "imageMobile": "/sites/globe.com.ph/files/content/dam/globe/brie/AboutUs/newsroom/917ventures/gcash-encourages-do-groceries-amid-covid19/newsroom-917ventures-gcash-online-groceries-primary-thumbnail-m.jpg",
      "imageDesktop": "/sites/globe.com.ph/files/content/dam/globe/brie/AboutUs/newsroom/917ventures/gcash-encourages-do-groceries-amid-covid19/newsroom-917ventures-gcash-online-groceries-primary-thumbnail-d.jpg",
      "description": "GCash has partnered with Lazada to provide online shoppers a cashless payment option when checking out. Visit Globe Newsroom for more.",
      "datePosted": "Apr 02, 2020 | 11:00 AM",
      "titleFromTag": "917Ventures"
    },
    {
      "title": "Globe Shares Tips for Parents With Kids or Teenagers at Home in Times of Community Quarantine",
      "nonclickable": false,
      "openNewTab": false,
      "borderArticle": "border-color:#0074D9;",
      "borderTopArticle": "border-top-color:#0074D9;",
      "imageListing": "/sites/globe.com.ph/files/content/dam/globe/brie/AboutUs/newsroom/citizenship/tips-parents-with-kids-quarantine/newsroom-template-thumbnail-listing.jpg",
      "articleUrl": "https://www.globe.com.ph/about-us/newsroom/citizenship/tips-parents-with-kids-quarantine.html",
      "columnType": "articles--type-3",
      "typeListing": "article",
      "imageMobile": "/sites/globe.com.ph/files/content/dam/globe/brie/AboutUs/newsroom/citizenship/tips-parents-with-kids-quarantine/newsroom-template-primary-thumbnail-m.jpg",
      "imageDesktop": "/sites/globe.com.ph/files/content/dam/globe/brie/AboutUs/newsroom/citizenship/tips-parents-with-kids-quarantine/newsroom-template-primary-thumbnail-d.jpg",
      "description": "Globe shares tips on how to make kids at home be more focused, make the most with the time on their hands and do something that will keep anxiety at bay.",
      "datePosted": "Apr 01, 2020 | 04:19 PM",
      "titleFromTag": "Citizenship"
    },
    {
      "title": "Globe Creates Chatbot to Monitor Employees’ Health While on Enhanced Community Quarantine",
      "nonclickable": false,
      "openNewTab": false,
      "borderArticle": "border-color:#0074D9;",
      "borderTopArticle": "border-top-color:#0074D9;",
      "imageListing": "/sites/globe.com.ph/files/content/dam/globe/brie/AboutUs/newsroom/corporate/globe-chatbot-monitors-employees-health/newsroom-template-chatbotthumbnail-listing.jpg",
      "articleUrl": "https://www.globe.com.ph/about-us/newsroom/corporate/globe-chatbot-monitors-employees-health.html",
      "columnType": "articles--type-3",
      "typeListing": "article",
      "imageMobile": "/sites/globe.com.ph/files/content/dam/globe/brie/AboutUs/newsroom/corporate/globe-chatbot-monitors-employees-health/newsroom-template-chatbotprimary-thumbnail-m.jpg",
      "imageDesktop": "/sites/globe.com.ph/files/content/dam/globe/brie/AboutUs/newsroom/corporate/globe-chatbot-monitors-employees-health/newsroom-template-chatbotprimary-thumbnail-d.jpg",
      "description": "Globe created DUDE, the chatbot that makes a friendly visit in the morning to inquire if employees are well or not.",
      "datePosted": "Apr 01, 2020 | 02:39 PM",
      "titleFromTag": "Corporate"
    },
    {
      "title": "9 GCash-Friendly Online Stores for Your Quarantine Needs and Cravings",
      "nonclickable": false,
      "openNewTab": false,
      "borderArticle": "border-color:#0074D9;",
      "borderTopArticle": "border-top-color:#0074D9;",
      "imageListing": "/sites/globe.com.ph/files/content/dam/globe/brie/AboutUs/newsroom/917ventures/9-gcash-friendly-online-stores-quarantine-needs-cravings/newsroom-917ventures-gcash-friendly-online-thumbnail-listing.jpg",
      "articleUrl": "https://www.globe.com.ph/about-us/newsroom/917ventures/9-gcash-friendly-online-stores-quarantine.html",
      "columnType": "articles--type-3",
      "typeListing": "article",
      "imageMobile": "/sites/globe.com.ph/files/content/dam/globe/brie/AboutUs/newsroom/917ventures/9-gcash-friendly-online-stores-quarantine-needs-cravings/newsroom-917ventures-gcash-friendly-online-primary-thumbnail-m.jpg",
      "imageDesktop": "/sites/globe.com.ph/files/content/dam/globe/brie/AboutUs/newsroom/917ventures/9-gcash-friendly-online-stores-quarantine-needs-cravings/newsroom-917ventures-gcash-friendly-online-primary-thumbnail-d.jpg",
      "description": "Whether it be groceries, your skincare needs, or even a good milk tea fix, here are nine online gems which are bound to save you from your quarantine woes. ",
      "datePosted": "Apr 01, 2020 | 11:33 AM",
      "titleFromTag": "917Ventures"
    },
    {
      "title": "Globe Business Encourages Companies to Raise Vigilance Against Cybersecurity Threats",
      "nonclickable": false,
      "openNewTab": false,
      "borderArticle": "border-color:#0074D9;",
      "borderTopArticle": "border-top-color:#0074D9;",
      "imageListing": "/sites/globe.com.ph/files/content/dam/globe/brie/AboutUs/newsroom/business/vigilance-cybersecurity-threats/newsroom-template-thumbnail-listing.jpg",
      "articleUrl": "https://www.globe.com.ph/about-us/newsroom/business/vigilance-cybersecurity-threats.html",
      "columnType": "articles--type-3",
      "typeListing": "article",
      "imageMobile": "/sites/globe.com.ph/files/content/dam/globe/brie/AboutUs/newsroom/business/vigilance-cybersecurity-threats/newsroom-template-primary-thumbnail-m.jpg",
      "imageDesktop": "/sites/globe.com.ph/files/content/dam/globe/brie/AboutUs/newsroom/business/vigilance-cybersecurity-threats/newsroom-template-primary-thumbnail-d.jpg",
      "description": "Globe encourages companies to raise vigilance against cybercriminals taking advantage of the COVID-19 crisis",
      "datePosted": "Mar 31, 2020 | 05:24 PM",
      "titleFromTag": "Business"
    },
    {
      "title": "KonsultaMD Provides 30-Day Free Public Access to Medical Advice",
      "nonclickable": false,
      "openNewTab": false,
      "borderArticle": "border-color:#0074D9;",
      "borderTopArticle": "border-top-color:#0074D9;",
      "imageListing": "/sites/globe.com.ph/files/content/dam/globe/brie/AboutUs/newsroom/partners/konsultamd-free-access-medical-advice/newsroom-konsulta-md-thumbnail-listing.jpg",
      "articleUrl": "https://www.globe.com.ph/about-us/newsroom/partners/konsultamd-free-access-medical-advice.html",
      "columnType": "articles--type-3",
      "typeListing": "article",
      "imageMobile": "/sites/globe.com.ph/files/content/dam/globe/brie/AboutUs/newsroom/partners/konsultamd-free-access-medical-advice/newsroom-konsulta-md-primary-thumbnail-m.jpg",
      "imageDesktop": "/sites/globe.com.ph/files/content/dam/globe/brie/AboutUs/newsroom/partners/konsultamd-free-access-medical-advice/newsroom-konsulta-md-primary-thumbnail-d.jpg",
      "description": "KonsultaMD is offering the public a 30-day free access to medical advice to complement existing government efforts in managing the COVID-19 pandemic.",
      "datePosted": "Mar 30, 2020 | 11:32 AM",
      "titleFromTag": "Partners"
    }
  ]
}
