{
  "status": 200,
  "page": 187,
  "totalPage": 298,
  "range": "2233-2244",
  "total": 3573,
  "result": [
    {
      "title": "Keeping the Network Running for People to Remain Connected",
      "nonclickable": false,
      "openNewTab": false,
      "borderArticle": "border-color:#0074D9;",
      "borderTopArticle": "border-top-color:#0074D9;",
      "imageListing": "/sites/globe.com.ph/files/content/dam/globe/brie/AboutUs/newsroom/corporate/keeping-network-running/newsroom-corporate-thumbnail-listing.jpg",
      "articleUrl": "https://www.globe.com.ph/about-us/newsroom/corporate/keeping-network-running.html",
      "columnType": "articles--type-3",
      "typeListing": "article",
      "imageMobile": "/sites/globe.com.ph/files/content/dam/globe/brie/AboutUs/newsroom/corporate/keeping-network-running/newsroom-corporate-primary-thumbnail-m.jpg",
      "imageDesktop": "/sites/globe.com.ph/files/content/dam/globe/brie/AboutUs/newsroom/corporate/keeping-network-running/newsroom-corporate-primary-thumbnail-d.jpg",
      "description": "Globe continue to deploy its critical skeletal force so that those at home may remain productive, connected, and informed. Visit Globe Newsroom for more.",
      "datePosted": "Mar 30, 2020 | 09:00 AM",
      "titleFromTag": "Corporate"
    },
    {
      "title": "Learn at Home: Globe myBusiness Launches E-Learning Webinar for Educators",
      "nonclickable": false,
      "openNewTab": false,
      "borderArticle": "border-color:#0074D9;",
      "borderTopArticle": "border-top-color:#0074D9;",
      "imageListing": "/sites/globe.com.ph/files/content/dam/globe/brie/AboutUs/newsroom/business/globe-mybusiness-e-learning-webinar/newsroom-business-thumbnail-listing.jpg",
      "articleUrl": "https://www.globe.com.ph/about-us/newsroom/business/globe-mybusiness-e-learning-webinar.html",
      "columnType": "articles--type-3",
      "typeListing": "article",
      "imageMobile": "/sites/globe.com.ph/files/content/dam/globe/brie/AboutUs/newsroom/business/globe-mybusiness-e-learning-webinar/newsroom-business-primary-thumbnail-m.jpg",
      "imageDesktop": "/sites/globe.com.ph/files/content/dam/globe/brie/AboutUs/newsroom/business/globe-mybusiness-e-learning-webinar/newsroom-business-primary-thumbnail-d.jpg",
      "description": "The E-Skwela webinar will discuss the integration of current learning technologies in the school system during the COVID-19 crisis.",
      "datePosted": "Mar 29, 2020 | 10:01 AM",
      "titleFromTag": "Business"
    },
    {
      "title": "DOTr, Globe Launch COVID-19 Hotlines",
      "nonclickable": false,
      "openNewTab": false,
      "borderArticle": "border-color:#0074D9;",
      "borderTopArticle": "border-top-color:#0074D9;",
      "imageListing": "/sites/globe.com.ph/files/content/dam/globe/brie/AboutUs/newsroom/corporate/dotr-covid-19-hotlines/newsroom-template-thumbnail-listing.jpg",
      "articleUrl": "https://www.globe.com.ph/about-us/newsroom/corporate/dotr-covid-19-hotlines.html",
      "columnType": "articles--type-3",
      "typeListing": "article",
      "imageMobile": "/sites/globe.com.ph/files/content/dam/globe/brie/AboutUs/newsroom/corporate/dotr-covid-19-hotlines/newsroom-template-primary-thumbnail-m.jpg",
      "imageDesktop": "/sites/globe.com.ph/files/content/dam/globe/brie/AboutUs/newsroom/corporate/dotr-covid-19-hotlines/newsroom-template-primary-thumbnail-d.jpg",
      "description": "The Department of Transportation (DOTr) through its Emergency Operations Center (EOC) has launched the DOTr COVID-19 hotlines in partnership with Globe Telecom.",
      "datePosted": "Mar 27, 2020 | 02:21 PM",
      "titleFromTag": "Corporate"
    },
    {
      "title": "Globe Turns Over P14M in Cash Donation to PGH for Purchase of Medical Supplies and Personal Protective Equipment",
      "nonclickable": false,
      "openNewTab": false,
      "borderArticle": "border-color:#0074D9;",
      "borderTopArticle": "border-top-color:#0074D9;",
      "imageListing": "/sites/globe.com.ph/files/content/dam/globe/brie/AboutUs/newsroom/citizenship/globe-turns-over-14m-donation-pgh/newsroom-template-Newsroom Citizenshipthumbnail-listing.jpg",
      "articleUrl": "https://www.globe.com.ph/about-us/newsroom/citizenship/globe-turns-over-14m-donation-pgh.html",
      "columnType": "articles--type-3",
      "typeListing": "article",
      "imageMobile": "/sites/globe.com.ph/files/content/dam/globe/brie/AboutUs/newsroom/citizenship/globe-turns-over-14m-donation-pgh/newsroom-template-Newsroom Citizenshipprimary-thumbnail-m.jpg",
      "imageDesktop": "/sites/globe.com.ph/files/content/dam/globe/brie/AboutUs/newsroom/citizenship/globe-turns-over-14m-donation-pgh/updates/newsroom-template-Newsroom Citizenshipprimary-thumbnail-d.jpg",
      "description": "Globe successfully raised and turned over P14M to the PGH Medical Foundation, Inc. Visit Globe Newsroom for more.",
      "datePosted": "Mar 25, 2020 | 09:33 AM",
      "titleFromTag": "Citizenship"
    },
    {
      "title": "COVID-19 Outbreak Jumpstarts Adoption of Telecommuting, Increases Demand for Telecom Services",
      "nonclickable": false,
      "openNewTab": false,
      "borderArticle": "border-color:#0074D9;",
      "borderTopArticle": "border-top-color:#0074D9;",
      "imageListing": "/sites/globe.com.ph/files/content/dam/globe/brie/AboutUs/newsroom/common/default-2/default-business-2-thumbnail-listing.jpg",
      "articleUrl": "https://www.globe.com.ph/about-us/newsroom/business/covid-19-jumpstarts-telecommuting-adoption.html",
      "columnType": "articles--type-3",
      "typeListing": "article",
      "imageMobile": "/sites/globe.com.ph/files/content/dam/globe/brie/AboutUs/newsroom/common/default-2/default-business-2-primary-thumbnail-m.jpg",
      "imageDesktop": "/sites/globe.com.ph/files/content/dam/globe/brie/AboutUs/newsroom/common/default-2/default-business-2-primary-thumbnail-d.jpg",
      "description": "The rise in COVID-19 cases has forced businesses to adopt telecommuting, raising mobile data and broadband connectivity demands. Visit Globe Newsroom for more.",
      "datePosted": "Mar 23, 2020 | 01:01 PM",
      "titleFromTag": "Business"
    },
    {
      "title": "Globe Postpaid Customers May Suspend Their Monthly Spending Limit",
      "nonclickable": false,
      "openNewTab": false,
      "borderArticle": "border-color:#0074D9;",
      "borderTopArticle": "border-top-color:#0074D9;",
      "imageListing": "/sites/globe.com.ph/files/content/dam/globe/brie/AboutUs/newsroom/consumer/postpaid-customers-spending-limit-suspension/postpaid-customers-spending-limit-suspension-thumbnail-listing.jpg",
      "articleUrl": "https://www.globe.com.ph/about-us/newsroom/consumer/postpaid-customers-spending-limit-suspension.html",
      "columnType": "articles--type-3",
      "typeListing": "article",
      "imageMobile": "/sites/globe.com.ph/files/content/dam/globe/brie/AboutUs/newsroom/consumer/postpaid-customers-spending-limit-suspension/postpaid-customers-spending-limit-suspension-primary-thumbnail-m.jpg",
      "imageDesktop": "/sites/globe.com.ph/files/content/dam/globe/brie/AboutUs/newsroom/consumer/postpaid-customers-spending-limit-suspension/postpaid-customers-spending-limit-suspension-primary-thumbnail-d.jpg",
      "description": "Globe is giving its Postpaid and Platinum customers an option to suspend their monthly spending limit. Visit Globe Newsroom for more.",
      "datePosted": "Mar 23, 2020 | 09:00 AM",
      "titleFromTag": "Consumer"
    },
    {
      "title": "Globe Gives Data Boost with Globe At Home Prepaid WiFi's HomeSURF199",
      "nonclickable": false,
      "openNewTab": false,
      "borderArticle": "border-color:#0074D9;",
      "borderTopArticle": "border-top-color:#0074D9;",
      "imageListing": "/sites/globe.com.ph/files/content/dam/globe/brie/AboutUs/newsroom/consumer/homesurf199-gets-data-boost/newsroom-template-HomeSURF199thumbnail-listing.jpg",
      "articleUrl": "https://www.globe.com.ph/about-us/newsroom/consumer/homesurf199-gets-data-boost.html",
      "columnType": "articles--type-3",
      "typeListing": "article",
      "imageMobile": "/sites/globe.com.ph/files/content/dam/globe/brie/AboutUs/newsroom/consumer/homesurf199-gets-data-boost/newsroom-template-HomeSURF199primary-thumbnail-m.jpg",
      "imageDesktop": "/sites/globe.com.ph/files/content/dam/globe/brie/AboutUs/newsroom/consumer/homesurf199-gets-data-boost/newsroom-template-HomeSURF199primary-thumbnail-d.jpg",
      "description": "HomeSURF199 will receive a big data boost, so you need not worry about your data allocation running-out, and have a more worry-free stay at home.",
      "datePosted": "Mar 22, 2020 | 10:11 AM",
      "titleFromTag": "Consumer"
    },
    {
      "title": "Public Advisory: List of Globe Toll-Free Emergency Hotlines & Free WiFi Services",
      "nonclickable": false,
      "openNewTab": false,
      "borderArticle": "border-color:#0074D9;",
      "borderTopArticle": "border-top-color:#0074D9;",
      "imageListing": "/sites/globe.com.ph/files/content/dam/globe/brie/AboutUs/newsroom/corporate/toll-free-emergency-hotlines-free-wifi/newsroom-template-Toll Freethumbnail-listing.jpg",
      "articleUrl": "https://www.globe.com.ph/about-us/newsroom/corporate/toll-free-emergency-hotlines-free-wifi.html",
      "columnType": "articles--type-3",
      "typeListing": "article",
      "imageMobile": "/sites/globe.com.ph/files/content/dam/globe/brie/AboutUs/newsroom/corporate/toll-free-emergency-hotlines-free-wifi/newsroom-template-Toll Freeprimary-thumbnail-m.jpg",
      "imageDesktop": "/sites/globe.com.ph/files/content/dam/globe/brie/AboutUs/newsroom/corporate/toll-free-emergency-hotlines-free-wifi/newsroom-template-Toll Freeprimary-thumbnail-d.jpg",
      "description": "Here's a list of all toll-free emergency hotlines as well as free WiFi services from Globe.",
      "datePosted": "Mar 21, 2020 | 04:15 PM",
      "titleFromTag": "Corporate"
    },
    {
      "title": "Globe Acknowledges LGUs in Efforts to Build Cell Towers Across the Country",
      "nonclickable": false,
      "openNewTab": false,
      "borderArticle": "border-color:#0074D9;",
      "borderTopArticle": "border-top-color:#0074D9;",
      "imageListing": "/sites/globe.com.ph/files/content/dam/globe/brie/AboutUs/newsroom/common/default-5/corporate-default-6-thumbnail-listing.jpg",
      "articleUrl": "https://www.globe.com.ph/about-us/newsroom/corporate/lgus-supporting-more-cell-sites.html",
      "columnType": "articles--type-3",
      "typeListing": "article",
      "imageMobile": "/sites/globe.com.ph/files/content/dam/globe/brie/AboutUs/newsroom/common/default-5/corporate-default-6-primary-thumbnail-m.jpg",
      "imageDesktop": "/sites/globe.com.ph/files/content/dam/globe/brie/AboutUs/newsroom/common/default-5/corporate-default-6-primary-thumbnail-d.jpg",
      "description": "Globe recognizes the LGUs who supported its efforts to build more cell sites to meet resurging demand for telecom services. Visit Globe Newsroom for more.",
      "datePosted": "Mar 20, 2020 | 02:08 PM",
      "titleFromTag": "Corporate"
    },
    {
      "title": "Globe Strengthens Efforts to Aid Healthcare Frontliners with P5M Donation via Globe Rewards",
      "nonclickable": false,
      "openNewTab": false,
      "borderArticle": "border-color:#0074D9;",
      "borderTopArticle": "border-top-color:#0074D9;",
      "imageListing": "/sites/globe.com.ph/files/content/dam/globe/brie/AboutUs/newsroom/citizenship/globe-aids-healthcare-5m-donation-rewards/newsroom-template-thumbnail-listing.jpg",
      "articleUrl": "https://www.globe.com.ph/about-us/newsroom/citizenship/globe-aids-healthcare-5m-donation-rewards.html",
      "columnType": "articles--type-3",
      "typeListing": "article",
      "imageMobile": "/sites/globe.com.ph/files/content/dam/globe/brie/AboutUs/newsroom/citizenship/globe-aids-healthcare-5m-donation-rewards/newsroom-template-primary-thumbnail-m.jpg",
      "imageDesktop": "/sites/globe.com.ph/files/content/dam/globe/brie/AboutUs/newsroom/citizenship/globe-aids-healthcare-5m-donation-rewards/newsroom-template-primary-thumbnail-d.jpg",
      "description": "Globe customers can join the fight against COVID-19 by donating Globe Rewards points to PGH Medical Foundation, Inc. Visit Globe Newsroom for more.",
      "datePosted": "Mar 20, 2020 | 09:45 AM",
      "titleFromTag": "Citizenship"
    },
    {
      "title": "Globe Extends Free Unli WiFi to Airports, Select Supermarkets Nationwide",
      "nonclickable": false,
      "openNewTab": false,
      "borderArticle": "border-color:#0074D9;",
      "borderTopArticle": "border-top-color:#0074D9;",
      "imageListing": "/sites/globe.com.ph/files/content/dam/globe/brie/AboutUs/newsroom/corporate/free-unli-wifi-extended-airports-supermarkets/newsroom-template-thumbnail-listing.jpg",
      "articleUrl": "https://www.globe.com.ph/about-us/newsroom/corporate/free-unli-wifi-extended-airports-supermarkets.html",
      "columnType": "articles--type-3",
      "typeListing": "article",
      "imageMobile": "/sites/globe.com.ph/files/content/dam/globe/brie/AboutUs/newsroom/corporate/free-unli-wifi-extended-airports-supermarkets/newsroom-template-primary-thumbnail-m.jpg",
      "imageDesktop": "/sites/globe.com.ph/files/content/dam/globe/brie/AboutUs/newsroom/corporate/free-unli-wifi-extended-airports-supermarkets/newsroom-template-primary-thumbnail-d.jpg",
      "description": "Globe extends free, unlimited GoWiFi to NAIA Terminals 1, 2 and 3, and select supermarkets and grocery stores nationwide. Visit Globe Newsroom for more.",
      "datePosted": "Mar 20, 2020 | 09:00 AM",
      "titleFromTag": "Corporate"
    },
    {
      "title": "Telemedicine Seen to Assist in Limiting Spread of COVID-19 and Decongesting Hospitals",
      "nonclickable": false,
      "openNewTab": false,
      "borderArticle": "border-color:#0074D9;",
      "borderTopArticle": "border-top-color:#0074D9;",
      "imageListing": "/sites/globe.com.ph/files/content/dam/globe/brie/business/enterprise/Blog/Make-Your-Hospital-More-Efficient-with-Healthcare-Data-Storage-in-the-Cloud/oct-24-updates/EG-hospital-cloud-Blog-thumbnail-listing.jpg",
      "articleUrl": "https://www.globe.com.ph/about-us/newsroom/partners/telemedicine-limiting-covid-19-spread.html",
      "columnType": "articles--type-3",
      "typeListing": "article",
      "imageMobile": "/sites/globe.com.ph/files/content/dam/globe/brie/business/enterprise/Blog/Make-Your-Hospital-More-Efficient-with-Healthcare-Data-Storage-in-the-Cloud/oct-24-updates/eg-hospital-cloud-blog-m.jpg",
      "imageDesktop": "/sites/globe.com.ph/files/content/dam/globe/brie/business/enterprise/Blog/Make-Your-Hospital-More-Efficient-with-Healthcare-Data-Storage-in-the-Cloud/oct-24-updates/EG-hospital-cloud-Blog-primary-thumbnail.jpg",
      "description": "Filipinos may use telemedicine via KonsultaMD to get medical advice and prevent the spread of COVID-19. Visit the Globe Newsroom for more.",
      "datePosted": "Mar 19, 2020 | 10:02 AM",
      "titleFromTag": "Partners"
    }
  ]
}
