{
  "status": 200,
  "page": 188,
  "totalPage": 298,
  "range": "2245-2256",
  "total": 3573,
  "result": [
    {
      "title": "Public Advisory on Circulating Social Media Post on Free EASYSURF299",
      "nonclickable": false,
      "openNewTab": false,
      "borderArticle": "border-color:#0074D9;",
      "borderTopArticle": "border-top-color:#0074D9;",
      "imageListing": "/sites/globe.com.ph/files/content/dam/globe/brie/AboutUs/newsroom/common/updated/Corporate-globe-thumbnail-listing.jpg",
      "articleUrl": "https://www.globe.com.ph/about-us/newsroom/corporate/prank-social-post-easysurf299.html",
      "columnType": "articles--type-3",
      "typeListing": "article",
      "imageMobile": "/sites/globe.com.ph/files/content/dam/globe/brie/AboutUs/newsroom/common/updated/Corporate-globe-primary-thumbnail-m.jpg",
      "imageDesktop": "/sites/globe.com.ph/files/content/dam/globe/brie/AboutUs/newsroom/common/updated/Corporate-globe-primary-thumbnail-d.jpg",
      "description": "Please be careful of a circulating prank post on Facebook and Twitter about how to get FREE EASYSURF299 from Globe. Visit Globe Newsroom for more.",
      "datePosted": "Mar 18, 2020 | 02:26 PM",
      "titleFromTag": "Corporate"
    },
    {
      "title": "Leverage Digital Technology to Reduce Risk of Viral Transmission–GCash",
      "nonclickable": false,
      "openNewTab": false,
      "borderArticle": "border-color:#0074D9;",
      "borderTopArticle": "border-top-color:#0074D9;",
      "imageListing": "/sites/globe.com.ph/files/content/dam/globe/brie/AboutUs/newsroom/partners/gcash-leverage-digital-tech-reduce-risk-viral-transmission/newsroom-template-thumbnail-listing.jpg",
      "articleUrl": "https://www.globe.com.ph/about-us/newsroom/partners/gcash-leverage-digital-tech-reduce-risk-viral-transmission.html",
      "columnType": "articles--type-3",
      "typeListing": "article",
      "imageMobile": "/sites/globe.com.ph/files/content/dam/globe/brie/AboutUs/newsroom/partners/gcash-leverage-digital-tech-reduce-risk-viral-transmission/newsroom-template-primary-thumbnail-m.jpg",
      "imageDesktop": "/sites/globe.com.ph/files/content/dam/globe/brie/AboutUs/newsroom/partners/gcash-leverage-digital-tech-reduce-risk-viral-transmission/newsroom-template-primary-thumbnail-d.jpg",
      "description": "GCash encourages Filipinos to adopt a more digital lifestyle to help lessen the risk of COVID-19 viral transmissions. Visit Globe Newsroom for more.",
      "datePosted": "Mar 17, 2020 | 11:48 AM",
      "titleFromTag": "Partners"
    },
    {
      "title": "#FightCOVID19: GCash Users May Now Support Frontline Health Workers and Hospitals via Fintech Platform",
      "nonclickable": false,
      "openNewTab": false,
      "borderArticle": "border-color:#0074D9;",
      "borderTopArticle": "border-top-color:#0074D9;",
      "imageListing": "/sites/globe.com.ph/files/content/dam/globe/brie/AboutUs/newsroom/common/default-4/default-consumer-3-thumbnail-listing.jpg",
      "articleUrl": "https://www.globe.com.ph/about-us/newsroom/partners/gcash-users-donate-to-fight-covid-19.html",
      "columnType": "articles--type-3",
      "typeListing": "article",
      "imageMobile": "/sites/globe.com.ph/files/content/dam/globe/brie/AboutUs/newsroom/common/default-4/default-consumer-3-primary-thumbnail-m.jpg",
      "imageDesktop": "/sites/globe.com.ph/files/content/dam/globe/brie/AboutUs/newsroom/common/default-4/default-consumer-3-primary-thumbnail-d.jpg",
      "description": "The donation drive will enable GCash users to support health workers and hospitals to #FightCOVID19. Visit the Globe Newsroom for more.",
      "datePosted": "Mar 17, 2020 | 09:19 AM",
      "titleFromTag": "Partners"
    },
    {
      "title": "Globe Extends Free Unli WiFi Services to More Hospitals Nationwide",
      "nonclickable": false,
      "openNewTab": false,
      "borderArticle": "border-color:#0074D9;",
      "borderTopArticle": "border-top-color:#0074D9;",
      "imageListing": "/sites/globe.com.ph/files/content/dam/globe/brie/AboutUs/newsroom/common/updated/Corporate-globe-thumbnail-listing.jpg",
      "articleUrl": "https://www.globe.com.ph/about-us/newsroom/corporate/free-unli-wifi-extended-more-hospitals.html",
      "columnType": "articles--type-3",
      "typeListing": "article",
      "imageMobile": "/sites/globe.com.ph/files/content/dam/globe/brie/AboutUs/newsroom/common/updated/Corporate-globe-primary-thumbnail-m.jpg",
      "imageDesktop": "/sites/globe.com.ph/files/content/dam/globe/brie/AboutUs/newsroom/common/updated/Corporate-globe-primary-thumbnail-d.jpg",
      "description": "Globe extends GoWiFi services to more hospitals as more COVID-19 cases are being confirmed outside Metro Manila. Visit Globe Newsroom for more.",
      "datePosted": "Mar 17, 2020 | 09:00 AM",
      "titleFromTag": "Corporate"
    },
    {
      "title": "Globe Provides 30-Day Bill Payment Extension for All Its Postpaid Customers Nationwide",
      "nonclickable": false,
      "openNewTab": false,
      "borderArticle": "border-color:#0074D9;",
      "borderTopArticle": "border-top-color:#0074D9;",
      "imageListing": "/sites/globe.com.ph/files/content/dam/globe/brie/AboutUs/newsroom/common/updated/Corporate-globe-thumbnail-listing.jpg",
      "articleUrl": "https://www.globe.com.ph/about-us/newsroom/corporate/30-day-bill-payment-extension-postpaid.html",
      "columnType": "articles--type-3",
      "typeListing": "article",
      "imageMobile": "/sites/globe.com.ph/files/content/dam/globe/brie/AboutUs/newsroom/common/updated/Corporate-globe-primary-thumbnail-m.jpg",
      "imageDesktop": "/sites/globe.com.ph/files/content/dam/globe/brie/AboutUs/newsroom/common/updated/Corporate-globe-primary-thumbnail-d.jpg",
      "description": "In light of the COVID-19 situation, Globe is giving all postpaid clients extra 30 days to settle their monthly bills. Visit Globe Newsroom for more.",
      "datePosted": "Mar 16, 2020 | 10:34 AM",
      "titleFromTag": "Corporate"
    },
    {
      "title": "Globe Provides Free Unlimited WiFi in Select Hospitals in Metro Manila Amid COVID-19 Spread",
      "nonclickable": false,
      "openNewTab": false,
      "borderArticle": "border-color:#0074D9;",
      "borderTopArticle": "border-top-color:#0074D9;",
      "imageListing": "/sites/globe.com.ph/files/content/dam/globe/brie/AboutUs/newsroom/common/updated/Corporate-globe-thumbnail-listing.jpg",
      "articleUrl": "https://www.globe.com.ph/about-us/newsroom/corporate/free-unli-wifi-metro-manila-hospitals-covid-19.html",
      "columnType": "articles--type-3",
      "typeListing": "article",
      "imageMobile": "/sites/globe.com.ph/files/content/dam/globe/brie/AboutUs/newsroom/common/updated/Corporate-globe-primary-thumbnail-m.jpg",
      "imageDesktop": "/sites/globe.com.ph/files/content/dam/globe/brie/AboutUs/newsroom/common/updated/Corporate-globe-primary-thumbnail-d.jpg",
      "description": "Globe is providing free and unlimited internet connection via its GoWiFi services at select hospitals in Metro Manila. Visit Globe Newsroom for more.",
      "datePosted": "Mar 13, 2020 | 05:50 PM",
      "titleFromTag": "Corporate"
    },
    {
      "title": "Globe At Home Activates Stringent Health and Safety Measures for Installers and Frontline Workers Amid COVID-19 Spread",
      "nonclickable": false,
      "openNewTab": false,
      "borderArticle": "border-color:#0074D9;",
      "borderTopArticle": "border-top-color:#0074D9;",
      "imageListing": "/sites/globe.com.ph/files/content/dam/globe/brie/AboutUs/newsroom/consumer/globe-at-home-safety-measures-frontliner-workers-covid-19/consumer-Globe-At-Home-Activates-Stringent-Health-and-Safety-Measures-thumbnail-listing.jpg",
      "articleUrl": "https://www.globe.com.ph/about-us/newsroom/consumer/globe-at-home-safety-measures-frontliner-workers-covid-19.html",
      "columnType": "articles--type-3",
      "typeListing": "article",
      "imageMobile": "/sites/globe.com.ph/files/content/dam/globe/brie/AboutUs/newsroom/consumer/globe-at-home-safety-measures-frontliner-workers-covid-19/consumer-Globe-At-Home-Activates-Stringent-Health-and-Safety-Measures-primary-thumbnail-m.jpg",
      "imageDesktop": "/sites/globe.com.ph/files/content/dam/globe/brie/AboutUs/newsroom/consumer/globe-at-home-safety-measures-frontliner-workers-covid-19/consumer-Globe-At-Home-Activates-Stringent-Health-and-Safety-Measures-primary-thumbnail-d.jpg",
      "description": "Given the spread of COVID-19, Globe at Home ensures the customers' safety thru strict protocols for all its frontline personnel. Visit Globe Newsroom for more.",
      "datePosted": "Mar 12, 2020 | 06:17 PM",
      "titleFromTag": "Consumer"
    },
    {
      "title": "Globe myBusiness Champions Data Security for SMEs in South Mindanao With Data Privacy Awareness Workshop",
      "nonclickable": false,
      "openNewTab": false,
      "borderArticle": "border-color:#0074D9;",
      "borderTopArticle": "border-top-color:#0074D9;",
      "imageListing": "/sites/globe.com.ph/files/content/dam/globe/brie/AboutUs/newsroom/corporate/globe-mybusiness-champions-data-security-to-south-minadano-sme/corporate-SMEs-in-South-Mindanao-With-Data-Privacy-Awareness-Workshop-thumbnail-listing.jpg",
      "articleUrl": "https://www.globe.com.ph/about-us/newsroom/corporate/globe-mybusiness-champions-data-security-to-south-minadano-sme.html",
      "columnType": "articles--type-3",
      "typeListing": "article",
      "imageMobile": "/sites/globe.com.ph/files/content/dam/globe/brie/AboutUs/newsroom/corporate/globe-mybusiness-champions-data-security-to-south-minadano-sme/corporate-SMEs-in-South-Mindanao-With-Data-Privacy-Awareness-Workshop-primary-thumbnail-m.jpg",
      "imageDesktop": "/sites/globe.com.ph/files/content/dam/globe/brie/AboutUs/newsroom/corporate/globe-mybusiness-champions-data-security-to-south-minadano-sme/corporate-SMEs-in-South-Mindanao-With-Data-Privacy-Awareness-Workshop-primary-thumbnail-d.jpg",
      "description": "Globe myBusiness held a Data Privacy Awareness workshop in Davao to help South Mindanao businesses improve their data security. Visit Globe Newsroom for more.",
      "datePosted": "Mar 12, 2020 | 01:58 PM",
      "titleFromTag": "Corporate"
    },
    {
      "title": "Amid COVID-19 Scare: KonsultaMD Offers Zero-Rated Globe, TM Mobile Access to Telehealth Hotline",
      "nonclickable": false,
      "openNewTab": false,
      "borderArticle": "border-color:#0074D9;",
      "borderTopArticle": "border-top-color:#0074D9;",
      "imageListing": "/sites/globe.com.ph/files/content/dam/globe/brie/AboutUs/newsroom/consumer/konsultamd-offers-free-telehealth-access/consumer-KonsultaMD-Offers-Zero-Rated-Globe-TM-Mobile-Access-to-Telehealth-Hotline-thumbnail-listing.jpg",
      "articleUrl": "https://www.globe.com.ph/about-us/newsroom/consumer/konsultamd-offers-free-telehealth-access.html",
      "columnType": "articles--type-3",
      "typeListing": "article",
      "imageMobile": "/sites/globe.com.ph/files/content/dam/globe/brie/AboutUs/newsroom/consumer/konsultamd-offers-free-telehealth-access/consumer-KonsultaMD-Offers-Zero-Rated-Globe-TM-Mobile-Access-to-Telehealth-Hotline-primary-thumbnail-m.jpg",
      "imageDesktop": "/sites/globe.com.ph/files/content/dam/globe/brie/AboutUs/newsroom/consumer/konsultamd-offers-free-telehealth-access/consumer-KonsultaMD-Offers-Zero-Rated-Globe-TM-Mobile-Access-to-Telehealth-Hotline-primary-thumbnail-d.jpg",
      "description": "Globe and TM customers who subscribed to KonsultaMD may now call a doctor via the 79880 telehealth hotline for free. Visit Globe Newsroom for more.",
      "datePosted": "Mar 11, 2020 | 12:27 PM",
      "titleFromTag": "Consumer"
    },
    {
      "title": "Alex Eala Wins First-Ever Professional Match",
      "nonclickable": false,
      "openNewTab": false,
      "borderArticle": "border-color:#0074D9;",
      "borderTopArticle": "border-top-color:#0074D9;",
      "imageListing": "/sites/globe.com.ph/files/content/dam/globe/brie/AboutUs/newsroom/consumer/alex-eala-wins-first-pro-match/consumer-Alex-Eala-Wins-First-Ever-Professional-Match-thumbnail-listing.jpg",
      "articleUrl": "https://www.globe.com.ph/about-us/newsroom/consumer/alex-eala-wins-first-pro-match.html",
      "columnType": "articles--type-3",
      "typeListing": "article",
      "imageMobile": "/sites/globe.com.ph/files/content/dam/globe/brie/AboutUs/newsroom/consumer/alex-eala-wins-first-pro-match/consumer-Alex-Eala-Wins-First-Ever-Professional-Match-primary-thumbnail-m.jpg",
      "imageDesktop": "/sites/globe.com.ph/files/content/dam/globe/brie/AboutUs/newsroom/consumer/alex-eala-wins-first-pro-match/consumer-Alex-Eala-Wins-First-Ever-Professional-Match-primary-thumbnail-d.jpg",
      "description": "Globe Ambassador Alex Eala beat Nadia Echeverria Alam in three sets to win her first-ever professional match. Visit Globe Newsroom for more.",
      "datePosted": "Mar 09, 2020 | 12:27 PM",
      "titleFromTag": "Consumer"
    },
    {
      "title": "Globe Public Advisory on Cybersecurity",
      "nonclickable": false,
      "openNewTab": false,
      "borderArticle": "border-color:#0074D9;",
      "borderTopArticle": "border-top-color:#0074D9;",
      "imageListing": "/sites/globe.com.ph/files/content/dam/globe/brie/AboutUs/newsroom/common/updated/Corporate-globe-thumbnail-listing.jpg",
      "articleUrl": "https://www.globe.com.ph/about-us/newsroom/consumer/globe-public-advisory-covid-19.html",
      "columnType": "articles--type-3",
      "typeListing": "article",
      "imageMobile": "/sites/globe.com.ph/files/content/dam/globe/brie/AboutUs/newsroom/common/updated/Corporate-globe-primary-thumbnail-m.jpg",
      "imageDesktop": "/sites/globe.com.ph/files/content/dam/globe/brie/AboutUs/newsroom/common/updated/Corporate-globe-primary-thumbnail-d.jpg",
      "description": "Globe would like to remind the public to be aware of phishing and malicious campaigns taking advantage of the COVID-19 situation. Visit Globe Newsroom for more.",
      "datePosted": "Mar 08, 2020 | 09:30 AM",
      "titleFromTag": "Consumer"
    },
    {
      "title": "Globe Powers Pampanga Municipality With More Affordable WiFi Services",
      "nonclickable": false,
      "openNewTab": false,
      "borderArticle": "border-color:#0074D9;",
      "borderTopArticle": "border-top-color:#0074D9;",
      "imageListing": "/sites/globe.com.ph/files/content/dam/globe/brie/AboutUs/newsroom/partners/globe-powers-pampanga-municipality-with-wifi/partners-Globe-Powers-Pampanga-Municipality-With-More-Affordable-WiFi-Services-thumbnail-listing.jpg",
      "articleUrl": "https://www.globe.com.ph/about-us/newsroom/partners/globe-powers-pampanga-municipality-with-wifi.html",
      "columnType": "articles--type-3",
      "typeListing": "article",
      "imageMobile": "/sites/globe.com.ph/files/content/dam/globe/brie/AboutUs/newsroom/partners/globe-powers-pampanga-municipality-with-wifi/partners-Globe-Powers-Pampanga-Municipality-With-More-Affordable-WiFi-Services-primary-thumbnail-m.jpg",
      "imageDesktop": "/sites/globe.com.ph/files/content/dam/globe/brie/AboutUs/newsroom/partners/globe-powers-pampanga-municipality-with-wifi/partners-Globe-Powers-Pampanga-Municipality-With-More-Affordable-WiFi-Services-primary-thumbnail-d.jpg",
      "description": "Globe takes its mission of accelerating the country's digital transformation to one of the heartlands of Luzon - Pampanga. Visit Globe Newsroom for more.",
      "datePosted": "Mar 06, 2020 | 05:46 PM",
      "titleFromTag": "Partners"
    }
  ]
}
