{
  "status": 200,
  "page": 189,
  "totalPage": 298,
  "range": "2257-2268",
  "total": 3573,
  "result": [
    {
      "title": "Globe Platinum Celebrates 100 Years of PH Film at Art Fair 2020",
      "nonclickable": false,
      "openNewTab": false,
      "borderArticle": "border-color:#0074D9;",
      "borderTopArticle": "border-top-color:#0074D9;",
      "imageListing": "/sites/globe.com.ph/files/content/dam/globe/brie/AboutUs/newsroom/consumer/globe-platinum-celebrates-100-years-ph-film/consumer-Globe-Platinum-Celebrates-100-Years-of-PH-Film-at-Art-Fair-2020-thumbnail-listing.jpg",
      "articleUrl": "https://www.globe.com.ph/about-us/newsroom/consumer/globe-platinum-celebrates-100-years-ph-film.html",
      "columnType": "articles--type-3",
      "typeListing": "article",
      "imageMobile": "/sites/globe.com.ph/files/content/dam/globe/brie/AboutUs/newsroom/consumer/globe-platinum-celebrates-100-years-ph-film/consumer-Globe-Platinum-Celebrates-100-Years-of-PH-Film-at-Art-Fair-2020-primary-thumbnail-m.jpg",
      "imageDesktop": "/sites/globe.com.ph/files/content/dam/globe/brie/AboutUs/newsroom/consumer/globe-platinum-celebrates-100-years-ph-film/consumer-Globe-Platinum-Celebrates-100-Years-of-PH-Film-at-Art-Fair-2020-primary-thumbnail-d.jpg",
      "description": "Globe Platinum celebrates the ingenious past, present, and future of Philippine film at Art Fair 2020. Visit Globe Newsroom for more.",
      "datePosted": "Mar 06, 2020 | 01:33 PM",
      "titleFromTag": "Consumer"
    },
    {
      "title": "Globe to Provide Equal Benefits to Legal Dependents of Same-Sex Couples",
      "nonclickable": false,
      "openNewTab": false,
      "borderArticle": "border-color:#1C91C5;",
      "borderTopArticle": "border-top-color:#1C91C5;",
      "imageListing": "/sites/globe.com.ph/files/content/dam/globe/brie/AboutUs/newsroom/sustainability/globe-provide-equal-benefits-to-lgbtq-couples-legal-dependents/sustainability-Equal-Benefits-to-Legal-Dependents-of-Same-Sex-Couple-thumbnail-listing.jpg",
      "articleUrl": "https://www.globe.com.ph/about-us/newsroom/sustainability/globe-provide-equal-benefits-to-lgbtq-couples-legal-dependents.html",
      "columnType": "articles--type-3",
      "typeListing": "article",
      "imageMobile": "/sites/globe.com.ph/files/content/dam/globe/brie/AboutUs/newsroom/sustainability/globe-provide-equal-benefits-to-lgbtq-couples-legal-dependents/sustainability-Equal-Benefits-to-Legal-Dependents-of-Same-Sex-Couple-primary-thumbnail-m.jpg",
      "imageDesktop": "/sites/globe.com.ph/files/content/dam/globe/brie/AboutUs/newsroom/sustainability/globe-provide-equal-benefits-to-lgbtq-couples-legal-dependents/sustainability-Equal-Benefits-to-Legal-Dependents-of-Same-Sex-Couple-primary-thumbnail-d.jpg",
      "description": "Globe is the first company in the Philippines to extend similar benefits to dependents of its employees who come from the LGBTQ+ community.",
      "datePosted": "Mar 05, 2020 | 02:38 PM",
      "titleFromTag": "Sustainability"
    },
    {
      "title": "Globe Offers Free Data Access to DOH, PHIVOLCS, NDRRMC Websites",
      "nonclickable": false,
      "openNewTab": false,
      "borderArticle": "border-color:#0074D9;",
      "borderTopArticle": "border-top-color:#0074D9;",
      "imageListing": "/sites/globe.com.ph/files/content/dam/globe/brie/AboutUs/newsroom/consumer/globe-offers-free-data-access-doh-phivolcs-ndrrmc/consumer-Free-Data-Access-to-DOH-PHIVOLCS-NDRRMC-thumbnail-listing.jpg",
      "articleUrl": "https://www.globe.com.ph/about-us/newsroom/consumer/globe-offers-free-data-access-doh-phivolcs-ndrrmc.html",
      "columnType": "articles--type-3",
      "typeListing": "article",
      "imageMobile": "/sites/globe.com.ph/files/content/dam/globe/brie/AboutUs/newsroom/consumer/globe-offers-free-data-access-doh-phivolcs-ndrrmc/consumer-Free-Data-Access-to-DOH-PHIVOLCS-NDRRMC-primary-thumbnail-m.jpg",
      "imageDesktop": "/sites/globe.com.ph/files/content/dam/globe/brie/AboutUs/newsroom/consumer/globe-offers-free-data-access-doh-phivolcs-ndrrmc/consumer-Free-Data-Access-to-DOH-PHIVOLCS-NDRRMC-primary-thumbnail-d.jpg",
      "description": "Globe Telecom is offering free data access to websites of DOH, PHIVOLCS and NDRRMC. Visit Globe Newsroom for more.",
      "datePosted": "Mar 05, 2020 | 11:11 AM",
      "titleFromTag": "Consumer"
    },
    {
      "title": "NCSI, Mycom OSI Bag Top Accolades in Globe’s ISG Mover Awards",
      "nonclickable": false,
      "openNewTab": false,
      "borderArticle": "border-color:#0074D9;",
      "borderTopArticle": "border-top-color:#0074D9;",
      "imageListing": "/sites/globe.com.ph/files/content/dam/globe/brie/AboutUs/newsroom/corporate/ncsi-mycom-osi-isg-mover-awards/corporate-NCSI-Mycom-OSI-Bag-Top-Accolades-in-Globes-ISG-Mover-Awards-thumbnail-listing.jpg",
      "articleUrl": "https://www.globe.com.ph/about-us/newsroom/corporate/ncsi-mycom-osi-isg-mover-awards.html",
      "columnType": "articles--type-3",
      "typeListing": "article",
      "imageMobile": "/sites/globe.com.ph/files/content/dam/globe/brie/AboutUs/newsroom/corporate/ncsi-mycom-osi-isg-mover-awards/corporate-NCSI-Mycom-OSI-Bag-Top-Accolades-in-Globes-ISG-Mover-Awards-primary-thumbnail-m.jpg",
      "imageDesktop": "/sites/globe.com.ph/files/content/dam/globe/brie/AboutUs/newsroom/corporate/ncsi-mycom-osi-isg-mover-awards/corporate-NCSI-Mycom-OSI-Bag-Top-Accolades-in-Globes-ISG-Mover-Awards-primary-thumbnail-d.jpg",
      "description": "NCSI Philippines and Mycom OSI bagged the top honors in the 2019 Globe Information Services Group’s (ISG) Mover Awards.",
      "datePosted": "Mar 02, 2020 | 12:01 PM",
      "titleFromTag": "Corporate"
    },
    {
      "title": "Globe, BPI Foundation to Promote Financial Education in Public Schools Nationwide",
      "nonclickable": false,
      "openNewTab": false,
      "borderArticle": "border-color:#0074D9;",
      "borderTopArticle": "border-top-color:#0074D9;",
      "imageListing": "/sites/globe.com.ph/files/content/dam/globe/brie/AboutUs/newsroom/partners/globe-bpi-ygoal-financial-education/partners-Globe-BPI-Foundation-partner-to-promote-financial-education-thumbnail-listing.jpg",
      "articleUrl": "https://www.globe.com.ph/about-us/newsroom/partners/globe-bpi-ygoal-financial-education.html",
      "columnType": "articles--type-3",
      "typeListing": "article",
      "imageMobile": "/sites/globe.com.ph/files/content/dam/globe/brie/AboutUs/newsroom/partners/globe-bpi-ygoal-financial-education/partners-Globe-BPI-Foundation-partner-to-promote-financial-education-primary-thumbnail-m.jpg",
      "imageDesktop": "/sites/globe.com.ph/files/content/dam/globe/brie/AboutUs/newsroom/partners/globe-bpi-ygoal-financial-education/partners-Globe-BPI-Foundation-partner-to-promote-financial-education-primary-thumbnail-d.jpg",
      "description": "Globe Telecom, BPI Foundation, and YGOAL joined hands to promote financial education, and digital literacy and responsibility in public schools nationwide.",
      "datePosted": "Feb 28, 2020 | 02:52 PM",
      "titleFromTag": "Partners"
    },
    {
      "title": "Globe Completes First 5G Video Call With AIS Thailand",
      "nonclickable": false,
      "openNewTab": false,
      "borderArticle": "border-color:#0074D9;",
      "borderTopArticle": "border-top-color:#0074D9;",
      "imageListing": "/sites/globe.com.ph/files/content/dam/globe/brie/AboutUs/newsroom/common/default-3/corporate-default-7-thumbnail-listing.jpg",
      "articleUrl": "https://www.globe.com.ph/about-us/newsroom/partners/globe-ais-thailand-first-5g-video-call.html",
      "columnType": "articles--type-3",
      "typeListing": "article",
      "imageMobile": "/sites/globe.com.ph/files/content/dam/globe/brie/AboutUs/newsroom/common/default-3/corporate-default-7-primary-thumbnail-m.jpg",
      "imageDesktop": "/sites/globe.com.ph/files/content/dam/globe/brie/AboutUs/newsroom/common/default-3/corporate-default-7-primary-thumbnail-d.jpg",
      "description": "Globe successfully completed the first-ever international 5G video call in the country with the 5G mobile network of AIS Thailand.",
      "datePosted": "Feb 26, 2020 | 01:51 PM",
      "titleFromTag": "Partners"
    },
    {
      "title": "Globe Unveils Samsung s20 Series and Galaxy Z Flip Postpaid Plans",
      "nonclickable": false,
      "openNewTab": false,
      "borderArticle": "border-color:#0074D9;",
      "borderTopArticle": "border-top-color:#0074D9;",
      "imageListing": "/sites/globe.com.ph/files/content/dam/globe/brie/AboutUs/newsroom/consumer/globe-unveils-samsung-s20-series-galaxy-z-flip-plans/consumer-Samsung-s20-Series-and-Galaxy-Z-Flip-thumbnail-listing.jpg",
      "articleUrl": "https://www.globe.com.ph/about-us/newsroom/consumer/globe-unveils-samsung-s20-series-galaxy-z-flip-plans.html",
      "columnType": "articles--type-3",
      "typeListing": "article",
      "imageMobile": "/sites/globe.com.ph/files/content/dam/globe/brie/AboutUs/newsroom/consumer/globe-unveils-samsung-s20-series-galaxy-z-flip-plans/consumer-Samsung-s20-Series-and-Galaxy-Z-Flip-primary-thumbnail-m.jpg",
      "imageDesktop": "/sites/globe.com.ph/files/content/dam/globe/brie/AboutUs/newsroom/consumer/globe-unveils-samsung-s20-series-galaxy-z-flip-plans/consumer-Samsung-s20-Series-and-Galaxy-Z-Flip-primary-thumbnail-d.jpg",
      "description": "The recently launched Samsung Galaxy S20 Series, consisting of S20, S20+ and the new S20 Ultra, raises the bar higher with unmatched specs.",
      "datePosted": "Feb 24, 2020 | 03:25 PM",
      "titleFromTag": "Consumer"
    },
    {
      "title": "Globe Joins Civic Groups in Raising Awareness on Sexual Exploitation of Filipino Children Online",
      "nonclickable": false,
      "openNewTab": false,
      "borderArticle": "border-color:#0074D9;",
      "borderTopArticle": "border-top-color:#0074D9;",
      "imageListing": "/sites/globe.com.ph/files/content/dam/globe/brie/AboutUs/newsroom/corporate/globe-joins-civic-groups-raise-online-sexual-child-exploitation-awareness/corporate-Globe-Joins-Civic-Groups-in-Raising-Awareness-on-Sexual-Exploitation-thumbnail-listing.jpg",
      "articleUrl": "https://www.globe.com.ph/about-us/newsroom/corporate/globe-joins-civic-groups-raise-online-sexual-child-exploitation-awareness.html",
      "columnType": "articles--type-3",
      "typeListing": "article",
      "imageMobile": "/sites/globe.com.ph/files/content/dam/globe/brie/AboutUs/newsroom/corporate/globe-joins-civic-groups-raise-online-sexual-child-exploitation-awareness/corporate-Globe-Joins-Civic-Groups-in-Raising-Awareness-on-Sexual-Exploitation-primary-thumbnail-m.jpg",
      "imageDesktop": "/sites/globe.com.ph/files/content/dam/globe/brie/AboutUs/newsroom/corporate/globe-joins-civic-groups-raise-online-sexual-child-exploitation-awareness/corporate-Globe-Joins-Civic-Groups-in-Raising-Awareness-on-Sexual-Exploitation-primary-thumbnail-d.jpg",
      "description": "Globe joined Child Rights Network and Plan International in creating awareness on, and stopping online sexual exploitation of children in the Philippines.",
      "datePosted": "Feb 21, 2020 | 01:05 PM",
      "titleFromTag": "Corporate"
    },
    {
      "title": "Score 50% Off Your NBA League Pass with Globe",
      "nonclickable": false,
      "openNewTab": false,
      "borderArticle": "border-color:#0074D9;",
      "borderTopArticle": "border-top-color:#0074D9;",
      "imageListing": "/sites/globe.com.ph/files/content/dam/globe/brie/AboutUs/newsroom/consumer/score-50-off-nba-league-pass/consumer-50_-Off-Your-NBA-League-Pass-thumbnail-listing.jpg",
      "articleUrl": "https://www.globe.com.ph/about-us/newsroom/consumer/score-50-off-nba-league-pass.html",
      "columnType": "articles--type-3",
      "typeListing": "article",
      "imageMobile": "/sites/globe.com.ph/files/content/dam/globe/brie/AboutUs/newsroom/consumer/score-50-off-nba-league-pass/consumer-50_-Off-Your-NBA-League-Pass-primary-thumbnail-m.jpg",
      "imageDesktop": "/sites/globe.com.ph/files/content/dam/globe/brie/AboutUs/newsroom/consumer/score-50-off-nba-league-pass/consumer-50_-Off-Your-NBA-League-Pass-primary-thumbnail-d.jpg",
      "description": "Globe Prepaid, TM, Postpaid, and Platinum customers can avail of the following NBA League packages via Lazada and Shopee at 50% off until Feb 26, 2020:",
      "datePosted": "Feb 21, 2020 | 12:41 PM",
      "titleFromTag": "Consumer"
    },
    {
      "title": "Globe myBusiness Provides Chinoypreneurs with Feng Shui Business Tips in Create. Modern Tao Ke.",
      "nonclickable": false,
      "openNewTab": false,
      "borderArticle": "border-color:#0074D9;",
      "borderTopArticle": "border-top-color:#0074D9;",
      "imageListing": "/sites/globe.com.ph/files/content/dam/globe/brie/AboutUs/newsroom/corporate/mybusiness-feng-shui-business-tips-create-modern-tao-ke/corporate-Globe-myBusiness-provides-Chinoypreneurs-with-Feng-Shui-business-Tips-thumbnail-listing.jpg",
      "articleUrl": "https://www.globe.com.ph/about-us/newsroom/corporate/mybusiness-feng-shui-business-tips-create-modern-tao-ke.html",
      "columnType": "articles--type-3",
      "typeListing": "article",
      "imageMobile": "/sites/globe.com.ph/files/content/dam/globe/brie/AboutUs/newsroom/corporate/mybusiness-feng-shui-business-tips-create-modern-tao-ke/corporate-Globe-myBusiness-provides-Chinoypreneurs-with-Feng-Shui-business-Tips-primary-thumbnail-m.jpg",
      "imageDesktop": "/sites/globe.com.ph/files/content/dam/globe/brie/AboutUs/newsroom/corporate/mybusiness-feng-shui-business-tips-create-modern-tao-ke/corporate-Globe-myBusiness-provides-Chinoypreneurs-with-Feng-Shui-business-Tips-primary-thumbnail-d.jpg",
      "description": "Globe myBusiness brings Fil-Chi entrepreneurs to attend Create. Modern Tao Ke (Boss): Chinoypreneurs’ Guide to a Prosperous Year of the Metal Rat.",
      "datePosted": "Feb 21, 2020 | 11:49 AM",
      "titleFromTag": "Corporate"
    },
    {
      "title": "San Jose Del Monte Becomes Newest GoWiFi City in Bulacan",
      "nonclickable": false,
      "openNewTab": false,
      "borderArticle": "border-color:#0074D9;",
      "borderTopArticle": "border-top-color:#0074D9;",
      "imageListing": "/sites/globe.com.ph/files/content/dam/globe/brie/AboutUs/newsroom/corporate/san-jose-del-monte-bulacan-newest-gowifi-city/corporate-San-Jose-Del-Monte-GoWiFi-thumbnail-listing.jpg",
      "articleUrl": "https://www.globe.com.ph/about-us/newsroom/corporate/san-jose-del-monte-bulacan-newest-gowifi-city.html",
      "columnType": "articles--type-3",
      "typeListing": "article",
      "imageMobile": "/sites/globe.com.ph/files/content/dam/globe/brie/AboutUs/newsroom/corporate/san-jose-del-monte-bulacan-newest-gowifi-city/corporate-San-Jose-Del-Monte-GoWiFi-primary-thumbnail-m.jpg",
      "imageDesktop": "/sites/globe.com.ph/files/content/dam/globe/brie/AboutUs/newsroom/corporate/san-jose-del-monte-bulacan-newest-gowifi-city/corporate-San-Jose-Del-Monte-GoWiFi-primary-thumbnail-d.jpg",
      "description": "With Globe's GoWiFi services, San Jose Del Monte's constituents can enjoy more of their favorite online activities within key locations in their community.",
      "datePosted": "Feb 21, 2020 | 11:17 AM",
      "titleFromTag": "Corporate"
    },
    {
      "title": "Globe Continues Northern Takeover with Pangasinan Partnership",
      "nonclickable": false,
      "openNewTab": false,
      "borderArticle": "border-color:#0074D9;",
      "borderTopArticle": "border-top-color:#0074D9;",
      "imageListing": "/sites/globe.com.ph/files/content/dam/globe/brie/AboutUs/newsroom/corporate/globe-takeover-north-with-pangasinan-partnership/corporate-GoWifi-Pangasinan-thumbnail-listing.jpg",
      "articleUrl": "https://www.globe.com.ph/about-us/newsroom/corporate/globe-takeover-north-with-pangasinan-partnership.html",
      "columnType": "articles--type-3",
      "typeListing": "article",
      "imageMobile": "/sites/globe.com.ph/files/content/dam/globe/brie/AboutUs/newsroom/corporate/globe-takeover-north-with-pangasinan-partnership/corporate-GoWifi-Pangasinan-primary-thumbnail-m.jpg",
      "imageDesktop": "/sites/globe.com.ph/files/content/dam/globe/brie/AboutUs/newsroom/corporate/globe-takeover-north-with-pangasinan-partnership/corporate-GoWifi-Pangasinan-primary-thumbnail-d.jpg",
      "description": "Globe aims to equip Mangaldan, Pangasinan constituents with free, high-quality connectivity powered by GoWiFi services.",
      "datePosted": "Feb 21, 2020 | 10:54 AM",
      "titleFromTag": "Corporate"
    }
  ]
}
