{
  "status": 200,
  "page": 19,
  "totalPage": 298,
  "range": "217-228",
  "total": 3573,
  "result": [
    {
      "title": "Globe Group’s #MakeITSafePH Campaign against Cyberbullying Wins Gold at PR Awards Asia 2023",
      "nonclickable": false,
      "openNewTab": false,
      "borderArticle": "border-color:#0074D9;",
      "borderTopArticle": "border-top-color:#0074D9;",
      "imageListing": "/sites/globe.com.ph/files/content/dam/globe/brie/AboutUs/newsroom/common/default-awards-1/corp-default-images-thumbnail-listing.jpg",
      "articleUrl": "https://www.globe.com.ph/about-us/newsroom/sustainability/makeitsafeph-wins-gold-pr-awards-asia-2023.html",
      "columnType": "articles--type-3",
      "typeListing": "article",
      "imageMobile": "/sites/globe.com.ph/files/content/dam/globe/brie/AboutUs/newsroom/common/default-awards-1/corp-default-images-primary-thumbnail-m.jpg",
      "imageDesktop": "/sites/globe.com.ph/files/content/dam/globe/brie/AboutUs/newsroom/common/default-awards-1/corp-default-images-primary-thumbnail-d.jpg",
      "description": "Globe Group wins gold for best video storytelling at the PR Awards Asia 2023 for the #MakeITSafePH campaign.",
      "datePosted": "Jul 10, 2023 | 09:27 AM",
      "titleFromTag": "Sustainability"
    },
    {
      "title": "Globe Breaks New Ground with 1st 5G Network Slicing Deployment in PH",
      "nonclickable": false,
      "openNewTab": false,
      "borderArticle": "border-color:#0074D9;",
      "borderTopArticle": "border-top-color:#0074D9;",
      "imageListing": "/sites/globe.com.ph/files/content/dam/globe/brie/About-us/Newsroom/image/Corporate/first-5g-network-slicing-development-ph/thumbnail-listing.jpg",
      "articleUrl": "https://www.globe.com.ph/about-us/newsroom/corporate/first-5g-network-slicing-development-ph.html",
      "columnType": "articles--type-3",
      "typeListing": "article",
      "imageMobile": "/sites/globe.com.ph/files/content/dam/globe/brie/About-us/Newsroom/image/Corporate/first-5g-network-slicing-development-ph/primary-thumbnail-m.jpg",
      "imageDesktop": "/sites/globe.com.ph/files/content/dam/globe/brie/About-us/Newsroom/image/Corporate/first-5g-network-slicing-development-ph/primary-thumbnail-d.jpg",
      "description": "Globe has become the first Philippine telco to deploy the End-to-End (E2E) Network Slicing Function of 5G Standalone (SA), the most advanced 5G technology.",
      "datePosted": "Jul 10, 2023 | 09:27 AM",
      "titleFromTag": "Corporate"
    },
    {
      "title": "Globe Partners with ATIN Global and SEE Global to Battle Hunger through Michelangelo’s Sistine Chapel Exhibit",
      "nonclickable": false,
      "openNewTab": false,
      "borderArticle": "border-color:#0074D9;",
      "borderTopArticle": "border-top-color:#0074D9;",
      "imageListing": "/sites/globe.com.ph/files/content/dam/globe/brie/AboutUs/newsroom/common/default-partners-2/default-partners-2-thumbnail-listing.jpg",
      "articleUrl": "https://www.globe.com.ph/about-us/newsroom/sustainability/globe-partners-with-atin-global-see-global.html",
      "columnType": "articles--type-3",
      "typeListing": "article",
      "imageMobile": "/sites/globe.com.ph/files/content/dam/globe/brie/AboutUs/newsroom/common/default-partners-2/default-partners-2-primary-thumbnail-m.jpg",
      "imageDesktop": "/sites/globe.com.ph/files/content/dam/globe/brie/AboutUs/newsroom/common/default-partners-2/default-partners-2-primary-thumbnail-d.jpg",
      "description": "Globe, alongside ATIN Global and SEE Global Entertainment, fights hunger via the Hapag Movement in the \"Michelangelo's Sistine Chapel: The Exhibition.\"",
      "datePosted": "Jul 10, 2023 | 09:26 AM",
      "titleFromTag": "Sustainability"
    },
    {
      "title": "Globe Group: EO on Streamlined Permits Process for Telco Infra to Accelerate PH’s Digital Transformation",
      "nonclickable": false,
      "openNewTab": false,
      "borderArticle": "border-color:#0074D9;",
      "borderTopArticle": "border-top-color:#0074D9;",
      "imageListing": "/sites/globe.com.ph/files/content/dam/globe/brie/AboutUs/newsroom/common/default-corporate-main/newsroom-default-corporate-thumbnail-listing.jpg",
      "articleUrl": "https://www.globe.com.ph/about-us/newsroom/corporate/eo-streamlined-permits-process-telco-infra.html",
      "columnType": "articles--type-3",
      "typeListing": "article",
      "imageMobile": "/sites/globe.com.ph/files/content/dam/globe/brie/AboutUs/newsroom/common/default-corporate-main/newsroom-default-corporate-primary-thumbnail-m.jpg",
      "imageDesktop": "/sites/globe.com.ph/files/content/dam/globe/brie/AboutUs/newsroom/common/default-corporate-main/newsroom-default-corporate-primary-thumbnail-d.jpg",
      "description": "Globe Group welcomes Executive Order No. 32, which streamlines the process of getting government permits for the construction of telco infrastructure.",
      "datePosted": "Jul 10, 2023 | 09:25 AM",
      "titleFromTag": "Corporate"
    },
    {
      "title": "Globe Group Champions Frictionless Digital Ecosystems As Engines Of Growth",
      "nonclickable": false,
      "openNewTab": false,
      "borderArticle": "border-color:#0074D9;",
      "borderTopArticle": "border-top-color:#0074D9;",
      "imageListing": "/sites/globe.com.ph/files/content/dam/globe/brie/About-us/Newsroom/image/Corporate/frictionless-digital-ecosystems-engines-of-growth/thumbnail-listing.jpg",
      "articleUrl": "https://www.globe.com.ph/about-us/newsroom/corporate/frictionless-digital-ecosystems-engines-of-growth.html",
      "columnType": "articles--type-3",
      "typeListing": "article",
      "imageMobile": "/sites/globe.com.ph/files/content/dam/globe/brie/About-us/Newsroom/image/Corporate/frictionless-digital-ecosystems-engines-of-growth/primary-thumbnail-m.jpg",
      "imageDesktop": "/sites/globe.com.ph/files/content/dam/globe/brie/About-us/Newsroom/image/Corporate/frictionless-digital-ecosystems-engines-of-growth/primary-thumbnail-d.jpg",
      "description": "Globe Group underscored the need for seamless digital ecosystems as engines of growth.",
      "datePosted": "Jul 10, 2023 | 09:23 AM",
      "titleFromTag": "Corporate"
    },
    {
      "title": "Globe Triumphs with Quadruple Win at HR Online’s Employee Experience Awards",
      "nonclickable": false,
      "openNewTab": false,
      "borderArticle": "border-color:#0074D9;",
      "borderTopArticle": "border-top-color:#0074D9;",
      "imageListing": "/sites/globe.com.ph/files/content/dam/globe/brie/AboutUs/newsroom/common/awards-01/corp-default-images-thumbnail-listing.jpg",
      "articleUrl": "https://www.globe.com.ph/about-us/newsroom/corporate/quadruple-win-hr-online-employee-experience-awards.html",
      "columnType": "articles--type-3",
      "typeListing": "article",
      "imageMobile": "/sites/globe.com.ph/files/content/dam/globe/brie/AboutUs/newsroom/common/awards-01/corp-default-images-primary-thumbnail-m.jpg",
      "imageDesktop": "/sites/globe.com.ph/files/content/dam/globe/brie/AboutUs/newsroom/common/awards-01/corp-default-images-primary-thumbnail-d.jpg",
      "description": "Globe has proven its unwavering commitment to enhancing employee experience, taking home 4 prestigious awards at the 3rd annual Employee Experience Awards.",
      "datePosted": "Jul 05, 2023 | 01:11 PM",
      "titleFromTag": "Corporate"
    },
    {
      "title": "Globe Business Assists Cebu City’s Digital Transformation through Groundbreaking Workshops",
      "nonclickable": false,
      "openNewTab": false,
      "borderArticle": "border-color:#0074D9;",
      "borderTopArticle": "border-top-color:#0074D9;",
      "imageListing": "/sites/globe.com.ph/files/content/dam/globe/brie/AboutUs/newsroom/common/default-corporate-main/newsroom-default-corporate-thumbnail-listing.jpg",
      "articleUrl": "https://www.globe.com.ph/about-us/newsroom/business/cebu-city-digital-transformation.html",
      "columnType": "articles--type-3",
      "typeListing": "article",
      "imageMobile": "/sites/globe.com.ph/files/content/dam/globe/brie/AboutUs/newsroom/common/default-corporate-main/newsroom-default-corporate-primary-thumbnail-m.jpg",
      "imageDesktop": "/sites/globe.com.ph/files/content/dam/globe/brie/AboutUs/newsroom/common/default-corporate-main/newsroom-default-corporate-primary-thumbnail-d.jpg",
      "description": "Globe Business spearheads a series of groundbreaking workshops in the provinces and cities in Visayas and Mindanao. ",
      "datePosted": "Jul 05, 2023 | 01:10 PM",
      "titleFromTag": "Business"
    },
    {
      "title": "Globe Explores AI for Customer Service",
      "nonclickable": false,
      "openNewTab": false,
      "borderArticle": "border-color:#0074D9;",
      "borderTopArticle": "border-top-color:#0074D9;",
      "imageListing": "/sites/globe.com.ph/files/content/dam/globe/brie/AboutUs/newsroom/common/default-corporate-tech-3/newsroom-corporate-tech-3-thumbnail-listing.jpg",
      "articleUrl": "https://www.globe.com.ph/about-us/newsroom/corporate/globe-explores-ai-for-customer-service.html",
      "columnType": "articles--type-3",
      "typeListing": "article",
      "imageMobile": "/sites/globe.com.ph/files/content/dam/globe/brie/AboutUs/newsroom/common/default-corporate-tech-3/newsroom-corporate-tech-3-primary-thumbnail-m.jpg",
      "imageDesktop": "/sites/globe.com.ph/files/content/dam/globe/brie/AboutUs/newsroom/common/default-corporate-tech-3/newsroom-corporate-tech-3-primary-thumbnail-d.jpg",
      "description": "Globe is looking for ways to unlock the potential of artificial intelligence (AI) to significantly improve customer experience by automating routine tasks.",
      "datePosted": "Jul 04, 2023 | 09:33 AM",
      "titleFromTag": "Corporate"
    },
    {
      "title": "Globe Group Woos Global Investors with Cutting-Edge Digital Solutions at Caixin Asia New Vision Forum",
      "nonclickable": false,
      "openNewTab": false,
      "borderArticle": "border-color:#0074D9;",
      "borderTopArticle": "border-top-color:#0074D9;",
      "imageListing": "/sites/globe.com.ph/files/content/dam/globe/brie/About-us/Newsroom/image/Corporate/globe-group-woos-investors-cutting-edge-digital-solutions/thumbnail-listing.jpg",
      "articleUrl": "https://www.globe.com.ph/about-us/newsroom/corporate/globe-group-woos-investors-cutting-edge-digital-solutions.html",
      "columnType": "articles--type-3",
      "typeListing": "article",
      "imageMobile": "/sites/globe.com.ph/files/content/dam/globe/brie/About-us/Newsroom/image/Corporate/globe-group-woos-investors-cutting-edge-digital-solutions/primary-thumbnail-m.jpg",
      "imageDesktop": "/sites/globe.com.ph/files/content/dam/globe/brie/About-us/Newsroom/image/Corporate/globe-group-woos-investors-cutting-edge-digital-solutions/primary-thumbnail-d.jpg",
      "description": "The Globe Group captures global investors' interest by unveiling cutting-edge digital solutions at Caixin Asia New Vision forum.",
      "datePosted": "Jul 04, 2023 | 09:31 AM",
      "titleFromTag": "Corporate"
    },
    {
      "title": "Michelangelo’s Sistine Chapel: The Exhibition",
      "nonclickable": false,
      "openNewTab": false,
      "borderArticle": "border-color:#0074D9;",
      "borderTopArticle": "border-top-color:#0074D9;",
      "imageListing": "/sites/globe.com.ph/files/content/dam/globe/brie/AboutUs/newsroom/consumer/michelangelos-sistine-chapel-the-exhibition/corp-michel-angelo-sistine-chapel-thumbnail-listing.jpg",
      "articleUrl": "https://www.globe.com.ph/about-us/newsroom/consumer/michelangelos-sistine-chapel-the-exhibition.html",
      "columnType": "articles--type-3",
      "typeListing": "article",
      "imageMobile": "/sites/globe.com.ph/files/content/dam/globe/brie/AboutUs/newsroom/consumer/michelangelos-sistine-chapel-the-exhibition/corp-michel-angelo-sistine-chapel-primary-thumbnail-m.jpg",
      "imageDesktop": "/sites/globe.com.ph/files/content/dam/globe/brie/AboutUs/newsroom/consumer/michelangelos-sistine-chapel-the-exhibition/corp-michel-angelo-sistine-chapel-primary-thumbnail-d.jpg",
      "description": "ATIN Global Inc. and SEE Global Entertainment Inc. are bringing Michelangelo’s Sistine Chapel: The Exhibition to Filipinos from July 1 to September 20, 2023.",
      "datePosted": "Jun 30, 2023 | 01:31 PM",
      "titleFromTag": "Consumer"
    },
    {
      "title": "Time to Ditch Dr. Search, Enjoy Konsulta Plus Unli-Consult  for Only ₱150 per Month",
      "nonclickable": false,
      "openNewTab": false,
      "borderArticle": "border-color:#0074D9;",
      "borderTopArticle": "border-top-color:#0074D9;",
      "imageListing": "/sites/globe.com.ph/files/content/dam/globe/brie/About-us/Newsroom/image/Consumer/063023/thumbnail-listing.jpg",
      "articleUrl": "https://www.globe.com.ph/about-us/newsroom/consumer/konsulta-plus-unli-consult.html",
      "columnType": "articles--type-3",
      "typeListing": "article",
      "imageMobile": "/sites/globe.com.ph/files/content/dam/globe/brie/About-us/Newsroom/image/Consumer/063023/primary-thumbnail-m.jpg",
      "imageDesktop": "/sites/globe.com.ph/files/content/dam/globe/brie/About-us/Newsroom/image/Consumer/063023/primary-thumbnail-d.jpg",
      "description": "Manage your health worries in a safer, smarter way with KonsultaMD’s newest service Konsulta Plus for only ₱150 a month.",
      "datePosted": "Jun 30, 2023 | 01:29 PM",
      "titleFromTag": "Consumer"
    },
    {
      "title": "Globe, Aboitiz Seek to Institutionalize Streamlined Telco Permitting via PSAC",
      "nonclickable": false,
      "openNewTab": false,
      "borderArticle": "border-color:#0074D9;",
      "borderTopArticle": "border-top-color:#0074D9;",
      "imageListing": "/sites/globe.com.ph/files/content/dam/globe/brie/AboutUs/newsroom/common/default-eg-1/eg-default-images-thumbnail-listing.jpg",
      "articleUrl": "https://www.globe.com.ph/about-us/newsroom/corporate/institutionalize-streamlined-telco-permitting-psac.html",
      "columnType": "articles--type-3",
      "typeListing": "article",
      "imageMobile": "/sites/globe.com.ph/files/content/dam/globe/brie/AboutUs/newsroom/common/default-eg-1/eg-default-images-primary-thumbnail-m.jpg",
      "imageDesktop": "/sites/globe.com.ph/files/content/dam/globe/brie/AboutUs/newsroom/common/default-eg-1/eg-default-images-primary-thumbnail-d.jpg",
      "description": "Globe and Aboitiz Group joined hands in urging the government to extend the streamlined procedure for obtaining permits & licenses for telecom infrastructure.",
      "datePosted": "Jun 30, 2023 | 01:28 PM",
      "titleFromTag": "Corporate"
    }
  ]
}
