{
  "status": 200,
  "page": 190,
  "totalPage": 298,
  "range": "2269-2280",
  "total": 3573,
  "result": [
    {
      "title": "Globe Ties up With Iloilo City in Deploying More Affordable WiFi Services",
      "nonclickable": false,
      "openNewTab": false,
      "borderArticle": "border-color:#0074D9;",
      "borderTopArticle": "border-top-color:#0074D9;",
      "imageListing": "/sites/globe.com.ph/files/content/dam/globe/brie/AboutUs/newsroom/corporate/globe-iloilo-city-deploy-more-affordable-wifi/corporate-Globe-Ties-up-With-Iloilo-City-thumbnail-listing.jpg",
      "articleUrl": "https://www.globe.com.ph/about-us/newsroom/corporate/globe-iloilo-city-deploy-more-affordable-wifi.html",
      "columnType": "articles--type-3",
      "typeListing": "article",
      "imageMobile": "/sites/globe.com.ph/files/content/dam/globe/brie/AboutUs/newsroom/corporate/globe-iloilo-city-deploy-more-affordable-wifi/corporate-Globe-Ties-up-With-Iloilo-City-primary-thumbnail-m.jpg",
      "imageDesktop": "/sites/globe.com.ph/files/content/dam/globe/brie/AboutUs/newsroom/corporate/globe-iloilo-city-deploy-more-affordable-wifi/corporate-Globe-Ties-up-With-Iloilo-City-primary-thumbnail-d.jpg",
      "description": "Globe continues to accelerate the Philippine digital transformation through sealing another partnership with Iloilo City.",
      "datePosted": "Feb 18, 2020 | 11:30 AM",
      "titleFromTag": "Corporate"
    },
    {
      "title": "Globe, Smile Train: Giving Children With Cleft Lips and Palates a Reason to Smile",
      "nonclickable": false,
      "openNewTab": false,
      "borderArticle": "border-color:#1C91C5;",
      "borderTopArticle": "border-top-color:#1C91C5;",
      "imageListing": "/sites/globe.com.ph/files/content/dam/globe/brie/AboutUs/newsroom/sustainability/globe-smile-train-help-children-with-cleft-lips-palates/sustainability-Smile-Train-thumbnail-listing.jpg",
      "articleUrl": "https://www.globe.com.ph/about-us/newsroom/sustainability/globe-smile-train-help-children-with-cleft-lips-palates.html",
      "columnType": "articles--type-3",
      "typeListing": "article",
      "imageMobile": "/sites/globe.com.ph/files/content/dam/globe/brie/AboutUs/newsroom/sustainability/globe-smile-train-help-children-with-cleft-lips-palates/sustainability-Smile-Train-primary-thumbnail-m.jpg",
      "imageDesktop": "/sites/globe.com.ph/files/content/dam/globe/brie/AboutUs/newsroom/sustainability/globe-smile-train-help-children-with-cleft-lips-palates/sustainability-Smile-Train-primary-thumbnail-d.jpg",
      "description": "From the goodwill of its employees, customers, and partners, Globe was able to raise funds to support comprehensive cleft care for 20 children thru Smile Train.",
      "datePosted": "Feb 18, 2020 | 09:46 AM",
      "titleFromTag": "Sustainability"
    },
    {
      "title": "Globe to Put up Cell Site in University of Mindanao Matina Campus",
      "nonclickable": false,
      "openNewTab": false,
      "borderArticle": "border-color:#0074D9;",
      "borderTopArticle": "border-top-color:#0074D9;",
      "imageListing": "/sites/globe.com.ph/files/content/dam/globe/brie/AboutUs/newsroom/corporate/globe-put-cell-site-university-of-mindanao/corporate-Cell-Site-in-University-of-Mindanao-Matina-Campus-thumbnail-listing.jpg",
      "articleUrl": "https://www.globe.com.ph/about-us/newsroom/corporate/globe-put-cell-site-university-of-mindanao.html",
      "columnType": "articles--type-3",
      "typeListing": "article",
      "imageMobile": "/sites/globe.com.ph/files/content/dam/globe/brie/AboutUs/newsroom/corporate/globe-put-cell-site-university-of-mindanao/_corporate-Cell-Site-in-University-of-Mindanao-Matina-Campus-primary-thumbnail-m.jpg",
      "imageDesktop": "/sites/globe.com.ph/files/content/dam/globe/brie/AboutUs/newsroom/corporate/globe-put-cell-site-university-of-mindanao/corporate-Cell-Site-in-University-of-Mindanao-Matina-Campus-primary-thumbnail-d.jpg",
      "description": "Globe is set to put up a cell site inside the University of Mindanao Matina Campus to enhance mobile voice and data connectivity for students and school admin.",
      "datePosted": "Feb 18, 2020 | 09:14 AM",
      "titleFromTag": "Corporate"
    },
    {
      "title": "Globe At Home Joins Forces With Real Estate Giant in Building the Modern, Connected Home",
      "nonclickable": false,
      "openNewTab": false,
      "borderArticle": "border-color:#0074D9;",
      "borderTopArticle": "border-top-color:#0074D9;",
      "imageListing": "/sites/globe.com.ph/files/content/dam/globe/brie/AboutUs/newsroom/consumer/building-modern-connected-home/newsroom-template-thumbnail-listing.jpg",
      "articleUrl": "https://www.globe.com.ph/about-us/newsroom/consumer/building-modern-connected-home.html",
      "columnType": "articles--type-3",
      "typeListing": "article",
      "imageMobile": "/sites/globe.com.ph/files/content/dam/globe/brie/AboutUs/newsroom/consumer/building-modern-connected-home/newsroom-template-primary-thumbnail-m.jpg",
      "imageDesktop": "/sites/globe.com.ph/files/content/dam/globe/brie/AboutUs/newsroom/consumer/building-modern-connected-home/newsroom-template-primary-thumbnail-d.jpg",
      "description": "Globe At Home partners with one of the country’s most renowned property developers, VCDC, in making the vision of a truly modern and connected home a reality. ",
      "datePosted": "Feb 17, 2020 | 09:42 AM",
      "titleFromTag": "Consumer"
    },
    {
      "title": "Globe Transforms Ilocos Norte to GoWiFi Hub",
      "nonclickable": false,
      "openNewTab": false,
      "borderArticle": "border-color:#0074D9;",
      "borderTopArticle": "border-top-color:#0074D9;",
      "imageListing": "/sites/globe.com.ph/files/content/dam/globe/brie/AboutUs/newsroom/consumer/globe-transforms-ilocos-norte-gowifi-hub/consumer-Ilocos-Norte-to-GoWiFi-Hub-thumbnail-listing.jpg",
      "articleUrl": "https://www.globe.com.ph/about-us/newsroom/consumer/globe-transforms-ilocos-norte-gowifi-hub.html",
      "columnType": "articles--type-3",
      "typeListing": "article",
      "imageMobile": "/sites/globe.com.ph/files/content/dam/globe/brie/AboutUs/newsroom/consumer/globe-transforms-ilocos-norte-gowifi-hub/consumer-Ilocos-Norte-to-GoWiFi-Hub-primary-thumbnail-m.jpg",
      "imageDesktop": "/sites/globe.com.ph/files/content/dam/globe/brie/AboutUs/newsroom/consumer/globe-transforms-ilocos-norte-gowifi-hub/consumer-Ilocos-Norte-to-GoWiFi-Hub-primary-thumbnail-d.jpg",
      "description": "In line with its vision of accelerating the digital transformation of the Philippines, Globe has cemented another key partnership with Ilocos Norte.",
      "datePosted": "Feb 11, 2020 | 02:08 PM",
      "titleFromTag": "Consumer"
    },
    {
      "title": "Affordable LTE Smartphones that Work Best with Globe LTE SIM Cards Now Available at Globe Online Shop, Lazada, and Shopee",
      "nonclickable": false,
      "openNewTab": false,
      "borderArticle": "border-color:#0074D9;",
      "borderTopArticle": "border-top-color:#0074D9;",
      "imageListing": "/sites/globe.com.ph/files/content/dam/globe/brie/AboutUs/newsroom/corporate/smartphones-that-work-best-with-globe-lte-sim-now-available/corporate-Affordable-LTE-Smartphones-thumbnail-listing.jpg",
      "articleUrl": "https://www.globe.com.ph/about-us/newsroom/corporate/smartphones-that-work-best-with-globe-lte-sim-now-available.html",
      "columnType": "articles--type-3",
      "typeListing": "article",
      "imageMobile": "/sites/globe.com.ph/files/content/dam/globe/brie/AboutUs/newsroom/corporate/smartphones-that-work-best-with-globe-lte-sim-now-available/corporate-Affordable-LTE-Smartphones-primary-thumbnail-m.jpg",
      "imageDesktop": "/sites/globe.com.ph/files/content/dam/globe/brie/AboutUs/newsroom/corporate/smartphones-that-work-best-with-globe-lte-sim-now-available/corporate-Affordable-LTE-Smartphones-primary-thumbnail-d.jpg",
      "description": "Digital experiences are made better with LTE-capable smartphones that work best with Globe LTE SIM cards compared to the obsolete and old 3G SIM cards.",
      "datePosted": "Feb 10, 2020 | 11:59 AM",
      "titleFromTag": "Corporate"
    },
    {
      "title": "Huawei Brings First 5G Smartphone in the Philippines with Globe Platinum",
      "nonclickable": false,
      "openNewTab": false,
      "borderArticle": "border-color:#0074D9;",
      "borderTopArticle": "border-top-color:#0074D9;",
      "imageListing": "/sites/globe.com.ph/files/content/dam/globe/brie/AboutUs/newsroom/partners/huawei-globe-platinum-bring-first-5g-smartphone-philippines/newsroom-partners-huawei-5g-platinum-thumbnail-listing.jpg",
      "articleUrl": "https://www.globe.com.ph/about-us/newsroom/partners/huawei-globe-platinum-bring-first-5g-smartphone-philippines.html",
      "columnType": "articles--type-3",
      "typeListing": "article",
      "imageMobile": "/sites/globe.com.ph/files/content/dam/globe/brie/AboutUs/newsroom/partners/huawei-globe-platinum-bring-first-5g-smartphone-philippines/newsroom-partners-huawei-5g-platinum-primary-thumbnail-m.jpg",
      "imageDesktop": "/sites/globe.com.ph/files/content/dam/globe/brie/AboutUs/newsroom/partners/huawei-globe-platinum-bring-first-5g-smartphone-philippines/newsroom-partners-huawei-5g-platinum-primary-thumbnail-d.jpg",
      "description": "Huawei, with Globe, brings the first 5G capable smartphone to Philippine shores - the Huawei Mate 30 Pro 5G - to push the boundaries of mobile technology.",
      "datePosted": "Feb 06, 2020 | 09:11 PM",
      "titleFromTag": "Partners"
    },
    {
      "title": "Game On! Globe Joins in Regional PVP Esports Community Championships Hosted by Singtel",
      "nonclickable": false,
      "openNewTab": false,
      "borderArticle": "border-color:#0074D9;",
      "borderTopArticle": "border-top-color:#0074D9;",
      "imageListing": "/sites/globe.com.ph/files/content/dam/globe/brie/AboutUs/newsroom/partners/globe-joins-pvp-esports-community-championships/consumer-liyabs-enderr-wins-starcraft-2-thumbnail-listing.jpg",
      "articleUrl": "https://www.globe.com.ph/about-us/newsroom/partners/globe-joins-pvp-esports-community-championships.html",
      "columnType": "articles--type-3",
      "typeListing": "article",
      "imageMobile": "/sites/globe.com.ph/files/content/dam/globe/brie/AboutUs/newsroom/partners/globe-joins-pvp-esports-community-championships/consumer-liyabs-enderr-wins-starcraft-2-primary-thumbnail-m.jpg",
      "imageDesktop": "/sites/globe.com.ph/files/content/dam/globe/brie/AboutUs/newsroom/partners/globe-joins-pvp-esports-community-championships/consumer-liyabs-enderr-wins-starcraft-2-primary-thumbnail-d.jpg",
      "description": "Singtel with Globe, AIS and Telkomsel will continue providing opportunities for the gaming community to flourish at both the local and regional levels in 2020.",
      "datePosted": "Feb 06, 2020 | 04:13 PM",
      "titleFromTag": "Partners"
    },
    {
      "title": "Globe to Further Expand Network in 2020; Releases First 5G Smartphone in PH for Platinum Customers",
      "nonclickable": false,
      "openNewTab": false,
      "borderArticle": "border-color:#0074D9;",
      "borderTopArticle": "border-top-color:#0074D9;",
      "imageListing": "/sites/globe.com.ph/files/content/dam/globe/brie/AboutUs/newsroom/consumer/globe-5g-fixed-wireless-access-strategy-connect-ph-homes/consumer-5g-fixed-wireless-access-thumbnail-listing.jpg",
      "articleUrl": "https://www.globe.com.ph/about-us/newsroom/consumer/globe-expand-network-first-5g-phone-ph.html",
      "columnType": "articles--type-3",
      "typeListing": "article",
      "imageMobile": "/sites/globe.com.ph/files/content/dam/globe/brie/AboutUs/newsroom/consumer/globe-5g-fixed-wireless-access-strategy-connect-ph-homes/consumer-5g-fixed-wireless-access-primary-thumbnail-m.jpg",
      "imageDesktop": "/sites/globe.com.ph/files/content/dam/globe/brie/AboutUs/newsroom/consumer/globe-5g-fixed-wireless-access-strategy-connect-ph-homes/consumer-5g-fixed-wireless-access-primary-thumbnail-d.jpg",
      "description": "Globe became the first mobile operator in Southeast Asia to commercially launch 5G for home. The telco giant is now set to transform areas within major CBDs.",
      "datePosted": "Feb 06, 2020 | 04:06 PM",
      "titleFromTag": "Consumer"
    },
    {
      "title": "Globe Ambassador Eala Now No. 4 in Juniors World Tennis Rankings",
      "nonclickable": false,
      "openNewTab": false,
      "borderArticle": "border-color:#0074D9;",
      "borderTopArticle": "border-top-color:#0074D9;",
      "imageListing": "/sites/globe.com.ph/files/content/dam/globe/brie/AboutUs/newsroom/consumer/eala-4th-juniors-world-tennis-rankings/consumer-Eala-Now-No4-thumbnail-listing.jpg",
      "articleUrl": "https://www.globe.com.ph/about-us/newsroom/consumer/eala-4th-juniors-world-tennis-rankings.html",
      "columnType": "articles--type-3",
      "typeListing": "article",
      "imageMobile": "/sites/globe.com.ph/files/content/dam/globe/brie/AboutUs/newsroom/consumer/eala-4th-juniors-world-tennis-rankings/consumer-Eala-Now-No4-primary-thumbnail-m.jpg",
      "imageDesktop": "/sites/globe.com.ph/files/content/dam/globe/brie/AboutUs/newsroom/consumer/eala-4th-juniors-world-tennis-rankings/consumer-Eala-Now-No4-primary-thumbnail-d.jpg",
      "description": "Boosted by her historic run in the juniors doubles tournament of the 2020 Australian Open, Globe Ambassador Alex Eala is now ranked 4th in juniors.",
      "datePosted": "Feb 04, 2020 | 02:43 PM",
      "titleFromTag": "Consumer"
    },
    {
      "title": "Globe and Puregold Launch Mobile App for an Upgraded Grocery Shopping Experience",
      "nonclickable": false,
      "openNewTab": false,
      "borderArticle": "border-color:#0074D9;",
      "borderTopArticle": "border-top-color:#0074D9;",
      "imageListing": "/sites/globe.com.ph/files/content/dam/globe/brie/AboutUs/newsroom/partners/globe-puregold-grocery-app/partners-puregold-app-thumbnail-listing.jpg",
      "articleUrl": "https://www.globe.com.ph/about-us/newsroom/partners/globe-puregold-grocery-app.html",
      "columnType": "articles--type-3",
      "typeListing": "article",
      "imageMobile": "/sites/globe.com.ph/files/content/dam/globe/brie/AboutUs/newsroom/partners/globe-puregold-grocery-app/partners-puregold-app-primary-thumbnail-m.jpg",
      "imageDesktop": "/sites/globe.com.ph/files/content/dam/globe/brie/AboutUs/newsroom/partners/globe-puregold-grocery-app/partners-puregold-app-primary-thumbnail-d.jpg",
      "description": "Marking another milestone for the Pinoy digital lifestyle, Globe with Puregold launched the Puregold Mobile app - your ultimate shopping ally or alalay.",
      "datePosted": "Jan 31, 2020 | 05:57 PM",
      "titleFromTag": "Partners"
    },
    {
      "title": "Globe Ambassador Eala Enters 3rd Round of Australian Open Juniors",
      "nonclickable": false,
      "openNewTab": false,
      "borderArticle": "border-color:#0074D9;",
      "borderTopArticle": "border-top-color:#0074D9;",
      "imageListing": "/sites/globe.com.ph/files/content/dam/globe/brie/AboutUs/newsroom/consumer/eala-enters-3rd-round-australian-open-juniors/consumer-Eala-Enters-3rd-Round-of-Australian-Open-Junior-thumbnail-listing.jpg",
      "articleUrl": "https://www.globe.com.ph/about-us/newsroom/consumer/eala-enters-3rd-round-australian-open-juniors.html",
      "columnType": "articles--type-3",
      "typeListing": "article",
      "imageMobile": "/sites/globe.com.ph/files/content/dam/globe/brie/AboutUs/newsroom/consumer/eala-enters-3rd-round-australian-open-juniors/consumer-Eala-Enters-3rd-Round-of-Australian-Open-Junior-primary-thumbnail-m.jpg",
      "imageDesktop": "/sites/globe.com.ph/files/content/dam/globe/brie/AboutUs/newsroom/consumer/eala-enters-3rd-round-australian-open-juniors/consumer-Eala-Enters-3rd-Round-of-Australian-Open-Junior-primary-thumbnail-d.jpg",
      "description": "Globe Ambassador Alexandra Eala booted out Julie Belgraver to book a place in the 3rd round of the 2020 Australian Open juniors tournament in Melbourne.",
      "datePosted": "Jan 29, 2020 | 02:17 PM",
      "titleFromTag": "Consumer"
    }
  ]
}
