{
  "status": 200,
  "page": 191,
  "totalPage": 298,
  "range": "2281-2292",
  "total": 3573,
  "result": [
    {
      "title": "UnionBank Becomes First Globe 5G Powered Bank in PH",
      "nonclickable": false,
      "openNewTab": false,
      "borderArticle": "border-color:#0074D9;",
      "borderTopArticle": "border-top-color:#0074D9;",
      "imageListing": "/sites/globe.com.ph/files/content/dam/globe/brie/AboutUs/newsroom/partners/unionbank-first-5g-powered-ph-bank/partners-UnionBank-Becomes-First-Globe-5G-Powered-Bank-thumbnail-listing.jpg",
      "articleUrl": "https://www.globe.com.ph/about-us/newsroom/partners/unionbank-first-5g-powered-ph-bank.html",
      "columnType": "articles--type-3",
      "typeListing": "article",
      "imageMobile": "/sites/globe.com.ph/files/content/dam/globe/brie/AboutUs/newsroom/partners/unionbank-first-5g-powered-ph-bank/partners-UnionBank-Becomes-First-Globe-5G-Powered-Bank-primary-thumbnail-m.jpg",
      "imageDesktop": "/sites/globe.com.ph/files/content/dam/globe/brie/AboutUs/newsroom/partners/unionbank-first-5g-powered-ph-bank/partners-UnionBank-Becomes-First-Globe-5G-Powered-Bank-primary-thumbnail-d.jpg",
      "description": "UnionBank became the first Philippine bank to launch a smart branch that leverages world-class 5G technology for seamless connectivity.",
      "datePosted": "Jan 28, 2020 | 11:55 PM",
      "titleFromTag": "Partners"
    },
    {
      "title": "Amdocs Donates Food Packs to Globe’s Taal Relief Operations",
      "nonclickable": false,
      "openNewTab": false,
      "borderArticle": "border-color:#0074D9;",
      "borderTopArticle": "border-top-color:#0074D9;",
      "imageListing": "/sites/globe.com.ph/files/content/dam/globe/brie/AboutUs/newsroom/partners/amdocs-donate-food-packs-globe-taal-relief-operations/partners-Amdocs-Donates-Food-Packs-thumbnail-listing.jpg",
      "articleUrl": "https://www.globe.com.ph/about-us/newsroom/partners/amdocs-donate-food-packs-globe-taal-relief-operations.html",
      "columnType": "articles--type-3",
      "typeListing": "article",
      "imageMobile": "/sites/globe.com.ph/files/content/dam/globe/brie/AboutUs/newsroom/partners/amdocs-donate-food-packs-globe-taal-relief-operations/partners-Amdocs-Donates-Food-Packs-primary-thumbnail-m.jpg",
      "imageDesktop": "/sites/globe.com.ph/files/content/dam/globe/brie/AboutUs/newsroom/partners/amdocs-donate-food-packs-globe-taal-relief-operations/updates/partners-Amdocs-Donates-Food-Packs-primary-thumbnail-d.jpg",
      "description": "Amdocs donated and turned over food packs to Globe Telecom's ongoing relief operations for communities affected by the ongoing eruption of Taal Volcano.",
      "datePosted": "Jan 28, 2020 | 12:40 PM",
      "titleFromTag": "Partners"
    },
    {
      "title": "Globe Prepaid Gives Customers up to 10GB Boost with Bigger GoSAKTO and GoSURF Promos",
      "nonclickable": false,
      "openNewTab": false,
      "borderArticle": "border-color:#0074D9;",
      "borderTopArticle": "border-top-color:#0074D9;",
      "imageListing": "/sites/globe.com.ph/files/content/dam/globe/brie/AboutUs/newsroom/consumer/globe-prepaid-10gb-boost-gosakto-gosurf-promos/consumer-10GB-Boost-with-Bigger-GoSAKTO-and-GoSURF-thumbnail-listing.jpg",
      "articleUrl": "https://www.globe.com.ph/about-us/newsroom/consumer/globe-prepaid-10gb-boost-gosakto-gosurf-promos.html",
      "columnType": "articles--type-3",
      "typeListing": "article",
      "imageMobile": "/sites/globe.com.ph/files/content/dam/globe/brie/AboutUs/newsroom/consumer/globe-prepaid-10gb-boost-gosakto-gosurf-promos/consumer-10GB-Boost-with-Bigger-GoSAKTO-and-GoSURF-primary-thumbnail-m.jpg",
      "imageDesktop": "/sites/globe.com.ph/files/content/dam/globe/brie/AboutUs/newsroom/consumer/globe-prepaid-10gb-boost-gosakto-gosurf-promos/consumer-10GB-Boost-with-Bigger-GoSAKTO-and-GoSURF-primary-thumbnail-d.jpg",
      "description": "Globe Prepaid customers who subscribe to GoSAKTO and GoSURF will enjoy additional free data to watch, play, share, shop, and discover more!",
      "datePosted": "Jan 28, 2020 | 11:42 AM",
      "titleFromTag": "Consumer"
    },
    {
      "title": "Globe, VEND Pilot 1st QR Code-Operated Vending Machines in PH to Promote Cashless Transactions",
      "nonclickable": false,
      "openNewTab": false,
      "borderArticle": "border-color:#0074D9;",
      "borderTopArticle": "border-top-color:#0074D9;",
      "imageListing": "/sites/globe.com.ph/files/content/dam/globe/brie/AboutUs/newsroom/consumer/globe-vend-pilot-ph-qr-code-vending-machines/consumer-VEND-Pilot-1st-QR-Code-Operated-Vending-Machines-thumbnail-listing.jpg",
      "articleUrl": "https://www.globe.com.ph/about-us/newsroom/consumer/globe-vend-pilot-ph-qr-code-vending-machines.html",
      "columnType": "articles--type-3",
      "typeListing": "article",
      "imageMobile": "/sites/globe.com.ph/files/content/dam/globe/brie/AboutUs/newsroom/consumer/globe-vend-pilot-ph-qr-code-vending-machines/consumer-VEND-Pilot-1st-QR-Code-Operated-Vending-Machines-primary-thumbnail-m.jpg",
      "imageDesktop": "/sites/globe.com.ph/files/content/dam/globe/brie/AboutUs/newsroom/consumer/globe-vend-pilot-ph-qr-code-vending-machines/consumer-VEND-Pilot-1st-QR-Code-Operated-Vending-Machines-primary-thumbnail-d.jpg",
      "description": "Globe has tapped VEND to come out with the first vending machines in the country that operate using QR code for cashless and contactless transactions.",
      "datePosted": "Jan 24, 2020 | 04:18 PM",
      "titleFromTag": "Consumer"
    },
    {
      "title": "Seven Communities in MM Receive Ecobricks from Globe Plastic Xchange Program",
      "nonclickable": false,
      "openNewTab": false,
      "borderArticle": "border-color:#1C91C5;",
      "borderTopArticle": "border-top-color:#1C91C5;",
      "imageListing": "/sites/globe.com.ph/files/content/dam/globe/brie/AboutUs/newsroom/sustainability/metro-manila-receive-ecobricks-plastic-xchange-program/Sustainability-Seven-Communities-in-MM-Receive-Eco-bricks-from-Globe-Plastic-Xchange-thumbnail-listing.jpg",
      "articleUrl": "https://www.globe.com.ph/about-us/newsroom/sustainability/metro-manila-receive-ecobricks-plastic-xchange-program.html",
      "columnType": "articles--type-3",
      "typeListing": "article",
      "imageMobile": "/sites/globe.com.ph/files/content/dam/globe/brie/AboutUs/newsroom/sustainability/metro-manila-receive-ecobricks-plastic-xchange-program/Sustainability-Seven-Communities-in-MM-Receive-Eco-bricks-from-Globe-Plastic-Xchange-primary-thumbnail-m.jpg",
      "imageDesktop": "/sites/globe.com.ph/files/content/dam/globe/brie/AboutUs/newsroom/sustainability/metro-manila-receive-ecobricks-plastic-xchange-program/Sustainability-Seven-Communities-in-MM-Receive-Eco-bricks-from-Globe-Plastic-Xchange-primary-thumbnail-d.jpg",
      "description": "Seven communities in Metro Manila were rewarded with ecobricks by Globe Plastic Xchange Program, which they can use for various construction projects.",
      "datePosted": "Jan 23, 2020 | 12:59 PM",
      "titleFromTag": "Sustainability"
    },
    {
      "title": "Globe Urges Mobile Customers to Replace Old SIMs with LTE SIMs for FREE",
      "nonclickable": false,
      "openNewTab": false,
      "borderArticle": "border-color:#0074D9;",
      "borderTopArticle": "border-top-color:#0074D9;",
      "imageListing": "/sites/globe.com.ph/files/content/dam/globe/brie/AboutUs/newsroom/consumer/globe-urges-replace-old-sim-with-lte-free/default-consumer-3-thumbnail-listing.jpg",
      "articleUrl": "https://www.globe.com.ph/about-us/newsroom/consumer/globe-urges-replace-old-sim-with-lte-free.html",
      "columnType": "articles--type-3",
      "typeListing": "article",
      "imageMobile": "/sites/globe.com.ph/files/content/dam/globe/brie/AboutUs/newsroom/consumer/globe-urges-replace-old-sim-with-lte-free/default-consumer-3-primary-thumbnail-m.jpg",
      "imageDesktop": "/sites/globe.com.ph/files/content/dam/globe/brie/AboutUs/newsroom/consumer/globe-urges-replace-old-sim-with-lte-free/default-consumer-3-primary-thumbnail-d.jpg",
      "description": "Globe is calling its mobile customers to replace their old and obsolete SIMs to LTE SIM cards to experience better mobile data service.",
      "datePosted": "Jan 23, 2020 | 12:19 PM",
      "titleFromTag": "Consumer"
    },
    {
      "title": "Your Favorite Globe At Home Prepaid Devices are Now More Affordable than Ever!",
      "nonclickable": false,
      "openNewTab": false,
      "borderArticle": "border-color:#0074D9;",
      "borderTopArticle": "border-top-color:#0074D9;",
      "imageListing": "/sites/globe.com.ph/files/content/dam/globe/brie/AboutUs/newsroom/consumer/globe-at-home-prepaid-devices-more-affordable/consumer-Globe-At-Home-Prepaid-Devices-are-Now-More-Affordable-thumbnail-listing.jpg",
      "articleUrl": "https://www.globe.com.ph/about-us/newsroom/consumer/globe-at-home-prepaid-devices-more-affordable.html",
      "columnType": "articles--type-3",
      "typeListing": "article",
      "imageMobile": "/sites/globe.com.ph/files/content/dam/globe/brie/AboutUs/newsroom/consumer/globe-at-home-prepaid-devices-more-affordable/consumer-Globe-At-Home-Prepaid-Devices-are-Now-More-Affordable-primary-thumbnail-m.jpg",
      "imageDesktop": "/sites/globe.com.ph/files/content/dam/globe/brie/AboutUs/newsroom/consumer/globe-at-home-prepaid-devices-more-affordable/consumer-Globe-At-Home-Prepaid-Devices-are-Now-More-Affordable-primary-thumbnail-d.jpg",
      "description": "Globe At Home Prepaid WiFi gets a price cut from P1,999 to just P999. You can now get the device that is 2x faster, stronger, and has wider coverage.",
      "datePosted": "Jan 17, 2020 | 10:09 AM",
      "titleFromTag": "Consumer"
    },
    {
      "title": "Globe Steps Up Relief Efforts for Taal; Calls for Globe Rewards Points Donation to Rise Against Hunger",
      "nonclickable": false,
      "openNewTab": false,
      "borderArticle": "border-color:#0074D9;",
      "borderTopArticle": "border-top-color:#0074D9;",
      "imageListing": "/sites/globe.com.ph/files/content/dam/globe/brie/AboutUs/newsroom/corporate/globe-rewards-points-donations-rise-against-hunger/corporate-Globe-Rewards-Points-Donation-thumbnail-listing.jpg",
      "articleUrl": "https://www.globe.com.ph/about-us/newsroom/corporate/globe-rewards-points-donations-rise-against-hunger.html",
      "columnType": "articles--type-3",
      "typeListing": "article",
      "imageMobile": "/sites/globe.com.ph/files/content/dam/globe/brie/AboutUs/newsroom/corporate/globe-rewards-points-donations-rise-against-hunger/corporate-Globe-Rewards-Points-Donation-primary-thumbnail-m.jpg",
      "imageDesktop": "/sites/globe.com.ph/files/content/dam/globe/brie/AboutUs/newsroom/corporate/globe-rewards-points-donations-rise-against-hunger/corporate-Globe-Rewards-Points-Donation-primary-thumbnail-d.jpg",
      "description": "Globe is inviting its customers to donate their Globe Rewards points to Rise Against Hunger to purchase meal packs for Taal volcano explosion evacuees.",
      "datePosted": "Jan 16, 2020 | 09:50 AM",
      "titleFromTag": "Corporate"
    },
    {
      "title": "Globe Provides Relief Assistance to Communities Affected by Taal Volcano Explosion",
      "nonclickable": false,
      "openNewTab": false,
      "borderArticle": "border-color:#0074D9;",
      "borderTopArticle": "border-top-color:#0074D9;",
      "imageListing": "/sites/globe.com.ph/files/content/dam/globe/brie/AboutUs/newsroom/corporate/globe-help-communities-taal-explosion/corporate-Globe-Provides-Relief-Assistance-thumbnail-listing.jpg",
      "articleUrl": "https://www.globe.com.ph/about-us/newsroom/corporate/globe-help-communities-taal-explosion.html",
      "columnType": "articles--type-3",
      "typeListing": "article",
      "imageMobile": "/sites/globe.com.ph/files/content/dam/globe/brie/AboutUs/newsroom/corporate/globe-help-communities-taal-explosion/corporate-Globe-Provides-Relief-Assistance-primary-thumbnail-m.jpg",
      "imageDesktop": "/sites/globe.com.ph/files/content/dam/globe/brie/AboutUs/newsroom/corporate/globe-help-communities-taal-explosion/corporate-Globe-Provides-Relief-Assistance-primary-thumbnail-d.jpg",
      "description": "Globe is providing relief assistance to people affected by the ongoing explosion of Taal with the help of Sagip Kapamilya in reaching out to more communities.",
      "datePosted": "Jan 15, 2020 | 12:15 PM",
      "titleFromTag": "Corporate"
    },
    {
      "title": "Public Service Advisory: Globe Service Interruption in Several Municipalities in Batangas, Cavite, and Laguna",
      "nonclickable": false,
      "openNewTab": false,
      "borderArticle": "border-color:#0074D9;",
      "borderTopArticle": "border-top-color:#0074D9;",
      "imageListing": "/sites/globe.com.ph/files/content/dam/globe/brie/AboutUs/newsroom/corporate/service-interruption-batangas-cavite-laguna-taal-ashfall/corporate-Globe-Service-Interruption-thumbnail-listing.jpg",
      "articleUrl": "https://www.globe.com.ph/about-us/newsroom/corporate/service-interruption-batangas-cavite-laguna-taal-ashfall.html",
      "columnType": "articles--type-3",
      "typeListing": "article",
      "imageMobile": "/sites/globe.com.ph/files/content/dam/globe/brie/AboutUs/newsroom/corporate/service-interruption-batangas-cavite-laguna-taal-ashfall/corporate-Globe-Service-Interruption-primary-thumbnail-m.jpg",
      "imageDesktop": "/sites/globe.com.ph/files/content/dam/globe/brie/AboutUs/newsroom/corporate/service-interruption-batangas-cavite-laguna-taal-ashfall/corporate-Globe-Service-Interruption-primary-thumbnail-d.jpg",
      "description": "Globe announced service interruption due to inability to replenish generator fuel in several municipalities in Batangas, Cavite, & Laguna covered in ashfall.",
      "datePosted": "Jan 14, 2020 | 09:35 AM",
      "titleFromTag": "Corporate"
    },
    {
      "title": "Globe Provides Free Internet Connection, Libreng Tawag and Charging Amid Taal Volcano Explosion",
      "nonclickable": false,
      "openNewTab": false,
      "borderArticle": "border-color:#0074D9;",
      "borderTopArticle": "border-top-color:#0074D9;",
      "imageListing": "/sites/globe.com.ph/files/content/dam/globe/brie/AboutUs/newsroom/corporate/globe-free-internet-call-charging-taal-explosion/corporate-Free-Internet-Tawag-Charging-Taal-thumbnail-listing.jpg",
      "articleUrl": "https://www.globe.com.ph/about-us/newsroom/corporate/globe-free-internet-call-charging-taal-explosion.html",
      "columnType": "articles--type-3",
      "typeListing": "article",
      "imageMobile": "/sites/globe.com.ph/files/content/dam/globe/brie/AboutUs/newsroom/corporate/globe-free-internet-call-charging-taal-explosion/corporate-Free-Internet-Tawag-Charging-Taal-primary-thumbnail-m.jpg",
      "imageDesktop": "/sites/globe.com.ph/files/content/dam/globe/brie/AboutUs/newsroom/corporate/globe-free-internet-call-charging-taal-explosion/corporate-Free-Internet-Tawag-Charging-Taal-primary-thumbnail-d.jpg",
      "description": "Globe is providing free GoWiFi internet in NAIA and select malls. It also has set up a Libreng Tawag and Charging station at Barangay Amuyong Covered Court.",
      "datePosted": "Jan 13, 2020 | 04:07 PM",
      "titleFromTag": "Corporate"
    },
    {
      "title": "Public Service Advisory: Select Globe Stores Temporarily Closed; Customers Urged to Use GlobeOne App ",
      "nonclickable": false,
      "openNewTab": false,
      "borderArticle": "border-color:#0074D9;",
      "borderTopArticle": "border-top-color:#0074D9;",
      "imageListing": "/sites/globe.com.ph/files/content/dam/globe/brie/AboutUs/newsroom/corporate/select-globe-stores-temporarily-closed/update/corporate-Urged-to-Use-GlobeOne-App-thumbnail-listing.jpg",
      "articleUrl": "https://www.globe.com.ph/about-us/newsroom/corporate/select-globe-stores-temporarily-closed.html",
      "columnType": "articles--type-3",
      "typeListing": "article",
      "imageMobile": "/sites/globe.com.ph/files/content/dam/globe/brie/AboutUs/newsroom/corporate/select-globe-stores-temporarily-closed/update/corporate-Urged-to-Use-GlobeOne-App-primary-thumbnail-m.jpg",
      "imageDesktop": "/sites/globe.com.ph/files/content/dam/globe/brie/AboutUs/newsroom/corporate/select-globe-stores-temporarily-closed/update/corporate-Urged-to-Use-GlobeOne-App-primary-thumbnail-d.jpg",
      "description": "Globe would like to inform its customers that selected stores are temporarily closed. You may continue doing transactions using the GlobeOne App.",
      "datePosted": "Jan 13, 2020 | 04:06 PM",
      "titleFromTag": "Corporate"
    }
  ]
}
