{
  "status": 200,
  "page": 192,
  "totalPage": 298,
  "range": "2293-2304",
  "total": 3573,
  "result": [
    {
      "title": "Globe At Home App Hits 1M Mark in Registered Users",
      "nonclickable": false,
      "openNewTab": false,
      "borderArticle": "border-color:#0074D9;",
      "borderTopArticle": "border-top-color:#0074D9;",
      "imageListing": "/sites/globe.com.ph/files/content/dam/globe/brie/AboutUs/newsroom/consumer/globe-at-home-app-best-home-internet-partner/consumer-gah-your-best-partner-for-your-home-thumbnail-listing.jpg",
      "articleUrl": "https://www.globe.com.ph/about-us/newsroom/consumer/globe-at-home-hits-1m-registered-users.html",
      "columnType": "articles--type-3",
      "typeListing": "article",
      "imageMobile": "/sites/globe.com.ph/files/content/dam/globe/brie/AboutUs/newsroom/consumer/globe-at-home-app-best-home-internet-partner/consumer-gah-your-best-partner-for-your-home-primary-thumbnail-m.jpg",
      "imageDesktop": "/sites/globe.com.ph/files/content/dam/globe/brie/AboutUs/newsroom/consumer/globe-at-home-app-best-home-internet-partner/consumer-gah-your-best-partner-for-your-home-primary-thumbnail-d.jpg",
      "description": "Globe At Home app, the best partner for your home internet connection, has reached a record number of registered users by hitting the 1,000,000 mark! ",
      "datePosted": "Jan 09, 2020 | 03:02 PM",
      "titleFromTag": "Consumer"
    },
    {
      "title": "Koronadal City Now Powered by Globe At Home Fiber",
      "nonclickable": false,
      "openNewTab": false,
      "borderArticle": "border-color:#0074D9;",
      "borderTopArticle": "border-top-color:#0074D9;",
      "imageListing": "/sites/globe.com.ph/files/content/dam/globe/brie/AboutUs/newsroom/consumer/koronadal-city-powered-by-globe-at-home-fiber/consumer-Koronadal-City-thumbnail-listing.jpg",
      "articleUrl": "https://www.globe.com.ph/about-us/newsroom/consumer/koronadal-city-powered-by-globe-at-home-fiber.html",
      "columnType": "articles--type-3",
      "typeListing": "article",
      "imageMobile": "/sites/globe.com.ph/files/content/dam/globe/brie/AboutUs/newsroom/consumer/koronadal-city-powered-by-globe-at-home-fiber/consumer-Koronadal-City-primary-thumbnail-m.jpg",
      "imageDesktop": "/sites/globe.com.ph/files/content/dam/globe/brie/AboutUs/newsroom/consumer/koronadal-city-powered-by-globe-at-home-fiber/consumer-Koronadal-City-primary-thumbnail-d.jpg",
      "description": "Globe At Home strikes a milestone partnership with Koronadal City, South Cotabato in providing its residents high-quality Internet connectivity. ",
      "datePosted": "Jan 09, 2020 | 10:33 AM",
      "titleFromTag": "Consumer"
    },
    {
      "title": "Globe Encourages Consumers to Reduce Environmental Impact by Using Mobile Services",
      "nonclickable": false,
      "openNewTab": false,
      "borderArticle": "border-color:#1C91C5;",
      "borderTopArticle": "border-top-color:#1C91C5;",
      "imageListing": "/sites/globe.com.ph/files/content/dam/globe/brie/AboutUs/newsroom/sustainability/globe-consumers-reduce-environmental-impact-mobile-services/sustainability-Reduce-Environmental-Impact-thumbnail-listing.jpg",
      "articleUrl": "https://www.globe.com.ph/about-us/newsroom/sustainability/globe-consumers-reduce-environmental-impact-mobile-services.html",
      "columnType": "articles--type-3",
      "typeListing": "article",
      "imageMobile": "/sites/globe.com.ph/files/content/dam/globe/brie/AboutUs/newsroom/sustainability/globe-consumers-reduce-environmental-impact-mobile-services/sustainability-Reduce-Environmental-Impact-primary-thumbnail-m.jpg",
      "imageDesktop": "/sites/globe.com.ph/files/content/dam/globe/brie/AboutUs/newsroom/sustainability/globe-consumers-reduce-environmental-impact-mobile-services/sustainability-Reduce-Environmental-Impact-primary-thumbnail-d.jpg",
      "description": "Globe Telecom encourages consumers to reduce their environmental impact by using mobile devices for health, financial, and other services to minimize travel.",
      "datePosted": "Jan 08, 2020 | 03:18 PM",
      "titleFromTag": "Sustainability"
    },
    {
      "title": "Public Advisory on Globe’s Restoration of Boracay’s Connectivity after Typhoon Ursula",
      "nonclickable": false,
      "openNewTab": false,
      "borderArticle": "border-color:#0074D9;",
      "borderTopArticle": "border-top-color:#0074D9;",
      "imageListing": "/sites/globe.com.ph/files/content/dam/globe/brie/AboutUs/newsroom/corporate/globe-free-internet-typhoon-tisoy-affected-areas/default-consumer-3-thumbnail-listing.jpg",
      "articleUrl": "https://www.globe.com.ph/about-us/newsroom/corporate/globe-restores-boracay-connectivity-typhoon-ursula.html",
      "columnType": "articles--type-3",
      "typeListing": "article",
      "imageMobile": "/sites/globe.com.ph/files/content/dam/globe/brie/AboutUs/newsroom/corporate/globe-free-internet-typhoon-tisoy-affected-areas/default-consumer-3-primary-thumbnail-m.jpg",
      "imageDesktop": "/sites/globe.com.ph/files/content/dam/globe/brie/AboutUs/newsroom/corporate/globe-free-internet-typhoon-tisoy-affected-areas/default-consumer-3-primary-thumbnail-d.jpg",
      "description": "Globe announces the resumption of mobile and internet services in Boracay, one of the areas severely hit by Typhoon Ursula. Visit Globe Newsroom for more.",
      "datePosted": "Dec 29, 2019 | 10:12 AM",
      "titleFromTag": "Corporate"
    },
    {
      "title": "Globe At Home Prepaid WiFi Introduces New Data Promos with FREE 4 GB YouTube Daily",
      "nonclickable": false,
      "openNewTab": false,
      "borderArticle": "border-color:#0074D9;",
      "borderTopArticle": "border-top-color:#0074D9;",
      "imageListing": "/sites/globe.com.ph/files/content/dam/globe/brie/AboutUs/newsroom/consumer/globe-at-home-prepaid-new-data-promos/consumer-4GBYTDaily-thumbnail-listing.jpg",
      "articleUrl": "https://www.globe.com.ph/about-us/newsroom/consumer/globe-at-home-prepaid-new-data-promos.html",
      "columnType": "articles--type-3",
      "typeListing": "article",
      "imageMobile": "/sites/globe.com.ph/files/content/dam/globe/brie/AboutUs/newsroom/consumer/globe-at-home-prepaid-new-data-promos/consumer-4GBYTDaily-primary-thumbnail-m.jpg",
      "imageDesktop": "/sites/globe.com.ph/files/content/dam/globe/brie/AboutUs/newsroom/consumer/globe-at-home-prepaid-new-data-promos/consumer-4GBYTDaily-primary-thumbnail-d.jpg",
      "description": "Globe At Home Prepaid WiFi gives more bang for your buck with their newest and biggest data package yet - the HomeWATCH promos. Visit Globe Newsroom for more.",
      "datePosted": "Dec 27, 2019 | 12:14 PM",
      "titleFromTag": "Consumer"
    },
    {
      "title": "Globe At Home, VCDC Introduce Philippines’ First Future-Ready Residences with Built-In High-Speed Home Internet",
      "nonclickable": false,
      "openNewTab": false,
      "borderArticle": "border-color:#0074D9;",
      "borderTopArticle": "border-top-color:#0074D9;",
      "imageListing": "/sites/globe.com.ph/files/content/dam/globe/brie/AboutUs/newsroom/consumer/globe-at-home-vcdc-residences-high-speed-internet/consumer-VCDC-thumbnail-listing.jpg",
      "articleUrl": "https://www.globe.com.ph/about-us/newsroom/consumer/globe-at-home-vcdc-residences-high-speed-internet.html",
      "columnType": "articles--type-3",
      "typeListing": "article",
      "imageMobile": "/sites/globe.com.ph/files/content/dam/globe/brie/AboutUs/newsroom/consumer/globe-at-home-vcdc-residences-high-speed-internet/consumer-VCDC-primary-thumbnail-m.jpg",
      "imageDesktop": "/sites/globe.com.ph/files/content/dam/globe/brie/AboutUs/newsroom/consumer/globe-at-home-vcdc-residences-high-speed-internet/consumer-VCDC-primary-thumbnail-d.jpg",
      "description": "Globe At Home partners with VCDC to build the first development that comes with a built-in high-speed home internet connection. Visit Globe Newsroom for more.",
      "datePosted": "Dec 27, 2019 | 11:36 AM",
      "titleFromTag": "Consumer"
    },
    {
      "title": "Philippine Telcos Form Joint Venture, Select Syniverse to Enable Mobile Portability Services",
      "nonclickable": false,
      "openNewTab": false,
      "borderArticle": "border-color:#0074D9;",
      "borderTopArticle": "border-top-color:#0074D9;",
      "imageListing": "/sites/globe.com.ph/files/content/dam/globe/brie/AboutUs/newsroom/partners/ph-telcos-joint-venture-mobile-portability/partners-select-syniverse-thumbnail-listing.jpg",
      "articleUrl": "https://www.globe.com.ph/about-us/newsroom/partners/ph-telcos-joint-venture-mobile-portability.html",
      "columnType": "articles--type-3",
      "typeListing": "article",
      "imageMobile": "/sites/globe.com.ph/files/content/dam/globe/brie/AboutUs/newsroom/partners/ph-telcos-joint-venture-mobile-portability/partners-select-syniverse-primary-thumbnail-d.jpg",
      "imageDesktop": "/sites/globe.com.ph/files/content/dam/globe/brie/AboutUs/newsroom/partners/ph-telcos-joint-venture-mobile-portability/partners-select-syniverse-primary-thumbnail-d.jpg",
      "description": "Globe, Dito Telecommunity and Smart have joined forces to enable the new mobile number portability initiative of the government. Visit Globe Newsroom for more.",
      "datePosted": "Dec 26, 2019 | 11:10 AM",
      "titleFromTag": "Partners"
    },
    {
      "title": "Mobile Technologies Help Reduce Carbon Emissions and Address Climate Change",
      "nonclickable": false,
      "openNewTab": false,
      "borderArticle": "border-color:#1C91C5;",
      "borderTopArticle": "border-top-color:#1C91C5;",
      "imageListing": "/sites/globe.com.ph/files/content/dam/globe/brie/AboutUs/newsroom/sustainability/mobile-tech-reduce-carbon-emissions-climate-change/sustainability-Mobile-technologies-help-reduce-carbon-emissions-thumbnail-listing.jpg",
      "articleUrl": "https://www.globe.com.ph/about-us/newsroom/sustainability/mobile-tech-reduce-carbon-emissions-climate-change.html",
      "columnType": "articles--type-3",
      "typeListing": "article",
      "imageMobile": "/sites/globe.com.ph/files/content/dam/globe/brie/AboutUs/newsroom/sustainability/mobile-tech-reduce-carbon-emissions-climate-change/sustainability-Mobile-technologies-help-reduce-carbon-emissions-primary-thumbnail-m.jpg",
      "imageDesktop": "/sites/globe.com.ph/files/content/dam/globe/brie/AboutUs/newsroom/sustainability/mobile-tech-reduce-carbon-emissions-climate-change/sustainability-Mobile-technologies-help-reduce-carbon-emissions-primary-thumbnail-d.jpg",
      "description": "Globe is committed to reduce carbon emissions through connectivity and behavior change. Visit Globe Newsroom for more.",
      "datePosted": "Dec 23, 2019 | 02:44 PM",
      "titleFromTag": "Sustainability"
    },
    {
      "title": "A Bigger, More Engaging, and Inclusive Esports Center is Back in Eastwood",
      "nonclickable": false,
      "openNewTab": false,
      "borderArticle": "border-color:#0074D9;",
      "borderTopArticle": "border-top-color:#0074D9;",
      "imageListing": "/sites/globe.com.ph/files/content/dam/globe/brie/AboutUs/newsroom/consumer/bigger-esports-center-back-in-eastwood/Consumer-Esports-Center-thumbnail-listing.jpg",
      "articleUrl": "https://www.globe.com.ph/about-us/newsroom/consumer/bigger-esports-center-back-in-eastwood.html",
      "columnType": "articles--type-3",
      "typeListing": "article",
      "imageMobile": "/sites/globe.com.ph/files/content/dam/globe/brie/AboutUs/newsroom/consumer/bigger-esports-center-back-in-eastwood/Consumer-Esports-Center-primary-thumbnail-m.jpg",
      "imageDesktop": "/sites/globe.com.ph/files/content/dam/globe/brie/AboutUs/newsroom/consumer/bigger-esports-center-back-in-eastwood/Consumer-Esports-Center-primary-thumbnail.jpg",
      "description": "Esports gets another boost it truly deserves with the opening of the Esports Center (ESC) in Eastwood Mall in Quezon City. Visit Globe Newsroom for more.",
      "datePosted": "Dec 20, 2019 | 05:03 PM",
      "titleFromTag": "Consumer"
    },
    {
      "title": "Get Great Holiday Treats via the Globe At Home App!",
      "nonclickable": false,
      "openNewTab": false,
      "borderArticle": "border-color:#0074D9;",
      "borderTopArticle": "border-top-color:#0074D9;",
      "imageListing": "/sites/globe.com.ph/files/content/dam/globe/brie/AboutUs/newsroom/consumer/globe-at-home-app-holiday-treats/consumer-GAH-APP-thumbnail-listing.jpg",
      "articleUrl": "https://www.globe.com.ph/about-us/newsroom/consumer/globe-at-home-app-holiday-treats.html",
      "columnType": "articles--type-3",
      "typeListing": "article",
      "imageMobile": "/sites/globe.com.ph/files/content/dam/globe/brie/AboutUs/newsroom/consumer/globe-at-home-app-holiday-treats/consumer-GAH-APP-primary-thumbnail-m.jpg",
      "imageDesktop": "/sites/globe.com.ph/files/content/dam/globe/brie/AboutUs/newsroom/consumer/globe-at-home-app-holiday-treats/consumer-GAH-APP-primary-thumbnail-d.jpg",
      "description": "To celebrate the coming of Christmas, Globe At Home aims to delight customers with exciting promos from top brands via their app! Visit Globe Newsroom for more.",
      "datePosted": "Dec 20, 2019 | 04:51 PM",
      "titleFromTag": "Consumer"
    },
    {
      "title": "DOH IV-A Taps KonsultaMD to Provide Free Primary Healthcare Services to CALABARZON Residents",
      "nonclickable": false,
      "openNewTab": false,
      "borderArticle": "border-color:#0074D9;",
      "borderTopArticle": "border-top-color:#0074D9;",
      "imageListing": "/sites/globe.com.ph/files/content/dam/globe/brie/AboutUs/newsroom/business/doh-konsultamd-free-healthcare-calabarzon/Business-DOH-IV-A-Taps-KonsultaMD-thumbnail-listing.jpg",
      "articleUrl": "https://www.globe.com.ph/about-us/newsroom/business/doh-konsultamd-free-healthcare-calabarzon.html",
      "columnType": "articles--type-3",
      "typeListing": "article",
      "imageMobile": "/sites/globe.com.ph/files/content/dam/globe/brie/AboutUs/newsroom/business/doh-konsultamd-free-healthcare-calabarzon/Business-DOH-IV-A-Taps-KonsultaMD-primary-thumbnail-m.jpg",
      "imageDesktop": "/sites/globe.com.ph/files/content/dam/globe/brie/AboutUs/newsroom/business/doh-konsultamd-free-healthcare-calabarzon/Business-DOH-IV-A-Taps-KonsultaMD-primary-thumbnail.jpg",
      "description": "DOH IV-A has tapped KonsultaMD to provide free primary healthcare services to the residents of CALABARZON. Visit Globe Newsroom for more.",
      "datePosted": "Dec 20, 2019 | 04:50 PM",
      "titleFromTag": "Business"
    },
    {
      "title": "Public Service Advisory on Globe Libreng Tawag, Charging Stations in Davao del Sur",
      "nonclickable": false,
      "openNewTab": false,
      "borderArticle": "border-color:#0074D9;",
      "borderTopArticle": "border-top-color:#0074D9;",
      "imageListing": "/sites/globe.com.ph/files/content/dam/globe/brie/AboutUs/newsroom/corporate/globe-libreng-tawag-free-charging-davao-del-sur/public-advisory-default-1-thumbnail-listing.jpg",
      "articleUrl": "https://www.globe.com.ph/about-us/newsroom/corporate/globe-libreng-tawag-free-charging-davao-del-sur.html",
      "columnType": "articles--type-3",
      "typeListing": "article",
      "imageMobile": "/sites/globe.com.ph/files/content/dam/globe/brie/AboutUs/newsroom/corporate/globe-libreng-tawag-free-charging-davao-del-sur/public-advisory-default-1-primary-thumbnail-m.jpg",
      "imageDesktop": "/sites/globe.com.ph/files/content/dam/globe/brie/AboutUs/newsroom/corporate/globe-libreng-tawag-free-charging-davao-del-sur/public-advisory-default-1-primary-thumbnail-d.jpg",
      "description": "Globe has set up Libreng Tawag and Libreng Charging stations in Davao del Sur to help residents with their communications needs. Visit Globe Newsroom for more.",
      "datePosted": "Dec 17, 2019 | 04:07 PM",
      "titleFromTag": "Corporate"
    }
  ]
}
