{
  "status": 200,
  "page": 193,
  "totalPage": 298,
  "range": "2305-2316",
  "total": 3573,
  "result": [
    {
      "title": "Victory Liner Taps Globe Business to Enable Free WiFi on Buses",
      "nonclickable": false,
      "openNewTab": false,
      "borderArticle": "border-color:#0074D9;",
      "borderTopArticle": "border-top-color:#0074D9;",
      "imageListing": "/sites/globe.com.ph/files/content/dam/globe/brie/AboutUs/newsroom/business/victory-liner-globe-business-free-wifi-buses/business-victory-liner-taps-globe-to-enable-free-wifi-on-busses-thumbnail-listing.jpg",
      "articleUrl": "https://www.globe.com.ph/about-us/newsroom/business/victory-liner-globe-business-free-wifi-buses.html",
      "columnType": "articles--type-3",
      "typeListing": "article",
      "imageMobile": "/sites/globe.com.ph/files/content/dam/globe/brie/AboutUs/newsroom/business/victory-liner-globe-business-free-wifi-buses/business-victory-liner-taps-globe-to-enable-free-wifi-on-busses-primary-thumbnail-m.jpg",
      "imageDesktop": "/sites/globe.com.ph/files/content/dam/globe/brie/AboutUs/newsroom/business/victory-liner-globe-business-free-wifi-buses/business-victory-liner-taps-globe-to-enable-free-wifi-on-busses-primary-thumbnail-d.jpg",
      "description": "Globe Business and Victory Liner have partnered to further boost bus services with connectivity solutions. Visit Globe Newsroom for more.",
      "datePosted": "Dec 16, 2019 | 03:55 PM",
      "titleFromTag": "Business"
    },
    {
      "title": "NBA League Pass with 15% Off Now Available for Globe Subscribers",
      "nonclickable": false,
      "openNewTab": false,
      "borderArticle": "border-color:#0074D9;",
      "borderTopArticle": "border-top-color:#0074D9;",
      "imageListing": "/sites/globe.com.ph/files/content/dam/globe/brie/AboutUs/newsroom/consumer/nba-league-pass-15-off-globe-users/consumer-nba-league-pass-with-15-percent-off-thumbnail-listing.jpg",
      "articleUrl": "https://www.globe.com.ph/about-us/newsroom/consumer/nba-league-pass-15-off-globe-users.html",
      "columnType": "articles--type-3",
      "typeListing": "article",
      "imageMobile": "/sites/globe.com.ph/files/content/dam/globe/brie/AboutUs/newsroom/consumer/nba-league-pass-15-off-globe-users/consumer-nba-league-pass-with-15-percent-off-primary-thumbnail-m.jpg",
      "imageDesktop": "/sites/globe.com.ph/files/content/dam/globe/brie/AboutUs/newsroom/consumer/nba-league-pass-15-off-globe-users/consumer-nba-league-pass-with-15-percent-off-primary-thumbnail-d.jpg",
      "description": "Globe Mobile customers can now get NBA League Pass with 15% off by texting any of the NBA keywords to 8080. Visit Globe Newsroom for more.",
      "datePosted": "Dec 13, 2019 | 10:50 PM",
      "titleFromTag": "Consumer"
    },
    {
      "title": "Team Lakay, Globe Ambassador Iniong Wins Kickboxing Gold in 2019 SEA Games",
      "nonclickable": false,
      "openNewTab": false,
      "borderArticle": "border-color:#0074D9;",
      "borderTopArticle": "border-top-color:#0074D9;",
      "imageListing": "/sites/globe.com.ph/files/content/dam/globe/brie/AboutUs/newsroom/consumer/team-lakay-iniong-wins-kickboxing-2019-sea-games/consumer-team-lakay-ambassador-iniong-wins-kickboxing-gold-in-sea-games-thumbnail-listing.jpg",
      "articleUrl": "https://www.globe.com.ph/about-us/newsroom/consumer/team-lakay-iniong-wins-kickboxing-2019-sea-games.html",
      "columnType": "articles--type-3",
      "typeListing": "article",
      "imageMobile": "/sites/globe.com.ph/files/content/dam/globe/brie/AboutUs/newsroom/consumer/team-lakay-iniong-wins-kickboxing-2019-sea-games/consumer-team-lakay-ambassador-iniong-wins-kickboxing-gold-in-sea-games-primary-thumbnail-m.jpg",
      "imageDesktop": "/sites/globe.com.ph/files/content/dam/globe/brie/AboutUs/newsroom/consumer/team-lakay-iniong-wins-kickboxing-2019-sea-games/consumer-team-lakay-ambassador-iniong-wins-kickboxing-gold-in-sea-games-primary-thumbnail-d.jpg",
      "description": "Gina Iniong gave the country another gold in the kickboxing event of the 2019 Southeast Asian Games. Visit Globe Newsroom for more.",
      "datePosted": "Dec 11, 2019 | 02:38 PM",
      "titleFromTag": "Consumer"
    },
    {
      "title": "Liyab’s ‘Enderr’ Wins Starcraft II Gold in 2019 SEA Games",
      "nonclickable": false,
      "openNewTab": false,
      "borderArticle": "border-color:#0074D9;",
      "borderTopArticle": "border-top-color:#0074D9;",
      "imageListing": "/sites/globe.com.ph/files/content/dam/globe/brie/AboutUs/newsroom/consumer/liyab-enderr-win-starcraft-2-gold-2019-sea-games/consumer-liyabs-enderr-wins-starcraft-2-thumbnail-listing.jpg",
      "articleUrl": "https://www.globe.com.ph/about-us/newsroom/consumer/liyab-enderr-win-starcraft-2-gold-2019-sea-games.html",
      "columnType": "articles--type-3",
      "typeListing": "article",
      "imageMobile": "/sites/globe.com.ph/files/content/dam/globe/brie/AboutUs/newsroom/consumer/liyab-enderr-win-starcraft-2-gold-2019-sea-games/consumer-liyabs-enderr-wins-starcraft-2-primary-thumbnail-m.jpg",
      "imageDesktop": "/sites/globe.com.ph/files/content/dam/globe/brie/AboutUs/newsroom/consumer/liyab-enderr-win-starcraft-2-gold-2019-sea-games/consumer-liyabs-enderr-wins-starcraft-2-primary-thumbnail-d.jpg",
      "description": "Liyab’s Caviar “Enderr” Acampado beat his opponent to win the first-ever StarCraft II gold medal of the 2019 SEA Games. Visit Globe Newsroom for more.",
      "datePosted": "Dec 10, 2019 | 02:57 PM",
      "titleFromTag": "Consumer"
    },
    {
      "title": "Globe, Affiliates Hold Meal-Packing Activity for Typhoon Tisoy Victims",
      "nonclickable": false,
      "openNewTab": false,
      "borderArticle": "border-color:#1C91C5;",
      "borderTopArticle": "border-top-color:#1C91C5;",
      "imageListing": "/sites/globe.com.ph/files/content/dam/globe/brie/AboutUs/newsroom/sustainability/globe-affiliates-pack-meals-typhoon-tisoy-victims/consumer-affiliates-hold-meal-packing-activity-thumbnail-listing.jpg",
      "articleUrl": "https://www.globe.com.ph/about-us/newsroom/sustainability/globe-affiliates-pack-meals-typhoon-tisoy-victims.html",
      "columnType": "articles--type-3",
      "typeListing": "article",
      "imageMobile": "/sites/globe.com.ph/files/content/dam/globe/brie/AboutUs/newsroom/sustainability/globe-affiliates-pack-meals-typhoon-tisoy-victims/consumer-affiliates-hold-meal-packing-activity-primary-thumbnail-m.jpg",
      "imageDesktop": "/sites/globe.com.ph/files/content/dam/globe/brie/AboutUs/newsroom/sustainability/globe-affiliates-pack-meals-typhoon-tisoy-victims/consumer-affiliates-hold-meal-packing-activity-primary-thumbnail-d.jpg",
      "description": "Globe and its affiliates created 90 meal boxes for 2,880 families in Isabela and Albay who were affected by typhoon Tisoy. Visit Globe Newsroom for more.",
      "datePosted": "Dec 10, 2019 | 02:46 PM",
      "titleFromTag": "Sustainability"
    },
    {
      "title": "Two Ways to Celebrate Shopee's 12.12 Big Christmas Sale with Globe At Home Prepaid",
      "nonclickable": false,
      "openNewTab": false,
      "borderArticle": "border-color:#0074D9;",
      "borderTopArticle": "border-top-color:#0074D9;",
      "imageListing": "/sites/globe.com.ph/files/content/dam/globe/brie/AboutUs/newsroom/consumer/shopee-12-12-globe-at-home-prepaid/consumer-two-ways-to-celebrate-shopees-12-12-christmas-sale-thumbnail-listing.jpg",
      "articleUrl": "https://www.globe.com.ph/about-us/newsroom/consumer/shopee-12-12-globe-at-home-prepaid.html",
      "columnType": "articles--type-3",
      "typeListing": "article",
      "imageMobile": "/sites/globe.com.ph/files/content/dam/globe/brie/AboutUs/newsroom/consumer/shopee-12-12-globe-at-home-prepaid/consumer-two-ways-to-celebrate-shopees-12-12-christmas-sale-primary-thumbnail-m.jpg",
      "imageDesktop": "/sites/globe.com.ph/files/content/dam/globe/brie/AboutUs/newsroom/consumer/shopee-12-12-globe-at-home-prepaid/consumer-two-ways-to-celebrate-shopees-12-12-christmas-sale-primary-thumbnail-d.jpg",
      "description": "Take your holiday shopping online and give the gift of WiFi with Globe At Home Prepaid WiFi and Shopee! Visit Globe Newsroom for more.",
      "datePosted": "Dec 10, 2019 | 02:10 PM",
      "titleFromTag": "Consumer"
    },
    {
      "title": "Level Up and Get Bigger GBs with Globe Prepaid’s GoSAKTO",
      "nonclickable": false,
      "openNewTab": false,
      "borderArticle": "border-color:#0074D9;",
      "borderTopArticle": "border-top-color:#0074D9;",
      "imageListing": "/sites/globe.com.ph/files/content/dam/globe/brie/AboutUs/newsroom/consumer/bigger-gbs-gosakto/consumer-announces-additional-free-1gb-fb-ig-yt-daily-template-thumbnail-listing.jpg",
      "articleUrl": "https://www.globe.com.ph/about-us/newsroom/consumer/bigger-gbs-gosakto.html",
      "columnType": "articles--type-3",
      "typeListing": "article",
      "imageMobile": "/sites/globe.com.ph/files/content/dam/globe/brie/AboutUs/newsroom/consumer/bigger-gbs-gosakto/consumer-announces-additional-free-1gb-fb-ig-yt-daily-template-primary-thumbnail-m.jpg",
      "imageDesktop": "/sites/globe.com.ph/files/content/dam/globe/brie/AboutUs/newsroom/consumer/bigger-gbs-gosakto/consumer-announces-additional-free-1gb-fb-ig-yt-daily-template-primary-thumbnail-d.jpg",
      "description": "GoSAKTO now comes with bigger data allocations of up to 4GB for 7 days. Visit the Newsroom for the latest news on Globe Telecom.",
      "datePosted": "Dec 06, 2019 | 12:56 PM",
      "titleFromTag": "Consumer"
    },
    {
      "title": "Internet to be the “New TV” for More Filipino Homes",
      "nonclickable": false,
      "openNewTab": false,
      "borderArticle": "border-color:#0074D9;",
      "borderTopArticle": "border-top-color:#0074D9;",
      "imageListing": "/sites/globe.com.ph/files/content/dam/globe/brie/AboutUs/newsroom/consumer/internet-to-be-new-tv/consumer-internet-to-be-the-new-tv-thumbnail-listing.jpg",
      "articleUrl": "https://www.globe.com.ph/about-us/newsroom/consumer/internet-to-be-new-tv.html",
      "columnType": "articles--type-3",
      "typeListing": "article",
      "imageMobile": "/sites/globe.com.ph/files/content/dam/globe/brie/AboutUs/newsroom/consumer/internet-to-be-new-tv/consumer-internet-to-be-the-new-tv-primary-thumbnail-m.jpg",
      "imageDesktop": "/sites/globe.com.ph/files/content/dam/globe/brie/AboutUs/newsroom/consumer/internet-to-be-new-tv/consumer-internet-to-be-the-new-tv-primary-thumbnail-d.jpg",
      "description": "Globe At Home Prepaid VP Winsley Bangit discussed Globe's role in accelerating the developments in PH's home internet consumer habits.",
      "datePosted": "Dec 05, 2019 | 01:31 PM",
      "titleFromTag": "Consumer"
    },
    {
      "title": "Iloilo Becomes Globe GoWiFi Site",
      "nonclickable": false,
      "openNewTab": false,
      "borderArticle": "border-color:#0074D9;",
      "borderTopArticle": "border-top-color:#0074D9;",
      "imageListing": "/sites/globe.com.ph/files/content/dam/globe/brie/AboutUs/newsroom/partners/iloilo-becomes-gowifi-site/partners-iloilo-becomes-globe-gowifi-site-thumbnail-listing.jpg",
      "articleUrl": "https://www.globe.com.ph/about-us/newsroom/partners/iloilo-becomes-gowifi-site.html",
      "columnType": "articles--type-3",
      "typeListing": "article",
      "imageMobile": "/sites/globe.com.ph/files/content/dam/globe/brie/AboutUs/newsroom/partners/iloilo-becomes-gowifi-site/partners-iloilo-becomes-globe-gowifi-site-primary-thumbnail-m.jpg",
      "imageDesktop": "/sites/globe.com.ph/files/content/dam/globe/brie/AboutUs/newsroom/partners/iloilo-becomes-gowifi-site/partners-iloilo-becomes-globe-gowifi-site-primary-thumbnail-d.jpg",
      "description": "Through its GoWiFi services, Globe has established a milestone partnership with Iloilo City. Visit the Newsroom for the latest news on Globe Telecom.",
      "datePosted": "Dec 05, 2019 | 01:23 PM",
      "titleFromTag": "Partners"
    },
    {
      "title": "Globe Libreng Tawag and Charging Stations Now Up in Samar, Marinduque, Albay, Quezon, Camarines Sur",
      "nonclickable": false,
      "openNewTab": false,
      "imageListing": "/sites/globe.com.ph/files/content/dam/globe/brie/AboutUs/newsroom/corporate/globe-libreng-tawag-free-charging-typhoon-tisoy/default-press-release-thumbnail-listing.jpg",
      "articleUrl": "https://www.globe.com.ph/about-us/newsroom/corporate/globe-libreng-tawag-free-charging-typhoon-tisoy.html",
      "columnType": "articles--type-3",
      "typeListing": "article",
      "imageMobile": "/sites/globe.com.ph/files/content/dam/globe/brie/AboutUs/newsroom/corporate/globe-libreng-tawag-free-charging-typhoon-tisoy/new/default-press-release-primary-thumbnail-m.jpg",
      "imageDesktop": "/sites/globe.com.ph/files/content/dam/globe/brie/AboutUs/newsroom/corporate/globe-libreng-tawag-free-charging-typhoon-tisoy/default-press-release-primary-thumbnail-d.jpg",
      "description": "Globe Libreng Tawag and Charging Stations now up in Samar, Marinduque, Albay, Quezon, a and Camarines Sur. Visit Globe Newsroom for more.",
      "datePosted": "Dec 04, 2019 | 05:15 PM",
      "titleFromTag": "Corporate"
    },
    {
      "title": "Elevate Your Star Wars: The Rise of Skywalker Experience with Globe’s Fan Force Weekend",
      "nonclickable": false,
      "openNewTab": false,
      "borderArticle": "border-color:#0074D9;",
      "borderTopArticle": "border-top-color:#0074D9;",
      "imageListing": "/sites/globe.com.ph/files/content/dam/globe/brie/AboutUs/newsroom/consumer/fan-force-weekend/consumer-starwars-fan-force-weekend-thumbnail-listing.jpg",
      "articleUrl": "https://www.globe.com.ph/about-us/newsroom/consumer/fan-force-weekend.html",
      "columnType": "articles--type-3",
      "typeListing": "article",
      "imageMobile": "/sites/globe.com.ph/files/content/dam/globe/brie/AboutUs/newsroom/consumer/fan-force-weekend/consumer-starwars-fan-force-weekend-primary-thumbnail-m.jpg",
      "imageDesktop": "/sites/globe.com.ph/files/content/dam/globe/brie/AboutUs/newsroom/consumer/fan-force-weekend/consumer-starwars-fan-force-weekend-primary-thumbnail-d.jpg",
      "description": "Show how big a Star Wars fan you are by joining Globe’s Fan Force Weekend on December 7 and 8 at the Bonifacio High Street Amphitheater. Learn more",
      "datePosted": "Dec 04, 2019 | 03:56 PM",
      "titleFromTag": "Consumer"
    },
    {
      "title": "Globe Pushes for Social Changes through Digital Technology",
      "nonclickable": false,
      "openNewTab": false,
      "borderArticle": "border-color:#1C91C5;",
      "borderTopArticle": "border-top-color:#1C91C5;",
      "imageListing": "/sites/globe.com.ph/files/content/dam/globe/brie/AboutUs/newsroom/sustainability/globe-pushes-social-changes/sustainabile-push-for-social-changes-thorugh-digital-techthumbnail-listing.jpg",
      "articleUrl": "https://www.globe.com.ph/about-us/newsroom/sustainability/globe-pushes-social-changes.html",
      "columnType": "articles--type-3",
      "typeListing": "article",
      "imageMobile": "/sites/globe.com.ph/files/content/dam/globe/brie/AboutUs/newsroom/sustainability/globe-pushes-social-changes/sustainabile-push-for-social-changes-thorugh-digital-techprimary-thumbnail-m.jpg",
      "imageDesktop": "/sites/globe.com.ph/files/content/dam/globe/brie/AboutUs/newsroom/sustainability/globe-pushes-social-changes/sustainabile-push-for-social-changes-thorugh-digital-techprimary-thumbnail-d.jpg",
      "description": "Globe harnesses the power of digital technology to accelerate social changes and create significant social impact. Visit Globe Newsroom for more.",
      "datePosted": "Dec 04, 2019 | 12:25 PM",
      "titleFromTag": "Sustainability"
    }
  ]
}
