{
  "status": 200,
  "page": 194,
  "totalPage": 298,
  "range": "2317-2328",
  "total": 3573,
  "result": [
    {
      "title": "Globe to Provide Free Unli Internet Services in Typhoon Tisoy Affected Areas",
      "nonclickable": false,
      "openNewTab": false,
      "borderArticle": "border-color:#0074D9;",
      "borderTopArticle": "border-top-color:#0074D9;",
      "imageListing": "/sites/globe.com.ph/files/content/dam/globe/brie/AboutUs/newsroom/corporate/globe-free-internet-typhoon-tisoy-affected-areas/default-consumer-3-thumbnail-listing.jpg",
      "articleUrl": "https://www.globe.com.ph/about-us/newsroom/corporate/globe-free-internet-typhoon-tisoy-affected-areas.html",
      "columnType": "articles--type-3",
      "typeListing": "article",
      "imageMobile": "/sites/globe.com.ph/files/content/dam/globe/brie/AboutUs/newsroom/corporate/globe-free-internet-typhoon-tisoy-affected-areas/default-consumer-3-primary-thumbnail-m.jpg",
      "imageDesktop": "/sites/globe.com.ph/files/content/dam/globe/brie/AboutUs/newsroom/corporate/globe-free-internet-typhoon-tisoy-affected-areas/default-consumer-3-primary-thumbnail-d.jpg",
      "description": "Globe will provide free and unli internet via GoWiFi to Typhoon Tisoy-affected areas from Dec 3 to 4, 2019. Visit the Newsroom for the latest company news.",
      "datePosted": "Dec 03, 2019 | 05:12 PM",
      "titleFromTag": "Corporate"
    },
    {
      "title": "Globe myBusiness Helps Finance SMEs Improve Data Security via Data Privacy Awareness Workshop",
      "nonclickable": false,
      "openNewTab": false,
      "borderArticle": "border-color:#0074D9;",
      "borderTopArticle": "border-top-color:#0074D9;",
      "imageListing": "/sites/globe.com.ph/files/content/dam/globe/brie/AboutUs/newsroom/business/globe-mybusiness-helps-finance-sme-data-security/updated/business-helps-finance-sme-improve-data-security-thumbnail-listing.jpg",
      "articleUrl": "https://www.globe.com.ph/about-us/newsroom/business/globe-mybusiness-helps-finance-sme-data-security.html",
      "columnType": "articles--type-3",
      "typeListing": "article",
      "imageMobile": "/sites/globe.com.ph/files/content/dam/globe/brie/AboutUs/newsroom/business/globe-mybusiness-helps-finance-sme-data-security/updated/business-helps-finance-sme-improve-data-security-primary-thumbnail-m.jpg",
      "imageDesktop": "/sites/globe.com.ph/files/content/dam/globe/brie/AboutUs/newsroom/business/globe-mybusiness-helps-finance-sme-data-security/updated/business-helps-finance-sme-improve-data-security-primary-thumbnail-d.jpg",
      "description": "Globe myBusiness held a data privacy awareness workshop for finance SMEs to help them improve their data security. Visit Globe Newsroom for more.",
      "datePosted": "Dec 03, 2019 | 10:32 AM",
      "titleFromTag": "Business"
    },
    {
      "title": "GoWiFi Caps Milestone Year with 2019 Partners Night",
      "nonclickable": false,
      "openNewTab": false,
      "borderArticle": "border-color:#0074D9;",
      "borderTopArticle": "border-top-color:#0074D9;",
      "imageListing": "/sites/globe.com.ph/files/content/dam/globe/brie/AboutUs/newsroom/partners/gowifi-milestone-year-2019-partners-night/partners-caps-milestone-year-with-2019-thumbnail-listing.jpg",
      "articleUrl": "https://www.globe.com.ph/about-us/newsroom/partners/gowifi-milestone-year-2019-partners-night.html",
      "columnType": "articles--type-3",
      "typeListing": "article",
      "imageMobile": "/sites/globe.com.ph/files/content/dam/globe/brie/AboutUs/newsroom/partners/gowifi-milestone-year-2019-partners-night/partners-caps-milestone-year-with-2019-primary-thumbnail-m.jpg",
      "imageDesktop": "/sites/globe.com.ph/files/content/dam/globe/brie/AboutUs/newsroom/partners/gowifi-milestone-year-2019-partners-night/partners-caps-milestone-year-with-2019-primary-thumbnail-d.jpg",
      "description": "Globe marks another year of GoWiFi at the 2019 Partners Night in BGC, Taguig. Visit the Newsroom for the latest news on Globe Telecom.",
      "datePosted": "Dec 02, 2019 | 10:17 AM",
      "titleFromTag": "Partners"
    },
    {
      "title": "Team Lakay Bets Seek Gold in 2019 Southeast Asian Games",
      "nonclickable": false,
      "openNewTab": false,
      "borderArticle": "border-color:#0074D9;",
      "borderTopArticle": "border-top-color:#0074D9;",
      "imageListing": "/sites/globe.com.ph/files/content/dam/globe/brie/AboutUs/newsroom/consumer/team-lakay-gold-medal-sea-games-2019/consumer-team-lakay-bets-seek-gold-thumbnail-listing.jpg",
      "articleUrl": "https://www.globe.com.ph/about-us/newsroom/consumer/team-lakay-gold-medal-sea-games-2019.html",
      "columnType": "articles--type-3",
      "typeListing": "article",
      "imageMobile": "/sites/globe.com.ph/files/content/dam/globe/brie/AboutUs/newsroom/consumer/team-lakay-gold-medal-sea-games-2019/consumer-team-lakay-bets-seek-gold-primary-thumbnail-m.jpg",
      "imageDesktop": "/sites/globe.com.ph/files/content/dam/globe/brie/AboutUs/newsroom/consumer/team-lakay-gold-medal-sea-games-2019/consumer-team-lakay-bets-seek-gold-primary-thumbnail-d.jpg",
      "description": "Three members of Baguio's Team Lakay are eyeing a gold medal as they compete in the 2019 Southeast Asian Games. Visit Globe Newsroom for more.",
      "datePosted": "Nov 29, 2019 | 01:33 PM",
      "titleFromTag": "Consumer"
    },
    {
      "title": "Mass Market Access to Home Internet Innovations Key to a Stronger and More Connected Philippines",
      "nonclickable": false,
      "openNewTab": false,
      "borderArticle": "border-color:#0074D9;",
      "borderTopArticle": "border-top-color:#0074D9;",
      "imageListing": "/sites/globe.com.ph/files/content/dam/globe/brie/AboutUs/newsroom/consumer/access-home-internet-innovations-key-connected-ph/consumer-mass-market-access-to-home-internet-thumbnail-listing.jpg",
      "articleUrl": "https://www.globe.com.ph/about-us/newsroom/consumer/access-home-internet-innovations-key-connected-ph.html",
      "columnType": "articles--type-3",
      "typeListing": "article",
      "imageMobile": "/sites/globe.com.ph/files/content/dam/globe/brie/AboutUs/newsroom/consumer/access-home-internet-innovations-key-connected-ph/consumer-mass-market-access-to-home-internet-primary-thumbnail-m.jpg",
      "imageDesktop": "/sites/globe.com.ph/files/content/dam/globe/brie/AboutUs/newsroom/consumer/access-home-internet-innovations-key-connected-ph/consumer-mass-market-access-to-home-internet-primary-thumbnail-d.jpg",
      "description": "Globe pushes prepaid home internet innovations as catalysts in the digital transformation of the Philippines. Visit the Newsroom for the latest news on Globe Telecom.",
      "datePosted": "Nov 28, 2019 | 11:09 AM",
      "titleFromTag": "Consumer"
    },
    {
      "title": "Mass Market Access to Home Internet Innovations Key to a Stronger and More Connected Philippines",
      "nonclickable": false,
      "openNewTab": false,
      "borderArticle": "border-color:#0074D9;",
      "borderTopArticle": "border-top-color:#0074D9;",
      "imageListing": "/sites/globe.com.ph/files/content/dam/globe/brie/AboutUs/newsroom/consumer/access-home-internet-innovations-key-connected-ph/consumer-mass-market-access-to-home-internet-thumbnail-listing.jpg",
      "articleUrl": "https://www.globe.com.ph/about-us/newsroom/consumer/home-internet-innovations-key-connected-ph.html",
      "columnType": "articles--type-3",
      "typeListing": "article",
      "imageMobile": "/sites/globe.com.ph/files/content/dam/globe/brie/AboutUs/newsroom/consumer/access-home-internet-innovations-key-connected-ph/consumer-mass-market-access-to-home-internet-primary-thumbnail-m.jpg",
      "imageDesktop": "/sites/globe.com.ph/files/content/dam/globe/brie/AboutUs/newsroom/consumer/access-home-internet-innovations-key-connected-ph/consumer-mass-market-access-to-home-internet-primary-thumbnail-d.jpg",
      "description": "Globe pushes prepaid home internet innovations as catalysts in the digital transformation of the Philippines. Visit Globe Newsroom for more.",
      "datePosted": "Nov 28, 2019 | 11:09 AM",
      "titleFromTag": "Consumer"
    },
    {
      "title": "Globe At Home, Disney Make Christmas More Magical and Delightful",
      "nonclickable": false,
      "openNewTab": false,
      "borderArticle": "border-color:#0074D9;",
      "borderTopArticle": "border-top-color:#0074D9;",
      "imageListing": "/sites/globe.com.ph/files/content/dam/globe/brie/AboutUs/newsroom/consumer/globe-at-home-disney-make-christmas-magical/consumer-disney-make-christmas-more-magicalthumbnail-listing.jpg",
      "articleUrl": "https://www.globe.com.ph/about-us/newsroom/consumer/globe-at-home-disney-make-christmas-magical.html",
      "columnType": "articles--type-3",
      "typeListing": "article",
      "imageMobile": "/sites/globe.com.ph/files/content/dam/globe/brie/AboutUs/newsroom/consumer/globe-at-home-disney-make-christmas-magical/consumer-disney-make-christmas-more-magicalprimary-thumbnail-m.jpg",
      "imageDesktop": "/sites/globe.com.ph/files/content/dam/globe/brie/AboutUs/newsroom/consumer/globe-at-home-disney-make-christmas-magical/consumer-disney-make-christmas-more-magicalprimary-thumbnail-d.jpg",
      "description": "Globe At Home delighted their Postpaid and Prepaid customers with a free three-month access to DisneyLife. Visit Globe Newsroom for more.",
      "datePosted": "Nov 27, 2019 | 11:01 AM",
      "titleFromTag": "Consumer"
    },
    {
      "title": "Globe Business, Cascadeo Partnership to Deliver Cloud-Native Consulting, Managed Services Across PH",
      "nonclickable": false,
      "openNewTab": false,
      "borderArticle": "border-color:#0074D9;",
      "borderTopArticle": "border-top-color:#0074D9;",
      "imageListing": "/sites/globe.com.ph/files/content/dam/globe/brie/AboutUs/newsroom/business/globe-business-cascadeo-cloud-consulting-ph/business-cascadeo-partnership-to-deliver-cloud-native-consulting-thumbnail-listing.jpg",
      "articleUrl": "https://www.globe.com.ph/about-us/newsroom/business/globe-business-cascadeo-cloud-consulting-ph.html",
      "columnType": "articles--type-3",
      "typeListing": "article",
      "imageMobile": "/sites/globe.com.ph/files/content/dam/globe/brie/AboutUs/newsroom/business/globe-business-cascadeo-cloud-consulting-ph/business-cascadeo-partnership-to-deliver-cloud-native-consulting-primary-thumbnail-m.jpg",
      "imageDesktop": "/sites/globe.com.ph/files/content/dam/globe/brie/AboutUs/newsroom/business/globe-business-cascadeo-cloud-consulting-ph/business-cascadeo-partnership-to-deliver-cloud-native-consulting-primary-thumbnail-d.jpg",
      "description": "Globe Business and Cascadeo partner to bring cloud engineering, operations, and data science to PH. Visit the Newsroom for the latest news on Globe Telecom.",
      "datePosted": "Nov 26, 2019 | 01:52 PM",
      "titleFromTag": "Business"
    },
    {
      "title": "Globe myBusiness supports 7th Cavite Cooperative Leaders’ Conference",
      "nonclickable": false,
      "openNewTab": false,
      "borderArticle": "border-color:#0074D9;",
      "borderTopArticle": "border-top-color:#0074D9;",
      "imageListing": "/sites/globe.com.ph/files/content/dam/globe/brie/AboutUs/newsroom/business/globe-mybusiness-cavite-cooperative-leaders-conference/business-supports-7th-cavite-coop-leaders-conference-thumbnail-listing.jpg",
      "articleUrl": "https://www.globe.com.ph/about-us/newsroom/business/globe-mybusiness-cavite-cooperative-leaders-conference.html",
      "columnType": "articles--type-3",
      "typeListing": "article",
      "imageMobile": "/sites/globe.com.ph/files/content/dam/globe/brie/AboutUs/newsroom/business/globe-mybusiness-cavite-cooperative-leaders-conference/business-supports-7th-cavite-coop-leaders-conference-primary-thumbnail-m.jpg",
      "imageDesktop": "/sites/globe.com.ph/files/content/dam/globe/brie/AboutUs/newsroom/business/globe-mybusiness-cavite-cooperative-leaders-conference/business-supports-7th-cavite-coop-leaders-conference-primary-thumbnail-d.jpg",
      "description": "Globe myBusiness support events such as the Cooperative Leaders’ Conference to meet businesses where they are. Visit Globe Newsroom for more.",
      "datePosted": "Nov 26, 2019 | 01:36 PM",
      "titleFromTag": "Business"
    },
    {
      "title": "Philippine Volcanoes Get Boost from Globe Before 2020 Olympic Qualifying Tournament",
      "nonclickable": false,
      "openNewTab": false,
      "borderArticle": "border-color:#0074D9;",
      "borderTopArticle": "border-top-color:#0074D9;",
      "imageListing": "/sites/globe.com.ph/files/content/dam/globe/brie/AboutUs/newsroom/corporate/globe-boost-ph-volcanoes-olympic-qualifiers/corporate-philippine-volcanoes-get-boost-for-2020-olympic-thumbnail-listing.jpg",
      "articleUrl": "https://www.globe.com.ph/about-us/newsroom/corporate/globe-boost-ph-volcanoes-olympic-qualifiers.html",
      "columnType": "articles--type-3",
      "typeListing": "article",
      "imageMobile": "/sites/globe.com.ph/files/content/dam/globe/brie/AboutUs/newsroom/corporate/globe-boost-ph-volcanoes-olympic-qualifiers/corporate-philippine-volcanoes-get-boost-for-2020-olympic-primary-thumbnail-m.jpg",
      "imageDesktop": "/sites/globe.com.ph/files/content/dam/globe/brie/AboutUs/newsroom/corporate/globe-boost-ph-volcanoes-olympic-qualifiers/corporate-philippine-volcanoes-get-boost-for-2020-olympic-primary-thumbnail-d.jpg",
      "description": "PH Volcanoes got support from Globe before the 2020 Tokyo Olympic Games Qualifiers. Visit the Newsroom for the latest news on Globe Telecom.",
      "datePosted": "Nov 21, 2019 | 03:26 PM",
      "titleFromTag": "Corporate"
    },
    {
      "title": "Step Into the Magical World of Frozen 2’s Enchanted Forest with Globe At Home and Disney",
      "nonclickable": false,
      "openNewTab": false,
      "borderArticle": "border-color:#0074D9;",
      "borderTopArticle": "border-top-color:#0074D9;",
      "imageListing": "/sites/globe.com.ph/files/content/dam/globe/brie/AboutUs/newsroom/consumer/frozen-2-globe-at-home-disney/consumer-step-into-the-magical-world-of-frozen-2thumbnail-listing.jpg",
      "articleUrl": "https://www.globe.com.ph/about-us/newsroom/consumer/frozen-2-globe-at-home-disney.html",
      "columnType": "articles--type-3",
      "typeListing": "article",
      "imageMobile": "/sites/globe.com.ph/files/content/dam/globe/brie/AboutUs/newsroom/consumer/frozen-2-globe-at-home-disney/consumer-step-into-the-magical-world-of-frozen-2primary-thumbnail-m.jpg",
      "imageDesktop": "/sites/globe.com.ph/files/content/dam/globe/brie/AboutUs/newsroom/consumer/frozen-2-globe-at-home-disney/consumer-step-into-the-magical-world-of-frozen-2primary-thumbnail-d.jpg",
      "description": "Frozen 2 is here and Globe at Home is teaming up with Disney to bring you the highly anticipated sequel. Visit Globe Newsroom for more.",
      "datePosted": "Nov 21, 2019 | 10:03 AM",
      "titleFromTag": "Consumer"
    },
    {
      "title": "FOPM, Globe to Accelerate Digitally Powered Megaworld Properties",
      "nonclickable": false,
      "openNewTab": false,
      "borderArticle": "border-color:#0074D9;",
      "borderTopArticle": "border-top-color:#0074D9;",
      "imageListing": "/sites/globe.com.ph/files/content/dam/globe/brie/AboutUs/newsroom/partners/fopm-globe-accelerate-digitally-powered-megaworld-properties/default-partner-1-thumbnail-listing.jpg",
      "articleUrl": "https://www.globe.com.ph/about-us/newsroom/partners/fopm-globe-accelerate-digitally-powered-megaworld-properties.html",
      "columnType": "articles--type-3",
      "typeListing": "article",
      "imageMobile": "/sites/globe.com.ph/files/content/dam/globe/brie/AboutUs/newsroom/partners/fopm-globe-accelerate-digitally-powered-megaworld-properties/default-partner-1-primary-thumbnail-m.jpg",
      "imageDesktop": "/sites/globe.com.ph/files/content/dam/globe/brie/AboutUs/newsroom/partners/fopm-globe-accelerate-digitally-powered-megaworld-properties/default-partner-1-primary-thumbnail-d.jpg",
      "description": "FOPM and Globe partnered to revolutionize the property management industry through digital technology. Visit the Newsroom for the latest news on Globe Telecom.",
      "datePosted": "Nov 20, 2019 | 12:09 PM",
      "titleFromTag": "Partners"
    }
  ]
}
