{
  "status": 200,
  "page": 195,
  "totalPage": 298,
  "range": "2329-2340",
  "total": 3573,
  "result": [
    {
      "title": "Globe Converts Nueva Ecija University Campus to GoWiFi Site",
      "nonclickable": false,
      "openNewTab": false,
      "borderArticle": "border-color:#0074D9;",
      "borderTopArticle": "border-top-color:#0074D9;",
      "imageListing": "/sites/globe.com.ph/files/content/dam/globe/brie/AboutUs/newsroom/partners/globe-converts-neust-gowifi-site/partners-converts-nueva-ecija-univ-campus-gowifi-sitethumbnail-listing.jpg",
      "articleUrl": "https://www.globe.com.ph/about-us/newsroom/partners/globe-converts-neust-gowifi-site.html",
      "columnType": "articles--type-3",
      "typeListing": "article",
      "imageMobile": "/sites/globe.com.ph/files/content/dam/globe/brie/AboutUs/newsroom/partners/globe-converts-neust-gowifi-site/partners-converts-nueva-ecija-univ-campus-gowifi-siteprimary-thumbnail-m.jpg",
      "imageDesktop": "/sites/globe.com.ph/files/content/dam/globe/brie/AboutUs/newsroom/partners/globe-converts-neust-gowifi-site/partners-converts-nueva-ecija-univ-campus-gowifi-siteprimary-thumbnail-d.jpg",
      "description": "Globe and NEUST partnered to provide students and staff with quality data connectivity through GoWiFi services. Visit Globe Newsroom for more.",
      "datePosted": "Nov 19, 2019 | 01:32 PM",
      "titleFromTag": "Partners"
    },
    {
      "title": "TM Forum Lauds Globe for Being One of the First Few Companies in Asia Supporting IT Agility, Software Architecture",
      "nonclickable": false,
      "openNewTab": false,
      "borderArticle": "border-color:#0074D9;",
      "borderTopArticle": "border-top-color:#0074D9;",
      "imageListing": "/sites/globe.com.ph/files/content/dam/globe/brie/AboutUs/newsroom/corporate/tm-forum-lauds-globe-it-agility-software-architecture/corporate-tm-forum-lauds-globe-thumbnail-listing.jpg",
      "articleUrl": "https://www.globe.com.ph/about-us/newsroom/corporate/tm-forum-lauds-globe-it-agility-software-architecture.html",
      "columnType": "articles--type-3",
      "typeListing": "article",
      "imageMobile": "/sites/globe.com.ph/files/content/dam/globe/brie/AboutUs/newsroom/corporate/tm-forum-lauds-globe-it-agility-software-architecture/corporate-tm-forum-lauds-globe-primary-thumbnail-m.jpg",
      "imageDesktop": "/sites/globe.com.ph/files/content/dam/globe/brie/AboutUs/newsroom/corporate/tm-forum-lauds-globe-it-agility-software-architecture/corporate-tm-forum-lauds-globe-primary-thumbnail-d.jpg",
      "description": "The TM Forum has cited Globe as one of the top telcos supporting the new Open API and Open Digital Architecture Manifesto. Visit Globe Newsroom for more.",
      "datePosted": "Nov 19, 2019 | 01:31 PM",
      "titleFromTag": "Corporate"
    },
    {
      "title": "Highly Anticipated TM Football Para Sa Bayan Free Clinics Return at BGC",
      "nonclickable": false,
      "openNewTab": false,
      "borderArticle": "border-color:#1C91C5;",
      "borderTopArticle": "border-top-color:#1C91C5;",
      "imageListing": "/sites/globe.com.ph/files/content/dam/globe/brie/AboutUs/newsroom/sustainability/tm-football-para-sa-bayan-free-clinics-return/sustainability-highly-anticipated-tm-free-football-clinic-thumbnail-listing.jpg",
      "articleUrl": "https://www.globe.com.ph/about-us/newsroom/sustainability/tm-football-para-sa-bayan-free-clinics-return.html",
      "columnType": "articles--type-3",
      "typeListing": "article",
      "imageMobile": "/sites/globe.com.ph/files/content/dam/globe/brie/AboutUs/newsroom/sustainability/tm-football-para-sa-bayan-free-clinics-return/sustainability-highly-anticipated-tm-free-football-clinic-primary-thumbnail-m.jpg",
      "imageDesktop": "/sites/globe.com.ph/files/content/dam/globe/brie/AboutUs/newsroom/sustainability/tm-football-para-sa-bayan-free-clinics-return/sustainability-highly-anticipated-tm-free-football-clinic-primary-thumbnail-d.jpg",
      "description": "TM Football Para Sa Bayan (TM FPSB) are now offering free football clinics. Visit the Newsroom for the latest news on Globe Telecom.",
      "datePosted": "Nov 18, 2019 | 03:19 PM",
      "titleFromTag": "Sustainability"
    },
    {
      "title": "Globe Business Launches Leading Cloud-Enabled, Hardware-Agnostic Conferencing Platform in PH",
      "nonclickable": false,
      "openNewTab": false,
      "borderArticle": "border-color:#0074D9;",
      "borderTopArticle": "border-top-color:#0074D9;",
      "imageListing": "/sites/globe.com.ph/files/content/dam/globe/brie/AboutUs/newsroom/business/globe-launches-zoom-cloud-conferencing/business-launches-leading-cloud-enabled-hardware-agnostic-platform-thumbnail-listing.jpg",
      "articleUrl": "https://www.globe.com.ph/about-us/newsroom/business/globe-launches-zoom-cloud-conferencing.html",
      "columnType": "articles--type-3",
      "typeListing": "article",
      "imageMobile": "/sites/globe.com.ph/files/content/dam/globe/brie/AboutUs/newsroom/business/globe-launches-zoom-cloud-conferencing/business-launches-leading-cloud-enabled-hardware-agnostic-platform-primary-thumbnail-m.jpg",
      "imageDesktop": "/sites/globe.com.ph/files/content/dam/globe/brie/AboutUs/newsroom/business/globe-launches-zoom-cloud-conferencing/business-launches-leading-cloud-enabled-hardware-agnostic-platform-primary-thumbnail-d.jpg",
      "description": "Globe Business launches another game-changing solution for Philippine businesses, Zoom Cloud Meetings. Visit the Newsroom for the latest news on Globe Telecom.",
      "datePosted": "Nov 18, 2019 | 10:54 AM",
      "titleFromTag": "Business"
    },
    {
      "title": "UN Research Body Cites Globe's GFS Program in APAC Study on Broadband Connectivity for Quality Education",
      "nonclickable": false,
      "openNewTab": false,
      "borderArticle": "border-color:#1C91C5;",
      "borderTopArticle": "border-top-color:#1C91C5;",
      "imageListing": "/sites/globe.com.ph/files/content/dam/globe/brie/AboutUs/newsroom/sustainability/un-cites-globe-gfs-broadband-connectivity-quality-education/sustainability-un-research-body-cites-gfs-program-thumbnail-listing.jpg",
      "articleUrl": "https://www.globe.com.ph/about-us/newsroom/sustainability/un-cites-globe-gfs-broadband-connectivity-quality-education.html",
      "columnType": "articles--type-3",
      "typeListing": "article",
      "imageMobile": "/sites/globe.com.ph/files/content/dam/globe/brie/AboutUs/newsroom/sustainability/un-cites-globe-gfs-broadband-connectivity-quality-education/sustainability-un-research-body-cites-gfs-program-primary-thumbnail-m.jpg",
      "imageDesktop": "/sites/globe.com.ph/files/content/dam/globe/brie/AboutUs/newsroom/sustainability/un-cites-globe-gfs-broadband-connectivity-quality-education/sustainability-un-research-body-cites-gfs-program-primary-thumbnail-d.jpg",
      "description": "GFS program was included in a study on broadband connectivity for quality education conducted by the UN. Visit Globe Newsroom for more.",
      "datePosted": "Nov 18, 2019 | 10:28 AM",
      "titleFromTag": "Sustainability"
    },
    {
      "title": "Globe, FCPC Prepare Educators for Tech Integration in Schools through E-skwela",
      "nonclickable": false,
      "openNewTab": false,
      "borderArticle": "border-color:#0074D9;",
      "borderTopArticle": "border-top-color:#0074D9;",
      "imageListing": "/sites/globe.com.ph/files/content/dam/globe/brie/AboutUs/newsroom/partners/globe-fcpc-tech-integration-e-skwela/partners-fcpc-pre-thumbnail-listing.jpg",
      "articleUrl": "https://www.globe.com.ph/about-us/newsroom/partners/globe-fcpc-tech-integration-e-skwela.html",
      "columnType": "articles--type-3",
      "typeListing": "article",
      "imageMobile": "/sites/globe.com.ph/files/content/dam/globe/brie/AboutUs/newsroom/partners/globe-fcpc-tech-integration-e-skwela/partners-fcpc-pre-primary-thumbnail-m.jpg",
      "imageDesktop": "/sites/globe.com.ph/files/content/dam/globe/brie/AboutUs/newsroom/partners/globe-fcpc-tech-integration-e-skwela/partners-fcpc-pre-primary-thumbnail-d.jpg",
      "description": "Globe myBusiness Academy conducts E-Skwela, in partnership with First City Providential College FCPC. Visit the Newsroom for the latest news on Globe Telecom.",
      "datePosted": "Nov 14, 2019 | 10:20 AM",
      "titleFromTag": "Partners"
    },
    {
      "title": "Globe Announces Additional Free 1 GB for Facebook, Instagram, YouTube Daily",
      "nonclickable": false,
      "openNewTab": false,
      "borderArticle": "border-color:#0074D9;",
      "borderTopArticle": "border-top-color:#0074D9;",
      "imageListing": "/sites/globe.com.ph/files/content/dam/globe/brie/AboutUs/newsroom/consumer/globe-daily-free-1-gb-fb-ig-youtube/consumer-announces-additional-free-1gb-fb-ig-yt-daily-template-thumbnail-listing.jpg",
      "articleUrl": "https://www.globe.com.ph/about-us/newsroom/consumer/globe-daily-free-1-gb-fb-ig-youtube.html",
      "columnType": "articles--type-3",
      "typeListing": "article",
      "imageMobile": "/sites/globe.com.ph/files/content/dam/globe/brie/AboutUs/newsroom/consumer/globe-daily-free-1-gb-fb-ig-youtube/consumer-announces-additional-free-1gb-fb-ig-yt-daily-template-primary-thumbnail-m.jpg",
      "imageDesktop": "/sites/globe.com.ph/files/content/dam/globe/brie/AboutUs/newsroom/consumer/globe-daily-free-1-gb-fb-ig-youtube/consumer-announces-additional-free-1gb-fb-ig-yt-daily-template-primary-thumbnail-d.jpg",
      "description": "Globe is giving additional Free 1 GB of access daily to Facebook, Instagram and Youtube. Visit the Newsroom for the latest news on Globe Telecom.",
      "datePosted": "Nov 12, 2019 | 01:32 PM",
      "titleFromTag": "Consumer"
    },
    {
      "title": "Globe, ABS-CBN Foundation to Offer Toll-Free Calls to Bantay Bata #163 for All Globe Customers",
      "nonclickable": false,
      "openNewTab": false,
      "borderArticle": "border-color:#0074D9;",
      "borderTopArticle": "border-top-color:#0074D9;",
      "imageListing": "/sites/globe.com.ph/files/content/dam/globe/brie/AboutUs/newsroom/partners/globe-abs-cbn-offer-toll-free-calls-bantay-bata/partners-abs-cbn-foundation-to-offer-toll-free-calls-to-bantay-bata-thumbnail-listing.jpg",
      "articleUrl": "https://www.globe.com.ph/about-us/newsroom/partners/globe-abs-cbn-offer-toll-free-calls-bantay-bata.html",
      "columnType": "articles--type-3",
      "typeListing": "article",
      "imageMobile": "/sites/globe.com.ph/files/content/dam/globe/brie/AboutUs/newsroom/partners/globe-abs-cbn-offer-toll-free-calls-bantay-bata/partners-abs-cbn-foundation-to-offer-toll-free-calls-to-bantay-bata-primary-thumbnail-m.jpg",
      "imageDesktop": "/sites/globe.com.ph/files/content/dam/globe/brie/AboutUs/newsroom/partners/globe-abs-cbn-offer-toll-free-calls-bantay-bata/partners-abs-cbn-foundation-to-offer-toll-free-calls-to-bantay-bata-primary-thumbnail-d.jpg",
      "description": "Globe and ABS-CBN join forces to offer toll-free calls to Bantay Bata for all Globe and TM users. Visit the Newsroom for the latest news on Globe Telecom.",
      "datePosted": "Nov 11, 2019 | 01:14 PM",
      "titleFromTag": "Partners"
    },
    {
      "title": "Globe Vows to Continue Supporting Alex Eala's Bid to Put PH in Global Tennis Map",
      "nonclickable": false,
      "openNewTab": false,
      "borderArticle": "border-color:#0074D9;",
      "borderTopArticle": "border-top-color:#0074D9;",
      "imageListing": "/sites/globe.com.ph/files/content/dam/globe/brie/AboutUs/newsroom/corporate/globe-supports-alex-eala-ph-global-tennis/corporate-vows-to-continue-supporting-alex-eala-bid-thumbnail-listing.jpg",
      "articleUrl": "https://www.globe.com.ph/about-us/newsroom/corporate/globe-supports-alex-eala-ph-global-tennis.html",
      "columnType": "articles--type-3",
      "typeListing": "article",
      "imageMobile": "/sites/globe.com.ph/files/content/dam/globe/brie/AboutUs/newsroom/corporate/globe-supports-alex-eala-ph-global-tennis/corporate-vows-to-continue-supporting-alex-eala-bid-primary-thumbnail-m.jpg",
      "imageDesktop": "/sites/globe.com.ph/files/content/dam/globe/brie/AboutUs/newsroom/corporate/globe-supports-alex-eala-ph-global-tennis/corporate-vows-to-continue-supporting-alex-eala-bid-primary-thumbnail-d.jpg",
      "description": "To realize Alex Eala's dream, Globe reiterated its support of the country’s newest tennis star. Visit the Newsroom for the latest news on Globe Telecom.",
      "datePosted": "Nov 06, 2019 | 11:50 AM",
      "titleFromTag": "Corporate"
    },
    {
      "title": "Globe Signs MOU with ANZ Bank",
      "nonclickable": false,
      "openNewTab": false,
      "borderArticle": "border-color:#0074D9;",
      "borderTopArticle": "border-top-color:#0074D9;",
      "imageListing": "/sites/globe.com.ph/files/content/dam/globe/brie/AboutUs/newsroom/corporate/globe-anz-signs-mou/corporate-globe-signs-mou-with-anz-bankthumbnail-listing.jpg",
      "articleUrl": "https://www.globe.com.ph/about-us/newsroom/corporate/globe-anz-signs-mou.html",
      "columnType": "articles--type-3",
      "typeListing": "article",
      "imageMobile": "/sites/globe.com.ph/files/content/dam/globe/brie/AboutUs/newsroom/corporate/globe-anz-signs-mou/corporate-globe-signs-mou-with-anz-bankprimary-thumbnail-m.jpg",
      "imageDesktop": "/sites/globe.com.ph/files/content/dam/globe/brie/AboutUs/newsroom/corporate/globe-anz-signs-mou/corporate-globe-signs-mou-with-anz-bankprimary-thumbnail-d.jpg",
      "description": "Globe Telecom inked an MOU with ANZ Bank to facilitate payments to Huawei and its other vendors. Visit the Newsroom for the latest news on Globe Telecom.",
      "datePosted": "Nov 05, 2019 | 03:25 PM",
      "titleFromTag": "Corporate"
    },
    {
      "title": "Globe, Hineleban Foundation Bring Attention to Massive Deforestation through Filipino Folktale Characters",
      "nonclickable": false,
      "openNewTab": false,
      "borderArticle": "border-color:#1C91C5;",
      "borderTopArticle": "border-top-color:#1C91C5;",
      "imageListing": "/sites/globe.com.ph/files/content/dam/globe/brie/AboutUs/newsroom/sustainability/globe-hineleban-deforestation-folktale/sustainability-hineleban-foundation-bring-attenention-massive-deforestation-thumbnail-listing.jpg",
      "articleUrl": "https://www.globe.com.ph/about-us/newsroom/sustainability/globe-hineleban-deforestation-folktale.html",
      "columnType": "articles--type-3",
      "typeListing": "article",
      "imageMobile": "/sites/globe.com.ph/files/content/dam/globe/brie/AboutUs/newsroom/sustainability/globe-hineleban-deforestation-folktale/sustainability-hineleban-foundation-bring-attenention-massive-deforestation-primary-thumbnail-m.jpg",
      "imageDesktop": "/sites/globe.com.ph/files/content/dam/globe/brie/AboutUs/newsroom/sustainability/globe-hineleban-deforestation-folktale/sustainability-hineleban-foundation-bring-attenention-massive-deforestation-primary-thumbnail-d.jpg",
      "description": "To engage the public and teach them about rainforestation, Globe introduced stylized Philippine folktale characters. Visit the Newsroom for the latest news.",
      "datePosted": "Nov 05, 2019 | 12:13 PM",
      "titleFromTag": "Sustainability"
    },
    {
      "title": "ITZY Premiere Showcase Tour ‘ITZY? ITZY!’ in Manila",
      "nonclickable": false,
      "openNewTab": false,
      "borderArticle": "border-color:#0074D9;",
      "borderTopArticle": "border-top-color:#0074D9;",
      "imageListing": "/sites/globe.com.ph/files/content/dam/globe/brie/AboutUs/newsroom/consumer/itzy-premiere-showcase-tour-manila/consumer-itzy-itzy-in-manila-thumbnail-listing.jpg",
      "articleUrl": "https://www.globe.com.ph/about-us/newsroom/consumer/itzy-premiere-showcase-tour-manila.html",
      "columnType": "articles--type-3",
      "typeListing": "article",
      "imageMobile": "/sites/globe.com.ph/files/content/dam/globe/brie/AboutUs/newsroom/consumer/itzy-premiere-showcase-tour-manila/consumer-itzy-itzy-in-manila-primary-thumbnail-m.jpg",
      "imageDesktop": "/sites/globe.com.ph/files/content/dam/globe/brie/AboutUs/newsroom/consumer/itzy-premiere-showcase-tour-manila/consumer-itzy-itzy-in-manila-primary-thumbnail-d.jpg",
      "description": "Globe partners with JYP and PULP for ITZY Premiere Showcase Tour in Manila. Visit the Newsroom for the latest news on Globe Telecom.",
      "datePosted": "Nov 05, 2019 | 11:26 AM",
      "titleFromTag": "Consumer"
    }
  ]
}
