{
  "status": 200,
  "page": 196,
  "totalPage": 298,
  "range": "2341-2352",
  "total": 3573,
  "result": [
    {
      "title": "Phoenix, Globe Business Provide Free Mobile Calls to #78737 LPG Delivery Service",
      "nonclickable": false,
      "openNewTab": false,
      "borderArticle": "border-color:#0074D9;",
      "borderTopArticle": "border-top-color:#0074D9;",
      "imageListing": "/sites/globe.com.ph/files/content/dam/globe/brie/AboutUs/newsroom/business/phoenix-globe-business-free-mobile-calls-78737-lpg-delivery/business-phoenix-globe-provide-free-mobile-calls-to-lpg-delivery-thumbnail-listing.jpg",
      "articleUrl": "https://www.globe.com.ph/about-us/newsroom/business/phoenix-globe-business-free-mobile-calls-78737-lpg-delivery.html",
      "columnType": "articles--type-3",
      "typeListing": "article",
      "imageMobile": "/sites/globe.com.ph/files/content/dam/globe/brie/AboutUs/newsroom/business/phoenix-globe-business-free-mobile-calls-78737-lpg-delivery/business-phoenix-globe-provide-free-mobile-calls-to-lpg-delivery-primary-thumbnail-m.jpg",
      "imageDesktop": "/sites/globe.com.ph/files/content/dam/globe/brie/AboutUs/newsroom/business/phoenix-globe-business-free-mobile-calls-78737-lpg-delivery/business-phoenix-globe-provide-free-mobile-calls-to-lpg-delivery-primary-thumbnail-d.jpg",
      "description": "Phoenix LPG now offers free mobile calls to its SUPER LPG delivery hotline powered by Globe Business. Visit the Newsroom for the latest news on Globe Telecom.",
      "datePosted": "Nov 04, 2019 | 01:58 PM",
      "titleFromTag": "Business"
    },
    {
      "title": "Phoenix, Globe Business Provide Free Mobile Calls to #78737 LPG Delivery Service",
      "nonclickable": false,
      "openNewTab": false,
      "borderArticle": "border-color:#0074D9;",
      "borderTopArticle": "border-top-color:#0074D9;",
      "imageListing": "/sites/globe.com.ph/files/content/dam/globe/brie/AboutUs/newsroom/business/phoenix-globe-business-free-mobile-calls-78737-lpg-delivery/business-phoenix-globe-provide-free-mobile-calls-to-lpg-delivery-thumbnail-listing.jpg",
      "articleUrl": "https://www.globe.com.ph/about-us/newsroom/business/phoenix-globe-business-free-mobile-calls-lpg-delivery.html",
      "columnType": "articles--type-3",
      "typeListing": "article",
      "imageMobile": "/sites/globe.com.ph/files/content/dam/globe/brie/AboutUs/newsroom/business/phoenix-globe-business-free-mobile-calls-78737-lpg-delivery/business-phoenix-globe-provide-free-mobile-calls-to-lpg-delivery-primary-thumbnail-m.jpg",
      "imageDesktop": "/sites/globe.com.ph/files/content/dam/globe/brie/AboutUs/newsroom/business/phoenix-globe-business-free-mobile-calls-78737-lpg-delivery/business-phoenix-globe-provide-free-mobile-calls-to-lpg-delivery-primary-thumbnail-d.jpg",
      "description": "Phoenix LPG now offers free mobile calls to its SUPER LPG delivery hotline powered by Globe Business. Visit the Newsroom for the latest news on Globe Telecom.",
      "datePosted": "Nov 04, 2019 | 01:58 PM",
      "titleFromTag": "Business"
    },
    {
      "title": "Singtel Volunteers Join Globe’s Sustainability Efforts in Iba, Zambales",
      "nonclickable": false,
      "openNewTab": false,
      "borderArticle": "border-color:#1C91C5;",
      "borderTopArticle": "border-top-color:#1C91C5;",
      "imageListing": "/sites/globe.com.ph/files/content/dam/globe/brie/AboutUs/newsroom/sustainability/singtel-volunteers-join-globe-sustainability-efforts-iba-zambales/sustainability-singtel-volunteers-join-globes-sustainability-effeorts-thumbnail-listing.jpg",
      "articleUrl": "https://www.globe.com.ph/about-us/newsroom/sustainability/singtel-volunteers-join-globe-sustainability-efforts-iba-zambales.html",
      "columnType": "articles--type-3",
      "typeListing": "article",
      "imageMobile": "/sites/globe.com.ph/files/content/dam/globe/brie/AboutUs/newsroom/sustainability/singtel-volunteers-join-globe-sustainability-efforts-iba-zambales/sustainability-singtel-volunteers-join-globes-sustainability-effeorts-primary-thumbnail-m.jpg",
      "imageDesktop": "/sites/globe.com.ph/files/content/dam/globe/brie/AboutUs/newsroom/sustainability/singtel-volunteers-join-globe-sustainability-efforts-iba-zambales/sustainability-singtel-volunteers-join-globes-sustainability-effeorts-primary-thumbnail-d.jpg",
      "description": "Singtel and Globe volunteers went to Iba, Zambales to plant trees in deforested areas. Visit the Newsroom for the latest news on Globe Telecom.",
      "datePosted": "Nov 04, 2019 | 01:48 PM",
      "titleFromTag": "Sustainability"
    },
    {
      "title": "Unstoppable Liyab Wins League of Legends SEA Tour Invitational at Conquerors Manila 2019",
      "nonclickable": false,
      "openNewTab": false,
      "borderArticle": "border-color:#0074D9;",
      "borderTopArticle": "border-top-color:#0074D9;",
      "imageListing": "/sites/globe.com.ph/files/content/dam/globe/brie/AboutUs/newsroom/consumer/liyab-wins-lol-sea-tour-invatiational-conquerors-manila-2019/consumer-unstoppable-liyab-wins-lol-sea-tour-thumbnail-listing.jpg",
      "articleUrl": "https://www.globe.com.ph/about-us/newsroom/consumer/liyab-wins-lol-conquerors-manila-2019.html",
      "columnType": "articles--type-3",
      "typeListing": "article",
      "imageMobile": "/sites/globe.com.ph/files/content/dam/globe/brie/AboutUs/newsroom/consumer/liyab-wins-lol-sea-tour-invatiational-conquerors-manila-2019/consumer-unstoppable-liyab-wins-lol-sea-tour-primary-thumbnail-m.jpg",
      "imageDesktop": "/sites/globe.com.ph/files/content/dam/globe/brie/AboutUs/newsroom/consumer/liyab-wins-lol-sea-tour-invatiational-conquerors-manila-2019/consumer-unstoppable-liyab-wins-lol-sea-tour-primary-thumbnail-d.jpg",
      "description": "Liyab emerged as the grand champion of the League of Legends Southeast Asian Tour Invitational at Conquerors Manila 2019. Visit Globe Newsroom for more.",
      "datePosted": "Nov 04, 2019 | 01:48 PM",
      "titleFromTag": "Consumer"
    },
    {
      "title": "Unstoppable Liyab Wins League of Legends SEA Tour Invitational at Conquerors Manila 2019",
      "nonclickable": false,
      "openNewTab": false,
      "borderArticle": "border-color:#0074D9;",
      "borderTopArticle": "border-top-color:#0074D9;",
      "imageListing": "/sites/globe.com.ph/files/content/dam/globe/brie/AboutUs/newsroom/consumer/liyab-wins-lol-sea-tour-invatiational-conquerors-manila-2019/consumer-unstoppable-liyab-wins-lol-sea-tour-thumbnail-listing.jpg",
      "articleUrl": "https://www.globe.com.ph/about-us/newsroom/consumer/liyab-wins-lol-sea-tour-invatiational-conquerors-manila-2019.html",
      "columnType": "articles--type-3",
      "typeListing": "article",
      "imageMobile": "/sites/globe.com.ph/files/content/dam/globe/brie/AboutUs/newsroom/consumer/liyab-wins-lol-sea-tour-invatiational-conquerors-manila-2019/consumer-unstoppable-liyab-wins-lol-sea-tour-primary-thumbnail-m.jpg",
      "imageDesktop": "/sites/globe.com.ph/files/content/dam/globe/brie/AboutUs/newsroom/consumer/liyab-wins-lol-sea-tour-invatiational-conquerors-manila-2019/consumer-unstoppable-liyab-wins-lol-sea-tour-primary-thumbnail-d.jpg",
      "description": "Liyab emerged as the grand champion of the League of Legends Southeast Asian Tour Invitational at Conquerors Manila 2019. Visit the Newsroom for the latest news on Globe Telecom.",
      "datePosted": "Nov 04, 2019 | 01:48 PM",
      "titleFromTag": "Consumer"
    },
    {
      "title": "Globe myBusiness, PSIA Team Up to Help IT Professionals Achieve Emotional Balance",
      "nonclickable": false,
      "openNewTab": false,
      "borderArticle": "border-color:#0074D9;",
      "borderTopArticle": "border-top-color:#0074D9;",
      "imageListing": "/sites/globe.com.ph/files/content/dam/globe/brie/AboutUs/newsroom/business/globe-mybusiness-psia-help-it-professionals-emotional-balance/business-PSIA-team-up-to-help-it-thumbnail-listing.jpg",
      "articleUrl": "https://www.globe.com.ph/about-us/newsroom/business/globe-mybusiness-psia-help-it-professionals-emotional-balance.html",
      "columnType": "articles--type-3",
      "typeListing": "article",
      "imageMobile": "/sites/globe.com.ph/files/content/dam/globe/brie/AboutUs/newsroom/business/globe-mybusiness-psia-help-it-professionals-emotional-balance/business-PSIA-team-up-to-help-it-primary-thumbnail-m.jpg",
      "imageDesktop": "/sites/globe.com.ph/files/content/dam/globe/brie/AboutUs/newsroom/business/globe-mybusiness-psia-help-it-professionals-emotional-balance/business-PSIA-team-up-to-help-it-primary-thumbnail-d.jpg",
      "description": "Globe myBusiness partnered with PSIA to help IT and software professionals find emotional balance. Visit the Newsroom for the latest news on Globe Telecom.",
      "datePosted": "Oct 30, 2019 | 03:33 PM",
      "titleFromTag": "Business"
    },
    {
      "title": "Koronadal City, Globe Business Launch Korona-911 Emergency Hotline",
      "nonclickable": false,
      "openNewTab": false,
      "borderArticle": "border-color:#0074D9;",
      "borderTopArticle": "border-top-color:#0074D9;",
      "imageListing": "/sites/globe.com.ph/files/content/dam/globe/brie/AboutUs/newsroom/business/koronadal-city-globe-business-launch-korona-911/business-koronadal-city-launch-911-emergency-thumbnail-listing.jpg",
      "articleUrl": "https://www.globe.com.ph/about-us/newsroom/business/koronadal-city-globe-business-launch-korona-911.html",
      "columnType": "articles--type-3",
      "typeListing": "article",
      "imageMobile": "/sites/globe.com.ph/files/content/dam/globe/brie/AboutUs/newsroom/business/koronadal-city-globe-business-launch-korona-911/business-koronadal-city-launch-911-emergency-primary-thumbnail-m.jpg",
      "imageDesktop": "/sites/globe.com.ph/files/content/dam/globe/brie/AboutUs/newsroom/business/koronadal-city-globe-business-launch-korona-911/business-koronadal-city-launch-911-emergency-primary-thumbnail-d.jpg",
      "description": "Globe Business partnered with Koronadal City to launch the Korona-911 emergency hotline. Visit the Newsroom for the latest news on Globe Telecom.",
      "datePosted": "Oct 30, 2019 | 02:14 PM",
      "titleFromTag": "Business"
    },
    {
      "title": "Globe At Home App: Your Best Partner for Your Home Internet Connection",
      "nonclickable": false,
      "openNewTab": false,
      "borderArticle": "border-color:#0074D9;",
      "borderTopArticle": "border-top-color:#0074D9;",
      "imageListing": "/sites/globe.com.ph/files/content/dam/globe/brie/AboutUs/newsroom/consumer/globe-at-home-app-best-home-internet-partner/consumer-gah-your-best-partner-for-your-home-thumbnail-listing.jpg",
      "articleUrl": "https://www.globe.com.ph/about-us/newsroom/consumer/globe-at-home-app-best-home-internet-partner.html",
      "columnType": "articles--type-3",
      "typeListing": "article",
      "imageMobile": "/sites/globe.com.ph/files/content/dam/globe/brie/AboutUs/newsroom/consumer/globe-at-home-app-best-home-internet-partner/consumer-gah-your-best-partner-for-your-home-primary-thumbnail-m.jpg",
      "imageDesktop": "/sites/globe.com.ph/files/content/dam/globe/brie/AboutUs/newsroom/consumer/globe-at-home-app-best-home-internet-partner/consumer-gah-your-best-partner-for-your-home-primary-thumbnail-d.jpg",
      "description": "Globe At Home has taken customer service to a whole new level. Visit the Newsroom for the latest news on Globe Telecom.",
      "datePosted": "Oct 30, 2019 | 10:53 AM",
      "titleFromTag": "Consumer"
    },
    {
      "title": "Globe myBusiness Gives Back to its Loyal Partners",
      "nonclickable": false,
      "openNewTab": false,
      "borderArticle": "border-color:#0074D9;",
      "borderTopArticle": "border-top-color:#0074D9;",
      "imageListing": "/sites/globe.com.ph/files/content/dam/globe/brie/AboutUs/newsroom/business/globe-mybusiness-gives-back-loyal-partners/business-mybusiness-gives-back-to-its-loyal-partnersthumbnail-listing.jpg",
      "articleUrl": "https://www.globe.com.ph/about-us/newsroom/business/globe-mybusiness-gives-back-loyal-partners.html",
      "columnType": "articles--type-3",
      "typeListing": "article",
      "imageMobile": "/sites/globe.com.ph/files/content/dam/globe/brie/AboutUs/newsroom/business/globe-mybusiness-gives-back-loyal-partners/business-mybusiness-gives-back-to-its-loyal-partnersprimary-thumbnail-m.jpg",
      "imageDesktop": "/sites/globe.com.ph/files/content/dam/globe/brie/AboutUs/newsroom/business/globe-mybusiness-gives-back-loyal-partners/business-mybusiness-gives-back-to-its-loyal-partnersprimary-thumbnail-d.jpg",
      "description": "Globe myBusiness gives back in recognition of the constant support for Globe products that MSMEs provide over the years. Visit Globe Newsroom for more.",
      "datePosted": "Oct 25, 2019 | 01:27 PM",
      "titleFromTag": "Business"
    },
    {
      "title": "Metro Retail Stores Group Boosts Digital Transformation with G Suite, Globe Business",
      "nonclickable": false,
      "openNewTab": false,
      "borderArticle": "border-color:#0074D9;",
      "borderTopArticle": "border-top-color:#0074D9;",
      "imageListing": "/sites/globe.com.ph/files/content/dam/globe/brie/AboutUs/newsroom/business/mrsgi-boost-digital-transformation-gsuite-globe-business/business-metro-retail-stores-group-boost-thumbnail-listing.jpg",
      "articleUrl": "https://www.globe.com.ph/about-us/newsroom/business/mrsgi-boost-digital-transformation-gsuite-globe-business.html",
      "columnType": "articles--type-3",
      "typeListing": "article",
      "imageMobile": "/sites/globe.com.ph/files/content/dam/globe/brie/AboutUs/newsroom/business/mrsgi-boost-digital-transformation-gsuite-globe-business/business-metro-retail-stores-group-boost-primary-thumbnail-m.jpg",
      "imageDesktop": "/sites/globe.com.ph/files/content/dam/globe/brie/AboutUs/newsroom/business/mrsgi-boost-digital-transformation-gsuite-globe-business/business-metro-retail-stores-group-boost-primary-thumbnail-d.jpg",
      "description": "Metro Retail Stores Group, Inc. (MRSGI) has partnered with Globe Business for the use of the G Suite. Visit the Newsroom for the latest news on Globe Telecom.",
      "datePosted": "Oct 24, 2019 | 10:56 AM",
      "titleFromTag": "Business"
    },
    {
      "title": "Globe Says Makati City Ahead in Digital Transformation",
      "nonclickable": false,
      "openNewTab": false,
      "borderArticle": "border-color:#0074D9;",
      "borderTopArticle": "border-top-color:#0074D9;",
      "imageListing": "/sites/globe.com.ph/files/content/dam/globe/brie/AboutUs/newsroom/partners/globe-makati-ahead-digital-transformation/partners-says-makati-city-ahead-in-digital-transformation-thumbnail-listing.jpg",
      "articleUrl": "https://www.globe.com.ph/about-us/newsroom/partners/globe-makati-ahead-digital-transformation.html",
      "columnType": "articles--type-3",
      "typeListing": "article",
      "imageMobile": "/sites/globe.com.ph/files/content/dam/globe/brie/AboutUs/newsroom/partners/globe-makati-ahead-digital-transformation/partners-says-makati-city-ahead-in-digital-transformation-primary-thumbnail-m.jpg",
      "imageDesktop": "/sites/globe.com.ph/files/content/dam/globe/brie/AboutUs/newsroom/partners/globe-makati-ahead-digital-transformation/partners-says-makati-city-ahead-in-digital-transformation-primary-thumbnail-d.jpg",
      "description": "Globe acknowledged Makati City as way ahead of its counterparts when it comes to digital technologies. Visit the Newsroom for the latest news on Globe Telecom.",
      "datePosted": "Oct 23, 2019 | 11:48 AM",
      "titleFromTag": "Partners"
    },
    {
      "title": "Enjoy Globe’s Different Payment Options for iPhone 11, iPhone 11 Pro, and iPhone 11 Pro Max",
      "nonclickable": false,
      "openNewTab": false,
      "borderArticle": "border-color:#0074D9;",
      "borderTopArticle": "border-top-color:#0074D9;",
      "imageListing": "/sites/globe.com.ph/files/content/dam/globe/brie/AboutUs/newsroom/consumer/globe-payment-options-iphone-11/consumer-different-payment-options-for-iphone-11-thumbnail-listing.jpg",
      "articleUrl": "https://www.globe.com.ph/about-us/newsroom/consumer/globe-payment-options-iphone-11.html",
      "columnType": "articles--type-3",
      "typeListing": "article",
      "imageMobile": "/sites/globe.com.ph/files/content/dam/globe/brie/AboutUs/newsroom/consumer/globe-payment-options-iphone-11/consumer-different-payment-options-for-iphone-11-primary-thumbnail-m.jpg",
      "imageDesktop": "/sites/globe.com.ph/files/content/dam/globe/brie/AboutUs/newsroom/consumer/globe-payment-options-iphone-11/consumer-different-payment-options-for-iphone-11-primary-thumbnail-d.jpg",
      "description": "Globe is offering several payment options for new and existing postpaid customers for iPhone 11. Visit the Newsroom for the latest news on Globe Telecom.",
      "datePosted": "Oct 22, 2019 | 01:03 PM",
      "titleFromTag": "Consumer"
    }
  ]
}
