{
  "status": 200,
  "page": 197,
  "totalPage": 298,
  "range": "2353-2364",
  "total": 3573,
  "result": [
    {
      "title": "Beach Extra with Globe at La Union Surf Break",
      "nonclickable": false,
      "openNewTab": false,
      "borderArticle": "border-color:#1C91C5;",
      "borderTopArticle": "border-top-color:#1C91C5;",
      "imageListing": "/sites/globe.com.ph/files/content/dam/globe/brie/AboutUs/newsroom/sustainability/beach-extra-globe-la-union-surf-break/sustainability-beach-extra-with-globe-at-la-union-thumbnail-listing.jpg",
      "articleUrl": "https://www.globe.com.ph/about-us/newsroom/sustainability/beach-extra-globe-la-union-surf-break.html",
      "columnType": "articles--type-3",
      "typeListing": "article",
      "imageMobile": "/sites/globe.com.ph/files/content/dam/globe/brie/AboutUs/newsroom/sustainability/beach-extra-globe-la-union-surf-break/sustainability-beach-extra-with-globe-at-la-union-primary-thumbnail-m.jpg",
      "imageDesktop": "/sites/globe.com.ph/files/content/dam/globe/brie/AboutUs/newsroom/sustainability/beach-extra-globe-la-union-surf-break/sustainability-beach-extra-with-globe-at-la-union-primary-thumbnail-d.jpg",
      "description": "Take a break and enjoy the beach as Globe, with Karpos, brings you La Union Surf Break 2019. Visit the Newsroom for the latest news on Globe Telecom.",
      "datePosted": "Oct 21, 2019 | 02:24 PM",
      "titleFromTag": "Sustainability"
    },
    {
      "title": "Globe Digital Thumbprint Program Helps Keep Schoolchildren Safe from Online Sexual Exposure",
      "nonclickable": false,
      "openNewTab": false,
      "borderArticle": "border-color:#1C91C5;",
      "borderTopArticle": "border-top-color:#1C91C5;",
      "imageListing": "/sites/globe.com.ph/files/content/dam/globe/brie/AboutUs/newsroom/sustainability/globe-digital-thumbprint-program-keep-schoolchildren-safe-online-sexual-exposure/oct-29-updates/sustainability-digital-thumbprint-program-thumbnail-listing.jpg",
      "articleUrl": "https://www.globe.com.ph/about-us/newsroom/sustainability/globe-digital-thumbprint-program-keep-schoolchildren-safe-online-sexual-exposure.html",
      "columnType": "articles--type-3",
      "typeListing": "article",
      "imageMobile": "/sites/globe.com.ph/files/content/dam/globe/brie/AboutUs/newsroom/sustainability/globe-digital-thumbprint-program-keep-schoolchildren-safe-online-sexual-exposure/oct-29-updates/sustainability-digital-thumbprint-program-primary-banner-m.jpg",
      "imageDesktop": "/sites/globe.com.ph/files/content/dam/globe/brie/AboutUs/newsroom/sustainability/globe-digital-thumbprint-program-keep-schoolchildren-safe-online-sexual-exposure/oct-29-updates/sustainability-digital-thumbprint-program-primary-banner-d.jpg",
      "description": "DepEd is adopting Globe’s Digital Thumbprint Program to create a safer online environment for children. Visit the Newsroom for the latest news on Globe Telecom.",
      "datePosted": "Oct 21, 2019 | 02:23 PM",
      "titleFromTag": "Sustainability"
    },
    {
      "title": "Globe Digital Thumbprint Program Helps Keep Schoolchildren Safe from Online Sexual Exposure",
      "nonclickable": false,
      "openNewTab": false,
      "borderArticle": "border-color:#1C91C5;",
      "borderTopArticle": "border-top-color:#1C91C5;",
      "imageListing": "/sites/globe.com.ph/files/content/dam/globe/brie/AboutUs/newsroom/sustainability/globe-digital-thumbprint-program-keep-schoolchildren-safe-online-sexual-exposure/oct-29-updates/sustainability-digital-thumbprint-program-thumbnail-listing.jpg",
      "articleUrl": "https://www.globe.com.ph/about-us/newsroom/sustainability/globe-dtp-protect-children-online-sexual-exposure.html",
      "columnType": "articles--type-3",
      "typeListing": "article",
      "imageMobile": "/sites/globe.com.ph/files/content/dam/globe/brie/AboutUs/newsroom/sustainability/globe-digital-thumbprint-program-keep-schoolchildren-safe-online-sexual-exposure/oct-29-updates/sustainability-digital-thumbprint-program-primary-banner-m.jpg",
      "imageDesktop": "/sites/globe.com.ph/files/content/dam/globe/brie/AboutUs/newsroom/sustainability/globe-digital-thumbprint-program-keep-schoolchildren-safe-online-sexual-exposure/oct-29-updates/sustainability-digital-thumbprint-program-primary-banner-d.jpg",
      "description": "DepEd is adopting Globe’s Digital Thumbprint Program to create a safer online environment for children. Visit the Newsroom for the latest news on Globe Telecom.",
      "datePosted": "Oct 21, 2019 | 02:23 PM",
      "titleFromTag": "Sustainability"
    },
    {
      "title": "Free Home Internet for Globe Postpaid Mobile Customers",
      "nonclickable": false,
      "openNewTab": false,
      "borderArticle": "border-color:#0074D9;",
      "borderTopArticle": "border-top-color:#0074D9;",
      "imageListing": "/sites/globe.com.ph/files/content/dam/globe/brie/AboutUs/newsroom/consumer/free-home-internet-for-globe-postpaid-mobile-customers/consumer-free-home-internet-for-globe-postpaid-mobile-customers-thumbnail-listing.jpg",
      "articleUrl": "https://www.globe.com.ph/about-us/newsroom/consumer/free-home-internet-for-globe-postpaid-mobile-customers.html",
      "columnType": "articles--type-3",
      "typeListing": "article",
      "imageMobile": "/sites/globe.com.ph/files/content/dam/globe/brie/AboutUs/newsroom/consumer/free-home-internet-for-globe-postpaid-mobile-customers/consumer-free-home-internet-for-globe-postpaid-mobile-customers-primary-thumbnail-m.jpg",
      "imageDesktop": "/sites/globe.com.ph/files/content/dam/globe/brie/AboutUs/newsroom/consumer/free-home-internet-for-globe-postpaid-mobile-customers/consumer-free-home-internet-for-globe-postpaid-mobile-customers-primary-thumbnail-d.jpg",
      "description": "Globe is offering free three months subscription of Globe at Home GoUNLI plans with speeds of up to 100Mbps. Visit the Newsroom for the latest news on Globe Telecom.",
      "datePosted": "Oct 17, 2019 | 03:15 PM",
      "titleFromTag": "Consumer"
    },
    {
      "title": "Free Home Internet for Globe Postpaid Mobile Customers",
      "nonclickable": false,
      "openNewTab": false,
      "borderArticle": "border-color:#0074D9;",
      "borderTopArticle": "border-top-color:#0074D9;",
      "imageListing": "/sites/globe.com.ph/files/content/dam/globe/brie/AboutUs/newsroom/consumer/free-home-internet-for-globe-postpaid-mobile-customers/consumer-free-home-internet-for-globe-postpaid-mobile-customers-thumbnail-listing.jpg",
      "articleUrl": "https://www.globe.com.ph/about-us/newsroom/consumer/free-home-internet-postpaid-mobile-customers.html",
      "columnType": "articles--type-3",
      "typeListing": "article",
      "imageMobile": "/sites/globe.com.ph/files/content/dam/globe/brie/AboutUs/newsroom/consumer/free-home-internet-for-globe-postpaid-mobile-customers/consumer-free-home-internet-for-globe-postpaid-mobile-customers-primary-thumbnail-m.jpg",
      "imageDesktop": "/sites/globe.com.ph/files/content/dam/globe/brie/AboutUs/newsroom/consumer/free-home-internet-for-globe-postpaid-mobile-customers/consumer-free-home-internet-for-globe-postpaid-mobile-customers-primary-thumbnail-d.jpg",
      "description": "Globe is offering free three months subscription of Globe at Home GoUNLI plans with speeds of up to 100Mbps. Visit Globe Newsroom for more.",
      "datePosted": "Oct 17, 2019 | 03:15 PM",
      "titleFromTag": "Consumer"
    },
    {
      "title": "TM Sports Para Sa Bayan Basketball Clinics",
      "nonclickable": false,
      "openNewTab": false,
      "borderArticle": "border-color:#1C91C5;",
      "borderTopArticle": "border-top-color:#1C91C5;",
      "imageListing": "/sites/globe.com.ph/files/content/dam/globe/brie/AboutUs/newsroom/sustainability/tm-sports-para-sa-bayan-basketball-clinics/default-press-release-thumbnail-listing.jpg",
      "articleUrl": "https://www.globe.com.ph/about-us/newsroom/sustainability/tm-sports-para-sa-bayan-basketball-clinics.html",
      "columnType": "articles--type-3",
      "typeListing": "article",
      "imageMobile": "/sites/globe.com.ph/files/content/dam/globe/brie/AboutUs/newsroom/sustainability/tm-sports-para-sa-bayan-basketball-clinics/default-press-release-primary-thumbnail-m.jpg",
      "imageDesktop": "/sites/globe.com.ph/files/content/dam/globe/brie/AboutUs/newsroom/sustainability/tm-sports-para-sa-bayan-basketball-clinics/default-press-release-primary-thumbnail-d.jpg",
      "description": "Globe with Community Basketball Association held the TM Sports Para sa Bayan event in Albay and Cebu. Visit the Newsroom for the latest news on Globe Telecom.",
      "datePosted": "Oct 17, 2019 | 02:47 PM",
      "titleFromTag": "Sustainability"
    },
    {
      "title": "Bataan Gets Free High-Speed Internet from GoWiFi",
      "nonclickable": false,
      "openNewTab": false,
      "borderArticle": "border-color:#0074D9;",
      "borderTopArticle": "border-top-color:#0074D9;",
      "imageListing": "/sites/globe.com.ph/files/content/dam/globe/brie/AboutUs/newsroom/partners/bataan-gets-free-high-speed-internet-from-gowifi/partners-bataan-gets-free-high-speed-internet-thumbnail-listing.jpg",
      "articleUrl": "https://www.globe.com.ph/about-us/newsroom/partners/bataan-gets-free-high-speed-internet-from-gowifi.html",
      "columnType": "articles--type-3",
      "typeListing": "article",
      "imageMobile": "/sites/globe.com.ph/files/content/dam/globe/brie/AboutUs/newsroom/partners/bataan-gets-free-high-speed-internet-from-gowifi/partners-bataan-gets-free-high-speed-internet-primary-thumbnail-m.jpg",
      "imageDesktop": "/sites/globe.com.ph/files/content/dam/globe/brie/AboutUs/newsroom/partners/bataan-gets-free-high-speed-internet-from-gowifi/partners-bataan-gets-free-high-speed-internet-primary-thumbnail-d.jpg",
      "description": "With Globe's GoWiFi, constituents of Orani, Bataan can enjoy more of their favorite content and online activities. Visit Globe Newsroom for more.",
      "datePosted": "Oct 16, 2019 | 11:26 AM",
      "titleFromTag": "Partners"
    },
    {
      "title": "GoWiFi Fires Up Services in Naga",
      "nonclickable": false,
      "openNewTab": false,
      "borderArticle": "border-color:#0074D9;",
      "borderTopArticle": "border-top-color:#0074D9;",
      "imageListing": "/sites/globe.com.ph/files/content/dam/globe/brie/AboutUs/newsroom/partners/gowifi-fires-up-services-naga/partners-gowifi-fires-up-services-in-nagathumbnail-listing.jpg",
      "articleUrl": "https://www.globe.com.ph/about-us/newsroom/partners/gowifi-fires-up-services-naga.html",
      "columnType": "articles--type-3",
      "typeListing": "article",
      "imageMobile": "/sites/globe.com.ph/files/content/dam/globe/brie/AboutUs/newsroom/partners/gowifi-fires-up-services-naga/partners-gowifi-fires-up-services-in-nagaprimary-thumbnail-m.jpg",
      "imageDesktop": "/sites/globe.com.ph/files/content/dam/globe/brie/AboutUs/newsroom/partners/gowifi-fires-up-services-naga/partners-gowifi-fires-up-services-in-nagaprimary-thumbnail-d.jpg",
      "description": "Globe partnered with Naga City and University of Nueva Caseres to provide quality data connectivity to the city. Visit Globe Newsroom for more.",
      "datePosted": "Oct 14, 2019 | 11:11 AM",
      "titleFromTag": "Partners"
    },
    {
      "title": "Globe Business’ Leadership Innovation Forum Challenges Philippine Enterprises to Create a Positive Societal Impact",
      "nonclickable": false,
      "openNewTab": false,
      "borderArticle": "border-color:#0074D9;",
      "borderTopArticle": "border-top-color:#0074D9;",
      "imageListing": "/sites/globe.com.ph/files/content/dam/globe/brie/AboutUs/newsroom/business/globe-business-leadership-innovation-forum-challenges-philippine-enterprises/business-lead-in-forum-challenges-ph-enterprises-thumbnail-listing.jpg",
      "articleUrl": "https://www.globe.com.ph/about-us/newsroom/business/globe-business-leadership-innovation-forum-challenges-philippine-enterprises.html",
      "columnType": "articles--type-3",
      "typeListing": "article",
      "imageMobile": "/sites/globe.com.ph/files/content/dam/globe/brie/AboutUs/newsroom/business/globe-business-leadership-innovation-forum-challenges-philippine-enterprises/business-lead-in-forum-challenges-ph-enterprises-primary-thumbnail-m.jpg",
      "imageDesktop": "/sites/globe.com.ph/files/content/dam/globe/brie/AboutUs/newsroom/business/globe-business-leadership-innovation-forum-challenges-philippine-enterprises/business-lead-in-forum-challenges-ph-enterprises-primary-thumbnail-d.jpg",
      "description": "This year's Lead-In is Globe Business' way of challenging its partners to lead its workforce to go beyond business goals. Visit Globe Newsroom for more.",
      "datePosted": "Oct 11, 2019 | 04:00 PM",
      "titleFromTag": "Business"
    },
    {
      "title": "Kingad, Belingon Seek Redemption for Team Lakay at ONE: CENTURY in Tokyo, Japan",
      "nonclickable": false,
      "openNewTab": false,
      "borderArticle": "border-color:#0074D9;",
      "borderTopArticle": "border-top-color:#0074D9;",
      "imageListing": "/sites/globe.com.ph/files/content/dam/globe/brie/AboutUs/newsroom/consumer/kingad-belingon-seek-redemption-team-lakay-one-century-tokyo-japan/consumer-kingad-belingon-seek-redemption-thumbnail-listing.jpg",
      "articleUrl": "https://www.globe.com.ph/about-us/newsroom/consumer/kingad-belingon-seek-redemption-team-lakay-one-century-tokyo-japan.html",
      "columnType": "articles--type-3",
      "typeListing": "article",
      "imageMobile": "/sites/globe.com.ph/files/content/dam/globe/brie/AboutUs/newsroom/consumer/kingad-belingon-seek-redemption-team-lakay-one-century-tokyo-japan/consumer-kingad-belingon-seek-redemption-primary-thumbnail-m.jpg",
      "imageDesktop": "/sites/globe.com.ph/files/content/dam/globe/brie/AboutUs/newsroom/consumer/kingad-belingon-seek-redemption-team-lakay-one-century-tokyo-japan/consumer-kingad-belingon-seek-redemption-primary-thumbnail-d.jpg",
      "description": "The two Team Lakay mainstays and Globe Ambassadors hope to bring home two ONE World titles. Visit the Newsroom for the latest news on Globe Telecom.",
      "datePosted": "Oct 11, 2019 | 11:10 AM",
      "titleFromTag": "Consumer"
    },
    {
      "title": "Kingad, Belingon Seek Redemption for Team Lakay at ONE: CENTURY in Tokyo, Japan",
      "nonclickable": false,
      "openNewTab": false,
      "borderArticle": "border-color:#0074D9;",
      "borderTopArticle": "border-top-color:#0074D9;",
      "imageListing": "/sites/globe.com.ph/files/content/dam/globe/brie/AboutUs/newsroom/consumer/kingad-belingon-seek-redemption-team-lakay-one-century-tokyo-japan/consumer-kingad-belingon-seek-redemption-thumbnail-listing.jpg",
      "articleUrl": "https://www.globe.com.ph/about-us/newsroom/consumer/kingad-belingon-one-century-tokyo.html",
      "columnType": "articles--type-3",
      "typeListing": "article",
      "imageMobile": "/sites/globe.com.ph/files/content/dam/globe/brie/AboutUs/newsroom/consumer/kingad-belingon-seek-redemption-team-lakay-one-century-tokyo-japan/consumer-kingad-belingon-seek-redemption-primary-thumbnail-m.jpg",
      "imageDesktop": "/sites/globe.com.ph/files/content/dam/globe/brie/AboutUs/newsroom/consumer/kingad-belingon-seek-redemption-team-lakay-one-century-tokyo-japan/consumer-kingad-belingon-seek-redemption-primary-thumbnail-d.jpg",
      "description": "The two Team Lakay mainstays and Globe Ambassadors hope to bring home two ONE World titles. Visit the Newsroom for the latest news on Globe Telecom.",
      "datePosted": "Oct 11, 2019 | 11:10 AM",
      "titleFromTag": "Consumer"
    },
    {
      "title": "Globe Creates History at ACES and Stevie Awards",
      "nonclickable": false,
      "openNewTab": false,
      "borderArticle": "border-color:#0074D9;",
      "borderTopArticle": "border-top-color:#0074D9;",
      "imageListing": "/sites/globe.com.ph/files/content/dam/globe/brie/AboutUs/newsroom/corporate/globe-creates-history-aces-stevie-awards/corporate-creates-history-at-aces-and-stevie-awards-thumbnail-listing.jpg",
      "articleUrl": "https://www.globe.com.ph/about-us/newsroom/corporate/globe-creates-history-aces-stevie-awards.html",
      "columnType": "articles--type-3",
      "typeListing": "article",
      "imageMobile": "/sites/globe.com.ph/files/content/dam/globe/brie/AboutUs/newsroom/corporate/globe-creates-history-aces-stevie-awards/corporate-creates-history-at-aces-and-stevie-awards-primary-thumbnail-m.jpg",
      "imageDesktop": "/sites/globe.com.ph/files/content/dam/globe/brie/AboutUs/newsroom/corporate/globe-creates-history-aces-stevie-awards/corporate-creates-history-at-aces-and-stevie-awards-primary-thumbnail-d.jpg",
      "description": "Globe reaped accolades at the 2019 Asia Corporate Excellence & Sustainability (ACES) Awards and 2019 Stevie Awards. Visit Globe Newsroom for more.",
      "datePosted": "Oct 11, 2019 | 09:29 AM",
      "titleFromTag": "Corporate"
    }
  ]
}
