{
  "status": 200,
  "page": 198,
  "totalPage": 298,
  "range": "2365-2376",
  "total": 3573,
  "result": [
    {
      "title": "Get Your Globe At Home Prepaid WiFi with No Cash-Out via GCredit from GCash",
      "nonclickable": false,
      "openNewTab": false,
      "borderArticle": "border-color:#0074D9;",
      "borderTopArticle": "border-top-color:#0074D9;",
      "imageListing": "/sites/globe.com.ph/files/content/dam/globe/brie/AboutUs/newsroom/consumer/get-globe-at-home-prepaid-wifi-no-cash-out-gcredit-gcash/default-consumer-5-thumbnail-listing.jpg",
      "articleUrl": "https://www.globe.com.ph/about-us/newsroom/consumer/home-prepaid-wifi-no-cash-out-gcash.html",
      "columnType": "articles--type-3",
      "typeListing": "article",
      "imageMobile": "/sites/globe.com.ph/files/content/dam/globe/brie/AboutUs/newsroom/consumer/get-globe-at-home-prepaid-wifi-no-cash-out-gcredit-gcash/default-consumer-5-primary-thumbnail-m.jpg",
      "imageDesktop": "/sites/globe.com.ph/files/content/dam/globe/brie/AboutUs/newsroom/consumer/get-globe-at-home-prepaid-wifi-no-cash-out-gcredit-gcash/default-consumer-5-primary-thumbnail-d.jpg",
      "description": "Globe At Home Prepaid WiFi now available with no cash-out using GCredit via your GCash app. Visit the Newsroom for the latest news on Globe Telecom.",
      "datePosted": "Oct 10, 2019 | 02:26 PM",
      "titleFromTag": "Consumer"
    },
    {
      "title": "Get Your Globe At Home Prepaid WiFi with No Cash-Out via GCredit from GCash",
      "nonclickable": false,
      "openNewTab": false,
      "borderArticle": "border-color:#0074D9;",
      "borderTopArticle": "border-top-color:#0074D9;",
      "imageListing": "/sites/globe.com.ph/files/content/dam/globe/brie/AboutUs/newsroom/consumer/get-globe-at-home-prepaid-wifi-no-cash-out-gcredit-gcash/default-consumer-5-thumbnail-listing.jpg",
      "articleUrl": "https://www.globe.com.ph/about-us/newsroom/consumer/get-globe-at-home-prepaid-wifi-no-cash-out-gcredit-gcash.html",
      "columnType": "articles--type-3",
      "typeListing": "article",
      "imageMobile": "/sites/globe.com.ph/files/content/dam/globe/brie/AboutUs/newsroom/consumer/get-globe-at-home-prepaid-wifi-no-cash-out-gcredit-gcash/default-consumer-5-primary-thumbnail-m.jpg",
      "imageDesktop": "/sites/globe.com.ph/files/content/dam/globe/brie/AboutUs/newsroom/consumer/get-globe-at-home-prepaid-wifi-no-cash-out-gcredit-gcash/default-consumer-5-primary-thumbnail-d.jpg",
      "description": "Globe At Home Prepaid WiFi now available with no cash-out using GCredit via your GCash app. Visit the Newsroom for the latest news on Globe Telecom.",
      "datePosted": "Oct 10, 2019 | 02:26 PM",
      "titleFromTag": "Consumer"
    },
    {
      "title": "Score Movie Passes for the Family to Watch Disney’s “Maleficent: Mistress of Evil” with Globe At Home Postpaid",
      "nonclickable": false,
      "openNewTab": false,
      "borderArticle": "border-color:#0074D9;",
      "borderTopArticle": "border-top-color:#0074D9;",
      "imageListing": "/sites/globe.com.ph/files/content/dam/globe/brie/AboutUs/newsroom/consumer/score-movie-passes-maleficent-mistress-of-evil-globe-at-home-postpaid/default-partners-2-thumbnail-listing.jpg",
      "articleUrl": "https://www.globe.com.ph/about-us/newsroom/consumer/score-movie-passes-maleficent-mistress-of-evil-globe-at-home-postpaid.html",
      "columnType": "articles--type-3",
      "typeListing": "article",
      "imageMobile": "/sites/globe.com.ph/files/content/dam/globe/brie/AboutUs/newsroom/consumer/score-movie-passes-maleficent-mistress-of-evil-globe-at-home-postpaid/default-partners-2-primary-thumbnail-m.jpg",
      "imageDesktop": "/sites/globe.com.ph/files/content/dam/globe/brie/AboutUs/newsroom/consumer/score-movie-passes-maleficent-mistress-of-evil-globe-at-home-postpaid/default-partners-2-primary-thumbnail-d.jpg",
      "description": "Score two movie invites for Maleficent: Mistress of Evil by applying for a Globe At Home Postpaid plan. Visit the Newsroom for the latest news on Globe Telecom.",
      "datePosted": "Oct 10, 2019 | 01:44 PM",
      "titleFromTag": "Consumer"
    },
    {
      "title": "Score Movie Passes for the Family to Watch Disney’s “Maleficent: Mistress of Evil” with Globe At Home Postpaid",
      "nonclickable": false,
      "openNewTab": false,
      "borderArticle": "border-color:#0074D9;",
      "borderTopArticle": "border-top-color:#0074D9;",
      "imageListing": "/sites/globe.com.ph/files/content/dam/globe/brie/AboutUs/newsroom/consumer/score-movie-passes-maleficent-mistress-of-evil-globe-at-home-postpaid/default-partners-2-thumbnail-listing.jpg",
      "articleUrl": "https://www.globe.com.ph/about-us/newsroom/consumer/maleficent-mistress-of-evil-movie-passes-globe-at-home-postpaid.html",
      "columnType": "articles--type-3",
      "typeListing": "article",
      "imageMobile": "/sites/globe.com.ph/files/content/dam/globe/brie/AboutUs/newsroom/consumer/score-movie-passes-maleficent-mistress-of-evil-globe-at-home-postpaid/default-partners-2-primary-thumbnail-m.jpg",
      "imageDesktop": "/sites/globe.com.ph/files/content/dam/globe/brie/AboutUs/newsroom/consumer/score-movie-passes-maleficent-mistress-of-evil-globe-at-home-postpaid/default-partners-2-primary-thumbnail-d.jpg",
      "description": "Score two movie invites for Maleficent: Mistress of Evil by applying for a Globe At Home Postpaid plan. Visit the Newsroom for the latest news on Globe Telecom.",
      "datePosted": "Oct 10, 2019 | 01:44 PM",
      "titleFromTag": "Consumer"
    },
    {
      "title": "Liyab's Enderr, Arena of Valor Squad Qualify in International Esports Tournaments",
      "nonclickable": false,
      "openNewTab": false,
      "borderArticle": "border-color:#0074D9;",
      "borderTopArticle": "border-top-color:#0074D9;",
      "imageListing": "/sites/globe.com.ph/files/content/dam/globe/brie/AboutUs/newsroom/consumer/liyab-enderr-defend-wesg-sc2-title-liyab-aov-secure-spot-aov-international-championship/consumer-liyabs-enderr-set-to-defend-sc2-title-thumbnail-listing.jpg",
      "articleUrl": "https://www.globe.com.ph/about-us/newsroom/consumer/liyab-enderr-defend-wesg-sc2-title-liyab-aov-secure-spot-aov-international-championship.html",
      "columnType": "articles--type-3",
      "typeListing": "article",
      "imageMobile": "/sites/globe.com.ph/files/content/dam/globe/brie/AboutUs/newsroom/consumer/liyab-enderr-defend-wesg-sc2-title-liyab-aov-secure-spot-aov-international-championship/consumer-liyabs-enderr-set-to-defend-sc2-title-primary-thumbnail-m.jpg",
      "imageDesktop": "/sites/globe.com.ph/files/content/dam/globe/brie/AboutUs/newsroom/consumer/liyab-enderr-defend-wesg-sc2-title-liyab-aov-secure-spot-aov-international-championship/consumer-liyabs-enderr-set-to-defend-sc2-title-primary-thumbnail-d.jpg",
      "description": "Globe's Liyab Esports scored wins in qualifying tournaments to book their spots in international tournaments set next month. Visit the Newsroom for the latest news on Globe Telecom.",
      "datePosted": "Oct 09, 2019 | 10:49 AM",
      "titleFromTag": "Consumer"
    },
    {
      "title": "Liyab's Enderr, Arena of Valor Squad Qualify in International Esports Tournaments",
      "nonclickable": false,
      "openNewTab": false,
      "borderArticle": "border-color:#0074D9;",
      "borderTopArticle": "border-top-color:#0074D9;",
      "imageListing": "/sites/globe.com.ph/files/content/dam/globe/brie/AboutUs/newsroom/consumer/liyab-enderr-defend-wesg-sc2-title-liyab-aov-secure-spot-aov-international-championship/consumer-liyabs-enderr-set-to-defend-sc2-title-thumbnail-listing.jpg",
      "articleUrl": "https://www.globe.com.ph/about-us/newsroom/consumer/liyab-defend-wesg-sc2-secure-aov-championship-spot.html",
      "columnType": "articles--type-3",
      "typeListing": "article",
      "imageMobile": "/sites/globe.com.ph/files/content/dam/globe/brie/AboutUs/newsroom/consumer/liyab-enderr-defend-wesg-sc2-title-liyab-aov-secure-spot-aov-international-championship/consumer-liyabs-enderr-set-to-defend-sc2-title-primary-thumbnail-m.jpg",
      "imageDesktop": "/sites/globe.com.ph/files/content/dam/globe/brie/AboutUs/newsroom/consumer/liyab-enderr-defend-wesg-sc2-title-liyab-aov-secure-spot-aov-international-championship/consumer-liyabs-enderr-set-to-defend-sc2-title-primary-thumbnail-d.jpg",
      "description": "Globe's Liyab Esports scored wins in qualifying tournaments to book their spots in international tournaments set next month. Visit Globe Newsroom for more.",
      "datePosted": "Oct 09, 2019 | 10:49 AM",
      "titleFromTag": "Consumer"
    },
    {
      "title": "Globe Opens Pre-Order for iPhone 11 Series Starting October 18",
      "nonclickable": false,
      "openNewTab": false,
      "borderArticle": "border-color:#0074D9;",
      "borderTopArticle": "border-top-color:#0074D9;",
      "imageListing": "/sites/globe.com.ph/files/content/dam/globe/brie/AboutUs/newsroom/consumer/globe-opens-iphone-11-pre-order-starting-october-18/consumer-opens-pre-order-for-iphone-11-starting-oct-18-thumbnail-listing.jpg",
      "articleUrl": "https://www.globe.com.ph/about-us/newsroom/consumer/globe-opens-iphone-11-pre-order-starting-october-18.html",
      "columnType": "articles--type-3",
      "typeListing": "article",
      "imageMobile": "/sites/globe.com.ph/files/content/dam/globe/brie/AboutUs/newsroom/consumer/globe-opens-iphone-11-pre-order-starting-october-18/consumer-opens-pre-order-for-iphone-11-starting-oct-18-primary-thumbnail-m.jpg",
      "imageDesktop": "/sites/globe.com.ph/files/content/dam/globe/brie/AboutUs/newsroom/consumer/globe-opens-iphone-11-pre-order-starting-october-18/consumer-opens-pre-order-for-iphone-11-starting-oct-18-primary-thumbnail-d.jpg",
      "description": "Starting October 18, the newest iPhone series will finally be available for pre-order through Globe. Visit the Newsroom for the latest news on Globe Telecom.",
      "datePosted": "Oct 08, 2019 | 02:09 PM",
      "titleFromTag": "Consumer"
    },
    {
      "title": "Globe Completes 8-digit Landline Number Migration",
      "nonclickable": false,
      "openNewTab": false,
      "borderArticle": "border-color:#0074D9;",
      "borderTopArticle": "border-top-color:#0074D9;",
      "imageListing": "/sites/globe.com.ph/files/content/dam/globe/brie/AboutUs/newsroom/corporate/globe-bayan-implement-8-digit-landline-number-metro-manila/default-press-release-thumbnail-listing.jpg",
      "articleUrl": "https://www.globe.com.ph/about-us/newsroom/corporate/globe-completes-8-digit-landline-number-migration.html",
      "columnType": "articles--type-3",
      "typeListing": "article",
      "imageMobile": "/sites/globe.com.ph/files/content/dam/globe/brie/AboutUs/newsroom/corporate/globe-bayan-implement-8-digit-landline-number-metro-manila/default-press-release-primary-thumbnail-m.jpg",
      "imageDesktop": "/sites/globe.com.ph/files/content/dam/globe/brie/AboutUs/newsroom/corporate/globe-bayan-implement-8-digit-landline-number-metro-manila/default-press-release-primary-thumbnail-d.jpg",
      "description": "Globe completed the migration of all its landline numbers with area code 02 to 8-digit format. Visit the Newsroom for the latest news on Globe Telecom.",
      "datePosted": "Oct 07, 2019 | 03:58 PM",
      "titleFromTag": "Corporate"
    },
    {
      "title": "Globe Fires Up 5G Services in Select Areas in Rizal, Cavite, Bulacan ",
      "nonclickable": false,
      "openNewTab": false,
      "borderArticle": "border-color:#0074D9;",
      "borderTopArticle": "border-top-color:#0074D9;",
      "imageListing": "/sites/globe.com.ph/files/content/dam/globe/brie/AboutUs/newsroom/consumer/globe-fires-up-5g-rizal-cavite-bulacan/consumer-fires-up-5g-services-in-select-areasthumbnail-listing.jpg",
      "articleUrl": "https://www.globe.com.ph/about-us/newsroom/consumer/globe-fires-up-5g-rizal-cavite-bulacan.html",
      "columnType": "articles--type-3",
      "typeListing": "article",
      "imageMobile": "/sites/globe.com.ph/files/content/dam/globe/brie/AboutUs/newsroom/consumer/globe-fires-up-5g-rizal-cavite-bulacan/consumer-fires-up-5g-services-in-select-areasprimary-thumbnail-m.jpg",
      "imageDesktop": "/sites/globe.com.ph/files/content/dam/globe/brie/AboutUs/newsroom/consumer/globe-fires-up-5g-rizal-cavite-bulacan/consumer-fires-up-5g-services-in-select-areasprimary-thumbnail-d.jpg",
      "description": "Globe At Home Air Fiber 5G is now available in select areas in Rizal, Cavite, and Bulacan. Visit the Newsroom for the latest news on Globe Telecom.",
      "datePosted": "Oct 07, 2019 | 10:00 AM",
      "titleFromTag": "Consumer"
    },
    {
      "title": "Globe Makes Waves at Siargao Cloud 9 Surfing Cup",
      "nonclickable": false,
      "openNewTab": false,
      "borderArticle": "border-color:#0074D9;",
      "borderTopArticle": "border-top-color:#0074D9;",
      "imageListing": "/sites/globe.com.ph/files/content/dam/globe/brie/AboutUs/newsroom/corporate/globe-makes-waves-siargao-cloud-9-surfing-cup/corporate-makes-waves-at-siargao-cloud-9-thumbnail-listing.jpg",
      "articleUrl": "https://www.globe.com.ph/about-us/newsroom/corporate/globe-makes-waves-siargao-cloud-9-surfing-cup.html",
      "columnType": "articles--type-3",
      "typeListing": "article",
      "imageMobile": "/sites/globe.com.ph/files/content/dam/globe/brie/AboutUs/newsroom/corporate/globe-makes-waves-siargao-cloud-9-surfing-cup/corporate-makes-waves-at-siargao-cloud-9-primary-thumbnail-m.jpg",
      "imageDesktop": "/sites/globe.com.ph/files/content/dam/globe/brie/AboutUs/newsroom/corporate/globe-makes-waves-siargao-cloud-9-surfing-cup/corporate-makes-waves-at-siargao-cloud-9-primary-thumbnail-d.jpg",
      "description": "Globe is working with Siargao Committee to highlight the island as one of the best surfing destinations in the world. Visit Globe Newsroom for more.",
      "datePosted": "Oct 04, 2019 | 03:29 PM",
      "titleFromTag": "Corporate"
    },
    {
      "title": "Globe 5G Fixed Wireless Access Strategy Augments Infrastructure Limitation to Connect PH Homes",
      "nonclickable": false,
      "openNewTab": false,
      "borderArticle": "border-color:#0074D9;",
      "borderTopArticle": "border-top-color:#0074D9;",
      "imageListing": "/sites/globe.com.ph/files/content/dam/globe/brie/AboutUs/newsroom/consumer/globe-5g-fixed-wireless-access-strategy-connect-ph-homes/consumer-5g-fixed-wireless-access-thumbnail-listing.jpg",
      "articleUrl": "https://www.globe.com.ph/about-us/newsroom/consumer/globe-5g-fixed-wireless-access-strategy-connect-ph-homes.html",
      "columnType": "articles--type-3",
      "typeListing": "article",
      "imageMobile": "/sites/globe.com.ph/files/content/dam/globe/brie/AboutUs/newsroom/consumer/globe-5g-fixed-wireless-access-strategy-connect-ph-homes/consumer-5g-fixed-wireless-access-primary-thumbnail-m.jpg",
      "imageDesktop": "/sites/globe.com.ph/files/content/dam/globe/brie/AboutUs/newsroom/consumer/globe-5g-fixed-wireless-access-strategy-connect-ph-homes/consumer-5g-fixed-wireless-access-primary-thumbnail-d.jpg",
      "description": "5G uplift the lives of Filipino families and help local businesses flourish by providing opportunities. Visit the Newsroom for the latest news on Globe Telecom.",
      "datePosted": "Oct 03, 2019 | 12:17 PM",
      "titleFromTag": "Consumer"
    },
    {
      "title": "Globe Fires Up Three Cell Sites in Siargao to Enhance Connectivity",
      "nonclickable": false,
      "openNewTab": false,
      "borderArticle": "border-color:#0074D9;",
      "borderTopArticle": "border-top-color:#0074D9;",
      "imageListing": "/sites/globe.com.ph/files/content/dam/globe/brie/AboutUs/newsroom/corporate/globe-fires-up-three-cell-sites-siargao/corporate-fires-up-three-cell-sites-thumbnail-listing.jpg",
      "articleUrl": "https://www.globe.com.ph/about-us/newsroom/corporate/globe-fires-up-three-cell-sites-siargao.html",
      "columnType": "articles--type-3",
      "typeListing": "article",
      "imageMobile": "/sites/globe.com.ph/files/content/dam/globe/brie/AboutUs/newsroom/corporate/globe-fires-up-three-cell-sites-siargao/corporate-fires-up-three-cell-sites-primary-thumbnail-m.jpg",
      "imageDesktop": "/sites/globe.com.ph/files/content/dam/globe/brie/AboutUs/newsroom/corporate/globe-fires-up-three-cell-sites-siargao/corporate-fires-up-three-cell-sites-primary-thumbnail-d.jpg",
      "description": "Globe enhances connectivity of Siargao as it fires up three cell sites in General Luna, Pilar, and Dapa. Visit Globe Newsroom for more.",
      "datePosted": "Oct 02, 2019 | 02:54 PM",
      "titleFromTag": "Corporate"
    }
  ]
}
