{
  "status": 200,
  "page": 199,
  "totalPage": 298,
  "range": "2377-2388",
  "total": 3573,
  "result": [
    {
      "title": "Globe, Mayor Zamora to Make San Juan a Digital City",
      "nonclickable": false,
      "openNewTab": false,
      "borderArticle": "border-color:#0074D9;",
      "borderTopArticle": "border-top-color:#0074D9;",
      "imageListing": "/sites/globe.com.ph/files/content/dam/globe/brie/AboutUs/newsroom/partners/globe-mayor-zamora-make-san-juan-digital-city/Partners-mayor-zamora-make-san-juan-a-digital-city-thumbnail-listing.jpg",
      "articleUrl": "https://www.globe.com.ph/about-us/newsroom/partners/globe-mayor-zamora-make-san-juan-digital-city.html",
      "columnType": "articles--type-3",
      "typeListing": "article",
      "imageMobile": "/sites/globe.com.ph/files/content/dam/globe/brie/AboutUs/newsroom/partners/globe-mayor-zamora-make-san-juan-digital-city/Partners-mayor-zamora-make-san-juan-a-digital-city-primary-thumbnail-m.jpg",
      "imageDesktop": "/sites/globe.com.ph/files/content/dam/globe/brie/AboutUs/newsroom/partners/globe-mayor-zamora-make-san-juan-digital-city/Partners-mayor-zamora-make-san-juan-a-digital-city-primary-thumbnail-d.jpg",
      "description": "Globe partnered with the local government unit of San Juan to lead the city’s digital transformation. Visit the Newsroom for the latest news on Globe Telecom.",
      "datePosted": "Oct 01, 2019 | 02:09 PM",
      "titleFromTag": "Partners"
    },
    {
      "title": "Cainta Connectivity Improves with Free WiFi Hotspots",
      "nonclickable": false,
      "openNewTab": false,
      "borderArticle": "border-color:#0074D9;",
      "borderTopArticle": "border-top-color:#0074D9;",
      "imageListing": "/sites/globe.com.ph/files/content/dam/globe/brie/AboutUs/newsroom/partners/cainta-connectivity-improves-free-wifi-hotspots/partners-cainta-connectivity-improve-free-wifi-thumbnail-listing.jpg",
      "articleUrl": "https://www.globe.com.ph/about-us/newsroom/partners/cainta-connectivity-improves-free-wifi-hotspots.html",
      "columnType": "articles--type-3",
      "typeListing": "article",
      "imageMobile": "/sites/globe.com.ph/files/content/dam/globe/brie/AboutUs/newsroom/partners/cainta-connectivity-improves-free-wifi-hotspots/partners-cainta-connectivity-improve-free-wifi-primary-thumbnail-m.jpg",
      "imageDesktop": "/sites/globe.com.ph/files/content/dam/globe/brie/AboutUs/newsroom/partners/cainta-connectivity-improves-free-wifi-hotspots/partners-cainta-connectivity-improve-free-wifi-primary-thumbnail-d.jpg",
      "description": "Globe GoWiFi and Cainta partnered to provide the city’s residents with free data connectivity. Visit the Newsroom for the latest news on Globe Telecom.",
      "datePosted": "Sep 27, 2019 | 03:44 PM",
      "titleFromTag": "Partners"
    },
    {
      "title": "DOT, Globe Partner to Promote Sustainable and Digital Tourism",
      "nonclickable": false,
      "openNewTab": false,
      "borderArticle": "border-color:#0074D9;",
      "borderTopArticle": "border-top-color:#0074D9;",
      "imageListing": "/sites/globe.com.ph/files/content/dam/globe/brie/AboutUs/newsroom/partners/dot-globe-promote-sustainable-digital-tourism/partners-dot-partner-to-promote-sustainability-thumbnail-listing.jpg",
      "articleUrl": "https://www.globe.com.ph/about-us/newsroom/partners/dot-globe-promote-sustainable-digital-tourism.html",
      "columnType": "articles--type-3",
      "typeListing": "article",
      "imageMobile": "/sites/globe.com.ph/files/content/dam/globe/brie/AboutUs/newsroom/partners/dot-globe-promote-sustainable-digital-tourism/partners-dot-partner-to-promote-sustainability-primary-thumbnail-m.jpg",
      "imageDesktop": "/sites/globe.com.ph/files/content/dam/globe/brie/AboutUs/newsroom/partners/dot-globe-promote-sustainable-digital-tourism/partners-dot-partner-to-promote-sustainability-primary-thumbnail-d.jpg",
      "description": "DOT and Globe entered into a partnership for the promotion and digital transformation of Philippine Tourism. Visit Globe Newsroom for more.",
      "datePosted": "Sep 27, 2019 | 02:54 PM",
      "titleFromTag": "Partners"
    },
    {
      "title": "Globe Inks MOU with American Tower Corp Subsidiary",
      "nonclickable": false,
      "openNewTab": false,
      "borderArticle": "border-color:#0074D9;",
      "borderTopArticle": "border-top-color:#0074D9;",
      "imageListing": "/sites/globe.com.ph/files/content/dam/globe/brie/AboutUs/newsroom/corporate/globe-inks-mou-with-american-tower-corp-subsidiary/corporate-inks-mou-with-american-tower-thumbnail-listing.jpg",
      "articleUrl": "https://www.globe.com.ph/about-us/newsroom/corporate/globe-inks-mou-american-tower-corp-subsidiary.html",
      "columnType": "articles--type-3",
      "typeListing": "article",
      "imageMobile": "/sites/globe.com.ph/files/content/dam/globe/brie/AboutUs/newsroom/corporate/globe-inks-mou-with-american-tower-corp-subsidiary/corporate-inks-mou-with-american-tower-primary-thumbnail-m.jpg",
      "imageDesktop": "/sites/globe.com.ph/files/content/dam/globe/brie/AboutUs/newsroom/corporate/globe-inks-mou-with-american-tower-corp-subsidiary/corporate-inks-mou-with-american-tower-primary-thumbnail-d.jpg",
      "description": "Globe signed a memorandum of understanding (MOU) with Transcend Towers Infrastructure to build more towers. Visit Globe Newsroom for more.",
      "datePosted": "Sep 24, 2019 | 12:23 PM",
      "titleFromTag": "Corporate"
    },
    {
      "title": "Globe Inks MOU with American Tower Corp Subsidiary",
      "nonclickable": false,
      "openNewTab": false,
      "borderArticle": "border-color:#0074D9;",
      "borderTopArticle": "border-top-color:#0074D9;",
      "imageListing": "/sites/globe.com.ph/files/content/dam/globe/brie/AboutUs/newsroom/corporate/globe-inks-mou-with-american-tower-corp-subsidiary/corporate-inks-mou-with-american-tower-thumbnail-listing.jpg",
      "articleUrl": "https://www.globe.com.ph/about-us/newsroom/corporate/globe-inks-mou-with-american-tower-corp-subsidiary.html",
      "columnType": "articles--type-3",
      "typeListing": "article",
      "imageMobile": "/sites/globe.com.ph/files/content/dam/globe/brie/AboutUs/newsroom/corporate/globe-inks-mou-with-american-tower-corp-subsidiary/corporate-inks-mou-with-american-tower-primary-thumbnail-m.jpg",
      "imageDesktop": "/sites/globe.com.ph/files/content/dam/globe/brie/AboutUs/newsroom/corporate/globe-inks-mou-with-american-tower-corp-subsidiary/corporate-inks-mou-with-american-tower-primary-thumbnail-d.jpg",
      "description": "Globe signed a memorandum of understanding (MOU) with Transcend Towers Infrastructure to build more towers. Visit the Newsroom for the latest news on Globe Telecom.",
      "datePosted": "Sep 24, 2019 | 12:23 PM",
      "titleFromTag": "Corporate"
    },
    {
      "title": "GMovies Introduces Reversed QR Codes for Hassle-Free Movie Experience ",
      "nonclickable": false,
      "openNewTab": false,
      "borderArticle": "border-color:#0074D9;",
      "borderTopArticle": "border-top-color:#0074D9;",
      "imageListing": "/sites/globe.com.ph/files/content/dam/globe/brie/AboutUs/newsroom/consumer/gmovies-introduces-reversed-qr-codes/default-partners-2-thumbnail-listing.jpg",
      "articleUrl": "https://www.globe.com.ph/about-us/newsroom/consumer/gmovies-introduces-reversed-qr-codes.html",
      "columnType": "articles--type-3",
      "typeListing": "article",
      "imageMobile": "/sites/globe.com.ph/files/content/dam/globe/brie/AboutUs/newsroom/consumer/gmovies-introduces-reversed-qr-codes/default-partners-2-primary-thumbnail-m.jpg",
      "imageDesktop": "/sites/globe.com.ph/files/content/dam/globe/brie/AboutUs/newsroom/consumer/gmovies-introduces-reversed-qr-codes/default-partners-2-primary-thumbnail-d.jpg",
      "description": "GMovies enhances further the cinema experience with reversed quick response (RQR) coding technology. Visit the Newsroom for the latest news on Globe Telecom.",
      "datePosted": "Sep 23, 2019 | 02:58 PM",
      "titleFromTag": "Consumer"
    },
    {
      "title": "Globe Joins Over 50 Mobile Firms Worldwide in Committing to Disclose Climate Impacts",
      "nonclickable": false,
      "openNewTab": false,
      "borderArticle": "border-color:#1C91C5;",
      "borderTopArticle": "border-top-color:#1C91C5;",
      "imageListing": "/sites/globe.com.ph/files/content/dam/globe/brie/AboutUs/newsroom/sustainability/globe-50-mobile-firms-disclose-climate-impacts/sustainability-joins-over-50-mobile-firms-thumbnail-listing.jpg",
      "articleUrl": "https://www.globe.com.ph/about-us/newsroom/sustainability/globe-50-mobile-firms-disclose-climate-impacts.html",
      "columnType": "articles--type-3",
      "typeListing": "article",
      "imageMobile": "/sites/globe.com.ph/files/content/dam/globe/brie/AboutUs/newsroom/sustainability/globe-50-mobile-firms-disclose-climate-impacts/sustainability-joins-over-50-mobile-firms-primary-thumbnail-m.jpg",
      "imageDesktop": "/sites/globe.com.ph/files/content/dam/globe/brie/AboutUs/newsroom/sustainability/globe-50-mobile-firms-disclose-climate-impacts/sustainability-joins-over-50-mobile-firms-primary-thumbnail-d.jpg",
      "description": "Globe joins more than 50 mobile operators in addressing the growing problem of climate change. Visit the Newsroom for the latest news on Globe Telecom.",
      "datePosted": "Sep 23, 2019 | 12:26 PM",
      "titleFromTag": "Sustainability"
    },
    {
      "title": "Globe to Fly 4 Lucky Customers to Witness ONE Championship's Historic Event, Live and for Free in Tokyo",
      "nonclickable": false,
      "openNewTab": false,
      "borderArticle": "border-color:#0074D9;",
      "borderTopArticle": "border-top-color:#0074D9;",
      "imageListing": "/sites/globe.com.ph/files/content/dam/globe/brie/AboutUs/newsroom/consumer/globe-lucky-customers-witness-one-century-live-in-tokyo/consumer-to-fly-4-lucky-customers-thumbnail-listing.jpg",
      "articleUrl": "https://www.globe.com.ph/about-us/newsroom/consumer/globe-lucky-customers-witness-one-century-live-in-tokyo.html",
      "columnType": "articles--type-3",
      "typeListing": "article",
      "imageMobile": "/sites/globe.com.ph/files/content/dam/globe/brie/AboutUs/newsroom/consumer/globe-lucky-customers-witness-one-century-live-in-tokyo/consumer-to-fly-4-lucky-customers-primary-thumbnail-m.jpg",
      "imageDesktop": "/sites/globe.com.ph/files/content/dam/globe/brie/AboutUs/newsroom/consumer/globe-lucky-customers-witness-one-century-live-in-tokyo/consumer-to-fly-4-lucky-customers-primary-thumbnail-d.jpg",
      "description": "Loyal Globe customers now have a chance to witness ONE: CENTURY in Tokyo, Japan for free. Visit the Newsroom for the latest news on Globe Telecom.",
      "datePosted": "Sep 20, 2019 | 02:58 PM",
      "titleFromTag": "Consumer"
    },
    {
      "title": "Philippine Women’s University and Philippine Normal University Now Powered by GoWiFi",
      "nonclickable": false,
      "openNewTab": false,
      "borderArticle": "border-color:#0074D9;",
      "borderTopArticle": "border-top-color:#0074D9;",
      "imageListing": "/sites/globe.com.ph/files/content/dam/globe/brie/AboutUs/newsroom/partners/pwu-and-pnu-now-powered-by-gowifi/default-default-3-thumbnail-listing.jpg",
      "articleUrl": "https://www.globe.com.ph/about-us/newsroom/partners/pwu-and-pnu-now-powered-by-gowifi.html",
      "columnType": "articles--type-3",
      "typeListing": "article",
      "imageMobile": "/sites/globe.com.ph/files/content/dam/globe/brie/AboutUs/newsroom/partners/pwu-and-pnu-now-powered-by-gowifi/default-default-3-primary-thumbnail-m.jpg",
      "imageDesktop": "/sites/globe.com.ph/files/content/dam/globe/brie/AboutUs/newsroom/partners/pwu-and-pnu-now-powered-by-gowifi/default-default-3-primary-thumbnail-d.jpg",
      "description": "GoWiFi partnered with PNU and PWU to provide more school communities quality access to the internet. Visit the Newsroom for the latest news on Globe Telecom.",
      "datePosted": "Sep 20, 2019 | 02:09 PM",
      "titleFromTag": "Partners"
    },
    {
      "title": "Laws, Education Needed to Curb Piracy in PH",
      "nonclickable": false,
      "openNewTab": false,
      "borderArticle": "border-color:#0074D9;",
      "borderTopArticle": "border-top-color:#0074D9;",
      "imageListing": "/sites/globe.com.ph/files/content/dam/globe/brie/AboutUs/newsroom/corporate/laws-education-needed-curb-ph-piracy/default-corporate-5-thumbnail-listing.jpg",
      "articleUrl": "https://www.globe.com.ph/about-us/newsroom/corporate/laws-education-needed-curb-ph-piracy.html",
      "columnType": "articles--type-3",
      "typeListing": "article",
      "imageMobile": "/sites/globe.com.ph/files/content/dam/globe/brie/AboutUs/newsroom/corporate/laws-education-needed-curb-ph-piracy/default-corporate-5-primary-thumbnail-m.jpg",
      "imageDesktop": "/sites/globe.com.ph/files/content/dam/globe/brie/AboutUs/newsroom/corporate/laws-education-needed-curb-ph-piracy/default-corporate-5-primary-thumbnail-d.jpg",
      "description": "With #PlayItRight, Globe Telecom is helping curb the Filipino's reliance on illegally acquired content. Visit the Newsroom for the latest news on Globe Telecom.",
      "datePosted": "Sep 19, 2019 | 11:24 AM",
      "titleFromTag": "Corporate"
    },
    {
      "title": "Laws, Education Needed to Curb Piracy in PH",
      "nonclickable": false,
      "openNewTab": false,
      "borderArticle": "border-color:#0074D9;",
      "borderTopArticle": "border-top-color:#0074D9;",
      "imageListing": "/sites/globe.com.ph/files/content/dam/globe/brie/AboutUs/newsroom/corporate/laws-education-needed-curb-ph-piracy/default-corporate-5-thumbnail-listing.jpg",
      "articleUrl": "https://www.globe.com.ph/about-us/newsroom/corporate/laws-education-curb-ph-piracy.html",
      "columnType": "articles--type-3",
      "typeListing": "article",
      "imageMobile": "/sites/globe.com.ph/files/content/dam/globe/brie/AboutUs/newsroom/corporate/laws-education-needed-curb-ph-piracy/default-corporate-5-primary-thumbnail-m.jpg",
      "imageDesktop": "/sites/globe.com.ph/files/content/dam/globe/brie/AboutUs/newsroom/corporate/laws-education-needed-curb-ph-piracy/default-corporate-5-primary-thumbnail-d.jpg",
      "description": "With #PlayItRight, Globe Telecom is helping curb the Filipino's reliance on illegally acquired content. Visit the Newsroom for the latest news on Globe Telecom.",
      "datePosted": "Sep 19, 2019 | 11:24 AM",
      "titleFromTag": "Corporate"
    },
    {
      "title": "Get Gifts and Freebies with Globe At Home's Prepaid WiFi Shake and Win Load-Up Promo!",
      "nonclickable": false,
      "openNewTab": false,
      "borderArticle": "border-color:#0074D9;",
      "borderTopArticle": "border-top-color:#0074D9;",
      "imageListing": "/sites/globe.com.ph/files/content/dam/globe/brie/AboutUs/newsroom/consumer/globe-at-home-prepaid-wifi-shake-win-load-up-promo/consumer-get-gifts-and-freebies-with-globe-thumbnail-listing.jpg",
      "articleUrl": "https://www.globe.com.ph/about-us/newsroom/consumer/globe-at-home-prepaid-wifi-shake-win-load-up-promo.html",
      "columnType": "articles--type-3",
      "typeListing": "article",
      "imageMobile": "/sites/globe.com.ph/files/content/dam/globe/brie/AboutUs/newsroom/consumer/globe-at-home-prepaid-wifi-shake-win-load-up-promo/consumer-get-gifts-and-freebies-with-globe-primary-thumbnail-m.jpg",
      "imageDesktop": "/sites/globe.com.ph/files/content/dam/globe/brie/AboutUs/newsroom/consumer/globe-at-home-prepaid-wifi-shake-win-load-up-promo/consumer-get-gifts-and-freebies-with-globe-primary-thumbnail-d.jpg",
      "description": "Globe At Home Prepaid WiFi just got better with its Shake and Win promo! Visit the Newsroom for the latest news on Globe Telecom.",
      "datePosted": "Sep 19, 2019 | 09:29 AM",
      "titleFromTag": "Consumer"
    }
  ]
}
