{
  "status": 200,
  "page": 2,
  "totalPage": 298,
  "range": "13-24",
  "total": 3573,
  "result": [
    {
      "title": "Globe Terminates over 154K SIMs Linked to Fraud via Stop Spam Portal, 334.7% Higher than 2022",
      "nonclickable": false,
      "openNewTab": false,
      "borderArticle": "border-color:#0074D9;",
      "borderTopArticle": "border-top-color:#0074D9;",
      "imageListing": "/sites/globe.com.ph/files/content/dam/globe/brie/AboutUs/newsroom/common/default-mobile-3/Newsroom-Total-Globe-Default-Images-Mobile-3-thumbnail-listing.jpg",
      "articleUrl": "https://www.globe.com.ph/about-us/newsroom/corporate/globe-terminates-over-154k-sims-linked-to-fraud.html",
      "columnType": "articles--type-3",
      "typeListing": "article",
      "imageMobile": "/sites/globe.com.ph/files/content/dam/globe/brie/AboutUs/newsroom/common/default-mobile-3/Newsroom-Total-Globe-Default-Images-Mobile-3-primary-thumbnail-m.jpg",
      "imageDesktop": "/sites/globe.com.ph/files/content/dam/globe/brie/AboutUs/newsroom/common/default-mobile-3/Newsroom-Total-Globe-Default-Images-Mobile-3-primary-thumbnail-d.jpg",
      "description": "Globe blocked a record-high of fraud-linked SIMs in 9 months, observing a surge in spam and scams using SIMs from other networks.",
      "datePosted": "Nov 29, 2023 | 08:01 AM",
      "titleFromTag": "Corporate"
    },
    {
      "title": "Globe Boosts 5G Network Coverage with 716 New Sites",
      "nonclickable": false,
      "openNewTab": false,
      "borderArticle": "border-color:#0074D9;",
      "borderTopArticle": "border-top-color:#0074D9;",
      "imageListing": "/sites/globe.com.ph/files/content/dam/globe/brie/AboutUs/newsroom/common/default-corporate-5/corp-thumbnail-listing.jpg",
      "articleUrl": "https://www.globe.com.ph/about-us/newsroom/corporate/globe-boosts-5g-network-coverage-716-new-sites.html",
      "columnType": "articles--type-3",
      "typeListing": "article",
      "imageMobile": "/sites/globe.com.ph/files/content/dam/globe/brie/AboutUs/newsroom/common/default-corporate-5/corp-primary-thumbnail-m.jpg",
      "imageDesktop": "/sites/globe.com.ph/files/content/dam/globe/brie/AboutUs/newsroom/common/default-corporate-5/corp-primary-thumbnail-d.jpg",
      "description": "Globe continues to expand its 5G network coverage with 716 new sites, covering 97.67% of NCR and 92.06% in key cities of Visayas and Mindanao.",
      "datePosted": "Nov 28, 2023 | 08:56 AM",
      "titleFromTag": "Corporate"
    },
    {
      "title": "Globe’s Mobile Business Sustains Consistent YoY Growth with Record High Revenue at ₱83.2 Billion",
      "nonclickable": false,
      "openNewTab": false,
      "borderArticle": "border-color:#0074D9;",
      "borderTopArticle": "border-top-color:#0074D9;",
      "imageListing": "/sites/globe.com.ph/files/content/dam/globe/brie/AboutUs/newsroom/common/default-corporate-main/newsroom-default-corporate-thumbnail-listing.jpg",
      "articleUrl": "https://www.globe.com.ph/about-us/newsroom/corporate/mobile-business-sustains-consistent-yoy-growth.html",
      "columnType": "articles--type-3",
      "typeListing": "article",
      "imageMobile": "/sites/globe.com.ph/files/content/dam/globe/brie/AboutUs/newsroom/common/default-corporate-main/newsroom-default-corporate-primary-thumbnail-m.jpg",
      "imageDesktop": "/sites/globe.com.ph/files/content/dam/globe/brie/AboutUs/newsroom/common/default-corporate-main/newsroom-default-corporate-primary-thumbnail-d.jpg",
      "description": "Globe has logged a steadfast 3% growth year-on-year in its mobile business with record-high revenue at ₱83.2 billion.",
      "datePosted": "Nov 28, 2023 | 08:55 AM",
      "titleFromTag": "Corporate"
    },
    {
      "title": "Globe Group Moves to Replicate Fintech Success, Solving PH Biggest Problems with Digital Technology",
      "nonclickable": false,
      "openNewTab": false,
      "borderArticle": "border-color:#0074D9;",
      "borderTopArticle": "border-top-color:#0074D9;",
      "imageListing": "/sites/globe.com.ph/files/content/dam/globe/brie/AboutUs/newsroom/common/default-corporate-13/corp-listing-thumbnail.jpg",
      "articleUrl": "https://www.globe.com.ph/about-us/newsroom/corporate/globe-group-moves-to-replicate-fintech-success.html",
      "columnType": "articles--type-3",
      "typeListing": "article",
      "imageMobile": "/sites/globe.com.ph/files/content/dam/globe/brie/AboutUs/newsroom/common/default-corporate-13/corp-primary-banner-m.jpg",
      "imageDesktop": "/sites/globe.com.ph/files/content/dam/globe/brie/AboutUs/newsroom/common/default-corporate-13/corp-primary-thumbnail.jpg",
      "description": "Ernest Cu aims to  respond to PH problems through techco solutions.",
      "datePosted": "Nov 27, 2023 | 08:36 AM",
      "titleFromTag": "Corporate"
    },
    {
      "title": "Globe Reprises BGC GLocal Passionfest, Spotlights G Creator Hub",
      "nonclickable": false,
      "openNewTab": false,
      "borderArticle": "border-color:#0074D9;",
      "borderTopArticle": "border-top-color:#0074D9;",
      "imageListing": "/sites/globe.com.ph/files/content/dam/globe/brie/AboutUs/newsroom/common/default-events-2/default-event-2-thumbnail-listing.jpg",
      "articleUrl": "https://www.globe.com.ph/about-us/newsroom/consumer/reprise-bgc-glocal-passionfest-spotlights-g-creator-hub.html",
      "columnType": "articles--type-3",
      "typeListing": "article",
      "imageMobile": "/sites/globe.com.ph/files/content/dam/globe/brie/AboutUs/newsroom/common/default-events-2/default-event-2-primary-thumbnail-m.jpg",
      "imageDesktop": "/sites/globe.com.ph/files/content/dam/globe/brie/AboutUs/newsroom/common/default-events-2/default-event-2-primary-thumbnail-d.jpg",
      "description": "Globe, together with the Fort Bonifacio Development Corporation (FBDC) reprises the BGC GLocal Passionfest with the theme \"Color and Culture Festival.\"",
      "datePosted": "Nov 24, 2023 | 10:46 AM",
      "titleFromTag": "Consumer"
    },
    {
      "title": "6 Nabbed in Separate Cable Theft Incidents in Manila",
      "nonclickable": false,
      "openNewTab": false,
      "borderArticle": "border-color:#0074D9;",
      "borderTopArticle": "border-top-color:#0074D9;",
      "imageListing": "/sites/globe.com.ph/files/content/dam/globe/brie/AboutUs/newsroom/common/default-corporate-5g-connectivity/thumbnail-listing.jpg",
      "articleUrl": "https://www.globe.com.ph/about-us/newsroom/corporate/6-nabbed-in-separate-cable-theft-incidents-manila.html",
      "columnType": "articles--type-3",
      "typeListing": "article",
      "imageMobile": "/sites/globe.com.ph/files/content/dam/globe/brie/AboutUs/newsroom/common/default-corporate-5g-connectivity/primary-thumbnail-m.jpg",
      "imageDesktop": "/sites/globe.com.ph/files/content/dam/globe/brie/AboutUs/newsroom/common/default-corporate-5g-connectivity/primary-thumbnail-d.jpg",
      "description": "Globe's nationwide anti-cable theft campaign, in coordination with local authorities, leads to the apprehension of six thieves in Metro Manila.",
      "datePosted": "Nov 23, 2023 | 10:29 AM",
      "titleFromTag": "Corporate"
    },
    {
      "title": "Globe Pins Post-SCR ID Validation Success via Access to Gov’t Database",
      "nonclickable": false,
      "openNewTab": false,
      "borderArticle": "border-color:#0074D9;",
      "borderTopArticle": "border-top-color:#0074D9;",
      "imageListing": "/sites/globe.com.ph/files/content/dam/globe/brie/AboutUs/newsroom/common/default-total-globe-4/total-globe-4-thumbnail-listing.jpg",
      "articleUrl": "https://www.globe.com.ph/about-us/newsroom/corporate/globe-pins-post-scr-id-validation-success-via-access-to-govt-database.html",
      "columnType": "articles--type-3",
      "typeListing": "article",
      "imageMobile": "/sites/globe.com.ph/files/content/dam/globe/brie/AboutUs/newsroom/common/default-total-globe-4/total-globe-4-primary-thumbnail-m.jpg",
      "imageDesktop": "/sites/globe.com.ph/files/content/dam/globe/brie/AboutUs/newsroom/common/default-total-globe-4/total-globe-4-primary-thumbnail-d.jpg",
      "description": "Emphasizing the pivotal role of government ID database access, Globe enhances its verification process to effectively address fraudulent SIM registrations.",
      "datePosted": "Nov 23, 2023 | 10:23 AM",
      "titleFromTag": "Corporate"
    },
    {
      "title": "Asticom Group of Companies receives Double Honors at 2023 Stevie® Awards for Great Employers",
      "nonclickable": false,
      "openNewTab": false,
      "borderArticle": "border-color:#0074D9;",
      "borderTopArticle": "border-top-color:#0074D9;",
      "imageListing": "/sites/globe.com.ph/files/content/dam/globe/brie/AboutUs/newsroom/common/default-corporate-15/corp-default-images-thumbnail-listing.jpg",
      "articleUrl": "https://www.globe.com.ph/about-us/newsroom/corporate/asticom-double-honors-2023-stevie-awards-great-employers.html",
      "columnType": "articles--type-3",
      "typeListing": "article",
      "imageMobile": "/sites/globe.com.ph/files/content/dam/globe/brie/AboutUs/newsroom/common/default-corporate-15/corp-default-images-primary-thumbnail-m.jpg",
      "imageDesktop": "/sites/globe.com.ph/files/content/dam/globe/brie/AboutUs/newsroom/common/default-corporate-15/corp-default-images-primary-thumbnail-d.jpg",
      "description": "Asticom clinches two major awards at the 2023 Stevie® Awards for Great Employers.",
      "datePosted": "Nov 23, 2023 | 10:23 AM",
      "titleFromTag": "Corporate"
    },
    {
      "title": "Globe's KmmunityPH Redefines Stanning, Ramps Up Partnerships",
      "nonclickable": false,
      "openNewTab": false,
      "borderArticle": "border-color:#0074D9;",
      "borderTopArticle": "border-top-color:#0074D9;",
      "imageListing": "/sites/globe.com.ph/files/content/dam/globe/brie/AboutUs/newsroom/common/default-kpop-1/Event-Default-Images-Kpop-1-thumbnail-listing.jpg",
      "articleUrl": "https://www.globe.com.ph/about-us/newsroom/consumer/kmmunityph-redefines-stanning-ramps-up-partnerships.html",
      "columnType": "articles--type-3",
      "typeListing": "article",
      "imageMobile": "/sites/globe.com.ph/files/content/dam/globe/brie/AboutUs/newsroom/common/default-kpop-1/Event-Default-Images-Kpop-1-primary-thumbnail-m.jpg",
      "imageDesktop": "/sites/globe.com.ph/files/content/dam/globe/brie/AboutUs/newsroom/common/default-kpop-1/Event-Default-Images-Kpop-1-primary-thumbnail-d.jpg",
      "description": "Globe KmmunityPH redefines “stanning,” and boosts engagement by making meaningful collaborations with K-pop and K-drama fan groups in the country.",
      "datePosted": "Nov 23, 2023 | 10:23 AM",
      "titleFromTag": "Consumer"
    },
    {
      "title": "Globe Business Celebrates and Empowers Educators in Forefront 2023: The National Conference on Digital Learning",
      "nonclickable": false,
      "openNewTab": false,
      "borderArticle": "border-color:#0074D9;",
      "borderTopArticle": "border-top-color:#0074D9;",
      "imageListing": "/sites/globe.com.ph/files/content/dam/globe/brie/AboutUs/newsroom/common/default-corporate-tech-3/newsroom-corporate-tech-3-thumbnail-listing.jpg",
      "articleUrl": "https://www.globe.com.ph/about-us/newsroom/business/celebrate-empower-educators-forefront-2023.html",
      "columnType": "articles--type-3",
      "typeListing": "article",
      "imageMobile": "/sites/globe.com.ph/files/content/dam/globe/brie/AboutUs/newsroom/common/default-corporate-tech-3/newsroom-corporate-tech-3-primary-thumbnail-m.jpg",
      "imageDesktop": "/sites/globe.com.ph/files/content/dam/globe/brie/AboutUs/newsroom/common/default-corporate-tech-3/newsroom-corporate-tech-3-primary-thumbnail-d.jpg",
      "description": "Globe Business hosted Forefront 2023, a National Conference on Digital Learning to honor and empower educators.",
      "datePosted": "Nov 23, 2023 | 10:18 AM",
      "titleFromTag": "Business"
    },
    {
      "title": "Globe Levels Up Gaming Commitment with Renewed Blacklist International Partnership",
      "nonclickable": false,
      "openNewTab": false,
      "borderArticle": "border-color:#0074D9;",
      "borderTopArticle": "border-top-color:#0074D9;",
      "imageListing": "/sites/globe.com.ph/files/content/dam/globe/brie/AboutUs/newsroom/partners/internet-watch-foundation-partner-child-protection-advocacy/default-partners-1-thumbnail-listing.jpg",
      "articleUrl": "https://www.globe.com.ph/about-us/newsroom/corporate/level-up-gaming-commitment-renewed-blacklist-international-partnership.html",
      "columnType": "articles--type-3",
      "typeListing": "article",
      "imageMobile": "/sites/globe.com.ph/files/content/dam/globe/brie/AboutUs/newsroom/partners/internet-watch-foundation-partner-child-protection-advocacy/default-partners-1-primary-thumbnail-m.jpg",
      "imageDesktop": "/sites/globe.com.ph/files/content/dam/globe/brie/AboutUs/newsroom/partners/internet-watch-foundation-partner-child-protection-advocacy/default-partners-1-primary-thumbnail-d.jpg",
      "description": "Globe continues to level up its gaming commitment with the renewed partnership with Blacklist International.",
      "datePosted": "Nov 23, 2023 | 10:10 AM",
      "titleFromTag": "Corporate"
    },
    {
      "title": "Globe Logs New Record-High Quarterly Revenue at ₱40.7B Driven by Mobile, EBITDA",
      "nonclickable": false,
      "openNewTab": false,
      "borderArticle": "border-color:#0074D9;",
      "borderTopArticle": "border-top-color:#0074D9;",
      "imageListing": "/sites/globe.com.ph/files/content/dam/globe/brie/AboutUs/newsroom/common/default-total-globe-2/newsroom-total-globe-default-2-thumbnail-listing.jpg",
      "articleUrl": "https://www.globe.com.ph/about-us/newsroom/corporate/new-record-high-quarterly-revenue-40-billion.html",
      "columnType": "articles--type-3",
      "typeListing": "article",
      "imageMobile": "/sites/globe.com.ph/files/content/dam/globe/brie/AboutUs/newsroom/common/default-total-globe-2/newsroom-total-globe-default-2-primary-thumbnail-m.jpg",
      "imageDesktop": "/sites/globe.com.ph/files/content/dam/globe/brie/AboutUs/newsroom/common/default-total-globe-2/newsroom-total-globe-default-2-primary-thumbnail-d.jpg",
      "description": "Globe achieves record Q3 revenue of ₱40.7B, surpassing Q2. Strong mobile performance and high EBITDA showcase resilience in a challenging economy.",
      "datePosted": "Nov 20, 2023 | 02:42 PM",
      "titleFromTag": "Corporate"
    }
  ]
}
