{
  "status": 200,
  "page": 20,
  "totalPage": 298,
  "range": "229-240",
  "total": 3573,
  "result": [
    {
      "title": "Globe Powers Up TOYCON 2023’s Landmark 20th Year",
      "nonclickable": false,
      "openNewTab": false,
      "borderArticle": "border-color:#0074D9;",
      "borderTopArticle": "border-top-color:#0074D9;",
      "imageListing": "/sites/globe.com.ph/files/content/dam/globe/brie/AboutUs/newsroom/consumer/Globe-Powers-Up-TOYCON-2023-s-Landmark-20th-Year/NEWSROOM-CONSUME-Globe-powers-up-TOYCON-2023’s-landmark-20th-year-thumbnail-listing.jpg",
      "articleUrl": "https://www.globe.com.ph/about-us/newsroom/consumer/toycon-2023-landmark-20th-year.html",
      "columnType": "articles--type-3",
      "typeListing": "article",
      "imageMobile": "/sites/globe.com.ph/files/content/dam/globe/brie/AboutUs/newsroom/consumer/Globe-Powers-Up-TOYCON-2023-s-Landmark-20th-Year/NEWSROOM-CONSUME-Globe-powers-up-TOYCON-2023’s-landmark-20th-year-primary-thumbnail-m.jpg",
      "imageDesktop": "/sites/globe.com.ph/files/content/dam/globe/brie/AboutUs/newsroom/consumer/Globe-Powers-Up-TOYCON-2023-s-Landmark-20th-Year/NEWSROOM-CONSUME-Globe-powers-up-TOYCON-2023’s-landmark-20th-year-primary-thumbnail-d.jpg",
      "description": "Globe joins in celebrating TOYCON’s 20th year, bringing a new level of excitement and engagement to the toy collector and creator community.",
      "datePosted": "Jun 30, 2023 | 01:27 PM",
      "titleFromTag": "Consumer"
    },
    {
      "title": "Globe Sees Better Business in H2 this Year Amid Inflation Downtrend",
      "nonclickable": false,
      "openNewTab": false,
      "borderArticle": "border-color:#0074D9;",
      "borderTopArticle": "border-top-color:#0074D9;",
      "imageListing": "/sites/globe.com.ph/files/content/dam/globe/brie/AboutUs/newsroom/corporate/globe-group-earns-spot-linkedin-2023-top-companies/eg-default-images-thumbnail-listing.jpg",
      "articleUrl": "https://www.globe.com.ph/about-us/newsroom/corporate/better-business-h2-2023-amid-inflation-downtrend.html",
      "columnType": "articles--type-3",
      "typeListing": "article",
      "imageMobile": "/sites/globe.com.ph/files/content/dam/globe/brie/AboutUs/newsroom/corporate/globe-group-earns-spot-linkedin-2023-top-companies/eg-default-images-primary-thumbnail-m.jpg",
      "imageDesktop": "/sites/globe.com.ph/files/content/dam/globe/brie/AboutUs/newsroom/corporate/globe-group-earns-spot-linkedin-2023-top-companies/eg-default-images-primary-thumbnail-d.jpg",
      "description": "Despite a continued downtrend in inflation, Globe foresees a better business performance in the second half of 2023.",
      "datePosted": "Jun 30, 2023 | 01:26 PM",
      "titleFromTag": "Corporate"
    },
    {
      "title": "“On Trend!”: Globe, SMMPH Join Forces to Empower Filipino Creators",
      "nonclickable": false,
      "openNewTab": false,
      "borderArticle": "border-color:#0074D9;",
      "borderTopArticle": "border-top-color:#0074D9;",
      "imageListing": "/sites/globe.com.ph/files/content/dam/globe/brie/AboutUs/newsroom/common/defaultgenzmobile3/Newsroom-Prepaid-Default-Images-Gen-Z-Mobile-3-thumbnail-listing.jpg",
      "articleUrl": "https://www.globe.com.ph/about-us/newsroom/consumer/on-trend-globe-smmph-empower-filipino-creators.html",
      "columnType": "articles--type-3",
      "typeListing": "article",
      "imageMobile": "/sites/globe.com.ph/files/content/dam/globe/brie/AboutUs/newsroom/common/defaultgenzmobile3/Newsroom-Prepaid-Default-Images-Gen-Z-Mobile-3-primary-thumbnail-m.jpg",
      "imageDesktop": "/sites/globe.com.ph/files/content/dam/globe/brie/AboutUs/newsroom/common/defaultgenzmobile3/Newsroom-Prepaid-Default-Images-Gen-Z-Mobile-3-primary-thumbnail-d.jpg",
      "description": "Globe and Social Media Marketing Philippines (SMMPH) celebrate their partnership with the debut event \"On Trend!\"",
      "datePosted": "Jun 30, 2023 | 01:25 PM",
      "titleFromTag": "Consumer"
    },
    {
      "title": "Globe Business Saludo MSMEs 2023 Ignites Retail Revolution",
      "nonclickable": false,
      "openNewTab": false,
      "borderArticle": "border-color:#0074D9;",
      "borderTopArticle": "border-top-color:#0074D9;",
      "imageListing": "/sites/globe.com.ph/files/content/dam/globe/brie/AboutUs/newsroom/common/default-business-7/sg-default-images-thumbnail-listing.jpg",
      "articleUrl": "https://www.globe.com.ph/about-us/newsroom/business/saludo-msmes-2023-ignites-retail-revolution.html",
      "columnType": "articles--type-3",
      "typeListing": "article",
      "imageMobile": "/sites/globe.com.ph/files/content/dam/globe/brie/AboutUs/newsroom/common/default-business-7/sg-default-images-primary-thumbnail-m.jpg",
      "imageDesktop": "/sites/globe.com.ph/files/content/dam/globe/brie/AboutUs/newsroom/common/default-business-7/sg-default-images-primary-thumbnail-d.jpg",
      "description": "Globe Business holds a two-day Retail Revolution event in line with International MSME Day.",
      "datePosted": "Jun 27, 2023 | 01:52 PM",
      "titleFromTag": "Business"
    },
    {
      "title": "Globe Takes Lead with 1st VoNR Deployment in PH",
      "nonclickable": false,
      "openNewTab": false,
      "borderArticle": "border-color:#0074D9;",
      "borderTopArticle": "border-top-color:#0074D9;",
      "imageListing": "/sites/globe.com.ph/files/content/dam/globe/brie/AboutUs/newsroom/common/default-corporate-5g-connectivity/thumbnail-listing.jpg",
      "articleUrl": "https://www.globe.com.ph/about-us/newsroom/corporate/globe-takes-lead-first-vonr.html",
      "columnType": "articles--type-3",
      "typeListing": "article",
      "imageMobile": "/sites/globe.com.ph/files/content/dam/globe/brie/AboutUs/newsroom/common/default-corporate-5g-connectivity/primary-thumbnail-m.jpg",
      "imageDesktop": "/sites/globe.com.ph/files/content/dam/globe/brie/AboutUs/newsroom/common/default-corporate-5g-connectivity/primary-thumbnail-d.jpg",
      "description": "Globe has become the Philippines’ first telco to deploy Voice over New Radio (VoNR), marking a significant step forward in voice communication technologies.",
      "datePosted": "Jun 27, 2023 | 01:51 PM",
      "titleFromTag": "Corporate"
    },
    {
      "title": "June 2023 Updates: Globe SIM Registration Portal",
      "nonclickable": false,
      "openNewTab": false,
      "borderArticle": "border-color:#0074D9;",
      "borderTopArticle": "border-top-color:#0074D9;",
      "imageListing": "/sites/globe.com.ph/files/content/dam/globe/brie/AboutUs/newsroom/common/default-total-globe-2/newsroom-total-globe-default-2-thumbnail-listing.jpg",
      "articleUrl": "https://www.globe.com.ph/about-us/newsroom/corporate/sim-registration-june-2023.html",
      "columnType": "articles--type-3",
      "typeListing": "article",
      "imageMobile": "/sites/globe.com.ph/files/content/dam/globe/brie/AboutUs/newsroom/common/default-total-globe-2/newsroom-total-globe-default-2-primary-thumbnail-m.jpg",
      "imageDesktop": "/sites/globe.com.ph/files/content/dam/globe/brie/AboutUs/newsroom/common/default-total-globe-2/newsroom-total-globe-default-2-primary-thumbnail-d.jpg",
      "description": "Read the June 2023 updates on Globe's SIM Registration here.",
      "datePosted": "Jun 26, 2023 | 02:12 PM",
      "titleFromTag": "Corporate"
    },
    {
      "title": "Globe Posts ₱40B Consolidated Service Revenues for Q1, Sets Positive Tone for Rest of 2023",
      "nonclickable": false,
      "openNewTab": false,
      "borderArticle": "border-color:#0074D9;",
      "borderTopArticle": "border-top-color:#0074D9;",
      "imageListing": "/sites/globe.com.ph/files/content/dam/globe/brie/AboutUs/newsroom/common/default-corporate-4/corp-listing-thumbnail.jpg",
      "articleUrl": "https://www.globe.com.ph/about-us/newsroom/corporate/40-billion-consolidated-service-revenues-q1-2023.html",
      "columnType": "articles--type-3",
      "typeListing": "article",
      "imageMobile": "/sites/globe.com.ph/files/content/dam/globe/brie/AboutUs/newsroom/common/default-corporate-4/corp-primary-banner-m.jpg",
      "imageDesktop": "/sites/globe.com.ph/files/content/dam/globe/brie/AboutUs/newsroom/common/default-corporate-4/corp-primary-thumbnail.jpg",
      "description": "The Globe Group has ended the quarter with consolidated service revenues of ₱40 billion, a 2% increase from the same period last year.",
      "datePosted": "Jun 26, 2023 | 09:40 AM",
      "titleFromTag": "Corporate"
    },
    {
      "title": "KonsultaMD, Cebu Technological University - Danao Campus Collaborate on Digital Healthcare for School Staff",
      "nonclickable": false,
      "openNewTab": false,
      "borderArticle": "border-color:#0074D9;",
      "borderTopArticle": "border-top-color:#0074D9;",
      "imageListing": "/sites/globe.com.ph/files/content/dam/globe/brie/AboutUs/newsroom/corporate/danao-campus-collaborate-on-digital-healthcare/thumbnail-listing.jpg",
      "articleUrl": "https://www.globe.com.ph/about-us/newsroom/corporate/konsultamd-ctu-danao-collaborate-digital-healthcare.html",
      "columnType": "articles--type-3",
      "typeListing": "article",
      "imageMobile": "/sites/globe.com.ph/files/content/dam/globe/brie/AboutUs/newsroom/corporate/danao-campus-collaborate-on-digital-healthcare/primary-thumbnail-m.jpg",
      "imageDesktop": "/sites/globe.com.ph/files/content/dam/globe/brie/AboutUs/newsroom/corporate/danao-campus-collaborate-on-digital-healthcare/primary-thumbnail-d.jpg",
      "description": "Leading telehealth services provider KonsultaMD collaborates with the Cebu Technological University’s (CTU) Danao City on Digital Healthcare for School Staff.",
      "datePosted": "Jun 26, 2023 | 09:39 AM",
      "titleFromTag": "Corporate"
    },
    {
      "title": "Globe Group Boosts Support for Digital Transformation of Cebu's IT-BPM Sector",
      "nonclickable": false,
      "openNewTab": false,
      "borderArticle": "border-color:#0074D9;",
      "borderTopArticle": "border-top-color:#0074D9;",
      "imageListing": "/sites/globe.com.ph/files/content/dam/globe/brie/AboutUs/newsroom/corporate/support-for-digital-transformation/thumbnail-listing.jpg",
      "articleUrl": "https://www.globe.com.ph/about-us/newsroom/corporate/support-digital-transformation-cebu-it-bpm-sector.html",
      "columnType": "articles--type-3",
      "typeListing": "article",
      "imageMobile": "/sites/globe.com.ph/files/content/dam/globe/brie/AboutUs/newsroom/corporate/support-for-digital-transformation/primary-thumbnail-m.jpg",
      "imageDesktop": "/sites/globe.com.ph/files/content/dam/globe/brie/AboutUs/newsroom/corporate/support-for-digital-transformation/primary-thumbnail-d.jpg",
      "description": "Globe Group showcased its steadfast commitment to the progressive evolution of Cebu's Information Technology and Business Process Management organizations.",
      "datePosted": "Jun 23, 2023 | 03:28 PM",
      "titleFromTag": "Corporate"
    },
    {
      "title": "Globe Joins Hands with Pilipinas Special Olympics to Support Inclusivity in Sports",
      "nonclickable": false,
      "openNewTab": false,
      "borderArticle": "border-color:#0074D9;",
      "borderTopArticle": "border-top-color:#0074D9;",
      "imageListing": "/sites/globe.com.ph/files/content/dam/globe/brie/AboutUs/newsroom/common/default-total-globe-partners-1/thumbnail-listing.jpg",
      "articleUrl": "https://www.globe.com.ph/about-us/newsroom/corporate/globe-joins-hands-pilipinas-special-olympics.html",
      "columnType": "articles--type-3",
      "typeListing": "article",
      "imageMobile": "/sites/globe.com.ph/files/content/dam/globe/brie/AboutUs/newsroom/common/default-total-globe-partners-1/primary-thumbnail-m.jpg",
      "imageDesktop": "/sites/globe.com.ph/files/content/dam/globe/brie/AboutUs/newsroom/common/default-total-globe-partners-1/primary-thumbnail-d.jpg",
      "description": "Globe has integrated the Pilipinas Special Olympics into the Globe Rewards Program.",
      "datePosted": "Jun 23, 2023 | 03:28 PM",
      "titleFromTag": "Corporate"
    },
    {
      "title": "Globe Expands 5G Network Nationwide with 66 New Sites in Q1 2023",
      "nonclickable": false,
      "openNewTab": false,
      "borderArticle": "border-color:#0074D9;",
      "borderTopArticle": "border-top-color:#0074D9;",
      "imageListing": "/sites/globe.com.ph/files/content/dam/globe/brie/AboutUs/newsroom/common/default-corp-connectivity-1/thumbnail-listing.jpg",
      "articleUrl": "https://www.globe.com.ph/about-us/newsroom/corporate/5g-network-nationwide-expansion-q1-2023.html",
      "columnType": "articles--type-3",
      "typeListing": "article",
      "imageMobile": "/sites/globe.com.ph/files/content/dam/globe/brie/AboutUs/newsroom/common/default-corp-connectivity-1/primary-thumbnail-m.jpg",
      "imageDesktop": "/sites/globe.com.ph/files/content/dam/globe/brie/AboutUs/newsroom/common/default-corp-connectivity-1/primary-thumbnail-d.jpg",
      "description": "Globe, a pioneer in 5G technology in the Philippines expands 5G Network Nationwide with 66 New Sites in Q1 2023.",
      "datePosted": "Jun 22, 2023 | 11:33 AM",
      "titleFromTag": "Corporate"
    },
    {
      "title": "Globe Telecom Taps Traceable to Boost API Security",
      "nonclickable": false,
      "openNewTab": false,
      "borderArticle": "border-color:#0074D9;",
      "borderTopArticle": "border-top-color:#0074D9;",
      "imageListing": "/sites/globe.com.ph/files/content/dam/globe/brie/AboutUs/newsroom/common/default-corp-3/Newsroom-Default-Images-Corporate-5G-connectivity-3-thumbnail-listing.jpg",
      "articleUrl": "https://www.globe.com.ph/about-us/newsroom/corporate/globe-telecom-taps-traceable-boost-api-security.html",
      "columnType": "articles--type-3",
      "typeListing": "article",
      "imageMobile": "/sites/globe.com.ph/files/content/dam/globe/brie/AboutUs/newsroom/common/default-corp-3/Newsroom-Default-Images-Corporate-5G-connectivity-3-primary-thumbnail-m.jpg",
      "imageDesktop": "/sites/globe.com.ph/files/content/dam/globe/brie/AboutUs/newsroom/common/default-corp-3/Newsroom-Default-Images-Corporate-5G-connectivity-3-primary-thumbnail-d.jpg",
      "description": "Traceable AI, the industry’s leading API security company, today announced that it has been selected from amongst multiple API Security vendors by Globe.",
      "datePosted": "Jun 22, 2023 | 11:33 AM",
      "titleFromTag": "Corporate"
    }
  ]
}
