{
  "status": 200,
  "page": 200,
  "totalPage": 298,
  "range": "2389-2400",
  "total": 3573,
  "result": [
    {
      "title": "Globe Spearheads the Digital Transformation of Manila",
      "nonclickable": false,
      "openNewTab": false,
      "borderArticle": "border-color:#0074D9;",
      "borderTopArticle": "border-top-color:#0074D9;",
      "imageListing": "/sites/globe.com.ph/files/content/dam/globe/brie/AboutUs/newsroom/partners/globe-spearheads-manila-digital-transformation/default-consumer-3-thumbnail-listing.jpg",
      "articleUrl": "https://www.globe.com.ph/about-us/newsroom/partners/globe-spearheads-manila-digital-transformation.html",
      "columnType": "articles--type-3",
      "typeListing": "article",
      "imageMobile": "/sites/globe.com.ph/files/content/dam/globe/brie/AboutUs/newsroom/partners/globe-spearheads-manila-digital-transformation/default-consumer-3-primary-thumbnail-m.jpg",
      "imageDesktop": "/sites/globe.com.ph/files/content/dam/globe/brie/AboutUs/newsroom/partners/globe-spearheads-manila-digital-transformation/default-consumer-3-primary-thumbnail-d.jpg",
      "description": "Globe has collaborated with Manila City to spearhead the digital transformation of the country’s capital. Visit Globe Newsroom for more.",
      "datePosted": "Sep 18, 2019 | 03:18 PM",
      "titleFromTag": "Partners"
    },
    {
      "title": "Get the Most Affordable Prepaid WiFi Devices via Globe At Home and Home Credit",
      "nonclickable": false,
      "openNewTab": false,
      "borderArticle": "border-color:#0074D9;",
      "borderTopArticle": "border-top-color:#0074D9;",
      "imageListing": "/sites/globe.com.ph/files/content/dam/globe/brie/AboutUs/newsroom/consumer/affordable-prepaid-wifi-globe-at-home-and-home-credit/consumer-most-affordalbe-prepaid-wifi-devices-thumbnail-listing.png",
      "articleUrl": "https://www.globe.com.ph/about-us/newsroom/consumer/affordable-prepaid-wifi-globe-at-home-and-home-credit.html",
      "columnType": "articles--type-3",
      "typeListing": "article",
      "imageMobile": "/sites/globe.com.ph/files/content/dam/globe/brie/AboutUs/newsroom/consumer/affordable-prepaid-wifi-globe-at-home-and-home-credit/consumer-most-affordalbe-prepaid-wifi-devices-primary-thumbnail-m.png",
      "imageDesktop": "/sites/globe.com.ph/files/content/dam/globe/brie/AboutUs/newsroom/consumer/affordable-prepaid-wifi-globe-at-home-and-home-credit/consumer-most-affordalbe-prepaid-wifi-devices-primary-thumbnail-d.png",
      "description": "In partnership with Home Credit, Globe At Home Prepaid WiFi is now more affordable and easier to get. Visit the Newsroom for the latest news on Globe Telecom.",
      "datePosted": "Sep 18, 2019 | 01:29 PM",
      "titleFromTag": "Consumer"
    },
    {
      "title": "Bicol Isarog Group Launches New Loyalty Card Powered by Globe myBusiness",
      "nonclickable": false,
      "openNewTab": false,
      "borderArticle": "border-color:#0074D9;",
      "borderTopArticle": "border-top-color:#0074D9;",
      "imageListing": "/sites/globe.com.ph/files/content/dam/globe/brie/AboutUs/newsroom/business/bicol-isarog-loyalty-card-globe-mybusiness/business-bicol-isarog-group-launches-new-loyaltythumbnail-listing.png",
      "articleUrl": "https://www.globe.com.ph/about-us/newsroom/business/bicol-isarog-loyalty-card-globe-mybusiness.html",
      "columnType": "articles--type-3",
      "typeListing": "article",
      "imageMobile": "/sites/globe.com.ph/files/content/dam/globe/brie/AboutUs/newsroom/business/bicol-isarog-loyalty-card-globe-mybusiness/business-bicol-isarog-group-launches-new-loyaltyprimary-thumbnail-m.png",
      "imageDesktop": "/sites/globe.com.ph/files/content/dam/globe/brie/AboutUs/newsroom/business/bicol-isarog-loyalty-card-globe-mybusiness/business-bicol-isarog-group-launches-new-loyaltyprimary-thumbnail-d.png",
      "description": "For its loyalty program, BITSI has released Go Card powered by Globe myBusiness. Visit the Newsroom for the latest news on Globe Telecom.",
      "datePosted": "Sep 18, 2019 | 01:27 PM",
      "titleFromTag": "Business"
    },
    {
      "title": "Liyab Leads National Esports Team as Six of their Athletes Seek 2019 Southeast Asian Games Glory",
      "nonclickable": false,
      "openNewTab": false,
      "borderArticle": "border-color:#0074D9;",
      "borderTopArticle": "border-top-color:#0074D9;",
      "imageListing": "/sites/globe.com.ph/files/content/dam/globe/brie/AboutUs/newsroom/consumer/liyab-leads-sea-games-national-esports-team/consumer-liyab-leads-national-esports-team-thumbnail-listing.jpg",
      "articleUrl": "https://www.globe.com.ph/about-us/newsroom/consumer/liyab-leads-sea-games-national-esports-team.html",
      "columnType": "articles--type-3",
      "typeListing": "article",
      "imageMobile": "/sites/globe.com.ph/files/content/dam/globe/brie/AboutUs/newsroom/consumer/liyab-leads-sea-games-national-esports-team/consumer-liyab-leads-national-esports-team-primary-thumbnail-m.jpg",
      "imageDesktop": "/sites/globe.com.ph/files/content/dam/globe/brie/AboutUs/newsroom/consumer/liyab-leads-sea-games-national-esports-team/consumer-liyab-leads-national-esports-team-primary-thumbnail-d.jpg",
      "description": "Six Liyab bets received the call up to carry the country’s colors in the 2019 Southeast Asian Games. Visit the Newsroom for the latest news on Globe Telecom.",
      "datePosted": "Sep 17, 2019 | 11:40 AM",
      "titleFromTag": "Consumer"
    },
    {
      "title": "Globe to Real Estate Developers: Connectivity Must Become a Priority to Achieve PH 4th Industrial Revolution Readiness",
      "nonclickable": false,
      "openNewTab": false,
      "borderArticle": "border-color:#0074D9;",
      "borderTopArticle": "border-top-color:#0074D9;",
      "imageListing": "/sites/globe.com.ph/files/content/dam/globe/brie/AboutUs/newsroom/business/globe-connectivity-ph-priority-industrial-revolution-readiness/default-business-5-thumbnail-listing.jpg",
      "articleUrl": "https://www.globe.com.ph/about-us/newsroom/business/globe-connectivity-ph-priority-industrial-revolution-readiness.html",
      "columnType": "articles--type-3",
      "typeListing": "article",
      "imageMobile": "/sites/globe.com.ph/files/content/dam/globe/brie/AboutUs/newsroom/business/globe-connectivity-ph-priority-industrial-revolution-readiness/default-business-5-primary-thumbnail-m.jpg",
      "imageDesktop": "/sites/globe.com.ph/files/content/dam/globe/brie/AboutUs/newsroom/business/globe-connectivity-ph-priority-industrial-revolution-readiness/default-business-5-primary-thumbnail-d.jpg",
      "description": "Globe said PH should prioritize internet connectivity to be ready for the 4th Industrial Revolution. Visit the Newsroom for the latest news on Globe Telecom.",
      "datePosted": "Sep 17, 2019 | 11:32 AM",
      "titleFromTag": "Business"
    },
    {
      "title": "DepEd Integrates Globe’s Digital Thumbprint Program in K-to-12 Curriculum",
      "nonclickable": false,
      "openNewTab": false,
      "borderArticle": "border-color:#1C91C5;",
      "borderTopArticle": "border-top-color:#1C91C5;",
      "imageListing": "/sites/globe.com.ph/files/content/dam/globe/brie/AboutUs/newsroom/sustainability/deped-globe-digital-thumprint-program/sustainability-integates-globe-digital-thumbprint-thumbnail-listing.jpg",
      "articleUrl": "https://www.globe.com.ph/about-us/newsroom/sustainability/deped-globe-digital-thumprint-program.html",
      "columnType": "articles--type-3",
      "typeListing": "article",
      "imageMobile": "/sites/globe.com.ph/files/content/dam/globe/brie/AboutUs/newsroom/sustainability/deped-globe-digital-thumprint-program/sustainability-integates-globe-digital-thumbprint-primary-thumbnail-m.jpg",
      "imageDesktop": "/sites/globe.com.ph/files/content/dam/globe/brie/AboutUs/newsroom/sustainability/deped-globe-digital-thumprint-program/sustainability-integates-globe-digital-thumbprint-primary-thumbnail-d.jpg",
      "description": "DTP aims to educate high school students on proper online behavior and safe online environment. Visit the Newsroom for the latest news on Globe Telecom.",
      "datePosted": "Sep 16, 2019 | 01:46 PM",
      "titleFromTag": "Sustainability"
    },
    {
      "title": "Cybersecurity Must Be a Critical Component of Customer Service – Globe",
      "nonclickable": false,
      "openNewTab": false,
      "borderArticle": "border-color:#0074D9;",
      "borderTopArticle": "border-top-color:#0074D9;",
      "imageListing": "/sites/globe.com.ph/files/content/dam/globe/brie/AboutUs/newsroom/business/cybersecurity-critical-component-customer-service/business-cybersecurity-must-be-a-critical-component-thumbnail-listing.jpg",
      "articleUrl": "https://www.globe.com.ph/about-us/newsroom/business/cybersecurity-critical-component-customer-service.html",
      "columnType": "articles--type-3",
      "typeListing": "article",
      "imageMobile": "/sites/globe.com.ph/files/content/dam/globe/brie/AboutUs/newsroom/business/cybersecurity-critical-component-customer-service/business-cybersecurity-must-be-a-critical-component-primary-thumbnail-m.jpg",
      "imageDesktop": "/sites/globe.com.ph/files/content/dam/globe/brie/AboutUs/newsroom/business/cybersecurity-critical-component-customer-service/business-cybersecurity-must-be-a-critical-component-primary-thumbnail-d.jpg",
      "description": "Globe invests US$60 million annually in cybersecurity to protect the data of its customers. Visit the Newsroom for the latest news on Globe Telecom.",
      "datePosted": "Sep 13, 2019 | 10:39 AM",
      "titleFromTag": "Business"
    },
    {
      "title": "Clean the Ocean and Get Globe Rewards",
      "nonclickable": false,
      "openNewTab": false,
      "borderArticle": "border-color:#0074D9;",
      "borderTopArticle": "border-top-color:#0074D9;",
      "imageListing": "/sites/globe.com.ph/files/content/dam/globe/brie/AboutUs/newsroom/consumer/globe-rewards-clean-the-ocean/consumer-clean-the-ocean-and-get-globe-rewards-thumbnail-listing.jpg",
      "articleUrl": "https://www.globe.com.ph/about-us/newsroom/consumer/globe-rewards-clean-the-ocean.html",
      "columnType": "articles--type-3",
      "typeListing": "article",
      "imageMobile": "/sites/globe.com.ph/files/content/dam/globe/brie/AboutUs/newsroom/consumer/globe-rewards-clean-the-ocean/consumer-clean-the-ocean-and-get-globe-rewards-primary-thumbnail-m.jpg",
      "imageDesktop": "/sites/globe.com.ph/files/content/dam/globe/brie/AboutUs/newsroom/consumer/globe-rewards-clean-the-ocean/consumer-clean-the-ocean-and-get-globe-rewards-primary-thumbnail-d.jpg",
      "description": "Globe is calling on its customers to help clean up Baseco Beach in Tondo, Manila. Visit the Newsroom for the latest news on Globe Telecom.",
      "datePosted": "Sep 12, 2019 | 03:30 PM",
      "titleFromTag": "Consumer"
    },
    {
      "title": "Globe Makes 917 Celebration More Meaningful",
      "nonclickable": false,
      "openNewTab": false,
      "borderArticle": "border-color:#0074D9;",
      "borderTopArticle": "border-top-color:#0074D9;",
      "imageListing": "/sites/globe.com.ph/files/content/dam/globe/brie/AboutUs/newsroom/consumer/globe-917-celebration/consumer-makers-917-celeb-thumbnail-listing.jpg",
      "articleUrl": "https://www.globe.com.ph/about-us/newsroom/consumer/globe-917-celebration.html",
      "columnType": "articles--type-3",
      "typeListing": "article",
      "imageMobile": "/sites/globe.com.ph/files/content/dam/globe/brie/AboutUs/newsroom/consumer/globe-917-celebration/consumer-makers-917-celeb-primary-thumbnail-m.jpg",
      "imageDesktop": "/sites/globe.com.ph/files/content/dam/globe/brie/AboutUs/newsroom/consumer/globe-917-celebration/consumer-makers-917-celeb-primary-thumbnail-d.jpg",
      "description": "Globe is making the 917 celebration more meaningful by sharing Globe of Good with others. Visit the Newsroom for the latest news on Globe Telecom.",
      "datePosted": "Sep 12, 2019 | 02:44 PM",
      "titleFromTag": "Consumer"
    },
    {
      "title": "Globe Business Data Centers Acquire International Industry Certification on Customer Data Security and Management",
      "nonclickable": false,
      "openNewTab": false,
      "borderArticle": "border-color:#0074D9;",
      "borderTopArticle": "border-top-color:#0074D9;",
      "imageListing": "/sites/globe.com.ph/files/content/dam/globe/brie/AboutUs/newsroom/business/globe-business-data-center-international-industry-certification/business-business-data-centers-acquire-international-industry-thumbnail-listing.jpg",
      "articleUrl": "https://www.globe.com.ph/about-us/newsroom/business/globe-business-data-center-international-industry-certification.html",
      "columnType": "articles--type-3",
      "typeListing": "article",
      "imageMobile": "/sites/globe.com.ph/files/content/dam/globe/brie/AboutUs/newsroom/business/globe-business-data-center-international-industry-certification/business-business-data-centers-acquire-international-industry-primary-thumbnail-m.jpg",
      "imageDesktop": "/sites/globe.com.ph/files/content/dam/globe/brie/AboutUs/newsroom/business/globe-business-data-center-international-industry-certification/business-business-data-centers-acquire-international-industry-primary-thumbnail-d.jpg",
      "description": "Globe Business received the PCI-DSS compliance certification version 3.2.1 for its Data Centers. Visit the Newsroom for the latest news on Globe Telecom.",
      "datePosted": "Sep 12, 2019 | 01:45 PM",
      "titleFromTag": "Business"
    },
    {
      "title": "Globe Prepaid Mobile Data Competitively Priced Against Other Countries in APAC",
      "nonclickable": false,
      "openNewTab": false,
      "borderArticle": "border-color:#0074D9;",
      "borderTopArticle": "border-top-color:#0074D9;",
      "imageListing": "/sites/globe.com.ph/files/content/dam/globe/brie/AboutUs/newsroom/consumer/globe-prepaid-mobile-data-price-competitive-apac/consumer-prepaid-mobile-data-competitively-priced-thumbnail-listing.jpg",
      "articleUrl": "https://www.globe.com.ph/about-us/newsroom/consumer/globe-prepaid-mobile-data-price-competitive-apac.html",
      "columnType": "articles--type-3",
      "typeListing": "article",
      "imageMobile": "/sites/globe.com.ph/files/content/dam/globe/brie/AboutUs/newsroom/consumer/globe-prepaid-mobile-data-price-competitive-apac/consumer-prepaid-mobile-data-competitively-priced-primary-thumbnail-m.jpg",
      "imageDesktop": "/sites/globe.com.ph/files/content/dam/globe/brie/AboutUs/newsroom/consumer/globe-prepaid-mobile-data-price-competitive-apac/consumer-prepaid-mobile-data-competitively-priced-primary-thumbnail-d.jpg",
      "description": "The mobile internet price per GB of Globe Prepaid registered as one of the lowest in APAC countries. Visit the Newsroom for the latest news on Globe Telecom.",
      "datePosted": "Sep 11, 2019 | 12:23 PM",
      "titleFromTag": "Consumer"
    },
    {
      "title": "Globe, OMB, AVIA-CAP Aim to #PlayItRight versus Illicit Streaming Devices",
      "nonclickable": false,
      "openNewTab": false,
      "borderArticle": "border-color:#0074D9;",
      "borderTopArticle": "border-top-color:#0074D9;",
      "imageListing": "/sites/globe.com.ph/files/content/dam/globe/brie/AboutUs/newsroom/corporate/globe-omb-avia-cap-playitright/corporate-OMB-avia-cap-aim-to-playitright-thumbnail-listing.jpg",
      "articleUrl": "https://www.globe.com.ph/about-us/newsroom/corporate/globe-omb-avia-cap-playitright.html",
      "columnType": "articles--type-3",
      "typeListing": "article",
      "imageMobile": "/sites/globe.com.ph/files/content/dam/globe/brie/AboutUs/newsroom/corporate/globe-omb-avia-cap-playitright/corporate-OMB-avia-cap-aim-to-playitright-primary-thumbnail-m.jpg",
      "imageDesktop": "/sites/globe.com.ph/files/content/dam/globe/brie/AboutUs/newsroom/corporate/globe-omb-avia-cap-playitright/corporate-OMB-avia-cap-aim-to-playitright-primary-thumbnail-d.jpg",
      "description": "Globe partnered with OMB and AVIA-CAP to educate the public against the proliferation of ISDs. Visit the Newsroom for the latest news on Globe Telecom.",
      "datePosted": "Sep 10, 2019 | 06:01 PM",
      "titleFromTag": "Corporate"
    }
  ]
}
