{
  "status": 200,
  "page": 201,
  "totalPage": 298,
  "range": "2401-2412",
  "total": 3573,
  "result": [
    {
      "title": "GOT7 Returns to Manila for “Keep Spinning” World Tour",
      "nonclickable": false,
      "openNewTab": false,
      "borderArticle": "border-color:#0074D9;",
      "borderTopArticle": "border-top-color:#0074D9;",
      "imageListing": "/sites/globe.com.ph/files/content/dam/globe/brie/AboutUs/newsroom/consumer/got7-keep-spinning-manila/consumer-got7-returns-to-manila-thumbnail-listing.jpg",
      "articleUrl": "https://www.globe.com.ph/about-us/newsroom/consumer/got7-keep-spinning-manila.html",
      "columnType": "articles--type-3",
      "typeListing": "article",
      "imageMobile": "/sites/globe.com.ph/files/content/dam/globe/brie/AboutUs/newsroom/consumer/got7-keep-spinning-manila/consumer-got7-returns-to-manila-primary-thumbnail-m.jpg",
      "imageDesktop": "/sites/globe.com.ph/files/content/dam/globe/brie/AboutUs/newsroom/consumer/got7-keep-spinning-manila/consumer-got7-returns-to-manila-primary-thumbnail-d.jpg",
      "description": "One of the first idol groups to lead the global K-wave, GOT7, is coming back to Manila. Visit the Newsroom for the latest news on Globe Telecom.",
      "datePosted": "Sep 10, 2019 | 02:00 PM",
      "titleFromTag": "Consumer"
    },
    {
      "title": "Globe myBusiness Launches Philippines’ First Credit-Card-Free Facebook Ads Platform for MSMEs",
      "nonclickable": false,
      "openNewTab": false,
      "borderArticle": "border-color:#0074D9;",
      "borderTopArticle": "border-top-color:#0074D9;",
      "imageListing": "/sites/globe.com.ph/files/content/dam/globe/brie/AboutUs/newsroom/business/globe-mybusiness-facebook-credit-card-free-ads-platform/business-launches-ph-first-credit-card-free-facebook-ad-platform-thumbnail-listing.jpg",
      "articleUrl": "https://www.globe.com.ph/about-us/newsroom/business/globe-mybusiness-facebook-credit-card-free-ads-platform.html",
      "columnType": "articles--type-3",
      "typeListing": "article",
      "imageMobile": "/sites/globe.com.ph/files/content/dam/globe/brie/AboutUs/newsroom/business/globe-mybusiness-facebook-credit-card-free-ads-platform/business-launches-ph-first-credit-card-free-facebook-ad-platform-primary-thumbnail-m.jpg",
      "imageDesktop": "/sites/globe.com.ph/files/content/dam/globe/brie/AboutUs/newsroom/business/globe-mybusiness-facebook-credit-card-free-ads-platform/business-launches-ph-first-credit-card-free-facebook-ad-platform-primary-thumbnail-d.jpg",
      "description": "Globe myBusiness and Facebook launches Philippines' first credit-card-free platform for MSMEs. Visit the Newsroom for the latest news on Globe Telecom.",
      "datePosted": "Sep 10, 2019 | 01:31 PM",
      "titleFromTag": "Business"
    },
    {
      "title": "GoWiFi Powers Araneta Center",
      "nonclickable": false,
      "openNewTab": false,
      "borderArticle": "border-color:#0074D9;",
      "borderTopArticle": "border-top-color:#0074D9;",
      "imageListing": "/sites/globe.com.ph/files/content/dam/globe/brie/AboutUs/newsroom/corporate/globe-gowifi-powers-araneta-center/corporate-gowifi-powers-araneta-center-thumbnail-listing.jpg",
      "articleUrl": "https://www.globe.com.ph/about-us/newsroom/corporate/globe-gowifi-powers-araneta-center.html",
      "columnType": "articles--type-3",
      "typeListing": "article",
      "imageMobile": "/sites/globe.com.ph/files/content/dam/globe/brie/AboutUs/newsroom/corporate/globe-gowifi-powers-araneta-center/corporate-gowifi-powers-araneta-center-primary-thumbnail-m.jpg",
      "imageDesktop": "/sites/globe.com.ph/files/content/dam/globe/brie/AboutUs/newsroom/corporate/globe-gowifi-powers-araneta-center/corporate-gowifi-powers-araneta-center-primary-thumbnail-d.jpg",
      "description": "Globe partners with Araneta Center to provide fast and reliable internet via its GoWiFi service. Visit the Newsroom for the latest news on Globe Telecom.",
      "datePosted": "Sep 09, 2019 | 11:34 AM",
      "titleFromTag": "Corporate"
    },
    {
      "title": "Cebu Doctors University Partners with Globe for a Future-Ready Institution",
      "nonclickable": false,
      "openNewTab": false,
      "borderArticle": "border-color:#0074D9;",
      "borderTopArticle": "border-top-color:#0074D9;",
      "imageListing": "/sites/globe.com.ph/files/content/dam/globe/brie/AboutUs/newsroom/business/globe-cdu-partner-for-future-ready-institution/business-cebu-doctors-university-partners-thumbnail-listing.jpg",
      "articleUrl": "https://www.globe.com.ph/about-us/newsroom/business/globe-cdu-partner-for-future-ready-institution.html",
      "columnType": "articles--type-3",
      "typeListing": "article",
      "imageMobile": "/sites/globe.com.ph/files/content/dam/globe/brie/AboutUs/newsroom/business/globe-cdu-partner-for-future-ready-institution/business-cebu-doctors-university-partners-primary-thumbnail-m.jpg",
      "imageDesktop": "/sites/globe.com.ph/files/content/dam/globe/brie/AboutUs/newsroom/business/globe-cdu-partner-for-future-ready-institution/business-cebu-doctors-university-partners-primary-thumbnail-d.jpg",
      "description": "Globe and Cebu Doctors University (CDU) have joined hands in creating a future-ready institution. Visit the Newsroom for the latest news on Globe Telecom.",
      "datePosted": "Sep 06, 2019 | 01:48 PM",
      "titleFromTag": "Business"
    },
    {
      "title": "Globe Future Makers 2019 Top Startups Antipara, AIDFI Tap Tech to Solve Social Challenges",
      "nonclickable": false,
      "openNewTab": false,
      "borderArticle": "border-color:#0074D9;",
      "borderTopArticle": "border-top-color:#0074D9;",
      "imageListing": "/sites/globe.com.ph/files/content/dam/globe/brie/AboutUs/newsroom/corporate/globe-future-makers-2019-social-challenges/all-asset-update-sept-24/corporate-gfm-2019-top-startups-thumbnail-listing.jpg",
      "articleUrl": "https://www.globe.com.ph/about-us/newsroom/corporate/globe-future-makers-2019-social-challenges.html",
      "columnType": "articles--type-3",
      "typeListing": "article",
      "imageMobile": "/sites/globe.com.ph/files/content/dam/globe/brie/AboutUs/newsroom/corporate/globe-future-makers-2019-social-challenges/all-asset-update-sept-24/corporate-gfm-2019-top-startups-primary-thumbnail-m.jpg",
      "imageDesktop": "/sites/globe.com.ph/files/content/dam/globe/brie/AboutUs/newsroom/corporate/globe-future-makers-2019-social-challenges/all-asset-update-sept-24/corporate-gfm-2019-top-startups-primary-thumbnail-d.jpg",
      "description": "Antipara & AIDFI have developed technological tools to help solve some of the country’s social challenges. Visit the Newsroom for the latest Globe Telecom news.",
      "datePosted": "Sep 05, 2019 | 02:36 PM",
      "titleFromTag": "Corporate"
    },
    {
      "title": " Globe Provides Online Training and ICT Support Programs to TESDA",
      "nonclickable": false,
      "openNewTab": false,
      "borderArticle": "border-color:#1C91C5;",
      "borderTopArticle": "border-top-color:#1C91C5;",
      "imageListing": "/sites/globe.com.ph/files/content/dam/globe/brie/AboutUs/newsroom/sustainability/globe-provides-online-training-ict-support-tesda/sustainability-provides-online-training-and-ICT-support-thumbnail-listing.jpg",
      "articleUrl": "https://www.globe.com.ph/about-us/newsroom/sustainability/globe-provides-online-training-ict-support-tesda.html",
      "columnType": "articles--type-3",
      "typeListing": "article",
      "imageMobile": "/sites/globe.com.ph/files/content/dam/globe/brie/AboutUs/newsroom/sustainability/globe-provides-online-training-ict-support-tesda/sustainability-provides-online-training-and-ICT-support-primary-thumbnail-m.jpg",
      "imageDesktop": "/sites/globe.com.ph/files/content/dam/globe/brie/AboutUs/newsroom/sustainability/globe-provides-online-training-ict-support-tesda/sustainability-provides-online-training-and-ICT-support-primary-thumbnail-d.jpg",
      "description": "Globe partnered with TESDA to provide them with internet communication support and online training. Visit the Newsroom for the latest news on Globe Telecom.",
      "datePosted": "Sep 05, 2019 | 01:52 PM",
      "titleFromTag": "Sustainability"
    },
    {
      "title": "Globe Leads PH 4th Industrial Revolution Readiness",
      "nonclickable": false,
      "openNewTab": false,
      "borderArticle": "border-color:#0074D9;",
      "borderTopArticle": "border-top-color:#0074D9;",
      "imageListing": "/sites/globe.com.ph/files/content/dam/globe/brie/AboutUs/newsroom/common/updated/Corporate-globe-thumbnail-listing.jpg",
      "articleUrl": "https://www.globe.com.ph/about-us/newsroom/corporate/globe-leads-4th-industrial-revolution-readiness.html",
      "columnType": "articles--type-3",
      "typeListing": "article",
      "imageMobile": "/sites/globe.com.ph/files/content/dam/globe/brie/AboutUs/newsroom/common/updated/Corporate-globe-primary-thumbnail-m.jpg",
      "imageDesktop": "/sites/globe.com.ph/files/content/dam/globe/brie/AboutUs/newsroom/common/updated/Corporate-globe-primary-thumbnail-d.jpg",
      "description": "Globe’s digital transformation marked the beginning of many local industry innovations. Visit the Newsroom for the latest news on Globe Telecom.",
      "datePosted": "Sep 05, 2019 | 01:52 PM",
      "titleFromTag": "Corporate"
    },
    {
      "title": "Globe Breaks Glass Ceiling in Esports with First All-female Team \"Haliya\"",
      "nonclickable": false,
      "openNewTab": false,
      "borderArticle": "border-color:#0074D9;",
      "borderTopArticle": "border-top-color:#0074D9;",
      "imageListing": "/sites/globe.com.ph/files/content/dam/globe/brie/AboutUs/newsroom/consumer/globe-all-female-esports-team-haliya/consumer-breaks-glass-ceiling-in-esports-with-all-female-team-thumbnail-listing.jpg",
      "articleUrl": "https://www.globe.com.ph/about-us/newsroom/consumer/globe-all-female-esports-team-haliya.html",
      "columnType": "articles--type-3",
      "typeListing": "article",
      "imageMobile": "/sites/globe.com.ph/files/content/dam/globe/brie/AboutUs/newsroom/consumer/globe-all-female-esports-team-haliya/consumer-breaks-glass-ceiling-in-esports-with-all-female-team-primary-thumbnail-m.jpg",
      "imageDesktop": "/sites/globe.com.ph/files/content/dam/globe/brie/AboutUs/newsroom/consumer/globe-all-female-esports-team-haliya/consumer-breaks-glass-ceiling-in-esports-with-all-female-team-primary-thumbnail-d.jpg",
      "description": "Globe introduced their slew of new members—an all-female force dubbed “Haliya”. Visit the Newsroom for the latest news on Globe Telecom.",
      "datePosted": "Sep 03, 2019 | 12:21 PM",
      "titleFromTag": "Consumer"
    },
    {
      "title": "DOH Official Maintains Cell Sites Do Not Cause Cancer",
      "nonclickable": false,
      "openNewTab": false,
      "borderArticle": "border-color:#0074D9;",
      "borderTopArticle": "border-top-color:#0074D9;",
      "imageListing": "/sites/globe.com.ph/files/content/dam/globe/brie/AboutUs/newsroom/corporate/doh-cell-sites-do-not-cause-cancer/corporate-doh-official-maintains-cell-site-do-not-cause-cancer-thumbnail-listing.jpg",
      "articleUrl": "https://www.globe.com.ph/about-us/newsroom/corporate/doh-cell-sites-do-not-cause-cancer.html",
      "columnType": "articles--type-3",
      "typeListing": "article",
      "imageMobile": "/sites/globe.com.ph/files/content/dam/globe/brie/AboutUs/newsroom/corporate/doh-cell-sites-do-not-cause-cancer/corporate-doh-official-maintains-cell-site-do-not-cause-cancer-primary-thumbnail-m.jpg",
      "imageDesktop": "/sites/globe.com.ph/files/content/dam/globe/brie/AboutUs/newsroom/corporate/doh-cell-sites-do-not-cause-cancer/corporate-doh-official-maintains-cell-site-do-not-cause-cancer-primary-thumbnail-d.jpg",
      "description": "A DOH top official became the latest expert to debunk rumors that cell sites cause cancer. Visit the Newsroom for the latest news on Globe Telecom.",
      "datePosted": "Sep 03, 2019 | 10:44 AM",
      "titleFromTag": "Corporate"
    },
    {
      "title": "ATTENTION: Globe At Home Prepaid WiFi Now at ₱1499 Only!",
      "nonclickable": false,
      "openNewTab": false,
      "borderArticle": "border-color:#0074D9;",
      "borderTopArticle": "border-top-color:#0074D9;",
      "imageListing": "/sites/globe.com.ph/files/content/dam/globe/brie/AboutUs/newsroom/consumer/globe-at-home-prepaid-wifi-now-at-P1499/consumer-gah-prepaid-wifi-now-at-p1499-thumbnail-listing.jpg",
      "articleUrl": "https://www.globe.com.ph/about-us/newsroom/consumer/globe-at-home-prepaid-wifi-now-at-P1499.html",
      "columnType": "articles--type-3",
      "typeListing": "article",
      "imageMobile": "/sites/globe.com.ph/files/content/dam/globe/brie/AboutUs/newsroom/consumer/globe-at-home-prepaid-wifi-now-at-P1499/consumer-gah-prepaid-wifi-now-at-p1499-primary-thumbnail-m.jpg",
      "imageDesktop": "/sites/globe.com.ph/files/content/dam/globe/brie/AboutUs/newsroom/consumer/globe-at-home-prepaid-wifi-now-at-P1499/consumer-gah-prepaid-wifi-now-at-p1499-primary-thumbnail-d.jpg",
      "description": "Globe At Home Prepaid WiFi gets a price cut from ₱1,999 to just ₱1,499 this month. Visit the Newsroom for the latest news on Globe Telecom.",
      "datePosted": "Aug 30, 2019 | 02:52 PM",
      "titleFromTag": "Consumer"
    },
    {
      "title": "Globe Conducts Relief Ops in Northern Iloilo, Ilocos Norte",
      "nonclickable": false,
      "openNewTab": false,
      "borderArticle": "border-color:#1C91C5;",
      "borderTopArticle": "border-top-color:#1C91C5;",
      "imageListing": "/sites/globe.com.ph/files/content/dam/globe/brie/AboutUs/newsroom/sustainability/globe-conducts-relief-operations-northern-iloilo-ilocos-norte/sustainability-conducts-relief-ops-in-northern-iloilo-ilocos-norte-thumbnail-listing.jpg",
      "articleUrl": "https://www.globe.com.ph/about-us/newsroom/sustainability/globe-conducts-relief-operations-northern-iloilo-ilocos-norte.html",
      "columnType": "articles--type-3",
      "typeListing": "article",
      "imageMobile": "/sites/globe.com.ph/files/content/dam/globe/brie/AboutUs/newsroom/sustainability/globe-conducts-relief-operations-northern-iloilo-ilocos-norte/sustainability-conducts-relief-ops-in-northern-iloilo-ilocos-norte-primary-thumbnail-m.jpg",
      "imageDesktop": "/sites/globe.com.ph/files/content/dam/globe/brie/AboutUs/newsroom/sustainability/globe-conducts-relief-operations-northern-iloilo-ilocos-norte/sustainability-conducts-relief-ops-in-northern-iloilo-ilocos-norte-primary-thumbnail-d.jpg",
      "description": "Globe conducted relief operations to towns under State of Calamity in Northern Iloilo and Ilocos Norte. Visit the Newsroom for the latest news on Globe Telecom.",
      "datePosted": "Aug 28, 2019 | 01:14 PM",
      "titleFromTag": "Sustainability"
    },
    {
      "title": "It’s All About the Game and the Gamers in Conquerors Manila 2019",
      "nonclickable": false,
      "openNewTab": false,
      "borderArticle": "border-color:#0074D9;",
      "borderTopArticle": "border-top-color:#0074D9;",
      "imageListing": "/sites/globe.com.ph/files/content/dam/globe/brie/AboutUs/newsroom/consumer/conquerors-manila-2019/consumer-its-all-about-the-game-and-the-gamers-thumbnail-listing.jpg",
      "articleUrl": "https://www.globe.com.ph/about-us/newsroom/consumer/conquerors-manila-2019.html",
      "columnType": "articles--type-3",
      "typeListing": "article",
      "imageMobile": "/sites/globe.com.ph/files/content/dam/globe/brie/AboutUs/newsroom/consumer/conquerors-manila-2019/consumer-its-all-about-the-game-and-the-gamers-primary-thumbnail-m.jpg",
      "imageDesktop": "/sites/globe.com.ph/files/content/dam/globe/brie/AboutUs/newsroom/consumer/conquerors-manila-2019/consumer-its-all-about-the-game-and-the-gamers-primary-thumbnail-d.jpg",
      "description": "All is set for the biggest League of Legends (LoL) fan event in Southeast Asia. Visit the Newsroom for the latest news on Globe Telecom.",
      "datePosted": "Aug 28, 2019 | 12:58 PM",
      "titleFromTag": "Consumer"
    }
  ]
}
