{
  "status": 200,
  "page": 202,
  "totalPage": 298,
  "range": "2413-2424",
  "total": 3573,
  "result": [
    {
      "title": "Get Ready for Wanderland 2020!",
      "nonclickable": false,
      "openNewTab": false,
      "borderArticle": "border-color:#0074D9;",
      "borderTopArticle": "border-top-color:#0074D9;",
      "imageListing": "/sites/globe.com.ph/files/content/dam/globe/brie/AboutUs/newsroom/consumer/wanderland-2020/consumer-ready-for-wanderland-2020-thumbnail-listing.jpg",
      "articleUrl": "https://www.globe.com.ph/about-us/newsroom/consumer/wanderland-2020.html",
      "columnType": "articles--type-3",
      "typeListing": "article",
      "imageMobile": "/sites/globe.com.ph/files/content/dam/globe/brie/AboutUs/newsroom/consumer/wanderland-2020/consumer-ready-for-wanderland-2020-primary-thumbnail-m.jpg",
      "imageDesktop": "/sites/globe.com.ph/files/content/dam/globe/brie/AboutUs/newsroom/consumer/wanderland-2020/consumer-ready-for-wanderland-2020-primary-thumbnail-d.jpg",
      "description": "Globe is gearing up to bring you Wanderland 2020, the country’s premiere music and arts festival. Visit the Newsroom for the latest news on Globe Telecom.",
      "datePosted": "Aug 28, 2019 | 12:58 PM",
      "titleFromTag": "Consumer"
    },
    {
      "title": "Globe Celebrates a New Day with the New Huawei P30 Pro Amber Sunrise",
      "nonclickable": false,
      "openNewTab": false,
      "borderArticle": "border-color:#0074D9;",
      "borderTopArticle": "border-top-color:#0074D9;",
      "imageListing": "/sites/globe.com.ph/files/content/dam/globe/brie/AboutUs/newsroom/consumer/huawei-p30-pro-amber-sunrise/consumer-celebrates-a-new-day-with-new-huawei-thumbnail-listing.jpg",
      "articleUrl": "https://www.globe.com.ph/about-us/newsroom/consumer/huawei-p30-pro-amber-sunrise.html",
      "columnType": "articles--type-3",
      "typeListing": "article",
      "imageMobile": "/sites/globe.com.ph/files/content/dam/globe/brie/AboutUs/newsroom/consumer/huawei-p30-pro-amber-sunrise/consumer-celebrates-a-new-day-with-new-huawei-primary-thumbnail-m.jpg",
      "imageDesktop": "/sites/globe.com.ph/files/content/dam/globe/brie/AboutUs/newsroom/consumer/huawei-p30-pro-amber-sunrise/consumer-celebrates-a-new-day-with-new-huawei-primary-thumbnail-d.jpg",
      "description": "For those who want to show their distinct perspective, we introduce the Huawei P30 Pro Amber Sunrise. Visit the Newsroom for the latest news on Globe Telecom.",
      "datePosted": "Aug 23, 2019 | 01:51 PM",
      "titleFromTag": "Consumer"
    },
    {
      "title": "Huawei Enables Philippines’ Leap in 5G Era",
      "nonclickable": false,
      "openNewTab": false,
      "borderArticle": "border-color:#0074D9;",
      "borderTopArticle": "border-top-color:#0074D9;",
      "imageListing": "/sites/globe.com.ph/files/content/dam/globe/brie/AboutUs/newsroom/consumer/huawei-enables-philippines-5g-era/consumer-huawei-enables-philippines-leap-in-5g-erathumbnail-listing.jpg",
      "articleUrl": "https://www.globe.com.ph/about-us/newsroom/consumer/huawei-enables-philippines-5g-era.html",
      "columnType": "articles--type-3",
      "typeListing": "article",
      "imageMobile": "/sites/globe.com.ph/files/content/dam/globe/brie/AboutUs/newsroom/consumer/huawei-enables-philippines-5g-era/consumer-huawei-enables-philippines-leap-in-5g-eraprimary-thumbnail-m.jpg",
      "imageDesktop": "/sites/globe.com.ph/files/content/dam/globe/brie/AboutUs/newsroom/consumer/huawei-enables-philippines-5g-era/consumer-huawei-enables-philippines-leap-in-5g-eraprimary-thumbnail-d.jpg",
      "description": "Huawei ensures that the Philippines will be ahead in terms of 5G development through Globe. Visit the Newsroom for the latest news on Globe Telecom.",
      "datePosted": "Aug 23, 2019 | 12:13 PM",
      "titleFromTag": "Consumer"
    },
    {
      "title": "Globe myBusiness Expands Reach, Inks Agreements with LuzViMin Business Partners",
      "nonclickable": false,
      "openNewTab": false,
      "borderArticle": "border-color:#0074D9;",
      "borderTopArticle": "border-top-color:#0074D9;",
      "imageListing": "/sites/globe.com.ph/files/content/dam/globe/brie/AboutUs/newsroom/business/globe-mybusiness-reach-agreements-luzvimin-partners/corporate-expands-reach-inks-agreements-with-LuzViMin-thumbnail-listing.jpg",
      "articleUrl": "https://www.globe.com.ph/about-us/newsroom/business/globe-mybusiness-reach-agreements-luzvimin-partners.html",
      "columnType": "articles--type-3",
      "typeListing": "article",
      "imageMobile": "/sites/globe.com.ph/files/content/dam/globe/brie/AboutUs/newsroom/business/globe-mybusiness-reach-agreements-luzvimin-partners/corporate-expands-reach-inks-agreements-with-LuzViMin-primary-thumbnail-m.jpg",
      "imageDesktop": "/sites/globe.com.ph/files/content/dam/globe/brie/AboutUs/newsroom/business/globe-mybusiness-reach-agreements-luzvimin-partners/corporate-expands-reach-inks-agreements-with-LuzViMin-primary-thumbnail-d.jpg",
      "description": "Globe myBusiness expands its reach in Luzon, Visayas, and Mindanao. Visit the Newsroom for the latest news on Globe Telecom.",
      "datePosted": "Aug 23, 2019 | 11:24 AM",
      "titleFromTag": "Business"
    },
    {
      "title": "PH Radiology Oncology Society Debunk Common Misconceptions on Cell Towers",
      "nonclickable": false,
      "openNewTab": false,
      "borderArticle": "border-color:#0074D9;",
      "borderTopArticle": "border-top-color:#0074D9;",
      "imageListing": "/sites/globe.com.ph/files/content/dam/globe/brie/AboutUs/newsroom/corporate/ph-radiology-oncology-society-debunks-cell-tower-misconception/corporate-ph-radiology-oncology-society-debunk-common-misconceptions-thumbnail-listing.jpg",
      "articleUrl": "https://www.globe.com.ph/about-us/newsroom/corporate/ph-radiology-oncology-society-debunks-cell-tower-misconception.html",
      "columnType": "articles--type-3",
      "typeListing": "article",
      "imageMobile": "/sites/globe.com.ph/files/content/dam/globe/brie/AboutUs/newsroom/corporate/ph-radiology-oncology-society-debunks-cell-tower-misconception/corporate-ph-radiology-oncology-society-debunk-common-misconceptions-primary-thumbnail-m.jpg",
      "imageDesktop": "/sites/globe.com.ph/files/content/dam/globe/brie/AboutUs/newsroom/corporate/ph-radiology-oncology-society-debunks-cell-tower-misconception/corporate-ph-radiology-oncology-society-debunk-common-misconceptions-primary-thumbnail-d.jpg",
      "description": "PH Radiology Oncology Society reaffirmed that proximity to cell sites does not cause health risks. Visit the Newsroom for the latest news on Globe Telecom.",
      "datePosted": "Aug 20, 2019 | 09:24 AM",
      "titleFromTag": "Corporate"
    },
    {
      "title": "Globe Offers Exclusive 20% Discount on Karpos Live Mix Tickets",
      "nonclickable": false,
      "openNewTab": false,
      "borderArticle": "border-color:#0074D9;",
      "borderTopArticle": "border-top-color:#0074D9;",
      "imageListing": "/sites/globe.com.ph/files/content/dam/globe/brie/AboutUs/newsroom/consumer/globe-offers-discount-karpos-live-tickets/consumer-offers-exclusive-20percent-discount-on-karpos-thumbnail-listing.jpg",
      "articleUrl": "https://www.globe.com.ph/about-us/newsroom/consumer/globe-offers-discount-karpos-live-tickets.html",
      "columnType": "articles--type-3",
      "typeListing": "article",
      "imageMobile": "/sites/globe.com.ph/files/content/dam/globe/brie/AboutUs/newsroom/consumer/globe-offers-discount-karpos-live-tickets/consumer-offers-exclusive-20percent-discount-on-karpos-primary-thumbnail-m.jpg",
      "imageDesktop": "/sites/globe.com.ph/files/content/dam/globe/brie/AboutUs/newsroom/consumer/globe-offers-discount-karpos-live-tickets/consumer-offers-exclusive-20percent-discount-on-karpos-primary-thumbnail-d.jpg",
      "description": "Karpos LIVE brings Jordan Rakei, The Japanese House, Jeremy Zucker, and more music acts this September. Visit the Newsroom for the latest news on Globe Telecom.",
      "datePosted": "Aug 16, 2019 | 09:39 AM",
      "titleFromTag": "Consumer"
    },
    {
      "title": "UnionBank Lauds Globe Business as Efficient Partner in Transformation Journey",
      "nonclickable": false,
      "openNewTab": false,
      "borderArticle": "border-color:#0074D9;",
      "borderTopArticle": "border-top-color:#0074D9;",
      "imageListing": "/sites/globe.com.ph/files/content/dam/globe/brie/AboutUs/newsroom/business/unionbank-lauds-globe-business-efficient-partner/business-unionbank-lauds-globe-business-thumbnail-listing.jpg",
      "articleUrl": "https://www.globe.com.ph/about-us/newsroom/business/unionbank-lauds-globe-business-efficient-partner.html",
      "columnType": "articles--type-3",
      "typeListing": "article",
      "imageMobile": "/sites/globe.com.ph/files/content/dam/globe/brie/AboutUs/newsroom/business/unionbank-lauds-globe-business-efficient-partner/business-unionbank-lauds-globe-business-primary-thumbnail-m.jpg",
      "imageDesktop": "/sites/globe.com.ph/files/content/dam/globe/brie/AboutUs/newsroom/business/unionbank-lauds-globe-business-efficient-partner/business-unionbank-lauds-globe-business-primary-thumbnail-d.jpg",
      "description": "Globe Business aided the swift and efficient migration of UnionBank’s business-critical data. Visit the Newsroom for the latest news on Globe Telecom.",
      "datePosted": "Aug 13, 2019 | 02:25 PM",
      "titleFromTag": "Business"
    },
    {
      "title": "The First Asian Nickelodeon SlimeFest Lands in the Philippines",
      "nonclickable": false,
      "openNewTab": false,
      "borderArticle": "border-color:#0074D9;",
      "borderTopArticle": "border-top-color:#0074D9;",
      "imageListing": "/sites/globe.com.ph/files/content/dam/globe/brie/AboutUs/newsroom/consumer/first-asian-nickelodeon-slimefest-philippines/consumer-the-first-asian-nick-slimefest-thumbnail-listing.jpg",
      "articleUrl": "https://www.globe.com.ph/about-us/newsroom/consumer/first-asian-nickelodeon-slimefest-philippines.html",
      "columnType": "articles--type-3",
      "typeListing": "article",
      "imageMobile": "/sites/globe.com.ph/files/content/dam/globe/brie/AboutUs/newsroom/consumer/first-asian-nickelodeon-slimefest-philippines/consumer-the-first-asian-nick-slimefest-primary-thumbnail-m.jpg",
      "imageDesktop": "/sites/globe.com.ph/files/content/dam/globe/brie/AboutUs/newsroom/consumer/first-asian-nickelodeon-slimefest-philippines/consumer-the-first-asian-nick-slimefest-primary-thumbnail-d.jpg",
      "description": "Nickelodeon presents Asia’s first-ever Nickelodeon SlimeFest in the Philippines. Visit the Newsroom for the latest news on Globe Telecom.",
      "datePosted": "Aug 13, 2019 | 01:53 PM",
      "titleFromTag": "Consumer"
    },
    {
      "title": "Come Home to the Future with Globe At Home Air Fiber 5G",
      "nonclickable": false,
      "openNewTab": false,
      "borderArticle": "border-color:#0074D9;",
      "borderTopArticle": "border-top-color:#0074D9;",
      "imageListing": "/sites/globe.com.ph/files/content/dam/globe/brie/AboutUs/newsroom/consumer/globe-at-home-air-fiber-5g-lifespeed-home/consumer-come-home-to-the-future-thumbnail-listing.jpg",
      "articleUrl": "https://www.globe.com.ph/about-us/newsroom/consumer/globe-at-home-air-fiber-5g-lifespeed-home.html",
      "columnType": "articles--type-3",
      "typeListing": "article",
      "imageMobile": "/sites/globe.com.ph/files/content/dam/globe/brie/AboutUs/newsroom/consumer/globe-at-home-air-fiber-5g-lifespeed-home/consumer-come-home-to-the-future-primary-thumbnail-m.jpg",
      "imageDesktop": "/sites/globe.com.ph/files/content/dam/globe/brie/AboutUs/newsroom/consumer/globe-at-home-air-fiber-5g-lifespeed-home/consumer-come-home-to-the-future-primary-thumbnail-d.jpg",
      "description": "Globe At Home Air Fiber 5G is the first 5G tech commercially available for the home in Southeast Asia. Visit the Newsroom for the latest news on Globe Telecom.",
      "datePosted": "Aug 13, 2019 | 12:02 PM",
      "titleFromTag": "Consumer"
    },
    {
      "title": "Globe myBusiness Joins Hands with AFFI to Promote Franchising Among Filipino Employees",
      "nonclickable": false,
      "openNewTab": false,
      "borderArticle": "border-color:#0074D9;",
      "borderTopArticle": "border-top-color:#0074D9;",
      "imageListing": "/sites/globe.com.ph/files/content/dam/globe/brie/AboutUs/newsroom/business/globe-mybusiness-affi-promote-franchising/business-mybusiness-joins-hands-with-AFFI-thumbnail-listing.jpg",
      "articleUrl": "https://www.globe.com.ph/about-us/newsroom/business/globe-mybusiness-affi-promote-franchising.html",
      "columnType": "articles--type-3",
      "typeListing": "article",
      "imageMobile": "/sites/globe.com.ph/files/content/dam/globe/brie/AboutUs/newsroom/business/globe-mybusiness-affi-promote-franchising/business-mybusiness-joins-hands-with-AFFI-primary-thumbnail-m.jpg",
      "imageDesktop": "/sites/globe.com.ph/files/content/dam/globe/brie/AboutUs/newsroom/business/globe-mybusiness-affi-promote-franchising/business-mybusiness-joins-hands-with-AFFI-primary-thumbnail-d.jpg",
      "description": "Globe myBusiness and AFFI are upbeat on the opportunities that the franchising industry brings. Visit the Newsroom for the latest news on Globe Telecom.",
      "datePosted": "Aug 13, 2019 | 12:01 PM",
      "titleFromTag": "Business"
    },
    {
      "title": "Own Ideas Everywhere with the New Samsung Galaxy Note10",
      "nonclickable": false,
      "openNewTab": false,
      "borderArticle": "border-color:#0074D9;",
      "borderTopArticle": "border-top-color:#0074D9;",
      "imageListing": "/sites/globe.com.ph/files/content/dam/globe/brie/AboutUs/newsroom/consumer/samsung-galaxy-note10-pre-order/consumer-own-ideas-everywhere-with-new-note10-thumbnail-listing.jpg",
      "articleUrl": "https://www.globe.com.ph/about-us/newsroom/consumer/samsung-galaxy-note10-pre-order.html",
      "columnType": "articles--type-3",
      "typeListing": "article",
      "imageMobile": "/sites/globe.com.ph/files/content/dam/globe/brie/AboutUs/newsroom/consumer/samsung-galaxy-note10-pre-order/consumer-own-ideas-everywhere-with-new-note10-primary-thumbnail-m.jpg",
      "imageDesktop": "/sites/globe.com.ph/files/content/dam/globe/brie/AboutUs/newsroom/consumer/samsung-galaxy-note10-pre-order/consumer-own-ideas-everywhere-with-new-note10-primary-thumbnail-d.jpg",
      "description": "Reach new heights of productivity with Samsung Galaxy Note10 now available for pre-order. Visit the Newsroom for the latest news on Globe Telecom.",
      "datePosted": "Aug 09, 2019 | 07:27 PM",
      "titleFromTag": "Consumer"
    },
    {
      "title": "Globe’s PPGL 2019 Season 2 Finale Set on August 9-11",
      "nonclickable": false,
      "openNewTab": false,
      "borderArticle": "border-color:#0074D9;",
      "borderTopArticle": "border-top-color:#0074D9;",
      "imageListing": "/sites/globe.com.ph/files/content/dam/globe/brie/AboutUs/newsroom/corporate/globe-ppgl-2019-season-2-finale/corporate-PPGL-2019-season-2-finale-set-thumbnail-listing.jpg",
      "articleUrl": "https://www.globe.com.ph/about-us/newsroom/corporate/globe-ppgl-2019-season-2-finale.html",
      "columnType": "articles--type-3",
      "typeListing": "article",
      "imageMobile": "/sites/globe.com.ph/files/content/dam/globe/brie/AboutUs/newsroom/corporate/globe-ppgl-2019-season-2-finale/corporate-PPGL-2019-season-2-finale-set-primary-thumbnail-m.jpg",
      "imageDesktop": "/sites/globe.com.ph/files/content/dam/globe/brie/AboutUs/newsroom/corporate/globe-ppgl-2019-season-2-finale/corporate-PPGL-2019-season-2-finale-set-primary-thumbnail-d.jpg",
      "description": "Globe's Philippine Pro Gaming League (PPGL) will cap its season 2 with a grand finals this August. Visit the Newsroom for the latest news on Globe Telecom.",
      "datePosted": "Aug 08, 2019 | 11:37 AM",
      "titleFromTag": "Corporate"
    }
  ]
}
