{
  "status": 200,
  "page": 203,
  "totalPage": 298,
  "range": "2425-2436",
  "total": 3573,
  "result": [
    {
      "title": "Globe Board Approves 3Q P22.75 Per Share Cash Dividend",
      "nonclickable": false,
      "openNewTab": false,
      "borderArticle": "border-color:#0074D9;",
      "borderTopArticle": "border-top-color:#0074D9;",
      "imageListing": "/sites/globe.com.ph/files/content/dam/globe/brie/AboutUs/newsroom/common/updated/Corporate-globe-thumbnail-listing.jpg",
      "articleUrl": "https://www.globe.com.ph/about-us/newsroom/corporate/globe-board-approves-third-quarter-per-share-cash-dividend.html",
      "columnType": "articles--type-3",
      "typeListing": "article",
      "imageMobile": "/sites/globe.com.ph/files/content/dam/globe/brie/AboutUs/newsroom/common/updated/Corporate-globe-primary-thumbnail-m.jpg",
      "imageDesktop": "/sites/globe.com.ph/files/content/dam/globe/brie/AboutUs/newsroom/common/updated/Corporate-globe-primary-thumbnail-d.jpg",
      "description": "Globe declared that it has approved the third quarterly cash dividend distribution of P22.75 per share. Visit the Newsroom for the latest news on Globe Telecom.",
      "datePosted": "Aug 07, 2019 | 01:29 PM",
      "titleFromTag": "Corporate"
    },
    {
      "title": "Globe Advocacy Campaigns Win Big in 2019 PANAta Awards",
      "nonclickable": false,
      "openNewTab": false,
      "borderArticle": "border-color:#1C91C5;",
      "borderTopArticle": "border-top-color:#1C91C5;",
      "imageListing": "/sites/globe.com.ph/files/content/dam/globe/brie/AboutUs/newsroom/sustainability/globe-advocacy-campaign-win-2019-panata-awards/sustainability-advocacy-campaigns-win-big-in-2019-thumbnail-listing.jpg",
      "articleUrl": "https://www.globe.com.ph/about-us/newsroom/sustainability/globe-advocacy-campaign-win-2019-panata-awards.html",
      "columnType": "articles--type-3",
      "typeListing": "article",
      "imageMobile": "/sites/globe.com.ph/files/content/dam/globe/brie/AboutUs/newsroom/sustainability/globe-advocacy-campaign-win-2019-panata-awards/sustainability-advocacy-campaigns-win-big-in-2019-primary-thumbnail-m.jpg",
      "imageDesktop": "/sites/globe.com.ph/files/content/dam/globe/brie/AboutUs/newsroom/sustainability/globe-advocacy-campaign-win-2019-panata-awards/sustainability-advocacy-campaigns-win-big-in-2019-primary-thumbnail-d.jpg",
      "description": "Globe wins six trophies at the recently held PANAta Awards, including the PANAta Brand Bravery Award. Visit the Newsroom for the latest news on Globe Telecom.",
      "datePosted": "Aug 07, 2019 | 12:00 PM",
      "titleFromTag": "Sustainability"
    },
    {
      "title": "Liyab AoV Team, Liyab SC2’s Enderr Seeded in Esports National Team Pool Sibol for 2019 SEA Games",
      "nonclickable": false,
      "openNewTab": false,
      "borderArticle": "border-color:#0074D9;",
      "borderTopArticle": "border-top-color:#0074D9;",
      "imageListing": "/sites/globe.com.ph/files/content/dam/globe/brie/AboutUs/newsroom/corporate/liyab-aov-enderr-sea-games-2019/corporate-AoV-team-enderr-seeded-in-esports--thumbnail-listing.jpg",
      "articleUrl": "https://www.globe.com.ph/about-us/newsroom/corporate/liyab-aov-enderr-sea-games-2019.html",
      "columnType": "articles--type-3",
      "typeListing": "article",
      "imageMobile": "/sites/globe.com.ph/files/content/dam/globe/brie/AboutUs/newsroom/corporate/liyab-aov-enderr-sea-games-2019/corporate-AoV-team-enderr-seeded-in-esports-primary-thumbnail-m.jpg",
      "imageDesktop": "/sites/globe.com.ph/files/content/dam/globe/brie/AboutUs/newsroom/corporate/liyab-aov-enderr-sea-games-2019/corporate-AoV-team-enderr-seeded-in-esports--primary-thumbnail-d.jpg",
      "description": "Several members of Liyab Esports were chosen to form part of the national training pool. Visit the Newsroom for the latest news on Globe Telecom.",
      "datePosted": "Aug 07, 2019 | 11:24 AM",
      "titleFromTag": "Corporate"
    },
    {
      "title": "Globe, ONE Championship Extend Partnership for Filipino Martial Arts Fans",
      "nonclickable": false,
      "openNewTab": false,
      "borderArticle": "border-color:#0074D9;",
      "borderTopArticle": "border-top-color:#0074D9;",
      "imageListing": "/sites/globe.com.ph/files/content/dam/globe/brie/AboutUs/newsroom/consumer/globe-one-championship-extend-partnership-filipino-martial-arts/consumer-one-championship-extend-partnership-thumbnail-listing.jpg",
      "articleUrl": "https://www.globe.com.ph/about-us/newsroom/consumer/globe-one-championship-extend-partnership-filipino-martial-arts.html",
      "columnType": "articles--type-3",
      "typeListing": "article",
      "imageMobile": "/sites/globe.com.ph/files/content/dam/globe/brie/AboutUs/newsroom/consumer/globe-one-championship-extend-partnership-filipino-martial-arts/consumer-one-championship-extend-partnership-primary-thumbnail-m.jpg",
      "imageDesktop": "/sites/globe.com.ph/files/content/dam/globe/brie/AboutUs/newsroom/consumer/globe-one-championship-extend-partnership-filipino-martial-arts/consumer-one-championship-extend-partnership-primary-thumbnail-d.jpg",
      "description": "Globe and ONE Championship will continue to work together in developing Philippine martial arts. Visit the Newsroom for the latest news on Globe Telecom.",
      "datePosted": "Aug 06, 2019 | 04:01 PM",
      "titleFromTag": "Consumer"
    },
    {
      "title": "Globe myBusiness Partners with PSIA to Help Filipino Talents Become More Globally Competitive",
      "nonclickable": false,
      "openNewTab": false,
      "borderArticle": "border-color:#0074D9;",
      "borderTopArticle": "border-top-color:#0074D9;",
      "imageListing": "/sites/globe.com.ph/files/content/dam/globe/brie/AboutUs/newsroom/business/globe-psia-help-filipino-talents-software-industry/business-partners-with-psia-to-help-filipinos-thumbnail-listing.jpg",
      "articleUrl": "https://www.globe.com.ph/about-us/newsroom/business/globe-psia-help-filipino-talents-software-industry.html",
      "columnType": "articles--type-3",
      "typeListing": "article",
      "imageMobile": "/sites/globe.com.ph/files/content/dam/globe/brie/AboutUs/newsroom/business/globe-psia-help-filipino-talents-software-industry/business-partners-with-psia-to-help-filipinos-primary-thumbnail-m.jpg",
      "imageDesktop": "/sites/globe.com.ph/files/content/dam/globe/brie/AboutUs/newsroom/business/globe-psia-help-filipino-talents-software-industry/business-partners-with-psia-to-help-filipinos-primary-thumbnail-d.jpg",
      "description": "Globe myBusiness has joined the PSIA in helping global Filipino talents in the software industry. Visit the Newsroom for the latest news on Globe Telecom.",
      "datePosted": "Aug 02, 2019 | 03:25 PM",
      "titleFromTag": "Business"
    },
    {
      "title": "Globe, ABS-CBN Foundation Sagip Kapamilya Distribute Relief Goods to Families in Itbayat, Batanes",
      "nonclickable": false,
      "openNewTab": false,
      "borderArticle": "border-color:#1C91C5;",
      "borderTopArticle": "border-top-color:#1C91C5;",
      "imageListing": "/sites/globe.com.ph/files/content/dam/globe/brie/AboutUs/newsroom/sustainability/abs-cbn-sagip-kapamilya-shares-goods-in-batanes/sustainability-abs-cbn-foundation-sagip-kapamilya-thumbnail-listing.jpg",
      "articleUrl": "https://www.globe.com.ph/about-us/newsroom/sustainability/abs-cbn-sagip-kapamilya-shares-goods-in-batanes.html",
      "columnType": "articles--type-3",
      "typeListing": "article",
      "imageMobile": "/sites/globe.com.ph/files/content/dam/globe/brie/AboutUs/newsroom/sustainability/abs-cbn-sagip-kapamilya-shares-goods-in-batanes/sustainability-abs-cbn-foundation-sagip-kapamilya-primary-thumbnail-m.jpg",
      "imageDesktop": "/sites/globe.com.ph/files/content/dam/globe/brie/AboutUs/newsroom/sustainability/abs-cbn-sagip-kapamilya-shares-goods-in-batanes/sustainability-abs-cbn-foundation-sagip-kapamilya-primary-thumbnail-d.jpg",
      "description": "Globe and Sagip Kapamilya provided relief goods to 720 families affected by the earthquake in Batanes. Visit the Newsroom for the latest news on Globe Telecom.",
      "datePosted": "Aug 02, 2019 | 01:44 PM",
      "titleFromTag": "Sustainability"
    },
    {
      "title": "Amazon Prime Video Receives 47 Emmy Award Nominations",
      "nonclickable": false,
      "openNewTab": false,
      "borderArticle": "border-color:#0074D9;",
      "borderTopArticle": "border-top-color:#0074D9;",
      "imageListing": "/sites/globe.com.ph/files/content/dam/globe/brie/AboutUs/newsroom/consumer/amazon-prime-video-receives-47-emmy-nominations/consumer-amazon-prime-video-recieves-47-emmy-thumbnail-listing.jpg",
      "articleUrl": "https://www.globe.com.ph/about-us/newsroom/consumer/amazon-prime-video-receives-47-emmy-nominations.html",
      "columnType": "articles--type-3",
      "typeListing": "article",
      "imageMobile": "/sites/globe.com.ph/files/content/dam/globe/brie/AboutUs/newsroom/consumer/amazon-prime-video-receives-47-emmy-nominations/consumer-amazon-prime-video-recieves-47-emmy-primary-thumbnail-m.jpg",
      "imageDesktop": "/sites/globe.com.ph/files/content/dam/globe/brie/AboutUs/newsroom/consumer/amazon-prime-video-receives-47-emmy-nominations/consumer-amazon-prime-video-recieves-47-emmy-primary-thumbnail-d.jpg",
      "description": "Amazon Prime Video received 47 Emmy Award nominations, doubling its previous record of 23. Visit the Newsroom for the latest news on Globe Telecom.",
      "datePosted": "Aug 02, 2019 | 01:03 PM",
      "titleFromTag": "Consumer"
    },
    {
      "title": "OPAE Holds Angat Lahat sa Digital Forum with Globe President Ernest Cu",
      "nonclickable": false,
      "openNewTab": false,
      "borderArticle": "border-color:#0074D9;",
      "borderTopArticle": "border-top-color:#0074D9;",
      "imageListing": "/sites/globe.com.ph/files/content/dam/globe/brie/AboutUs/newsroom/business/business-opae-holds-angat-lahat-sa-digital-forum/business-opae-holds-angat-lahat-sa-digital-forum-thumbnail-listing.jpg",
      "articleUrl": "https://www.globe.com.ph/about-us/newsroom/business/opae-holds-angat-lahat-sa-digital-forum-ernest-cu.html",
      "columnType": "articles--type-3",
      "typeListing": "article",
      "imageMobile": "/sites/globe.com.ph/files/content/dam/globe/brie/AboutUs/newsroom/business/business-opae-holds-angat-lahat-sa-digital-forum/business-opae-holds-angat-lahat-sa-digital-forum-primary-thumbnail-m.jpg",
      "imageDesktop": "/sites/globe.com.ph/files/content/dam/globe/brie/AboutUs/newsroom/business/business-opae-holds-angat-lahat-sa-digital-forum/business-opae-holds-angat-lahat-sa-digital-forum-primary-thumbnail-d.jpg",
      "description": "To promote digital awareness, OPAE held a forum with Ernest Cu and Angat Lahat sa Digital Alliance. Visit the Newsroom for the latest news on Globe Telecom.",
      "datePosted": "Aug 01, 2019 | 02:39 PM",
      "titleFromTag": "Business"
    },
    {
      "title": "Globe At Home Air Fiber 5G Now Available in Pasig",
      "nonclickable": false,
      "openNewTab": false,
      "borderArticle": "border-color:#0074D9;",
      "borderTopArticle": "border-top-color:#0074D9;",
      "imageListing": "/sites/globe.com.ph/files/content/dam/globe/brie/AboutUs/newsroom/common/updated/Corporate-globe-thumbnail-listing.jpg",
      "articleUrl": "https://www.globe.com.ph/about-us/newsroom/consumer/globe-at-home-air-fiber-5g-pasig.html",
      "columnType": "articles--type-3",
      "typeListing": "article",
      "imageMobile": "/sites/globe.com.ph/files/content/dam/globe/brie/AboutUs/newsroom/common/updated/Corporate-globe-primary-thumbnail-m.jpg",
      "imageDesktop": "/sites/globe.com.ph/files/content/dam/globe/brie/AboutUs/newsroom/common/updated/Corporate-globe-primary-thumbnail-d.jpg",
      "description": "Globe officially made Globe At Home Air Fiber 5G commercially available in Pasig. Visit the Newsroom for the latest news on Globe Telecom.",
      "datePosted": "Jul 30, 2019 | 01:47 PM",
      "titleFromTag": "Consumer"
    },
    {
      "title": "Globe Works with Philippine BPO Industry to Advance Digital Adoption",
      "nonclickable": false,
      "openNewTab": false,
      "borderArticle": "border-color:#0074D9;",
      "borderTopArticle": "border-top-color:#0074D9;",
      "imageListing": "/sites/globe.com.ph/files/content/dam/globe/brie/AboutUs/newsroom/common/updated/Corporate-globe-thumbnail-listing.jpg",
      "articleUrl": "https://www.globe.com.ph/about-us/newsroom/business/globe-bpo-industry-advance-digital-adoption.html",
      "columnType": "articles--type-3",
      "typeListing": "article",
      "imageMobile": "/sites/globe.com.ph/files/content/dam/globe/brie/AboutUs/newsroom/common/updated/Corporate-globe-primary-thumbnail-m.jpg",
      "imageDesktop": "/sites/globe.com.ph/files/content/dam/globe/brie/AboutUs/newsroom/common/updated/Corporate-globe-primary-thumbnail-d.jpg",
      "description": "The IT-BPO industry is an important sector that can maximize ICT to its fullest potential. Visit the Newsroom for the latest news on Globe Telecom.",
      "datePosted": "Jul 26, 2019 | 11:53 AM",
      "titleFromTag": "Business"
    },
    {
      "title": "Globe Bags 3-peat Top Workplace in Asia, Industry Champion at ACES Awards 2019",
      "nonclickable": false,
      "openNewTab": false,
      "borderArticle": "border-color:#0074D9;",
      "borderTopArticle": "border-top-color:#0074D9;",
      "imageListing": "/sites/globe.com.ph/files/content/dam/globe/brie/AboutUs/newsroom/common/updated/Corporate-globe-thumbnail-listing.jpg",
      "articleUrl": "https://www.globe.com.ph/about-us/newsroom/corporate/globe-top-workplace-asia-aces-awards-2019.html",
      "columnType": "articles--type-3",
      "typeListing": "article",
      "imageMobile": "/sites/globe.com.ph/files/content/dam/globe/brie/AboutUs/newsroom/common/updated/Corporate-globe-primary-thumbnail-m.jpg",
      "imageDesktop": "/sites/globe.com.ph/files/content/dam/globe/brie/AboutUs/newsroom/common/updated/Corporate-globe-primary-thumbnail-d.jpg",
      "description": "Globe is the only one in ACES Awards history to win as a top workplace in Asia three consecutive times. Visit the Newsroom for the latest news on Globe Telecom.",
      "datePosted": "Jul 24, 2019 | 03:44 PM",
      "titleFromTag": "Corporate"
    },
    {
      "title": "Globe Gives Fans a Chance to be a Part of Eduard Folayang’s Walkout at ONE: DAWN OF HEROES",
      "nonclickable": false,
      "openNewTab": false,
      "borderArticle": "border-color:#0074D9;",
      "borderTopArticle": "border-top-color:#0074D9;",
      "imageListing": "/sites/globe.com.ph/files/content/dam/globe/brie/AboutUs/newsroom/citizenship/eduard-folayang-walkout-one-championship-dawn-of-heroes/citizenship-fans-a-chance-to-be-a-part-of-eduard-thumbnail-listing.jpg",
      "articleUrl": "https://www.globe.com.ph/about-us/newsroom/citizenship/eduard-folayang-walkout-one-championship-dawn-of-heroes.html",
      "columnType": "articles--type-3",
      "typeListing": "article",
      "imageMobile": "/sites/globe.com.ph/files/content/dam/globe/brie/AboutUs/newsroom/citizenship/eduard-folayang-walkout-one-championship-dawn-of-heroes/citizenship-fans-a-chance-to-be-a-part-of-eduard-primary-thumbnail-m.jpg",
      "imageDesktop": "/sites/globe.com.ph/files/content/dam/globe/brie/AboutUs/newsroom/citizenship/eduard-folayang-walkout-one-championship-dawn-of-heroes/citizenship-fans-a-chance-to-be-a-part-of-eduard-primary-thumbnail-d.jpg",
      "description": "Donate to PGH Children’s Ward and win a walkout to the ONE Championship ring with Eduard Folayang. Visit the Newsroom for the latest news on Globe Telecom.",
      "datePosted": "Jul 24, 2019 | 03:39 PM",
      "titleFromTag": "Citizenship"
    }
  ]
}
