{
  "status": 200,
  "page": 204,
  "totalPage": 298,
  "range": "2437-2448",
  "total": 3573,
  "result": [
    {
      "title": "EXO Returning to Manila to Bring EXO PLANET #5—EXplOration",
      "nonclickable": false,
      "openNewTab": false,
      "borderArticle": "border-color:#0074D9;",
      "borderTopArticle": "border-top-color:#0074D9;",
      "imageListing": "/sites/globe.com.ph/files/content/dam/globe/brie/AboutUs/newsroom/consumer/exo-planet-5/consumer-exo-returning-to-manila-thumbnail-listing.jpg",
      "articleUrl": "https://www.globe.com.ph/about-us/newsroom/consumer/exo-planet-5.html",
      "columnType": "articles--type-3",
      "typeListing": "article",
      "imageMobile": "/sites/globe.com.ph/files/content/dam/globe/brie/AboutUs/newsroom/consumer/exo-planet-5/consumer-exo-returning-to-manila-primary-thumbnail-m.jpg",
      "imageDesktop": "/sites/globe.com.ph/files/content/dam/globe/brie/AboutUs/newsroom/consumer/exo-planet-5/consumer-exo-returning-to-manila-primary-thumbnail-d.jpg",
      "description": "EXO Planet #5—EXplOration in Manila will happen on August 24, 2019 at the Mall of Asia Arena. Visit the Newsroom for the latest news on Globe Telecom.",
      "datePosted": "Jul 24, 2019 | 03:09 PM",
      "titleFromTag": "Consumer"
    },
    {
      "title": "4 Important Tips to Make Small Businesses Flourish",
      "nonclickable": false,
      "openNewTab": false,
      "borderArticle": "border-color:#0074D9;",
      "borderTopArticle": "border-top-color:#0074D9;",
      "imageListing": "/sites/globe.com.ph/files/content/dam/globe/brie/en-PH/go/shoppingandlifestyle/articles/4-tips-to-make-sme-flourish/business-4-important-tips-to-make-thumbnail-listing.jpg",
      "articleUrl": "https://www.globe.com.ph/about-us/newsroom/business/4-tips-to-make-sme-flourish.html",
      "columnType": "articles--type-3",
      "typeListing": "article",
      "imageMobile": "/sites/globe.com.ph/files/content/dam/globe/brie/en-PH/go/shoppingandlifestyle/articles/4-tips-to-make-sme-flourish/business-4-important-tips-to-make-primary-thumbnail-m.jpg",
      "imageDesktop": "/sites/globe.com.ph/files/content/dam/globe/brie/en-PH/go/shoppingandlifestyle/articles/4-tips-to-make-sme-flourish/business-4-important-tips-to-make-primary-thumbnail-d.jpg",
      "description": "Globe joined the DTI in giving recognition to all SMEs for their contribution to nation building. Visit the Newsroom for the latest news on Globe Telecom.",
      "datePosted": "Jul 23, 2019 | 01:14 PM",
      "titleFromTag": "Business"
    },
    {
      "title": "Globe, JACK Help Young Filipinos Learn to Code",
      "nonclickable": false,
      "openNewTab": false,
      "borderArticle": "border-color:#0074D9;",
      "borderTopArticle": "border-top-color:#0074D9;",
      "imageListing": "/sites/globe.com.ph/files/content/dam/globe/brie/AboutUs/newsroom/corporate/jack-globe-help-young-filipinos-learn-code/corporate-jack-help-young-filipinos-learn-thumbnail-listing.jpg",
      "articleUrl": "https://www.globe.com.ph/about-us/newsroom/corporate/jack-globe-help-young-filipinos-learn-code.html",
      "columnType": "articles--type-3",
      "typeListing": "article",
      "imageMobile": "/sites/globe.com.ph/files/content/dam/globe/brie/AboutUs/newsroom/corporate/jack-globe-help-young-filipinos-learn-code/corporate-jack-help-young-filipinos-learn-primary-thumbnail-m.jpg",
      "imageDesktop": "/sites/globe.com.ph/files/content/dam/globe/brie/AboutUs/newsroom/corporate/jack-globe-help-young-filipinos-learn-code/corporate-jack-help-young-filipinos-learn-primary-thumbnail-d.jpg",
      "description": "JACK believes that every child has to have the opportunity to learn this basic and essential skill. Visit the Newsroom for the latest news on Globe Telecom.",
      "datePosted": "Jul 19, 2019 | 11:26 AM",
      "titleFromTag": "Corporate"
    },
    {
      "title": "Return to the Pride Land with Globe and Disney’s The Lion King!",
      "nonclickable": false,
      "openNewTab": false,
      "borderArticle": "border-color:#0074D9;",
      "borderTopArticle": "border-top-color:#0074D9;",
      "imageListing": "/sites/globe.com.ph/files/content/dam/globe/brie/AboutUs/newsroom/consumer/the-lion-king-return-to-pride-land/consumer-return-to-the-pride-land-thumbnail-listing.jpg",
      "articleUrl": "https://www.globe.com.ph/about-us/newsroom/consumer/the-lion-king-return-to-pride-land.html",
      "columnType": "articles--type-3",
      "typeListing": "article",
      "imageMobile": "/sites/globe.com.ph/files/content/dam/globe/brie/AboutUs/newsroom/consumer/the-lion-king-return-to-pride-land/consumer-return-to-the-pride-land-primary-thumbnail-m.jpg",
      "imageDesktop": "/sites/globe.com.ph/files/content/dam/globe/brie/AboutUs/newsroom/consumer/the-lion-king-return-to-pride-land/consumer-return-to-the-pride-land-primary-thumbnail-d.jpg",
      "description": "Disney’s The Lion King finally hits Philippine cinemas this July 17. Visit the Newsroom for the latest news on Globe Telecom.",
      "datePosted": "Jul 17, 2019 | 11:37 AM",
      "titleFromTag": "Consumer"
    },
    {
      "title": "Globe myBusiness Honors Local Entrepreneurs, Celebrates SME Week with “Saludo SMEs”",
      "nonclickable": false,
      "openNewTab": false,
      "borderArticle": "border-color:#0074D9;",
      "borderTopArticle": "border-top-color:#0074D9;",
      "imageListing": "/sites/globe.com.ph/files/content/dam/globe/brie/AboutUs/newsroom/common/updated/Corporate-globe-thumbnail-listing.jpg",
      "articleUrl": "https://www.globe.com.ph/about-us/newsroom/business/saludo-sme-globe-honors-local-entrepreneurs.html",
      "columnType": "articles--type-3",
      "typeListing": "article",
      "imageMobile": "/sites/globe.com.ph/files/content/dam/globe/brie/AboutUs/newsroom/common/updated/Corporate-globe-primary-thumbnail-m.jpg",
      "imageDesktop": "/sites/globe.com.ph/files/content/dam/globe/brie/AboutUs/newsroom/common/updated/Corporate-globe-primary-thumbnail-d.jpg",
      "description": "Through Saludo SMEs campaign, Globe pays tribute to the passion of small entrepreneurs. Visit the Newsroom for the latest news on Globe Telecom.",
      "datePosted": "Jul 17, 2019 | 09:25 AM",
      "titleFromTag": "Business"
    },
    {
      "title": " Globe Moves Migration to 8-digit Landline in Greater Metro Manila to October 2019",
      "nonclickable": false,
      "openNewTab": false,
      "borderArticle": "border-color:#0074D9;",
      "borderTopArticle": "border-top-color:#0074D9;",
      "imageListing": "/sites/globe.com.ph/files/content/dam/globe/brie/AboutUs/newsroom/business/globe-migration-8-digit-landline/business-8-digit-landline-thumbnail-listing.jpg",
      "articleUrl": "https://www.globe.com.ph/about-us/newsroom/business/globe-migration-8-digit-landline.html",
      "columnType": "articles--type-3",
      "typeListing": "article",
      "imageMobile": "/sites/globe.com.ph/files/content/dam/globe/brie/AboutUs/newsroom/business/globe-migration-8-digit-landline/business-8-digit-landline-banner-m.jpg",
      "imageDesktop": "/sites/globe.com.ph/files/content/dam/globe/brie/AboutUs/newsroom/business/globe-migration-8-digit-landline/business-8-digit-landline-primary-thumbnail_v2.jpg",
      "description": "Globe moves migration to 8-digit landline in Greater Metro Manila to October 2019. Visit the Globe Newsroom for the latest news on Globe Telecom.",
      "datePosted": "Jul 17, 2019 | 12:00 AM",
      "titleFromTag": "Business"
    },
    {
      "title": "Globe Redefines Home Broadband Market with Fixed Wireless Strategy",
      "nonclickable": false,
      "openNewTab": false,
      "borderArticle": "border-color:#0074D9;",
      "borderTopArticle": "border-top-color:#0074D9;",
      "imageListing": "/sites/globe.com.ph/files/content/dam/globe/brie/AboutUs/newsroom/common/updated/Corporate-globe-thumbnail-listing.jpg",
      "articleUrl": "https://www.globe.com.ph/about-us/newsroom/corporate/home-broadband-market-redefined.html",
      "columnType": "articles--type-3",
      "typeListing": "article",
      "imageMobile": "/sites/globe.com.ph/files/content/dam/globe/brie/AboutUs/newsroom/common/updated/Corporate-globe-primary-thumbnail-m.jpg",
      "imageDesktop": "/sites/globe.com.ph/files/content/dam/globe/brie/AboutUs/newsroom/common/updated/Corporate-globe-primary-thumbnail-d.jpg",
      "description": "Globe’s fixed wireless home broadband strategy has pushed fast connectivity to more Filipinos. Visit the Newsroom for the latest news on Globe Telecom.",
      "datePosted": "Jul 15, 2019 | 01:20 PM",
      "titleFromTag": "Corporate"
    },
    {
      "title": "Create and Listen to the Soundtrack of Life and Love with Globe Studios’ LSS (Last Song Syndrome)",
      "nonclickable": false,
      "openNewTab": false,
      "borderArticle": "border-color:#0074D9;",
      "borderTopArticle": "border-top-color:#0074D9;",
      "imageListing": "/sites/globe.com.ph/files/content/dam/globe/brie/AboutUs/newsroom/consumer/create-with-globe-studios-last-song-syndrome/consumer-create-and-listen-to-the-soundtrack-thumbnail-listing.jpg",
      "articleUrl": "https://www.globe.com.ph/about-us/newsroom/consumer/create-with-globe-studios-last-song-syndrome.html",
      "columnType": "articles--type-3",
      "typeListing": "article",
      "imageMobile": "/sites/globe.com.ph/files/content/dam/globe/brie/AboutUs/newsroom/consumer/create-with-globe-studios-last-song-syndrome/consumer-create-and-listen-to-the-soundtrack-primary-thumbnail-m.jpg",
      "imageDesktop": "/sites/globe.com.ph/files/content/dam/globe/brie/AboutUs/newsroom/consumer/create-with-globe-studios-last-song-syndrome/consumer-create-and-listen-to-the-soundtrack-primary-thumbnail-d.jpg",
      "description": "Last Song Syndrome (LSS) continues Globe Studios’ high standards with a story of two young lovers. Visit the Newsroom for the latest news on Globe Telecom.",
      "datePosted": "Jul 12, 2019 | 03:49 PM",
      "titleFromTag": "Consumer"
    },
    {
      "title": "Liyab’s Enderr Just Two Wins Away from a Historic Spot in StarCraft ll World Championship",
      "nonclickable": false,
      "openNewTab": false,
      "borderArticle": "border-color:#0074D9;",
      "borderTopArticle": "border-top-color:#0074D9;",
      "imageListing": "/sites/globe.com.ph/files/content/dam/globe/brie/AboutUs/newsroom/corporate/enderr-two-wins-away-starcraft-2-word-championship/corporate-enderr-just-two-wins-away-SCII-thumbnail-listing.jpg",
      "articleUrl": "https://www.globe.com.ph/about-us/newsroom/corporate/enderr-two-wins-away-starcraft-2-word-championship.html",
      "columnType": "articles--type-3",
      "typeListing": "article",
      "imageMobile": "/sites/globe.com.ph/files/content/dam/globe/brie/AboutUs/newsroom/corporate/enderr-two-wins-away-starcraft-2-word-championship/corporate-enderr-just-two-wins-away-SCII-primary-thumbnail-m.jpg",
      "imageDesktop": "/sites/globe.com.ph/files/content/dam/globe/brie/AboutUs/newsroom/corporate/enderr-two-wins-away-starcraft-2-word-championship/corporate-enderr-just-two-wins-away-SCII-primary-thumbnail-d.jpg",
      "description": "Liyab's Enderr moved closer to an elusive stint in the Starcraft ll Fall WCS in Montreal, Canada. Visit the Newsroom for the latest news on Globe Telecom.",
      "datePosted": "Jul 11, 2019 | 02:43 PM",
      "titleFromTag": "Corporate"
    },
    {
      "title": "Globe Telecom is Best Company to Work for in Asia This 2019",
      "nonclickable": false,
      "openNewTab": false,
      "borderArticle": "border-color:#0074D9;",
      "borderTopArticle": "border-top-color:#0074D9;",
      "imageListing": "/sites/globe.com.ph/files/content/dam/globe/brie/AboutUs/newsroom/corporate/globe-best-company-to-work-for-hr-asia-awards/corporate-best-company-to-work-for-thumbnail-listing.jpg",
      "articleUrl": "https://www.globe.com.ph/about-us/newsroom/corporate/globe-best-company-to-work-for-hr-asia-awards.html",
      "columnType": "articles--type-3",
      "typeListing": "article",
      "imageMobile": "/sites/globe.com.ph/files/content/dam/globe/brie/AboutUs/newsroom/corporate/globe-best-company-to-work-for-hr-asia-awards/corporate-best-company-to-work-for-primary-thumbnail-m.jpg",
      "imageDesktop": "/sites/globe.com.ph/files/content/dam/globe/brie/AboutUs/newsroom/corporate/globe-best-company-to-work-for-hr-asia-awards/corporate-best-company-to-work-for-primary-thumbnail-d.jpg",
      "description": "Globe was named again as one of the Best Companies to Work For in HR Asia Awards 2019. Visit the Newsroom for the latest news on Globe Telecom.",
      "datePosted": "Jul 11, 2019 | 01:54 PM",
      "titleFromTag": "Corporate"
    },
    {
      "title": "Globe Digital Thumbprint Program Launches Module for Parents to Increase Digital Literacy",
      "nonclickable": false,
      "openNewTab": false,
      "borderArticle": "border-color:#1C91C5;",
      "borderTopArticle": "border-top-color:#1C91C5;",
      "imageListing": "/sites/globe.com.ph/files/content/dam/globe/brie/AboutUs/newsroom/corporate/globe-digital-thumbprint-program-launches-module/corporate-DTP-launches-module-thumbnail-listing.jpg",
      "articleUrl": "https://www.globe.com.ph/about-us/newsroom/sustainability/deped-integrate-globe-digital-thumprint-program.html",
      "columnType": "articles--type-3",
      "typeListing": "article",
      "imageMobile": "/sites/globe.com.ph/files/content/dam/globe/brie/AboutUs/newsroom/corporate/globe-digital-thumbprint-program-launches-module/corporate-DTP-launches-module-primary-thumbnail-m.jpg",
      "imageDesktop": "/sites/globe.com.ph/files/content/dam/globe/brie/AboutUs/newsroom/corporate/globe-digital-thumbprint-program-launches-module/corporate-DTP-launches-module-primary-thumbnail-d.jpg",
      "description": "The Digital Thumbprint Program provides cyber wellness and safety training to teachers and students. Visit the Newsroom for the latest news on Globe Telecom.",
      "datePosted": "Jul 10, 2019 | 12:54 PM",
      "titleFromTag": "Sustainability"
    },
    {
      "title": "Globe Digital Thumbprint Program Launches Module for Parents to Increase Digital Literacy",
      "nonclickable": false,
      "openNewTab": false,
      "borderArticle": "border-color:#1C91C5;",
      "borderTopArticle": "border-top-color:#1C91C5;",
      "imageListing": "/sites/globe.com.ph/files/content/dam/globe/brie/AboutUs/newsroom/corporate/globe-digital-thumbprint-program-launches-module/corporate-DTP-launches-module-thumbnail-listing.jpg",
      "articleUrl": "https://www.globe.com.ph/about-us/newsroom/sustainability/globe-digital-thumbprint-program-launches-module.html",
      "columnType": "articles--type-3",
      "typeListing": "article",
      "imageMobile": "/sites/globe.com.ph/files/content/dam/globe/brie/AboutUs/newsroom/corporate/globe-digital-thumbprint-program-launches-module/corporate-DTP-launches-module-primary-thumbnail-m.jpg",
      "imageDesktop": "/sites/globe.com.ph/files/content/dam/globe/brie/AboutUs/newsroom/corporate/globe-digital-thumbprint-program-launches-module/corporate-DTP-launches-module-primary-thumbnail-d.jpg",
      "description": "The Digital Thumbprint Program provides cyber wellness and safety training to teachers and students. Visit the Newsroom for the latest news on Globe Telecom.",
      "datePosted": "Jul 10, 2019 | 12:54 PM",
      "titleFromTag": "Sustainability"
    }
  ]
}
