{
  "status": 200,
  "page": 205,
  "totalPage": 298,
  "range": "2449-2460",
  "total": 3573,
  "result": [
    {
      "title": "Globe Digital Thumbprint Program Launches Module for Parents to Increase Digital Literacy",
      "nonclickable": false,
      "openNewTab": false,
      "borderArticle": "border-color:#0074D9;",
      "borderTopArticle": "border-top-color:#0074D9;",
      "imageListing": "/sites/globe.com.ph/files/content/dam/globe/brie/AboutUs/newsroom/corporate/globe-digital-thumbprint-program-launches-module/corporate-DTP-launches-module-thumbnail-listing.jpg",
      "articleUrl": "https://www.globe.com.ph/about-us/newsroom/corporate/globe-digital-thumbprint-program-launches-module.html",
      "columnType": "articles--type-3",
      "typeListing": "article",
      "imageMobile": "/sites/globe.com.ph/files/content/dam/globe/brie/AboutUs/newsroom/corporate/globe-digital-thumbprint-program-launches-module/corporate-DTP-launches-module-primary-thumbnail-m.jpg",
      "imageDesktop": "/sites/globe.com.ph/files/content/dam/globe/brie/AboutUs/newsroom/corporate/globe-digital-thumbprint-program-launches-module/corporate-DTP-launches-module-primary-thumbnail-d.jpg",
      "description": "The Digital Thumbprint Program provides cyber wellness and safety training to teachers and students. Visit the Newsroom for the latest news on Globe Telecom.",
      "datePosted": "Jul 10, 2019 | 12:54 PM",
      "titleFromTag": "Corporate"
    },
    {
      "title": "Globe, Unilab Sustain Strong Partnership on Mobility Solutions",
      "nonclickable": false,
      "openNewTab": false,
      "borderArticle": "border-color:#0074D9;",
      "borderTopArticle": "border-top-color:#0074D9;",
      "imageListing": "/sites/globe.com.ph/files/content/dam/globe/brie/AboutUs/newsroom/business/globe-unilab-sustain-strong-partnership-on-mobility-solutions/business-unilab-sustain-strong-partnership-thumbnail-listing.jpg",
      "articleUrl": "https://www.globe.com.ph/about-us/newsroom/business/globe-unilab-keep-partnership-mobility-solutions.html",
      "columnType": "articles--type-3",
      "typeListing": "article",
      "imageMobile": "/sites/globe.com.ph/files/content/dam/globe/brie/AboutUs/newsroom/business/globe-unilab-sustain-strong-partnership-on-mobility-solutions/business-unilab-sustain-strong-partnership-primary-thumbnail-m.jpg",
      "imageDesktop": "/sites/globe.com.ph/files/content/dam/globe/brie/AboutUs/newsroom/business/globe-unilab-sustain-strong-partnership-on-mobility-solutions/business-unilab-sustain-strong-partnership-primary-thumbnail-d.jpg",
      "description": "Globe Business and United Laboratories, Inc. (Unilab) have further strengthened their partnership. Visit the Newsroom for the latest news on Globe Telecom.",
      "datePosted": "Jul 08, 2019 | 02:20 PM",
      "titleFromTag": "Business"
    },
    {
      "title": "Globe Telecom Sweeps Finance Titles at 9th Asian Excellence Awards",
      "nonclickable": false,
      "openNewTab": false,
      "borderArticle": "border-color:#0074D9;",
      "borderTopArticle": "border-top-color:#0074D9;",
      "imageListing": "/sites/globe.com.ph/files/content/dam/globe/brie/AboutUs/newsroom/corporate/globe-telecom-sweeps-finance-titles-at-9th-asian-excellence-awards/corporate-sweeps-finance-titles-at-9th-AEA-thumbnail-listing.jpg",
      "articleUrl": "https://www.globe.com.ph/about-us/newsroom/corporate/globe-sweeps-finance-titles-9th-asian-excellence-awards.html",
      "columnType": "articles--type-3",
      "typeListing": "article",
      "imageMobile": "/sites/globe.com.ph/files/content/dam/globe/brie/AboutUs/newsroom/corporate/globe-telecom-sweeps-finance-titles-at-9th-asian-excellence-awards/corporate-sweeps-finance-titles-at-9th-AEA-primary-thumbnail-m.jpg",
      "imageDesktop": "/sites/globe.com.ph/files/content/dam/globe/brie/AboutUs/newsroom/corporate/globe-telecom-sweeps-finance-titles-at-9th-asian-excellence-awards/corporate-sweeps-finance-titles-at-9th-AEA-primary-thumbnail-d.jpg",
      "description": "Globe bagged Best Investor Relations (IR) Company, Asia’s Best CFO, and Best IR Professional. Visit the Newsroom for the latest news on Globe Telecom.",
      "datePosted": "Jul 08, 2019 | 01:18 PM",
      "titleFromTag": "Corporate"
    },
    {
      "title": "Join the Philippine Pro Gaming League 2019 Mobile Legends Corporate League",
      "nonclickable": false,
      "openNewTab": false,
      "borderArticle": "border-color:#0074D9;",
      "borderTopArticle": "border-top-color:#0074D9;",
      "imageListing": "/sites/globe.com.ph/files/content/dam/globe/brie/AboutUs/newsroom/common/updated/Corporate-globe-thumbnail-listing.jpg",
      "articleUrl": "https://www.globe.com.ph/about-us/newsroom/corporate/mobile-legends-corporate-league-2019.html",
      "columnType": "articles--type-3",
      "typeListing": "article",
      "imageMobile": "/sites/globe.com.ph/files/content/dam/globe/brie/AboutUs/newsroom/common/updated/Corporate-globe-primary-thumbnail-m.jpg",
      "imageDesktop": "/sites/globe.com.ph/files/content/dam/globe/brie/AboutUs/newsroom/common/updated/Corporate-globe-primary-thumbnail-d.jpg",
      "description": "Globe Telecom and MET Events have announced a special Mobile Legends: Bang Bang Corporate League. Visit the Newsroom for the latest news on Globe Telecom.",
      "datePosted": "Jul 08, 2019 | 11:16 AM",
      "titleFromTag": "Corporate"
    },
    {
      "title": "TWICE Lights Up Manila with Colorful, Long-Awaited PH Debut",
      "nonclickable": false,
      "openNewTab": false,
      "borderArticle": "border-color:#0074D9;",
      "borderTopArticle": "border-top-color:#0074D9;",
      "imageListing": "/sites/globe.com.ph/files/content/dam/globe/brie/AboutUs/newsroom/consumer/twice-lights-up-manila/consumer-twice-lights-up-manila-thumbnail-listing.jpg",
      "articleUrl": "https://www.globe.com.ph/about-us/newsroom/consumer/twice-lights-up-manila.html",
      "columnType": "articles--type-3",
      "typeListing": "article",
      "imageMobile": "/sites/globe.com.ph/files/content/dam/globe/brie/AboutUs/newsroom/consumer/twice-lights-up-manila/consumer-twice-lights-up-manila-primary-thumbnail-m.jpg",
      "imageDesktop": "/sites/globe.com.ph/files/content/dam/globe/brie/AboutUs/newsroom/consumer/twice-lights-up-manila/consumer-twice-lights-up-manila-primary-thumbnail-d.jpg",
      "description": "After years of waiting for Twice, Filipino ONCEs finally got to celebrate with their Candy Bong Zs. Visit the Newsroom for the latest news on Globe Telecom.",
      "datePosted": "Jul 03, 2019 | 03:59 PM",
      "titleFromTag": "Consumer"
    },
    {
      "title": "Globe, Aboitiz-Frontier Towers Sign Common Tower Deal to Improve  Connectivity in Cebu, Davao, Olongapo",
      "nonclickable": false,
      "openNewTab": false,
      "borderArticle": "border-color:#0074D9;",
      "borderTopArticle": "border-top-color:#0074D9;",
      "imageListing": "/sites/globe.com.ph/files/content/dam/globe/brie/AboutUs/newsroom/common/updated/Corporate-globe-thumbnail-listing.jpg",
      "articleUrl": "https://www.globe.com.ph/about-us/newsroom/corporate/globe-aboitiz-frontier-towers-sign-deal.html",
      "columnType": "articles--type-3",
      "typeListing": "article",
      "imageMobile": "/sites/globe.com.ph/files/content/dam/globe/brie/AboutUs/newsroom/common/updated/Corporate-globe-primary-thumbnail-m.jpg",
      "imageDesktop": "/sites/globe.com.ph/files/content/dam/globe/brie/AboutUs/newsroom/common/updated/Corporate-globe-primary-thumbnail-d.jpg",
      "description": "The MOU will explore leasing build-to-suit sites, towers and other telecommunications infrastructures. Visit the Newsroom for the latest news on Globe Telecom.",
      "datePosted": "Jul 03, 2019 | 12:55 PM",
      "titleFromTag": "Corporate"
    },
    {
      "title": "Globe myBusiness Hosts eVolution E-commerce Masterclass for Lazada’s Top Sellers",
      "nonclickable": false,
      "openNewTab": false,
      "borderArticle": "border-color:#0074D9;",
      "borderTopArticle": "border-top-color:#0074D9;",
      "imageListing": "/sites/globe.com.ph/files/content/dam/globe/brie/AboutUs/newsroom/business/globe-hosts-evolution-e-commerce-masterclass/business-eVolution-ecommerce-masterclass-thumbnail-listing.jpg",
      "articleUrl": "https://www.globe.com.ph/about-us/newsroom/business/globe-hosts-evolution-e-commerce-masterclass.html",
      "columnType": "articles--type-3",
      "typeListing": "article",
      "imageMobile": "/sites/globe.com.ph/files/content/dam/globe/brie/AboutUs/newsroom/business/globe-hosts-evolution-e-commerce-masterclass/business-eVolution-ecommerce-masterclass-primary-thumbnail-m.jpg",
      "imageDesktop": "/sites/globe.com.ph/files/content/dam/globe/brie/AboutUs/newsroom/business/globe-hosts-evolution-e-commerce-masterclass/business-eVolution-ecommerce-masterclass-primary-thumbnail-d.jpg",
      "description": "Hundreds of top sellers from the Lazclub were invited to eVolution, a workshop filled with talks. Visit the Newsroom for the latest news on Globe Telecom.",
      "datePosted": "Jul 03, 2019 | 11:52 AM",
      "titleFromTag": "Business"
    },
    {
      "title": "Get Access to a Wonderful World of Freebies with Globe At Home App",
      "nonclickable": false,
      "openNewTab": false,
      "borderArticle": "border-color:#0074D9;",
      "borderTopArticle": "border-top-color:#0074D9;",
      "imageListing": "/sites/globe.com.ph/files/content/dam/globe/brie/AboutUs/newsroom/consumer/globe-at-home-app-world-of-freebies/consumer-get-access-to-a-wonderful-world-thumbnail-listing.jpg",
      "articleUrl": "https://www.globe.com.ph/about-us/newsroom/consumer/globe-at-home-app-world-of-freebies.html",
      "columnType": "articles--type-3",
      "typeListing": "article",
      "imageMobile": "/sites/globe.com.ph/files/content/dam/globe/brie/AboutUs/newsroom/consumer/globe-at-home-app-world-of-freebies/consumer-get-access-to-a-wonderful-world-primary-thumbnail-m.jpg",
      "imageDesktop": "/sites/globe.com.ph/files/content/dam/globe/brie/AboutUs/newsroom/consumer/globe-at-home-app-world-of-freebies/consumer-get-access-to-a-wonderful-world-primary-thumbnail-d.jpg",
      "description": "The Globe At Home app is a convenient way to track your Globe At Home Postpaid/Prepaid account. Visit the Globe Newsroom for the latest news on Globe Telecom.",
      "datePosted": "Jul 02, 2019 | 01:38 PM",
      "titleFromTag": "Consumer"
    },
    {
      "title": "0917 Lifestyle, Saga Events Bring Back StyleFestPH",
      "nonclickable": false,
      "openNewTab": false,
      "borderArticle": "border-color:#0074D9;",
      "borderTopArticle": "border-top-color:#0074D9;",
      "imageListing": "/sites/globe.com.ph/files/content/dam/globe/brie/AboutUs/newsroom/consumer/lifestyle-saga-events-bring-back-stylefestph/consumer-0917-lifestyle-saga-events-bring-back-stylefestph-thumbnail-listing.jpg",
      "articleUrl": "https://www.globe.com.ph/about-us/newsroom/consumer/lifestyle-saga-events-bring-back-stylefestph.html",
      "columnType": "articles--type-3",
      "typeListing": "article",
      "imageMobile": "/sites/globe.com.ph/files/content/dam/globe/brie/AboutUs/newsroom/consumer/lifestyle-saga-events-bring-back-stylefestph/consumer-0917-lifestyle-saga-events-bring-back-stylefestph-primary-thumbnail-m.jpg",
      "imageDesktop": "/sites/globe.com.ph/files/content/dam/globe/brie/AboutUs/newsroom/consumer/lifestyle-saga-events-bring-back-stylefestph/consumer-0917-lifestyle-saga-events-bring-back-stylefestph-primary-thumbnail-d.jpg",
      "description": "Globe Telecom’s lifestyle brand 0917 Lifestyle and Saga Events collaborated anew this year to bring back StyleFestPH, this coming November.",
      "datePosted": "Jul 01, 2019 | 03:51 PM",
      "titleFromTag": "Consumer"
    },
    {
      "title": "Globe Telecom Tops Anew in Corporate Governance in ASEAN",
      "nonclickable": false,
      "openNewTab": false,
      "borderArticle": "border-color:#0074D9;",
      "borderTopArticle": "border-top-color:#0074D9;",
      "imageListing": "/sites/globe.com.ph/files/content/dam/globe/brie/AboutUs/newsroom/corporate/globe-tops-asean-corporate-governance/corporate-tops-anew-in-corp-gov-asean-thumbnail-listing.jpg",
      "articleUrl": "https://www.globe.com.ph/about-us/newsroom/corporate/globe-tops-asean-corporate-governance.html",
      "columnType": "articles--type-3",
      "typeListing": "article",
      "imageMobile": "/sites/globe.com.ph/files/content/dam/globe/brie/AboutUs/newsroom/corporate/globe-tops-asean-corporate-governance/corporate-tops-anew-in-corp-gov-asean-primary-thumbnail-m.jpg",
      "imageDesktop": "/sites/globe.com.ph/files/content/dam/globe/brie/AboutUs/newsroom/corporate/globe-tops-asean-corporate-governance/corporate-tops-anew-in-corp-gov-asean-primary-thumbnail-d.jpg",
      "description": "Globe Telecom showed once again why it's one of the top organizations in the Philippines. Visit Newsroom to learn how we topped corporate governance in ASEAN.",
      "datePosted": "Jul 01, 2019 | 03:01 PM",
      "titleFromTag": "Corporate"
    },
    {
      "title": "Globe Supports Athletes with Cerebral Palsy; Helps Nationwide Search for Pioneer Players of CP Rascals",
      "nonclickable": false,
      "openNewTab": false,
      "borderArticle": "border-color:#1C91C5;",
      "borderTopArticle": "border-top-color:#1C91C5;",
      "imageListing": "/sites/globe.com.ph/files/content/dam/globe/brie/AboutUs/newsroom/sustainability/globe-supports-athletes/sustainability-globe-supports-athletes-with-cerebral-palsy-thumbnail-listing.jpg",
      "articleUrl": "https://www.globe.com.ph/about-us/newsroom/sustainability/globe-supports-athletes.html",
      "columnType": "articles--type-3",
      "typeListing": "article",
      "imageMobile": "/sites/globe.com.ph/files/content/dam/globe/brie/AboutUs/newsroom/sustainability/globe-supports-athletes/sustainability-globe-supports-athletes-with-cerebral-palsy-primary-thumbnail-m.jpg",
      "imageDesktop": "/sites/globe.com.ph/files/content/dam/globe/brie/AboutUs/newsroom/sustainability/globe-supports-athletes/sustainability-globe-supports-athletes-with-cerebral-palsy-primary-thumbnail-d.jpg",
      "description": "Globe supports athletes with cerebral palsy and helps nationwide search for pioneer players of CP Rascals. Visit the Globe Newsroom for the latest news on Globe Telecom.",
      "datePosted": "Jun 25, 2019 | 10:45 AM",
      "titleFromTag": "Sustainability"
    },
    {
      "title": "Globe Supports Athletes with Cerebral Palsy; Helps Nationwide Search for Pioneer Players of CP Rascals",
      "nonclickable": false,
      "openNewTab": false,
      "borderArticle": "border-color:#1C91C5;",
      "borderTopArticle": "border-top-color:#1C91C5;",
      "imageListing": "/sites/globe.com.ph/files/content/dam/globe/brie/AboutUs/newsroom/sustainability/globe-supports-athletes/sustainability-globe-supports-athletes-with-cerebral-palsy-thumbnail-listing.jpg",
      "articleUrl": "https://www.globe.com.ph/about-us/newsroom/sustainability/globe-supports-cerebral-palsy-athletes.html",
      "columnType": "articles--type-3",
      "typeListing": "article",
      "imageMobile": "/sites/globe.com.ph/files/content/dam/globe/brie/AboutUs/newsroom/sustainability/globe-supports-athletes/sustainability-globe-supports-athletes-with-cerebral-palsy-primary-thumbnail-m.jpg",
      "imageDesktop": "/sites/globe.com.ph/files/content/dam/globe/brie/AboutUs/newsroom/sustainability/globe-supports-athletes/sustainability-globe-supports-athletes-with-cerebral-palsy-primary-thumbnail-d.jpg",
      "description": "Globe supports athletes with cerebral palsy and helps nationwide search for pioneer players of CP Rascals. Visit the Globe Newsroom for the latest news",
      "datePosted": "Jun 25, 2019 | 10:45 AM",
      "titleFromTag": "Sustainability"
    }
  ]
}
