{
  "status": 200,
  "page": 206,
  "totalPage": 298,
  "range": "2461-2472",
  "total": 3573,
  "result": [
    {
      "title": "Power to the Pawnshops: Digitalization Made Easy with CPPI, Globe myBusiness",
      "nonclickable": false,
      "openNewTab": false,
      "borderArticle": "border-color:#0074D9;",
      "borderTopArticle": "border-top-color:#0074D9;",
      "imageListing": "/sites/globe.com.ph/files/content/dam/globe/brie/AboutUs/newsroom/business/power-to-the-pawnshops-cppi-mybusiness/Business-power-to-the-pawnshops-thumbnail-listing.jpg",
      "articleUrl": "https://www.globe.com.ph/about-us/newsroom/business/power-to-the-pawnshops-cppi-mybusiness.html",
      "columnType": "articles--type-3",
      "typeListing": "article",
      "imageMobile": "/sites/globe.com.ph/files/content/dam/globe/brie/AboutUs/newsroom/business/power-to-the-pawnshops-cppi-mybusiness/Business-power-to-the-pawnshops-primary-thumbnail-m.jpg",
      "imageDesktop": "/sites/globe.com.ph/files/content/dam/globe/brie/AboutUs/newsroom/business/power-to-the-pawnshops-cppi-mybusiness/Business-power-to-the-pawnshops-primary-thumbnail-d.jpg",
      "description": "Power to the Pawnshops: Digitalization made easy with CPPI, Globe myBusiness. Visit the Globe Newsroom for the latest news on Globe Telecom.",
      "datePosted": "Jun 24, 2019 | 04:56 PM",
      "titleFromTag": "Business"
    },
    {
      "title": "Globe At Home Air Fiber 5G Unveiled to Connect More Filipinos at Home",
      "nonclickable": false,
      "openNewTab": false,
      "borderArticle": "border-color:#0074D9;",
      "borderTopArticle": "border-top-color:#0074D9;",
      "imageListing": "/sites/globe.com.ph/files/content/dam/globe/brie/AboutUs/newsroom/consumer/globe-at-home-air-fiber-5g/consumer-gah-air-fiber-5g-thumbnail-listing.jpg",
      "articleUrl": "https://www.globe.com.ph/about-us/newsroom/consumer/globe-at-home-air-fiber-5g.html",
      "columnType": "articles--type-3",
      "typeListing": "article",
      "imageMobile": "/sites/globe.com.ph/files/content/dam/globe/brie/AboutUs/newsroom/consumer/globe-at-home-air-fiber-5g/consumer-gah-air-fiber-5g-primary-thumbnail-m.jpg",
      "imageDesktop": "/sites/globe.com.ph/files/content/dam/globe/brie/AboutUs/newsroom/consumer/globe-at-home-air-fiber-5g/consumer-gah-air-fiber-5g-primary-thumbnail-d.jpg",
      "description": "Globe At Home Air Fiber 5G unveiled to connect more Filipinos at home. Visit the Globe Newsroom for the latest news on Globe Telecom.",
      "datePosted": "Jun 21, 2019 | 10:32 AM",
      "titleFromTag": "Consumer"
    },
    {
      "title": "Globe Turns Over New Drug Rehab Center to Cebu Provincial Gov’t",
      "nonclickable": false,
      "openNewTab": false,
      "borderArticle": "border-color:#1C91C5;",
      "borderTopArticle": "border-top-color:#1C91C5;",
      "imageListing": "/sites/globe.com.ph/files/content/dam/globe/brie/AboutUs/newsroom/sustainability/globe-turns-over-rehab-center-cebu/Sustainability-New-drug-rehab-center-thumbnail-listing.jpg",
      "articleUrl": "https://www.globe.com.ph/about-us/newsroom/sustainability/globe-turns-over-rehab-center-cebu.html",
      "columnType": "articles--type-3",
      "typeListing": "article",
      "imageMobile": "/sites/globe.com.ph/files/content/dam/globe/brie/AboutUs/newsroom/sustainability/globe-turns-over-rehab-center-cebu/Sustainability-New-drug-rehab-center-primary-thumbnail-m.jpg",
      "imageDesktop": "/sites/globe.com.ph/files/content/dam/globe/brie/AboutUs/newsroom/sustainability/globe-turns-over-rehab-center-cebu/Sustainability-New-drug-rehab-center-primary-thumbnail-d.jpg",
      "description": "Globe turns over a new drug rehabilitation center to Cebu provincial government. Visit the Globe Newsroom for the latest news on Globe Telecom.",
      "datePosted": "Jun 20, 2019 | 02:55 PM",
      "titleFromTag": "Sustainability"
    },
    {
      "title": "Fête de la Musique Like You’ve Never Seen It Before",
      "nonclickable": false,
      "openNewTab": false,
      "borderArticle": "border-color:#0074D9;",
      "borderTopArticle": "border-top-color:#0074D9;",
      "imageListing": "/sites/globe.com.ph/files/content/dam/globe/brie/AboutUs/newsroom/consumer/fete-de-la-musique/consumer-fete-de-la-musique-thumbnail-listing.jpg",
      "articleUrl": "https://www.globe.com.ph/about-us/newsroom/consumer/fete-de-la-musique.html",
      "columnType": "articles--type-3",
      "typeListing": "article",
      "imageMobile": "/sites/globe.com.ph/files/content/dam/globe/brie/AboutUs/newsroom/consumer/fete-de-la-musique/consumer-fete-de-la-musique-primary-thumbnail-m.jpg",
      "imageDesktop": "/sites/globe.com.ph/files/content/dam/globe/brie/AboutUs/newsroom/consumer/fete-de-la-musique/consumer-fete-de-la-musique-primary-thumbnail-d.jpg",
      "description": "Fête de la Musique like you’ve never seen it before. Visit the Globe Newsroom for the latest news on Globe Telecom.",
      "datePosted": "Jun 18, 2019 | 11:38 AM",
      "titleFromTag": "Consumer"
    },
    {
      "title": "AdSpark Bags Multiple Wins at Asia Pacific Tambuli Awards for Globe Telecom Campaigns",
      "nonclickable": false,
      "openNewTab": false,
      "borderArticle": "border-color:#0074D9;",
      "borderTopArticle": "border-top-color:#0074D9;",
      "imageListing": "/sites/globe.com.ph/files/content/dam/globe/brie/AboutUs/newsroom/partners/adspark-bags-multiple-tambuli-awards/partners-adspark-bags-multiple-asia-pacific-awards-thumbnail-listing.jpg",
      "articleUrl": "https://www.globe.com.ph/about-us/newsroom/partners/adspark-bags-multiple-tambuli-awards.html",
      "columnType": "articles--type-3",
      "typeListing": "article",
      "imageMobile": "/sites/globe.com.ph/files/content/dam/globe/brie/AboutUs/newsroom/partners/adspark-bags-multiple-tambuli-awards/partners-adspark-bags-multiple-asia-pacific-awards-primary-thumbnail-m.jpg",
      "imageDesktop": "/sites/globe.com.ph/files/content/dam/globe/brie/AboutUs/newsroom/partners/adspark-bags-multiple-tambuli-awards/partners-adspark-bags-multiple-asia-pacific-awards-primary-thumbnail-d.jpg",
      "description": "AdSpark bags multiple wins at the Asia Pacific Tambuli Awards for Globe Telecom campaigns. Visit the Globe Newsroom for the latest news on Globe Telecom.",
      "datePosted": "Jun 18, 2019 | 11:36 AM",
      "titleFromTag": "Partners"
    },
    {
      "title": "Globe Signs MOU with ISOC, edotco to Fast Track ICT Infra Build in PH",
      "nonclickable": false,
      "openNewTab": false,
      "borderArticle": "border-color:#0074D9;",
      "borderTopArticle": "border-top-color:#0074D9;",
      "imageListing": "/sites/globe.com.ph/files/content/dam/globe/brie/AboutUs/newsroom/common/updated/Corporate-globe-thumbnail-listing.jpg",
      "articleUrl": "https://www.globe.com.ph/about-us/newsroom/corporate/globe-signs-mou-isoc-edotco.html",
      "columnType": "articles--type-3",
      "typeListing": "article",
      "imageMobile": "/sites/globe.com.ph/files/content/dam/globe/brie/AboutUs/newsroom/common/updated/Corporate-globe-primary-thumbnail-m.jpg",
      "imageDesktop": "/sites/globe.com.ph/files/content/dam/globe/brie/AboutUs/newsroom/common/updated/Corporate-globe-primary-thumbnail-d.jpg",
      "description": "Globe signs MOU with ISOC and edotco to fast track ICT infra build in PH. Visit the Globe Newsroom for the latest news on Globe Telecom.",
      "datePosted": "Jun 17, 2019 | 10:40 AM",
      "titleFromTag": "Corporate"
    },
    {
      "title": "Tagani, Grupo Kalinangan, Antipara, AIDFI, LexMeet Lead 3rd Globe Future Makers Program",
      "nonclickable": false,
      "openNewTab": false,
      "borderArticle": "border-color:#0074D9;",
      "borderTopArticle": "border-top-color:#0074D9;",
      "imageListing": "/sites/globe.com.ph/files/content/dam/globe/brie/AboutUs/newsroom/corporate/3rd-globe-future-makers-program/corporate-tagani-grupo-kalinangan-antipara-thumbnail-listing.jpg",
      "articleUrl": "https://www.globe.com.ph/about-us/newsroom/corporate/3rd-globe-future-makers-program.html",
      "columnType": "articles--type-3",
      "typeListing": "article",
      "imageMobile": "/sites/globe.com.ph/files/content/dam/globe/brie/AboutUs/newsroom/corporate/3rd-globe-future-makers-program/corporate-tagani-grupo-kalinangan-antipara-primary-thumbnail-m.jpg",
      "imageDesktop": "/sites/globe.com.ph/files/content/dam/globe/brie/AboutUs/newsroom/corporate/3rd-globe-future-makers-program/corporate-tagani-grupo-kalinangan-antipara-primary-thumbnail-d.jpg",
      "description": "Tagani, Grupo Kalinangan, Antipara, AIDFI, and LexMeet lead the 3rd Globe Future Makers program. Visit the Globe Newsroom for the latest news on Globe Telecom.",
      "datePosted": "Jun 14, 2019 | 11:29 AM",
      "titleFromTag": "Corporate"
    },
    {
      "title": "Top Enterprise, Globe Business support Hineleban Foundation’s Rainforestation Efforts through Golf",
      "nonclickable": false,
      "openNewTab": false,
      "borderArticle": "border-color:#0074D9;",
      "borderTopArticle": "border-top-color:#0074D9;",
      "imageListing": "/sites/globe.com.ph/files/content/dam/globe/brie/AboutUs/newsroom/business/top-enterprise-globe-business-hineleban/business-top-enterprise-support-hineleban-thumbnail-listing.jpg",
      "articleUrl": "https://www.globe.com.ph/about-us/newsroom/business/top-enterprise-globe-business-hineleban.html",
      "columnType": "articles--type-3",
      "typeListing": "article",
      "imageMobile": "/sites/globe.com.ph/files/content/dam/globe/brie/AboutUs/newsroom/business/top-enterprise-globe-business-hineleban/business-top-enterprise-support-hineleban-primary-thumbnail-m.jpg",
      "imageDesktop": "/sites/globe.com.ph/files/content/dam/globe/brie/AboutUs/newsroom/business/top-enterprise-globe-business-hineleban/business-top-enterprise-support-hineleban-primary-thumbnail-d.jpg",
      "description": "Top enterprise, Globe Business support Hineleban Foundation’s “rainforestation” efforts through golf. Visit the Globe Newsroom for more company updates.",
      "datePosted": "Jun 14, 2019 | 10:41 AM",
      "titleFromTag": "Business"
    },
    {
      "title": "Eto Na! Musikal nAPO! Bags 5 Major Awards at the 11th Philstage Gawad Buhay Awards",
      "nonclickable": false,
      "openNewTab": false,
      "borderArticle": "border-color:#0074D9;",
      "borderTopArticle": "border-top-color:#0074D9;",
      "imageListing": "/sites/globe.com.ph/files/content/dam/globe/brie/AboutUs/newsroom/consumer/eto-na-musikal-napo-bags-awards/consumer-musikal-napo-5-major-awards-thumbnail-listing.jpg",
      "articleUrl": "https://www.globe.com.ph/about-us/newsroom/consumer/eto-na-musikal-napo-bags-awards.html",
      "columnType": "articles--type-3",
      "typeListing": "article",
      "imageMobile": "/sites/globe.com.ph/files/content/dam/globe/brie/AboutUs/newsroom/consumer/eto-na-musikal-napo-bags-awards/consumer-musikal-napo-5-major-awards-primary-thumbnail-m.jpg",
      "imageDesktop": "/sites/globe.com.ph/files/content/dam/globe/brie/AboutUs/newsroom/consumer/eto-na-musikal-napo-bags-awards/consumer-musikal-napo-5-major-awards-primary-thumbnail-d.jpg",
      "description": "Eto Na! Musikal nAPO! bags five major awards at the 11th Philstage Gawad Buhay Awards. Visit the Globe Newsroom for the latest news on Globe Telecom.",
      "datePosted": "Jun 14, 2019 | 09:07 AM",
      "titleFromTag": "Consumer"
    },
    {
      "title": "Globe Studios’ Films Nominated at the 42nd Gawad Urian Awards",
      "nonclickable": false,
      "openNewTab": false,
      "borderArticle": "border-color:#0074D9;",
      "borderTopArticle": "border-top-color:#0074D9;",
      "imageListing": "/sites/globe.com.ph/files/content/dam/globe/brie/AboutUs/newsroom/consumer/globe-studios-gawad-urian-awards/consumer-globe-studios-film-nominated-thumbnail-listing.jpg",
      "articleUrl": "https://www.globe.com.ph/about-us/newsroom/consumer/globe-studios-gawad-urian-awards.html",
      "columnType": "articles--type-3",
      "typeListing": "article",
      "imageMobile": "/sites/globe.com.ph/files/content/dam/globe/brie/AboutUs/newsroom/consumer/globe-studios-gawad-urian-awards/consumer-globe-studios-film-nominated-primary-thumbnail-m.jpg",
      "imageDesktop": "/sites/globe.com.ph/files/content/dam/globe/brie/AboutUs/newsroom/consumer/globe-studios-gawad-urian-awards/consumer-globe-studios-film-nominated-primary-thumbnail-d.jpg",
      "description": "Globe Studios’ films nominated at the 42nd Gawad Urian Awards. Visit the Globe Newsroom for the latest news on Globe Telecom.",
      "datePosted": "Jun 11, 2019 | 05:25 PM",
      "titleFromTag": "Consumer"
    },
    {
      "title": "Twice and TVXQ! are Ready to Shake Up Manila",
      "nonclickable": false,
      "openNewTab": false,
      "borderArticle": "border-color:#0074D9;",
      "borderTopArticle": "border-top-color:#0074D9;",
      "imageListing": "/sites/globe.com.ph/files/content/dam/globe/brie/AboutUs/newsroom/consumer/twice-tvxq-shake-up-manila/consumer-preselling-announcement-twice-and-TVXQ-thumbnail-listing.jpg",
      "articleUrl": "https://www.globe.com.ph/about-us/newsroom/consumer/twice-tvxq-shake-up-manila.html",
      "columnType": "articles--type-3",
      "typeListing": "article",
      "imageMobile": "/sites/globe.com.ph/files/content/dam/globe/brie/AboutUs/newsroom/consumer/twice-tvxq-shake-up-manila/consumer-preselling-announcement-twice-and-TVXQ-primary-thumbnail-m.jpg",
      "imageDesktop": "/sites/globe.com.ph/files/content/dam/globe/brie/AboutUs/newsroom/consumer/twice-tvxq-shake-up-manila/consumer-preselling-announcement-twice-and-TVXQ-primary-thumbnail-d.jpg",
      "description": "Twice and TVXQ! are ready to shake up Manila. Visit the Globe Newsroom for the latest news on Globe Telecom.",
      "datePosted": "May 31, 2019 | 11:02 AM",
      "titleFromTag": "Consumer"
    },
    {
      "title": "Globe Joins Hands with National Privacy Commission in Celebrating Privacy Awareness Week 2019",
      "nonclickable": false,
      "openNewTab": false,
      "borderArticle": "border-color:#0074D9;",
      "borderTopArticle": "border-top-color:#0074D9;",
      "imageListing": "/sites/globe.com.ph/files/content/dam/globe/brie/AboutUs/newsroom/common/updated/Corporate-globe-thumbnail-listing.jpg",
      "articleUrl": "https://www.globe.com.ph/about-us/newsroom/corporate/globe-npc-privacy-awareness-week2019.html",
      "columnType": "articles--type-3",
      "typeListing": "article",
      "imageMobile": "/sites/globe.com.ph/files/content/dam/globe/brie/AboutUs/newsroom/common/updated/Corporate-globe-primary-thumbnail-m.jpg",
      "imageDesktop": "/sites/globe.com.ph/files/content/dam/globe/brie/AboutUs/newsroom/common/updated/Corporate-globe-primary-thumbnail-d.jpg",
      "description": "Globe joins hands with National Privacy Commission in celebrating Privacy Awareness Week 2019. Visit the Globe Newsroom for the latest news on Globe Telecom.",
      "datePosted": "May 29, 2019 | 01:17 PM",
      "titleFromTag": "Corporate"
    }
  ]
}
