{
  "status": 200,
  "page": 207,
  "totalPage": 298,
  "range": "2473-2484",
  "total": 3573,
  "result": [
    {
      "title": "Innovative Content Offers, Promos Fuel Globe Mobile Data Traffic to Surge 5x",
      "nonclickable": false,
      "openNewTab": false,
      "borderArticle": "border-color:#0074D9;",
      "borderTopArticle": "border-top-color:#0074D9;",
      "imageListing": "/sites/globe.com.ph/files/content/dam/globe/brie/AboutUs/newsroom/common/updated/Corporate-globe-thumbnail-listing.jpg",
      "articleUrl": "https://www.globe.com.ph/about-us/newsroom/corporate/content-offers-promos-globe-data-surge-5x.html",
      "columnType": "articles--type-3",
      "typeListing": "article",
      "imageMobile": "/sites/globe.com.ph/files/content/dam/globe/brie/AboutUs/newsroom/common/updated/Corporate-globe-primary-thumbnail-m.jpg",
      "imageDesktop": "/sites/globe.com.ph/files/content/dam/globe/brie/AboutUs/newsroom/common/updated/Corporate-globe-primary-thumbnail-d.jpg",
      "description": "Innovative content offers and promos fuel Globe mobile data traffic to surge 5x. Visit the Globe Newsroom for the latest news on Globe Telecom.",
      "datePosted": "May 27, 2019 | 10:36 AM",
      "titleFromTag": "Corporate"
    },
    {
      "title": "GCash Launches CSR Arm GCash for Good",
      "nonclickable": false,
      "openNewTab": false,
      "borderArticle": "border-color:#0074D9;",
      "borderTopArticle": "border-top-color:#0074D9;",
      "imageListing": "/sites/globe.com.ph/files/content/dam/globe/brie/AboutUs/newsroom/common/updated/Corporate-globe-primary-thumbnail-d.jpg",
      "articleUrl": "https://www.globe.com.ph/about-us/newsroom/partners/csr-gcash-for-good.html",
      "columnType": "articles--type-3",
      "typeListing": "article",
      "imageMobile": "/sites/globe.com.ph/files/content/dam/globe/brie/AboutUs/newsroom/common/updated/Corporate-globe-primary-thumbnail-m.jpg",
      "imageDesktop": "/sites/globe.com.ph/files/content/dam/globe/brie/AboutUs/newsroom/common/updated/Corporate-globe-primary-thumbnail-d.jpg",
      "description": "GCash launches CSR arm GCash for Good. Visit the Globe Newsroom for the latest news on Globe Telecom.",
      "datePosted": "May 26, 2019 | 11:14 AM",
      "titleFromTag": "Partners"
    },
    {
      "title": "Globe Telecom Promotes Digital Inclusion for Residents in Remote Island of Antique",
      "nonclickable": false,
      "openNewTab": false,
      "borderArticle": "border-color:#1C91C5;",
      "borderTopArticle": "border-top-color:#1C91C5;",
      "imageListing": "/sites/globe.com.ph/files/content/dam/globe/brie/AboutUs/newsroom/sustainability/globe-promotes-digital-inclusion-antique/sustainability-promotes-digital-inclusion-thumbnail-listing.jpg",
      "articleUrl": "https://www.globe.com.ph/about-us/newsroom/sustainability/globe-promotes-digital-inclusion-antique.html",
      "columnType": "articles--type-3",
      "typeListing": "article",
      "imageMobile": "/sites/globe.com.ph/files/content/dam/globe/brie/AboutUs/newsroom/sustainability/globe-promotes-digital-inclusion-antique/sustainability-promotes-digital-inclusion-primary-thumbnail-m.jpg",
      "imageDesktop": "/sites/globe.com.ph/files/content/dam/globe/brie/AboutUs/newsroom/sustainability/globe-promotes-digital-inclusion-antique/sustainability-promotes-digital-inclusion-primary-thumbnail-d.jpg",
      "description": "Globe Telecom promotes digital inclusion for residents in the remote island of Antique. Visit the Globe Newsroom for the latest news on Globe Telecom.",
      "datePosted": "May 24, 2019 | 11:17 AM",
      "titleFromTag": "Sustainability"
    },
    {
      "title": "Step into “A Wondrous Place” with Globe and Disney’s Aladdin",
      "nonclickable": false,
      "openNewTab": false,
      "borderArticle": "border-color:#0074D9;",
      "borderTopArticle": "border-top-color:#0074D9;",
      "imageListing": "/sites/globe.com.ph/files/content/dam/globe/brie/AboutUs/newsroom/consumer/experience-globe-disney-aladdin/consumer-experience-a-whole-new-world-thumbnail-listing_v2.jpg",
      "articleUrl": "https://www.globe.com.ph/about-us/newsroom/consumer/wondrous-place-globe-disney-aladdin.html",
      "columnType": "articles--type-3",
      "typeListing": "article",
      "imageMobile": "/sites/globe.com.ph/files/content/dam/globe/brie/AboutUs/newsroom/consumer/experience-globe-disney-aladdin/consumer-experience-a-whole-new-world-primary-thumbnail-m-v4.jpg",
      "imageDesktop": "/sites/globe.com.ph/files/content/dam/globe/brie/AboutUs/newsroom/consumer/experience-globe-disney-aladdin/consumer-experience-a-whole-new-world-primary-thumbnail-d-v3.jpg",
      "description": "Step into “A Wondrous Place” with Globe and Disney’s Aladdin. Visit the Globe Newsroom for the latest news on Globe Telecom.",
      "datePosted": "May 22, 2019 | 11:06 AM",
      "titleFromTag": "Consumer"
    },
    {
      "title": "Sharon Cuneta, John Arcilla, Stars of Hit Thriller ‘Kuwaresma’ Urge audience to #PlayItRight",
      "nonclickable": false,
      "openNewTab": false,
      "borderArticle": "border-color:#0074D9;",
      "borderTopArticle": "border-top-color:#0074D9;",
      "imageListing": "/sites/globe.com.ph/files/content/dam/globe/brie/AboutUs/newsroom/consumer/stars-kuwaresma-urge-audience-playitright/consumer-stars-of-kuwaresma-playitright-thumbnail-listing.jpg",
      "articleUrl": "https://www.globe.com.ph/about-us/newsroom/consumer/stars-kuwaresma-urge-audience-playitright.html",
      "columnType": "articles--type-3",
      "typeListing": "article",
      "imageMobile": "/sites/globe.com.ph/files/content/dam/globe/brie/AboutUs/newsroom/consumer/stars-kuwaresma-urge-audience-playitright/consumer-stars-of-kuwaresma-playitright-primary-thumbnail-m.jpg",
      "imageDesktop": "/sites/globe.com.ph/files/content/dam/globe/brie/AboutUs/newsroom/consumer/stars-kuwaresma-urge-audience-playitright/consumer-stars-of-kuwaresma-playitright-primary-thumbnail-d.jpg",
      "description": "Sharon Cuneta, John Arcilla, stars of hit thriller Kuwaresma urge audience to #PlayItRight. Visit the Globe Newsroom for the latest news on Globe Telecom.",
      "datePosted": "May 22, 2019 | 10:07 AM",
      "titleFromTag": "Consumer"
    },
    {
      "title": "Globe, Beach Volleyball Republic Team Up for FIVB Beach Volleyball World Tour Boracay Open 2019",
      "nonclickable": false,
      "openNewTab": false,
      "borderArticle": "border-color:#1C91C5;",
      "borderTopArticle": "border-top-color:#1C91C5;",
      "imageListing": "/sites/globe.com.ph/files/content/dam/globe/brie/AboutUs/newsroom/common/updated/Corporate-globe-thumbnail-listing.jpg",
      "articleUrl": "https://www.globe.com.ph/about-us/newsroom/sustainability/globe-beach-voleyball-republic-team-up.html",
      "columnType": "articles--type-3",
      "typeListing": "article",
      "imageMobile": "/sites/globe.com.ph/files/content/dam/globe/brie/AboutUs/newsroom/common/updated/Corporate-globe-primary-thumbnail-m.jpg",
      "imageDesktop": "/sites/globe.com.ph/files/content/dam/globe/brie/AboutUs/newsroom/common/updated/Corporate-globe-primary-thumbnail-d.jpg",
      "description": "Globe, Beach Volleyball Republic team up for the FIVB Beach Volleyball World Tour Boracay Open 2019. Visit the Globe Newsroom for the latest news.",
      "datePosted": "May 21, 2019 | 10:44 AM",
      "titleFromTag": "Sustainability"
    },
    {
      "title": "Public Advisory: Update on Huawei Situation",
      "nonclickable": false,
      "openNewTab": false,
      "borderArticle": "border-color:#0074D9;",
      "borderTopArticle": "border-top-color:#0074D9;",
      "imageListing": "/sites/globe.com.ph/files/content/dam/globe/brie/AboutUs/newsroom/common/updated/Corporate-globe-thumbnail-listing.jpg",
      "articleUrl": "https://www.globe.com.ph/about-us/newsroom/corporate/public-advisory-update-huawei.html",
      "columnType": "articles--type-3",
      "typeListing": "article",
      "imageMobile": "/sites/globe.com.ph/files/content/dam/globe/brie/AboutUs/newsroom/common/updated/Corporate-globe-primary-thumbnail-m.jpg",
      "imageDesktop": "/sites/globe.com.ph/files/content/dam/globe/brie/AboutUs/newsroom/common/updated/Corporate-globe-primary-thumbnail-d.jpg",
      "description": "Read Globe's public advisory update on the U.S. trade ban on Huawei. Visit the Globe Newsroom for the latest news on Globe Telecom.",
      "datePosted": "May 21, 2019 | 10:24 AM",
      "titleFromTag": "Corporate"
    },
    {
      "title": "Public Advisory: Official Statement on U.S. Trade Ban on Huawei",
      "nonclickable": false,
      "openNewTab": false,
      "borderArticle": "border-color:#0074D9;",
      "borderTopArticle": "border-top-color:#0074D9;",
      "imageListing": "/sites/globe.com.ph/files/content/dam/globe/brie/AboutUs/newsroom/common/updated/Corporate-globe-thumbnail-listing.jpg",
      "articleUrl": "https://www.globe.com.ph/about-us/newsroom/corporate/official-statement-us-trade-ban-huawei.html",
      "columnType": "articles--type-3",
      "typeListing": "article",
      "imageMobile": "/sites/globe.com.ph/files/content/dam/globe/brie/AboutUs/newsroom/common/updated/Corporate-globe-primary-thumbnail-m.jpg",
      "imageDesktop": "/sites/globe.com.ph/files/content/dam/globe/brie/AboutUs/newsroom/common/updated/Corporate-globe-primary-thumbnail-d.jpg",
      "description": "Read Globe's official statement on the U.S. trade ban on Huawei. Visit the Globe Newsroom for the latest news on Globe Telecom.",
      "datePosted": "May 20, 2019 | 05:59 PM",
      "titleFromTag": "Corporate"
    },
    {
      "title": "Globe Business Provides PH Enterprises Access to Android Zero-Touch Enrollment",
      "nonclickable": false,
      "openNewTab": false,
      "borderArticle": "border-color:#0074D9;",
      "borderTopArticle": "border-top-color:#0074D9;",
      "imageListing": "/sites/globe.com.ph/files/content/dam/globe/brie/AboutUs/newsroom/business/globe-business-enterprises-android-zero-touch/business-provides-ph-enterprises-across-android-thumbnail-listing.jpg",
      "articleUrl": "https://www.globe.com.ph/about-us/newsroom/business/globe-business-enterprises-android-zero-touch.html",
      "columnType": "articles--type-3",
      "typeListing": "article",
      "imageMobile": "/sites/globe.com.ph/files/content/dam/globe/brie/AboutUs/newsroom/business/globe-business-enterprises-android-zero-touch/business-provides-ph-enterprises-across-android-primary-thumbnail-m.jpg",
      "imageDesktop": "/sites/globe.com.ph/files/content/dam/globe/brie/AboutUs/newsroom/business/globe-business-enterprises-android-zero-touch/business-provides-ph-enterprises-across-android-primary-thumbnail-d.jpg",
      "description": "Globe Business provides PH enterprises access to Android Zero-Touch Enrollment. Visit the Globe Newsroom for the latest news on Globe Telecom.",
      "datePosted": "May 20, 2019 | 03:14 PM",
      "titleFromTag": "Business"
    },
    {
      "title": "KonsultaMD Bags Major Awards at Kidlat Awards 2019",
      "nonclickable": false,
      "openNewTab": false,
      "borderArticle": "border-color:#0074D9;",
      "borderTopArticle": "border-top-color:#0074D9;",
      "imageListing": "/sites/globe.com.ph/files/content/dam/globe/brie/AboutUs/newsroom/common/updated/Corporate-globe-thumbnail-listing.jpg",
      "articleUrl": "https://www.globe.com.ph/about-us/newsroom/corporate/konsultamd-kidlat-awards2019.html",
      "columnType": "articles--type-3",
      "typeListing": "article",
      "imageMobile": "/sites/globe.com.ph/files/content/dam/globe/brie/AboutUs/newsroom/common/updated/Corporate-globe-primary-thumbnail-m.jpg",
      "imageDesktop": "/sites/globe.com.ph/files/content/dam/globe/brie/AboutUs/newsroom/common/updated/Corporate-globe-primary-thumbnail-d.jpg",
      "description": "KonsultaMD bags major awards at Kidlat Awards 2019. Visit the Globe Newsroom for the latest news on Globe Telecom.",
      "datePosted": "May 17, 2019 | 10:44 AM",
      "titleFromTag": "Corporate"
    },
    {
      "title": "“Ang Panahon ng Halimaw” Bags Grand Jury Prize for Best Picture at 67th FAMAS Awards",
      "nonclickable": false,
      "openNewTab": false,
      "borderArticle": "border-color:#0074D9;",
      "borderTopArticle": "border-top-color:#0074D9;",
      "imageListing": "/sites/globe.com.ph/files/content/dam/globe/brie/AboutUs/newsroom/consumer/ang-panahon-ng-halimaw-famas-award/consumer-ang-panahon-ng-halimaw-bags-grand-jury-prize-thumbnail-listing.jpg",
      "articleUrl": "https://www.globe.com.ph/about-us/newsroom/consumer/ang-panahon-ng-halimaw-famas-award.html",
      "columnType": "articles--type-3",
      "typeListing": "article",
      "imageMobile": "/sites/globe.com.ph/files/content/dam/globe/brie/AboutUs/newsroom/consumer/ang-panahon-ng-halimaw-famas-award/consumer-ang-panahon-ng-halimaw-bags-grand-jury-prize-primary-thumbnail-m.jpg",
      "imageDesktop": "/sites/globe.com.ph/files/content/dam/globe/brie/AboutUs/newsroom/consumer/ang-panahon-ng-halimaw-famas-award/consumer-ang-panahon-ng-halimaw-bags-grand-jury-prize-primary-thumbnail-d.jpg",
      "description": "“Ang Panahon ng Halimaw” bags Grand Jury Prize for Best Picture at 67th FAMAS Awards. Visit the Globe Newsroom for the latest news on Globe Telecom.",
      "datePosted": "May 17, 2019 | 10:23 AM",
      "titleFromTag": "Consumer"
    },
    {
      "title": "Experience A Whole New World with Globe and Disney’s Aladdin",
      "nonclickable": false,
      "openNewTab": false,
      "borderArticle": "border-color:#0074D9;",
      "borderTopArticle": "border-top-color:#0074D9;",
      "imageListing": "/sites/globe.com.ph/files/content/dam/globe/brie/AboutUs/newsroom/consumer/experience-globe-disney-aladdin/consumer-experience-a-whole-new-world-thumbnail-listing_v2.jpg",
      "articleUrl": "https://www.globe.com.ph/about-us/newsroom/consumer/experience-globe-disney-aladdin.html",
      "columnType": "articles--type-3",
      "typeListing": "article",
      "imageMobile": "/sites/globe.com.ph/files/content/dam/globe/brie/AboutUs/newsroom/consumer/experience-globe-disney-aladdin/consumer-experience-a-whole-new-world-primary-thumbnail-m-v4.jpg",
      "imageDesktop": "/sites/globe.com.ph/files/content/dam/globe/brie/AboutUs/newsroom/consumer/experience-globe-disney-aladdin/consumer-experience-a-whole-new-world-primary-thumbnail-d-v3.jpg",
      "description": "Experience a whole new world with Globe and Disney’s Aladdin. Visit the Globe Newsroom for the latest news on Globe Telecom.",
      "datePosted": "May 17, 2019 | 09:49 AM",
      "titleFromTag": "Consumer"
    }
  ]
}
