{
  "status": 200,
  "page": 208,
  "totalPage": 298,
  "range": "2485-2496",
  "total": 3573,
  "result": [
    {
      "title": "Globe Business Inspires Excellence Among PH Enterprises at 13th International ICT Awards",
      "nonclickable": false,
      "openNewTab": false,
      "borderArticle": "border-color:#0074D9;",
      "borderTopArticle": "border-top-color:#0074D9;",
      "imageListing": "/sites/globe.com.ph/files/content/dam/globe/brie/AboutUs/newsroom/business/globe-business-13th-intl-ict-awards/business-inspires-excellence-at-13ICT-thumbnail-listing.jpg",
      "articleUrl": "https://www.globe.com.ph/about-us/newsroom/business/globe-business-13th-intl-ict-awards.html",
      "columnType": "articles--type-3",
      "typeListing": "article",
      "imageMobile": "/sites/globe.com.ph/files/content/dam/globe/brie/AboutUs/newsroom/business/globe-business-13th-intl-ict-awards/business-inspires-excellence-at-13ICT-primary-thumbnail-m.jpg",
      "imageDesktop": "/sites/globe.com.ph/files/content/dam/globe/brie/AboutUs/newsroom/business/globe-business-13th-intl-ict-awards/business-inspires-excellence-at-13ICT-primary-thumbnail-d.jpg",
      "description": "Globe Business inspires excellence among PH enterprises at the 13th International ICT Awards. Visit the Globe Newsroom for the latest news on Globe Telecom.",
      "datePosted": "May 15, 2019 | 09:54 AM",
      "titleFromTag": "Business"
    },
    {
      "title": "Power Up Your Business in the Digital Age with Globe and Puregold at Negosyo Convention 2019",
      "nonclickable": false,
      "openNewTab": false,
      "borderArticle": "border-color:#0074D9;",
      "borderTopArticle": "border-top-color:#0074D9;",
      "imageListing": "/sites/globe.com.ph/files/content/dam/globe/brie/AboutUs/newsroom/business/power-business-negosyo-convention-2019/business-power-up-your-business-thumbnail-listing.jpg",
      "articleUrl": "https://www.globe.com.ph/about-us/newsroom/business/power-business-negosyo-convention-2019.html",
      "columnType": "articles--type-3",
      "typeListing": "article",
      "imageMobile": "/sites/globe.com.ph/files/content/dam/globe/brie/AboutUs/newsroom/business/power-business-negosyo-convention-2019/business-power-up-your-business-primary-thumbnail-m.jpg",
      "imageDesktop": "/sites/globe.com.ph/files/content/dam/globe/brie/AboutUs/newsroom/business/power-business-negosyo-convention-2019/business-power-up-your-business-primary-thumbnail-d.jpg",
      "description": "Power up your business in the digital age with Globe and Puregold at the Negosyo Convention 2019. Visit the Globe Newsroom for the latest news on Globe Telecom.",
      "datePosted": "May 15, 2019 | 09:44 AM",
      "titleFromTag": "Business"
    },
    {
      "title": "Mompreneurs Get Early Pampering for Mother’s Day",
      "nonclickable": false,
      "openNewTab": false,
      "borderArticle": "border-color:#0074D9;",
      "borderTopArticle": "border-top-color:#0074D9;",
      "imageListing": "/sites/globe.com.ph/files/content/dam/globe/brie/AboutUs/newsroom/business/mompreneurs-pampering-mothers-day/business-mompreneurs-get-early-pampering-thumbnail-listing.jpg",
      "articleUrl": "https://www.globe.com.ph/about-us/newsroom/business/mompreneurs-pampering-mothers-day.html",
      "columnType": "articles--type-3",
      "typeListing": "article",
      "imageMobile": "/sites/globe.com.ph/files/content/dam/globe/brie/AboutUs/newsroom/business/mompreneurs-pampering-mothers-day/business-mompreneurs-get-early-pampering-primary-thumbnail-m.jpg",
      "imageDesktop": "/sites/globe.com.ph/files/content/dam/globe/brie/AboutUs/newsroom/business/mompreneurs-pampering-mothers-day/business-mompreneurs-get-early-pampering-primary-thumbnail-d.jpg",
      "description": "Mompreneurs get early pampering for Mother’s Day. Visit the Globe Newsroom for the latest news on Globe Telecom.",
      "datePosted": "May 10, 2019 | 03:30 PM",
      "titleFromTag": "Business"
    },
    {
      "title": "Official Statement on 2019 Midterm Election",
      "nonclickable": false,
      "openNewTab": false,
      "borderArticle": "border-color:#0074D9;",
      "borderTopArticle": "border-top-color:#0074D9;",
      "imageListing": "/sites/globe.com.ph/files/content/dam/globe/brie/AboutUs/newsroom/common/updated/Corporate-globe-thumbnail-listing.jpg",
      "articleUrl": "https://www.globe.com.ph/about-us/newsroom/corporate/official-statement-on-2019-midterm-election.html",
      "columnType": "articles--type-3",
      "typeListing": "article",
      "imageMobile": "/sites/globe.com.ph/files/content/dam/globe/brie/AboutUs/newsroom/common/updated/Corporate-globe-primary-thumbnail-m.jpg",
      "imageDesktop": "/sites/globe.com.ph/files/content/dam/globe/brie/AboutUs/newsroom/common/updated/Corporate-globe-primary-thumbnail-d.jpg",
      "description": "Read Globe's official statement on 2019 Midterm Election. Visit the Globe Newsroom for the latest news on Globe Telecom.",
      "datePosted": "May 10, 2019 | 10:56 AM",
      "titleFromTag": "Corporate"
    },
    {
      "title": "Globe Telecom Supports Boracay Sustainability Week; Joins Beach Clean-Up Drive",
      "nonclickable": false,
      "openNewTab": false,
      "borderArticle": "border-color:#1C91C5;",
      "borderTopArticle": "border-top-color:#1C91C5;",
      "imageListing": "/sites/globe.com.ph/files/content/dam/globe/brie/AboutUs/newsroom/sustainability/globe-supports-boracay-sustainability/sustainability-supports-boracay-cleanup-drive-thumbnail-listing.jpg",
      "articleUrl": "https://www.globe.com.ph/about-us/newsroom/sustainability/globe-supports-boracay-sustainability.html",
      "columnType": "articles--type-3",
      "typeListing": "article",
      "imageMobile": "/sites/globe.com.ph/files/content/dam/globe/brie/AboutUs/newsroom/sustainability/globe-supports-boracay-sustainability/sustainability-supports-boracay-cleanup-drive-primary-thumbnail-m.jpg",
      "imageDesktop": "/sites/globe.com.ph/files/content/dam/globe/brie/AboutUs/newsroom/sustainability/globe-supports-boracay-sustainability/sustainability-supports-boracay-cleanup-drive-primary-thumbnail-d.jpg",
      "description": "Globe Telecom supports Boracay sustainability week and joins beach clean-up drive. Visit the Globe Newsroom for the latest news on Globe Telecom.",
      "datePosted": "May 09, 2019 | 12:37 PM",
      "titleFromTag": "Sustainability"
    },
    {
      "title": "Sharon Cuneta, John Arcilla Top-Bill Globe Studios and Reality Entertainment’s Mother’s Day Thriller “Kuwaresma”",
      "nonclickable": false,
      "openNewTab": false,
      "borderArticle": "border-color:#0074D9;",
      "borderTopArticle": "border-top-color:#0074D9;",
      "imageListing": "/sites/globe.com.ph/files/content/dam/globe/brie/AboutUs/newsroom/consumer/mothers-day-thriller-kuwaresma/consumer-kuwaresma-thumbnail-listing.jpg",
      "articleUrl": "https://www.globe.com.ph/about-us/newsroom/consumer/mothers-day-thriller-kuwaresma.html",
      "columnType": "articles--type-3",
      "typeListing": "article",
      "imageMobile": "/sites/globe.com.ph/files/content/dam/globe/brie/AboutUs/newsroom/consumer/mothers-day-thriller-kuwaresma/consumer-kuwaresma-primary-thumbnail-m.jpg",
      "imageDesktop": "/sites/globe.com.ph/files/content/dam/globe/brie/AboutUs/newsroom/consumer/mothers-day-thriller-kuwaresma/consumer-kuwaresma-primary-thumbnail-d.jpg",
      "description": "Sharon Cuneta and John Arcilla top-bill Globe Studios and Reality Entertainment’s Mother’s Day thriller “Kuwaresma.” Visit the Globe Newsroom for more.",
      "datePosted": "May 08, 2019 | 01:45 PM",
      "titleFromTag": "Consumer"
    },
    {
      "title": "Rural Bank of Digos: Combining Technology and Customer Experience to Achieve Success",
      "nonclickable": false,
      "openNewTab": false,
      "borderArticle": "border-color:#0074D9;",
      "borderTopArticle": "border-top-color:#0074D9;",
      "imageListing": "/sites/globe.com.ph/files/content/dam/globe/brie/AboutUs/newsroom/business/rural-bank-of-digos-tech-customer-experience/business-gowifi-win-big-at-stevie-awards-thumbnail-listing.jpg",
      "articleUrl": "https://www.globe.com.ph/about-us/newsroom/business/rural-bank-of-digos-tech-customer-experience.html",
      "columnType": "articles--type-3",
      "typeListing": "article",
      "imageMobile": "/sites/globe.com.ph/files/content/dam/globe/brie/AboutUs/newsroom/business/rural-bank-of-digos-tech-customer-experience/business-gowifi-win-big-at-stevie-awards-primary-thumbnail-m.jpg",
      "imageDesktop": "/sites/globe.com.ph/files/content/dam/globe/brie/AboutUs/newsroom/business/rural-bank-of-digos-tech-customer-experience/business-gowifi-win-big-at-stevie-awards-primary-thumbnail-d.jpg",
      "description": "Rural Bank of Digos: Combining technology and customer experience to achieve success. Visit the Globe Newsroom for the latest news on Globe Telecom.",
      "datePosted": "May 08, 2019 | 01:28 PM",
      "titleFromTag": "Business"
    },
    {
      "title": "Globe Telecom’s Strong Mobile Performance Disproves Global Telco Market Prediction of Revenue Downfall",
      "nonclickable": false,
      "openNewTab": false,
      "borderArticle": "border-color:#0074D9;",
      "borderTopArticle": "border-top-color:#0074D9;",
      "imageListing": "/sites/globe.com.ph/files/content/dam/globe/brie/AboutUs/newsroom/common/updated/Corporate-globe-thumbnail-listing.jpg",
      "articleUrl": "https://www.globe.com.ph/about-us/newsroom/corporate/globe-telecom-strong-mobile-performance.html",
      "columnType": "articles--type-3",
      "typeListing": "article",
      "imageMobile": "/sites/globe.com.ph/files/content/dam/globe/brie/AboutUs/newsroom/common/updated/Corporate-globe-primary-thumbnail-m.jpg",
      "imageDesktop": "/sites/globe.com.ph/files/content/dam/globe/brie/AboutUs/newsroom/common/updated/Corporate-globe-primary-thumbnail-d.jpg",
      "description": "Globe Telecom’s strong mobile performance disproves global telco market prediction of revenue downfall. Visit the Globe Newsroom for the latest news on Globe",
      "datePosted": "May 06, 2019 | 12:59 PM",
      "titleFromTag": "Corporate"
    },
    {
      "title": "Globe Announces First Quarter 2019 Results: Sharp Rise in Profit Margins; EBITDA Margin of 55%",
      "nonclickable": false,
      "openNewTab": false,
      "borderArticle": "border-color:#0074D9;",
      "borderTopArticle": "border-top-color:#0074D9;",
      "imageListing": "/sites/globe.com.ph/files/content/dam/globe/brie/AboutUs/newsroom/common/updated/Corporate-globe-thumbnail-listing.jpg",
      "articleUrl": "https://www.globe.com.ph/about-us/newsroom/corporate/globe-announces-q1-2019-results.html",
      "columnType": "articles--type-3",
      "typeListing": "article",
      "imageMobile": "/sites/globe.com.ph/files/content/dam/globe/brie/AboutUs/newsroom/common/updated/Corporate-globe-primary-thumbnail-m.jpg",
      "imageDesktop": "/sites/globe.com.ph/files/content/dam/globe/brie/AboutUs/newsroom/common/updated/Corporate-globe-primary-thumbnail-d.jpg",
      "description": "Globe announces first quarter 2019 results. Visit the Globe Newsroom for the latest news on Globe Telecom.",
      "datePosted": "May 06, 2019 | 10:00 AM",
      "titleFromTag": "Corporate"
    },
    {
      "title": "Kickstart Ventures, Inc. to Manage New $150M Venture Capital Fund of Ayala Corp.",
      "nonclickable": false,
      "openNewTab": false,
      "borderArticle": "border-color:#0074D9;",
      "borderTopArticle": "border-top-color:#0074D9;",
      "imageListing": "/sites/globe.com.ph/files/content/dam/globe/brie/AboutUs/newsroom/common/updated/Corporate-globe-thumbnail-listing.jpg",
      "articleUrl": "https://www.globe.com.ph/about-us/newsroom/partners/kickstart-ventures-manage-new-capital-fund.html",
      "columnType": "articles--type-3",
      "typeListing": "article",
      "imageMobile": "/sites/globe.com.ph/files/content/dam/globe/brie/AboutUs/newsroom/common/updated/Corporate-globe-primary-thumbnail-m.jpg",
      "imageDesktop": "/sites/globe.com.ph/files/content/dam/globe/brie/AboutUs/newsroom/common/updated/Corporate-globe-primary-thumbnail-d.jpg",
      "description": "Kickstart Ventures, Inc. to manage new $150M venture capital fund of Ayala Corporation. Visit the Globe Newsroom for the latest news on Globe Telecom.",
      "datePosted": "May 02, 2019 | 01:54 PM",
      "titleFromTag": "Partners"
    },
    {
      "title": "Globe Business, GoWiFi Win Big at Stevie Awards, Bag 2 Major Awards",
      "nonclickable": false,
      "openNewTab": false,
      "borderArticle": "border-color:#0074D9;",
      "borderTopArticle": "border-top-color:#0074D9;",
      "imageListing": "/sites/globe.com.ph/files/content/dam/globe/brie/AboutUs/newsroom/common/updated/Corporate-globe-thumbnail-listing.jpg",
      "articleUrl": "https://www.globe.com.ph/about-us/newsroom/corporate/globe-business-gowifi-win-stevie-awards.html",
      "columnType": "articles--type-3",
      "typeListing": "article",
      "imageMobile": "/sites/globe.com.ph/files/content/dam/globe/brie/AboutUs/newsroom/common/updated/Corporate-globe-primary-thumbnail-m.jpg",
      "imageDesktop": "/sites/globe.com.ph/files/content/dam/globe/brie/AboutUs/newsroom/common/updated/Corporate-globe-primary-thumbnail-d.jpg",
      "description": "Globe Business and GoWiFi win big at Stevie Awards and bags two major awards. Visit the Globe Newsroom for the latest news on Globe Telecom.",
      "datePosted": "May 02, 2019 | 12:42 PM",
      "titleFromTag": "Corporate"
    },
    {
      "title": "Get a Chance to Fly to US and Watch NBA Playoffs 2019 LIVE with Globe At Home",
      "nonclickable": false,
      "openNewTab": false,
      "borderArticle": "border-color:#0074D9;",
      "borderTopArticle": "border-top-color:#0074D9;",
      "imageListing": "/sites/globe.com.ph/files/content/dam/globe/brie/AboutUs/newsroom/consumer/watch-nba-playoffs-2019-live-globe-at-home/consumer-get-a-chance-to-fly-to-us-NBA-thumbnail-listing.jpg",
      "articleUrl": "https://www.globe.com.ph/about-us/newsroom/consumer/watch-nba-playoffs-2019-live-globe-at-home.html",
      "columnType": "articles--type-3",
      "typeListing": "article",
      "imageMobile": "/sites/globe.com.ph/files/content/dam/globe/brie/AboutUs/newsroom/consumer/watch-nba-playoffs-2019-live-globe-at-home/consumer-get-a-chance-to-fly-to-us-NBA-primary-thumbnail-m_v2.jpg",
      "imageDesktop": "/sites/globe.com.ph/files/content/dam/globe/brie/AboutUs/newsroom/consumer/watch-nba-playoffs-2019-live-globe-at-home/consumer-get-a-chance-to-fly-to-us-NBA-primary-thumbnail-d.jpg",
      "description": "Get a chance to fly to the US and watch NBA Playoffs 2019 LIVE with Globe At Home. Visit the Globe Newsroom for the latest news on Globe Telecom.",
      "datePosted": "Apr 30, 2019 | 02:36 PM",
      "titleFromTag": "Consumer"
    }
  ]
}
