{
  "status": 200,
  "page": 209,
  "totalPage": 298,
  "range": "2497-2508",
  "total": 3573,
  "result": [
    {
      "title": "Watch, Be Inspired, Create Change to Help Mother Earth in Your Own Little Way",
      "nonclickable": false,
      "openNewTab": false,
      "borderArticle": "border-color:#1C91C5;",
      "borderTopArticle": "border-top-color:#1C91C5;",
      "imageListing": "/sites/globe.com.ph/files/content/dam/globe/brie/AboutUs/newsroom/sustainability/watch-inspire-help-mother-earth/sustainability-watch-be-inspired-thumbnail-listing.jpg",
      "articleUrl": "https://www.globe.com.ph/about-us/newsroom/sustainability/watch-inspire-help-mother-earth.html",
      "columnType": "articles--type-3",
      "typeListing": "article",
      "imageMobile": "/sites/globe.com.ph/files/content/dam/globe/brie/AboutUs/newsroom/sustainability/watch-inspire-help-mother-earth/sustainability-watch-be-inspired-primary-thumbnail-m.jpg",
      "imageDesktop": "/sites/globe.com.ph/files/content/dam/globe/brie/AboutUs/newsroom/sustainability/watch-inspire-help-mother-earth/sustainability-watch-be-inspired-primary-thumbnail-d.jpg",
      "description": "Watch, be inspired, and create change to help Mother Earth in your own little way. Visit the Globe Newsroom for the latest news on Globe Telecom.",
      "datePosted": "Apr 29, 2019 | 04:13 PM",
      "titleFromTag": "Sustainability"
    },
    {
      "title": "Globe Joins Asia’s Biggest Pay TV Conference at APOS 2019",
      "nonclickable": false,
      "openNewTab": false,
      "borderArticle": "border-color:#0074D9;",
      "borderTopArticle": "border-top-color:#0074D9;",
      "imageListing": "/sites/globe.com.ph/files/content/dam/globe/brie/AboutUs/newsroom/corporate/globe-joins-apos2019/corporate-globe-joins-asia-biggest-pay-thumbnail-listing.jpg",
      "articleUrl": "https://www.globe.com.ph/about-us/newsroom/corporate/globe-joins-apos2019.html",
      "columnType": "articles--type-3",
      "typeListing": "article",
      "imageMobile": "/sites/globe.com.ph/files/content/dam/globe/brie/AboutUs/newsroom/corporate/globe-joins-apos2019/corporate-globe-joins-asia-biggest-pay-primary-thumbnail-m.jpg",
      "imageDesktop": "/sites/globe.com.ph/files/content/dam/globe/brie/AboutUs/newsroom/corporate/globe-joins-apos2019/corporate-globe-joins-asia-biggest-pay-primary-thumbnail-d.jpg",
      "description": "Globe joins Asia’s biggest Pay TV conference at APOS 2019. Visit the Globe Newsroom for the latest news on Globe Telecom.",
      "datePosted": "Apr 29, 2019 | 04:13 PM",
      "titleFromTag": "Corporate"
    },
    {
      "title": "Complete the Mission for Marvel Studios’ Avengers: Endgame with Globe!",
      "nonclickable": false,
      "openNewTab": false,
      "borderArticle": "border-color:#0074D9;",
      "borderTopArticle": "border-top-color:#0074D9;",
      "imageListing": "/sites/globe.com.ph/files/content/dam/globe/brie/AboutUs/newsroom/consumer/complete-the-mission-avengers-endgame/consumer-complete-the-mission-for-marvel-studios-thumbnail-listing.jpg",
      "articleUrl": "https://www.globe.com.ph/about-us/newsroom/consumer/complete-the-mission-avengers-endgame.html",
      "columnType": "articles--type-3",
      "typeListing": "article",
      "imageMobile": "/sites/globe.com.ph/files/content/dam/globe/brie/AboutUs/newsroom/consumer/complete-the-mission-avengers-endgame/consumer-complete-the-mission-for-marvel-studios-primary-thumbnail-m.jpg",
      "imageDesktop": "/sites/globe.com.ph/files/content/dam/globe/brie/AboutUs/newsroom/consumer/complete-the-mission-avengers-endgame/consumer-complete-the-mission-for-marvel-studios-primary-thumbnail-d.jpg",
      "description": "Complete the mission for Marvel Studios’ Avengers: Endgame with Globe! Visit the Globe Newsroom for the latest news on Globe Telecom.",
      "datePosted": "Apr 29, 2019 | 11:43 AM",
      "titleFromTag": "Consumer"
    },
    {
      "title": "Globe myBusiness Sets Up Special MSME Corner in Globe Stores to Bring Business Solutions Closer to Entrepreneurs",
      "nonclickable": false,
      "openNewTab": false,
      "borderArticle": "border-color:#0074D9;",
      "borderTopArticle": "border-top-color:#0074D9;",
      "imageListing": "/sites/globe.com.ph/files/content/dam/globe/brie/AboutUs/newsroom/business/globe-mybusiness-msme-corner/business-globe-mybusiness-sets-up-special-MSME-thumbnail-listing.jpg",
      "articleUrl": "https://www.globe.com.ph/about-us/newsroom/business/globe-mybusiness-msme-corner.html",
      "columnType": "articles--type-3",
      "typeListing": "article",
      "imageMobile": "/sites/globe.com.ph/files/content/dam/globe/brie/AboutUs/newsroom/business/globe-mybusiness-msme-corner/business-globe-mybusiness-sets-up-special-MSME-primary-thumbnail-m.jpg",
      "imageDesktop": "/sites/globe.com.ph/files/content/dam/globe/brie/AboutUs/newsroom/business/globe-mybusiness-msme-corner/business-globe-mybusiness-sets-up-special-MSME-primary-thumbnail-d.jpg",
      "description": "Globe myBusiness sets up special MSME corner in Globe Stores to bring business solutions closer to entrepreneurs. Visit the Globe Newsroom for more.",
      "datePosted": "Apr 29, 2019 | 11:41 AM",
      "titleFromTag": "Business"
    },
    {
      "title": "GoWiFi Expands Coverage to Over 2,000 Sites Nationwide",
      "nonclickable": false,
      "openNewTab": false,
      "borderArticle": "border-color:#0074D9;",
      "borderTopArticle": "border-top-color:#0074D9;",
      "imageListing": "/sites/globe.com.ph/files/content/dam/globe/brie/About-us/Newsroom/image/Corporate/generic-banner/Corporate_Globe_Listing.jpg",
      "articleUrl": "https://www.globe.com.ph/about-us/newsroom/corporate/gowifi-expands-coverage-over-2000-sites.html",
      "columnType": "articles--type-3",
      "typeListing": "article",
      "imageMobile": "/sites/globe.com.ph/files/content/dam/globe/brie/About-us/Newsroom/image/Corporate/generic-banner/Corporate-globe-primary-thumbnail-m.jpg",
      "imageDesktop": "/sites/globe.com.ph/files/content/dam/globe/brie/About-us/Newsroom/image/Corporate/generic-banner/Corporate-globe-primary-thumbnail-d.jpg",
      "description": "GoWiFi expands coverage to over 2,000 sites nationwide. Visit the Globe Newsroom for the latest news on Globe Telecom.",
      "datePosted": "Apr 26, 2019 | 12:08 PM",
      "titleFromTag": "Corporate"
    },
    {
      "title": "Mober and Globe myBusiness: Driving Success for SMEs",
      "nonclickable": false,
      "openNewTab": false,
      "borderArticle": "border-color:#0074D9;",
      "borderTopArticle": "border-top-color:#0074D9;",
      "imageListing": "/sites/globe.com.ph/files/content/dam/globe/brie/AboutUs/newsroom/business/mober-globe-mybusiness-driving-success/business-mober-and-globe-mybusiness-thumbnail-listing.jpg",
      "articleUrl": "https://www.globe.com.ph/about-us/newsroom/business/mober-globe-mybusiness-driving-success.html",
      "columnType": "articles--type-3",
      "typeListing": "article",
      "imageMobile": "/sites/globe.com.ph/files/content/dam/globe/brie/AboutUs/newsroom/business/mober-globe-mybusiness-driving-success/business-mober-and-globe-mybusiness-primary-thumbnail-m.jpg",
      "imageDesktop": "/sites/globe.com.ph/files/content/dam/globe/brie/AboutUs/newsroom/business/mober-globe-mybusiness-driving-success/business-mober-and-globe-mybusiness-primary-thumbnail-d.jpg",
      "description": "Mober and Globe myBusiness: Driving success for SMEs. Visit the Globe Newsroom for the latest news on Globe Telecom.",
      "datePosted": "Apr 24, 2019 | 03:17 PM",
      "titleFromTag": "Business"
    },
    {
      "title": "Team Liyab to Represent PH at League of Legends SEA Tour",
      "nonclickable": false,
      "openNewTab": false,
      "borderArticle": "border-color:#0074D9;",
      "borderTopArticle": "border-top-color:#0074D9;",
      "imageListing": "/sites/globe.com.ph/files/content/dam/globe/brie/AboutUs/newsroom/corporate/team-liyab-to-represent-ph-lol-sea/corporate-team-liyab-to-represent-ph-at-lol-thumbnail-listing.jpg",
      "articleUrl": "https://www.globe.com.ph/about-us/newsroom/corporate/team-liyab-to-represent-ph-lol-sea.html",
      "columnType": "articles--type-3",
      "typeListing": "article",
      "imageMobile": "/sites/globe.com.ph/files/content/dam/globe/brie/AboutUs/newsroom/corporate/team-liyab-to-represent-ph-lol-sea/corporate-team-liyab-to-represent-ph-at-lol-primary-thumbnail-m.jpg",
      "imageDesktop": "/sites/globe.com.ph/files/content/dam/globe/brie/AboutUs/newsroom/corporate/team-liyab-to-represent-ph-lol-sea/corporate-team-liyab-to-represent-ph-at-lol-primary-thumbnail-d.jpg",
      "description": "Team Liyab to represent PH at League of Legends SEA Tour. Visit the Globe Newsroom for the latest news on Globe Telecom.",
      "datePosted": "Apr 23, 2019 | 12:57 PM",
      "titleFromTag": "Corporate"
    },
    {
      "title": "Globe Public Advisory on Services in Pampanga (Post-Earthquake)",
      "nonclickable": false,
      "openNewTab": false,
      "borderArticle": "border-color:#0074D9;",
      "borderTopArticle": "border-top-color:#0074D9;",
      "imageListing": "/sites/globe.com.ph/files/content/dam/globe/brie/AboutUs/newsroom/common/Corporate_Globe_Listing.jpg",
      "articleUrl": "https://www.globe.com.ph/about-us/newsroom/corporate/public-advisory-services-pampanga.html",
      "columnType": "articles--type-3",
      "typeListing": "article",
      "imageMobile": "/sites/globe.com.ph/files/content/dam/globe/brie/AboutUs/newsroom/common/Corporate_Globe_Hero-Banner-Mobile.jpg",
      "imageDesktop": "/sites/globe.com.ph/files/content/dam/globe/brie/AboutUs/newsroom/common/Corporate_Globe_Primary-Desktop-Thumbnail.jpg",
      "description": "Read Globe's public advisory on services in Pampanga, post-earthquake. Visit the Globe Newsroom for the latest news on Globe Telecom.",
      "datePosted": "Apr 23, 2019 | 11:10 AM",
      "titleFromTag": "Corporate"
    },
    {
      "title": "The Wildest Predictions on How Marvel Studios’ Avengers: Endgame will End",
      "nonclickable": false,
      "openNewTab": false,
      "borderArticle": "border-color:#0074D9;",
      "borderTopArticle": "border-top-color:#0074D9;",
      "imageListing": "/sites/globe.com.ph/files/content/dam/globe/brie/AboutUs/newsroom/consumer/get-movies-passes-avengers-endgame/consumer-get-movie-passes-to-marvel-studios-avengers-endgame-thumbnail-listing.jpg",
      "articleUrl": "https://www.globe.com.ph/about-us/newsroom/consumer/wildest-predictions-avengers-endgame.html",
      "columnType": "articles--type-3",
      "typeListing": "article",
      "imageMobile": "/sites/globe.com.ph/files/content/dam/globe/brie/AboutUs/newsroom/consumer/get-movies-passes-avengers-endgame/consumer-get-movie-passes-to-marvel-studios-avengers-endgame-banner-primary-thumb-m.jpg",
      "imageDesktop": "/sites/globe.com.ph/files/content/dam/globe/brie/AboutUs/newsroom/consumer/get-movies-passes-avengers-endgame/consumer-get-movie-passes-to-marvel-studios-avengers-endgame-primary-thumbnail.jpg",
      "description": "Get to know the wildest predictions on how Marvel Studios’ Avengers: Endgame will end. Visit the Globe Newsroom for the latest news on Globe Telecom.",
      "datePosted": "Apr 23, 2019 | 10:37 AM",
      "titleFromTag": "Consumer"
    },
    {
      "title": "GoWiFi and Quezon City LGU Partner for Free, High-Quality Internet Connectivity",
      "nonclickable": false,
      "openNewTab": false,
      "borderArticle": "border-color:#0074D9;",
      "borderTopArticle": "border-top-color:#0074D9;",
      "imageListing": "/sites/globe.com.ph/files/content/dam/globe/brie/AboutUs/newsroom/partners/gowifi-quezon-city-partner-free-internet/partners-GoWifi-QC-LGU-Partner-thumbnail-listing.jpg",
      "articleUrl": "https://www.globe.com.ph/about-us/newsroom/partners/gowifi-quezon-city-partner-free-internet.html",
      "columnType": "articles--type-3",
      "typeListing": "article",
      "imageMobile": "/sites/globe.com.ph/files/content/dam/globe/brie/AboutUs/newsroom/partners/gowifi-quezon-city-partner-free-internet/partners-GoWifi-QC-LGU-Partner-primary-thumbnail-m.jpg",
      "imageDesktop": "/sites/globe.com.ph/files/content/dam/globe/brie/AboutUs/newsroom/partners/gowifi-quezon-city-partner-free-internet/partners-GoWifi-QC-LGU-Partner-primary-thumbnail-d.jpg",
      "description": "GoWiFi and Quezon City LGU partner for free, high-quality internet connectivity. Visit the Globe Newsroom for the latest news on Globe Telecom.",
      "datePosted": "Apr 23, 2019 | 10:36 AM",
      "titleFromTag": "Partners"
    },
    {
      "title": "GMovies: Changing Film Experience through Data and Convenience",
      "nonclickable": false,
      "openNewTab": false,
      "borderArticle": "border-color:#0074D9;",
      "borderTopArticle": "border-top-color:#0074D9;",
      "imageListing": "/sites/globe.com.ph/files/content/dam/globe/brie/AboutUs/newsroom/consumer/gmovies-changing-film-experience/consumer-Gmovies-changing-film-experience-thumbnail-listing.jpg",
      "articleUrl": "https://www.globe.com.ph/about-us/newsroom/consumer/gmovies-changing-film-experience.html",
      "columnType": "articles--type-3",
      "typeListing": "article",
      "imageMobile": "/sites/globe.com.ph/files/content/dam/globe/brie/AboutUs/newsroom/consumer/gmovies-changing-film-experience/consumer-Gmovies-changing-film-experience-primary-thumbnail-m.jpg",
      "imageDesktop": "/sites/globe.com.ph/files/content/dam/globe/brie/AboutUs/newsroom/consumer/gmovies-changing-film-experience/consumer-Gmovies-changing-film-experience-primary-thumbnail-d.jpg",
      "description": "GMovies: Changing film experience through data and convenience. Visit the Globe Newsroom for the latest news on Globe Telecom.",
      "datePosted": "Apr 22, 2019 | 03:07 PM",
      "titleFromTag": "Consumer"
    },
    {
      "title": "Get Movie Passes to this Year’s Biggest Superhero Blockbuster, Marvel Studios’ Avengers: Endgame, with Globe At Home and Globe Postpaid!",
      "nonclickable": false,
      "openNewTab": false,
      "borderArticle": "border-color:#0074D9;",
      "borderTopArticle": "border-top-color:#0074D9;",
      "imageListing": "/sites/globe.com.ph/files/content/dam/globe/brie/AboutUs/newsroom/consumer/get-movies-passes-avengers-endgame/consumer-get-movie-passes-to-marvel-studios-avengers-endgame-thumbnail-listing.jpg",
      "articleUrl": "https://www.globe.com.ph/about-us/newsroom/consumer/get-movies-passes-avengers-endgame.html",
      "columnType": "articles--type-3",
      "typeListing": "article",
      "imageMobile": "/sites/globe.com.ph/files/content/dam/globe/brie/AboutUs/newsroom/consumer/get-movies-passes-avengers-endgame/consumer-get-movie-passes-to-marvel-studios-avengers-endgame-banner-primary-thumb-m.jpg",
      "imageDesktop": "/sites/globe.com.ph/files/content/dam/globe/brie/AboutUs/newsroom/consumer/get-movies-passes-avengers-endgame/consumer-get-movie-passes-to-marvel-studios-avengers-endgame-primary-thumbnail.jpg",
      "description": "Get movie passes to this year’s biggest superhero blockbuster Marvel Studios’ Avengers: Endgame with Globe At Home and Globe Postpaid! Learn more here.",
      "datePosted": "Apr 17, 2019 | 12:45 PM",
      "titleFromTag": "Consumer"
    }
  ]
}
