{
  "status": 200,
  "page": 21,
  "totalPage": 298,
  "range": "241-252",
  "total": 3573,
  "result": [
    {
      "title": "SMAC Turns over ₱5.5M in Funds Raised for The Hapag Movement, Thanks Customers for Support",
      "nonclickable": false,
      "openNewTab": false,
      "borderArticle": "border-color:#0074D9;",
      "borderTopArticle": "border-top-color:#0074D9;",
      "imageListing": "/sites/globe.com.ph/files/content/dam/globe/brie/AboutUs/newsroom/common/default-corporate/thumbnail-listing.jpg",
      "articleUrl": "https://www.globe.com.ph/about-us/newsroom/sustainability/smac-turns-over-5m-funds-raised-the-hapag-movement.html",
      "columnType": "articles--type-3",
      "typeListing": "article",
      "imageMobile": "/sites/globe.com.ph/files/content/dam/globe/brie/AboutUs/newsroom/common/default-corporate/primary-thumbnail-m.jpg",
      "imageDesktop": "/sites/globe.com.ph/files/content/dam/globe/brie/AboutUs/newsroom/common/default-corporate/primary-thumbnail-d.jpg",
      "description": "SMAC (SM Advantage Card), the biggest loyalty program of retail giant SM, has donated P5.5 million to The Hapag Movement gathered over the holidays.",
      "datePosted": "Jun 22, 2023 | 11:32 AM",
      "titleFromTag": "Sustainability"
    },
    {
      "title": "Globe, Aboitiz Celebrate Tower Deal; Vow to Work Together for Transformative Change in PH",
      "nonclickable": false,
      "openNewTab": false,
      "borderArticle": "border-color:#0074D9;",
      "borderTopArticle": "border-top-color:#0074D9;",
      "imageListing": "/sites/globe.com.ph/files/content/dam/globe/brie/AboutUs/newsroom/common/default-corporate-main/newsroom-default-corporate-thumbnail-listing.jpg",
      "articleUrl": "https://www.globe.com.ph/about-us/newsroom/corporate/globe-aboitiz-celebrate-tower-deal.html",
      "columnType": "articles--type-3",
      "typeListing": "article",
      "imageMobile": "/sites/globe.com.ph/files/content/dam/globe/brie/AboutUs/newsroom/common/default-corporate-main/newsroom-default-corporate-primary-thumbnail-m.jpg",
      "imageDesktop": "/sites/globe.com.ph/files/content/dam/globe/brie/AboutUs/newsroom/common/default-corporate-main/newsroom-default-corporate-primary-thumbnail-d.jpg",
      "description": "Globe and the Aboitiz Group have vowed to pursue transformative change in the country through more connected and digitally empowered Filipinos.",
      "datePosted": "Jun 22, 2023 | 11:20 AM",
      "titleFromTag": "Corporate"
    },
    {
      "title": "Globe Group Employees Showcase Strength, Determination at 2023 Ironman Philippines",
      "nonclickable": false,
      "openNewTab": false,
      "borderArticle": "border-color:#0074D9;",
      "borderTopArticle": "border-top-color:#0074D9;",
      "imageListing": "/sites/globe.com.ph/files/content/dam/globe/brie/AboutUs/newsroom/common/default-corporate-15/corp-default-images-thumbnail-listing.jpg",
      "articleUrl": "https://www.globe.com.ph/about-us/newsroom/corporate/globe-group-employees-2023-ironman-ph.html",
      "columnType": "articles--type-3",
      "typeListing": "article",
      "imageMobile": "/sites/globe.com.ph/files/content/dam/globe/brie/AboutUs/newsroom/common/default-corporate-15/corp-default-images-primary-thumbnail-m.jpg",
      "imageDesktop": "/sites/globe.com.ph/files/content/dam/globe/brie/AboutUs/newsroom/common/default-corporate-15/corp-default-images-primary-thumbnail-d.jpg",
      "description": "Leading digital solutions platform Globe celebrates the successful participation of its employees at the recent 2023 Ironman Philippines triathlon. ",
      "datePosted": "Jun 20, 2023 | 03:30 PM",
      "titleFromTag": "Corporate"
    },
    {
      "title": "STT GDC Philippines Expands Capacity in Three Data Centers",
      "nonclickable": false,
      "openNewTab": false,
      "borderArticle": "border-color:#0074D9;",
      "borderTopArticle": "border-top-color:#0074D9;",
      "imageListing": "/sites/globe.com.ph/files/content/dam/globe/brie/AboutUs/newsroom/common/default-corporate-5/corp-thumbnail-listing.jpg",
      "articleUrl": "https://www.globe.com.ph/about-us/newsroom/corporate/stt-gdc-ph-expands-capacity.html",
      "columnType": "articles--type-3",
      "typeListing": "article",
      "imageMobile": "/sites/globe.com.ph/files/content/dam/globe/brie/AboutUs/newsroom/common/default-corporate-5/corp-primary-thumbnail-m.jpg",
      "imageDesktop": "/sites/globe.com.ph/files/content/dam/globe/brie/AboutUs/newsroom/common/default-corporate-5/corp-primary-thumbnail-d.jpg",
      "description": "STT GDC Philippines and Singapore-based ST Telemedia Global Data Centres (STT GDC) is set to expand its capacity by a total 5.2MW by Q3 of the year.",
      "datePosted": "Jun 20, 2023 | 11:14 AM",
      "titleFromTag": "Corporate"
    },
    {
      "title": "Kickstart Ventures Joins London Tech Week; Showcases Strategic Corporate Innovation Pillar",
      "nonclickable": false,
      "openNewTab": false,
      "borderArticle": "border-color:#0074D9;",
      "borderTopArticle": "border-top-color:#0074D9;",
      "imageListing": "/sites/globe.com.ph/files/content/dam/globe/brie/About-us/Newsroom/image/Corporate/62023/Kickstart-Ventures-joins-London-Tech-Week-thumbnail-listing.jpg",
      "articleUrl": "https://www.globe.com.ph/about-us/newsroom/corporate/kickstart-ventures-joins-london-tech-week.html",
      "columnType": "articles--type-3",
      "typeListing": "article",
      "imageMobile": "/sites/globe.com.ph/files/content/dam/globe/brie/About-us/Newsroom/image/Corporate/62023/Kickstart-Ventures-joins-London-Tech-Week-primary-thumbnail-m.jpg",
      "imageDesktop": "/sites/globe.com.ph/files/content/dam/globe/brie/About-us/Newsroom/image/Corporate/62023/Kickstart-Ventures-joins-London-Tech-Week-primary-thumbnail-d.jpg",
      "description": "Kickstart Ventures  made an appearance at the London Tech Week where it highlighted strategic corporate innovation pillar.",
      "datePosted": "Jun 19, 2023 | 02:33 PM",
      "titleFromTag": "Corporate"
    },
    {
      "title": "Globe Mobilizes Resources Amid Mayon Volcano Unrest",
      "nonclickable": false,
      "openNewTab": false,
      "borderArticle": "border-color:#0074D9;",
      "borderTopArticle": "border-top-color:#0074D9;",
      "imageListing": "/sites/globe.com.ph/files/content/dam/globe/brie/AboutUs/newsroom/corporate/globe-disaster-volcanic-response-mayon-taal/corp-default-image-thumbnail-listing.jpg",
      "articleUrl": "https://www.globe.com.ph/about-us/newsroom/sustainability/resources-amid-mayon-volcano-unrest.html",
      "columnType": "articles--type-3",
      "typeListing": "article",
      "imageMobile": "/sites/globe.com.ph/files/content/dam/globe/brie/AboutUs/newsroom/corporate/globe-disaster-volcanic-response-mayon-taal/corp-default-image-primary-thumbnail-m.jpg",
      "imageDesktop": "/sites/globe.com.ph/files/content/dam/globe/brie/AboutUs/newsroom/corporate/globe-disaster-volcanic-response-mayon-taal/corp-default-image-primary-thumbnail-d.jpg",
      "description": "Globe has mobilized its resources to provide critical support to communities affected by the continuing unrest of Mount Mayon.",
      "datePosted": "Jun 19, 2023 | 10:19 AM",
      "titleFromTag": "Sustainability"
    },
    {
      "title": "Globe At Home Honors Fathers Through Special Perks",
      "nonclickable": false,
      "openNewTab": false,
      "borderArticle": "border-color:#0074D9;",
      "borderTopArticle": "border-top-color:#0074D9;",
      "imageListing": "/sites/globe.com.ph/files/content/dam/globe/brie/AboutUs/newsroom/common/default-consumer-4/Newsroom-GAH-Default-Images-2-thumbnail-listing.jpg",
      "articleUrl": "https://www.globe.com.ph/about-us/newsroom/consumer/globe-at-home-honors-fathers-special-perks.html",
      "columnType": "articles--type-3",
      "typeListing": "article",
      "imageMobile": "/sites/globe.com.ph/files/content/dam/globe/brie/AboutUs/newsroom/common/default-consumer-4/Newsroom-GAH-Default-Images-2-thumbnail-listing.jpg",
      "imageDesktop": "/sites/globe.com.ph/files/content/dam/globe/brie/AboutUs/newsroom/common/default-consumer-4/Newsroom-GAH-Default-Images-2-primary-thumbnail-d.jpg",
      "description": "Globe At Home celebrates fathers through exclusive offers and perks to make Father’s Day more memorable and rewarding. ",
      "datePosted": "Jun 16, 2023 | 05:24 PM",
      "titleFromTag": "Consumer"
    },
    {
      "title": "Globe At Home Named Most Consistent Broadband Provider in Key Visayas Areas",
      "nonclickable": false,
      "openNewTab": false,
      "borderArticle": "border-color:#0074D9;",
      "borderTopArticle": "border-top-color:#0074D9;",
      "imageListing": "/sites/globe.com.ph/files/content/dam/globe/brie/AboutUs/newsroom/common/default-consumer-2/default-consumer-thumbnail-listing.jpg",
      "articleUrl": "https://www.globe.com.ph/about-us/newsroom/consumer/globe-at-home-most-consistent-broadband-provider-visayas.html",
      "columnType": "articles--type-3",
      "typeListing": "article",
      "imageMobile": "/sites/globe.com.ph/files/content/dam/globe/brie/AboutUs/newsroom/common/default-consumer-2/default-consumer-primary-thumbnail-m.jpg",
      "imageDesktop": "/sites/globe.com.ph/files/content/dam/globe/brie/AboutUs/newsroom/common/default-consumer-2/default-consumer-primary-thumbnail-d.jpg",
      "description": "Globe At Home maintains its reputation as it is named the Most Consistent broadband provider in Antique, Samar, Leyte, and Eastern Visayas. ",
      "datePosted": "Jun 15, 2023 | 04:27 PM",
      "titleFromTag": "Consumer"
    },
    {
      "title": "Globe, ARTA Host First Ever Tower Energization Workshop",
      "nonclickable": false,
      "openNewTab": false,
      "borderArticle": "border-color:#0074D9;",
      "borderTopArticle": "border-top-color:#0074D9;",
      "imageListing": "/sites/globe.com.ph/files/content/dam/globe/brie/AboutUs/newsroom/common/default-partners-2/default-partners-2-thumbnail-listing.jpg",
      "articleUrl": "https://www.globe.com.ph/about-us/newsroom/corporate/first-ever-tower-energization-workshop.html",
      "columnType": "articles--type-3",
      "typeListing": "article",
      "imageMobile": "/sites/globe.com.ph/files/content/dam/globe/brie/AboutUs/newsroom/common/default-partners-2/default-partners-2-primary-thumbnail-m.jpg",
      "imageDesktop": "/sites/globe.com.ph/files/content/dam/globe/brie/AboutUs/newsroom/common/default-partners-2/default-partners-2-primary-thumbnail-d.jpg",
      "description": "Globe joined forces with the Anti-Red Tape Authority (ARTA) to host the first-ever Tower Energization Process Workshop.",
      "datePosted": "Jun 14, 2023 | 02:33 PM",
      "titleFromTag": "Corporate"
    },
    {
      "title": "Globe, SMAC Come Together to Address Involuntary Hunger through The Hapag Movement",
      "nonclickable": false,
      "openNewTab": false,
      "borderArticle": "border-color:#0074D9;",
      "borderTopArticle": "border-top-color:#0074D9;",
      "imageListing": "/sites/globe.com.ph/files/content/dam/globe/brie/AboutUs/newsroom/sustainability/join-the-hapag-movement/Newsroom-sustainability-hapag-movement-relieve-hunger-thumbnail-listing.jpg",
      "articleUrl": "https://www.globe.com.ph/about-us/newsroom/sustainability/globe-smac-address-involuntary-hunger-the-hapag-movement.html",
      "columnType": "articles--type-3",
      "typeListing": "article",
      "imageMobile": "/sites/globe.com.ph/files/content/dam/globe/brie/AboutUs/newsroom/sustainability/join-the-hapag-movement/newsroom-sustainability-hapag-movement-relieve-hunger-primary-thumbnail-m5.jpg",
      "imageDesktop": "/sites/globe.com.ph/files/content/dam/globe/brie/AboutUs/newsroom/sustainability/join-the-hapag-movement/Newsroom-sustainability-hapag-movement-relieve-hunger-primary-thumbnail-d.jpg",
      "description": "Globe and SM Group came together to synergize and sustain The Hapag Movement, the Globe-led program that aims to address involuntary hunger among Filipinos. ",
      "datePosted": "Jun 14, 2023 | 10:19 AM",
      "titleFromTag": "Sustainability"
    },
    {
      "title": "Reliable Mobile Connection When You Need it Most: Navigating 10 Real-Life Moments With Globe",
      "nonclickable": false,
      "openNewTab": false,
      "borderArticle": "border-color:#0074D9;",
      "borderTopArticle": "border-top-color:#0074D9;",
      "imageListing": "/sites/globe.com.ph/files/content/dam/globe/brie/AboutUs/newsroom/common/default-kpop-1/Event-Default-Images-Kpop-1-thumbnail-listing.jpg",
      "articleUrl": "https://www.globe.com.ph/about-us/newsroom/consumer/navigating-ten-real-life-moments-with-globe.html",
      "columnType": "articles--type-3",
      "typeListing": "article",
      "imageMobile": "/sites/globe.com.ph/files/content/dam/globe/brie/AboutUs/newsroom/common/default-kpop-1/Event-Default-Images-Kpop-1-primary-thumbnail-m.jpg",
      "imageDesktop": "/sites/globe.com.ph/files/content/dam/globe/brie/AboutUs/newsroom/common/default-kpop-1/Event-Default-Images-Kpop-1-primary-thumbnail-d.jpg",
      "description": "Here are 10 real-life situations where you can say with certainty, \"For moments na kailangan ng maaasahan, you can rely on Globe.”",
      "datePosted": "Jun 13, 2023 | 05:04 PM",
      "titleFromTag": "Consumer"
    },
    {
      "title": "Globe Generates ₱4.5B Corporate Data Revenues in Q1 2023",
      "nonclickable": false,
      "openNewTab": false,
      "borderArticle": "border-color:#0074D9;",
      "borderTopArticle": "border-top-color:#0074D9;",
      "imageListing": "/sites/globe.com.ph/files/content/dam/globe/brie/AboutUs/newsroom/common/default-9/default-corporate-4-thumbnail-listing.jpg",
      "articleUrl": "https://www.globe.com.ph/about-us/newsroom/corporate/4-billion-corporate-data-revenue-q1-2023.html",
      "columnType": "articles--type-3",
      "typeListing": "article",
      "imageMobile": "/sites/globe.com.ph/files/content/dam/globe/brie/AboutUs/newsroom/common/default-9/default-corporate-4-primary-thumbnail-m.jpg",
      "imageDesktop": "/sites/globe.com.ph/files/content/dam/globe/brie/AboutUs/newsroom/common/default-9/default-corporate-4-primary-thumbnail-d.jpg",
      "description": "Globe’s corporate data segment generated ₱4.5 billion in revenues for the first quarter of 2023, marking a 15% increase from the same period a year ago.",
      "datePosted": "Jun 13, 2023 | 02:33 PM",
      "titleFromTag": "Corporate"
    }
  ]
}
