{
  "status": 200,
  "page": 210,
  "totalPage": 298,
  "range": "2509-2520",
  "total": 3573,
  "result": [
    {
      "title": "Globe Rewards Customers Donate P1.6M to Plant 16,000 Trees in Bukidnon",
      "nonclickable": false,
      "openNewTab": false,
      "borderArticle": "border-color:#1C91C5;",
      "borderTopArticle": "border-top-color:#1C91C5;",
      "imageListing": "/sites/globe.com.ph/files/content/dam/globe/brie/AboutUs/newsroom/sustainability/globe-rewards-customers-donate/sustainability-globe-rewards-customers-donate-p1.6m-to-plant-16k-trees-thumbnail-listing.jpg",
      "articleUrl": "https://www.globe.com.ph/about-us/newsroom/sustainability/globe-rewards-customers-donate.html",
      "columnType": "articles--type-3",
      "typeListing": "article",
      "imageMobile": "/sites/globe.com.ph/files/content/dam/globe/brie/AboutUs/newsroom/sustainability/globe-rewards-customers-donate/sustainability-globe-rewards-customers-donate-p1.6m-to-plant-16k-trees-banner-m.jpg",
      "imageDesktop": "/sites/globe.com.ph/files/content/dam/globe/brie/AboutUs/newsroom/sustainability/globe-rewards-customers-donate/sustainability-globe-rewards-customers-donate-p1.6m-to-plant-16k-trees-primary-thumbnail.jpg",
      "description": "Globe Rewards customers donate P1.6M to plant 16,000 trees in Bukidnon. Visit the Globe Newsroom for the latest news on Globe Telecom.",
      "datePosted": "Apr 16, 2019 | 04:43 PM",
      "titleFromTag": "Sustainability"
    },
    {
      "title": "Globe Collaborates with BPI Foundation on “Tech for Good” Award",
      "nonclickable": false,
      "openNewTab": false,
      "borderArticle": "border-color:#0074D9;",
      "borderTopArticle": "border-top-color:#0074D9;",
      "imageListing": "/sites/globe.com.ph/files/content/dam/globe/brie/AboutUs/newsroom/corporate/globe-bpi-tech-good-award/business-globe-colabs-with-BPI-foundation-on-tech-for-good-thumbnail-listing.jpg",
      "articleUrl": "https://www.globe.com.ph/about-us/newsroom/corporate/globe-bpi-tech-good-award.html",
      "columnType": "articles--type-3",
      "typeListing": "article",
      "imageMobile": "/sites/globe.com.ph/files/content/dam/globe/brie/AboutUs/newsroom/corporate/globe-bpi-tech-good-award/business-globe-colabs-with-BPI-foundation-on-tech-for-good-banner-m.jpg",
      "imageDesktop": "/sites/globe.com.ph/files/content/dam/globe/brie/AboutUs/newsroom/corporate/globe-bpi-tech-good-award/business-globe-colabs-with-BPI-foundation-on-tech-for-good-primary-thumbnail.jpg",
      "description": "Globe collaborates with BPI Foundation on “Tech for Good” Award. Visit the Globe Newsroom for the latest news on Globe Telecom.",
      "datePosted": "Apr 16, 2019 | 03:20 PM",
      "titleFromTag": "Corporate"
    },
    {
      "title": "Globe myBusiness Academy, DTI Pave Way for Digitalization of Baguio-Based MSMEs",
      "nonclickable": false,
      "openNewTab": false,
      "borderArticle": "border-color:#0074D9;",
      "borderTopArticle": "border-top-color:#0074D9;",
      "imageListing": "/sites/globe.com.ph/files/content/dam/globe/brie/AboutUs/newsroom/business/mybusiness-academy-dti-digitalization/business-globe-mybusiness-academy-dti-pave-way-for-digital-thumbnail-listing.jpg",
      "articleUrl": "https://www.globe.com.ph/about-us/newsroom/business/mybusiness-academy-dti-digitalization.html",
      "columnType": "articles--type-3",
      "typeListing": "article",
      "imageMobile": "/sites/globe.com.ph/files/content/dam/globe/brie/AboutUs/newsroom/business/mybusiness-academy-dti-digitalization/business-globe-mybusiness-academy-dti-pave-way-for-digital-banner-m.jpg",
      "imageDesktop": "/sites/globe.com.ph/files/content/dam/globe/brie/AboutUs/newsroom/business/mybusiness-academy-dti-digitalization/business-globe-mybusiness-academy-dti-pave-way-for-digital-primary-thumbnail.jpg",
      "description": "Globe myBusiness Academy, DTI pave way for digitalization of Baguio-based MSMEs. Visit the Globe Newsroom for the latest news on Globe Telecom.",
      "datePosted": "Apr 16, 2019 | 02:38 PM",
      "titleFromTag": "Business"
    },
    {
      "title": "Complete the Mission in Style with 0917 x Marvel Studios' Avengers: Endgame Collection!",
      "nonclickable": false,
      "openNewTab": false,
      "borderArticle": "border-color:#0074D9;",
      "borderTopArticle": "border-top-color:#0074D9;",
      "imageListing": "/sites/globe.com.ph/files/content/dam/globe/brie/AboutUs/newsroom/consumer/0917-avengers-endgame-collection/consumer-0917xAvengers-endgame-collection-thumbnail-listing.jpg",
      "articleUrl": "https://www.globe.com.ph/about-us/newsroom/consumer/0917-avengers-endgame-collection.html",
      "columnType": "articles--type-3",
      "typeListing": "article",
      "imageMobile": "/sites/globe.com.ph/files/content/dam/globe/brie/AboutUs/newsroom/consumer/0917-avengers-endgame-collection/consumer-0917xAvengers-endgame-collection-banner-m.jpg",
      "imageDesktop": "/sites/globe.com.ph/files/content/dam/globe/brie/AboutUs/newsroom/consumer/0917-avengers-endgame-collection/consumer-0917xAvengers-endgame-collection-primary-thumbnail.jpg",
      "description": "Complete the mission in style with the 0917 x Marvel Studios' Avengers: Endgame collection! Visit the Globe Newsroom for the latest news on Globe Telecom.",
      "datePosted": "Apr 16, 2019 | 11:49 AM",
      "titleFromTag": "Consumer"
    },
    {
      "title": "Get Inspired by Three Brave Creators on the Reframed Docu-Series",
      "nonclickable": false,
      "openNewTab": false,
      "borderArticle": "border-color:#0074D9;",
      "borderTopArticle": "border-top-color:#0074D9;",
      "imageListing": "/sites/globe.com.ph/files/content/dam/globe/brie/AboutUs/newsroom/consumer/get-inspired-brave-creators-reframed/consumer-reframed-thumbnail-listing.jpg",
      "articleUrl": "https://www.globe.com.ph/about-us/newsroom/consumer/get-inspired-brave-creators-reframed.html",
      "columnType": "articles--type-3",
      "typeListing": "article",
      "imageMobile": "/sites/globe.com.ph/files/content/dam/globe/brie/AboutUs/newsroom/consumer/get-inspired-brave-creators-reframed/consumer-reframed-banner-m.jpg",
      "imageDesktop": "/sites/globe.com.ph/files/content/dam/globe/brie/AboutUs/newsroom/consumer/get-inspired-brave-creators-reframed/consumer-reframed-primary-thumbnail.jpg",
      "description": "Get inspired by three brave creators on Reframed docu-series. Visit the Globe Newsroom for the latest news on Globe Telecom.",
      "datePosted": "Apr 15, 2019 | 02:47 PM",
      "titleFromTag": "Consumer"
    },
    {
      "title": "Go all out on TikTok for just P15/day with Globe!",
      "nonclickable": false,
      "openNewTab": false,
      "borderArticle": "border-color:#0074D9;",
      "borderTopArticle": "border-top-color:#0074D9;",
      "imageListing": "/sites/globe.com.ph/files/content/dam/globe/brie/AboutUs/newsroom/consumer/go-all-out-tiktok-globe/consumer-TikTok-thumbnail-listing.jpg",
      "articleUrl": "https://www.globe.com.ph/about-us/newsroom/consumer/go-all-out-tiktok-globe.html",
      "columnType": "articles--type-3",
      "typeListing": "article",
      "imageMobile": "/sites/globe.com.ph/files/content/dam/globe/brie/AboutUs/newsroom/consumer/go-all-out-tiktok-globe/consumer-TikTok-banner-m.jpg",
      "imageDesktop": "/sites/globe.com.ph/files/content/dam/globe/brie/AboutUs/newsroom/consumer/go-all-out-tiktok-globe/consumer-TikTok-primary-thumbnail.jpg",
      "description": "Go all out on TikTok for just P15/day with Globe! Visit the Globe Newsroom for the latest news on Globe Telecom.",
      "datePosted": "Apr 15, 2019 | 02:32 PM",
      "titleFromTag": "Consumer"
    },
    {
      "title": "Team Liyab Bags Two Championships at PPGL 2019",
      "nonclickable": false,
      "openNewTab": false,
      "borderArticle": "border-color:#0074D9;",
      "borderTopArticle": "border-top-color:#0074D9;",
      "imageListing": "/sites/globe.com.ph/files/content/dam/globe/brie/AboutUs/newsroom/corporate/team-liyab-bags-two-championships/Corporate-Team-liyab-bags-two-champ-at-PPGL-2019-thumbnail-listing.jpg",
      "articleUrl": "https://www.globe.com.ph/about-us/newsroom/corporate/team-liyab-bags-two-championships.html",
      "columnType": "articles--type-3",
      "typeListing": "article",
      "imageMobile": "/sites/globe.com.ph/files/content/dam/globe/brie/AboutUs/newsroom/corporate/team-liyab-bags-two-championships/Corporate-Team-liyab-bags-two-champ-at-PPGL-2019-banner-m.jpg",
      "imageDesktop": "/sites/globe.com.ph/files/content/dam/globe/brie/AboutUs/newsroom/corporate/team-liyab-bags-two-championships/Corporate-Team-liyab-bags-two-champ-at-PPGL-2019-primary-thumbnail.jpg",
      "description": "Team Liyab bags two championships at PPGL 2019. Visit the Globe Newsroom for the latest news on Globe Telecom.",
      "datePosted": "Apr 12, 2019 | 11:46 AM",
      "titleFromTag": "Corporate"
    },
    {
      "title": "Public Advisory on Temporary Service Interruption",
      "nonclickable": false,
      "openNewTab": false,
      "borderArticle": "border-color:#0074D9;",
      "borderTopArticle": "border-top-color:#0074D9;",
      "imageListing": "/sites/globe.com.ph/files/content/dam/globe/brie/AboutUs/newsroom/common/Corporate_Globe_Listing.jpg",
      "articleUrl": "https://www.globe.com.ph/about-us/newsroom/corporate/public-advisory-temporary-interruption.html",
      "columnType": "articles--type-3",
      "typeListing": "article",
      "imageMobile": "/sites/globe.com.ph/files/content/dam/globe/brie/AboutUs/newsroom/common/Corporate_Globe_Hero-Banner-Mobile.jpg",
      "imageDesktop": "/sites/globe.com.ph/files/content/dam/globe/brie/AboutUs/newsroom/common/Corporate_Globe_Primary-Desktop-Thumbnail.jpg",
      "description": "Read Globe's Public Advisory on temporary service interruption encountered by its customers on April 12, 2019.",
      "datePosted": "Apr 12, 2019 | 09:50 AM",
      "titleFromTag": "Corporate"
    },
    {
      "title": "SMEs in Accommodation and Food Sectors Face New Breed of Competition",
      "nonclickable": false,
      "openNewTab": false,
      "borderArticle": "border-color:#0074D9;",
      "borderTopArticle": "border-top-color:#0074D9;",
      "imageListing": "/sites/globe.com.ph/files/content/dam/globe/brie/AboutUs/newsroom/business/sme-accommodation-food-new-competition/business-smes-in-accomodation-and-food-sectors-thumbnail-listing.jpg",
      "articleUrl": "https://www.globe.com.ph/about-us/newsroom/business/sme-accommodation-food-new-competition.html",
      "columnType": "articles--type-3",
      "typeListing": "article",
      "imageMobile": "/sites/globe.com.ph/files/content/dam/globe/brie/AboutUs/newsroom/business/sme-accommodation-food-new-competition/business-smes-in-accomodation-and-food-sectors-banner-m.jpg",
      "imageDesktop": "/sites/globe.com.ph/files/content/dam/globe/brie/AboutUs/newsroom/business/sme-accommodation-food-new-competition/business-smes-in-accomodation-and-food-sectors-primary-thumbnail.jpg",
      "description": "Small and medium enterprises in accommodation and food sectors face a new breed of competition. Visit the Globe Newsroom for the latest news on Globe Telecom.",
      "datePosted": "Apr 10, 2019 | 10:17 AM",
      "titleFromTag": "Business"
    },
    {
      "title": "Get First Dibs on the Highly Anticipated Movie this Year, Marvel Studios’ Avengers: Endgame, with Globe Prepaid!",
      "nonclickable": false,
      "openNewTab": false,
      "borderArticle": "border-color:#0074D9;",
      "borderTopArticle": "border-top-color:#0074D9;",
      "imageListing": "/sites/globe.com.ph/files/content/dam/globe/brie/AboutUs/newsroom/consumer/get-first-dibs-avengers-endgame-prepaid/consumer-avengers-endgame-thumbnail-listing.jpg",
      "articleUrl": "https://www.globe.com.ph/about-us/newsroom/consumer/get-first-dibs-avengers-endgame-prepaid.html",
      "columnType": "articles--type-3",
      "typeListing": "article",
      "imageMobile": "/sites/globe.com.ph/files/content/dam/globe/brie/AboutUs/newsroom/consumer/get-first-dibs-avengers-endgame-prepaid/consumer-avengers-endgame-banner-m.jpg",
      "imageDesktop": "/sites/globe.com.ph/files/content/dam/globe/brie/AboutUs/newsroom/consumer/get-first-dibs-avengers-endgame-prepaid/consumer-avengers-endgame-primary-thumbnail.jpg",
      "description": "Get first dibs on the highly anticipated movie this year, Marvel Studios’ Avengers: Endgame, with Globe Prepaid! Visit the Globe Newsroom for the latest news.",
      "datePosted": "Apr 08, 2019 | 12:42 PM",
      "titleFromTag": "Consumer"
    },
    {
      "title": "Be a Brave Creator and Craft One-of-a-Kind Stories with the new Huawei P30",
      "nonclickable": false,
      "openNewTab": false,
      "borderArticle": "border-color:#0074D9;",
      "borderTopArticle": "border-top-color:#0074D9;",
      "imageListing": "/sites/globe.com.ph/files/content/dam/globe/brie/AboutUs/newsroom/consumer/be-brave-creator-huawei-p30/consumer-be-a-brave-creator-and-craft-thumbnail-listing.jpg",
      "articleUrl": "https://www.globe.com.ph/about-us/newsroom/consumer/be-brave-creator-huawei-p30.html",
      "columnType": "articles--type-3",
      "typeListing": "article",
      "imageMobile": "/sites/globe.com.ph/files/content/dam/globe/brie/AboutUs/newsroom/consumer/be-brave-creator-huawei-p30/consumer-be-a-brave-creator-and-craft-banner-m.jpg",
      "imageDesktop": "/sites/globe.com.ph/files/content/dam/globe/brie/AboutUs/newsroom/consumer/be-brave-creator-huawei-p30/consumer-be-a-brave-creator-and-craft-primary-thumbnail.jpg",
      "description": "Be a brave creator and craft one-of-a-kind stories with the new Huawei P30. Visit the Globe Newsroom for the latest news on Globe Telecom.",
      "datePosted": "Apr 05, 2019 | 12:51 PM",
      "titleFromTag": "Consumer"
    },
    {
      "title": "Experience the Rich Culture of Bukidnon at Kaamulan Festival 2019!",
      "nonclickable": false,
      "openNewTab": false,
      "borderArticle": "border-color:#0074D9;",
      "borderTopArticle": "border-top-color:#0074D9;",
      "imageListing": "/sites/globe.com.ph/files/content/dam/globe/brie/AboutUs/newsroom/consumer/experience-kaamulan-festival-2019/consumer-experience-the-rich-culture-thumbnail-listing_v2.jpg",
      "articleUrl": "https://www.globe.com.ph/about-us/newsroom/consumer/experience-kaamulan-festival-2019.html",
      "columnType": "articles--type-3",
      "typeListing": "article",
      "imageMobile": "/sites/globe.com.ph/files/content/dam/globe/brie/AboutUs/newsroom/consumer/experience-kaamulan-festival-2019/consumer-experience-the-rich-culture-banner-m_v2.jpg",
      "imageDesktop": "/sites/globe.com.ph/files/content/dam/globe/brie/AboutUs/newsroom/consumer/experience-kaamulan-festival-2019/consumer-experience-the-rich-culture-primary-thumbnail_v2.jpg",
      "description": "Experience the rich culture of Bukidnon at Kaamulan Festival 2019. Visit the Globe Newsroom for the latest news on Globe Telecom.",
      "datePosted": "Apr 05, 2019 | 10:58 AM",
      "titleFromTag": "Consumer"
    }
  ]
}
