{
  "status": 200,
  "page": 211,
  "totalPage": 298,
  "range": "2521-2532",
  "total": 3573,
  "result": [
    {
      "title": "Globe Telecom to Work Closely with DOT in Promoting Sustainable PH Tourism via Digital Technology",
      "nonclickable": false,
      "openNewTab": false,
      "borderArticle": "border-color:#0074D9;",
      "borderTopArticle": "border-top-color:#0074D9;",
      "imageListing": "/sites/globe.com.ph/files/content/dam/globe/brie/AboutUs/newsroom/business/globe-telecom-work-closely-dot/Business-globe-telecom-to-work-closely-with-DOT-thumbnail-listing.jpg",
      "articleUrl": "https://www.globe.com.ph/about-us/newsroom/business/globe-telecom-work-closely-dot.html",
      "columnType": "articles--type-3",
      "typeListing": "article",
      "imageMobile": "/sites/globe.com.ph/files/content/dam/globe/brie/AboutUs/newsroom/business/globe-telecom-work-closely-dot/Business-globe-telecom-to-work-closely-with-DOT-banner-m.jpg",
      "imageDesktop": "/sites/globe.com.ph/files/content/dam/globe/brie/AboutUs/newsroom/business/globe-telecom-work-closely-dot/Business-globe-telecom-to-work-closely-with-DOT-primary-thumbnail.jpg",
      "description": "Globe Telecom to work closely with DOT in promoting sustainable Philippine tourism via digital technology. Visit the Newsroom for the latest news on Globe.",
      "datePosted": "Apr 04, 2019 | 12:35 PM",
      "titleFromTag": "Business"
    },
    {
      "title": "Globe Telecom Undertakes Preventive Maintenance in Some Rural Areas to Improve Equipment Reliability",
      "nonclickable": false,
      "openNewTab": false,
      "borderArticle": "border-color:#0074D9;",
      "borderTopArticle": "border-top-color:#0074D9;",
      "imageListing": "/sites/globe.com.ph/files/content/dam/globe/brie/AboutUs/newsroom/common/Corporate_Globe_Listing.jpg",
      "articleUrl": "https://www.globe.com.ph/about-us/newsroom/corporate/globe-preventive-maintenance-rural-areas.html",
      "columnType": "articles--type-3",
      "typeListing": "article",
      "imageMobile": "/sites/globe.com.ph/files/content/dam/globe/brie/AboutUs/newsroom/common/Corporate_Globe_Hero-Banner-Mobile.jpg",
      "imageDesktop": "/sites/globe.com.ph/files/content/dam/globe/brie/AboutUs/newsroom/common/Corporate_Globe_Primary-Desktop-Thumbnail.jpg",
      "description": "Globe Telecom undertakes preventive maintenance in some rural areas to improve equipment reliability.  Visit Globe Newsroom for more company news.",
      "datePosted": "Apr 03, 2019 | 02:13 PM",
      "titleFromTag": "Corporate"
    },
    {
      "title": "Catch Netflix’s Groundbreaking Original Docuseries “Our Planet” with Globe At Home and Globe Postpaid",
      "nonclickable": false,
      "openNewTab": false,
      "borderArticle": "border-color:#0074D9;",
      "borderTopArticle": "border-top-color:#0074D9;",
      "imageListing": "/sites/globe.com.ph/files/content/dam/globe/brie/AboutUs/newsroom/consumer/catch-netflix-our-planet-globe/Consumer-catch-netflix-groundbreaking-original-docuseries-thumbnail-listing.jpg",
      "articleUrl": "https://www.globe.com.ph/about-us/newsroom/consumer/catch-netflix-our-planet-globe.html",
      "columnType": "articles--type-3",
      "typeListing": "article",
      "imageMobile": "/sites/globe.com.ph/files/content/dam/globe/brie/AboutUs/newsroom/consumer/catch-netflix-our-planet-globe/Consumer-catch-netflix-groundbreaking-original-docuseries-banner-m.jpg",
      "imageDesktop": "/sites/globe.com.ph/files/content/dam/globe/brie/AboutUs/newsroom/consumer/catch-netflix-our-planet-globe/Consumer-catch-netflix-groundbreaking-original-docuseries-primary-thumbnail.jpg",
      "description": "Catch Netflix's groundbreaking original docuseries “Our Planet” with Globe At Home and Globe Postpaid. Visit the Newsroom for the latest news on Globe Telecom.",
      "datePosted": "Apr 02, 2019 | 03:38 PM",
      "titleFromTag": "Consumer"
    },
    {
      "title": "Globe Telecom Supports Spark Fest 2019 to Create a Spark for Social Good",
      "nonclickable": false,
      "openNewTab": false,
      "borderArticle": "border-color:#0074D9;",
      "borderTopArticle": "border-top-color:#0074D9;",
      "imageListing": "/sites/globe.com.ph/files/content/dam/globe/brie/AboutUs/newsroom/corporate/globe-supports-spark-fest-2019/Corporate-globe-telecom-supports-spark-fest-2019-to-create-a-spark-thumbnail-listing.jpg",
      "articleUrl": "https://www.globe.com.ph/about-us/newsroom/corporate/globe-supports-spark-fest-2019.html",
      "columnType": "articles--type-3",
      "typeListing": "article",
      "imageMobile": "/sites/globe.com.ph/files/content/dam/globe/brie/AboutUs/newsroom/corporate/globe-supports-spark-fest-2019/Corporate-globe-telecom-supports-spark-fest-2019-to-create-a-spark-banner-m.jpg",
      "imageDesktop": "/sites/globe.com.ph/files/content/dam/globe/brie/AboutUs/newsroom/corporate/globe-supports-spark-fest-2019/Corporate-globe-telecom-supports-spark-fest-2019-to-create-a-spark-primary-thumbnail.jpg",
      "description": "Globe Telecom supports Spark Fest 2019 to create a spark for social good. Visit the Globe Newsroom for the latest news on Globe Telecom.",
      "datePosted": "Apr 02, 2019 | 01:38 PM",
      "titleFromTag": "Corporate"
    },
    {
      "title": "Globe Telecom’s Digital Thumbprint Program Spreads to More Schools and Communities through Employee Volunteerism",
      "nonclickable": false,
      "openNewTab": false,
      "borderArticle": "border-color:#1C91C5;",
      "borderTopArticle": "border-top-color:#1C91C5;",
      "imageListing": "/sites/globe.com.ph/files/content/dam/globe/brie/AboutUs/newsroom/sustainability/globe-dtp-spreads-through-volunteerism/Sustainability-globe-telecom-dtp-spreads-to-more-schools-and-communities-through-employee-volunteerism-thumbnail-listing.jpg",
      "articleUrl": "https://www.globe.com.ph/about-us/newsroom/sustainability/globe-dtp-spreads-through-volunteerism.html",
      "columnType": "articles--type-3",
      "typeListing": "article",
      "imageMobile": "/sites/globe.com.ph/files/content/dam/globe/brie/AboutUs/newsroom/sustainability/globe-dtp-spreads-through-volunteerism/Sustainability-globe-telecom-dtp-spreads-to-more-schools-and-communities-through-employee-volunteerism-banner-m.jpg",
      "imageDesktop": "/sites/globe.com.ph/files/content/dam/globe/brie/AboutUs/newsroom/sustainability/globe-dtp-spreads-through-volunteerism/Sustainability-globe-telecom-dtp-spreads-to-more-schools-and-communities-through-employee-volunteerism-primary-thumbnail.jpg",
      "description": "Globe Telecom’s Digital Thumbprint Program spreads to more schools and communities through employee volunteerism. Visit the Globe Newsroom for more.",
      "datePosted": "Apr 02, 2019 | 11:27 AM",
      "titleFromTag": "Sustainability"
    },
    {
      "title": "Globe Highlights Power of Voice Solutions in Digital Transformation Conference",
      "nonclickable": false,
      "openNewTab": false,
      "borderArticle": "border-color:#0074D9;",
      "borderTopArticle": "border-top-color:#0074D9;",
      "imageListing": "/sites/globe.com.ph/files/content/dam/globe/brie/AboutUs/newsroom/business/globe-highlights-power-voice-solutions/Business-globe-highlights-power-of-voice-solutions-in-digital-transformation-conference-thumbnail-listing.jpg",
      "articleUrl": "https://www.globe.com.ph/about-us/newsroom/business/globe-highlights-power-voice-solutions.html",
      "columnType": "articles--type-3",
      "typeListing": "article",
      "imageMobile": "/sites/globe.com.ph/files/content/dam/globe/brie/AboutUs/newsroom/business/globe-highlights-power-voice-solutions/Business-globe-highlights-power-of-voice-solutions-in-digital-transformation-conference-banner-m.jpg",
      "imageDesktop": "/sites/globe.com.ph/files/content/dam/globe/brie/AboutUs/newsroom/business/globe-highlights-power-voice-solutions/Business-globe-highlights-power-of-voice-solutions-in-digital-transformation-conference-primary-thumbnail.jpg",
      "description": "Globe highlights the power of Voice Solutions in digital transformation conference. Visit the Globe Newsroom for the latest news on Globe Telecom.",
      "datePosted": "Apr 02, 2019 | 11:20 AM",
      "titleFromTag": "Business"
    },
    {
      "title": "Team Liyab Secures Spot at Philippine Pro Gaming League - Arena of Valor Finals",
      "nonclickable": false,
      "openNewTab": false,
      "borderArticle": "border-color:#0074D9;",
      "borderTopArticle": "border-top-color:#0074D9;",
      "imageListing": "/sites/globe.com.ph/files/content/dam/globe/brie/AboutUs/newsroom/corporate/team-liyab-secures-spot-ppgl-aov/Corporate-Team-liyab-secures-spot-at-PPGL-AOV-Finals-thumbnail-listing.jpg",
      "articleUrl": "https://www.globe.com.ph/about-us/newsroom/corporate/team-liyab-secures-spot-ppgl-aov.html",
      "columnType": "articles--type-3",
      "typeListing": "article",
      "imageMobile": "/sites/globe.com.ph/files/content/dam/globe/brie/AboutUs/newsroom/corporate/team-liyab-secures-spot-ppgl-aov/Corporate-Team-liyab-secures-spot-at-PPGL-AOV-Finals-banner-m.jpg",
      "imageDesktop": "/sites/globe.com.ph/files/content/dam/globe/brie/AboutUs/newsroom/corporate/team-liyab-secures-spot-ppgl-aov/Corporate-Team-liyab-secures-spot-at-PPGL-AOV-Finals-primary-thumbnail.jpg",
      "description": "Team Liyab secures a spot at the Philippine Pro Gaming League – Arena of Valor finals. Visit the Globe Newsroom for the latest news on Globe Telecom.",
      "datePosted": "Apr 01, 2019 | 01:46 PM",
      "titleFromTag": "Corporate"
    },
    {
      "title": "Globe Turns Over Global Filipino Schools (GFS) Program to DepEd",
      "nonclickable": false,
      "openNewTab": false,
      "borderArticle": "border-color:#1C91C5;",
      "borderTopArticle": "border-top-color:#1C91C5;",
      "imageListing": "/sites/globe.com.ph/files/content/dam/globe/brie/AboutUs/newsroom/sustainability/globe-turns-over-gfs-program-deped/Sustainability-Globe-Turns-Over-GFS-program-to-deped-thumbnail-listing.jpg",
      "articleUrl": "https://www.globe.com.ph/about-us/newsroom/sustainability/globe-turns-over-gfs-program-deped.html",
      "columnType": "articles--type-3",
      "typeListing": "article",
      "imageMobile": "/sites/globe.com.ph/files/content/dam/globe/brie/AboutUs/newsroom/sustainability/globe-turns-over-gfs-program-deped/Sustainability-Globe-Turns-Over-GFS-program-to-deped-banner-m.jpg",
      "imageDesktop": "/sites/globe.com.ph/files/content/dam/globe/brie/AboutUs/newsroom/sustainability/globe-turns-over-gfs-program-deped/Sustainability-Globe-Turns-Over-GFS-program-to-deped-primary-thumbnail.jpg",
      "description": "Globe turns over Global Filipino Schools (GFS) program to DepEd. Visit the Globe Newsroom for the latest news on Globe Telecom.",
      "datePosted": "Mar 29, 2019 | 01:26 PM",
      "titleFromTag": "Sustainability"
    },
    {
      "title": "TaskUs Partners with Globe Business to Digitize Operations",
      "nonclickable": false,
      "openNewTab": false,
      "borderArticle": "border-color:#0074D9;",
      "borderTopArticle": "border-top-color:#0074D9;",
      "imageListing": "/sites/globe.com.ph/files/content/dam/globe/brie/AboutUs/newsroom/business/taskus-partners-globe-business/Business-TaskUs-Partners-with-globe-business-to-digitize-operations-thumbnail-listing.jpg",
      "articleUrl": "https://www.globe.com.ph/about-us/newsroom/business/taskus-partners-globe-business.html",
      "columnType": "articles--type-3",
      "typeListing": "article",
      "imageMobile": "/sites/globe.com.ph/files/content/dam/globe/brie/AboutUs/newsroom/business/taskus-partners-globe-business/Business-TaskUs-Partners-with-globe-business-to-digitize-operations-banner-m.jpg",
      "imageDesktop": "/sites/globe.com.ph/files/content/dam/globe/brie/AboutUs/newsroom/business/taskus-partners-globe-business/Business-TaskUs-Partners-with-globe-business-to-digitize-operations-primary-thumbnail.jpg",
      "description": "TaskUs partners with Globe Business to digitize operations. Visit the Globe Newsroom for the latest news on Globe Telecom.",
      "datePosted": "Mar 28, 2019 | 03:55 PM",
      "titleFromTag": "Business"
    },
    {
      "title": "Globe Gives Wanderers a Magical Weekend at Wanderland Festival 2019",
      "nonclickable": false,
      "openNewTab": false,
      "borderArticle": "border-color:#0074D9;",
      "borderTopArticle": "border-top-color:#0074D9;",
      "imageListing": "/sites/globe.com.ph/files/content/dam/globe/brie/AboutUs/newsroom/consumer/globe-magical-weekend-wanderland-2019/Consumer-globe-gives-wanderers-a-magical-weekend-at-wanderland-Festival-2019-thumbnail-listing.jpg",
      "articleUrl": "https://www.globe.com.ph/about-us/newsroom/consumer/globe-magical-weekend-wanderland-2019.html",
      "columnType": "articles--type-3",
      "typeListing": "article",
      "imageMobile": "/sites/globe.com.ph/files/content/dam/globe/brie/AboutUs/newsroom/consumer/globe-magical-weekend-wanderland-2019/Consumer-globe-gives-wanderers-a-magical-weekend-at-wanderland-Festival-2019-banner-m.jpg",
      "imageDesktop": "/sites/globe.com.ph/files/content/dam/globe/brie/AboutUs/newsroom/consumer/globe-magical-weekend-wanderland-2019/Consumer-globe-gives-wanderers-a-magical-weekend-at-wanderland-Festival-2019-primary-thumbnail.jpg",
      "description": "Globe gives Wanderers a magical weekend at Wanderland Festival 2019. Visit the Globe Newsroom for the latest news on Globe Telecom.",
      "datePosted": "Mar 28, 2019 | 03:38 PM",
      "titleFromTag": "Consumer"
    },
    {
      "title": "Make It an Xtreme Weekend with Globe At Home and SM Cyberzone",
      "nonclickable": false,
      "openNewTab": false,
      "borderArticle": "border-color:#0074D9;",
      "borderTopArticle": "border-top-color:#0074D9;",
      "imageListing": "/sites/globe.com.ph/files/content/dam/globe/brie/AboutUs/newsroom/consumer/xtreme-weekend-globe-at-home/Consumer-Make-it-an-Extreme-Weekend-With-GAH-and-Sm-Cyberzone-thumbnail-listing.jpg",
      "articleUrl": "https://www.globe.com.ph/about-us/newsroom/consumer/xtreme-weekend-globe-at-home.html",
      "columnType": "articles--type-3",
      "typeListing": "article",
      "imageMobile": "/sites/globe.com.ph/files/content/dam/globe/brie/AboutUs/newsroom/consumer/xtreme-weekend-globe-at-home/Consumer-Make-it-an-Extreme-Weekend-With-GAH-and-Sm-Cyberzone-banner-m.jpg",
      "imageDesktop": "/sites/globe.com.ph/files/content/dam/globe/brie/AboutUs/newsroom/consumer/xtreme-weekend-globe-at-home/Consumer-Make-it-an-Extreme-Weekend-With-GAH-and-Sm-Cyberzone-primary-thumbnail.jpg",
      "description": "Make it an Xtreme weekend with Globe At Home and SM Cyberzone. Visit the Globe Newsroom for the latest news on Globe Telecom.",
      "datePosted": "Mar 27, 2019 | 02:52 PM",
      "titleFromTag": "Consumer"
    },
    {
      "title": "See What Happened When This Marvel Fan Met the Cast of Captain Marvel",
      "nonclickable": false,
      "openNewTab": false,
      "borderArticle": "border-color:#0074D9;",
      "borderTopArticle": "border-top-color:#0074D9;",
      "imageListing": "/sites/globe.com.ph/files/content/dam/globe/brie/AboutUs/newsroom/consumer/marvel-fan-met-cast-captain-marvel/Consumer-See-what-happened-when-this-marvel-fan-thumbnail-listing.jpg",
      "articleUrl": "https://www.globe.com.ph/about-us/newsroom/consumer/marvel-fan-met-cast-captain-marvel.html",
      "columnType": "articles--type-3",
      "typeListing": "article",
      "imageMobile": "/sites/globe.com.ph/files/content/dam/globe/brie/AboutUs/newsroom/consumer/marvel-fan-met-cast-captain-marvel/Consumer-See-what-happened-when-this-marvel-fan-banner-m.jpg",
      "imageDesktop": "/sites/globe.com.ph/files/content/dam/globe/brie/AboutUs/newsroom/consumer/marvel-fan-met-cast-captain-marvel/Consumer-See-what-happened-when-this-marvel-fan-primary-thumbnail.jpg",
      "description": "See what happened when this Marvel fan met the cast of Captain Marvel. Visit the Globe Newsroom for the latest news on Globe Telecom.",
      "datePosted": "Mar 27, 2019 | 02:18 PM",
      "titleFromTag": "Consumer"
    }
  ]
}
