{
  "status": 200,
  "page": 212,
  "totalPage": 298,
  "range": "2533-2544",
  "total": 3573,
  "result": [
    {
      "title": "Globe Telecom, Optical Media Board Reach Out to Youth to Combat Online Piracy in PH",
      "nonclickable": false,
      "openNewTab": false,
      "borderArticle": "border-color:#0074D9;",
      "borderTopArticle": "border-top-color:#0074D9;",
      "imageListing": "/sites/globe.com.ph/files/content/dam/globe/brie/AboutUs/newsroom/corporate/globe-omb-reach-youth-combat-online-piracy/Corporate-GT-Optical-media-board-reach-out-to-youth-to-combat-online-piracy-in-ph-thumbnail-listing.jpg",
      "articleUrl": "https://www.globe.com.ph/about-us/newsroom/corporate/globe-omb-reach-youth-combat-online-piracy.html",
      "columnType": "articles--type-3",
      "typeListing": "article",
      "imageMobile": "/sites/globe.com.ph/files/content/dam/globe/brie/AboutUs/newsroom/corporate/globe-omb-reach-youth-combat-online-piracy/Corporate-GT-Optical-media-board-reach-out-to-youth-to-combat-online-piracy-in-ph-banner-m.jpg",
      "imageDesktop": "/sites/globe.com.ph/files/content/dam/globe/brie/AboutUs/newsroom/corporate/globe-omb-reach-youth-combat-online-piracy/Corporate-GT-Optical-media-board-reach-out-to-youth-to-combat-online-piracy-in-ph-primary-thumbnail.jpg",
      "description": "Globe Telecom and Optical Media Board reach out to youth to combat online piracy in the Philippines. Visit the Newsroom for the latest news on Globe Telecom.",
      "datePosted": "Mar 27, 2019 | 12:34 PM",
      "titleFromTag": "Corporate"
    },
    {
      "title": "Globe myBusiness Gathers Tourism Stakeholders at  Breakthroughs: Tourism Conference",
      "nonclickable": false,
      "openNewTab": false,
      "borderArticle": "border-color:#0074D9;",
      "borderTopArticle": "border-top-color:#0074D9;",
      "imageListing": "/sites/globe.com.ph/files/content/dam/globe/brie/AboutUs/newsroom/business/mybusiness-breakthroughs-tourism-conference/business-breakthroughs-tourism-conference-press-release-thumbnail-listing.jpg",
      "articleUrl": "https://www.globe.com.ph/about-us/newsroom/business/mybusiness-breakthroughs-tourism-conference.html",
      "columnType": "articles--type-3",
      "typeListing": "article",
      "imageMobile": "/sites/globe.com.ph/files/content/dam/globe/brie/AboutUs/newsroom/business/mybusiness-breakthroughs-tourism-conference/Business-Breakthroughs-Tourism-conference-press-release-banner-m.jpg",
      "imageDesktop": "/sites/globe.com.ph/files/content/dam/globe/brie/AboutUs/newsroom/business/mybusiness-breakthroughs-tourism-conference/business-breakthroughs-tourism-conference-press-release-thumbnail.jpg",
      "description": "Globe myBusiness gathers tourism stakeholders at Breakthroughs: Tourism conference. Visit the Globe Newsroom for the latest news on Globe Telecom.",
      "datePosted": "Mar 27, 2019 | 11:56 AM",
      "titleFromTag": "Business"
    },
    {
      "title": "Globe Telecom Guides Schools on How to Thrive in a Digital Environment at EduTECH 2019",
      "nonclickable": false,
      "openNewTab": false,
      "borderArticle": "border-color:#1C91C5;",
      "borderTopArticle": "border-top-color:#1C91C5;",
      "imageListing": "/sites/globe.com.ph/files/content/dam/globe/brie/AboutUs/newsroom/sustainability/globe-telecom-edutech2019/sustainability-digiltal-environement-edutech-thumbnail-listing.jpg",
      "articleUrl": "https://www.globe.com.ph/about-us/newsroom/sustainability/globe-telecom-edutech2019.html",
      "columnType": "articles--type-3",
      "typeListing": "article",
      "imageMobile": "/sites/globe.com.ph/files/content/dam/globe/brie/AboutUs/newsroom/sustainability/globe-telecom-edutech2019/sustainability-digiltal-environement-edutech-banner-m.jpg",
      "imageDesktop": "/sites/globe.com.ph/files/content/dam/globe/brie/AboutUs/newsroom/sustainability/globe-telecom-edutech2019/sustainability-digiltal-environement-edutech-thumbnail.jpg",
      "description": "Globe Telecom guides schools on how to thrive in a digital environment at EduTECH 2019. Visit the Globe Newsroom for the latest news on Globe Telecom.",
      "datePosted": "Mar 22, 2019 | 03:19 PM",
      "titleFromTag": "Sustainability"
    },
    {
      "title": "Make it the Best Week Ever with Your Favorite Movies, Shows, and Games!",
      "nonclickable": false,
      "openNewTab": false,
      "borderArticle": "border-color:#0074D9;",
      "borderTopArticle": "border-top-color:#0074D9;",
      "imageListing": "/sites/globe.com.ph/files/content/dam/globe/brie/AboutUs/newsroom/consumer/christmas-chill-time-with-globe-prepaid-tm/consumer-christmas-chill-time-thumbnail-listing.png",
      "articleUrl": "https://www.globe.com.ph/about-us/newsroom/consumer/best-week-with-gosakto90.html",
      "columnType": "articles--type-3",
      "typeListing": "article",
      "imageMobile": "/sites/globe.com.ph/files/content/dam/globe/brie/AboutUs/newsroom/consumer/christmas-chill-time-with-globe-prepaid-tm/consumer-christmas-chill-time-banner-m.png",
      "imageDesktop": "/sites/globe.com.ph/files/content/dam/globe/brie/AboutUs/newsroom/consumer/christmas-chill-time-with-globe-prepaid-tm/consumer-christmas-chill-time-primary-thumbnail.png",
      "description": "Make it the best week ever with your favorite movies, shows, and games! Visit the Globe Newsroom for the latest news on Globe Telecom.",
      "datePosted": "Mar 22, 2019 | 03:17 PM",
      "titleFromTag": "Consumer"
    },
    {
      "title": "Team Liyab All Set to Compete at Upcoming League of Legends SEA National Qualifiers",
      "nonclickable": false,
      "openNewTab": false,
      "borderArticle": "border-color:#0074D9;",
      "borderTopArticle": "border-top-color:#0074D9;",
      "imageListing": "/sites/globe.com.ph/files/content/dam/globe/brie/AboutUs/newsroom/corporate/team-liyab-all-set-league-of-legends-sea/corporate-liyab-lol-sea-thumbnail-listing.png",
      "articleUrl": "https://www.globe.com.ph/about-us/newsroom/corporate/team-liyab-all-set-league-of-legends-sea.html",
      "columnType": "articles--type-3",
      "typeListing": "article",
      "imageMobile": "/sites/globe.com.ph/files/content/dam/globe/brie/AboutUs/newsroom/corporate/team-liyab-all-set-league-of-legends-sea/corporate-liyab-lol-sea-banner-m.png",
      "imageDesktop": "/sites/globe.com.ph/files/content/dam/globe/brie/AboutUs/newsroom/corporate/team-liyab-all-set-league-of-legends-sea/corporate-liyab-lol-sea-primary-thumbnail.png",
      "description": "Team Liyab is all set to compete at the upcoming League of Legends (LoL) SEA national qualifiers. Visit the Globe Newsroom for the latest news on Globe Telecom.",
      "datePosted": "Mar 22, 2019 | 02:16 PM",
      "titleFromTag": "Corporate"
    },
    {
      "title": "Globe Telecom, Partners Accelerate Operational Agility, Innovation",
      "nonclickable": false,
      "openNewTab": false,
      "borderArticle": "border-color:#0074D9;",
      "borderTopArticle": "border-top-color:#0074D9;",
      "imageListing": "/sites/globe.com.ph/files/content/dam/globe/brie/AboutUs/newsroom/partners/globe-partners-accelerate-operation-agility-innovation/citizenship-cyber-safety-skills-thumbnail-listing.png",
      "articleUrl": "https://www.globe.com.ph/about-us/newsroom/partners/globe-partners-accelerate-operation-agility-innovation.html",
      "columnType": "articles--type-3",
      "typeListing": "article",
      "imageMobile": "/sites/globe.com.ph/files/content/dam/globe/brie/AboutUs/newsroom/partners/globe-partners-accelerate-operation-agility-innovation/citizenship-cyber-safety-skills-banner-m.gif",
      "imageDesktop": "/sites/globe.com.ph/files/content/dam/globe/brie/AboutUs/newsroom/partners/globe-partners-accelerate-operation-agility-innovation/partners-accelerate-operational-agility-agility-primary-thumbnail.png",
      "description": "Globe Telecom and partners accelerate operational agility and innovation. Visit the Globe Newsroom for the latest news on Globe Telecom.",
      "datePosted": "Mar 22, 2019 | 01:48 PM",
      "titleFromTag": "Partners"
    },
    {
      "title": "Globe Telecom Encourages Enterprises to Prepare for a Mobile Workforce to Remain Competitive",
      "nonclickable": false,
      "openNewTab": false,
      "borderArticle": "border-color:#0074D9;",
      "borderTopArticle": "border-top-color:#0074D9;",
      "imageListing": "/sites/globe.com.ph/files/content/dam/globe/brie/AboutUs/newsroom/business/globe-encourages-enterprises-mobile-workforce/business-rainforest-mobile-workforce-competitive-thumbnail-listing.jpg",
      "articleUrl": "https://www.globe.com.ph/about-us/newsroom/business/globe-encourages-enterprises-mobile-workforce.html",
      "columnType": "articles--type-3",
      "typeListing": "article",
      "imageMobile": "/sites/globe.com.ph/files/content/dam/globe/brie/AboutUs/newsroom/business/globe-encourages-enterprises-mobile-workforce/sustainability-restore-primary-rainforests-banner-m.jpg",
      "imageDesktop": "/sites/globe.com.ph/files/content/dam/globe/brie/AboutUs/newsroom/business/globe-encourages-enterprises-mobile-workforce/business-rainforest-mobile-workforce-competitive-thumbnail.jpg",
      "description": "Globe Telecom encourages enterprises to prepare for a mobile workforce to remain competitive. Visit the Globe Newsroom for the latest news on Globe Telecom.",
      "datePosted": "Mar 21, 2019 | 12:47 PM",
      "titleFromTag": "Business"
    },
    {
      "title": "Help Restore Our Primary Rainforests with Your Globe Rewards Points",
      "nonclickable": false,
      "openNewTab": false,
      "borderArticle": "border-color:#1C91C5;",
      "borderTopArticle": "border-top-color:#1C91C5;",
      "imageListing": "/sites/globe.com.ph/files/content/dam/globe/brie/AboutUs/newsroom/sustainability/restore-primary-rainforests-globe-rewards/sustainability-restore-primary-rainforests-thumbnail-listing.jpg",
      "articleUrl": "https://www.globe.com.ph/about-us/newsroom/sustainability/restore-primary-rainforests-globe-rewards.html",
      "columnType": "articles--type-3",
      "typeListing": "article",
      "imageMobile": "/sites/globe.com.ph/files/content/dam/globe/brie/AboutUs/newsroom/sustainability/restore-primary-rainforests-globe-rewards/sustainability-restore-primary-rainforests-banner-m.jpg",
      "imageDesktop": "/sites/globe.com.ph/files/content/dam/globe/brie/AboutUs/newsroom/sustainability/restore-primary-rainforests-globe-rewards/sustainability-restore-primary-rainforests-thumbnail.jpg",
      "description": "Help restore our primary rainforests with your Globe Rewards points. Visit the Globe Newsroom for the latest news on Globe Telecom.",
      "datePosted": "Mar 20, 2019 | 03:47 PM",
      "titleFromTag": "Sustainability"
    },
    {
      "title": "Globe Telecom Joins Plan International in Enhancing Cyber Safety Skills of Youth and Parents",
      "nonclickable": false,
      "openNewTab": false,
      "borderArticle": "border-color:#0074D9;",
      "borderTopArticle": "border-top-color:#0074D9;",
      "imageListing": "/sites/globe.com.ph/files/content/dam/globe/brie/AboutUs/newsroom/citizenship/globe-joins-plan-international-enhancing-cybersafety/citizenship-cyber-safety-skills-thumbnail-listing.png",
      "articleUrl": "https://www.globe.com.ph/about-us/newsroom/citizenship/globe-joins-plan-international-enhancing-cybersafety.html",
      "columnType": "articles--type-3",
      "typeListing": "article",
      "imageMobile": "/sites/globe.com.ph/files/content/dam/globe/brie/AboutUs/newsroom/citizenship/globe-joins-plan-international-enhancing-cybersafety/citizenship-cyber-safety-skills-banner-m.gif",
      "imageDesktop": "/sites/globe.com.ph/files/content/dam/globe/brie/AboutUs/newsroom/citizenship/globe-joins-plan-international-enhancing-cybersafety/citizenship-cyber-safety-skills-primary-thumbnail.png",
      "description": "Globe Telecom joins Plan International in enhancing cyber safety skills of the youth and their parents. Visit the Globe Newsroom for the latest news",
      "datePosted": "Mar 19, 2019 | 02:21 PM",
      "titleFromTag": "Citizenship"
    },
    {
      "title": "Globe Telecom Launches Globe Future Makers 2019 in Search of Social Innovation Startups",
      "nonclickable": false,
      "openNewTab": false,
      "borderArticle": "border-color:#0074D9;",
      "borderTopArticle": "border-top-color:#0074D9;",
      "imageListing": "/sites/globe.com.ph/files/content/dam/globe/brie/AboutUs/newsroom/corporate/globe-future-makers-2019-innovation-startups/corporate-globe-future-makers-thumbnail-listing.png",
      "articleUrl": "https://www.globe.com.ph/about-us/newsroom/corporate/globe-future-makers-2019-innovation-startups.html",
      "columnType": "articles--type-3",
      "typeListing": "article",
      "imageMobile": "/sites/globe.com.ph/files/content/dam/globe/brie/AboutUs/newsroom/corporate/globe-future-makers-2019-innovation-startups/corporate-globe-future-makers-banner-m.gif",
      "imageDesktop": "/sites/globe.com.ph/files/content/dam/globe/brie/AboutUs/newsroom/corporate/globe-future-makers-2019-innovation-startups/corporate-globe-future-makers-primary-thumbnail.png",
      "description": "Globe Telecom launches Globe Future Makers 2019 in search of social innovation startups. Visit the Globe Newsroom for the latest news on Globe Telecom.",
      "datePosted": "Mar 14, 2019 | 01:56 PM",
      "titleFromTag": "Corporate"
    },
    {
      "title": "Celebrate Araw ng Davao the Globe Way!",
      "nonclickable": false,
      "openNewTab": false,
      "borderArticle": "border-color:#0074D9;",
      "borderTopArticle": "border-top-color:#0074D9;",
      "imageListing": "/sites/globe.com.ph/files/content/dam/globe/brie/AboutUs/newsroom/consumer/globe-araw-ng-davao/consumer-araw-ng-davao-thumbnail-listing.jpg",
      "articleUrl": "https://www.globe.com.ph/about-us/newsroom/consumer/globe-araw-ng-davao.html",
      "columnType": "articles--type-3",
      "typeListing": "article",
      "imageMobile": "/sites/globe.com.ph/files/content/dam/globe/brie/AboutUs/newsroom/consumer/globe-araw-ng-davao/consumer-araw-ng-davao-banner-m.jpg",
      "imageDesktop": "/sites/globe.com.ph/files/content/dam/globe/brie/AboutUs/newsroom/consumer/globe-araw-ng-davao/consumer-araw-ng-davao-thumbnail.jpg",
      "description": "Celebrate Araw ng Davao the Globe way! Visit the Globe Newsroom for the latest news on Globe Telecom.",
      "datePosted": "Mar 13, 2019 | 05:23 PM",
      "titleFromTag": "Consumer"
    },
    {
      "title": "‘Triple Frontier’, Netflix’s New Star-Studded Action Adventure Film Starts Streaming on March 13",
      "nonclickable": false,
      "openNewTab": false,
      "borderArticle": "border-color:#0074D9;",
      "borderTopArticle": "border-top-color:#0074D9;",
      "imageListing": "/sites/globe.com.ph/files/content/dam/globe/brie/AboutUs/newsroom/consumer/triple-frontier-netflix-streaming-march13/consumer-triple-frontier-netflix-thumbnail-listing.jpg",
      "articleUrl": "https://www.globe.com.ph/about-us/newsroom/consumer/triple-frontier-netflix-streaming-march13.html",
      "columnType": "articles--type-3",
      "typeListing": "article",
      "imageMobile": "/sites/globe.com.ph/files/content/dam/globe/brie/AboutUs/newsroom/consumer/triple-frontier-netflix-streaming-march13/consumer-triple-frontier-netflix-banner-m.jpg",
      "imageDesktop": "/sites/globe.com.ph/files/content/dam/globe/brie/AboutUs/newsroom/consumer/triple-frontier-netflix-streaming-march13/consumer-triple-frontier-netflix-thumbnail.jpg",
      "description": "‘Triple Frontier’, Netflix’s new star-studded action adventure film starts streaming on March 13. Visit the Globe Newsroom for the latest news on Globe Telecom.",
      "datePosted": "Mar 13, 2019 | 05:05 PM",
      "titleFromTag": "Consumer"
    }
  ]
}
