{
  "status": 200,
  "page": 213,
  "totalPage": 298,
  "range": "2545-2556",
  "total": 3573,
  "result": [
    {
      "title": "FDCP Chair Liza Dino Enjoins Filmmakers to Combat Growing Content Piracy with Globe #PlayItRight",
      "nonclickable": false,
      "openNewTab": false,
      "borderArticle": "border-color:#0074D9;",
      "borderTopArticle": "border-top-color:#0074D9;",
      "imageListing": "/sites/globe.com.ph/files/content/dam/globe/brie/AboutUs/newsroom/corporate/fdcp-chair-liza-dino-filmmakers-playitright/corporate-liza-dino-playitright-thumbnail-listing.jpg",
      "articleUrl": "https://www.globe.com.ph/about-us/newsroom/corporate/fdcp-chair-liza-dino-filmmakers-playitright.html",
      "columnType": "articles--type-3",
      "typeListing": "article",
      "imageMobile": "/sites/globe.com.ph/files/content/dam/globe/brie/AboutUs/newsroom/corporate/fdcp-chair-liza-dino-filmmakers-playitright/corporate-liza-dino-playitright-banner-m.jpg",
      "imageDesktop": "/sites/globe.com.ph/files/content/dam/globe/brie/AboutUs/newsroom/corporate/fdcp-chair-liza-dino-filmmakers-playitright/corporate-liza-dino-playitright-thumbnail.jpg",
      "description": "FDCP Chair Liza Dino enjoins filmmakers to combat growing content piracy with Globe #PlayItRight. Visit the Globe Newsroom for the latest news on Globe Telecom.",
      "datePosted": "Mar 13, 2019 | 10:39 AM",
      "titleFromTag": "Corporate"
    },
    {
      "title": "Globe Unveils First Esports Center",
      "nonclickable": false,
      "openNewTab": false,
      "borderArticle": "border-color:#0074D9;",
      "borderTopArticle": "border-top-color:#0074D9;",
      "imageListing": "/sites/globe.com.ph/files/content/dam/globe/brie/AboutUs/newsroom/corporate/globe-unveils-first-esports-center/corporate-first-esports-center-thumbnail-listing.png",
      "articleUrl": "https://www.globe.com.ph/about-us/newsroom/corporate/globe-unveils-first-esports-center.html",
      "columnType": "articles--type-3",
      "typeListing": "article",
      "imageMobile": "/sites/globe.com.ph/files/content/dam/globe/brie/AboutUs/newsroom/corporate/globe-unveils-first-esports-center/corporate-first-esports-center-banner-m.gif",
      "imageDesktop": "/sites/globe.com.ph/files/content/dam/globe/brie/AboutUs/newsroom/corporate/globe-unveils-first-esports-center/corporate-first-esports-center-primary-thumbnail.png",
      "description": "Globe unveils first Esports Center. Visit the Globe Newsroom for the latest news on Globe Telecom.",
      "datePosted": "Mar 11, 2019 | 02:03 PM",
      "titleFromTag": "Corporate"
    },
    {
      "title": "3 Groundbreaking Samsung Galaxy S10 Devices—Which One is Best for You?",
      "nonclickable": false,
      "openNewTab": false,
      "borderArticle": "border-color:#0074D9;",
      "borderTopArticle": "border-top-color:#0074D9;",
      "imageListing": "/sites/globe.com.ph/files/content/dam/globe/brie/AboutUs/newsroom/consumer/groundbreaking-samsung-galaxy-S10-devices/consumer-groundbreaking-samsung-s10-preorder-thumbnail-listing.jpg",
      "articleUrl": "https://www.globe.com.ph/about-us/newsroom/consumer/groundbreaking-samsung-galaxy-s10-devices.html",
      "columnType": "articles--type-3",
      "typeListing": "article",
      "imageMobile": "/sites/globe.com.ph/files/content/dam/globe/brie/AboutUs/newsroom/consumer/groundbreaking-samsung-galaxy-S10-devices/consumer-groundbreaking-samsung-s10-preorder-banner-m.jpg",
      "imageDesktop": "/sites/globe.com.ph/files/content/dam/globe/brie/AboutUs/newsroom/consumer/groundbreaking-samsung-galaxy-S10-devices/consumer-groundbreaking-samsung-s10-preorder-primary-thumbnail.jpg",
      "description": "Three groundbreaking Samsung Galaxy S10 devices—which one is best for you? Visit the Globe Newsroom for the latest news on Globe Telecom.",
      "datePosted": "Mar 11, 2019 | 02:03 PM",
      "titleFromTag": "Consumer"
    },
    {
      "title": "Fueled by Video, Globe Mobile Data Traffic Surges by 59% in 2018",
      "nonclickable": false,
      "openNewTab": false,
      "borderArticle": "border-color:#0074D9;",
      "borderTopArticle": "border-top-color:#0074D9;",
      "imageListing": "/sites/globe.com.ph/files/content/dam/globe/brie/AboutUs/newsroom/common/Corporate_Globe_Listing.jpg",
      "articleUrl": "https://www.globe.com.ph/about-us/newsroom/corporate/globe-mobile-data-traffic-surges.html",
      "columnType": "articles--type-3",
      "typeListing": "article",
      "imageMobile": "/sites/globe.com.ph/files/content/dam/globe/brie/AboutUs/newsroom/common/Corporate_Globe_Hero-Banner-Mobile.jpg",
      "imageDesktop": "/sites/globe.com.ph/files/content/dam/globe/brie/AboutUs/newsroom/common/Corporate_Globe_Primary-Desktop-Thumbnail.jpg",
      "description": "Fueled by video, Globe mobile data traffic surges by 59% in 2018. Visit the Globe Newsroom for the latest news on Globe Telecom.",
      "datePosted": "Mar 07, 2019 | 12:26 PM",
      "titleFromTag": "Corporate"
    },
    {
      "title": "Let your weekend bloom at Panagbenga 2019!",
      "nonclickable": false,
      "openNewTab": false,
      "borderArticle": "border-color:#0074D9;",
      "borderTopArticle": "border-top-color:#0074D9;",
      "imageListing": "/sites/globe.com.ph/files/content/dam/globe/brie/AboutUs/newsroom/consumer/globe-panagbenga-2019/consumer-bloom-panagbenga-2019-thumbnail-listing.jpg",
      "articleUrl": "https://www.globe.com.ph/about-us/newsroom/consumer/globe-panagbenga-2019.html",
      "columnType": "articles--type-3",
      "typeListing": "article",
      "imageMobile": "/sites/globe.com.ph/files/content/dam/globe/brie/AboutUs/newsroom/consumer/globe-panagbenga-2019/consumer-bloom-panagbenga-2019-banner-m.jpg",
      "imageDesktop": "/sites/globe.com.ph/files/content/dam/globe/brie/AboutUs/newsroom/consumer/globe-panagbenga-2019/consumer-bloom-panagbenga-2019-primary-thumbnail.jpg",
      "description": "Let your weekend bloom at Panagbenga 2019! Visit the Globe Newsroom for the latest news on Globe Telecom.",
      "datePosted": "Mar 05, 2019 | 02:55 PM",
      "titleFromTag": "Consumer"
    },
    {
      "title": "Love Local: Homegrown Artists Take Centerstage at #GlobeWanderland 2019",
      "nonclickable": false,
      "openNewTab": false,
      "borderArticle": "border-color:#0074D9;",
      "borderTopArticle": "border-top-color:#0074D9;",
      "imageListing": "/sites/globe.com.ph/files/content/dam/globe/brie/AboutUs/newsroom/partners/homegrown-artists-globe-wanderland-2019/consumer-globe-wanderland-2019-thumbnail-listing.jpg",
      "articleUrl": "https://www.globe.com.ph/about-us/newsroom/partners/homegrown-artists-globe-wanderland-2019.html",
      "columnType": "articles--type-3",
      "typeListing": "article",
      "imageMobile": "/sites/globe.com.ph/files/content/dam/globe/brie/AboutUs/newsroom/partners/homegrown-artists-globe-wanderland-2019/consumer-globe-wanderland-2019-banner-m.jpg",
      "imageDesktop": "/sites/globe.com.ph/files/content/dam/globe/brie/AboutUs/newsroom/partners/homegrown-artists-globe-wanderland-2019/consumer-globe-wanderland-2019-primary-thumbnail.jpg",
      "description": "Love local: Homegrown artists take centerstage at #GlobeWanderland 2019. Visit the Globe Newsroom for the latest news on Globe Telecom.",
      "datePosted": "Mar 04, 2019 | 02:46 PM",
      "titleFromTag": "Partners"
    },
    {
      "title": "Go Higher, Further, and Faster with Marvel Studios’ Captain Marvel and Globe",
      "nonclickable": false,
      "openNewTab": false,
      "borderArticle": "border-color:#0074D9;",
      "borderTopArticle": "border-top-color:#0074D9;",
      "imageListing": "/sites/globe.com.ph/files/content/dam/globe/brie/AboutUs/newsroom/consumer/higher-further-fast-captain-marvel-globe/consumer-captain-marvel-studios-thumbnail-listing.jpg",
      "articleUrl": "https://www.globe.com.ph/about-us/newsroom/consumer/higher-further-fast-captain-marvel-globe.html",
      "columnType": "articles--type-3",
      "typeListing": "article",
      "imageMobile": "/sites/globe.com.ph/files/content/dam/globe/brie/AboutUs/newsroom/consumer/higher-further-fast-captain-marvel-globe/consumer-captain-marvel-studios-business-banner-m.jpg",
      "imageDesktop": "/sites/globe.com.ph/files/content/dam/globe/brie/AboutUs/newsroom/consumer/higher-further-fast-captain-marvel-globe/consumer-captain-marvel-studios-primary-thumbnail.jpg",
      "description": "#PlayItRight and watch it in cinemas starting March 6. Visit the Globe Newsroom for the latest news on Globe Telecom.",
      "datePosted": "Mar 01, 2019 | 04:13 PM",
      "titleFromTag": "Consumer"
    },
    {
      "title": "Suit Up in Style with the 0917 Lifestyle x Captain Marvel Collection!",
      "nonclickable": false,
      "openNewTab": false,
      "borderArticle": "border-color:#0074D9;",
      "borderTopArticle": "border-top-color:#0074D9;",
      "imageListing": "/sites/globe.com.ph/files/content/dam/globe/brie/AboutUs/newsroom/consumer/0917-lifestyle-captain-marvel-collection/consumer-0917-captin-marvel-thumbnail-listing.jpg",
      "articleUrl": "https://www.globe.com.ph/about-us/newsroom/consumer/0917-lifestyle-captain-marvel-collection.html",
      "columnType": "articles--type-3",
      "typeListing": "article",
      "imageMobile": "/sites/globe.com.ph/files/content/dam/globe/brie/AboutUs/newsroom/consumer/0917-lifestyle-captain-marvel-collection/consumer-0917-captin-marvel-business-banner-m.jpg",
      "imageDesktop": "/sites/globe.com.ph/files/content/dam/globe/brie/AboutUs/newsroom/consumer/0917-lifestyle-captain-marvel-collection/consumer-0917-captin-marvel-primary-thumbnail.jpg",
      "description": "Suit up in style with the 0917 Lifestyle x Captain Marvel collection! Visit the Globe Newsroom for the latest news on Globe Telecom.",
      "datePosted": "Mar 01, 2019 | 04:06 PM",
      "titleFromTag": "Consumer"
    },
    {
      "title": "Super Stream ‘The Umbrella Academy’ on Netflix with Globe At Home",
      "nonclickable": false,
      "openNewTab": false,
      "borderArticle": "border-color:#0074D9;",
      "borderTopArticle": "border-top-color:#0074D9;",
      "imageListing": "/sites/globe.com.ph/files/content/dam/globe/brie/AboutUs/newsroom/consumer/umbrella-academy-netflix-globe-at-home/consumer-the-umbrella-academy-thumbnail-listing.jpg",
      "articleUrl": "https://www.globe.com.ph/about-us/newsroom/consumer/umbrella-academy-netflix-globe-at-home.html",
      "columnType": "articles--type-3",
      "typeListing": "article",
      "imageMobile": "/sites/globe.com.ph/files/content/dam/globe/brie/AboutUs/newsroom/consumer/umbrella-academy-netflix-globe-at-home/consumer-the-umbrella-academy-business-banner-m.jpg",
      "imageDesktop": "/sites/globe.com.ph/files/content/dam/globe/brie/AboutUs/newsroom/consumer/umbrella-academy-netflix-globe-at-home/consumer-the-umbrella-academy-primary-thumbnail.jpg",
      "description": "Super stream ‘The Umbrella Academy’ on Netflix with Globe At Home. Visit the Globe Newsroom for the latest news on Globe Telecom.",
      "datePosted": "Mar 01, 2019 | 03:23 PM",
      "titleFromTag": "Consumer"
    },
    {
      "title": "Greenwich, Globe Business Offer Free Mobile Calls to #5-55-55 Delivery Service",
      "nonclickable": false,
      "openNewTab": false,
      "borderArticle": "border-color:#0074D9;",
      "borderTopArticle": "border-top-color:#0074D9;",
      "imageListing": "/sites/globe.com.ph/files/content/dam/globe/brie/AboutUs/newsroom/business/greenwich-globe-business-free-mobile-call-delivery/business-greenwich-globe-business-thumbnail-listing.jpg",
      "articleUrl": "https://www.globe.com.ph/about-us/newsroom/business/greenwich-globe-business-free-mobile-call-delivery.html",
      "columnType": "articles--type-3",
      "typeListing": "article",
      "imageMobile": "/sites/globe.com.ph/files/content/dam/globe/brie/AboutUs/newsroom/business/greenwich-globe-business-free-mobile-call-delivery/business-greenwich-globe-business-banner-m.jpg",
      "imageDesktop": "/sites/globe.com.ph/files/content/dam/globe/brie/AboutUs/newsroom/business/greenwich-globe-business-free-mobile-call-delivery/business-greenwich-globe-business-primary-thumbnail.jpg",
      "description": "Greenwich, Globe Business offer free mobile calls to #5-55-55 delivery service. Visit the Globe Newsroom for the latest news on Globe Telecom.",
      "datePosted": "Feb 28, 2019 | 02:51 PM",
      "titleFromTag": "Business"
    },
    {
      "title": "Globe Live Holds Special OPM Concert for a Special Hearts’ Day",
      "nonclickable": false,
      "openNewTab": false,
      "borderArticle": "border-color:#0074D9;",
      "borderTopArticle": "border-top-color:#0074D9;",
      "imageListing": "/sites/globe.com.ph/files/content/dam/globe/brie/AboutUs/newsroom/consumer/globe-live-opm-concert-hearts-day/consumer-globe-live-opm-thumbnail-listing.jpg",
      "articleUrl": "https://www.globe.com.ph/about-us/newsroom/consumer/globe-live-opm-concert-hearts-day.html",
      "columnType": "articles--type-3",
      "typeListing": "article",
      "imageMobile": "/sites/globe.com.ph/files/content/dam/globe/brie/AboutUs/newsroom/consumer/globe-live-opm-concert-hearts-day/consumer-globe-live-opm-banner-m.jpg",
      "imageDesktop": "/sites/globe.com.ph/files/content/dam/globe/brie/AboutUs/newsroom/consumer/globe-live-opm-concert-hearts-day/consumer-globe-live-opm-primary-thumbnail.jpg",
      "description": "Elements Music Camp artists captivate music lovers in post-Valentines concert. Visit the Globe Newsroom for the latest news on Globe Telecom.",
      "datePosted": "Feb 28, 2019 | 02:41 PM",
      "titleFromTag": "Consumer"
    },
    {
      "title": "Home Entertainment to the Xtreme!",
      "nonclickable": false,
      "openNewTab": false,
      "borderArticle": "border-color:#0074D9;",
      "borderTopArticle": "border-top-color:#0074D9;",
      "imageListing": "/sites/globe.com.ph/files/content/dam/globe/brie/AboutUs/newsroom/consumer/home-entertainment-xtreme/consumer-home-entertainment-xtreme-thumbnail-listing.jpg",
      "articleUrl": "https://www.globe.com.ph/about-us/newsroom/consumer/home-entertainment-xtreme.html",
      "columnType": "articles--type-3",
      "typeListing": "article",
      "imageMobile": "/sites/globe.com.ph/files/content/dam/globe/brie/AboutUs/newsroom/consumer/home-entertainment-xtreme/consumer-home-entertainment-xtreme-banner-m.jpg",
      "imageDesktop": "/sites/globe.com.ph/files/content/dam/globe/brie/AboutUs/newsroom/consumer/home-entertainment-xtreme/consumer-home-entertainment-xtreme-primary-thumbnail.jpg",
      "description": "Get home entertainment to the Xtreme! Visit the Globe Newsroom for the latest news on Globe Telecom.",
      "datePosted": "Feb 26, 2019 | 02:00 PM",
      "titleFromTag": "Consumer"
    }
  ]
}
