{
  "status": 200,
  "page": 214,
  "totalPage": 298,
  "range": "2557-2568",
  "total": 3573,
  "result": [
    {
      "title": "Tackle Life’s Next Big Adventure with the New Samsung Galaxy S10",
      "nonclickable": false,
      "openNewTab": false,
      "borderArticle": "border-color:#0074D9;",
      "borderTopArticle": "border-top-color:#0074D9;",
      "imageListing": "/sites/globe.com.ph/files/content/dam/globe/brie/AboutUs/newsroom/consumer/next-big-adventure-samsung-galaxy-s10/consumer-samsung-s10-preorder-thumbnail-listing.jpg",
      "articleUrl": "https://www.globe.com.ph/about-us/newsroom/consumer/next-big-adventure-samsung-galaxy-s10.html",
      "columnType": "articles--type-3",
      "typeListing": "article",
      "imageMobile": "/sites/globe.com.ph/files/content/dam/globe/brie/AboutUs/newsroom/consumer/next-big-adventure-samsung-galaxy-s10/consumer-samsung-s10-preorder-banner-m.jpg",
      "imageDesktop": "/sites/globe.com.ph/files/content/dam/globe/brie/AboutUs/newsroom/consumer/next-big-adventure-samsung-galaxy-s10/consumer-samsung-s10-preorder-primary-thumbnail.jpg",
      "description": "Tackle life’s next big adventure with the new Samsung Galaxy S10. Visit the Globe Newsroom for the latest news on Globe Telecom.",
      "datePosted": "Feb 26, 2019 | 12:07 PM",
      "titleFromTag": "Consumer"
    },
    {
      "title": "Lucky Globe At Home Subscriber Met Captain Marvel Cast at Singapore Fan Event",
      "nonclickable": false,
      "openNewTab": false,
      "borderArticle": "border-color:#0074D9;",
      "borderTopArticle": "border-top-color:#0074D9;",
      "imageListing": "/sites/globe.com.ph/files/content/dam/globe/brie/AboutUs/newsroom/consumer/globe-at-home-subscriber-met-captain-marvel-cast/consumer-captain-marvel-singapore-thumbnail-listing.jpg",
      "articleUrl": "https://www.globe.com.ph/about-us/newsroom/consumer/globe-at-home-subscriber-met-captain-marvel-cast.html",
      "columnType": "articles--type-3",
      "typeListing": "article",
      "imageMobile": "/sites/globe.com.ph/files/content/dam/globe/brie/AboutUs/newsroom/consumer/globe-at-home-subscriber-met-captain-marvel-cast/consumer-captain-marvel-singapore-banner-m.jpg",
      "imageDesktop": "/sites/globe.com.ph/files/content/dam/globe/brie/AboutUs/newsroom/consumer/globe-at-home-subscriber-met-captain-marvel-cast/consumer-captain-marvel-singapore-primary-thumbnail.jpg",
      "description": "Lucky Globe At Home subscriber met Captain Marvel cast at Singapore fan event. Visit the Globe Newsroom for the latest news on Globe Telecom",
      "datePosted": "Feb 26, 2019 | 12:00 PM",
      "titleFromTag": "Consumer"
    },
    {
      "title": "4 Reasons that Make Wanderland Festival Different from the Rest",
      "nonclickable": false,
      "openNewTab": false,
      "borderArticle": "border-color:#0074D9;",
      "borderTopArticle": "border-top-color:#0074D9;",
      "imageListing": "/sites/globe.com.ph/files/content/dam/globe/brie/AboutUs/newsroom/consumer/whos-at-wanderland-2019/consumer-wanderland-festival-2019-thumbnail-listing.png",
      "articleUrl": "https://www.globe.com.ph/about-us/newsroom/consumer/four-reasons-wanderland-festival.html",
      "columnType": "articles--type-3",
      "typeListing": "article",
      "imageMobile": "/sites/globe.com.ph/files/content/dam/globe/brie/AboutUs/newsroom/consumer/whos-at-wanderland-2019/consumer-wanderland-festival-2019-banner-m.png",
      "imageDesktop": "/sites/globe.com.ph/files/content/dam/globe/brie/AboutUs/newsroom/consumer/whos-at-wanderland-2019/consumer-wanderland-festival-2019-primary-thumbnail.png",
      "description": "Here are the 4 reasons that make Wanderland festival different from the rest. Visit the Globe Newsroom for the latest news on Globe Telecom.",
      "datePosted": "Feb 20, 2019 | 02:06 PM",
      "titleFromTag": "Consumer"
    },
    {
      "title": "Globe Platinum Brings Japan's teamLab to Art Fair PH for First-of-Its-Kind Exhibit",
      "nonclickable": false,
      "openNewTab": false,
      "borderArticle": "border-color:#0074D9;",
      "borderTopArticle": "border-top-color:#0074D9;",
      "imageListing": "/sites/globe.com.ph/files/content/dam/globe/brie/AboutUs/newsroom/consumer/globe-platinum-japan-teamLab-art-fair-ph/consumer-platinum-japan-teamlab-thumbnail-listing.jpg",
      "articleUrl": "https://www.globe.com.ph/about-us/newsroom/consumer/globe-platinum-japan-teamlab-art-fair-ph.html",
      "columnType": "articles--type-3",
      "typeListing": "article",
      "imageMobile": "/sites/globe.com.ph/files/content/dam/globe/brie/AboutUs/newsroom/consumer/globe-platinum-japan-teamLab-art-fair-ph/consumer-platinum-japan-teamlab-banner-m.jpg",
      "imageDesktop": "/sites/globe.com.ph/files/content/dam/globe/brie/AboutUs/newsroom/consumer/globe-platinum-japan-teamLab-art-fair-ph/consumer-platinum-japan-teamlab-primary-thumbnail.jpg",
      "description": "Globe Platinum brings Japan's teamLab to Art Fair PH for the first-of-its-kind exhibit. Visit the Globe Newsroom for the latest news on Globe Telecom.",
      "datePosted": "Feb 20, 2019 | 11:49 AM",
      "titleFromTag": "Consumer"
    },
    {
      "title": "Meet Team Lakay with Globe Postpaid and ONE Championship",
      "nonclickable": false,
      "openNewTab": false,
      "borderArticle": "border-color:#0074D9;",
      "borderTopArticle": "border-top-color:#0074D9;",
      "imageListing": "/sites/globe.com.ph/files/content/dam/globe/brie/AboutUs/newsroom/consumer/team-lakay-globe-postpaid-one-champ/consumer-meet-team-lakay-thumbnail-listing.jpg",
      "articleUrl": "https://www.globe.com.ph/about-us/newsroom/consumer/team-lakay-globe-postpaid-one-champ.html",
      "columnType": "articles--type-3",
      "typeListing": "article",
      "imageMobile": "/sites/globe.com.ph/files/content/dam/globe/brie/AboutUs/newsroom/consumer/team-lakay-globe-postpaid-one-champ/consumer-meet-team-lakay-banner-m.jpg",
      "imageDesktop": "/sites/globe.com.ph/files/content/dam/globe/brie/AboutUs/newsroom/consumer/team-lakay-globe-postpaid-one-champ/consumer-meet-team-lakay-primary-thumbnail.jpg",
      "description": "Meet Team Lakay with Globe Postpaid and ONE Championship. Visit the Globe Newsroom for the latest news on Globe Telecom.",
      "datePosted": "Feb 19, 2019 | 02:44 PM",
      "titleFromTag": "Consumer"
    },
    {
      "title": "Globe myBusiness Prepares Supply Chain SMEs for Digitalization",
      "nonclickable": false,
      "openNewTab": false,
      "borderArticle": "border-color:#0074D9;",
      "borderTopArticle": "border-top-color:#0074D9;",
      "imageListing": "/sites/globe.com.ph/files/content/dam/globe/brie/AboutUs/newsroom/business/globe-mybusiness-supply-chain-smes-digitalization/business-supply-chain-smes-thumbnail-listing.jpg",
      "articleUrl": "https://www.globe.com.ph/about-us/newsroom/business/globe-mybusiness-supply-chain-smes-digitalization.html",
      "columnType": "articles--type-3",
      "typeListing": "article",
      "imageMobile": "/sites/globe.com.ph/files/content/dam/globe/brie/AboutUs/newsroom/business/globe-mybusiness-supply-chain-smes-digitalization/business-supply-chain-smes-banner-m.jpg",
      "imageDesktop": "/sites/globe.com.ph/files/content/dam/globe/brie/AboutUs/newsroom/business/globe-mybusiness-supply-chain-smes-digitalization/business-supply-chain-smes-primary-thumbnail.jpg",
      "description": "Globe myBusiness prepares supply chain SMEs for digitalization. Visit the Globe Newsroom for the latest news on Globe Telecom.",
      "datePosted": "Feb 18, 2019 | 01:39 PM",
      "titleFromTag": "Business"
    },
    {
      "title": "Relive the Best of the Historic Event, ONE: HERO'S ASCENT!",
      "nonclickable": false,
      "openNewTab": false,
      "borderArticle": "border-color:#0074D9;",
      "borderTopArticle": "border-top-color:#0074D9;",
      "imageListing": "/sites/globe.com.ph/files/content/dam/globe/brie/AboutUs/newsroom/consumer/relive-best-historic-event-one-heros-ascent/consumer-one-hero-ascent-thumbnail-listing.jpg",
      "articleUrl": "https://www.globe.com.ph/about-us/newsroom/consumer/relive-best-historic-event-one-heros-ascent.html",
      "columnType": "articles--type-3",
      "typeListing": "article",
      "imageMobile": "/sites/globe.com.ph/files/content/dam/globe/brie/AboutUs/newsroom/consumer/relive-best-historic-event-one-heros-ascent/consumer-one-hero-ascent-banner-m.jpg",
      "imageDesktop": "/sites/globe.com.ph/files/content/dam/globe/brie/AboutUs/newsroom/consumer/relive-best-historic-event-one-heros-ascent/consumer-one-hero-ascent-primary-thumbnail.jpg",
      "description": "Relive the best of the historic event, ONE: HERO'S ASCENT! Visit the Globe Newsroom for the latest news on Globe Telecom.",
      "datePosted": "Feb 15, 2019 | 02:42 PM",
      "titleFromTag": "Consumer"
    },
    {
      "title": "Catch Some of Today’s Hottest Local Acts at “Love Street: A Valentine Concert”",
      "nonclickable": false,
      "openNewTab": false,
      "borderArticle": "border-color:#0074D9;",
      "borderTopArticle": "border-top-color:#0074D9;",
      "imageListing": "/sites/globe.com.ph/files/content/dam/globe/brie/AboutUs/newsroom/consumer/catch-lovestreet-valentine-concert/consumer-a-valentine-concert-thumbnail-listing.jpg",
      "articleUrl": "https://www.globe.com.ph/about-us/newsroom/consumer/catch-lovestreet-valentine-concert.html",
      "columnType": "articles--type-3",
      "typeListing": "article",
      "imageMobile": "/sites/globe.com.ph/files/content/dam/globe/brie/AboutUs/newsroom/consumer/catch-lovestreet-valentine-concert/consumer-a-valentine-concert-banner-m.jpg",
      "imageDesktop": "/sites/globe.com.ph/files/content/dam/globe/brie/AboutUs/newsroom/consumer/catch-lovestreet-valentine-concert/consumer-a-valentine-concert-primary-thumbnail.jpg",
      "description": "Catch some of today’s hottest local acts at \"Love Street: A Valentine Concert\". Visit the Globe Newsroom for the latest news on Globe Telecom.",
      "datePosted": "Feb 15, 2019 | 01:03 PM",
      "titleFromTag": "Consumer"
    },
    {
      "title": "7 Reasons Why We’ll Never Forget BLACKPINK in Manila",
      "nonclickable": false,
      "openNewTab": false,
      "borderArticle": "border-color:#0074D9;",
      "borderTopArticle": "border-top-color:#0074D9;",
      "imageListing": "/sites/globe.com.ph/files/content/dam/globe/brie/AboutUs/newsroom/consumer/seven-reasons-why-we-will-never-forget-blackpink-manila/consumer-never-forget-blackpink-thumbnail-listing.jpg",
      "articleUrl": "https://www.globe.com.ph/about-us/newsroom/consumer/seven-reasons-why-we-will-never-forget-blackpink-manila.html",
      "columnType": "articles--type-3",
      "typeListing": "article",
      "imageMobile": "/sites/globe.com.ph/files/content/dam/globe/brie/AboutUs/newsroom/consumer/seven-reasons-why-we-will-never-forget-blackpink-manila/consumer-never-forget-blackpink-banner-m.jpg",
      "imageDesktop": "/sites/globe.com.ph/files/content/dam/globe/brie/AboutUs/newsroom/consumer/seven-reasons-why-we-will-never-forget-blackpink-manila/consumer-never-forget-blackpink-primary-thumbnail.jpg",
      "description": "Here are the 7 reasons why we'll never forget BLACKPINK in Manila. Visit the Globe Newsroom for the latest news on Globe Telecom.",
      "datePosted": "Feb 15, 2019 | 12:27 PM",
      "titleFromTag": "Consumer"
    },
    {
      "title": "Coins.ph: Anatomy of a Philippine Digital Startup Success",
      "nonclickable": false,
      "openNewTab": false,
      "borderArticle": "border-color:#0074D9;",
      "borderTopArticle": "border-top-color:#0074D9;",
      "imageListing": "/sites/globe.com.ph/files/content/dam/globe/brie/AboutUs/newsroom/partners/coins-ph-anatomy-digital-startup-success/partners-digital-startup-success-thumbnail-listing.jpg",
      "articleUrl": "https://www.globe.com.ph/about-us/newsroom/partners/coins-ph-anatomy-digital-startup-success.html",
      "columnType": "articles--type-3",
      "typeListing": "article",
      "imageMobile": "/sites/globe.com.ph/files/content/dam/globe/brie/AboutUs/newsroom/partners/coins-ph-anatomy-digital-startup-success/partners-digital-startup-success-banner-m.jpg",
      "imageDesktop": "/sites/globe.com.ph/files/content/dam/globe/brie/AboutUs/newsroom/partners/coins-ph-anatomy-digital-startup-success/partners-digital-startup-success-globe-primary-thumbnail.jpg",
      "description": "Coins.ph is now Southeast Asia’s leading mobile blockchain-enabled platform. Visit the Globe Newsroom for the latest news on Globe Telecom.",
      "datePosted": "Feb 15, 2019 | 10:44 AM",
      "titleFromTag": "Partners"
    },
    {
      "title": "Newly Renovated Star Wars-Themed PGH Pediatric Hematology-Oncology Clinic Brings Joy to Indigent Children with Cancer",
      "nonclickable": false,
      "openNewTab": false,
      "borderArticle": "border-color:#0074D9;",
      "borderTopArticle": "border-top-color:#0074D9;",
      "imageListing": "/sites/globe.com.ph/files/content/dam/globe/brie/AboutUs/newsroom/citizenship/newly-renovated-pgh-clinic/citizenship-star-wars-pgh-thumbnail-listing.jpg",
      "articleUrl": "https://www.globe.com.ph/about-us/newsroom/citizenship/newly-renovated-pgh-clinic.html",
      "columnType": "articles--type-3",
      "typeListing": "article",
      "imageMobile": "/sites/globe.com.ph/files/content/dam/globe/brie/AboutUs/newsroom/citizenship/newly-renovated-pgh-clinic/citizenship-star-wars-pgh-banner-m.jpg",
      "imageDesktop": "/sites/globe.com.ph/files/content/dam/globe/brie/AboutUs/newsroom/citizenship/newly-renovated-pgh-clinic/citizenship-star-wars-pgh-primary-thumbnail.jpg",
      "description": "Newly renovated Star Wars-themed PGH Pediatric Hematology-Oncology Clinic brings joy to indigent children with cancer. Visit the Globe Newsroom for more.",
      "datePosted": "Feb 13, 2019 | 02:28 PM",
      "titleFromTag": "Citizenship"
    },
    {
      "title": "Welcome to the \"Kingdom\"",
      "nonclickable": false,
      "openNewTab": false,
      "borderArticle": "border-color:#0074D9;",
      "borderTopArticle": "border-top-color:#0074D9;",
      "imageListing": "/sites/globe.com.ph/files/content/dam/globe/brie/AboutUs/newsroom/consumer/welcome-kingdom-globe-at-home/consumer-welcome-kingdom-globe-thumbnail-listing.jpg",
      "articleUrl": "https://www.globe.com.ph/about-us/newsroom/consumer/welcome-kingdom-globe-at-home.html",
      "columnType": "articles--type-3",
      "typeListing": "article",
      "imageMobile": "/sites/globe.com.ph/files/content/dam/globe/brie/AboutUs/newsroom/consumer/welcome-kingdom-globe-at-home/consumer-welcome-kingdom-globe-banner-m.jpg",
      "imageDesktop": "/sites/globe.com.ph/files/content/dam/globe/brie/AboutUs/newsroom/consumer/welcome-kingdom-globe-at-home/consumer-welcome-kingdom-globe-primary-thumbnail.jpg",
      "description": "Welcome to the \"Kingdom\" through Globe At Home. Visit the Globe Newsroom for the latest news on Globe Telecom.",
      "datePosted": "Feb 12, 2019 | 01:57 PM",
      "titleFromTag": "Consumer"
    }
  ]
}
