{
  "status": 200,
  "page": 215,
  "totalPage": 298,
  "range": "2569-2580",
  "total": 3573,
  "result": [
    {
      "title": "Globe Provides Libreng Tawag and Charging, Relief Assistance to Davao Flood Victims",
      "nonclickable": false,
      "openNewTab": false,
      "borderArticle": "border-color:#0074D9;",
      "borderTopArticle": "border-top-color:#0074D9;",
      "imageListing": "/sites/globe.com.ph/files/content/dam/globe/brie/AboutUs/newsroom/corporate/globe-provides-relief-davao-flood-victims/corporate-assistance-davao-victims-thumbnail-listing.jpg",
      "articleUrl": "https://www.globe.com.ph/about-us/newsroom/corporate/globe-provides-relief-davao-flood-victims.html",
      "columnType": "articles--type-3",
      "typeListing": "article",
      "imageMobile": "/sites/globe.com.ph/files/content/dam/globe/brie/AboutUs/newsroom/corporate/globe-provides-relief-davao-flood-victims/corporate-assistance-davao-victims-banner-m.jpg",
      "imageDesktop": "/sites/globe.com.ph/files/content/dam/globe/brie/AboutUs/newsroom/corporate/globe-provides-relief-davao-flood-victims/corporate-assistance-davao-victims-primary-thumbnail.jpg",
      "description": "Globe provides libreng tawag and charging plus relief assistance to Davao flood victims. Visit the Globe Newsroom for the latest news on Globe Telecom.",
      "datePosted": "Feb 11, 2019 | 01:44 PM",
      "titleFromTag": "Corporate"
    },
    {
      "title": "Show Your Love for Local on Netflix",
      "nonclickable": false,
      "openNewTab": false,
      "borderArticle": "border-color:#0074D9;",
      "borderTopArticle": "border-top-color:#0074D9;",
      "imageListing": "/sites/globe.com.ph/files/content/dam/globe/brie/AboutUs/newsroom/consumer/show-your-love-local-netflix/consumer-love-local-netflix-thumbnail-listing.jpg",
      "articleUrl": "https://www.globe.com.ph/about-us/newsroom/consumer/show-your-love-local-netflix.html",
      "columnType": "articles--type-3",
      "typeListing": "article",
      "imageMobile": "/sites/globe.com.ph/files/content/dam/globe/brie/AboutUs/newsroom/consumer/show-your-love-local-netflix/consumer-love-local-netflix-banner-m.jpg",
      "imageDesktop": "/sites/globe.com.ph/files/content/dam/globe/brie/AboutUs/newsroom/consumer/show-your-love-local-netflix/consumer-love-local-netflix-primary-thumbnail.jpg",
      "description": "Show your love for local on Netflix: Kick off binge-watch marathon of Filipino films on Netflix! Visit the Globe Newsroom for the latest news on Globe Telecom.",
      "datePosted": "Feb 08, 2019 | 01:35 PM",
      "titleFromTag": "Consumer"
    },
    {
      "title": "Get Ready to See Captain Marvel in the Flesh",
      "nonclickable": false,
      "openNewTab": false,
      "borderArticle": "border-color:#0074D9;",
      "borderTopArticle": "border-top-color:#0074D9;",
      "imageListing": "/sites/globe.com.ph/files/content/dam/globe/brie/AboutUs/newsroom/consumer/see-captain-marvel-in-the-flesh/consumer-captain-marvel-flesh-thumbnail-listing.jpg",
      "articleUrl": "https://www.globe.com.ph/about-us/newsroom/consumer/see-captain-marvel-in-the-flesh.html",
      "columnType": "articles--type-3",
      "typeListing": "article",
      "imageMobile": "/sites/globe.com.ph/files/content/dam/globe/brie/AboutUs/newsroom/consumer/see-captain-marvel-in-the-flesh/consumer-captain-marvel-flesh-banner-m.jpg",
      "imageDesktop": "/sites/globe.com.ph/files/content/dam/globe/brie/AboutUs/newsroom/consumer/see-captain-marvel-in-the-flesh/consumer-captain-marvel-flesh-primary-thumbnail.png",
      "description": "Get ready to see Captain Marvel in the flesh. Visit the Globe Newsroom for the latest news on Globe Telecom.",
      "datePosted": "Feb 08, 2019 | 01:34 PM",
      "titleFromTag": "Consumer"
    },
    {
      "title": "Globe, Mineski Unveil Professional Esports Team",
      "nonclickable": false,
      "openNewTab": false,
      "borderArticle": "border-color:#0074D9;",
      "borderTopArticle": "border-top-color:#0074D9;",
      "imageListing": "/sites/globe.com.ph/files/content/dam/globe/brie/AboutUs/newsroom/corporate/globe-mineski-unveil-professional-esports-team/corporate-mineski-esports-team-thumbnail-listing.jpg",
      "articleUrl": "https://www.globe.com.ph/about-us/newsroom/corporate/globe-mineski-unveil-professional-esports-team.html",
      "columnType": "articles--type-3",
      "typeListing": "article",
      "imageMobile": "/sites/globe.com.ph/files/content/dam/globe/brie/AboutUs/newsroom/corporate/globe-mineski-unveil-professional-esports-team/corporate-mineski-esports-team-banner-m.jpg",
      "imageDesktop": "/sites/globe.com.ph/files/content/dam/globe/brie/AboutUs/newsroom/corporate/globe-mineski-unveil-professional-esports-team/corporate-mineski-esports-team-primary-thumbnail.jpg",
      "description": "Globe, Mineski Unveil Professional Esports Team. Visit the Globe Newsroom for the latest news on Globe Telecom.",
      "datePosted": "Feb 08, 2019 | 11:02 AM",
      "titleFromTag": "Corporate"
    },
    {
      "title": "It's Three Times the Fun with 0917 Lifestyle's We Bare Bears collection!",
      "nonclickable": false,
      "openNewTab": false,
      "borderArticle": "border-color:#0074D9;",
      "borderTopArticle": "border-top-color:#0074D9;",
      "imageListing": "/sites/globe.com.ph/files/content/dam/globe/brie/AboutUs/newsroom/consumer/0917-lifestyle-we-bare-bears-collection/consumer-we-bare-bears-thumbnail-listing.jpg",
      "articleUrl": "https://www.globe.com.ph/about-us/newsroom/consumer/0917-lifestyle-we-bare-bears-collection.html",
      "columnType": "articles--type-3",
      "typeListing": "article",
      "imageMobile": "/sites/globe.com.ph/files/content/dam/globe/brie/AboutUs/newsroom/consumer/0917-lifestyle-we-bare-bears-collection/consumer-we-bare-bears-banner-m.jpg",
      "imageDesktop": "/sites/globe.com.ph/files/content/dam/globe/brie/AboutUs/newsroom/consumer/0917-lifestyle-we-bare-bears-collection/consumer-we-bare-bears-primary-thumbnail.jpg",
      "description": "It's three times the fun with 0917 Lifestyle's We Bare Bears collection! Visit the Globe Newsroom for the latest news on Globe Telecom.",
      "datePosted": "Feb 07, 2019 | 06:00 PM",
      "titleFromTag": "Consumer"
    },
    {
      "title": "ETO NA! MUSIKAL nAPO! Returns to Stage this February",
      "nonclickable": false,
      "openNewTab": false,
      "borderArticle": "border-color:#0074D9;",
      "borderTopArticle": "border-top-color:#0074D9;",
      "imageListing": "/sites/globe.com.ph/files/content/dam/globe/brie/AboutUs/newsroom/consumer/eto-na-musikal-na-returns-feb/consumer-musikal-napo-thumbnail-listing.jpg",
      "articleUrl": "https://www.globe.com.ph/about-us/newsroom/consumer/eto-na-musikal-na-returns-feb.html",
      "columnType": "articles--type-3",
      "typeListing": "article",
      "imageMobile": "/sites/globe.com.ph/files/content/dam/globe/brie/AboutUs/newsroom/consumer/eto-na-musikal-na-returns-feb/consumer-musikal-napo-banner-m.jpg",
      "imageDesktop": "/sites/globe.com.ph/files/content/dam/globe/brie/AboutUs/newsroom/consumer/eto-na-musikal-na-returns-feb/consumer-musikal-napo-primary-thumbnail.jpg",
      "description": "ETO NA! MUSIKAL nAPO! returns to the stage this February. Visit the Globe Newsroom for the latest news on Globe Telecom.",
      "datePosted": "Feb 07, 2019 | 03:50 PM",
      "titleFromTag": "Consumer"
    },
    {
      "title": "Globe Telecom Distributes Meal Packs to Bicol Evacuees Hit by ‘Usman’",
      "nonclickable": false,
      "openNewTab": false,
      "borderArticle": "border-color:#1C91C5;",
      "borderTopArticle": "border-top-color:#1C91C5;",
      "imageListing": "/sites/globe.com.ph/files/content/dam/globe/brie/AboutUs/newsroom/sustainability/globe-telecom-distributes-meal-packs-bicol/sustainability-distributes-meal-bicol-thumbnail-listing.png",
      "articleUrl": "https://www.globe.com.ph/about-us/newsroom/sustainability/globe-telecom-distributes-meal-packs-bicol.html",
      "columnType": "articles--type-3",
      "typeListing": "article",
      "imageMobile": "/sites/globe.com.ph/files/content/dam/globe/brie/AboutUs/newsroom/sustainability/globe-telecom-distributes-meal-packs-bicol/sustainability-distributes-meal-bicol-banner-m.png",
      "imageDesktop": "/sites/globe.com.ph/files/content/dam/globe/brie/AboutUs/newsroom/sustainability/globe-telecom-distributes-meal-packs-bicol/sustainability-distributes-meal-bicol-primary-thumbnail.png",
      "description": "Globe Telecom distributes meal packs to Bicol evacuees hit by ‘Usman’. Visit the Globe Newsroom for the latest news on Globe Telecom.",
      "datePosted": "Feb 06, 2019 | 12:03 PM",
      "titleFromTag": "Sustainability"
    },
    {
      "title": "Who’s Who at Wanderland Festival 2019",
      "nonclickable": false,
      "openNewTab": false,
      "borderArticle": "border-color:#0074D9;",
      "borderTopArticle": "border-top-color:#0074D9;",
      "imageListing": "/sites/globe.com.ph/files/content/dam/globe/brie/AboutUs/newsroom/consumer/whos-at-wanderland-2019/consumer-wanderland-festival-2019-thumbnail-listing.png",
      "articleUrl": "https://www.globe.com.ph/about-us/newsroom/consumer/whos-at-wanderland-2019.html",
      "columnType": "articles--type-3",
      "typeListing": "article",
      "imageMobile": "/sites/globe.com.ph/files/content/dam/globe/brie/AboutUs/newsroom/consumer/whos-at-wanderland-2019/consumer-wanderland-festival-2019-banner-m.png",
      "imageDesktop": "/sites/globe.com.ph/files/content/dam/globe/brie/AboutUs/newsroom/consumer/whos-at-wanderland-2019/consumer-wanderland-festival-2019-primary-thumbnail.png",
      "description": "Who's who at Wanderland Festival 2019? Visit the Globe Newsroom for the latest news on Globe Telecom.",
      "datePosted": "Feb 06, 2019 | 11:54 AM",
      "titleFromTag": "Consumer"
    },
    {
      "title": "Get Exclusive Entertainment Perks with Globe At Home",
      "nonclickable": false,
      "openNewTab": false,
      "borderArticle": "border-color:#0074D9;",
      "borderTopArticle": "border-top-color:#0074D9;",
      "imageListing": "/sites/globe.com.ph/files/content/dam/globe/brie/AboutUs/newsroom/consumer/get-exclusive-entertainment-perks-globe-at-home/consumer-entertainment-perks-globeathome-thumbnail-listing.png",
      "articleUrl": "https://www.globe.com.ph/about-us/newsroom/consumer/get-exclusive-entertainment-perks-globe-at-home.html",
      "columnType": "articles--type-3",
      "typeListing": "article",
      "imageMobile": "/sites/globe.com.ph/files/content/dam/globe/brie/AboutUs/newsroom/consumer/get-exclusive-entertainment-perks-globe-at-home/consumer-entertainment-perks-globeathome-banner-m.png",
      "imageDesktop": "/sites/globe.com.ph/files/content/dam/globe/brie/AboutUs/newsroom/consumer/get-exclusive-entertainment-perks-globe-at-home/consumer-entertainment-perks-globeathome-primary-thumbnail.png",
      "description": "Get exclusive entertainment perks with Globe At Home. Visit the Globe Newsroom for the latest news on Globe Telecom.",
      "datePosted": "Feb 01, 2019 | 01:27 PM",
      "titleFromTag": "Consumer"
    },
    {
      "title": "PH Venture Capital and Private Equity Players Form Investment Industry Association",
      "nonclickable": false,
      "openNewTab": false,
      "borderArticle": "border-color:#0074D9;",
      "borderTopArticle": "border-top-color:#0074D9;",
      "imageListing": "/sites/globe.com.ph/files/content/dam/globe/brie/AboutUs/newsroom/partners/ph-venture-capital-private-equity-players/partners-ph-venture-capital-thumbnail-listing.png",
      "articleUrl": "https://www.globe.com.ph/about-us/newsroom/partners/ph-venture-capital-private-equity-players.html",
      "columnType": "articles--type-3",
      "typeListing": "article",
      "imageMobile": "/sites/globe.com.ph/files/content/dam/globe/brie/AboutUs/newsroom/partners/ph-venture-capital-private-equity-players/partners-ph-venture-capital-banner-m.png",
      "imageDesktop": "/sites/globe.com.ph/files/content/dam/globe/brie/AboutUs/newsroom/partners/ph-venture-capital-private-equity-players/partners-ph-venture-capital-primary-thumbnail.png",
      "description": "PH venture capital and private equity players form investment industry association. Visit the Globe Newsroom for the latest news on Globe Telecom.",
      "datePosted": "Feb 01, 2019 | 10:44 AM",
      "titleFromTag": "Partners"
    },
    {
      "title": "Globe Culminates Two Exciting Festival Weekends with Big Clean-Up Drives",
      "nonclickable": false,
      "openNewTab": false,
      "borderArticle": "border-color:#1C91C5;",
      "borderTopArticle": "border-top-color:#1C91C5;",
      "imageListing": "/sites/globe.com.ph/files/content/dam/globe/brie/AboutUs/newsroom/sustainability/globe-culminates-two-festivals-big-cleanup-drive/sustainability-globe-culminates-festivals-thumbnail-listing.png",
      "articleUrl": "https://www.globe.com.ph/about-us/newsroom/sustainability/globe-culminates-two-festivals-big-cleanup-drive.html",
      "columnType": "articles--type-3",
      "typeListing": "article",
      "imageMobile": "/sites/globe.com.ph/files/content/dam/globe/brie/AboutUs/newsroom/sustainability/globe-culminates-two-festivals-big-cleanup-drive/sustainability-globe-culminates-festivals-banner-m.png",
      "imageDesktop": "/sites/globe.com.ph/files/content/dam/globe/brie/AboutUs/newsroom/sustainability/globe-culminates-two-festivals-big-cleanup-drive/sustainability-globe-culminates-festivals-primary-thumbnail.png",
      "description": "Globe culminates two exciting festival weekends with big clean-up drives. Visit the Globe Newsroom for the latest news on Globe Telecom.",
      "datePosted": "Jan 31, 2019 | 10:28 AM",
      "titleFromTag": "Sustainability"
    },
    {
      "title": "Globe Official Statement: On The List Error",
      "nonclickable": false,
      "openNewTab": false,
      "borderArticle": "border-color:#0074D9;",
      "borderTopArticle": "border-top-color:#0074D9;",
      "imageListing": "/sites/globe.com.ph/files/content/dam/globe/brie/AboutUs/newsroom/common/Corporate_Globe_Listing.jpg",
      "articleUrl": "https://www.globe.com.ph/about-us/newsroom/corporate/official-statement-on-the-list-error.html",
      "columnType": "articles--type-3",
      "typeListing": "article",
      "imageMobile": "/sites/globe.com.ph/files/content/dam/globe/brie/AboutUs/newsroom/common/Corporate_Globe_Hero-Banner-Mobile.jpg",
      "imageDesktop": "/sites/globe.com.ph/files/content/dam/globe/brie/AboutUs/newsroom/common/Corporate_Globe_Primary-Desktop-Thumbnail.jpg",
      "description": "Read Globe's official statement on On The List error. Visit the Globe Newsroom for the latest news on Globe Telecom.",
      "datePosted": "Jan 29, 2019 | 01:12 PM",
      "titleFromTag": "Corporate"
    }
  ]
}
