{
  "status": 200,
  "page": 216,
  "totalPage": 298,
  "range": "2581-2592",
  "total": 3573,
  "result": [
    {
      "title": "Get a Chance to Meet the Cast of Marvel Studios’ Captain Marvel in Singapore with Globe Prepaid!",
      "nonclickable": false,
      "openNewTab": false,
      "borderArticle": "border-color:#0074D9;",
      "borderTopArticle": "border-top-color:#0074D9;",
      "imageListing": "/sites/globe.com.ph/files/content/dam/globe/brie/AboutUs/newsroom/consumer/get-chance-to-meet-captain-marvel-cast-singapore/consumer-meet-captain-marve-thumbnail-listing.png",
      "articleUrl": "https://www.globe.com.ph/about-us/newsroom/consumer/get-chance-to-meet-captain-marvel-cast-singapore.html",
      "columnType": "articles--type-3",
      "typeListing": "article",
      "imageMobile": "/sites/globe.com.ph/files/content/dam/globe/brie/AboutUs/newsroom/consumer/get-chance-to-meet-captain-marvel-cast-singapore/consumer-meet-captain-marvel-banner-m.png",
      "imageDesktop": "/sites/globe.com.ph/files/content/dam/globe/brie/AboutUs/newsroom/consumer/get-chance-to-meet-captain-marvel-cast-singapore/consumer-meet-captain-marve-primary-thumbnail.png",
      "description": "Get a chance to meet the cast of Marvel Studios’ Captain Marvel in Singapore with Globe Prepaid! Visit the Globe Newsroom for the latest news on Globe Telecom.",
      "datePosted": "Jan 29, 2019 | 11:17 AM",
      "titleFromTag": "Consumer"
    },
    {
      "title": "Globe Telecom Brings Digital Donation Channel to Various NGOs",
      "nonclickable": false,
      "openNewTab": false,
      "borderArticle": "border-color:#1C91C5;",
      "borderTopArticle": "border-top-color:#1C91C5;",
      "imageListing": "/sites/globe.com.ph/files/content/dam/globe/brie/AboutUs/newsroom/sustainability/globe-telecom-brings-digital-donation-channel/sustainability-digital-donation-channel-thumbnail-listing.png",
      "articleUrl": "https://www.globe.com.ph/about-us/newsroom/sustainability/globe-telecom-brings-digital-donation-channel.html",
      "columnType": "articles--type-3",
      "typeListing": "article",
      "imageMobile": "/sites/globe.com.ph/files/content/dam/globe/brie/AboutUs/newsroom/sustainability/globe-telecom-brings-digital-donation-channel/sustainability-digital-donation-channel-banner-m.png",
      "imageDesktop": "/sites/globe.com.ph/files/content/dam/globe/brie/AboutUs/newsroom/sustainability/globe-telecom-brings-digital-donation-channel/sustainability-digital-donation-channel-primary-thumbnail.png",
      "description": "Globe Telecom brings digital donation channel to various NGOs. Visit the Globe Newsroom for the latest news on Globe Telecom.",
      "datePosted": "Jan 29, 2019 | 10:16 AM",
      "titleFromTag": "Sustainability"
    },
    {
      "title": "Filling in ICT Infrastructure Gap Key to Unlock PH Digital Economy",
      "nonclickable": false,
      "openNewTab": false,
      "borderArticle": "border-color:#0074D9;",
      "borderTopArticle": "border-top-color:#0074D9;",
      "imageListing": "/sites/globe.com.ph/files/content/dam/globe/brie/AboutUs/newsroom/common/Corporate_Globe_Listing.jpg",
      "articleUrl": "https://www.globe.com.ph/about-us/newsroom/corporate/ict-infrastructure-unlock-digital-economy.html",
      "columnType": "articles--type-3",
      "typeListing": "article",
      "imageMobile": "/sites/globe.com.ph/files/content/dam/globe/brie/AboutUs/newsroom/common/Corporate_Globe_Hero-Banner-Mobile.jpg",
      "imageDesktop": "/sites/globe.com.ph/files/content/dam/globe/brie/AboutUs/newsroom/common/Corporate_Globe_Primary-Desktop-Thumbnail.jpg",
      "description": "Filling in ICT Infrastructure Gap Key to Unlock PH Digital Economy. Visit the Globe Newsroom for the latest news on Globe Telecom.",
      "datePosted": "Jan 28, 2019 | 03:10 PM",
      "titleFromTag": "Corporate"
    },
    {
      "title": "Ready, Set, Go: A Beginner's Guide to BLACKPINK",
      "nonclickable": false,
      "openNewTab": false,
      "borderArticle": "border-color:#0074D9;",
      "borderTopArticle": "border-top-color:#0074D9;",
      "imageListing": "/sites/globe.com.ph/files/content/dam/globe/brie/AboutUs/newsroom/consumer/beginners-guide-blackpink/consumer-beginners-guide-blackpink-thumbnail-listing.jpg",
      "articleUrl": "https://www.globe.com.ph/about-us/newsroom/consumer/beginners-guide-blackpink.html",
      "columnType": "articles--type-3",
      "typeListing": "article",
      "imageMobile": "/sites/globe.com.ph/files/content/dam/globe/brie/AboutUs/newsroom/consumer/beginners-guide-blackpink/consumer-beginners-guide-blackpink-banner-m.jpg",
      "imageDesktop": "/sites/globe.com.ph/files/content/dam/globe/brie/AboutUs/newsroom/consumer/beginners-guide-blackpink/consumer-beginners-guide-blackpink-primary-thumbnail.jpg",
      "description": "Ready, Set, Go: A Beginner’s Guide to BLACKPINK. Visit the Globe Newsroom for the latest news on Globe Telecom.",
      "datePosted": "Jan 25, 2019 | 01:49 PM",
      "titleFromTag": "Consumer"
    },
    {
      "title": "4 Reasons Globe Streamwatch Xtreme Prepaid is a Must-Have This New Year",
      "nonclickable": false,
      "openNewTab": false,
      "borderArticle": "border-color:#0074D9;",
      "borderTopArticle": "border-top-color:#0074D9;",
      "imageListing": "/sites/globe.com.ph/files/content/dam/globe/brie/AboutUs/newsroom/consumer/four-reasons-globe-streamwatch-xtreme-must-have/consumer-globe-streamwatch-xtreme-thumbnail-listing.png",
      "articleUrl": "https://www.globe.com.ph/about-us/newsroom/consumer/four-reasons-globe-streamwatch-xtreme-must-have.html",
      "columnType": "articles--type-3",
      "typeListing": "article",
      "imageMobile": "/sites/globe.com.ph/files/content/dam/globe/brie/AboutUs/newsroom/consumer/four-reasons-globe-streamwatch-xtreme-must-have/consumer-globe-streamwatch-xtreme-banner-m.png",
      "imageDesktop": "/sites/globe.com.ph/files/content/dam/globe/brie/AboutUs/newsroom/consumer/four-reasons-globe-streamwatch-xtreme-must-have/consumer-globe-streamwatch-xtreme-primary-thumbnail-copy.jpg",
      "description": "Four Reasons Globe Streamwatch Xtreme Prepaid is A Must-Have This New Year. Visit the Globe Newsroom for the latest news on Globe Telecom",
      "datePosted": "Jan 25, 2019 | 01:49 PM",
      "titleFromTag": "Consumer"
    },
    {
      "title": "Globe Says NO to Plastic, Launches 'Wag Sa Single Use Plastic Campaign",
      "nonclickable": false,
      "openNewTab": false,
      "borderArticle": "border-color:#1C91C5;",
      "borderTopArticle": "border-top-color:#1C91C5;",
      "imageListing": "/sites/globe.com.ph/files/content/dam/globe/brie/AboutUs/newsroom/common/Corporate_Globe_Listing.jpg",
      "articleUrl": "https://www.globe.com.ph/about-us/newsroom/sustainability/globe-says-no-to-plastic-launches-wassup.html",
      "columnType": "articles--type-3",
      "typeListing": "article",
      "imageMobile": "/sites/globe.com.ph/files/content/dam/globe/brie/AboutUs/newsroom/common/Corporate_Globe_Hero-Banner-Mobile.jpg",
      "imageDesktop": "/sites/globe.com.ph/files/content/dam/globe/brie/AboutUs/newsroom/common/Corporate_Globe_Primary-Desktop-Thumbnail.jpg",
      "description": "Globe says NO to plastic and launches 'Wag Sa Single Use Plastic Campaign. Visit the Globe Newsroom for the latest news on Globe Telecom.",
      "datePosted": "Jan 23, 2019 | 12:50 PM",
      "titleFromTag": "Sustainability"
    },
    {
      "title": "Experience the Best of Hallyu with Globe",
      "nonclickable": false,
      "openNewTab": false,
      "borderArticle": "border-color:#0074D9;",
      "borderTopArticle": "border-top-color:#0074D9;",
      "imageListing": "/sites/globe.com.ph/files/content/dam/globe/brie/AboutUs/newsroom/consumer/experience-best-hallyu-globe/consumer-blackpink-live-manila-thumbnail-listing.jpg",
      "articleUrl": "https://www.globe.com.ph/about-us/newsroom/consumer/experience-best-hallyu-globe.html",
      "columnType": "articles--type-3",
      "typeListing": "article",
      "imageMobile": "/sites/globe.com.ph/files/content/dam/globe/brie/AboutUs/newsroom/consumer/experience-best-hallyu-globe/consumer-blackpink-live-manila-banner-m.jpg",
      "imageDesktop": "/sites/globe.com.ph/files/content/dam/globe/brie/AboutUs/newsroom/consumer/experience-best-hallyu-globe/consumer-blackpink-live-manila-primary-thumbnail.jpg",
      "description": "Experience the best of Hallyu with Globe. Visit the Globe Newsroom for the latest news on Globe Telecom.",
      "datePosted": "Jan 23, 2019 | 10:58 AM",
      "titleFromTag": "Consumer"
    },
    {
      "title": "The Philippines' Subscription Video Industry Faces New Threat",
      "nonclickable": false,
      "openNewTab": false,
      "borderArticle": "border-color:#0074D9;",
      "borderTopArticle": "border-top-color:#0074D9;",
      "imageListing": "/sites/globe.com.ph/files/content/dam/globe/brie/AboutUs/newsroom/common/Corporate_Globe_Listing.jpg",
      "articleUrl": "https://www.globe.com.ph/about-us/newsroom/corporate/ph-subscription-vid-industry-faces-new-threat.html",
      "columnType": "articles--type-3",
      "typeListing": "article",
      "imageMobile": "/sites/globe.com.ph/files/content/dam/globe/brie/AboutUs/newsroom/common/Corporate_Globe_Hero-Banner-Mobile.jpg",
      "imageDesktop": "/sites/globe.com.ph/files/content/dam/globe/brie/AboutUs/newsroom/common/Corporate_Globe_Primary-Desktop-Thumbnail.jpg",
      "description": "The Philippines' subscription video industry new threat as Filipino viewing habits shift to pirated TV boxes. Visit the Globe Newsroom for the latest news",
      "datePosted": "Jan 21, 2019 | 02:41 PM",
      "titleFromTag": "Corporate"
    },
    {
      "title": "Join the Revelry at Dinagyang Festival 2019",
      "nonclickable": false,
      "openNewTab": false,
      "borderArticle": "border-color:#0074D9;",
      "borderTopArticle": "border-top-color:#0074D9;",
      "imageListing": "/sites/globe.com.ph/files/content/dam/globe/brie/AboutUs/newsroom/common/Corporate_Globe_Listing.jpg",
      "articleUrl": "https://www.globe.com.ph/about-us/newsroom/consumer/join-dinagyang-festival-2019.html",
      "columnType": "articles--type-3",
      "typeListing": "article",
      "imageMobile": "/sites/globe.com.ph/files/content/dam/globe/brie/AboutUs/newsroom/common/Corporate_Globe_Hero-Banner-Mobile.jpg",
      "imageDesktop": "/sites/globe.com.ph/files/content/dam/globe/brie/AboutUs/newsroom/common/Corporate_Globe_Primary-Desktop-Thumbnail.jpg",
      "description": "Join the revelry at Dinagyang Festival 2019. Visit the Globe Newsroom for the latest news on Globe Telecom.",
      "datePosted": "Jan 18, 2019 | 02:29 PM",
      "titleFromTag": "Consumer"
    },
    {
      "title": "Stars of Netflix Hit Series \"You\" Wow Manila",
      "nonclickable": false,
      "openNewTab": false,
      "borderArticle": "border-color:#0074D9;",
      "borderTopArticle": "border-top-color:#0074D9;",
      "imageListing": "/sites/globe.com.ph/files/content/dam/globe/brie/AboutUs/newsroom/consumer/stars-netflix-hit-series-you-wow-manila/consumer-netflix-you-manila-thumbnail-listing.jpg",
      "articleUrl": "https://www.globe.com.ph/about-us/newsroom/consumer/stars-netflix-hit-series-you-wow-manila.html",
      "columnType": "articles--type-3",
      "typeListing": "article",
      "imageMobile": "/sites/globe.com.ph/files/content/dam/globe/brie/AboutUs/newsroom/consumer/stars-netflix-hit-series-you-wow-manila/consumer-netflix-you-manila-banner-m.jpg",
      "imageDesktop": "/sites/globe.com.ph/files/content/dam/globe/brie/AboutUs/newsroom/consumer/stars-netflix-hit-series-you-wow-manila/consumer-netflix-you-manila-primary-thumbnail.jpg",
      "description": "Stars of Netflix hit series “You” wow Manila. Visit the Globe Newsroom for the latest news on Globe Telecom.",
      "datePosted": "Jan 18, 2019 | 11:28 AM",
      "titleFromTag": "Consumer"
    },
    {
      "title": "DBM Launches New Gov’t Financial Management System for Better Transparency, Accountability",
      "nonclickable": false,
      "openNewTab": false,
      "borderArticle": "border-color:#0074D9;",
      "borderTopArticle": "border-top-color:#0074D9;",
      "imageListing": "/sites/globe.com.ph/files/content/dam/globe/brie/AboutUs/newsroom/corporate/dbm-new-govt-financial-management-system/business-financial-management-system-thumbnail-listing.jpg",
      "articleUrl": "https://www.globe.com.ph/about-us/newsroom/corporate/dbm-new-govt-financial-management-system.html",
      "columnType": "articles--type-3",
      "typeListing": "article",
      "imageMobile": "/sites/globe.com.ph/files/content/dam/globe/brie/AboutUs/newsroom/corporate/dbm-new-govt-financial-management-system/business-financial-management-system-banner-m.jpg",
      "imageDesktop": "/sites/globe.com.ph/files/content/dam/globe/brie/AboutUs/newsroom/corporate/dbm-new-govt-financial-management-system/business-financial-management-system-primary-thumbnail.jpg",
      "description": "DBM launches new government financial management system for better transparency and accountability. Visit the Globe Newsroom for the latest news.",
      "datePosted": "Jan 16, 2019 | 01:36 PM",
      "titleFromTag": "Corporate"
    },
    {
      "title": "Parental Control: A Growing Necessity in Today's Digital Age",
      "nonclickable": false,
      "openNewTab": false,
      "borderArticle": "border-color:#0074D9;",
      "borderTopArticle": "border-top-color:#0074D9;",
      "imageListing": "/sites/globe.com.ph/files/content/dam/globe/brie/AboutUs/newsroom/common/Corporate_Globe_Listing.jpg",
      "articleUrl": "https://www.globe.com.ph/about-us/newsroom/consumer/parental-control-growing-necessity-digital-age.html",
      "columnType": "articles--type-3",
      "typeListing": "article",
      "imageMobile": "/sites/globe.com.ph/files/content/dam/globe/brie/AboutUs/newsroom/common/Corporate_Globe_Hero-Banner-Mobile.jpg",
      "imageDesktop": "/sites/globe.com.ph/files/content/dam/globe/brie/AboutUs/newsroom/common/Corporate_Globe_Primary-Desktop-Thumbnail.jpg",
      "description": "Parental control: a growing necessity in today's digital age. Visit the Globe Newsroom for the latest news on Globe Telecom.",
      "datePosted": "Jan 16, 2019 | 11:32 AM",
      "titleFromTag": "Consumer"
    }
  ]
}
