{
  "status": 200,
  "page": 217,
  "totalPage": 298,
  "range": "2593-2604",
  "total": 3573,
  "result": [
    {
      "title": "Get Ready for a Colorful Weekend at Sinulog 2019",
      "nonclickable": false,
      "openNewTab": false,
      "borderArticle": "border-color:#0074D9;",
      "borderTopArticle": "border-top-color:#0074D9;",
      "imageListing": "/sites/globe.com.ph/files/content/dam/globe/brie/AboutUs/newsroom/common/Corporate_Globe_Listing.jpg",
      "articleUrl": "https://www.globe.com.ph/about-us/newsroom/consumer/get-ready-sinulog-2019.html",
      "columnType": "articles--type-3",
      "typeListing": "article",
      "imageMobile": "/sites/globe.com.ph/files/content/dam/globe/brie/AboutUs/newsroom/common/Corporate_Globe_Hero-Banner-Mobile.jpg",
      "imageDesktop": "/sites/globe.com.ph/files/content/dam/globe/brie/AboutUs/newsroom/common/Corporate_Globe_Primary-Desktop-Thumbnail.jpg",
      "description": "Get ready for a colorful weekend at Sinulog 2019. Visit the Globe Newsroom for the latest news on Globe Telecom.",
      "datePosted": "Jan 16, 2019 | 11:14 AM",
      "titleFromTag": "Consumer"
    },
    {
      "title": "Globe Business Bolsters Free WiFi Project of Tuguegarao City",
      "nonclickable": false,
      "openNewTab": false,
      "borderArticle": "border-color:#0074D9;",
      "borderTopArticle": "border-top-color:#0074D9;",
      "imageListing": "/sites/globe.com.ph/files/content/dam/globe/brie/AboutUs/newsroom/common/Corporate_Globe_Listing.jpg",
      "articleUrl": "https://www.globe.com.ph/about-us/newsroom/business/globe-business-bolsters-free-wifi-tuguegarao.html",
      "columnType": "articles--type-3",
      "typeListing": "article",
      "imageMobile": "/sites/globe.com.ph/files/content/dam/globe/brie/AboutUs/newsroom/common/Corporate_Globe_Hero-Banner-Mobile.jpg",
      "imageDesktop": "/sites/globe.com.ph/files/content/dam/globe/brie/AboutUs/newsroom/common/Corporate_Globe_Primary-Desktop-Thumbnail.jpg",
      "description": "Globe Business bolsters free WiFi project of Tuguegarao City. Visit the Globe Newsroom for the latest news on Globe Telecom.",
      "datePosted": "Jan 15, 2019 | 11:14 AM",
      "titleFromTag": "Business"
    },
    {
      "title": "Introducing Globe At Home Air: Your First High-Speed DIY Internet at Home",
      "nonclickable": false,
      "openNewTab": false,
      "borderArticle": "border-color:#0074D9;",
      "borderTopArticle": "border-top-color:#0074D9;",
      "imageListing": "/sites/globe.com.ph/files/content/dam/globe/brie/AboutUs/newsroom/consumer/introducing-globe-at-home-air/consumer-globe-air-fiber-thumbnail-listing_v2.jpg",
      "articleUrl": "https://www.globe.com.ph/about-us/newsroom/consumer/introducing-globe-at-home-air.html",
      "columnType": "articles--type-3",
      "typeListing": "article",
      "imageMobile": "/sites/globe.com.ph/files/content/dam/globe/brie/AboutUs/newsroom/consumer/introducing-globe-at-home-air/consumer-globe-air-fiber-banner-m_v2.jpg",
      "imageDesktop": "/sites/globe.com.ph/files/content/dam/globe/brie/AboutUs/newsroom/consumer/introducing-globe-at-home-air/consumer-globe-air-fiber-primary-thumbnail_v2.png",
      "description": "Introducing Globe At Home Air: your first high-speed DIY internet at home. Visit the Globe Newsroom for the latest news on Globe Telecom.",
      "datePosted": "Jan 11, 2019 | 03:21 PM",
      "titleFromTag": "Consumer"
    },
    {
      "title": "Level Up Family Bonding Experience with Da Vinci Kids App!",
      "nonclickable": false,
      "openNewTab": false,
      "borderArticle": "border-color:#0074D9;",
      "borderTopArticle": "border-top-color:#0074D9;",
      "imageListing": "/sites/globe.com.ph/files/content/dam/globe/brie/AboutUs/newsroom/consumer/level-up-bonding-da-vinci-kids-app/consumer-da-vinci-kids-thumbnail-listing.png",
      "articleUrl": "https://www.globe.com.ph/about-us/newsroom/consumer/level-up-bonding-da-vinci-kids-app.html",
      "columnType": "articles--type-3",
      "typeListing": "article",
      "imageMobile": "/sites/globe.com.ph/files/content/dam/globe/brie/AboutUs/newsroom/consumer/level-up-bonding-da-vinci-kids-app/consumer-da-vinci-kids-banner-m.png",
      "imageDesktop": "/sites/globe.com.ph/files/content/dam/globe/brie/AboutUs/newsroom/consumer/level-up-bonding-da-vinci-kids-app/consumer-da-vinci-kids-primary-thumbnail.png",
      "description": "Level up family bonding experience with Da Vinci Kids App! Visit the Globe Newsroom for the latest news on Globe Telecom.",
      "datePosted": "Jan 10, 2019 | 10:37 AM",
      "titleFromTag": "Consumer"
    },
    {
      "title": "Globe Telecom, CAP Back Proposed Philippine Online Infringement Act",
      "nonclickable": false,
      "openNewTab": false,
      "borderArticle": "border-color:#0074D9;",
      "borderTopArticle": "border-top-color:#0074D9;",
      "imageListing": "/sites/globe.com.ph/files/content/dam/globe/brie/AboutUs/newsroom/common/Corporate_Globe_Listing.jpg",
      "articleUrl": "https://www.globe.com.ph/about-us/newsroom/corporate/globe-cap-back-proposed-ph-online-infringement-act.html",
      "columnType": "articles--type-3",
      "typeListing": "article",
      "imageMobile": "/sites/globe.com.ph/files/content/dam/globe/brie/AboutUs/newsroom/common/Corporate_Globe_Hero-Banner-Mobile.jpg",
      "imageDesktop": "/sites/globe.com.ph/files/content/dam/globe/brie/AboutUs/newsroom/common/Corporate_Globe_Primary-Desktop-Thumbnail.jpg",
      "description": "Globe Telecom, CAP back proposed Philippine Online Infringement Act. Visit the Globe Newsroom for the latest news on Globe Telecom.",
      "datePosted": "Jan 10, 2019 | 09:47 AM",
      "titleFromTag": "Corporate"
    },
    {
      "title": "Globe Telecom Boosts Network Coverage in Hilly Barangays of Cebu",
      "nonclickable": false,
      "openNewTab": false,
      "borderArticle": "border-color:#0074D9;",
      "borderTopArticle": "border-top-color:#0074D9;",
      "imageListing": "/sites/globe.com.ph/files/content/dam/globe/brie/AboutUs/newsroom/common/Corporate_Globe_Listing.jpg",
      "articleUrl": "https://www.globe.com.ph/about-us/newsroom/corporate/globe-boosts-network-coverage-hilly-brgys-cebu.html",
      "columnType": "articles--type-3",
      "typeListing": "article",
      "imageMobile": "/sites/globe.com.ph/files/content/dam/globe/brie/AboutUs/newsroom/common/Corporate_Globe_Hero-Banner-Mobile.jpg",
      "imageDesktop": "/sites/globe.com.ph/files/content/dam/globe/brie/AboutUs/newsroom/common/Corporate_Globe_Primary-Desktop-Thumbnail.jpg",
      "description": "Globe Telecom boosts network coverage in the hilly barangays of Cebu. Visit the Globe Newsroom for the latest news on Globe Telecom.",
      "datePosted": "Jan 08, 2019 | 10:41 AM",
      "titleFromTag": "Corporate"
    },
    {
      "title": "It’s All About Love for Local Music Last Christmas",
      "nonclickable": false,
      "openNewTab": false,
      "borderArticle": "border-color:#0074D9;",
      "borderTopArticle": "border-top-color:#0074D9;",
      "imageListing": "/sites/globe.com.ph/files/content/dam/globe/brie/AboutUs/newsroom/consumer/love-local-music-christmas/consumer-love-local-thumbnail-listing.jpg",
      "articleUrl": "https://www.globe.com.ph/about-us/newsroom/consumer/love-local-music-christmas.html",
      "columnType": "articles--type-3",
      "typeListing": "article",
      "imageMobile": "/sites/globe.com.ph/files/content/dam/globe/brie/AboutUs/newsroom/consumer/love-local-music-christmas/consumer-love-local-banner-m.jpg",
      "imageDesktop": "/sites/globe.com.ph/files/content/dam/globe/brie/AboutUs/newsroom/consumer/love-local-music-christmas/consumer-love-local-primary-thumbnail.jpg",
      "description": "It’s all about love for local music last Christmas. Visit the Globe Newsroom for the latest news on Globe Telecom.",
      "datePosted": "Jan 04, 2019 | 02:09 PM",
      "titleFromTag": "Consumer"
    },
    {
      "title": "Globe myBusiness Leads Awareness Campaign on Marine Biodiversity Conservation in Siargao Island",
      "nonclickable": false,
      "openNewTab": false,
      "borderArticle": "border-color:#0074D9;",
      "borderTopArticle": "border-top-color:#0074D9;",
      "imageListing": "/sites/globe.com.ph/files/content/dam/globe/brie/AboutUs/newsroom/business/globe-mybusiness-leads-awareness-campaign/business-marine-conservation-siargao-thumbnail-listing.png",
      "articleUrl": "https://www.globe.com.ph/about-us/newsroom/business/globe-mybusiness-leads-awareness-campaign.html",
      "columnType": "articles--type-3",
      "typeListing": "article",
      "imageMobile": "/sites/globe.com.ph/files/content/dam/globe/brie/AboutUs/newsroom/business/globe-mybusiness-leads-awareness-campaign/business-marine-conservation-siargao-banner-m.png",
      "imageDesktop": "/sites/globe.com.ph/files/content/dam/globe/brie/AboutUs/newsroom/business/globe-mybusiness-leads-awareness-campaign/business-marine-conservation-siargao-primary-thumbnail.png",
      "description": "Globe myBusiness leads awareness campaign on Marine Biodiversity Conservation in Siargao Island. Visit the Globe Newsroom for the latest news on Globe Telecom.",
      "datePosted": "Dec 28, 2018 | 01:25 PM",
      "titleFromTag": "Business"
    },
    {
      "title": "Globe, TechZone Launch TechGlobal Data Center to Serve PH IT Gaming Enterprises",
      "nonclickable": false,
      "openNewTab": false,
      "borderArticle": "border-color:#0074D9;",
      "borderTopArticle": "border-top-color:#0074D9;",
      "imageListing": "/sites/globe.com.ph/files/content/dam/globe/brie/AboutUs/newsroom/business/globe-techzone-launch-techglobal-data-center/business-techzone-launch-techglobal-thumbnail-listing.png",
      "articleUrl": "https://www.globe.com.ph/about-us/newsroom/business/globe-techzone-launch-techglobal-data-center.html",
      "columnType": "articles--type-3",
      "typeListing": "article",
      "imageMobile": "/sites/globe.com.ph/files/content/dam/globe/brie/AboutUs/newsroom/business/globe-techzone-launch-techglobal-data-center/business-techzone-launch-techglobal-banner-m.png",
      "imageDesktop": "/sites/globe.com.ph/files/content/dam/globe/brie/AboutUs/newsroom/business/globe-techzone-launch-techglobal-data-center/business-techzone-launch-techglobal-primary-thumbnail.png",
      "description": "Globe and TechZone launch TechGlobal Data Center to serve Philippine's IT gaming enterprises. Visit the Globe Newsroom for the latest news on Globe Telecom.",
      "datePosted": "Dec 27, 2018 | 12:20 PM",
      "titleFromTag": "Business"
    },
    {
      "title": "Globe Spreads Holiday Cheer to Returning OFWs and Tourists",
      "nonclickable": false,
      "openNewTab": false,
      "borderArticle": "border-color:#0074D9;",
      "borderTopArticle": "border-top-color:#0074D9;",
      "imageListing": "/sites/globe.com.ph/files/content/dam/globe/brie/AboutUs/newsroom/consumer/globe-spreads-holiday-cheer-to-returning-ofws/corporate-spreads-holiday-cheer-thumbnail-listing.png",
      "articleUrl": "https://www.globe.com.ph/about-us/newsroom/consumer/globe-spreads-holiday-cheer-to-returning-ofws.html",
      "columnType": "articles--type-3",
      "typeListing": "article",
      "imageMobile": "/sites/globe.com.ph/files/content/dam/globe/brie/AboutUs/newsroom/consumer/globe-spreads-holiday-cheer-to-returning-ofws/corporate-spreads-holiday-cheer-banner-m.png",
      "imageDesktop": "/sites/globe.com.ph/files/content/dam/globe/brie/AboutUs/newsroom/consumer/globe-spreads-holiday-cheer-to-returning-ofws/corporate-spreads-holiday-cheer-primary-thumbnail.png",
      "description": "Globe spreads holiday cheer to returning OFWs and tourists. Visit the Globe Newsroom for the latest news on Globe Telecom.",
      "datePosted": "Dec 27, 2018 | 11:18 AM",
      "titleFromTag": "Consumer"
    },
    {
      "title": "Globe Telecom Holds Boracay Workshop on Marine Conservation, Sustainable Business Practices",
      "nonclickable": false,
      "openNewTab": false,
      "borderArticle": "border-color:#1C91C5;",
      "borderTopArticle": "border-top-color:#1C91C5;",
      "imageListing": "/sites/globe.com.ph/files/content/dam/globe/brie/AboutUs/newsroom/sustainability/globe-telecom-holds-boracay-workshop-on-marine-conservation/sustainability-workshop-marine-conservation-thumbnail-listing.jpg",
      "articleUrl": "https://www.globe.com.ph/about-us/newsroom/sustainability/globe-telecom-holds-boracay-workshop-on-marine-conservation.html",
      "columnType": "articles--type-3",
      "typeListing": "article",
      "imageMobile": "/sites/globe.com.ph/files/content/dam/globe/brie/AboutUs/newsroom/sustainability/globe-telecom-holds-boracay-workshop-on-marine-conservation/sustainability-workshop-marine-conservation-banner-m.jpg",
      "imageDesktop": "/sites/globe.com.ph/files/content/dam/globe/brie/AboutUs/newsroom/sustainability/globe-telecom-holds-boracay-workshop-on-marine-conservation/sustainability-workshop-marine-conservation-primary-thumbnail.jpg",
      "description": "Globe Telecom holds Boracay workshop on marine conservation and sustainable business practices. Visit the Globe Newsroom for the latest news on Globe Telecom.",
      "datePosted": "Dec 26, 2018 | 03:46 PM",
      "titleFromTag": "Sustainability"
    },
    {
      "title": "It’s Christmas Chill Time with Globe Prepaid and TM!",
      "nonclickable": false,
      "openNewTab": false,
      "borderArticle": "border-color:#0074D9;",
      "borderTopArticle": "border-top-color:#0074D9;",
      "imageListing": "/sites/globe.com.ph/files/content/dam/globe/brie/AboutUs/newsroom/consumer/christmas-chill-time-with-globe-prepaid-tm/consumer-christmas-chill-time-thumbnail-listing.png",
      "articleUrl": "https://www.globe.com.ph/about-us/newsroom/consumer/christmas-chill-time-with-globe-prepaid-tm.html",
      "columnType": "articles--type-3",
      "typeListing": "article",
      "imageMobile": "/sites/globe.com.ph/files/content/dam/globe/brie/AboutUs/newsroom/consumer/christmas-chill-time-with-globe-prepaid-tm/consumer-christmas-chill-time-banner-m.png",
      "imageDesktop": "/sites/globe.com.ph/files/content/dam/globe/brie/AboutUs/newsroom/consumer/christmas-chill-time-with-globe-prepaid-tm/consumer-christmas-chill-time-primary-thumbnail.png",
      "description": "It’s Christmas chill time with Globe Prepaid and TM. Visit the Globe Newsroom for the latest news on Globe Telecom.",
      "datePosted": "Dec 19, 2018 | 01:39 PM",
      "titleFromTag": "Consumer"
    }
  ]
}
