{
  "status": 200,
  "page": 218,
  "totalPage": 298,
  "range": "2605-2616",
  "total": 3573,
  "result": [
    {
      "title": "Globe myBusiness, DTI Join Forces to Bring Technology Closer to MSMEs in PH",
      "nonclickable": false,
      "openNewTab": false,
      "borderArticle": "border-color:#0074D9;",
      "borderTopArticle": "border-top-color:#0074D9;",
      "imageListing": "/sites/globe.com.ph/files/content/dam/globe/brie/AboutUs/newsroom/business/globe-mybusiness-dti-bring-technology-closer-to-msme/business-mybusiness-dti-technology-thumbnail-listing.png",
      "articleUrl": "https://www.globe.com.ph/about-us/newsroom/business/globe-mybusiness-dti-bring-technology-closer-to-msme.html",
      "columnType": "articles--type-3",
      "typeListing": "article",
      "imageMobile": "/sites/globe.com.ph/files/content/dam/globe/brie/AboutUs/newsroom/business/globe-mybusiness-dti-bring-technology-closer-to-msme/business-mybusiness-dti-technology-banner-m.png",
      "imageDesktop": "/sites/globe.com.ph/files/content/dam/globe/brie/AboutUs/newsroom/business/globe-mybusiness-dti-bring-technology-closer-to-msme/business-mybusiness-dti-technology-primary-thumbnail.png",
      "description": "Globe myBusiness, DTI join forces to bring technology closer to MSMEs in PH. Visit the Globe Newsroom for the latest news on Globe Telecom.",
      "datePosted": "Dec 19, 2018 | 01:17 PM",
      "titleFromTag": "Business"
    },
    {
      "title": "DENR Awards Globe Telecom for Volunteerism Efforts",
      "nonclickable": false,
      "openNewTab": false,
      "borderArticle": "border-color:#1C91C5;",
      "borderTopArticle": "border-top-color:#1C91C5;",
      "imageListing": "/sites/globe.com.ph/files/content/dam/globe/brie/AboutUs/newsroom/sustainability/denr-awards-globe-telecom-for-volunteerism-efforts/corporate-denr-awards-globe-thumbnail-listing.png",
      "articleUrl": "https://www.globe.com.ph/about-us/newsroom/sustainability/denr-awards-globe-telecom-for-volunteerism-efforts.html",
      "columnType": "articles--type-3",
      "typeListing": "article",
      "imageMobile": "/sites/globe.com.ph/files/content/dam/globe/brie/AboutUs/newsroom/sustainability/denr-awards-globe-telecom-for-volunteerism-efforts/corporate-denr-awards-globe-banner-m.png",
      "imageDesktop": "/sites/globe.com.ph/files/content/dam/globe/brie/AboutUs/newsroom/sustainability/denr-awards-globe-telecom-for-volunteerism-efforts/corporate-denr-awards-globe-primary-thumbnail.png",
      "description": "DENR awards Globe Telecom for volunteerism efforts. Visit the Globe Newsroom for the latest news on Globe Telecom.",
      "datePosted": "Dec 19, 2018 | 10:27 AM",
      "titleFromTag": "Sustainability"
    },
    {
      "title": "Experience a Breakthrough in Digital Entertainment Experience at Home With Globe Streamwatch Xtreme",
      "nonclickable": false,
      "openNewTab": false,
      "borderArticle": "border-color:#0074D9;",
      "borderTopArticle": "border-top-color:#0074D9;",
      "imageListing": "/sites/globe.com.ph/files/content/dam/globe/brie/AboutUs/newsroom/consumer/experience-a-breakthrough-in-digital-entertainment-experience-at-home/consumer-globe-streamwatch-xtreme-thumbnail-listing.png",
      "articleUrl": "https://www.globe.com.ph/about-us/newsroom/consumer/experience-a-breakthrough-in-digital-entertainment-experience-at-home.html",
      "columnType": "articles--type-3",
      "typeListing": "article",
      "imageMobile": "/sites/globe.com.ph/files/content/dam/globe/brie/AboutUs/newsroom/consumer/experience-a-breakthrough-in-digital-entertainment-experience-at-home/consumer-globe-streamwatch-xtreme-banner-m.png",
      "imageDesktop": "/sites/globe.com.ph/files/content/dam/globe/brie/AboutUs/newsroom/consumer/experience-a-breakthrough-in-digital-entertainment-experience-at-home/consumer-globe-streamwatch-xtreme-primary-thumbnail-copy.jpg",
      "description": "Experience a Breakthrough in Digital Entertainment Experience at Home With Globe Streamwatch Xtreme. Visit the Globe Newsroom for the latest news on Globe Telecom.",
      "datePosted": "Dec 17, 2018 | 11:42 AM",
      "titleFromTag": "Consumer"
    },
    {
      "title": "Globe Telecom 5G Readiness Recognized by Asia’s Top Telcos and Vendors at TM Forum Digital Transformation Asia 2018",
      "nonclickable": false,
      "openNewTab": false,
      "borderArticle": "border-color:#0074D9;",
      "borderTopArticle": "border-top-color:#0074D9;",
      "imageListing": "/sites/globe.com.ph/files/content/dam/globe/brie/AboutUs/newsroom/common/Corporate_Globe_Listing.jpg",
      "articleUrl": "https://www.globe.com.ph/about-us/newsroom/corporate/globe-5g-readiness-recognized-at-tm-forum-asia.html",
      "columnType": "articles--type-3",
      "typeListing": "article",
      "imageMobile": "/sites/globe.com.ph/files/content/dam/globe/brie/AboutUs/newsroom/common/Corporate_Globe_Hero-Banner-Mobile.jpg",
      "imageDesktop": "/sites/globe.com.ph/files/content/dam/globe/brie/AboutUs/newsroom/common/Corporate_Globe_Primary-Desktop-Thumbnail.jpg",
      "description": "Globe Telecom 5G Readiness Recognized by Asia’s Top Telcos and Vendors at TM Forum Digital Transformation Asia 2018. Visit the Globe Newsroom for more.",
      "datePosted": "Dec 13, 2018 | 12:48 PM",
      "titleFromTag": "Corporate"
    },
    {
      "title": "Globe Creates New Traditions with Reinvented Classic Christmas Songs",
      "nonclickable": false,
      "openNewTab": false,
      "borderArticle": "border-color:#1C91C5;",
      "borderTopArticle": "border-top-color:#1C91C5;",
      "imageListing": "/sites/globe.com.ph/files/content/dam/globe/brie/AboutUs/newsroom/sustainability/globe-creates-new-traditions/sustainability-classic-christmas-songs-thumbnail-listing.jpg",
      "articleUrl": "https://www.globe.com.ph/about-us/newsroom/sustainability/globe-creates-new-traditions.html",
      "columnType": "articles--type-3",
      "typeListing": "article",
      "imageMobile": "/sites/globe.com.ph/files/content/dam/globe/brie/AboutUs/newsroom/sustainability/globe-creates-new-traditions/sustainability-classic-christmas-songs-banner-m.jpg",
      "imageDesktop": "/sites/globe.com.ph/files/content/dam/globe/brie/AboutUs/newsroom/sustainability/globe-creates-new-traditions/sustainability-classic-christmas-songs-primary-thumbnail.jpg",
      "description": "Globe Creates New Traditions with Reinvented Classic Christmas Songs. Visit the Globe Newsroom for the latest news on Globe Telecom.",
      "datePosted": "Dec 13, 2018 | 11:02 AM",
      "titleFromTag": "Sustainability"
    },
    {
      "title": "FWD Insurance Taps Globe for Secure, Reliable, Cost-Effective Plug-and-Play Connection Among Branches",
      "nonclickable": false,
      "openNewTab": false,
      "borderArticle": "border-color:#1C91C5;",
      "borderTopArticle": "border-top-color:#1C91C5;",
      "imageListing": "/sites/globe.com.ph/files/content/dam/globe/brie/About-us/Newsroom/image/Partners/121320181049AM/partners-fwd-insurance-globe-thumbnail-listing.jpg",
      "articleUrl": "https://www.globe.com.ph/about-us/newsroom/partners/fwd-insurance-taps-globe-connection.html",
      "columnType": "articles--type-3",
      "typeListing": "article",
      "imageMobile": "/sites/globe.com.ph/files/content/dam/globe/brie/About-us/Newsroom/image/Partners/121320181049AM/partners-fwd-insurance-globe-banner-m.jpg",
      "imageDesktop": "/sites/globe.com.ph/files/content/dam/globe/brie/About-us/Newsroom/image/Partners/121320181049AM/partners-fwd-insurance-globe-primary-thumbnail.jpg",
      "description": "FWD Insurance Taps Globe for Secure, Reliable, Cost-Effective Plug-and-Play Connection Among Branches. Visit the Globe Newsroom for the latest news",
      "datePosted": "Dec 13, 2018 | 10:49 AM",
      "titleFromTag": "Partners"
    },
    {
      "title": "Globe Telecom Legal Team Furnishes Taguig SPED Classroom, Conducts Teacher Training on Cyber Wellness",
      "nonclickable": false,
      "openNewTab": false,
      "borderArticle": "border-color:#0074D9;",
      "borderTopArticle": "border-top-color:#0074D9;",
      "imageListing": "/sites/globe.com.ph/files/content/dam/globe/brie/AboutUs/newsroom/sustainability/globe-legal-team-furnishes-taguig-sped-classroom/sustainability-training-cyber-wellness-thumbnail-listing.jpg",
      "articleUrl": "https://www.globe.com.ph/about-us/newsroom/sustainability/globe-legal-team-furnishes-taguig-sped-classroom.html",
      "columnType": "articles--type-3",
      "typeListing": "article",
      "imageMobile": "/sites/globe.com.ph/files/content/dam/globe/brie/AboutUs/newsroom/sustainability/globe-legal-team-furnishes-taguig-sped-classroom/sustainability-training-cyber-wellness-banner-m.jpg",
      "imageDesktop": "/sites/globe.com.ph/files/content/dam/globe/brie/AboutUs/newsroom/sustainability/globe-legal-team-furnishes-taguig-sped-classroom/sustainability-training-cyber-wellness-primary-thumbnail.jpg",
      "description": "Globe Telecom legal team furnished Taguig SPED classroom and conducts teacher training on cyber wellness. Visit the Newsroom for the latest news on Globe.",
      "datePosted": "Dec 12, 2018 | 03:25 PM",
      "titleFromTag": "Sustainability"
    },
    {
      "title": "Enjoy a Weekend of Your Favorite Local Music with Globe",
      "nonclickable": false,
      "openNewTab": false,
      "borderArticle": "border-color:#0074D9;",
      "borderTopArticle": "border-top-color:#0074D9;",
      "imageListing": "/sites/globe.com.ph/files/content/dam/globe/brie/AboutUs/newsroom/consumer/enjoy-a-weekend-of-your-favorite-local-music/consumer-special-live-performance-thumbnail-listing.png",
      "articleUrl": "https://www.globe.com.ph/about-us/newsroom/consumer/enjoy-a-weekend-of-your-favorite-local-music.html",
      "columnType": "articles--type-3",
      "typeListing": "article",
      "imageMobile": "/sites/globe.com.ph/files/content/dam/globe/brie/AboutUs/newsroom/consumer/enjoy-a-weekend-of-your-favorite-local-music/consumer-special-live-performance-banner-m.png",
      "imageDesktop": "/sites/globe.com.ph/files/content/dam/globe/brie/AboutUs/newsroom/consumer/enjoy-a-weekend-of-your-favorite-local-music/consumer-special-live-performance-primary-thumbnail.png",
      "description": "Enjoy a weekend of your favorite local music with Globe. Visit the Globe Newsroom for the latest news on Globe Telecom.",
      "datePosted": "Dec 12, 2018 | 03:24 PM",
      "titleFromTag": "Consumer"
    },
    {
      "title": "Globe Telecom Bags International Awards from Frost & Sullivan",
      "nonclickable": false,
      "openNewTab": false,
      "borderArticle": "border-color:#0074D9;",
      "borderTopArticle": "border-top-color:#0074D9;",
      "imageListing": "/sites/globe.com.ph/files/content/dam/globe/brie/AboutUs/newsroom/common/Corporate_Globe_Listing.jpg",
      "articleUrl": "https://www.globe.com.ph/about-us/newsroom/business/globe-bags-international-awards-from-frost-and-sullivan.html",
      "columnType": "articles--type-3",
      "typeListing": "article",
      "imageMobile": "/sites/globe.com.ph/files/content/dam/globe/brie/AboutUs/newsroom/common/Corporate_Globe_Hero-Banner-Mobile.jpg",
      "imageDesktop": "/sites/globe.com.ph/files/content/dam/globe/brie/AboutUs/newsroom/common/Corporate_Globe_Primary-Desktop-Thumbnail.jpg",
      "description": "Globe Telecom bags international awards from Frost & Sullivan. Visit the Globe Newsroom for the latest news on Globe Telecom.",
      "datePosted": "Dec 10, 2018 | 09:05 AM",
      "titleFromTag": "Business"
    },
    {
      "title": "Globe Celebrates Growing Business Partnerships for GoWiFi services at Partners Night",
      "nonclickable": false,
      "openNewTab": false,
      "borderArticle": "border-color:#0074D9;",
      "borderTopArticle": "border-top-color:#0074D9;",
      "imageListing": "/sites/globe.com.ph/files/content/dam/globe/brie/AboutUs/newsroom/partners/globe-celebrates-growing-partnerships-for-gowifi/partners-growing-partnerships-gowifi-thumbnail-listing.jpg",
      "articleUrl": "https://www.globe.com.ph/about-us/newsroom/partners/globe-celebrates-growing-partnerships-for-gowifi.html",
      "columnType": "articles--type-3",
      "typeListing": "article",
      "imageMobile": "/sites/globe.com.ph/files/content/dam/globe/brie/AboutUs/newsroom/partners/globe-celebrates-growing-partnerships-for-gowifi/partners-growing-partnerships-gowifi-banner-m.jpg",
      "imageDesktop": "/sites/globe.com.ph/files/content/dam/globe/brie/AboutUs/newsroom/partners/globe-celebrates-growing-partnerships-for-gowifi/partners-growing-partnerships-gowifi-primary-thumbnail.jpg",
      "description": "Globe celebrates growing business partnerships for GoWiFi services. Visit the Globe Newsroom for the latest news on Globe Telecom.",
      "datePosted": "Dec 07, 2018 | 11:09 AM",
      "titleFromTag": "Partners"
    },
    {
      "title": "Davao City Uses G Suite to Enhance Public Service Delivery",
      "nonclickable": false,
      "openNewTab": false,
      "borderArticle": "border-color:#0074D9;",
      "borderTopArticle": "border-top-color:#0074D9;",
      "imageListing": "/sites/globe.com.ph/files/content/dam/globe/brie/AboutUs/newsroom/business/davao-uses-gsuite-to-enhance-public-service-delivery/business-davao-lgu-thumbnail-listing.jpg",
      "articleUrl": "https://www.globe.com.ph/about-us/newsroom/business/davao-uses-gsuite-to-enhance-public-service-delivery.html",
      "columnType": "articles--type-3",
      "typeListing": "article",
      "imageMobile": "/sites/globe.com.ph/files/content/dam/globe/brie/AboutUs/newsroom/business/davao-uses-gsuite-to-enhance-public-service-delivery/business-davao-lgu-banner-m.jpg",
      "imageDesktop": "/sites/globe.com.ph/files/content/dam/globe/brie/AboutUs/newsroom/business/davao-uses-gsuite-to-enhance-public-service-delivery/business-davao-lgu-primary-thumbnail.jpg",
      "description": "Davao City uses G Suite to enhance the delivery of public service. Visit the Globe Newsroom for the latest news on Globe Telecom.",
      "datePosted": "Dec 07, 2018 | 10:51 AM",
      "titleFromTag": "Business"
    },
    {
      "title": "Activate Amazon Prime Video in a Few Easy Steps",
      "nonclickable": false,
      "openNewTab": false,
      "borderArticle": "border-color:#0074D9;",
      "borderTopArticle": "border-top-color:#0074D9;",
      "imageListing": "/sites/globe.com.ph/files/content/dam/globe/brie/AboutUs/newsroom/consumer/activate-amazon-prime-video-few-easy-steps/consumer-activate-amazon-prime-thumbnail-listing.jpg",
      "articleUrl": "https://www.globe.com.ph/about-us/newsroom/consumer/activate-amazon-prime-video-few-easy-steps.html",
      "columnType": "articles--type-3",
      "typeListing": "article",
      "imageMobile": "/sites/globe.com.ph/files/content/dam/globe/brie/AboutUs/newsroom/consumer/activate-amazon-prime-video-few-easy-steps/consumer-activate-amazon-prime-banner-m.jpg",
      "imageDesktop": "/sites/globe.com.ph/files/content/dam/globe/brie/AboutUs/newsroom/consumer/activate-amazon-prime-video-few-easy-steps/consumer-activate-amazon-prime-primary-thumbnail.jpg",
      "description": "Activate Amazon Prime Video in Few Easy Steps. Visit the Globe Newsroom for the latest news on Globe Telecom.",
      "datePosted": "Dec 04, 2018 | 01:10 PM",
      "titleFromTag": "Consumer"
    }
  ]
}
