{
  "status": 200,
  "page": 219,
  "totalPage": 298,
  "range": "2617-2628",
  "total": 3573,
  "result": [
    {
      "title": "Globe Telecom Among 50 Best in ASEAN Corporate Governance",
      "nonclickable": false,
      "openNewTab": false,
      "borderArticle": "border-color:#0074D9;",
      "borderTopArticle": "border-top-color:#0074D9;",
      "imageListing": "/sites/globe.com.ph/files/content/dam/globe/brie/AboutUs/newsroom/corporate/globe-among-50-best-in-asean-corporate-governance/corporate-best-corporate-governance-thumbnail-listing.jpg",
      "articleUrl": "https://www.globe.com.ph/about-us/newsroom/corporate/globe-among-50-best-in-asean-corporate-governance.html",
      "columnType": "articles--type-3",
      "typeListing": "article",
      "imageMobile": "/sites/globe.com.ph/files/content/dam/globe/brie/AboutUs/newsroom/corporate/globe-among-50-best-in-asean-corporate-governance/corporate-best-corporate-governance-banner-m.jpg",
      "imageDesktop": "/sites/globe.com.ph/files/content/dam/globe/brie/AboutUs/newsroom/corporate/globe-among-50-best-in-asean-corporate-governance/corporate-best-corporate-governance-primary-thumbnail.jpg",
      "description": "Globe Telecom among 50 best in ASEAN Corporate Governance. Visit the Globe Newsroom for the latest news on Globe Telecom.",
      "datePosted": "Dec 04, 2018 | 01:01 PM",
      "titleFromTag": "Corporate"
    },
    {
      "title": "Globe Telecom Promotes Employee Ride-Sharing to Reduce Carbon Emission",
      "nonclickable": false,
      "openNewTab": false,
      "borderArticle": "border-color:#0074D9;",
      "borderTopArticle": "border-top-color:#0074D9;",
      "imageListing": "/sites/globe.com.ph/files/content/dam/globe/brie/AboutUs/newsroom/sustainability/globe-telecom-promotes-employee-ride-sharing/sustainability-reduce-carbon-emission-thumbnail-listing.jpg",
      "articleUrl": "https://www.globe.com.ph/about-us/newsroom/sustainability/globe-telecom-promotes-employee-ride-sharing.html",
      "columnType": "articles--type-3",
      "typeListing": "article",
      "imageMobile": "/sites/globe.com.ph/files/content/dam/globe/brie/AboutUs/newsroom/sustainability/globe-telecom-promotes-employee-ride-sharing/sustainability-reduce-carbon-emission-banner-m.jpg",
      "imageDesktop": "/sites/globe.com.ph/files/content/dam/globe/brie/AboutUs/newsroom/sustainability/globe-telecom-promotes-employee-ride-sharing/sustainability-reduce-carbon-emission-primary-thumbnail.jpg",
      "description": "Globe Telecom promotes employee ride-sharing to reduce carbon emission. Visit the Globe Newsroom for the latest news on Globe Telecom.",
      "datePosted": "Dec 03, 2018 | 03:58 PM",
      "titleFromTag": "Sustainability"
    },
    {
      "title": "Get a Chance to Score First Dibs on Tickets to BLACKPINK Live in Manila",
      "nonclickable": false,
      "openNewTab": false,
      "borderArticle": "border-color:#0074D9;",
      "borderTopArticle": "border-top-color:#0074D9;",
      "imageListing": "/sites/globe.com.ph/files/content/dam/globe/brie/AboutUs/newsroom/consumer/score-first-dibs-on-blackpink-tickets/consumer-blackpink-live-manila-thumbnail-listing.jpg",
      "articleUrl": "https://www.globe.com.ph/about-us/newsroom/consumer/score-first-dibs-on-blackpink-tickets.html",
      "columnType": "articles--type-3",
      "typeListing": "article",
      "imageMobile": "/sites/globe.com.ph/files/content/dam/globe/brie/AboutUs/newsroom/consumer/score-first-dibs-on-blackpink-tickets/consumer-blackpink-live-manila-banner-m.jpg",
      "imageDesktop": "/sites/globe.com.ph/files/content/dam/globe/brie/AboutUs/newsroom/consumer/score-first-dibs-on-blackpink-tickets/consumer-blackpink-live-manila-primary-thumbnail.jpg",
      "description": "Get a chance to score first dibs on tickets to BLACKPINK live in Manila. Visit the Globe Newsroom for the latest news on Globe Telecom.",
      "datePosted": "Dec 03, 2018 | 12:59 PM",
      "titleFromTag": "Consumer"
    },
    {
      "title": "Vendor Partners Join Globe Telecom’s Volunteering Program",
      "nonclickable": false,
      "openNewTab": false,
      "borderArticle": "border-color:#0074D9;",
      "borderTopArticle": "border-top-color:#0074D9;",
      "imageListing": "/sites/globe.com.ph/files/content/dam/globe/brie/AboutUs/newsroom/sustainability/vendor-partners-join-globe-volunteering-program/sustainability-vendor-partners-volunteering-thumbnail-listing.jpg",
      "articleUrl": "https://www.globe.com.ph/about-us/newsroom/sustainability/vendor-partners-join-globe-volunteering-program.html",
      "columnType": "articles--type-3",
      "typeListing": "article",
      "imageMobile": "/sites/globe.com.ph/files/content/dam/globe/brie/AboutUs/newsroom/sustainability/vendor-partners-join-globe-volunteering-program/sustainability-vendor-partners-volunteering-banner-m.jpg",
      "imageDesktop": "/sites/globe.com.ph/files/content/dam/globe/brie/AboutUs/newsroom/sustainability/vendor-partners-join-globe-volunteering-program/sustainability-vendor-partners-volunteering-primary-thumbnail.jpg",
      "description": "Vendor partners join Globe Telecom’s volunteering program. Visit the Globe Newsroom for the latest news on Globe Telecom.",
      "datePosted": "Dec 03, 2018 | 12:58 PM",
      "titleFromTag": "Sustainability"
    },
    {
      "title": "Thrilling Competition and Over P400,000 Cash Prizes at Globe PPGL S3 Grand Finals",
      "nonclickable": false,
      "openNewTab": false,
      "borderArticle": "border-color:#0074D9;",
      "borderTopArticle": "border-top-color:#0074D9;",
      "imageListing": "/sites/globe.com.ph/files/content/dam/globe/brie/AboutUs/newsroom/consumer/over-400000-cash-prizes-at-globe-ppgl-s3-grand-finals/consumer-ppgl-season-3-thumbnail-listing.jpg",
      "articleUrl": "https://www.globe.com.ph/about-us/newsroom/consumer/over-400000-cash-prizes-at-globe-ppgl-s3-grand-finals.html",
      "columnType": "articles--type-3",
      "typeListing": "article",
      "imageMobile": "/sites/globe.com.ph/files/content/dam/globe/brie/AboutUs/newsroom/consumer/over-400000-cash-prizes-at-globe-ppgl-s3-grand-finals/consumer-ppgl-season-3-banner-m.jpg",
      "imageDesktop": "/sites/globe.com.ph/files/content/dam/globe/brie/AboutUs/newsroom/consumer/over-400000-cash-prizes-at-globe-ppgl-s3-grand-finals/consumer-ppgl-season-3-primary-thumbnail.jpg",
      "description": "Thrilling competition and over P400,000 cash prizes at Globe PPGL S3 Grand Finals . Visit the Globe Newsroom for the latest news on Globe Telecom.",
      "datePosted": "Nov 29, 2018 | 03:06 PM",
      "titleFromTag": "Consumer"
    },
    {
      "title": "Globe Brings Your Next On-Repeat Playlist",
      "nonclickable": false,
      "openNewTab": false,
      "borderArticle": "border-color:#0074D9;",
      "borderTopArticle": "border-top-color:#0074D9;",
      "imageListing": "/sites/globe.com.ph/files/content/dam/globe/brie/AboutUs/newsroom/consumer/globe-brings-your-next-on-repeat-playlist/consumer-elements-music-camp-thumbnail-listing.jpg",
      "articleUrl": "https://www.globe.com.ph/about-us/newsroom/consumer/globe-brings-your-next-on-repeat-playlist.html",
      "columnType": "articles--type-3",
      "typeListing": "article",
      "imageMobile": "/sites/globe.com.ph/files/content/dam/globe/brie/AboutUs/newsroom/consumer/globe-brings-your-next-on-repeat-playlist/consumer-elements-music-camp-banner-m.jpg",
      "imageDesktop": "/sites/globe.com.ph/files/content/dam/globe/brie/AboutUs/newsroom/consumer/globe-brings-your-next-on-repeat-playlist/consumer-elements-music-camp-primary-thumbnail.jpg",
      "description": "Globe brings your next on-repeat playlist. Visit the Globe Newsroom for the latest news on Globe Telecom.",
      "datePosted": "Nov 28, 2018 | 02:51 PM",
      "titleFromTag": "Consumer"
    },
    {
      "title": "Globe Telecom Provides P2M Scholarship Fund for 120 CENTEX Pupils",
      "nonclickable": false,
      "openNewTab": false,
      "borderArticle": "border-color:#0074D9;",
      "borderTopArticle": "border-top-color:#0074D9;",
      "imageListing": "/sites/globe.com.ph/files/content/dam/globe/brie/AboutUs/newsroom/sustainability/globe-telecom-provides-two-million-peso-scholarship-fund/sustainability-funding-centex-pupils-thumbnail-listing.jpg",
      "articleUrl": "https://www.globe.com.ph/about-us/newsroom/sustainability/globe-telecom-provides-two-million-peso-scholarship-fund.html",
      "columnType": "articles--type-3",
      "typeListing": "article",
      "imageMobile": "/sites/globe.com.ph/files/content/dam/globe/brie/AboutUs/newsroom/sustainability/globe-telecom-provides-two-million-peso-scholarship-fund/sustainability-funding-centex-pupils-banner-m.jpg",
      "imageDesktop": "/sites/globe.com.ph/files/content/dam/globe/brie/AboutUs/newsroom/sustainability/globe-telecom-provides-two-million-peso-scholarship-fund/sustainability-funding-centex-pupils-primary-thumbnail.jpg",
      "description": "Globe Telecom provides P2M scholarship fund for 120 CENTEX pupils. Visit the Globe Newsroom for the latest news on Globe Telecom.",
      "datePosted": "Nov 27, 2018 | 12:22 PM",
      "titleFromTag": "Sustainability"
    },
    {
      "title": "HOOQ Better than Ever with Globe At Home",
      "nonclickable": false,
      "openNewTab": false,
      "borderArticle": "border-color:#0074D9;",
      "borderTopArticle": "border-top-color:#0074D9;",
      "imageListing": "/sites/globe.com.ph/files/content/dam/globe/brie/AboutUs/newsroom/consumer/hooq-better-than-ever-with-globe-at-home/consumer-free-hooq-november-thumbnail-listing.jpg",
      "articleUrl": "https://www.globe.com.ph/about-us/newsroom/consumer/hooq-better-than-ever-with-globe-at-home.html",
      "columnType": "articles--type-3",
      "typeListing": "article",
      "imageMobile": "/sites/globe.com.ph/files/content/dam/globe/brie/AboutUs/newsroom/consumer/hooq-better-than-ever-with-globe-at-home/consumer-free-hooq-november-banner-m.jpg",
      "imageDesktop": "/sites/globe.com.ph/files/content/dam/globe/brie/AboutUs/newsroom/consumer/hooq-better-than-ever-with-globe-at-home/consumer-free-hooq-november-primary-thumbnail.jpg",
      "description": "HOOQ is better than ever with Globe At Home. Visit the Globe Newsroom for the latest news on Globe Telecom.",
      "datePosted": "Nov 27, 2018 | 12:11 PM",
      "titleFromTag": "Consumer"
    },
    {
      "title": "Watch Highlights, Full Bouts of ONE: CONQUEST OF CHAMPIONS via the ONE Super App, Globe GoWATCH",
      "nonclickable": false,
      "openNewTab": false,
      "borderArticle": "border-color:#0074D9;",
      "borderTopArticle": "border-top-color:#0074D9;",
      "imageListing": "/sites/globe.com.ph/files/content/dam/globe/brie/AboutUs/newsroom/consumer/one-conquest-of-champions-with-one-super-app-globe-gowatch/consumer-conquest-of-champions-thumbnail-listing.jpg",
      "articleUrl": "https://www.globe.com.ph/about-us/newsroom/consumer/one-conquest-of-champions-with-one-super-app-globe-gowatch.html",
      "columnType": "articles--type-3",
      "typeListing": "article",
      "imageMobile": "/sites/globe.com.ph/files/content/dam/globe/brie/AboutUs/newsroom/consumer/one-conquest-of-champions-with-one-super-app-globe-gowatch/consumer-conquest-of-champions-banner-m.jpg",
      "imageDesktop": "/sites/globe.com.ph/files/content/dam/globe/brie/AboutUs/newsroom/consumer/one-conquest-of-champions-with-one-super-app-globe-gowatch/consumer-conquest-of-champions-primary-thumbnail.jpg",
      "description": "Watch Highlights and Full Bouts of ONE: CONQUEST OF CHAMPIONS on your mobile screen via the ONE Super App and Globe GoWATCH. Visit the Newsroom for more.",
      "datePosted": "Nov 27, 2018 | 11:18 AM",
      "titleFromTag": "Consumer"
    },
    {
      "title": "Globe Telecom Bags Two Major Recognitions at 2018 The Asset Corporate Awards",
      "nonclickable": false,
      "openNewTab": false,
      "borderArticle": "border-color:#0074D9;",
      "borderTopArticle": "border-top-color:#0074D9;",
      "imageListing": "/sites/globe.com.ph/files/content/dam/globe/brie/AboutUs/newsroom/common/Corporate_Globe_Listing.jpg",
      "articleUrl": "https://www.globe.com.ph/about-us/newsroom/corporate/globe-bags-two-asset-corporate-awards.html",
      "columnType": "articles--type-3",
      "typeListing": "article",
      "imageMobile": "/sites/globe.com.ph/files/content/dam/globe/brie/AboutUs/newsroom/common/Corporate_Globe_Hero-Banner-Mobile.jpg",
      "imageDesktop": "/sites/globe.com.ph/files/content/dam/globe/brie/AboutUs/newsroom/common/Corporate_Globe_Primary-Desktop-Thumbnail.jpg",
      "description": "Globe Telecom Bags Two Major Recognitions at 2018 The Asset Corporate Awards. Visit the Globe Newsroom for the latest news on Globe Telecom.",
      "datePosted": "Nov 23, 2018 | 03:09 PM",
      "titleFromTag": "Corporate"
    },
    {
      "title": "Putting Up Cell Sites is Telco Industry’s Single Biggest Challenge",
      "nonclickable": false,
      "openNewTab": false,
      "borderArticle": "border-color:#0074D9;",
      "borderTopArticle": "border-top-color:#0074D9;",
      "imageListing": "/sites/globe.com.ph/files/content/dam/globe/brie/AboutUs/newsroom/common/Corporate_Globe_Listing.jpg",
      "articleUrl": "https://www.globe.com.ph/about-us/newsroom/corporate/putting-up-cell-sites-telcos-biggest-challenge.html",
      "columnType": "articles--type-3",
      "typeListing": "article",
      "imageMobile": "/sites/globe.com.ph/files/content/dam/globe/brie/AboutUs/newsroom/common/Corporate_Globe_Hero-Banner-Mobile.jpg",
      "imageDesktop": "/sites/globe.com.ph/files/content/dam/globe/brie/AboutUs/newsroom/common/Corporate_Globe_Primary-Desktop-Thumbnail.jpg",
      "description": "Putting up cell sites is telco industry’s single biggest challenge. Visit the Globe Newsroom for the latest news on Globe Telecom.",
      "datePosted": "Nov 22, 2018 | 11:00 AM",
      "titleFromTag": "Corporate"
    },
    {
      "title": "Globe Business Clients Create Big Bold Moves with iPhone Xs Series",
      "nonclickable": false,
      "openNewTab": false,
      "borderArticle": "border-color:#0074D9;",
      "borderTopArticle": "border-top-color:#0074D9;",
      "imageListing": "/sites/globe.com.ph/files/content/dam/globe/brie/AboutUs/newsroom/business/globe-business-clients-create-big-moves-iphone-xs-series/business-iphone-xs-series-thumbnail-listing.jpg",
      "articleUrl": "https://www.globe.com.ph/about-us/newsroom/business/globe-business-clients-create-big-moves-iphone-xs-series.html",
      "columnType": "articles--type-3",
      "typeListing": "article",
      "imageMobile": "/sites/globe.com.ph/files/content/dam/globe/brie/AboutUs/newsroom/business/globe-business-clients-create-big-moves-iphone-xs-series/business-iphone-xs-series-banner-m.jpg",
      "imageDesktop": "/sites/globe.com.ph/files/content/dam/globe/brie/AboutUs/newsroom/business/globe-business-clients-create-big-moves-iphone-xs-series/business-iphone-xs-series-primary-thumbnail.jpg",
      "description": "Globe Business clients create big bold moves with iPhone Xs Series. Visit the Globe Newsroom for the latest news on Globe Telecom.",
      "datePosted": "Nov 20, 2018 | 01:04 PM",
      "titleFromTag": "Business"
    }
  ]
}
