{
  "status": 200,
  "page": 22,
  "totalPage": 298,
  "range": "253-264",
  "total": 3573,
  "result": [
    {
      "title": "Caritas PH’s PaMEALyA Program Brings Relief to Struggling Scholars",
      "nonclickable": false,
      "openNewTab": false,
      "borderArticle": "border-color:#1C91C5;",
      "borderTopArticle": "border-top-color:#1C91C5;",
      "imageListing": "/sites/globe.com.ph/files/content/dam/globe/brie/AboutUs/newsroom/sustainability/caritas-ph-pamealya-program-brings-relief/thumbnail-listing.jpg",
      "articleUrl": "https://www.globe.com.ph/about-us/newsroom/sustainability/caritas-ph-pamealya-program-brings-relief.html",
      "columnType": "articles--type-3",
      "typeListing": "article",
      "imageMobile": "/sites/globe.com.ph/files/content/dam/globe/brie/AboutUs/newsroom/sustainability/caritas-ph-pamealya-program-brings-relief/primary-thumbnail-m.jpg",
      "imageDesktop": "/sites/globe.com.ph/files/content/dam/globe/brie/AboutUs/newsroom/sustainability/caritas-ph-pamealya-program-brings-relief/primary-thumbnail-d.jpg",
      "description": "Caritas Philippines’ PaMEALyA Program in partnership with the Hapag Movement aims to help struggling scholars from low-income families.",
      "datePosted": "Jun 13, 2023 | 02:31 PM",
      "titleFromTag": "Sustainability"
    },
    {
      "title": "Globe Cautions Customers Against Rising OTT Spam, Scam Messages",
      "nonclickable": false,
      "openNewTab": false,
      "borderArticle": "border-color:#0074D9;",
      "borderTopArticle": "border-top-color:#0074D9;",
      "imageListing": "/sites/globe.com.ph/files/content/dam/globe/brie/AboutUs/newsroom/common/default-corporate-main/newsroom-default-corporate-thumbnail-listing.jpg",
      "articleUrl": "https://www.globe.com.ph/about-us/newsroom/corporate/rising-ott-spam-scam-messages.html",
      "columnType": "articles--type-3",
      "typeListing": "article",
      "imageMobile": "/sites/globe.com.ph/files/content/dam/globe/brie/AboutUs/newsroom/common/default-corporate-main/newsroom-default-corporate-primary-thumbnail-m.jpg",
      "imageDesktop": "/sites/globe.com.ph/files/content/dam/globe/brie/AboutUs/newsroom/common/default-corporate-main/newsroom-default-corporate-primary-thumbnail-d.jpg",
      "description": "Globe cautions customers against the rising number of spam and scam messages using over-the-top (OTT) media services.",
      "datePosted": "Jun 13, 2023 | 11:20 AM",
      "titleFromTag": "Corporate"
    },
    {
      "title": "Manok ng Bayan, Chooks-to-Go Shifts to Google Workspace Through Globe Business",
      "nonclickable": false,
      "openNewTab": false,
      "borderArticle": "border-color:#0074D9;",
      "borderTopArticle": "border-top-color:#0074D9;",
      "imageListing": "/sites/globe.com.ph/files/content/dam/globe/brie/AboutUs/newsroom/common/default-partners-2/default-partners-2-thumbnail-listing.jpg",
      "articleUrl": "https://www.globe.com.ph/about-us/newsroom/business/chooks-to-go-shifts-to-google-workspace.html",
      "columnType": "articles--type-3",
      "typeListing": "article",
      "imageMobile": "/sites/globe.com.ph/files/content/dam/globe/brie/AboutUs/newsroom/common/default-partners-2/default-partners-2-primary-thumbnail-m.jpg",
      "imageDesktop": "/sites/globe.com.ph/files/content/dam/globe/brie/AboutUs/newsroom/common/default-partners-2/default-partners-2-primary-thumbnail-d.jpg",
      "description": "Manok ng Bayan, Chooks-to-Go partners with Globe Business to empower their employees with flexibility and remote access using Google Workspace.",
      "datePosted": "Jun 09, 2023 | 02:29 PM",
      "titleFromTag": "Business"
    },
    {
      "title": "KonsultaMD Unites with AC Health’s Generika and Healthway to Expand Healthcare Services for Filipinos",
      "nonclickable": false,
      "openNewTab": false,
      "borderArticle": "border-color:#0074D9;",
      "borderTopArticle": "border-top-color:#0074D9;",
      "imageListing": "/sites/globe.com.ph/files/content/dam/globe/brie/AboutUs/newsroom/consumer/konsultamd-unites-with-ac-health’s-generika-and-healthway-to-expand-healthcare-services-for-filipinos/generika-healthway-thumbnail-listing.jpg",
      "articleUrl": "https://www.globe.com.ph/about-us/newsroom/consumer/konsultamd-unites-with-generika-healthway.html",
      "columnType": "articles--type-3",
      "typeListing": "article",
      "imageMobile": "/sites/globe.com.ph/files/content/dam/globe/brie/AboutUs/newsroom/consumer/konsultamd-unites-with-ac-health’s-generika-and-healthway-to-expand-healthcare-services-for-filipinos/generika-healthway-primary-thumbnail-m.jpg",
      "imageDesktop": "/sites/globe.com.ph/files/content/dam/globe/brie/AboutUs/newsroom/consumer/konsultamd-unites-with-ac-health’s-generika-and-healthway-to-expand-healthcare-services-for-filipinos/generika-healthway-primary-thumbnail-d.jpg",
      "description": "KonsultaMD and AC Health has joined forces with AC Health’s Generika Drugstore and Healthway Medical Network, to expand healthcare services nationwide.",
      "datePosted": "Jun 09, 2023 | 11:26 AM",
      "titleFromTag": "Consumer"
    },
    {
      "title": "Globe Readies Network, Disaster Response Protocol as Mayon and Taal Exhibit Heightened Volcanic Unrest",
      "nonclickable": false,
      "openNewTab": false,
      "borderArticle": "border-color:#0074D9;",
      "borderTopArticle": "border-top-color:#0074D9;",
      "imageListing": "/sites/globe.com.ph/files/content/dam/globe/brie/AboutUs/newsroom/corporate/globe-disaster-volcanic-response-mayon-taal/corp-default-image-thumbnail-listing.jpg",
      "articleUrl": "https://www.globe.com.ph/about-us/newsroom/corporate/globe-disaster-response-mayon-taal.html",
      "columnType": "articles--type-3",
      "typeListing": "article",
      "imageMobile": "/sites/globe.com.ph/files/content/dam/globe/brie/AboutUs/newsroom/corporate/globe-disaster-volcanic-response-mayon-taal/corp-default-image-primary-thumbnail-m.jpg",
      "imageDesktop": "/sites/globe.com.ph/files/content/dam/globe/brie/AboutUs/newsroom/corporate/globe-disaster-volcanic-response-mayon-taal/corp-default-image-primary-thumbnail-d.jpg",
      "description": "With the heightened unrest of Mayon & Taal, Globe readied its teams & network to provide essential communication resources to communities that may be affected.",
      "datePosted": "Jun 09, 2023 | 11:20 AM",
      "titleFromTag": "Corporate"
    },
    {
      "title": "Globe At Home, Samsung Partner to Give Pinoys an Elevated Digital Home Experience",
      "nonclickable": false,
      "openNewTab": false,
      "borderArticle": "border-color:#0074D9;",
      "borderTopArticle": "border-top-color:#0074D9;",
      "imageListing": "/sites/globe.com.ph/files/content/dam/globe/brie/AboutUs/newsroom/common/default-consumer-2/default-consumer-thumbnail-listing.jpg",
      "articleUrl": "https://www.globe.com.ph/about-us/newsroom/consumer/globe-at-home-samsung-raffle-promo.html",
      "columnType": "articles--type-3",
      "typeListing": "article",
      "imageMobile": "/sites/globe.com.ph/files/content/dam/globe/brie/AboutUs/newsroom/common/default-consumer-2/default-consumer-primary-thumbnail-m.jpg",
      "imageDesktop": "/sites/globe.com.ph/files/content/dam/globe/brie/AboutUs/newsroom/common/default-consumer-2/default-consumer-primary-thumbnail-d.jpg",
      "description": "Globe At Home and Samsung kick off their partnership with an exciting promo that gives customers the chance to win Samsung devices. ",
      "datePosted": "Jun 08, 2023 | 05:04 PM",
      "titleFromTag": "Consumer"
    },
    {
      "title": "Finally, Prepaid Fiber Internet is Now Available from Globe At Home",
      "nonclickable": false,
      "openNewTab": false,
      "borderArticle": "border-color:#0074D9;",
      "borderTopArticle": "border-top-color:#0074D9;",
      "imageListing": "/sites/globe.com.ph/files/content/dam/globe/brie/AboutUs/newsroom/common/default-consumer-3/default-consumer-thumbnail-listing.jpg",
      "articleUrl": "https://www.globe.com.ph/about-us/newsroom/consumer/globe-at-home-launches-gfiber-prepaid.html",
      "columnType": "articles--type-3",
      "typeListing": "article",
      "imageMobile": "/sites/globe.com.ph/files/content/dam/globe/brie/AboutUs/newsroom/common/default-consumer-3/default-consumer-primary-thumbnail-m.jpg",
      "imageDesktop": "/sites/globe.com.ph/files/content/dam/globe/brie/AboutUs/newsroom/common/default-consumer-3/default-consumer-primary-thumbnail-d.jpg",
      "description": "Globe At Home improves home connectivity through affordable and flexible prepaid fiber internet plans with GFiber Prepaid. ",
      "datePosted": "Jun 08, 2023 | 03:51 PM",
      "titleFromTag": "Consumer"
    },
    {
      "title": "Globe Expands 5G Roaming Footprint,  Now Available in 67 Countries, Territories",
      "nonclickable": false,
      "openNewTab": false,
      "borderArticle": "border-color:#0074D9;",
      "borderTopArticle": "border-top-color:#0074D9;",
      "imageListing": "/sites/globe.com.ph/files/content/dam/globe/brie/AboutUs/newsroom/common/default-corporate-5/corp-thumbnail-listing.jpg",
      "articleUrl": "https://www.globe.com.ph/about-us/newsroom/corporate/globe-expands-5g-roaming-footprint.html",
      "columnType": "articles--type-3",
      "typeListing": "article",
      "imageMobile": "/sites/globe.com.ph/files/content/dam/globe/brie/AboutUs/newsroom/common/default-corporate-5/corp-primary-thumbnail-m.jpg",
      "imageDesktop": "/sites/globe.com.ph/files/content/dam/globe/brie/AboutUs/newsroom/common/default-corporate-5/corp-primary-thumbnail-d.jpg",
      "description": "Globe continues to expand its 5G coverage, now available in 67 countries and territories.",
      "datePosted": "Jun 08, 2023 | 11:14 AM",
      "titleFromTag": "Corporate"
    },
    {
      "title": "Globe Business Redefines Enterprise Mobile Security With  Check Point’s Harmony Mobile",
      "nonclickable": false,
      "openNewTab": false,
      "borderArticle": "border-color:#0074D9;",
      "borderTopArticle": "border-top-color:#0074D9;",
      "imageListing": "/sites/globe.com.ph/files/content/dam/globe/brie/AboutUs/newsroom/business/globe-business-check-point-harmony-mobile/eg-harmony-mobile-thumbnail-listing.jpg",
      "articleUrl": "https://www.globe.com.ph/about-us/newsroom/business/globe-business-check-point-harmony-mobile.html",
      "columnType": "articles--type-3",
      "typeListing": "article",
      "imageMobile": "/sites/globe.com.ph/files/content/dam/globe/brie/AboutUs/newsroom/business/globe-business-check-point-harmony-mobile/eg-harmony-mobile-primary-thumbnail-m.jpg",
      "imageDesktop": "/sites/globe.com.ph/files/content/dam/globe/brie/AboutUs/newsroom/business/globe-business-check-point-harmony-mobile/eg-harmony-mobile-primary-thumbnail-d.jpg",
      "description": "Globe Business, in partnership with Check Point, strengthens and redefines mobile security to keep corporate data secure on mobile devices. ",
      "datePosted": "Jun 07, 2023 | 02:38 PM",
      "titleFromTag": "Business"
    },
    {
      "title": "Globe Promotes Circularity, Launches Recyclable and Upcyclable Packaging for Globe at Home GFiber Prepaid",
      "nonclickable": false,
      "openNewTab": false,
      "borderArticle": "border-color:#1C91C5;",
      "borderTopArticle": "border-top-color:#1C91C5;",
      "imageListing": "/sites/globe.com.ph/files/content/dam/globe/brie/AboutUs/newsroom/sustainability/new-e-waste-facility-in-malabon-to-protect-communities-from-hazardous-effects/default-sustainability-3-thumbnail-listing.jpg",
      "articleUrl": "https://www.globe.com.ph/about-us/newsroom/sustainability/recyclable-upcyclable-packaging-gfiber-prepaid.html",
      "columnType": "articles--type-3",
      "typeListing": "article",
      "imageMobile": "/sites/globe.com.ph/files/content/dam/globe/brie/AboutUs/newsroom/sustainability/new-e-waste-facility-in-malabon-to-protect-communities-from-hazardous-effects/default-sustainability-3-primary-thumbnail-m.jpg",
      "imageDesktop": "/sites/globe.com.ph/files/content/dam/globe/brie/AboutUs/newsroom/sustainability/new-e-waste-facility-in-malabon-to-protect-communities-from-hazardous-effects/default-sustainability-3-primary-thumbnail-d.jpg",
      "description": "Globe promotes sustainability through recyclable and upcyclable packaging for GFiber Prepaid modems in support of the Philippine Environment Month.",
      "datePosted": "Jun 06, 2023 | 03:49 PM",
      "titleFromTag": "Sustainability"
    },
    {
      "title": "Best of Both Worlds: Asticom Unveils Employee Value Proposition",
      "nonclickable": false,
      "openNewTab": false,
      "borderArticle": "border-color:#0074D9;",
      "borderTopArticle": "border-top-color:#0074D9;",
      "imageListing": "/sites/globe.com.ph/files/content/dam/globe/brie/AboutUs/newsroom/common/default-corporate-14/corp-default-images-thumbnail-listing.jpg",
      "articleUrl": "https://www.globe.com.ph/about-us/newsroom/partners/asticom-unveils-employee-value-proposition.html",
      "columnType": "articles--type-3",
      "typeListing": "article",
      "imageMobile": "/sites/globe.com.ph/files/content/dam/globe/brie/AboutUs/newsroom/common/default-corporate-14/corp-default-images-primary-thumbnail-m.jpg",
      "imageDesktop": "/sites/globe.com.ph/files/content/dam/globe/brie/AboutUs/newsroom/common/default-corporate-14/corp-default-images-primary-thumbnail-d.jpg",
      "description": "Asticom Group of Companies recently unveiled its \"Best of Both Worlds\" employee value proposition (EVP).",
      "datePosted": "Jun 05, 2023 | 05:44 PM",
      "titleFromTag": "Partners"
    },
    {
      "title": "Globe Group Shares Story of Purpose-Led Transformation in UN's Vision 2045 Documentary Series",
      "nonclickable": false,
      "openNewTab": false,
      "borderArticle": "border-color:#0074D9;",
      "borderTopArticle": "border-top-color:#0074D9;",
      "imageListing": "/sites/globe.com.ph/files/content/dam/globe/brie/AboutUs/newsroom/common/default-corporate-10/default-corporate-10-thumbnail-listing.jpg",
      "articleUrl": "https://www.globe.com.ph/about-us/newsroom/corporate/purpose-led-transformation-un-vision-2045.html",
      "columnType": "articles--type-3",
      "typeListing": "article",
      "imageMobile": "/sites/globe.com.ph/files/content/dam/globe/brie/AboutUs/newsroom/common/default-corporate-10/default-corporate-10-primary-thumbnail-m.jpg",
      "imageDesktop": "/sites/globe.com.ph/files/content/dam/globe/brie/AboutUs/newsroom/common/default-corporate-10/default-corporate-10-primary-thumbnail-d.jpg",
      "description": "Reflecting its long-standing commitment to the United Nations Sustainable Development Goals (SDGs), the Globe Group is participating in the UN’s Vision 2045.",
      "datePosted": "Jun 05, 2023 | 10:53 AM",
      "titleFromTag": "Corporate"
    }
  ]
}
