{
  "status": 200,
  "page": 220,
  "totalPage": 298,
  "range": "2629-2640",
  "total": 3573,
  "result": [
    {
      "title": "The iPhone XR Has Arrived at Globe Telecom",
      "nonclickable": false,
      "openNewTab": false,
      "borderArticle": "border-color:#0074D9;",
      "borderTopArticle": "border-top-color:#0074D9;",
      "imageListing": "/sites/globe.com.ph/files/content/dam/globe/brie/AboutUs/newsroom/consumer/iPhone-xr-has-arrived-at-globe-telecom/consumer-preorder-iphone-xr-thumbnail-listing.jpg",
      "articleUrl": "https://www.globe.com.ph/about-us/newsroom/consumer/iPhone-xr-has-arrived-at-globe-telecom.html",
      "columnType": "articles--type-3",
      "typeListing": "article",
      "imageMobile": "/sites/globe.com.ph/files/content/dam/globe/brie/AboutUs/newsroom/consumer/iPhone-xr-has-arrived-at-globe-telecom/consumer-preorder-iphone-xr-banner-m.jpg",
      "imageDesktop": "/sites/globe.com.ph/files/content/dam/globe/brie/AboutUs/newsroom/consumer/iPhone-xr-has-arrived-at-globe-telecom/consumer-preorder-iphone-xr-primary-thumbnail.jpg",
      "description": "The iPhone XR has arrived at Globe Telecom. Visit the Globe Newsroom for the latest news on Globe Telecom.",
      "datePosted": "Nov 16, 2018 | 02:44 PM",
      "titleFromTag": "Consumer"
    },
    {
      "title": "Globe and Amazon's Black Friday and Cyber Monday Shopping Spree",
      "nonclickable": false,
      "openNewTab": false,
      "borderArticle": "border-color:#0074D9;",
      "borderTopArticle": "border-top-color:#0074D9;",
      "imageListing": "/sites/globe.com.ph/files/content/dam/globe/brie/AboutUs/newsroom/consumer/globe-and-amazon-black-friday-cyber-monday-shopping-spree/consumer-amazon-black-friday-thumbnail-listing.jpg",
      "articleUrl": "https://www.globe.com.ph/about-us/newsroom/consumer/globe-and-amazon-black-friday-cyber-monday-shopping-spree.html",
      "columnType": "articles--type-3",
      "typeListing": "article",
      "imageMobile": "/sites/globe.com.ph/files/content/dam/globe/brie/AboutUs/newsroom/consumer/globe-and-amazon-black-friday-cyber-monday-shopping-spree/consumer-amazon-black-friday-banner-m.jpg",
      "imageDesktop": "/sites/globe.com.ph/files/content/dam/globe/brie/AboutUs/newsroom/consumer/globe-and-amazon-black-friday-cyber-monday-shopping-spree/consumer-amazon-black-friday-primary-thumbnail.jpg",
      "description": "Get the ultimate P100,000 Black Friday and Cyber Monday shopping spree from Globe and Amazon. Visit the Globe Newsroom for the latest news on Globe Telecom.",
      "datePosted": "Nov 16, 2018 | 01:59 PM",
      "titleFromTag": "Consumer"
    },
    {
      "title": "Win Up to P100,000 in Cash With Globe GoWiFi Auto WiFi and Win Promo",
      "nonclickable": false,
      "openNewTab": false,
      "borderArticle": "border-color:#0074D9;",
      "borderTopArticle": "border-top-color:#0074D9;",
      "imageListing": "/sites/globe.com.ph/files/content/dam/globe/brie/About-us/Newsroom/image/Consumer/111520180439PM/consumer-gowifi-win-promo-thumbnail-listing.gif",
      "articleUrl": "https://www.globe.com.ph/about-us/newsroom/consumer/win-up-to-P100000-in-cash-with-globe-gowifi-auto-wifi.html",
      "columnType": "articles--type-3",
      "typeListing": "article",
      "imageMobile": "/sites/globe.com.ph/files/content/dam/globe/brie/About-us/Newsroom/image/Consumer/111520180439PM/consumer-gowifi-win-promo-banner-m.gif",
      "imageDesktop": "/sites/globe.com.ph/files/content/dam/globe/brie/About-us/Newsroom/image/Consumer/111520180439PM/consumer-gowifi-win-promo-primary-thumbnail.gif",
      "description": "Win up to P100,000 in cash with Globe GoWiFi Auto WiFi and win promo. Visit the Globe Newsroom for the latest news on Globe Telecom.",
      "datePosted": "Nov 15, 2018 | 03:54 PM",
      "titleFromTag": "Consumer"
    },
    {
      "title": "Bagosphere, The Spark Project Win Grants At Singtel Group Future Makers 2018",
      "nonclickable": false,
      "openNewTab": false,
      "borderArticle": "border-color:#0074D9;",
      "borderTopArticle": "border-top-color:#0074D9;",
      "imageListing": "/sites/globe.com.ph/files/content/dam/globe/brie/AboutUs/newsroom/sustainability/bagosphere-the-spark-project-win-singtel-group-future-makers-2018-grants/corporate-the-spark-project-thumbnail-listing.jpg",
      "articleUrl": "https://www.globe.com.ph/about-us/newsroom/sustainability/bagosphere-the-spark-project-win-singtel-group-future-makers-2018-grants.html",
      "columnType": "articles--type-3",
      "typeListing": "article",
      "imageMobile": "/sites/globe.com.ph/files/content/dam/globe/brie/AboutUs/newsroom/sustainability/bagosphere-the-spark-project-win-singtel-group-future-makers-2018-grants/corporate-the-spark-project-banner-m.jpg",
      "imageDesktop": "/sites/globe.com.ph/files/content/dam/globe/brie/AboutUs/newsroom/sustainability/bagosphere-the-spark-project-win-singtel-group-future-makers-2018-grants/corporate-the-spark-project-primary-thumbnail.jpg",
      "description": "Bagosphere, The Spark Project win grants at Singtel Group Future Makers 2018. Visit the Globe Newsroom for the latest news on Globe Telecom.",
      "datePosted": "Nov 14, 2018 | 03:34 PM",
      "titleFromTag": "Sustainability"
    },
    {
      "title": "Ramped-Up LTE Rollout Further Boosts Globe Telecom’s Data Traffic",
      "nonclickable": false,
      "openNewTab": false,
      "borderArticle": "border-color:#0074D9;",
      "borderTopArticle": "border-top-color:#0074D9;",
      "imageListing": "/sites/globe.com.ph/files/content/dam/globe/brie/AboutUs/newsroom/common/Corporate_Globe_Listing.jpg",
      "articleUrl": "https://www.globe.com.ph/about-us/newsroom/corporate/ramped-up-lte-rollout-further-boosts-globe-data-traffic.html",
      "columnType": "articles--type-3",
      "typeListing": "article",
      "imageMobile": "/sites/globe.com.ph/files/content/dam/globe/brie/AboutUs/newsroom/common/Corporate_Globe_Hero-Banner-Mobile.jpg",
      "imageDesktop": "/sites/globe.com.ph/files/content/dam/globe/brie/AboutUs/newsroom/common/Corporate_Globe_Primary-Desktop-Thumbnail.jpg",
      "description": "Ramped-up LTE rollout further boosts Globe Telecom’s Data Traffic. Visit the Globe Newsroom for the latest news on Globe Telecom.",
      "datePosted": "Nov 14, 2018 | 11:31 AM",
      "titleFromTag": "Corporate"
    },
    {
      "title": "Two Ways to Watch The Weeknd Live in Manila",
      "nonclickable": false,
      "openNewTab": false,
      "borderArticle": "border-color:#0074D9;",
      "borderTopArticle": "border-top-color:#0074D9;",
      "imageListing": "/sites/globe.com.ph/files/content/dam/globe/brie/AboutUs/newsroom/consumer/two-ways-to-watch-the-weeknd-live-in-manila/consumer-the-weekend-manila-thumbnail-listing.gif",
      "articleUrl": "https://www.globe.com.ph/about-us/newsroom/consumer/two-ways-to-watch-the-weeknd-live-in-manila.html",
      "columnType": "articles--type-3",
      "typeListing": "article",
      "imageMobile": "/sites/globe.com.ph/files/content/dam/globe/brie/AboutUs/newsroom/consumer/two-ways-to-watch-the-weeknd-live-in-manila/consumer-the-weekend-manila-banner-m.gif",
      "imageDesktop": "/sites/globe.com.ph/files/content/dam/globe/brie/AboutUs/newsroom/consumer/two-ways-to-watch-the-weeknd-live-in-manila/consumer-the-weekend-manila-primary-thumbnail.gif",
      "description": "Two ways to watch The Weeknd Live in Manila. Visit the Globe Newsroom for the latest news on Globe Telecom.",
      "datePosted": "Nov 13, 2018 | 05:03 PM",
      "titleFromTag": "Consumer"
    },
    {
      "title": "Globe Shows Mad Love for Local Movies, TV, And Music",
      "nonclickable": false,
      "openNewTab": false,
      "borderArticle": "border-color:#0074D9;",
      "borderTopArticle": "border-top-color:#0074D9;",
      "imageListing": "/sites/globe.com.ph/files/content/dam/globe/brie/AboutUs/newsroom/consumer/globe-shows-mad-love-for-local-movies-tv-music/consumer-mad-love-local-thumbnail-listing.gif",
      "articleUrl": "https://www.globe.com.ph/about-us/newsroom/consumer/globe-shows-mad-love-for-local-movies-tv-music.html",
      "columnType": "articles--type-3",
      "typeListing": "article",
      "imageMobile": "/sites/globe.com.ph/files/content/dam/globe/brie/AboutUs/newsroom/consumer/globe-shows-mad-love-for-local-movies-tv-music/consumer-mad-love-local-banner-m.gif",
      "imageDesktop": "/sites/globe.com.ph/files/content/dam/globe/brie/AboutUs/newsroom/consumer/globe-shows-mad-love-for-local-movies-tv-music/consumer-mad-love-local-primary-thumbnail.gif",
      "description": "Globe shows mad love for local movies, TV, and music. Visit the Globe Newsroom for the latest news on Globe Telecom.",
      "datePosted": "Nov 13, 2018 | 04:50 PM",
      "titleFromTag": "Consumer"
    },
    {
      "title": "Globe Telecom opens pre-order for iPhone XR starting November 9",
      "nonclickable": false,
      "openNewTab": false,
      "borderArticle": "border-color:#0074D9;",
      "borderTopArticle": "border-top-color:#0074D9;",
      "imageListing": "/sites/globe.com.ph/files/content/dam/globe/brie/AboutUs/newsroom/consumer/globe-telecom-opens-pre-order-for-iphone-xr-starting-november-9/Copy%20of%20consumer-globe-iphonexr-november-thumbnail-listing.png",
      "articleUrl": "https://www.globe.com.ph/about-us/newsroom/consumer/globe-telecom-opens-pre-order-for-iphone-xr.html",
      "columnType": "articles--type-3",
      "typeListing": "article",
      "imageMobile": "/sites/globe.com.ph/files/content/dam/globe/brie/AboutUs/newsroom/consumer/globe-telecom-opens-pre-order-for-iphone-xr-starting-november-9/Copy%20of%20consumer-globe-iphonexr-november-banner-m.png",
      "imageDesktop": "/sites/globe.com.ph/files/content/dam/globe/brie/AboutUs/newsroom/consumer/globe-telecom-opens-pre-order-for-iphone-xr-starting-november-9/Copy%20of%20consumer-globe-iphonexr-november-primary-thumbnail.png",
      "description": "Globe Telecom opens pre-order for iPhone XR starting November 9. Visit the Globe Newsroom for the latest news on Globe Telecom.",
      "datePosted": "Nov 09, 2018 | 04:30 PM",
      "titleFromTag": "Consumer"
    },
    {
      "title": "Globe at Home gives fans a chance to meet Lee Jong Suk in Manila",
      "nonclickable": false,
      "openNewTab": false,
      "borderArticle": "border-color:#0074D9;",
      "borderTopArticle": "border-top-color:#0074D9;",
      "imageListing": "/sites/globe.com.ph/files/content/dam/globe/brie/AboutUs/newsroom/consumer/globe-at-home-gives-fans-a-chance-to-meet-lee-jong-suk-in-manila/consumer-crank-up-fanmeet-thumbnail-listing.jpg",
      "articleUrl": "https://www.globe.com.ph/about-us/newsroom/consumer/globe-at-home-gives-fans-a-chance-to-meet-lee-jong-suk-in-manila.html",
      "columnType": "articles--type-3",
      "typeListing": "article",
      "imageMobile": "/sites/globe.com.ph/files/content/dam/globe/brie/AboutUs/newsroom/consumer/globe-at-home-gives-fans-a-chance-to-meet-lee-jong-suk-in-manila/consumer-crank-up-fanmeet-banner-m.jpg",
      "imageDesktop": "/sites/globe.com.ph/files/content/dam/globe/brie/AboutUs/newsroom/consumer/globe-at-home-gives-fans-a-chance-to-meet-lee-jong-suk-in-manila/consumer-crank-up-fanmeet-primary-thumbnail.jpg",
      "description": "Globe at Home gives fans a chance to meet Lee Jong Suk in Manila. Visit the Globe Newsroom for the latest news on Globe Telecom.",
      "datePosted": "Nov 09, 2018 | 04:24 PM",
      "titleFromTag": "Consumer"
    },
    {
      "title": "Globe Telecom : Official Statement (3rd Telco)",
      "nonclickable": false,
      "openNewTab": false,
      "borderArticle": "border-color:#0074D9;",
      "borderTopArticle": "border-top-color:#0074D9;",
      "imageListing": "/sites/globe.com.ph/files/content/dam/globe/brie/AboutUs/newsroom/common/Corporate_Globe_Listing.jpg",
      "articleUrl": "https://www.globe.com.ph/about-us/newsroom/corporate/globe-telecom-official-statement-third-telco.html",
      "columnType": "articles--type-3",
      "typeListing": "article",
      "imageMobile": "/sites/globe.com.ph/files/content/dam/globe/brie/AboutUs/newsroom/common/Corporate_Globe_Hero-Banner-Mobile.jpg",
      "imageDesktop": "/sites/globe.com.ph/files/content/dam/globe/brie/AboutUs/newsroom/common/Corporate_Globe_Primary-Desktop-Thumbnail.jpg",
      "description": "Globe Telecom : Official Statement (3rd Telco). Visit the Globe Newsroom for the latest news on Globe Telecom.",
      "datePosted": "Nov 07, 2018 | 05:15 PM",
      "titleFromTag": "Corporate"
    },
    {
      "title": "Philippine Gaming Management Corporation boosts business productivity and security with Globe Business",
      "nonclickable": false,
      "openNewTab": false,
      "borderArticle": "border-color:#0074D9;",
      "borderTopArticle": "border-top-color:#0074D9;",
      "imageListing": "/sites/globe.com.ph/files/content/dam/globe/brie/AboutUs/newsroom/business/philippine-gaming-management-corporation-boosts-business-productivity-and-security-with-globe-business/business-philippine-gaming-management-thumbnail-listing.png",
      "articleUrl": "https://www.globe.com.ph/about-us/newsroom/business/philippine-gaming-management-corporation-boosts-business-productivity-and-security-with-globe-business.html",
      "columnType": "articles--type-3",
      "typeListing": "article",
      "imageMobile": "/sites/globe.com.ph/files/content/dam/globe/brie/AboutUs/newsroom/business/philippine-gaming-management-corporation-boosts-business-productivity-and-security-with-globe-business/business-philippine-gaming-management-banner-m.png",
      "imageDesktop": "/sites/globe.com.ph/files/content/dam/globe/brie/AboutUs/newsroom/business/philippine-gaming-management-corporation-boosts-business-productivity-and-security-with-globe-business/business-philippine-gaming-management-primary-thumbnail.png",
      "description": "Philippine Gaming Management Corporation boosts business productivity and security with Globe Business. Visit the Globe Newsroom for the latest news",
      "datePosted": "Nov 07, 2018 | 01:48 PM",
      "titleFromTag": "Business"
    },
    {
      "title": "Globe Masskara Festival 2018 culminates with big clean-up drive",
      "nonclickable": false,
      "openNewTab": false,
      "borderArticle": "border-color:#0074D9;",
      "borderTopArticle": "border-top-color:#0074D9;",
      "imageListing": "/sites/globe.com.ph/files/content/dam/globe/brie/AboutUs/newsroom/sustainability/globe-masskara-festival-2018-culminates-with-big-clean-up-drive/sustainability-globe-maskara-fesitval-thumbnail-listing.png",
      "articleUrl": "https://www.globe.com.ph/about-us/newsroom/sustainability/globe-masskara-festival-2018-culminates-with-big-clean-up-drive.html",
      "columnType": "articles--type-3",
      "typeListing": "article",
      "imageMobile": "/sites/globe.com.ph/files/content/dam/globe/brie/AboutUs/newsroom/sustainability/globe-masskara-festival-2018-culminates-with-big-clean-up-drive/sustainability-globe-maskara-fesitval-banner-m.png",
      "imageDesktop": "/sites/globe.com.ph/files/content/dam/globe/brie/AboutUs/newsroom/sustainability/globe-masskara-festival-2018-culminates-with-big-clean-up-drive/sustainability-globe-maskara-fesitval-primary-thumbnail.png",
      "description": "Globe Masskara Festival 2018 culminates with big clean-up drive. Visit the Globe Newsroom for the latest news on Globe Telecom.",
      "datePosted": "Nov 07, 2018 | 01:32 PM",
      "titleFromTag": "Sustainability"
    }
  ]
}
