{
  "status": 200,
  "page": 221,
  "totalPage": 298,
  "range": "2641-2652",
  "total": 3573,
  "result": [
    {
      "title": "It’s a Girl Thing returns to Manila with real discussions and live performances",
      "nonclickable": false,
      "openNewTab": false,
      "borderArticle": "border-color:#0074D9;",
      "borderTopArticle": "border-top-color:#0074D9;",
      "imageListing": "/sites/globe.com.ph/files/content/dam/globe/brie/AboutUs/newsroom/consumer/its-a-girl-thing-returns-to-manila/consumer-a-girl-thing-thumbnail-listing.png",
      "articleUrl": "https://www.globe.com.ph/about-us/newsroom/consumer/its-a-girl-thing-returns-to-manila-with-real-discussions-and-live-performances.html",
      "columnType": "articles--type-3",
      "typeListing": "article",
      "imageMobile": "/sites/globe.com.ph/files/content/dam/globe/brie/AboutUs/newsroom/consumer/its-a-girl-thing-returns-to-manila/consumer-a-girl-thing-banner-m.png",
      "imageDesktop": "/sites/globe.com.ph/files/content/dam/globe/brie/AboutUs/newsroom/consumer/its-a-girl-thing-returns-to-manila/consumer-a-girl-thing-primary-thumbnail.png",
      "description": "It’s a Girl Thing returns to Manila with real discussions and live performances. Visit the Globe Newsroom for the latest news on Globe Telecom.",
      "datePosted": "Nov 07, 2018 | 01:16 PM",
      "titleFromTag": "Consumer"
    },
    {
      "title": "Globe Introduces eSIM in PH",
      "nonclickable": false,
      "openNewTab": false,
      "borderArticle": "border-color:#0074D9;",
      "borderTopArticle": "border-top-color:#0074D9;",
      "imageListing": "/sites/globe.com.ph/files/content/dam/globe/brie/AboutUs/newsroom/common/Corporate_Globe_Listing.jpg",
      "articleUrl": "https://www.globe.com.ph/about-us/newsroom/consumer/globe-introduces-esim-in-ph.html",
      "columnType": "articles--type-3",
      "typeListing": "article",
      "imageMobile": "/sites/globe.com.ph/files/content/dam/globe/brie/AboutUs/newsroom/common/Corporate_Globe_Hero-Banner-Mobile.jpg",
      "imageDesktop": "/sites/globe.com.ph/files/content/dam/globe/brie/AboutUs/newsroom/common/Corporate_Globe_Primary-Desktop-Thumbnail.jpg",
      "description": "Globe introduces eSIM in PH. Visit the Globe Newsroom for the latest news on Globe Telecom.",
      "datePosted": "Nov 05, 2018 | 04:45 PM",
      "titleFromTag": "Consumer"
    },
    {
      "title": "Globe Telecom to offer the iPhone XR this November",
      "nonclickable": false,
      "openNewTab": false,
      "borderArticle": "border-color:#0074D9;",
      "borderTopArticle": "border-top-color:#0074D9;",
      "imageListing": "/sites/globe.com.ph/files/content/dam/globe/brie/About-us/Newsroom/image/Consumer/11052018-0504PM/consumer-globe-iphonexr-november-thumbnail-listing.png",
      "articleUrl": "https://www.globe.com.ph/about-us/newsroom/consumer/globe-telecom-to-offer-the-iphone-xr-this-november.html",
      "columnType": "articles--type-3",
      "typeListing": "article",
      "imageMobile": "/sites/globe.com.ph/files/content/dam/globe/brie/About-us/Newsroom/image/Consumer/11052018-0504PM/consumer-globe-iphonexr-november-banner-m.png",
      "imageDesktop": "/sites/globe.com.ph/files/content/dam/globe/brie/About-us/Newsroom/image/Consumer/11052018-0504PM/consumer-globe-iphonexr-november-primary-thumbnail.png",
      "description": "Globe Telecom to offer the iPhone XR this November. Visit the Globe Newsroom for the latest news on Globe Telecom.",
      "datePosted": "Nov 05, 2018 | 04:28 PM",
      "titleFromTag": "Consumer"
    },
    {
      "title": "Globe LTE Nears 95% Nationwide Coverage with 700 MHz, Other New Spectrum Assets",
      "nonclickable": false,
      "openNewTab": false,
      "borderArticle": "border-color:#0074D9;",
      "borderTopArticle": "border-top-color:#0074D9;",
      "imageListing": "/sites/globe.com.ph/files/content/dam/globe/brie/AboutUs/newsroom/common/Corporate_Globe_Listing.jpg",
      "articleUrl": "https://www.globe.com.ph/about-us/newsroom/corporate/globe-lte-nears-95percent-nationwide-coverage.html",
      "columnType": "articles--type-3",
      "typeListing": "article",
      "imageMobile": "/sites/globe.com.ph/files/content/dam/globe/brie/AboutUs/newsroom/common/Corporate_Globe_Hero-Banner-Mobile.jpg",
      "imageDesktop": "/sites/globe.com.ph/files/content/dam/globe/brie/AboutUs/newsroom/common/Corporate_Globe_Primary-Desktop-Thumbnail.jpg",
      "description": "Globe LTE nears 95% nationwide coverage with 700 MHz and other new spectrum assets. Visit the Globe Newsroom for the latest news on Globe Telecom.",
      "datePosted": "Oct 31, 2018 | 02:47 PM",
      "titleFromTag": "Corporate"
    },
    {
      "title": "Globe Customers Donate Rewards Points to Typhoon Ompong Victims",
      "nonclickable": false,
      "openNewTab": false,
      "borderArticle": "border-color:#0074D9;",
      "borderTopArticle": "border-top-color:#0074D9;",
      "imageListing": "/sites/globe.com.ph/files/content/dam/globe/brie/About-us/Newsroom/image/Sustainability/globe-customers-donate-rewards-points-to-typhoon-ompong-victims/sustainability-customer-donates-rewards-thumbnail-listing.png",
      "articleUrl": "https://www.globe.com.ph/about-us/newsroom/sustainability/globe-customers-donate-rewards-points-to-typhoon-ompong-victims.html",
      "columnType": "articles--type-3",
      "typeListing": "article",
      "imageMobile": "/sites/globe.com.ph/files/content/dam/globe/brie/About-us/Newsroom/image/Sustainability/globe-customers-donate-rewards-points-to-typhoon-ompong-victims/sustainability-customer-donates-rewards-banner-m.png",
      "imageDesktop": "/sites/globe.com.ph/files/content/dam/globe/brie/About-us/Newsroom/image/Sustainability/globe-customers-donate-rewards-points-to-typhoon-ompong-victims/sustainability-customer-donates-rewards-primary-thumbnail.png",
      "description": "Globe customers donate rewards points to typhoon Ompong victims.Visit the Globe Newsroom for the latest news on Globe Telecom.",
      "datePosted": "Oct 30, 2018 | 01:44 PM",
      "titleFromTag": "Sustainability"
    },
    {
      "title": "Better and Faster Internet to Spur Growth of Esports in PH",
      "nonclickable": false,
      "openNewTab": false,
      "borderArticle": "border-color:#0074D9;",
      "borderTopArticle": "border-top-color:#0074D9;",
      "imageListing": "/sites/globe.com.ph/files/content/dam/globe/brie/AboutUs/newsroom/common/Corporate_Globe_Listing.jpg",
      "articleUrl": "https://www.globe.com.ph/about-us/newsroom/corporate/better-and-faster-internet-to-spur-growth-of-esports-in-PH.html",
      "columnType": "articles--type-3",
      "typeListing": "article",
      "imageMobile": "/sites/globe.com.ph/files/content/dam/globe/brie/AboutUs/newsroom/common/Corporate_Globe_Hero-Banner-Mobile.jpg",
      "imageDesktop": "/sites/globe.com.ph/files/content/dam/globe/brie/AboutUs/newsroom/common/Corporate_Globe_Primary-Desktop-Thumbnail.jpg",
      "description": "Better and faster internet to spur growth of Esports in PH. Visit the Globe Newsroom for the latest news on Globe Telecom.",
      "datePosted": "Oct 29, 2018 | 10:30 AM",
      "titleFromTag": "Corporate"
    },
    {
      "title": "iPhone Xs and Xs Max, Now Available in Globe Stores Nationwide!",
      "nonclickable": false,
      "openNewTab": false,
      "borderArticle": "border-color:#0074D9;",
      "borderTopArticle": "border-top-color:#0074D9;",
      "imageListing": "/sites/globe.com.ph/files/content/dam/globe/brie/AboutUs/newsroom/consumer/iphone-xs-now-available-in-globe-stores-nationwide/consumer-iphone-xs-thumbnail-listing.jpg",
      "articleUrl": "https://www.globe.com.ph/about-us/newsroom/consumer/iphone-xs-now-available-in-globe-stores-nationwide.html",
      "columnType": "articles--type-3",
      "typeListing": "article",
      "imageMobile": "/sites/globe.com.ph/files/content/dam/globe/brie/AboutUs/newsroom/consumer/iphone-xs-now-available-in-globe-stores-nationwide/consumer-iphone-xs-banner-m.jpg",
      "imageDesktop": "/sites/globe.com.ph/files/content/dam/globe/brie/AboutUs/newsroom/consumer/iphone-xs-now-available-in-globe-stores-nationwide/consumer-iphone-xs-primary-thumbnail.jpg",
      "description": "iPhone Xs and Xs Max, now available in Globe stores nationwide. Visit the Globe Newsroom for the latest news on Globe Telecom.",
      "datePosted": "Oct 29, 2018 | 10:30 AM",
      "titleFromTag": "Consumer"
    },
    {
      "title": "Telecom Volunteers Join Rise Against Hunger in Making History",
      "nonclickable": false,
      "openNewTab": false,
      "borderArticle": "border-color:#0074D9;",
      "borderTopArticle": "border-top-color:#0074D9;",
      "imageListing": "/sites/globe.com.ph/files/content/dam/globe/brie/About-us/Newsroom/image/Sustainability/10262018334/consumer-rise-against-hunger-thumbnail-listing.png",
      "articleUrl": "https://www.globe.com.ph/about-us/newsroom/sustainability/globe-volunteers-join-rise-against-hunger.html",
      "columnType": "articles--type-3",
      "typeListing": "article",
      "imageMobile": "/sites/globe.com.ph/files/content/dam/globe/brie/About-us/Newsroom/image/Sustainability/10262018334/consumer-rise-against-hunger-banner-m.png",
      "imageDesktop": "/sites/globe.com.ph/files/content/dam/globe/brie/About-us/Newsroom/image/Sustainability/10262018334/consumer-rise-against-hunger-primary-thumbnail.png",
      "description": "Globe Telecom Volunteers Join Rise Against Hunger in Making History. Visit the Globe Newsroom for the latest news on Globe Telecom.",
      "datePosted": "Oct 26, 2018 | 12:43 PM",
      "titleFromTag": "Sustainability"
    },
    {
      "title": "Globe Telecom, Wattpad Team Up for #makeITsafePH Cyber Wellness Campaign",
      "nonclickable": false,
      "openNewTab": false,
      "borderArticle": "border-color:#0074D9;",
      "borderTopArticle": "border-top-color:#0074D9;",
      "imageListing": "/sites/globe.com.ph/files/content/dam/globe/brie/AboutUs/newsroom/sustainability/globe-wattpad-for-makeITsafePH-campaign/sustainability-wattapad-makeitsafeph-campaign-thumbnail-listing.png",
      "articleUrl": "https://www.globe.com.ph/about-us/newsroom/sustainability/globe-wattpad-for-makeITsafePH-campaign.html",
      "columnType": "articles--type-3",
      "typeListing": "article",
      "imageMobile": "/sites/globe.com.ph/files/content/dam/globe/brie/AboutUs/newsroom/sustainability/globe-wattpad-for-makeITsafePH-campaign/sustainability-wattapad-makeitsafeph-campaign-banner-m.png",
      "imageDesktop": "/sites/globe.com.ph/files/content/dam/globe/brie/AboutUs/newsroom/sustainability/globe-wattpad-for-makeITsafePH-campaign/sustainability-wattapad-makeitsafeph-campaign-primary-thumbnail.png",
      "description": "Globe Telecom, Wattpad Team Up for #makeITsafePH Cyber Wellness Campaign. Visit the Globe Newsroom for the latest news on Globe Telecom.",
      "datePosted": "Oct 24, 2018 | 10:56 AM",
      "titleFromTag": "Sustainability"
    },
    {
      "title": "Globe myBusiness-Samsung Partnership to Protect Data and Boost Productivity of MSMEs",
      "nonclickable": false,
      "openNewTab": false,
      "borderArticle": "border-color:#0074D9;",
      "borderTopArticle": "border-top-color:#0074D9;",
      "imageListing": "/sites/globe.com.ph/files/content/dam/globe/brie/AboutUs/newsroom/business/globe-mybusiness-samsung-partnership/business-mybusiness-samsung-partnership-thumbnail-listing.png",
      "articleUrl": "https://www.globe.com.ph/about-us/newsroom/business/globe-mybusiness-samsung-partnership.html",
      "columnType": "articles--type-3",
      "typeListing": "article",
      "imageMobile": "/sites/globe.com.ph/files/content/dam/globe/brie/AboutUs/newsroom/business/globe-mybusiness-samsung-partnership/business-mybusiness-samsung-partnership-banner-m.png",
      "imageDesktop": "/sites/globe.com.ph/files/content/dam/globe/brie/AboutUs/newsroom/business/globe-mybusiness-samsung-partnership/business-mybusiness-samsung-partnership-primary-thumbnail.png",
      "description": "Globe myBusiness-Samsung partnership to protect data and boost the productivity of MSMEs. Visit the Globe Newsroom for the latest news on Globe Telecom.",
      "datePosted": "Oct 23, 2018 | 01:57 PM",
      "titleFromTag": "Business"
    },
    {
      "title": "Globe Telecom Extends Internet Reachability Further in Europe",
      "nonclickable": false,
      "openNewTab": false,
      "borderArticle": "border-color:#0074D9;",
      "borderTopArticle": "border-top-color:#0074D9;",
      "imageListing": "/sites/globe.com.ph/files/content/dam/globe/brie/AboutUs/newsroom/common/Corporate_Globe_Listing.jpg",
      "articleUrl": "https://www.globe.com.ph/about-us/newsroom/corporate/globe-telecom-extends-internet-reach.html",
      "columnType": "articles--type-3",
      "typeListing": "article",
      "imageMobile": "/sites/globe.com.ph/files/content/dam/globe/brie/AboutUs/newsroom/common/Corporate_Globe_Hero-Banner-Mobile.jpg",
      "imageDesktop": "/sites/globe.com.ph/files/content/dam/globe/brie/AboutUs/newsroom/common/Corporate_Globe_Primary-Desktop-Thumbnail.jpg",
      "description": "Globe Telecom Extends Internet Reachability Further in Europe. Visit the Globe Newsroom for the latest news on Globe Telecom.",
      "datePosted": "Oct 18, 2018 | 09:14 AM",
      "titleFromTag": "Corporate"
    },
    {
      "title": "Get Your Daily Dose of K-drama with Globe Postpaid and Viu",
      "nonclickable": false,
      "openNewTab": false,
      "borderArticle": "border-color:#0074D9;",
      "borderTopArticle": "border-top-color:#0074D9;",
      "imageListing": "/sites/globe.com.ph/files/content/dam/globe/brie/AboutUs/newsroom/consumer/kdrama-globe-postpaid-viu/consumer-daily-dose-kdrama-thumbnail-listing.png",
      "articleUrl": "https://www.globe.com.ph/about-us/newsroom/consumer/kdrama-globe-postpaid-viu.html",
      "columnType": "articles--type-3",
      "typeListing": "article",
      "imageMobile": "/sites/globe.com.ph/files/content/dam/globe/brie/AboutUs/newsroom/consumer/kdrama-globe-postpaid-viu/consumer-daily-dose-kdrama-banner-m.png",
      "imageDesktop": "/sites/globe.com.ph/files/content/dam/globe/brie/AboutUs/newsroom/consumer/kdrama-globe-postpaid-viu/consumer-daily-dose-kdrama-primary-thumbnail.png",
      "description": "Get your daily dose of K-drama with Globe Postpaid and Viu. Visit the Globe Newsroom for the latest news on Globe Telecom.",
      "datePosted": "Oct 17, 2018 | 11:21 AM",
      "titleFromTag": "Consumer"
    }
  ]
}
