{
  "status": 200,
  "page": 222,
  "totalPage": 298,
  "range": "2653-2664",
  "total": 3573,
  "result": [
    {
      "title": "Globe Business’ Leadership Innovation Forum to Boost Culture Transformation of Philippine Enterprises",
      "nonclickable": false,
      "openNewTab": false,
      "borderArticle": "border-color:#0074D9;",
      "borderTopArticle": "border-top-color:#0074D9;",
      "imageListing": "/sites/globe.com.ph/files/content/dam/globe/brie/AboutUs/newsroom/business/globe-business-leadership-innovation-forum2018/business-leadership-innovation-thumbnail-listing.png",
      "articleUrl": "https://www.globe.com.ph/about-us/newsroom/business/globe-business-leadership-innovation-forum2018.html",
      "columnType": "articles--type-3",
      "typeListing": "article",
      "imageMobile": "/sites/globe.com.ph/files/content/dam/globe/brie/AboutUs/newsroom/business/globe-business-leadership-innovation-forum2018/business-leadership-innovation-banner-m.png",
      "imageDesktop": "/sites/globe.com.ph/files/content/dam/globe/brie/AboutUs/newsroom/business/globe-business-leadership-innovation-forum2018/business-leadership-innovation-primary-thumbnail.png",
      "description": "Globe Business’ Leadership Innovation Forum to Boost Culture Transformation of Philippine Enterprises. Visit the Newsroom for the latest news on Globe Telecom.",
      "datePosted": "Oct 17, 2018 | 10:40 AM",
      "titleFromTag": "Business"
    },
    {
      "title": "Globe Telecom Bags Best Workplace in Asia Award for 2018",
      "nonclickable": false,
      "openNewTab": false,
      "borderArticle": "border-color:#0074D9;",
      "borderTopArticle": "border-top-color:#0074D9;",
      "imageListing": "/sites/globe.com.ph/files/content/dam/globe/brie/AboutUs/newsroom/common/Corporate_Globe_Listing.jpg",
      "articleUrl": "https://www.globe.com.ph/about-us/newsroom/corporate/globe-telecom-best-workplace-in-asia2018.html",
      "columnType": "articles--type-3",
      "typeListing": "article",
      "imageMobile": "/sites/globe.com.ph/files/content/dam/globe/brie/AboutUs/newsroom/common/Corporate_Globe_Hero-Banner-Mobile.jpg",
      "imageDesktop": "/sites/globe.com.ph/files/content/dam/globe/brie/AboutUs/newsroom/common/Corporate_Globe_Primary-Desktop-Thumbnail.jpg",
      "description": "Globe Telecom bags best workplace in Asia award for 2018. Visit the Globe Newsroom for the latest news on Globe Telecom.",
      "datePosted": "Oct 17, 2018 | 10:35 AM",
      "titleFromTag": "Corporate"
    },
    {
      "title": "Globe PH Volcanoes Shock Asia, Secure a Spot in Prestigious Hong Kong Sevens, World Series Qualifier in 2019",
      "nonclickable": false,
      "openNewTab": false,
      "borderArticle": "border-color:#0074D9;",
      "borderTopArticle": "border-top-color:#0074D9;",
      "imageListing": "/sites/globe.com.ph/files/content/dam/globe/brie/AboutUs/newsroom/corporate/globe-ph-volcanoes-shock-asia/corporate-volcanoes-shock-asia-thumbnail-listing.png",
      "articleUrl": "https://www.globe.com.ph/about-us/newsroom/corporate/globe-ph-volcanoes-shock-asia.html",
      "columnType": "articles--type-3",
      "typeListing": "article",
      "imageMobile": "/sites/globe.com.ph/files/content/dam/globe/brie/AboutUs/newsroom/corporate/globe-ph-volcanoes-shock-asia/corporate-volcanoes-shock-asia-banner-m.png",
      "imageDesktop": "/sites/globe.com.ph/files/content/dam/globe/brie/AboutUs/newsroom/corporate/globe-ph-volcanoes-shock-asia/corporate-volcanoes-shock-asia-primary-thumbnail.png",
      "description": "Globe PH Volcanoes Shock Asia, Secure a Spot in Prestigious Hong Kong Sevens, World Series Qualifier in 2019. Visit the Globe Newsroom for the latest news",
      "datePosted": "Oct 16, 2018 | 02:00 PM",
      "titleFromTag": "Corporate"
    },
    {
      "title": "AVIA announces new members",
      "nonclickable": false,
      "openNewTab": false,
      "borderArticle": "border-color:#0074D9;",
      "borderTopArticle": "border-top-color:#0074D9;",
      "imageListing": "/sites/globe.com.ph/files/content/dam/globe/brie/AboutUs/newsroom/common/Corporate_Globe_Listing.jpg",
      "articleUrl": "https://www.globe.com.ph/about-us/newsroom/sustainability/avia-announces-new-members.html",
      "columnType": "articles--type-3",
      "typeListing": "article",
      "imageMobile": "/sites/globe.com.ph/files/content/dam/globe/brie/AboutUs/newsroom/common/Corporate_Globe_Hero-Banner-Mobile.jpg",
      "imageDesktop": "/sites/globe.com.ph/files/content/dam/globe/brie/AboutUs/newsroom/common/Corporate_Globe_Primary-Desktop-Thumbnail.jpg",
      "description": "AVIA announces new members. Visit the Globe Newsroom for the latest news on Globe Telecom.",
      "datePosted": "Oct 16, 2018 | 01:46 PM",
      "titleFromTag": "Sustainability"
    },
    {
      "title": "Team Up League of Legends 101",
      "nonclickable": false,
      "openNewTab": false,
      "borderArticle": "border-color:#0074D9;",
      "borderTopArticle": "border-top-color:#0074D9;",
      "imageListing": "/sites/globe.com.ph/files/content/dam/globe/brie/AboutUs/newsroom/consumer/league-of-legends101/consumer-lol-awarding-thumbnail-listing.jpg",
      "articleUrl": "https://www.globe.com.ph/about-us/newsroom/consumer/league-of-legends101.html",
      "columnType": "articles--type-3",
      "typeListing": "article",
      "imageMobile": "/sites/globe.com.ph/files/content/dam/globe/brie/AboutUs/newsroom/consumer/league-of-legends101/consumer-lol-awarding-banner-m.jpg",
      "imageDesktop": "/sites/globe.com.ph/files/content/dam/globe/brie/AboutUs/newsroom/consumer/league-of-legends101/consumer-lol-awarding-primary-thumbnail.jpg",
      "description": "Team Up League of Legends 101. Visit the Globe Newsroom for the latest news on Globe Telecom.",
      "datePosted": "Oct 15, 2018 | 04:22 PM",
      "titleFromTag": "Consumer"
    },
    {
      "title": "Globe Online Beauty Fair extended October 18",
      "nonclickable": false,
      "openNewTab": false,
      "borderArticle": "border-color:#0074D9;",
      "borderTopArticle": "border-top-color:#0074D9;",
      "imageListing": "/sites/globe.com.ph/files/content/dam/globe/brie/AboutUs/newsroom/consumer/globe-online-beauty-fair-extended-october18/consumer-beauty-fair-extended-thumbnail-listing_v2.jpg",
      "articleUrl": "https://www.globe.com.ph/about-us/newsroom/consumer/globe-online-beauty-fair-extended-october18.html",
      "columnType": "articles--type-3",
      "typeListing": "article",
      "imageMobile": "/sites/globe.com.ph/files/content/dam/globe/brie/AboutUs/newsroom/consumer/globe-online-beauty-fair-extended-october18/consumer-beauty-fair-extended-banner-m_v2.jpg",
      "imageDesktop": "/sites/globe.com.ph/files/content/dam/globe/brie/AboutUs/newsroom/consumer/globe-online-beauty-fair-extended-october18/consumer-beauty-fair-extended-primary-thumbnail_v2.jpg",
      "description": "Globe Online Beauty Fair extended until October 18. Visit the Globe Newsroom for the latest news on Globe Telecom.",
      "datePosted": "Oct 15, 2018 | 12:15 PM",
      "titleFromTag": "Consumer"
    },
    {
      "title": "Globe Telecom, KonsultaMD launch Hope Bank",
      "nonclickable": false,
      "openNewTab": false,
      "borderArticle": "border-color:#0074D9;",
      "borderTopArticle": "border-top-color:#0074D9;",
      "imageListing": "/sites/globe.com.ph/files/content/dam/globe/brie/AboutUs/newsroom/consumer/Globe-telecom-konsultamd-launch-hope-bank/consumer-konsultamd-hope-bank-thumbnail-listing.jpg",
      "articleUrl": "https://www.globe.com.ph/about-us/newsroom/consumer/globe-telecom-konsultamd-launch-hope-bank.html",
      "columnType": "articles--type-3",
      "typeListing": "article",
      "imageMobile": "/sites/globe.com.ph/files/content/dam/globe/brie/AboutUs/newsroom/consumer/Globe-telecom-konsultamd-launch-hope-bank/consumer-konsultamd-hope-bank-banner-m.jpg",
      "imageDesktop": "/sites/globe.com.ph/files/content/dam/globe/brie/AboutUs/newsroom/consumer/Globe-telecom-konsultamd-launch-hope-bank/consumer-konsultamd-hope-bank-primary-thumbnail.jpg",
      "description": "Globe Telecom, KonsultaMD launch Hope Bank for people needing mental health support. Visit the Globe Newsroom for the latest news on Globe Telecom.",
      "datePosted": "Oct 12, 2018 | 05:55 PM",
      "titleFromTag": "Consumer"
    },
    {
      "title": "Globe Telecom to offer iPhone XS and iPhone XS Max",
      "nonclickable": false,
      "openNewTab": false,
      "borderArticle": "border-color:#0074D9;",
      "borderTopArticle": "border-top-color:#0074D9;",
      "imageListing": "/sites/globe.com.ph/files/content/dam/globe/brie/AboutUs/newsroom/consumer/consumer-globe-telecom-to-offer-the-iphone-xs-and-xs-max-this-october/consumer-iphonexs-xsmax-october-thumbnail-listing.jpg",
      "articleUrl": "https://www.globe.com.ph/about-us/newsroom/consumer/globe-telecom-to-offer-iphone-xs-and-xs-max.html",
      "columnType": "articles--type-3",
      "typeListing": "article",
      "imageMobile": "/sites/globe.com.ph/files/content/dam/globe/brie/AboutUs/newsroom/consumer/consumer-globe-telecom-to-offer-the-iphone-xs-and-xs-max-this-october/consumer-iphonexs-xsmax-october-banner-m.jpg",
      "imageDesktop": "/sites/globe.com.ph/files/content/dam/globe/brie/AboutUs/newsroom/consumer/consumer-globe-telecom-to-offer-the-iphone-xs-and-xs-max-this-october/consumer-iphonexs-xsmax-october-primary-thumbnail.jpg",
      "description": "Globe Telecom to offer iPhone Xs and Xs Max this October. Visit the Globe Newsroom for the latest news on Globe Telecom.",
      "datePosted": "Oct 12, 2018 | 10:23 AM",
      "titleFromTag": "Consumer"
    },
    {
      "title": "Common Tower Policy Better for the Country",
      "nonclickable": false,
      "openNewTab": false,
      "borderArticle": "border-color:#0074D9;",
      "borderTopArticle": "border-top-color:#0074D9;",
      "imageListing": "/sites/globe.com.ph/files/content/dam/globe/brie/AboutUs/newsroom/common/Corporate_Globe_Listing.jpg",
      "articleUrl": "https://www.globe.com.ph/about-us/newsroom/corporate/common-tower-policy-better-for-country.html",
      "columnType": "articles--type-3",
      "typeListing": "article",
      "imageMobile": "/sites/globe.com.ph/files/content/dam/globe/brie/AboutUs/newsroom/common/Corporate_Globe_Hero-Banner-Mobile.jpg",
      "imageDesktop": "/sites/globe.com.ph/files/content/dam/globe/brie/AboutUs/newsroom/common/Corporate_Globe_Primary-Desktop-Thumbnail.jpg",
      "description": "Globally, common tower policy means more tower companies is better for the country. Visit the Globe Newsroom for the latest news on Globe Telecom.",
      "datePosted": "Oct 12, 2018 | 09:38 AM",
      "titleFromTag": "Corporate"
    },
    {
      "title": "Globe Telecom Wins Gold Stevie Award for Employer of the Year",
      "nonclickable": false,
      "openNewTab": false,
      "borderArticle": "border-color:#0074D9;",
      "borderTopArticle": "border-top-color:#0074D9;",
      "imageListing": "/sites/globe.com.ph/files/content/dam/globe/brie/About-us/Newsroom/image/Corporate/10102018435PM/corp-globe-stevie-awards-thumbnail-listing.gif",
      "articleUrl": "https://www.globe.com.ph/about-us/newsroom/corporate/globe-telecom-wins-gold-stevie.html",
      "columnType": "articles--type-3",
      "typeListing": "article",
      "imageMobile": "/sites/globe.com.ph/files/content/dam/globe/brie/About-us/Newsroom/image/Corporate/10102018435PM/corp-globe-stevie-awards-banner-m.gif",
      "imageDesktop": "/sites/globe.com.ph/files/content/dam/globe/brie/About-us/Newsroom/image/Corporate/10102018435PM/corp-globe-stevie-awards-primary-thumbnail.gif",
      "description": "Globe Telecom wins Gold Stevie Award for Employer of the Year. Visit the Globe Newsroom for the latest news on Globe Telecom.",
      "datePosted": "Oct 10, 2018 | 02:54 PM",
      "titleFromTag": "Corporate"
    },
    {
      "title": "5 Swoon-worthy Korean Actors To Watch Out For",
      "nonclickable": false,
      "openNewTab": false,
      "borderArticle": "border-color:#0074D9;",
      "borderTopArticle": "border-top-color:#0074D9;",
      "imageListing": "/sites/globe.com.ph/files/content/dam/globe/brie/About-us/Newsroom/image/Consumer/10102018611PM/cons-free-viu-thumbnail-listing.jpg",
      "articleUrl": "https://www.globe.com.ph/about-us/newsroom/consumer/five-korean-actors-to-watch.html",
      "columnType": "articles--type-3",
      "typeListing": "article",
      "imageMobile": "/sites/globe.com.ph/files/content/dam/globe/brie/About-us/Newsroom/image/Consumer/10102018611PM/cons-free-viu-banner-m.jpg",
      "imageDesktop": "/sites/globe.com.ph/files/content/dam/globe/brie/About-us/Newsroom/image/Consumer/10102018611PM/cons-free-viu-primary-thumbnail.jpg",
      "description": "Five Swoon-worthy Korean actors to watch out for. Visit the Globe Newsroom for the latest news on Globe Telecom.",
      "datePosted": "Oct 10, 2018 | 02:00 PM",
      "titleFromTag": "Consumer"
    },
    {
      "title": "Globe myBusiness Partners with ACPI to Bring More Filipino animators to Global Stage",
      "nonclickable": false,
      "openNewTab": false,
      "borderArticle": "border-color:#0074D9;",
      "borderTopArticle": "border-top-color:#0074D9;",
      "imageListing": "/sites/globe.com.ph/files/content/dam/globe/brie/AboutUs/newsroom/business/globe-mybusiness-partners-with-acpi/business-mybusiness-partners-acpi--thumbnail-listing.jpg",
      "articleUrl": "https://www.globe.com.ph/about-us/newsroom/business/globe-mybusiness-partners-with-acpi.html",
      "columnType": "articles--type-3",
      "typeListing": "article",
      "imageMobile": "/sites/globe.com.ph/files/content/dam/globe/brie/AboutUs/newsroom/business/globe-mybusiness-partners-with-acpi/business-mybusiness-partners-acpi--banner-m.jpg",
      "imageDesktop": "/sites/globe.com.ph/files/content/dam/globe/brie/AboutUs/newsroom/business/globe-mybusiness-partners-with-acpi/business-mybusiness-partners-acpi--primary-thumbnail.jpg",
      "description": "Globe myBusiness partners with ACPI to bring more Filipino animators to global stage. Visit the Globe Newsroom for the latest news on Globe Telecom.",
      "datePosted": "Oct 09, 2018 | 10:19 AM",
      "titleFromTag": "Business"
    }
  ]
}
