{
  "status": 200,
  "page": 223,
  "totalPage": 298,
  "range": "2665-2676",
  "total": 3573,
  "result": [
    {
      "title": "Globe, Disney Wrap Up Time Please with 22.1 Million Volunteering Hours",
      "nonclickable": false,
      "openNewTab": false,
      "borderArticle": "border-color:#0074D9;",
      "borderTopArticle": "border-top-color:#0074D9;",
      "imageListing": "/sites/globe.com.ph/files/content/dam/globe/brie/AboutUs/newsroom/sustainability/globe-disney-wrap-up-time-please/consumer-disney-time-please-thumbnail-listing.jpg",
      "articleUrl": "https://www.globe.com.ph/about-us/newsroom/sustainability/globe-disney-wrap-up-time-please.html",
      "columnType": "articles--type-3",
      "typeListing": "article",
      "imageMobile": "/sites/globe.com.ph/files/content/dam/globe/brie/AboutUs/newsroom/sustainability/globe-disney-wrap-up-time-please/consumer-disney-time-please-banner-m.jpg",
      "imageDesktop": "/sites/globe.com.ph/files/content/dam/globe/brie/AboutUs/newsroom/sustainability/globe-disney-wrap-up-time-please/consumer-disney-time-please-primary-thumbnail.jpg",
      "description": "Globe, Disney Wrap Up Time Please with 22.1 Million Volunteering Hours. Visit the Globe Newsroom for the latest news on Globe Telecom.",
      "datePosted": "Oct 08, 2018 | 01:14 PM",
      "titleFromTag": "Sustainability"
    },
    {
      "title": "Globe, MMDA Sign Agreement to Improve Mobile Experience along Metro Manila’s Major Roads",
      "nonclickable": false,
      "openNewTab": false,
      "borderArticle": "border-color:#0074D9;",
      "borderTopArticle": "border-top-color:#0074D9;",
      "imageListing": "/sites/globe.com.ph/files/content/dam/globe/brie/About-us/Newsroom/image/Corporate/10082018245PM/corp-mmda-mobile-experience-thumbnail-listing.jpg",
      "articleUrl": "https://www.globe.com.ph/about-us/newsroom/corporate/globe-mmda-sign-agreement.html",
      "columnType": "articles--type-3",
      "typeListing": "article",
      "imageMobile": "/sites/globe.com.ph/files/content/dam/globe/brie/About-us/Newsroom/image/Corporate/10082018245PM/corporate-mmda-mobile-experience-banner-m.jpg",
      "imageDesktop": "/sites/globe.com.ph/files/content/dam/globe/brie/About-us/Newsroom/image/Corporate/10082018245PM/corp-mmda-mobile-experience-primary-thumbnail.jpg",
      "description": "Globe, MMDA sign agreement to improve mobile experience along Metro Manila’s major roads. Visit the Globe Newsroom for the latest news on Globe Telecom.",
      "datePosted": "Oct 08, 2018 | 12:49 PM",
      "titleFromTag": "Corporate"
    },
    {
      "title": "Watch Disney Movies and Kilig K-Dramas All You Want",
      "nonclickable": false,
      "openNewTab": false,
      "borderArticle": "border-color:#0074D9;",
      "borderTopArticle": "border-top-color:#0074D9;",
      "imageListing": "/sites/globe.com.ph/files/content/dam/globe/brie/About-us/Newsroom/image/Consumer/10082018-137PM/cons-disneylife-viu-premium-thumbnail-listing.jpg",
      "articleUrl": "https://www.globe.com.ph/about-us/newsroom/consumer/globe-at-home-prepaid-wifi.html",
      "columnType": "articles--type-3",
      "typeListing": "article",
      "imageMobile": "/sites/globe.com.ph/files/content/dam/globe/brie/About-us/Newsroom/image/Consumer/10082018-137PM/cons-disneylife-viu-premium-banner-m.jpg",
      "imageDesktop": "/sites/globe.com.ph/files/content/dam/globe/brie/About-us/Newsroom/image/Consumer/10082018-137PM/cons-disneylife-viu-premium-primary-thumbnail.jpg",
      "description": "Globe At Home Prepaid WiFi customers can redeem their free subscriptions to DisneyLife and Viu Premium via the Globe At Home App. Learn more here.",
      "datePosted": "Oct 05, 2018 | 05:33 PM",
      "titleFromTag": "Consumer"
    },
    {
      "title": "Globe Business, GDAP Upskill Teachers through Weekend Game Development Activity",
      "nonclickable": false,
      "openNewTab": false,
      "borderArticle": "border-color:#0074D9;",
      "borderTopArticle": "border-top-color:#0074D9;",
      "imageListing": "/sites/globe.com.ph/files/content/dam/globe/brie/About-us/Newsroom/image/Business/10082018-115PM/bus-gdap-upskill-teachers-thumbnail-listing.gif",
      "articleUrl": "https://www.globe.com.ph/about-us/newsroom/business/globe-mybusiness-gdap-upskill-teachers.html",
      "columnType": "articles--type-3",
      "typeListing": "article",
      "imageMobile": "/sites/globe.com.ph/files/content/dam/globe/brie/About-us/Newsroom/image/Business/10082018-115PM/business-gdap-upskill-teachers-banner-m.gif",
      "imageDesktop": "/sites/globe.com.ph/files/content/dam/globe/brie/About-us/Newsroom/image/Business/10082018-115PM/bus-gdap-upskill-teachers-primary-thumbnail.gif",
      "description": "Globe Business, GDAP Upskill Teachers through Weekend Game Development Activity. Visit the Globe Newsroom for the latest news on Globe Telecom.",
      "datePosted": "Oct 05, 2018 | 05:32 PM",
      "titleFromTag": "Business"
    },
    {
      "title": "Underprivileged Filipino Kids Join Int’l Football Training programs via TM Sports Para sa Bayan",
      "nonclickable": false,
      "openNewTab": false,
      "borderArticle": "border-color:#0074D9;",
      "borderTopArticle": "border-top-color:#0074D9;",
      "imageListing": "/sites/globe.com.ph/files/content/dam/globe/brie/AboutUs/newsroom/sustainability/sustainability-underprivileged-filipino-kids-join-intl-football-training-programs-via-tm-sports-para-sa-bayan/SUSTAI~4.JPG",
      "articleUrl": "https://www.globe.com.ph/about-us/newsroom/sustainability/filipino-kids-join-football-training.html",
      "columnType": "articles--type-3",
      "typeListing": "article",
      "imageMobile": "/sites/globe.com.ph/files/content/dam/globe/brie/AboutUs/newsroom/sustainability/sustainability-underprivileged-filipino-kids-join-intl-football-training-programs-via-tm-sports-para-sa-bayan/sustainability-kids-football-tm-banner-m.jpg",
      "imageDesktop": "/sites/globe.com.ph/files/content/dam/globe/brie/AboutUs/newsroom/sustainability/sustainability-underprivileged-filipino-kids-join-intl-football-training-programs-via-tm-sports-para-sa-bayan/SUSTAI~3.JPG",
      "description": "Underprivileged Filipino kids join International Football Training programs via TM Sports Para sa Bayan. Visit the Globe Newsroom for more.",
      "datePosted": "Oct 01, 2018 | 03:21 PM",
      "titleFromTag": "Sustainability"
    },
    {
      "title": "Globe: PH Needs More Than Two Tower Companies to Catch Up",
      "nonclickable": false,
      "openNewTab": false,
      "borderArticle": "border-color:#0074D9;",
      "borderTopArticle": "border-top-color:#0074D9;",
      "imageListing": "/sites/globe.com.ph/files/content/dam/globe/brie/AboutUs/newsroom/common/Corporate_Globe_Listing.jpg",
      "articleUrl": "https://www.globe.com.ph/about-us/newsroom/corporate/globe-says-ph-needs-more.html",
      "columnType": "articles--type-3",
      "typeListing": "article",
      "imageMobile": "/sites/globe.com.ph/files/content/dam/globe/brie/AboutUs/newsroom/common/Corporate_Globe_Hero-Banner-Mobile.jpg",
      "imageDesktop": "/sites/globe.com.ph/files/content/dam/globe/brie/AboutUs/newsroom/common/Corporate_Globe_Primary-Desktop-Thumbnail.jpg",
      "description": "Globe says PH needs more than two tower companies to catch up. Visit the Globe Newsroom for the latest news on Globe Telecom.",
      "datePosted": "Sep 29, 2018 | 12:49 PM",
      "titleFromTag": "Corporate"
    },
    {
      "title": "Globe Telecom Collaborates with DepEd, Metrobank Foundation in Celebrating National Teachers’ Month",
      "nonclickable": false,
      "openNewTab": false,
      "borderArticle": "border-color:#0074D9;",
      "borderTopArticle": "border-top-color:#0074D9;",
      "imageListing": "/sites/globe.com.ph/files/content/dam/globe/brie/AboutUs/newsroom/sustainability/globe-telecom-collaborates-with-deped-metrobank-foundation-in-celebrating-national-teachers-month/corporate-deped-metrobank-foundation-thumbnail-listing.jpg",
      "articleUrl": "https://www.globe.com.ph/about-us/newsroom/sustainability/globe-telecom-collaborates-with-deped.html",
      "columnType": "articles--type-3",
      "typeListing": "article",
      "imageMobile": "/sites/globe.com.ph/files/content/dam/globe/brie/AboutUs/newsroom/sustainability/globe-telecom-collaborates-with-deped-metrobank-foundation-in-celebrating-national-teachers-month/corporate-deped-metrobank-foundation-banner-m.jpg",
      "imageDesktop": "/sites/globe.com.ph/files/content/dam/globe/brie/AboutUs/newsroom/sustainability/globe-telecom-collaborates-with-deped-metrobank-foundation-in-celebrating-national-teachers-month/corporate-deped-metrobank-foundation-primary-thumbnail.jpg",
      "description": "Globe Telecom Collaborates with DepEd, Metrobank Foundation in Celebrating National Teachers’ Month. Visit the Newsroom for the latest news on Globe Telecom.",
      "datePosted": "Sep 28, 2018 | 03:12 PM",
      "titleFromTag": "Sustainability"
    },
    {
      "title": "Globe Business Commits to Support Emerging Industries in PH",
      "nonclickable": false,
      "openNewTab": false,
      "borderArticle": "border-color:#0074D9;",
      "borderTopArticle": "border-top-color:#0074D9;",
      "imageListing": "/sites/globe.com.ph/files/content/dam/globe/brie/AboutUs/newsroom/business/globe-mybusiness-commits-to-support-emerging-industries-in-ph/business-support-emerging-industries-thumbnail-listing.jpg",
      "articleUrl": "https://www.globe.com.ph/about-us/newsroom/business/globe-mybusiness-commits-to-support.html",
      "columnType": "articles--type-3",
      "typeListing": "article",
      "imageMobile": "/sites/globe.com.ph/files/content/dam/globe/brie/AboutUs/newsroom/business/globe-mybusiness-commits-to-support-emerging-industries-in-ph/business-support-emerging-industries-banner-m.jpg",
      "imageDesktop": "/sites/globe.com.ph/files/content/dam/globe/brie/AboutUs/newsroom/business/globe-mybusiness-commits-to-support-emerging-industries-in-ph/business-support-emerging-industries-primary-thumbnail.jpg",
      "description": "Globe Business commits to support emerging industries in PH. Visit the Globe Newsroom for the latest news on Globe Telecom.",
      "datePosted": "Sep 28, 2018 | 03:12 PM",
      "titleFromTag": "Business"
    },
    {
      "title": "Globe Telecom, Boy Scouts Join Forces to Clean Up Metro Manila's Key Coastal Areas",
      "nonclickable": false,
      "openNewTab": false,
      "borderArticle": "border-color:#0074D9;",
      "borderTopArticle": "border-top-color:#0074D9;",
      "imageListing": "/sites/globe.com.ph/files/content/dam/globe/brie/AboutUs/newsroom/common/Corporate_Globe_Listing.jpg",
      "articleUrl": "https://www.globe.com.ph/about-us/newsroom/sustainability/globe-telecom-boy-scouts-join.html",
      "columnType": "articles--type-3",
      "typeListing": "article",
      "imageMobile": "/sites/globe.com.ph/files/content/dam/globe/brie/AboutUs/newsroom/common/Corporate_Globe_Hero-Banner-Mobile.jpg",
      "imageDesktop": "/sites/globe.com.ph/files/content/dam/globe/brie/AboutUs/newsroom/common/Corporate_Globe_Primary-Desktop-Thumbnail.jpg",
      "description": "Globe Telecom, Boy Scouts Join Forces to Clean Up Metro Manila&#39;s Key Coastal Areas. Visit the Globe Newsroom for the latest news on Globe Telecom.",
      "datePosted": "Sep 21, 2018 | 03:33 PM",
      "titleFromTag": "Sustainability"
    },
    {
      "title": "Secure Surfing and Year-round Entertainment for Your Home",
      "nonclickable": false,
      "openNewTab": false,
      "borderArticle": "border-color:#0074D9;",
      "borderTopArticle": "border-top-color:#0074D9;",
      "imageListing": "/sites/globe.com.ph/files/content/dam/globe/brie/AboutUs/newsroom/consumer/consumer-secure-surfing-and-year-round-entertainment-for-your-home/consumer-secure-surfing-home-thumbnail-listing.png",
      "articleUrl": "https://www.globe.com.ph/about-us/newsroom/consumer/secure-surfing-and-year-round.html",
      "columnType": "articles--type-3",
      "typeListing": "article",
      "imageMobile": "/sites/globe.com.ph/files/content/dam/globe/brie/AboutUs/newsroom/consumer/consumer-secure-surfing-and-year-round-entertainment-for-your-home/consumer-secure-surfing-home-banner-m.png",
      "imageDesktop": "/sites/globe.com.ph/files/content/dam/globe/brie/AboutUs/newsroom/consumer/consumer-secure-surfing-and-year-round-entertainment-for-your-home/consumer-secure-surfing-home-primary-thumbnail.png",
      "description": "Secure Surfing and Year-round Entertainment for Your Home. Visit the Globe Newsroom for the latest news on Globe Telecom.",
      "datePosted": "Sep 21, 2018 | 03:14 PM",
      "titleFromTag": "Consumer"
    },
    {
      "title": "Globe SD-WAN Now 4G-LTE Ready",
      "nonclickable": false,
      "openNewTab": false,
      "borderArticle": "border-color:#0074D9;",
      "borderTopArticle": "border-top-color:#0074D9;",
      "imageListing": "/sites/globe.com.ph/files/content/dam/globe/brie/AboutUs/newsroom/business/globe-sd-wan-is-now-4g-lte-ready/corporate-sdwan-4glte-ready--thumbnail-listing.png",
      "articleUrl": "https://www.globe.com.ph/about-us/newsroom/business/globe-sd-wan-now-4g.html",
      "columnType": "articles--type-3",
      "typeListing": "article",
      "imageMobile": "/sites/globe.com.ph/files/content/dam/globe/brie/AboutUs/newsroom/business/globe-sd-wan-is-now-4g-lte-ready/corporate-sdwan-4glte-ready--banner-m.png",
      "imageDesktop": "/sites/globe.com.ph/files/content/dam/globe/brie/AboutUs/newsroom/business/globe-sd-wan-is-now-4g-lte-ready/corporate-sdwan-4glte-ready--primary-thumbnail.png",
      "description": "Globe SD-WAN is now 4G-LTE ready. Visit the Globe Newsroom for the latest news on Globe Telecom.",
      "datePosted": "Sep 19, 2018 | 11:04 AM",
      "titleFromTag": "Business"
    },
    {
      "title": "Media Advisory: Globe Telecom Restores Network in Worst-Hit Baggao Town in Cagayan",
      "nonclickable": false,
      "openNewTab": false,
      "borderArticle": "border-color:#0074D9;",
      "borderTopArticle": "border-top-color:#0074D9;",
      "imageListing": "/sites/globe.com.ph/files/content/dam/globe/brie/AboutUs/newsroom/common/Corporate_Globe_Listing.jpg",
      "articleUrl": "https://www.globe.com.ph/about-us/newsroom/corporate/media-advisory-globe-network-restoration-baggao-cagayan.html",
      "columnType": "articles--type-3",
      "typeListing": "article",
      "imageMobile": "/sites/globe.com.ph/files/content/dam/globe/brie/AboutUs/newsroom/common/Corporate_Globe_Hero-Banner-Mobile.jpg",
      "imageDesktop": "/sites/globe.com.ph/files/content/dam/globe/brie/AboutUs/newsroom/common/Corporate_Globe_Primary-Desktop-Thumbnail.jpg",
      "description": "Typhoon Ompong Update: Globe Telecom restores network in worst-hit Baggao town in Cagayan. Visit the Globe Newsroom for the latest news on Globe Telecom.",
      "datePosted": "Sep 18, 2018 | 09:28 AM",
      "titleFromTag": "Corporate"
    }
  ]
}
