{
  "status": 200,
  "page": 224,
  "totalPage": 298,
  "range": "2677-2688",
  "total": 3573,
  "result": [
    {
      "title": "Be on The Next Move with the Newest Collection from 0917 Lifestyle!",
      "nonclickable": false,
      "openNewTab": false,
      "borderArticle": "border-color:#0074D9;",
      "borderTopArticle": "border-top-color:#0074D9;",
      "imageListing": "/sites/globe.com.ph/files/content/dam/globe/brie/AboutUs/newsroom/common/Corporate_Globe_Listing.jpg",
      "articleUrl": "https://www.globe.com.ph/about-us/newsroom/consumer/be-on-the-next-move.html",
      "columnType": "articles--type-3",
      "typeListing": "article",
      "imageMobile": "/sites/globe.com.ph/files/content/dam/globe/brie/AboutUs/newsroom/common/Corporate_Globe_Hero-Banner-Mobile.jpg",
      "imageDesktop": "/sites/globe.com.ph/files/content/dam/globe/brie/AboutUs/newsroom/common/Corporate_Globe_Primary-Desktop-Thumbnail.jpg",
      "description": "Be on The Next Move with the Newest Collection from 0917 Lifestyle!. Visit the Globe Newsroom for the latest news on Globe Telecom.",
      "datePosted": "Sep 17, 2018 | 02:38 PM",
      "titleFromTag": "Consumer"
    },
    {
      "title": "Teleperformance, Globe Business Launch First Toll-Free Recruitment Hotline",
      "nonclickable": false,
      "openNewTab": false,
      "borderArticle": "border-color:#0074D9;",
      "borderTopArticle": "border-top-color:#0074D9;",
      "imageListing": "/sites/globe.com.ph/files/content/dam/globe/brie/AboutUs/newsroom/business/business-teleperformance-globe-business-launch-first-toll-free-recruitment-hotline/business-teleporformance-toll-free-thumbnail-listing.jpg",
      "articleUrl": "https://www.globe.com.ph/about-us/newsroom/business/teleperformance-globe-business-launch-first.html",
      "columnType": "articles--type-3",
      "typeListing": "article",
      "imageMobile": "/sites/globe.com.ph/files/content/dam/globe/brie/AboutUs/newsroom/business/business-teleperformance-globe-business-launch-first-toll-free-recruitment-hotline/business-teleporformance-toll-free-banner-m.jpg",
      "imageDesktop": "/sites/globe.com.ph/files/content/dam/globe/brie/AboutUs/newsroom/business/business-teleperformance-globe-business-launch-first-toll-free-recruitment-hotline/business-teleporformance-toll-free-primary-thumbnail.jpg",
      "description": "Teleperformance, Globe Business launch first toll-free recruitment hotline. Visit the Globe Newsroom for the latest news on Globe Telecom.",
      "datePosted": "Sep 17, 2018 | 02:19 PM",
      "titleFromTag": "Business"
    },
    {
      "title": "#IbaKaTeacher: Globe Telecom Pays Tribute to Teachers Across PH",
      "nonclickable": false,
      "openNewTab": false,
      "borderArticle": "border-color:#0074D9;",
      "borderTopArticle": "border-top-color:#0074D9;",
      "imageListing": "/sites/globe.com.ph/files/content/dam/globe/brie/AboutUs/newsroom/sustainability/sustainability-ibakateacher-globe-telecom-pays-tribute-to-teachers-across-ph/sustainability-pays-tribute-teachers-thumbnail-listing_v2.jpg",
      "articleUrl": "https://www.globe.com.ph/about-us/newsroom/sustainability/iba-ka-teacher-globe-telecom.html",
      "columnType": "articles--type-3",
      "typeListing": "article",
      "imageMobile": "/sites/globe.com.ph/files/content/dam/globe/brie/AboutUs/newsroom/sustainability/sustainability-ibakateacher-globe-telecom-pays-tribute-to-teachers-across-ph/sustainability-pays-tribute-teachers-banner-m_v2.jpg",
      "imageDesktop": "/sites/globe.com.ph/files/content/dam/globe/brie/AboutUs/newsroom/sustainability/sustainability-ibakateacher-globe-telecom-pays-tribute-to-teachers-across-ph/sustainability-pays-tribute-teachers-primary-thumbnail_v2.jpg",
      "description": "#IbaKaTeacher: Globe Telecom Pays Tribute to Teachers Across PH. Visit the Globe Newsroom for the latest news on Globe Telecom.",
      "datePosted": "Sep 17, 2018 | 02:18 PM",
      "titleFromTag": "Sustainability"
    },
    {
      "title": "Globe Telecom Sets Up Rewards Points Donation Channel for Typhoon Ompong Victims",
      "nonclickable": false,
      "openNewTab": false,
      "borderArticle": "border-color:#0074D9;",
      "borderTopArticle": "border-top-color:#0074D9;",
      "imageListing": "/sites/globe.com.ph/files/content/dam/globe/brie/AboutUs/newsroom/sustainability/globe_telecom_sets_up_rewards_points_donation_channel_for_typhoon_ompong_victims/sustainability-rewards-donation-typhoon-thumbnail-listing.jpg",
      "articleUrl": "https://www.globe.com.ph/about-us/newsroom/sustainability/globe-telecom-sets-up-rewards.html",
      "columnType": "articles--type-3",
      "typeListing": "article",
      "imageMobile": "/sites/globe.com.ph/files/content/dam/globe/brie/AboutUs/newsroom/sustainability/globe_telecom_sets_up_rewards_points_donation_channel_for_typhoon_ompong_victims/sustainability-rewards-donation-typhoon-banner-m.jpg",
      "imageDesktop": "/sites/globe.com.ph/files/content/dam/globe/brie/AboutUs/newsroom/sustainability/globe_telecom_sets_up_rewards_points_donation_channel_for_typhoon_ompong_victims/sustainability-rewards-donation-typhoon-primary-thumbnail.jpg",
      "description": "Globe Telecom sets up Rewards points donation channel for Typhoon Ompong victims. Visit the Globe Newsroom for the latest news on Globe Telecom.",
      "datePosted": "Sep 17, 2018 | 01:39 PM",
      "titleFromTag": "Sustainability"
    },
    {
      "title": "Media Advisory: Globe Restores Network in Typhoon-Affected Localities in Cagayan, Apayao, Ilocos Norte",
      "nonclickable": false,
      "openNewTab": false,
      "borderArticle": "border-color:#0074D9;",
      "borderTopArticle": "border-top-color:#0074D9;",
      "imageListing": "/sites/globe.com.ph/files/content/dam/globe/brie/AboutUs/newsroom/corporate/media-advisory-globe-restores-network-in-typhoon-affected-localities-in-cagayan-apayao-ilocos-norte/corporate-typhoon-ompong-update-thumbnail-listing.jpg",
      "articleUrl": "https://www.globe.com.ph/about-us/newsroom/corporate/media-advisory-globe-network-restoration.html",
      "columnType": "articles--type-3",
      "typeListing": "article",
      "imageMobile": "/sites/globe.com.ph/files/content/dam/globe/brie/AboutUs/newsroom/corporate/media-advisory-globe-restores-network-in-typhoon-affected-localities-in-cagayan-apayao-ilocos-norte/corporate-typhoon-ompong-update-banner-m.jpg",
      "imageDesktop": "/sites/globe.com.ph/files/content/dam/globe/brie/AboutUs/newsroom/corporate/media-advisory-globe-restores-network-in-typhoon-affected-localities-in-cagayan-apayao-ilocos-norte/corporate-typhoon-ompong-update-primary-thumbnail.jpg",
      "description": "Typhoon Ompong Update: Globe Network Restoration and LTLC Station Advisory. Visit the Globe Newsroom for the latest news on Globe Telecom.",
      "datePosted": "Sep 17, 2018 | 10:34 AM",
      "titleFromTag": "Corporate"
    },
    {
      "title": "Globe Telecom Says Thank You with 917 Day",
      "nonclickable": false,
      "openNewTab": false,
      "borderArticle": "border-color:#0074D9;",
      "borderTopArticle": "border-top-color:#0074D9;",
      "imageListing": "/sites/globe.com.ph/files/content/dam/globe/brie/AboutUs/newsroom/consumer/globe-telecom-says-thank-you/consumer-ernest-thanks-917-thumbnail-listing.jpg",
      "articleUrl": "https://www.globe.com.ph/about-us/newsroom/consumer/globe-telecom-says-thank-you.html",
      "columnType": "articles--type-3",
      "typeListing": "article",
      "imageMobile": "/sites/globe.com.ph/files/content/dam/globe/brie/AboutUs/newsroom/consumer/globe-telecom-says-thank-you/consumer-ernest-thanks-917-banner-m.jpg",
      "imageDesktop": "/sites/globe.com.ph/files/content/dam/globe/brie/AboutUs/newsroom/consumer/globe-telecom-says-thank-you/consumer-ernest-thanks-917-primary-thumbnail.jpg",
      "description": "Globe Telecom says Thank You with 917 Day. Visit the Globe Newsroom for the latest news on Globe Telecom.",
      "datePosted": "Sep 17, 2018 | 08:30 AM",
      "titleFromTag": "Consumer"
    },
    {
      "title": "Media Advisory on Free, Unlimited GoWiFi at Major Malls in Light of #OmpongPH",
      "nonclickable": false,
      "openNewTab": false,
      "borderArticle": "border-color:#0074D9;",
      "borderTopArticle": "border-top-color:#0074D9;",
      "imageListing": "/sites/globe.com.ph/files/content/dam/globe/brie/AboutUs/newsroom/common/Corporate_Globe_Listing.jpg",
      "articleUrl": "https://www.globe.com.ph/about-us/newsroom/corporate/media-advisory-free-unlimited-gowifi.html",
      "columnType": "articles--type-3",
      "typeListing": "article",
      "imageMobile": "/sites/globe.com.ph/files/content/dam/globe/brie/AboutUs/newsroom/common/Corporate_Globe_Hero-Banner-Mobile.jpg",
      "imageDesktop": "/sites/globe.com.ph/files/content/dam/globe/brie/AboutUs/newsroom/common/Corporate_Globe_Primary-Desktop-Thumbnail.jpg",
      "description": "Media Advisory on FREE, unlimited GoWiFi at major malls in light of #OmpongPH Visit the Globe Newsroom for the latest news on Globe Telecom.",
      "datePosted": "Sep 14, 2018 | 07:53 PM",
      "titleFromTag": "Corporate"
    },
    {
      "title": "Super Panalo Deals and More as Globe and Puregold Celebrate 917 Day!",
      "nonclickable": false,
      "openNewTab": false,
      "borderArticle": "border-color:#0074D9;",
      "borderTopArticle": "border-top-color:#0074D9;",
      "imageListing": "/sites/globe.com.ph/files/content/dam/globe/brie/AboutUs/newsroom/consumer/consumer-super-panalo-deals-and-more-as-globe-and-puregold-celebrate-917-day/consumer-globe-puregold-917-thumbnail-listing.png",
      "articleUrl": "https://www.globe.com.ph/about-us/newsroom/consumer/super-panalo-deals-and-more.html",
      "columnType": "articles--type-3",
      "typeListing": "article",
      "imageMobile": "/sites/globe.com.ph/files/content/dam/globe/brie/AboutUs/newsroom/consumer/consumer-super-panalo-deals-and-more-as-globe-and-puregold-celebrate-917-day/consumer-globe-puregold-917-banner-m.png",
      "imageDesktop": "/sites/globe.com.ph/files/content/dam/globe/brie/AboutUs/newsroom/consumer/consumer-super-panalo-deals-and-more-as-globe-and-puregold-celebrate-917-day/consumer-globe-puregold-917-primary-thumbnail.png",
      "description": "Super panalo deals and more as Globe and Puregold celebrate 917 Day. Visit the Globe Newsroom for the latest news on Globe Telecom.",
      "datePosted": "Sep 14, 2018 | 05:01 PM",
      "titleFromTag": "Consumer"
    },
    {
      "title": "Big Thanks, Bigger Perks on Globe 917 Day",
      "nonclickable": false,
      "openNewTab": false,
      "borderArticle": "border-color:#0074D9;",
      "borderTopArticle": "border-top-color:#0074D9;",
      "imageListing": "/sites/globe.com.ph/files/content/dam/globe/brie/AboutUs/newsroom/consumer/consumer-big-thanks-bigger-perks-on-globe-917-day/consumer-globe-917-day-thumbnail-listing.png",
      "articleUrl": "https://www.globe.com.ph/about-us/newsroom/consumer/big-thanks-bigger-perks-on-globe.html",
      "columnType": "articles--type-3",
      "typeListing": "article",
      "imageMobile": "/sites/globe.com.ph/files/content/dam/globe/brie/AboutUs/newsroom/consumer/consumer-big-thanks-bigger-perks-on-globe-917-day/consumer-globe-917-day-banner-m.png",
      "imageDesktop": "/sites/globe.com.ph/files/content/dam/globe/brie/AboutUs/newsroom/consumer/consumer-big-thanks-bigger-perks-on-globe-917-day/consumer-globe-917-day-primary-thumbnail.png",
      "description": "Big thanks, bigger perks on Globe 917 Day. Visit the Globe Newsroom for the latest news on Globe Telecom.",
      "datePosted": "Sep 14, 2018 | 11:00 AM",
      "titleFromTag": "Consumer"
    },
    {
      "title": "Beyond the Call of Duty: Network Engineer Rescues more than Just Damaged Cell Sites",
      "nonclickable": false,
      "openNewTab": false,
      "borderArticle": "border-color:#0074D9;",
      "borderTopArticle": "border-top-color:#0074D9;",
      "imageListing": "/sites/globe.com.ph/files/content/dam/globe/brie/AboutUs/newsroom/corporate/beyond-the-call-of-duty-network-engineer-rescues-more-than-just-damaged-cell-sites/corporate-damage-cell-sites-thumbnail-listing.jpg",
      "articleUrl": "https://www.globe.com.ph/about-us/newsroom/corporate/beyond-the-call-of-duty.html",
      "columnType": "articles--type-3",
      "typeListing": "article",
      "imageMobile": "/sites/globe.com.ph/files/content/dam/globe/brie/AboutUs/newsroom/corporate/beyond-the-call-of-duty-network-engineer-rescues-more-than-just-damaged-cell-sites/corporate-damage-cell-sites-banner-m.jpg",
      "imageDesktop": "/sites/globe.com.ph/files/content/dam/globe/brie/AboutUs/newsroom/corporate/beyond-the-call-of-duty-network-engineer-rescues-more-than-just-damaged-cell-sites/corporate-damage-cell-sites-primary-thumbnail.jpg",
      "description": "Beyond the call of duty: Network engineer rescues more than just damaged cell sites. Visit the Globe Newsroom for the latest news on Globe Telecom.",
      "datePosted": "Sep 12, 2018 | 05:00 PM",
      "titleFromTag": "Corporate"
    },
    {
      "title": "PH Gamers Unite for Valor Cup Season 3",
      "nonclickable": false,
      "openNewTab": false,
      "borderArticle": "border-color:#0074D9;",
      "borderTopArticle": "border-top-color:#0074D9;",
      "imageListing": "/sites/globe.com.ph/files/content/dam/globe/brie/AboutUs/newsroom/consumer/consumer-ph-gamers-unite-for-valor-cup-season-3/consumer-valor-cup-3-thumbnail-listing.jpg",
      "articleUrl": "https://www.globe.com.ph/about-us/newsroom/consumer/ph-gamers-unite-for-valor.html",
      "columnType": "articles--type-3",
      "typeListing": "article",
      "imageMobile": "/sites/globe.com.ph/files/content/dam/globe/brie/AboutUs/newsroom/consumer/consumer-ph-gamers-unite-for-valor-cup-season-3/consumer-valor-cup-3-banner-m.jpg",
      "imageDesktop": "/sites/globe.com.ph/files/content/dam/globe/brie/AboutUs/newsroom/consumer/consumer-ph-gamers-unite-for-valor-cup-season-3/consumer-valor-cup-3-primary-thumbnail.jpg",
      "description": "PH Gamers Unite for Valor Cup Season 3. Visit the Globe Newsroom for the latest news on Globe Telecom.",
      "datePosted": "Sep 12, 2018 | 04:39 PM",
      "titleFromTag": "Consumer"
    },
    {
      "title": "Pawnshop Owners to Grow Business, Address Industry Challenges with Globe Business Technology Solutions",
      "nonclickable": false,
      "openNewTab": false,
      "borderArticle": "border-color:#0074D9;",
      "borderTopArticle": "border-top-color:#0074D9;",
      "imageListing": "/sites/globe.com.ph/files/content/dam/globe/brie/AboutUs/newsroom/common/Corporate_Globe_Listing.jpg",
      "articleUrl": "https://www.globe.com.ph/about-us/newsroom/business/pawnshop-owners-to-grow-business.html",
      "columnType": "articles--type-3",
      "typeListing": "article",
      "imageMobile": "/sites/globe.com.ph/files/content/dam/globe/brie/AboutUs/newsroom/common/Corporate_Globe_Hero-Banner-Mobile.jpg",
      "imageDesktop": "/sites/globe.com.ph/files/content/dam/globe/brie/AboutUs/newsroom/common/Corporate_Globe_Primary-Desktop-Thumbnail.jpg",
      "description": "Pawnshop owners to grow business, address industry challenges with Globe Business technology solutions. Visit the Globe Newsroom for the latest news",
      "datePosted": "Sep 12, 2018 | 04:05 PM",
      "titleFromTag": "Business"
    }
  ]
}
