{
  "status": 200,
  "page": 225,
  "totalPage": 298,
  "range": "2689-2700",
  "total": 3573,
  "result": [
    {
      "title": "Shop the World’s Top Beauty Brands at the Globe Online Beauty Fair",
      "nonclickable": false,
      "openNewTab": false,
      "borderArticle": "border-color:#0074D9;",
      "borderTopArticle": "border-top-color:#0074D9;",
      "imageListing": "/sites/globe.com.ph/files/content/dam/globe/brie/AboutUs/newsroom/consumer/consumer-shop-the-worlds-top-beauty-brands-at-the-globe-online-beauty-fair/consumer-online-beauty-fair-thumbnail-listing.jpg",
      "articleUrl": "https://www.globe.com.ph/about-us/newsroom/consumer/shop-at-the-globe-online.html",
      "columnType": "articles--type-3",
      "typeListing": "article",
      "imageMobile": "/sites/globe.com.ph/files/content/dam/globe/brie/AboutUs/newsroom/consumer/consumer-shop-the-worlds-top-beauty-brands-at-the-globe-online-beauty-fair/consumer-online-beauty-fair-banner-m.jpg",
      "imageDesktop": "/sites/globe.com.ph/files/content/dam/globe/brie/AboutUs/newsroom/consumer/consumer-shop-the-worlds-top-beauty-brands-at-the-globe-online-beauty-fair/consumer-online-beauty-fair-primary-thumbnail.jpg",
      "description": "Shop the world’s top beauty brands at the Globe Online Beauty Fair. Visit the Globe Newsroom for the latest news on Globe Telecom.",
      "datePosted": "Sep 11, 2018 | 04:01 PM",
      "titleFromTag": "Consumer"
    },
    {
      "title": "Globe myBusiness Provides Schools with Education Solutions to Raise Future-Ready Students",
      "nonclickable": false,
      "openNewTab": false,
      "borderArticle": "border-color:#0074D9;",
      "borderTopArticle": "border-top-color:#0074D9;",
      "imageListing": "/sites/globe.com.ph/files/content/dam/globe/brie/AboutUs/newsroom/common/Corporate_Globe_Listing.jpg",
      "articleUrl": "https://www.globe.com.ph/about-us/newsroom/business/globe-mybusiness-provides-schools-with-education-solutions.html",
      "columnType": "articles--type-3",
      "typeListing": "article",
      "imageMobile": "/sites/globe.com.ph/files/content/dam/globe/brie/AboutUs/newsroom/common/Corporate_Globe_Hero-Banner-Mobile.jpg",
      "imageDesktop": "/sites/globe.com.ph/files/content/dam/globe/brie/AboutUs/newsroom/common/Corporate_Globe_Primary-Desktop-Thumbnail.jpg",
      "description": "Globe myBusiness Provides Schools with Education Solutions to Raise Future-Ready Students",
      "datePosted": "Sep 10, 2018 | 03:12 PM",
      "titleFromTag": "Business"
    },
    {
      "title": "Planning to be a Foodpreneur? Let’s Talk Business, Pare!",
      "nonclickable": false,
      "openNewTab": false,
      "borderArticle": "border-color:#0074D9;",
      "borderTopArticle": "border-top-color:#0074D9;",
      "imageListing": "/sites/globe.com.ph/files/content/dam/globe/brie/AboutUs/newsroom/business/business-planning-to-be-a-foodpreneur-lets-talk-business-pare/business-lets-talk-business-thumbnail-listing.jpg",
      "articleUrl": "https://www.globe.com.ph/about-us/newsroom/business/planning-foodpreneur-lets-talk-business-pare.html",
      "columnType": "articles--type-3",
      "typeListing": "article",
      "imageMobile": "/sites/globe.com.ph/files/content/dam/globe/brie/AboutUs/newsroom/business/business-planning-to-be-a-foodpreneur-lets-talk-business-pare/business-lets-talk-business-banner-m.jpg",
      "imageDesktop": "/sites/globe.com.ph/files/content/dam/globe/brie/AboutUs/newsroom/business/business-planning-to-be-a-foodpreneur-lets-talk-business-pare/business-lets-talk-business-thumbnail-listing.jpg",
      "description": "Planning to be a Foodpreneur? Let’s Talk Business, Pare!",
      "datePosted": "Sep 10, 2018 | 10:54 AM",
      "titleFromTag": "Business"
    },
    {
      "title": "Make the Switch to Globe At Home Go Unli Broadband Plans",
      "nonclickable": false,
      "openNewTab": false,
      "borderArticle": "border-color:#0074D9;",
      "borderTopArticle": "border-top-color:#0074D9;",
      "imageListing": "/sites/globe.com.ph/files/content/dam/globe/brie/AboutUs/newsroom/consumer/consumer-make-the-switch-to-globe-at-home-go-unli-broadband-plans/consumer-go-unli-broadband-thumbnail-listing.jpg",
      "articleUrl": "https://www.globe.com.ph/about-us/newsroom/consumer/switch-to-globe-at-home-go-unli-broadband-plans.html",
      "columnType": "articles--type-3",
      "typeListing": "article",
      "imageMobile": "/sites/globe.com.ph/files/content/dam/globe/brie/AboutUs/newsroom/consumer/consumer-make-the-switch-to-globe-at-home-go-unli-broadband-plans/consumer-go-unli-broadband-banner-m.jpg",
      "imageDesktop": "/sites/globe.com.ph/files/content/dam/globe/brie/AboutUs/newsroom/consumer/consumer-make-the-switch-to-globe-at-home-go-unli-broadband-plans/consumer-go-unli-broadband-thumbnail-listing.jpg",
      "description": "Make the Switch to Globe At Home Go Unli Broadband Plans",
      "datePosted": "Sep 10, 2018 | 10:53 AM",
      "titleFromTag": "Consumer"
    },
    {
      "title": "Globe myBusiness Offers SD-WAN Technology for SMEs",
      "nonclickable": false,
      "openNewTab": false,
      "borderArticle": "border-color:#0074D9;",
      "borderTopArticle": "border-top-color:#0074D9;",
      "imageListing": "/sites/globe.com.ph/files/content/dam/globe/brie/AboutUs/newsroom/common/Corporate_Globe_Listing.jpg",
      "articleUrl": "https://www.globe.com.ph/about-us/newsroom/business/globe-mybusiness-offers-sd-wan-for-sme.html",
      "columnType": "articles--type-3",
      "typeListing": "article",
      "imageMobile": "/sites/globe.com.ph/files/content/dam/globe/brie/AboutUs/newsroom/common/Corporate_Globe_Hero-Banner-Mobile.jpg",
      "imageDesktop": "/sites/globe.com.ph/files/content/dam/globe/brie/AboutUs/newsroom/common/Corporate_Globe_Primary-Desktop-Thumbnail.jpg",
      "description": "Globe myBusiness Offers SD-WAN Technology for SMEs",
      "datePosted": "Sep 07, 2018 | 12:49 PM",
      "titleFromTag": "Business"
    },
    {
      "title": "Stylefestph: The Philippines’ Definitive Style Showcase",
      "nonclickable": false,
      "openNewTab": false,
      "borderArticle": "border-color:#0074D9;",
      "borderTopArticle": "border-top-color:#0074D9;",
      "imageListing": "/sites/globe.com.ph/files/content/dam/globe/brie/AboutUs/newsroom/consumer/consumer-stylefestph-the-philippines-definitive-style-showcase/consumer-stylefest-style-showcase-thumbnail-listing.jpg",
      "articleUrl": "https://www.globe.com.ph/about-us/newsroom/consumer/stylefestph-definitive-style-showcase.html",
      "columnType": "articles--type-3",
      "typeListing": "article",
      "imageMobile": "/sites/globe.com.ph/files/content/dam/globe/brie/AboutUs/newsroom/consumer/consumer-stylefestph-the-philippines-definitive-style-showcase/consumer-stylefest-style-showcase-banner-m.jpg",
      "imageDesktop": "/sites/globe.com.ph/files/content/dam/globe/brie/AboutUs/newsroom/consumer/consumer-stylefestph-the-philippines-definitive-style-showcase/consumer-stylefest-style-showcase-thumbnail-listing.jpg",
      "description": "Stylefestph: The Philippines’ Definitive Style Showcase",
      "datePosted": "Sep 07, 2018 | 10:27 AM",
      "titleFromTag": "Consumer"
    },
    {
      "title": "AVIA’s CAP Supports Globe #PlayItRight Campaign to Inform Consumers vs. Risks of Piracy Sites",
      "nonclickable": false,
      "openNewTab": false,
      "borderArticle": "border-color:#0074D9;",
      "borderTopArticle": "border-top-color:#0074D9;",
      "imageListing": "/sites/globe.com.ph/files/content/dam/globe/brie/AboutUs/newsroom/common/Corporate_Globe_Listing.jpg",
      "articleUrl": "https://www.globe.com.ph/about-us/newsroom/sustainability/avia-cap-supports-globe-playitright.html",
      "columnType": "articles--type-3",
      "typeListing": "article",
      "imageMobile": "/sites/globe.com.ph/files/content/dam/globe/brie/AboutUs/newsroom/common/Corporate_Globe_Hero-Banner-Mobile.jpg",
      "imageDesktop": "/sites/globe.com.ph/files/content/dam/globe/brie/AboutUs/newsroom/common/Corporate_Globe_Primary-Desktop-Thumbnail.jpg",
      "description": "CAP expressed its support for #PlayItRight. Visit the Globe Newsroom for the latest news on Globe Telecom.",
      "datePosted": "Sep 06, 2018 | 01:11 PM",
      "titleFromTag": "Sustainability"
    },
    {
      "title": "Globe Telecom Puts the Spotlight on Future Workplace at Innovation Month",
      "nonclickable": false,
      "openNewTab": false,
      "borderArticle": "border-color:#0074D9;",
      "borderTopArticle": "border-top-color:#0074D9;",
      "imageListing": "/sites/globe.com.ph/files/content/dam/globe/brie/AboutUs/newsroom/corporate/corporate-globe-telecom-puts-the-spotlight-on-future-workplace-at-innovation-month/corporate-spotlight-future-workplace-thumbnail-listing.jpg",
      "articleUrl": "https://www.globe.com.ph/about-us/newsroom/corporate/globe-telecom-puts-spotlight-on-future-workplace-at-innovation-month.html",
      "columnType": "articles--type-3",
      "typeListing": "article",
      "imageMobile": "/sites/globe.com.ph/files/content/dam/globe/brie/AboutUs/newsroom/corporate/corporate-globe-telecom-puts-the-spotlight-on-future-workplace-at-innovation-month/corporate-spotlight-future-workplace-banner-m.jpg",
      "imageDesktop": "/sites/globe.com.ph/files/content/dam/globe/brie/AboutUs/newsroom/corporate/corporate-globe-telecom-puts-the-spotlight-on-future-workplace-at-innovation-month/corporate-spotlight-future-workplace-primary-thumbnail.jpg",
      "description": "Globe Telecom puts the spotlight on future workplace at Innovation Month. Visit the Globe Newsroom for the latest news on Globe Telecom.",
      "datePosted": "Sep 06, 2018 | 12:39 PM",
      "titleFromTag": "Corporate"
    },
    {
      "title": "Globe Intensifies Drive to Recover PH’s Severely Depleted Primary Rainforests",
      "nonclickable": false,
      "openNewTab": false,
      "borderArticle": "border-color:#0074D9;",
      "borderTopArticle": "border-top-color:#0074D9;",
      "imageListing": "/sites/globe.com.ph/files/content/dam/globe/brie/AboutUs/newsroom/common/Corporate_Globe_Listing.jpg",
      "articleUrl": "https://www.globe.com.ph/about-us/newsroom/sustainability/globe-intensifies-drive-to-recover-ph-primary-rainforests.html",
      "columnType": "articles--type-3",
      "typeListing": "article",
      "imageMobile": "/sites/globe.com.ph/files/content/dam/globe/brie/AboutUs/newsroom/common/Corporate_Globe_Hero-Banner-Mobile.jpg",
      "imageDesktop": "/sites/globe.com.ph/files/content/dam/globe/brie/AboutUs/newsroom/common/Corporate_Globe_Primary-Desktop-Thumbnail.jpg",
      "description": "Globe Intensifies Drive to Recover PH’s Severely Depleted Primary Rainforests",
      "datePosted": "Sep 05, 2018 | 03:07 PM",
      "titleFromTag": "Sustainability"
    },
    {
      "title": "Viu Original Hello Kidol Premieres this September",
      "nonclickable": false,
      "openNewTab": false,
      "borderArticle": "border-color:#0074D9;",
      "borderTopArticle": "border-top-color:#0074D9;",
      "imageListing": "/sites/globe.com.ph/files/content/dam/globe/brie/AboutUs/newsroom/consumer/consumer-viu-original-hello-kidol-premieres-this-september/consumer-viu-original-hello-thumbnail-listing.jpg",
      "articleUrl": "https://www.globe.com.ph/about-us/newsroom/consumer/viu-original-hello-kidol-premieres-this-september.html",
      "columnType": "articles--type-3",
      "typeListing": "article",
      "imageMobile": "/sites/globe.com.ph/files/content/dam/globe/brie/AboutUs/newsroom/consumer/consumer-viu-original-hello-kidol-premieres-this-september/consumer-viu-original-hello-banner-m.jpg",
      "imageDesktop": "/sites/globe.com.ph/files/content/dam/globe/brie/AboutUs/newsroom/consumer/consumer-viu-original-hello-kidol-premieres-this-september/consumer-viu-original-hello-thumbnail-listing.jpg",
      "description": "The wait is over! Watch Hello K-Idol, streaming exclusively on Viu. It is the first reality show in search of the next Filipino K-Pop Superstar.",
      "datePosted": "Sep 04, 2018 | 02:07 PM",
      "titleFromTag": "Consumer"
    },
    {
      "title": "Globe, DICT to Complete Connectivity Projects by End-September 2018",
      "nonclickable": false,
      "openNewTab": false,
      "borderArticle": "border-color:#0074D9;",
      "borderTopArticle": "border-top-color:#0074D9;",
      "imageListing": "/sites/globe.com.ph/files/content/dam/globe/brie/AboutUs/newsroom/common/Corporate_Globe_Listing.jpg",
      "articleUrl": "https://www.globe.com.ph/about-us/newsroom/corporate/globe-dict-to-complete-connectivity-projects-by-end-september2018.html",
      "columnType": "articles--type-3",
      "typeListing": "article",
      "imageMobile": "/sites/globe.com.ph/files/content/dam/globe/brie/AboutUs/newsroom/common/Corporate_Globe_Hero-Banner-Mobile.jpg",
      "imageDesktop": "/sites/globe.com.ph/files/content/dam/globe/brie/AboutUs/newsroom/common/Corporate_Globe_Primary-Desktop-Thumbnail.jpg",
      "description": "Globe and DICT to complete connectivity projects by end-September 2018. Visit the Globe Newsroom for the latest news on Globe Telecom.",
      "datePosted": "Sep 04, 2018 | 12:36 PM",
      "titleFromTag": "Corporate"
    },
    {
      "title": "Two Suspects Nabbed for Illegally Selling Globe At Home Modems",
      "nonclickable": false,
      "openNewTab": false,
      "borderArticle": "border-color:#0074D9;",
      "borderTopArticle": "border-top-color:#0074D9;",
      "imageListing": "/sites/globe.com.ph/files/content/dam/globe/brie/AboutUs/newsroom/corporate/corporate-two-suspects-nabbed-for-illegally-selling-globe-at-home-modems/corporate-illegally-selling-modems-thumbnail-listing.jpg",
      "articleUrl": "https://www.globe.com.ph/about-us/newsroom/corporate/two-suspects-nabbed-for-illegally-selling-globe-at-home-modems.html",
      "columnType": "articles--type-3",
      "typeListing": "article",
      "imageMobile": "/sites/globe.com.ph/files/content/dam/globe/brie/AboutUs/newsroom/corporate/corporate-two-suspects-nabbed-for-illegally-selling-globe-at-home-modems/corporate-illegally-selling-modems-banner-m.jpg",
      "imageDesktop": "/sites/globe.com.ph/files/content/dam/globe/brie/AboutUs/newsroom/corporate/corporate-two-suspects-nabbed-for-illegally-selling-globe-at-home-modems/corporate-illegally-selling-modems-primary-thumbnail.jpg",
      "description": "Two suspects nabbed for illegally selling Globe At Home modems. Visit the Globe Newsroom for the latest news on Globe Telecom.",
      "datePosted": "Sep 04, 2018 | 12:36 PM",
      "titleFromTag": "Corporate"
    }
  ]
}
