{
  "status": 200,
  "page": 226,
  "totalPage": 298,
  "range": "2701-2712",
  "total": 3573,
  "result": [
    {
      "title": "Globe Telecom Close to 95% LTE Coverage in All Municipalities in PH",
      "nonclickable": false,
      "openNewTab": false,
      "borderArticle": "border-color:#0074D9;",
      "borderTopArticle": "border-top-color:#0074D9;",
      "imageListing": "/sites/globe.com.ph/files/content/dam/globe/brie/AboutUs/newsroom/common/Corporate_Globe_Listing.jpg",
      "articleUrl": "https://www.globe.com.ph/about-us/newsroom/corporate/globe-close-to-95-percent-coverage-in-all-municipalities-in-ph.html",
      "columnType": "articles--type-3",
      "typeListing": "article",
      "imageMobile": "/sites/globe.com.ph/files/content/dam/globe/brie/AboutUs/newsroom/common/Corporate_Globe_Hero-Banner-Mobile.jpg",
      "imageDesktop": "/sites/globe.com.ph/files/content/dam/globe/brie/AboutUs/newsroom/common/Corporate_Globe_Primary-Desktop-Thumbnail.jpg",
      "description": "Globe Telecom close to 95% coverage in all municipalities in PH. Visit the Globe Newsroom for the latest news on Globe Telecom.",
      "datePosted": "Sep 04, 2018 | 12:35 PM",
      "titleFromTag": "Corporate"
    },
    {
      "title": "AFP, Goyo Cast, DSWD, Globe Pack Relief Goods for 15,000 Flood Victims",
      "nonclickable": false,
      "openNewTab": false,
      "borderArticle": "border-color:#0074D9;",
      "borderTopArticle": "border-top-color:#0074D9;",
      "imageListing": "/sites/globe.com.ph/files/content/dam/globe/brie/AboutUs/newsroom/sustainability/sustainability-afp-goyo-cast-dswd-globe-pack-relief-goods-for-15000-flood-victims/sustainability-afp-goyo-cast-thumbnail-listing.png",
      "articleUrl": "https://www.globe.com.ph/about-us/newsroom/sustainability/afp-goyo-cast-dswd-globe-pack-relief-goods.html",
      "columnType": "articles--type-3",
      "typeListing": "article",
      "imageMobile": "/sites/globe.com.ph/files/content/dam/globe/brie/AboutUs/newsroom/sustainability/sustainability-afp-goyo-cast-dswd-globe-pack-relief-goods-for-15000-flood-victims/sustainability-afp-goyo-cast-banner-m.png",
      "imageDesktop": "/sites/globe.com.ph/files/content/dam/globe/brie/AboutUs/newsroom/sustainability/sustainability-afp-goyo-cast-dswd-globe-pack-relief-goods-for-15000-flood-victims/sustainability-afp-goyo-cast-thumbnail-listing.png",
      "description": "AFP, Goyo Cast, DSWD, Globe Pack Relief Goods for 15,000 Flood Victims",
      "datePosted": "Sep 03, 2018 | 11:04 AM",
      "titleFromTag": "Sustainability"
    },
    {
      "title": "Globe Telecom Confident about Esports Business",
      "nonclickable": false,
      "openNewTab": false,
      "borderArticle": "border-color:#0074D9;",
      "borderTopArticle": "border-top-color:#0074D9;",
      "imageListing": "/sites/globe.com.ph/files/content/dam/globe/brie/AboutUs/newsroom/common/Corporate_Globe_Listing.jpg",
      "articleUrl": "https://www.globe.com.ph/about-us/newsroom/corporate/globe-telecom-confident-about-esports-business.html",
      "columnType": "articles--type-3",
      "typeListing": "article",
      "imageMobile": "/sites/globe.com.ph/files/content/dam/globe/brie/AboutUs/newsroom/common/Corporate_Globe_Hero-Banner-Mobile.jpg",
      "imageDesktop": "/sites/globe.com.ph/files/content/dam/globe/brie/AboutUs/newsroom/common/Corporate_Globe_Primary-Desktop-Thumbnail.jpg",
      "description": "Globe Telecom confident about Esports business. Visit the Globe Newsroom for the latest news on Globe Telecom.",
      "datePosted": "Sep 03, 2018 | 10:36 AM",
      "titleFromTag": "Corporate"
    },
    {
      "title": "Get Amazon Prime Video and Twitch Prime with Globe Postpaid Plans",
      "nonclickable": false,
      "openNewTab": false,
      "borderArticle": "border-color:#0074D9;",
      "borderTopArticle": "border-top-color:#0074D9;",
      "imageListing": "/sites/globe.com.ph/files/content/dam/globe/brie/About-us/Newsroom/image/Consumer/120620180606PM/consumer-amazon-prime-video-thumbnail-listing.png",
      "articleUrl": "https://www.globe.com.ph/about-us/newsroom/consumer/get-amazon-prime-video-twitch-prime-with-postpaid.html",
      "columnType": "articles--type-3",
      "typeListing": "article",
      "imageMobile": "/sites/globe.com.ph/files/content/dam/globe/brie/About-us/Newsroom/image/Consumer/120620180606PM/consumer-amazon-prime-video-banner-m.png",
      "imageDesktop": "/sites/globe.com.ph/files/content/dam/globe/brie/About-us/Newsroom/image/Consumer/120620180606PM/consumer-amazon-prime-video-primary-thumbnail.png",
      "description": "Get Amazon Prime Video and Twitch Prime with Globe Postpaid Plans. Visit the Globe Newsroom for the latest news on Globe Telecom.",
      "datePosted": "Aug 31, 2018 | 09:55 AM",
      "titleFromTag": "Consumer"
    },
    {
      "title": "Giving Time for a Meaningful Cause",
      "nonclickable": false,
      "openNewTab": false,
      "borderArticle": "border-color:#0074D9;",
      "borderTopArticle": "border-top-color:#0074D9;",
      "imageListing": "/sites/globe.com.ph/files/content/dam/globe/brie/About-us/Newsroom/image/Sustainability/120620180636PM/sustainability-giving-time-meaninful-thumbnail-listing.jpg",
      "articleUrl": "https://www.globe.com.ph/about-us/newsroom/sustainability/giving-time-for-a-meaningful-cause.html",
      "columnType": "articles--type-3",
      "typeListing": "article",
      "imageMobile": "/sites/globe.com.ph/files/content/dam/globe/brie/About-us/Newsroom/image/Sustainability/120620180636PM/sustainability-giving-time-meaninful-banner-m.jpg",
      "imageDesktop": "/sites/globe.com.ph/files/content/dam/globe/brie/About-us/Newsroom/image/Sustainability/120620180636PM/sustainability-giving-time-meaninful-primary-thumbnail.jpg",
      "description": "Giving time for a meaningful cause. Visit the Globe Newsroom for the latest news on Globe Telecom.",
      "datePosted": "Aug 30, 2018 | 12:46 PM",
      "titleFromTag": "Sustainability"
    },
    {
      "title": "Eala Tennis Siblings, PH Volcanoes, GAU Prepare Relief Goods for 6,480 Flood Victims",
      "nonclickable": false,
      "openNewTab": false,
      "borderArticle": "border-color:#0074D9;",
      "borderTopArticle": "border-top-color:#0074D9;",
      "imageListing": "/sites/globe.com.ph/files/content/dam/globe/brie/About-us/Newsroom/image/Sustainability/120620180646PM/sustainability-eala-teen-siblings-thumbnail-listing.png",
      "articleUrl": "https://www.globe.com.ph/about-us/newsroom/sustainability/eala-siblings-phvolcanoes-gau-prepare-relief-goods.html",
      "columnType": "articles--type-3",
      "typeListing": "article",
      "imageMobile": "/sites/globe.com.ph/files/content/dam/globe/brie/About-us/Newsroom/image/Sustainability/120620180646PM/sustainability-eala-teen-siblings-banner-m.png",
      "imageDesktop": "/sites/globe.com.ph/files/content/dam/globe/brie/About-us/Newsroom/image/Sustainability/120620180646PM/sustainability-eala-teen-siblings-primary-thumbnail.png",
      "description": "Eala Tennis Siblings, PH Volcanoes, GAU prepare relief goods for 6,480 flood victims. Visit the Globe Newsroom for the latest news on Globe Telecom.",
      "datePosted": "Aug 30, 2018 | 12:46 PM",
      "titleFromTag": "Sustainability"
    },
    {
      "title": "Teach a Child, Clean the Coast, and Make a Difference with Time Please",
      "nonclickable": false,
      "openNewTab": false,
      "borderArticle": "border-color:#0074D9;",
      "borderTopArticle": "border-top-color:#0074D9;",
      "imageListing": "/sites/globe.com.ph/files/content/dam/globe/brie/About-us/Newsroom/image/Corporate/08292018/sustainability-difference-with-time-please-thumbnail-listing.png",
      "articleUrl": "https://www.globe.com.ph/about-us/newsroom/sustainability/teach-a-child-clean-the-coast-and-make-a-difference-with-time-please.html",
      "columnType": "articles--type-3",
      "typeListing": "article",
      "imageMobile": "/sites/globe.com.ph/files/content/dam/globe/brie/About-us/Newsroom/image/Corporate/08292018/sustainability-difference-with-time-please-banner-m.png",
      "imageDesktop": "/sites/globe.com.ph/files/content/dam/globe/brie/About-us/Newsroom/image/Corporate/08292018/sustainability-difference-with-time-please-primary-thumbnail.png",
      "description": "Teach a Child, Clean the Coast, and Make a Difference with Time Please. Visit the Globe Newsroom for the latest news on Globe Telecom.",
      "datePosted": "Aug 28, 2018 | 10:14 AM",
      "titleFromTag": "Sustainability"
    },
    {
      "title": "What to Love About the Samsung Galaxy Note9",
      "nonclickable": false,
      "openNewTab": false,
      "borderArticle": "border-color:#0074D9;",
      "borderTopArticle": "border-top-color:#0074D9;",
      "imageListing": "/sites/globe.com.ph/files/content/dam/globe/brie/About-us/Newsroom/image/Corporate/08292018/consumer-love-galaxy-s9-thumbnail-listing.png",
      "articleUrl": "https://www.globe.com.ph/about-us/newsroom/consumer/what-to-love-about-the-samsung-galaxy-note9.html",
      "columnType": "articles--type-3",
      "typeListing": "article",
      "imageMobile": "/sites/globe.com.ph/files/content/dam/globe/brie/About-us/Newsroom/image/Corporate/08292018/consumer-love-galaxy-s9-banner-m.png",
      "imageDesktop": "/sites/globe.com.ph/files/content/dam/globe/brie/About-us/Newsroom/image/Corporate/08292018/consumer-love-galaxy-s9-primary-thumbnail.png",
      "description": "Here's what to Love About the Samsung Galaxy Note9. Visit the Globe Newsroom for the latest news on Globe Telecom.",
      "datePosted": "Aug 28, 2018 | 09:42 AM",
      "titleFromTag": "Consumer"
    },
    {
      "title": "Eat, Drink, and Run at Let’s Food Crawl Pare!",
      "nonclickable": false,
      "openNewTab": false,
      "borderArticle": "border-color:#0074D9;",
      "borderTopArticle": "border-top-color:#0074D9;",
      "imageListing": "/content/dam/multi-microsites/images/newsroom/newroom2018/business-eat-drink-run-thumbnail-listing.png",
      "articleUrl": "https://www.globe.com.ph/about-us/newsroom/business/eat-drink-and-run-at-lets-food-crawl-pare.html",
      "columnType": "articles--type-3",
      "typeListing": "article",
      "imageMobile": "/sites/globe.com.ph/files/content/dam/globe/brie/About-us/Newsroom/image/Corporate/08292018/business-eat-drink-run-banner-m.png",
      "imageDesktop": "/sites/globe.com.ph/files/content/dam/globe/brie/About-us/Newsroom/image/Corporate/08292018/business-eat-drink-run-primary-thumbnail.png",
      "description": "Eat, drink, and run at Let’s Food Crawl Pare! Visit the Globe Newsroom for the latest news on Globe Telecom.",
      "datePosted": "Aug 28, 2018 | 09:22 AM",
      "titleFromTag": "Business"
    },
    {
      "title": "Globe Telecom donates over 30,000 books to children across Visayas, Mindanao",
      "nonclickable": false,
      "openNewTab": false,
      "borderArticle": "border-color:#0074D9;",
      "borderTopArticle": "border-top-color:#0074D9;",
      "imageListing": "/sites/globe.com.ph/files/content/dam/globe/brie/About-us/Newsroom/image/Corporate/08292018/sustainability-donates-books-children-thumbnail-listing.png",
      "articleUrl": "https://www.globe.com.ph/about-us/newsroom/sustainability/globe-telecom-donates-books-to-children-across-visayas-mindanao.html",
      "columnType": "articles--type-3",
      "typeListing": "article",
      "imageMobile": "/sites/globe.com.ph/files/content/dam/globe/brie/About-us/Newsroom/image/Corporate/08292018/sustainability-donates-books-children-banner-m.png",
      "imageDesktop": "/sites/globe.com.ph/files/content/dam/globe/brie/About-us/Newsroom/image/Corporate/08292018/sustainability-donates-books-children-primary-thumbnail.png",
      "description": "Globe Telecom donates over 30,000 books to children across Visayas, Mindanao. Visit the Globe Newsroom for the latest news on Globe Telecom.",
      "datePosted": "Aug 24, 2018 | 02:27 PM",
      "titleFromTag": "Sustainability"
    },
    {
      "title": "Globe Strong Revenue Growth Fuels Network Investments to Meet Consumer Demand for Data",
      "nonclickable": false,
      "openNewTab": false,
      "borderArticle": "border-color:#0074D9;",
      "borderTopArticle": "border-top-color:#0074D9;",
      "imageListing": "/sites/globe.com.ph/files/content/dam/globe/brie/AboutUs/newsroom/common/Corporate_Globe_Listing.jpg",
      "articleUrl": "https://www.globe.com.ph/about-us/newsroom/corporate/globe-strong-revenue-growth-fuels-network-investments.html",
      "columnType": "articles--type-3",
      "typeListing": "article",
      "imageMobile": "/sites/globe.com.ph/files/content/dam/globe/brie/AboutUs/newsroom/common/Corporate_Globe_Hero-Banner-Mobile.jpg",
      "imageDesktop": "/sites/globe.com.ph/files/content/dam/globe/brie/AboutUs/newsroom/common/Corporate_Globe_Primary-Desktop-Thumbnail.jpg",
      "description": "Globe Strong Revenue Growth Fuels Network Investments to Meet Consumer Demand for Data. Visit the Globe Newsroom for the latest news on Globe Telecom.",
      "datePosted": "Aug 24, 2018 | 09:40 AM",
      "titleFromTag": "Corporate"
    },
    {
      "title": "Globe Brings Free Unli GoWiFi to Over 10,000 Stranded Passengers at NAIA",
      "nonclickable": false,
      "openNewTab": false,
      "borderArticle": "border-color:#0074D9;",
      "borderTopArticle": "border-top-color:#0074D9;",
      "imageListing": "/sites/globe.com.ph/files/content/dam/globe/brie/AboutUs/newsroom/common/Corporate_Globe_Listing.jpg",
      "articleUrl": "https://www.globe.com.ph/about-us/newsroom/consumer/globe-brings-free-unli-gowifi-to-over-10000-stranded-passengers-at-naia.html",
      "columnType": "articles--type-3",
      "typeListing": "article",
      "imageMobile": "/sites/globe.com.ph/files/content/dam/globe/brie/AboutUs/newsroom/common/Corporate_Globe_Hero-Banner-Mobile.jpg",
      "imageDesktop": "/sites/globe.com.ph/files/content/dam/globe/brie/AboutUs/newsroom/common/Corporate_Globe_Primary-Desktop-Thumbnail.jpg",
      "description": "Globe Brings Free Unli GoWiFi to Over 10,000 Stranded Passengers at NAIA. Visit the Globe Newsroom for the latest news on Globe Telecom.",
      "datePosted": "Aug 23, 2018 | 02:44 PM",
      "titleFromTag": "Consumer"
    }
  ]
}
