{
  "status": 200,
  "page": 227,
  "totalPage": 298,
  "range": "2713-2724",
  "total": 3573,
  "result": [
    {
      "title": "Wanna Catch Wanna One Live in Manila? Globe Prepaid Has Got You Covered!",
      "nonclickable": false,
      "openNewTab": false,
      "borderArticle": "border-color:#0074D9;",
      "borderTopArticle": "border-top-color:#0074D9;",
      "imageListing": "/sites/globe.com.ph/files/content/dam/globe/brie/About-us/Newsroom/image/Corporate/08292018/consumer-wanna-one-live-thumbnail-listing.png",
      "articleUrl": "https://www.globe.com.ph/about-us/newsroom/consumer/catch-wanna-one-live-in-manila-with-globe-prepaid.html",
      "columnType": "articles--type-3",
      "typeListing": "article",
      "imageMobile": "/sites/globe.com.ph/files/content/dam/globe/brie/About-us/Newsroom/image/Corporate/08292018/consumer-wanna-one-live-banner-m.png",
      "imageDesktop": "/sites/globe.com.ph/files/content/dam/globe/brie/About-us/Newsroom/image/Corporate/08292018/consumer-wanna-one-live-primary-thumbnail.png",
      "description": "Wanna Catch Wanna One Live in Manila? Globe Prepaid Has Got You Covered! Visit the Globe Newsroom for the latest news on Globe Telecom.",
      "datePosted": "Aug 23, 2018 | 02:44 PM",
      "titleFromTag": "Consumer"
    },
    {
      "title": "A Weekend of Thrilling E-Sports Action at Globe Conquerors Manila 2018",
      "nonclickable": false,
      "openNewTab": false,
      "borderArticle": "border-color:#0074D9;",
      "borderTopArticle": "border-top-color:#0074D9;",
      "imageListing": "/sites/globe.com.ph/files/content/dam/globe/brie/About-us/Newsroom/image/Corporate/08292018/consumer-globe-conquerors-manila-thumbnail-listing.png",
      "articleUrl": "https://www.globe.com.ph/about-us/newsroom/consumer/a-weekend-of-thrilling-esports-action-at-globe-conquerors-manila-2018.html",
      "columnType": "articles--type-3",
      "typeListing": "article",
      "imageMobile": "/sites/globe.com.ph/files/content/dam/globe/brie/About-us/Newsroom/image/Corporate/08292018/consumer-globe-conquerors-manila-banner-m.png",
      "imageDesktop": "/sites/globe.com.ph/files/content/dam/globe/brie/About-us/Newsroom/image/Corporate/08292018/consumer-globe-conquerors-manila-primary-thumbnail.png",
      "description": "A Weekend of Thrilling E-Sports Action at Globe Conquerors Manila 2018. Visit the Globe Newsroom for the latest news on Globe Telecom.",
      "datePosted": "Aug 22, 2018 | 04:39 PM",
      "titleFromTag": "Consumer"
    },
    {
      "title": "Students Show Increased Cyber Safety Literacy after Joining Globe Telecom’s Digital Thumbprint Program",
      "nonclickable": false,
      "openNewTab": false,
      "borderArticle": "border-color:#0074D9;",
      "borderTopArticle": "border-top-color:#0074D9;",
      "imageListing": "/sites/globe.com.ph/files/content/dam/globe/brie/About-us/Newsroom/image/Corporate/08292018/sustainability-cyber-safety-literacy-thumbnail-listing.png",
      "articleUrl": "https://www.globe.com.ph/about-us/newsroom/sustainability/students-show-increased-cybersafety-literacy-after-dtp.html",
      "columnType": "articles--type-3",
      "typeListing": "article",
      "imageMobile": "/sites/globe.com.ph/files/content/dam/globe/brie/About-us/Newsroom/image/Corporate/08292018/sustainability-cyber-safety-literacy-banner-m.png",
      "imageDesktop": "/sites/globe.com.ph/files/content/dam/globe/brie/About-us/Newsroom/image/Corporate/08292018/sustainability-cyber-safety-literacy-primary-thumbnail.png",
      "description": "Students show increased cyber safety literacy after joining Globe Telecom’s Digital Thumbprint Program. Visit the Globe Newsroom for the latest news on Globe",
      "datePosted": "Aug 22, 2018 | 02:30 PM",
      "titleFromTag": "Sustainability"
    },
    {
      "title": "Chance the Rapper fans in the Philippines donate over 1,500 school supplies",
      "nonclickable": false,
      "openNewTab": false,
      "borderArticle": "border-color:#0074D9;",
      "borderTopArticle": "border-top-color:#0074D9;",
      "imageListing": "/sites/globe.com.ph/files/content/dam/globe/brie/About-us/Newsroom/image/Corporate/08292018/sustainability-chance-fans-donates-thumbnail-listing.png",
      "articleUrl": "https://www.globe.com.ph/about-us/newsroom/sustainability/chance-the-rapper-fans-in-ph-donate-school-supplies.html",
      "columnType": "articles--type-3",
      "typeListing": "article",
      "imageMobile": "/sites/globe.com.ph/files/content/dam/globe/brie/About-us/Newsroom/image/Corporate/08292018/sustainability-chance-fans-donates-banner-m.png",
      "imageDesktop": "/sites/globe.com.ph/files/content/dam/globe/brie/About-us/Newsroom/image/Corporate/08292018/sustainability-chance-fans-donates-primary-thumbnail.png",
      "description": "Chance the Rapper fans in the Philippines donated over 1,500 school supplies for underprivileged kids through the recent #GlobeChance Pre-Concert Party.",
      "datePosted": "Aug 22, 2018 | 02:13 PM",
      "titleFromTag": "Sustainability"
    },
    {
      "title": "Increased Confidence, Better Appreciation for School Work among Positive Behaviors Derived from Globe Grassroots Sports Program",
      "nonclickable": false,
      "openNewTab": false,
      "borderArticle": "border-color:#0074D9;",
      "borderTopArticle": "border-top-color:#0074D9;",
      "imageListing": "/sites/globe.com.ph/files/content/dam/globe/brie/About-us/Newsroom/image/Corporate/08292018/sustainability-grassroots-sports-program-primary-thumbnail.png",
      "articleUrl": "https://www.globe.com.ph/about-us/newsroom/sustainability/increased-confidence-better-appreciation-tmfpsb.html",
      "columnType": "articles--type-3",
      "typeListing": "article",
      "imageMobile": "/sites/globe.com.ph/files/content/dam/globe/brie/About-us/Newsroom/image/Corporate/08292018/sustainability-grassroots-sports-program-banner-m.png",
      "imageDesktop": "/sites/globe.com.ph/files/content/dam/globe/brie/About-us/Newsroom/image/Corporate/08292018/sustainability-grassroots-sports-program-primary-thumbnail.png",
      "description": "Increased confidence, better appreciation for school work among positive behaviors derived from Globe grassroots sports program. Learn more here.",
      "datePosted": "Aug 20, 2018 | 03:15 PM",
      "titleFromTag": "Sustainability"
    },
    {
      "title": "Globe At Home Prepaid WiFi, Now in Ministop!",
      "nonclickable": false,
      "openNewTab": false,
      "borderArticle": "border-color:#0074D9;",
      "borderTopArticle": "border-top-color:#0074D9;",
      "imageListing": "/sites/globe.com.ph/files/content/dam/globe/brie/About-us/Newsroom/image/Corporate/08292018/consumer-globe-a-home-prepaid-thumbnail-listing.png",
      "articleUrl": "https://www.globe.com.ph/about-us/newsroom/consumer/globe-at-home-prepaid-wifi-now-in-ministop.html",
      "columnType": "articles--type-3",
      "typeListing": "article",
      "imageMobile": "/sites/globe.com.ph/files/content/dam/globe/brie/About-us/Newsroom/image/Corporate/08292018/consumer-globe-a-home-prepaid-banner-m.png",
      "imageDesktop": "/sites/globe.com.ph/files/content/dam/globe/brie/About-us/Newsroom/image/Corporate/08292018/consumer-globe-a-home-prepaid-primary-thumbnail.png",
      "description": "Globe At Home Prepaid WiFi, now in Ministop! Visit the Globe Newsroom for the latest news on Globe Telecom.",
      "datePosted": "Aug 20, 2018 | 02:46 PM",
      "titleFromTag": "Consumer"
    },
    {
      "title": "Globe Customers to Experience Exciting Freebies, Promos, and Performances at Kadayawan",
      "nonclickable": false,
      "openNewTab": false,
      "borderArticle": "border-color:#0074D9;",
      "borderTopArticle": "border-top-color:#0074D9;",
      "imageListing": "/sites/globe.com.ph/files/content/dam/globe/brie/About-us/Newsroom/image/Corporate/08292018/consumer-globe-kadayawan-thumbnail-listing.png",
      "articleUrl": "https://www.globe.com.ph/about-us/newsroom/consumer/globe-customers-exciting-freebies-promos-performances-at-kadayawan.html",
      "columnType": "articles--type-3",
      "typeListing": "article",
      "imageMobile": "/sites/globe.com.ph/files/content/dam/globe/brie/About-us/Newsroom/image/Corporate/08292018/consumer-globe-kadayawan-banner-m.png",
      "imageDesktop": "/sites/globe.com.ph/files/content/dam/globe/brie/About-us/Newsroom/image/Corporate/08292018/consumer-globe-kadayawan-primary-thumbnail.png",
      "description": "Globe Customers to Experience Exciting Freebies, Promos, and Performances at Kadayawan. Visit the Globe Newsroom for the latest news on Globe Telecom.",
      "datePosted": "Aug 17, 2018 | 01:21 PM",
      "titleFromTag": "Consumer"
    },
    {
      "title": "PNP, Globe Telecom Intensify Crackdown on Network Hackers",
      "nonclickable": false,
      "openNewTab": false,
      "borderArticle": "border-color:#0074D9;",
      "borderTopArticle": "border-top-color:#0074D9;",
      "imageListing": "/sites/globe.com.ph/files/content/dam/globe/brie/AboutUs/newsroom/common/Corporate_Globe_Listing.jpg",
      "articleUrl": "https://www.globe.com.ph/about-us/newsroom/corporate/pnp-globe-intensify-crackdown-on-network-hackers.html",
      "columnType": "articles--type-3",
      "typeListing": "article",
      "imageMobile": "/sites/globe.com.ph/files/content/dam/globe/brie/AboutUs/newsroom/common/Corporate_Globe_Hero-Banner-Mobile.jpg",
      "imageDesktop": "/sites/globe.com.ph/files/content/dam/globe/brie/AboutUs/newsroom/common/Corporate_Globe_Primary-Desktop-Thumbnail.jpg",
      "description": "PNP, Globe Telecom Intensify Crackdown on Network Hackers. Visit the Globe Newsroom for the latest news on Globe Telecom.",
      "datePosted": "Aug 17, 2018 | 01:18 PM",
      "titleFromTag": "Corporate"
    },
    {
      "title": "Level Up Your Family Bonding with FREE INTERNET for Videos and Games from Globe At Home Prepaid WiFi and HomeSurf",
      "nonclickable": false,
      "openNewTab": false,
      "borderArticle": "border-color:#0074D9;",
      "borderTopArticle": "border-top-color:#0074D9;",
      "imageListing": "/sites/globe.com.ph/files/content/dam/globe/brie/About-us/Newsroom/image/Corporate/08292018/consumer-prepaid-wifi-homesurf-thumbnail-listing.png",
      "articleUrl": "https://www.globe.com.ph/about-us/newsroom/consumer/free-internet-for-videos-games-globe-at-home-prepaid-wifi-homesurf.html",
      "columnType": "articles--type-3",
      "typeListing": "article",
      "imageMobile": "/sites/globe.com.ph/files/content/dam/globe/brie/About-us/Newsroom/image/Corporate/08292018/consumer-prepaid-wifi-homesurf-banner-m.png",
      "imageDesktop": "/sites/globe.com.ph/files/content/dam/globe/brie/About-us/Newsroom/image/Corporate/08292018/consumer-prepaid-wifi-homesurf-primary-thumbnail.png",
      "description": "Level Up Your Family Bonding with FREE INTERNET for Videos and Games from Globe At Home Prepaid WiFi and HomeSurf. Visit the Globe Newsroom for more.",
      "datePosted": "Aug 17, 2018 | 01:17 PM",
      "titleFromTag": "Consumer"
    },
    {
      "title": "Globe Telecom, University of Mindanao Strengthen Partnership with Enhanced Digital Learning",
      "nonclickable": false,
      "openNewTab": false,
      "borderArticle": "border-color:#0074D9;",
      "borderTopArticle": "border-top-color:#0074D9;",
      "imageListing": "/sites/globe.com.ph/files/content/dam/globe/brie/About-us/Newsroom/image/Corporate/08292018/sustainability-university-of-mindanao-partnership-thumbnail-listing.png",
      "articleUrl": "https://www.globe.com.ph/about-us/newsroom/sustainability/globe-telecom-university-of-mindanao-strengthen-partnership-with-enhanced-digital-learning.html",
      "columnType": "articles--type-3",
      "typeListing": "article",
      "imageMobile": "/sites/globe.com.ph/files/content/dam/globe/brie/About-us/Newsroom/image/Corporate/08292018/sustainability-university-of-mindanao-partnership-banner-m.png",
      "imageDesktop": "/sites/globe.com.ph/files/content/dam/globe/brie/About-us/Newsroom/image/Corporate/08292018/sustainability-university-of-mindanao-partnership-thumbnail-listing.png",
      "description": "Globe Telecom, University of Mindanao Strengthen Partnership with Enhanced Digital Learning. Visit the Globe Newroom for the latest news on Globe Telecom.",
      "datePosted": "Aug 16, 2018 | 02:11 PM",
      "titleFromTag": "Sustainability"
    },
    {
      "title": "Globe Hosts 12th Singtel Group Regional CTO-CIO Forum",
      "nonclickable": false,
      "openNewTab": false,
      "borderArticle": "border-color:#0074D9;",
      "borderTopArticle": "border-top-color:#0074D9;",
      "imageListing": "/sites/globe.com.ph/files/content/dam/globe/brie/About-us/Newsroom/image/Corporate/08292018/corporate-singtel-group-regional-thumbnail-listing.png",
      "articleUrl": "https://www.globe.com.ph/about-us/newsroom/corporate/globe-hosts-12th-singtel-group-regional-cto-cio-forum.html",
      "columnType": "articles--type-3",
      "typeListing": "article",
      "imageMobile": "/sites/globe.com.ph/files/content/dam/globe/brie/About-us/Newsroom/image/Corporate/08292018/corporate-singtel-group-regional-banner-m.png",
      "imageDesktop": "/sites/globe.com.ph/files/content/dam/globe/brie/About-us/Newsroom/image/Corporate/08292018/corporate-singtel-group-regional-primary-thumbnail.png",
      "description": "Globe Hosts 12th Singtel Group Regional CTO-CIO Forum. Visit the Globe Newsroom for the latest news on Globe Telecom.",
      "datePosted": "Aug 16, 2018 | 11:53 AM",
      "titleFromTag": "Corporate"
    },
    {
      "title": "TM Sports Para sa Bayan Gives Talented Youth Opportunities to Improve Lives through Sports",
      "nonclickable": false,
      "openNewTab": false,
      "borderArticle": "border-color:#0074D9;",
      "borderTopArticle": "border-top-color:#0074D9;",
      "imageListing": "/sites/globe.com.ph/files/content/dam/globe/brie/About-us/Newsroom/image/Corporate/08292018/sustainability-tm-sports-youth-thumbnail-listing.png",
      "articleUrl": "https://www.globe.com.ph/about-us/newsroom/sustainability/tm-sports-para-sa-bayan-gives-talented-youth-opportunities-to-improve-lives-through-sports.html",
      "columnType": "articles--type-3",
      "typeListing": "article",
      "imageMobile": "/sites/globe.com.ph/files/content/dam/globe/brie/About-us/Newsroom/image/Corporate/08292018/sustainability-tm-sports-youth-banner-m.png",
      "imageDesktop": "/sites/globe.com.ph/files/content/dam/globe/brie/About-us/Newsroom/image/Corporate/08292018/sustainability-tm-sports-youth-primary-thumbnail.png",
      "description": "TM Sports Para sa Bayan Gives Talented Youth Opportunities to Improve Lives through Sports. Visit the Globe Newsroom for the latest news on Globe Telecom.",
      "datePosted": "Aug 14, 2018 | 03:15 PM",
      "titleFromTag": "Sustainability"
    }
  ]
}
