{
  "status": 200,
  "page": 228,
  "totalPage": 298,
  "range": "2725-2736",
  "total": 3573,
  "result": [
    {
      "title": "20% Off on Chance the Rapper Tickets, Exclusively for Globe Customers!",
      "nonclickable": false,
      "openNewTab": false,
      "borderArticle": "border-color:#0074D9;",
      "borderTopArticle": "border-top-color:#0074D9;",
      "imageListing": "/sites/globe.com.ph/files/content/dam/globe/brie/About-us/Newsroom/image/Corporate/08292018/consumer-20_-off-chance-tickets-thumbnail-listing.png",
      "articleUrl": "https://www.globe.com.ph/about-us/newsroom/consumer/20percent-off-on-chance-the-rapper-tickets-exclusively-for-globe-customers.html",
      "columnType": "articles--type-3",
      "typeListing": "article",
      "imageMobile": "/sites/globe.com.ph/files/content/dam/globe/brie/About-us/Newsroom/image/Corporate/08292018/consumer-20_-off-chance-tickets-banner-m.png",
      "imageDesktop": "/sites/globe.com.ph/files/content/dam/globe/brie/About-us/Newsroom/image/Corporate/08292018/consumer-20_-off-chance-tickets-primary-thumbnail.png",
      "description": "20% Off on Chance the Rapper Tickets, Exclusively for Globe Customers! Visit the Globe Newsroom for the latest news on Globe Telecom.",
      "datePosted": "Aug 13, 2018 | 02:59 PM",
      "titleFromTag": "Consumer"
    },
    {
      "title": "The New Samsung Galaxy Note 9 Unpacked! ",
      "nonclickable": false,
      "openNewTab": false,
      "borderArticle": "border-color:#0074D9;",
      "borderTopArticle": "border-top-color:#0074D9;",
      "imageListing": "/sites/globe.com.ph/files/content/dam/globe/brie/About-us/Newsroom/image/Corporate/08292018/consumer-galaxy-note-9-thumbnail-listing.png",
      "articleUrl": "https://www.globe.com.ph/about-us/newsroom/consumer/new-samsung-galaxy-note9-unpacked.html",
      "columnType": "articles--type-3",
      "typeListing": "article",
      "imageMobile": "/sites/globe.com.ph/files/content/dam/globe/brie/About-us/Newsroom/image/Corporate/08292018/consumer-galaxy-note-9-banner-m.png",
      "imageDesktop": "/sites/globe.com.ph/files/content/dam/globe/brie/About-us/Newsroom/image/Corporate/08292018/consumer-galaxy-note-9-primary-thumbnail.png",
      "description": "The new Samsung Galaxy Note 9 unpacked! Visit the Globe Newsroom for the latest news on Globe Telecom.",
      "datePosted": "Aug 13, 2018 | 01:34 PM",
      "titleFromTag": "Consumer"
    },
    {
      "title": "Over 9.5M Volunteer Hours Clock In for Globe, Disney’s Time Please",
      "nonclickable": false,
      "openNewTab": false,
      "borderArticle": "border-color:#0074D9;",
      "borderTopArticle": "border-top-color:#0074D9;",
      "imageListing": "/sites/globe.com.ph/files/content/dam/globe/brie/About-us/Newsroom/image/Corporate/08292018/sustainability-disneys-time-please-thumbnail-listing.png",
      "articleUrl": "https://www.globe.com.ph/about-us/newsroom/sustainability/volunteer-hours-clock-in-for-time-please.html",
      "columnType": "articles--type-3",
      "typeListing": "article",
      "imageMobile": "/sites/globe.com.ph/files/content/dam/globe/brie/About-us/Newsroom/image/Corporate/08292018/sustainability-disneys-time-please-banner-m.png",
      "imageDesktop": "/sites/globe.com.ph/files/content/dam/globe/brie/About-us/Newsroom/image/Corporate/08292018/sustainability-disneys-time-please-primary-thumbnail.png",
      "description": "Over 9.5M volunteer hours clock in for Globe, Disney’s Time Please. Visit the Globe Newsroom for the latest news on Globe Telecom.",
      "datePosted": "Aug 10, 2018 | 03:14 PM",
      "titleFromTag": "Sustainability"
    },
    {
      "title": "Globe Telecom Partners with SAP to Transform Business Processes",
      "nonclickable": false,
      "openNewTab": false,
      "borderArticle": "border-color:#0074D9;",
      "borderTopArticle": "border-top-color:#0074D9;",
      "imageListing": "/sites/globe.com.ph/files/content/dam/globe/brie/About-us/Newsroom/image/Corporate/08292018/partners-globe-partners-sap-thumbnail-listing.png",
      "articleUrl": "https://www.globe.com.ph/about-us/newsroom/partners/globe-telecom-partners-with-sap.html",
      "columnType": "articles--type-3",
      "typeListing": "article",
      "imageMobile": "/sites/globe.com.ph/files/content/dam/globe/brie/About-us/Newsroom/image/Corporate/08292018/partners-globe-partners-sap-banner-m.png",
      "imageDesktop": "/sites/globe.com.ph/files/content/dam/globe/brie/About-us/Newsroom/image/Corporate/08292018/partners-globe-partners-sap-primary-thumbnail.png",
      "description": "Globe Telecom partners with SAP to transform business processes. Visit the Globe Newsroom for the latest news on Globe Telecom.",
      "datePosted": "Aug 10, 2018 | 12:09 PM",
      "titleFromTag": "Partners"
    },
    {
      "title": "Globe, Sophos Team Up to Help Businesses Fight Cyber Threats",
      "nonclickable": false,
      "openNewTab": false,
      "borderArticle": "border-color:#0074D9;",
      "borderTopArticle": "border-top-color:#0074D9;",
      "imageListing": "/sites/globe.com.ph/files/content/dam/globe/brie/About-us/Newsroom/image/Corporate/08292018/business-sophos-cyber-threats-thumbnail-listing.png",
      "articleUrl": "https://www.globe.com.ph/about-us/newsroom/business/globe-sophos-team-up-to-fight-cyberthreats.html",
      "columnType": "articles--type-3",
      "typeListing": "article",
      "imageMobile": "/sites/globe.com.ph/files/content/dam/globe/brie/About-us/Newsroom/image/Corporate/08292018/business-sophos-cyber-threats-banner-m.png",
      "imageDesktop": "/sites/globe.com.ph/files/content/dam/globe/brie/About-us/Newsroom/image/Corporate/08292018/business-sophos-cyber-threats-primary-thumbnail.png",
      "description": "Globe now carries Sophos’ next generation firewalls and Unified Threat Management (UTM) devices to fortify companies’ first line of defense in cyberspace.",
      "datePosted": "Aug 09, 2018 | 04:00 PM",
      "titleFromTag": "Business"
    },
    {
      "title": "Celebrate for a Cause at the #GlobeChance Pre-Concert Party",
      "nonclickable": false,
      "openNewTab": false,
      "borderArticle": "border-color:#0074D9;",
      "borderTopArticle": "border-top-color:#0074D9;",
      "imageListing": "/sites/globe.com.ph/files/content/dam/globe/brie/About-us/Newsroom/image/Corporate/08292018/consumer-chance-pre-concert-thumbnail-listing.png",
      "articleUrl": "https://www.globe.com.ph/about-us/newsroom/consumer/celebrate-for-a-cause-at-the-globechance-pre-concert-party.html",
      "columnType": "articles--type-3",
      "typeListing": "article",
      "imageMobile": "/sites/globe.com.ph/files/content/dam/globe/brie/About-us/Newsroom/image/Corporate/08292018/consumer-chance-pre-concert-banner-m.png",
      "imageDesktop": "/sites/globe.com.ph/files/content/dam/globe/brie/About-us/Newsroom/image/Corporate/08292018/consumer-chance-pre-concert-primary-thumbnail.png",
      "description": "Celebrate for a Cause at the #GlobeChance Pre-Concert Party. Visit the Globe Newsroom for the latest news on Globe Telecom.",
      "datePosted": "Aug 08, 2018 | 02:59 PM",
      "titleFromTag": "Consumer"
    },
    {
      "title": "Upgrade to the Huawei Y6 2018 LTE Smartphone at 25% Off!",
      "nonclickable": false,
      "openNewTab": false,
      "borderArticle": "border-color:#0074D9;",
      "borderTopArticle": "border-top-color:#0074D9;",
      "imageListing": "/sites/globe.com.ph/files/content/dam/globe/brie/About-us/Newsroom/image/Corporate/08292018/consumer-huawei-y6-lte-thumbnail-listing.png",
      "articleUrl": "https://www.globe.com.ph/about-us/newsroom/consumer/upgrade-to-the-huawei-y6-2018-lte-smartphone-at-25percent-off.html",
      "columnType": "articles--type-3",
      "typeListing": "article",
      "imageMobile": "/sites/globe.com.ph/files/content/dam/globe/brie/About-us/Newsroom/image/Corporate/08292018/consumer-huawei-y6-lte-banner-m.png",
      "imageDesktop": "/sites/globe.com.ph/files/content/dam/globe/brie/About-us/Newsroom/image/Corporate/08292018/consumer-huawei-y6-lte-thumbnail-listing.png",
      "description": "Upgrade to the Huawei Y6 2018 LTE Smartphone at 25% Off! Visit the Globe Newsroom for the latest news on Globe Telecom.",
      "datePosted": "Aug 08, 2018 | 02:58 PM",
      "titleFromTag": "Consumer"
    },
    {
      "title": "Globe Telecom Among ASEAN’s Best in Corporate Governance",
      "nonclickable": false,
      "openNewTab": false,
      "borderArticle": "border-color:#0074D9;",
      "borderTopArticle": "border-top-color:#0074D9;",
      "imageListing": "/sites/globe.com.ph/files/content/dam/globe/brie/About-us/Newsroom/image/Corporate/08292018/corporate-asean-corporate-governance-thumbnail-listing.png",
      "articleUrl": "https://www.globe.com.ph/about-us/newsroom/corporate/globe-telecom-among-aseans-best-in-corporate-governance.html",
      "columnType": "articles--type-3",
      "typeListing": "article",
      "imageMobile": "/sites/globe.com.ph/files/content/dam/globe/brie/About-us/Newsroom/image/Corporate/08292018/corporate-asean-corporate-governance-banner-m.png",
      "imageDesktop": "/sites/globe.com.ph/files/content/dam/globe/brie/About-us/Newsroom/image/Corporate/08292018/corporate-asean-corporate-governance-primary-thumbnail.png",
      "description": "Globe Telecom Among ASEAN’s Best in Corporate Governance. Visit the Globe Newsroom for the latest news on Globe Telecom.",
      "datePosted": "Aug 07, 2018 | 10:16 AM",
      "titleFromTag": "Corporate"
    },
    {
      "title": "Northern Mindanao Focus of Globe, Optus, Singtel 2018 Volunteering Drive",
      "nonclickable": false,
      "openNewTab": false,
      "borderArticle": "border-color:#0074D9;",
      "borderTopArticle": "border-top-color:#0074D9;",
      "imageListing": "/sites/globe.com.ph/files/content/dam/globe/brie/About-us/Newsroom/image/Corporate/08292018/sustainability-globe-optus-singtel-thumbnail-listing.png",
      "articleUrl": "https://www.globe.com.ph/about-us/newsroom/sustainability/northern-mindanao-focus-of-globe-optus-singtel-2018-volunteering-drive.html",
      "columnType": "articles--type-3",
      "typeListing": "article",
      "imageMobile": "/sites/globe.com.ph/files/content/dam/globe/brie/About-us/Newsroom/image/Corporate/08292018/sustainability-globe-optus-singtel-banner-m.png",
      "imageDesktop": "/sites/globe.com.ph/files/content/dam/globe/brie/About-us/Newsroom/image/Corporate/08292018/sustainability-globe-optus-singtel-primary-thumbnail.png",
      "description": "Globe's Better Together 2018 OVP aided 8k students & 250 teachers from 2 public schools in Northern Mindanao with workshops, school repairs, and more.",
      "datePosted": "Aug 06, 2018 | 03:36 PM",
      "titleFromTag": "Sustainability"
    },
    {
      "title": "GCash, Xend Group Partner for First QR-Paid Shipment Service in PH",
      "nonclickable": false,
      "openNewTab": false,
      "borderArticle": "border-color:#0074D9;",
      "borderTopArticle": "border-top-color:#0074D9;",
      "imageListing": "/sites/globe.com.ph/files/content/dam/globe/brie/About-us/Newsroom/image/Corporate/08292018/partners-gcash-xend-group-thumbnail-listing.png",
      "articleUrl": "https://www.globe.com.ph/about-us/newsroom/partners/gcash-xend-group-partner-for-first-qr-paid-shipment-service-in-ph.html",
      "columnType": "articles--type-3",
      "typeListing": "article",
      "imageMobile": "/sites/globe.com.ph/files/content/dam/globe/brie/About-us/Newsroom/image/Corporate/08292018/partners-gcash-xend-group-banner-m.png",
      "imageDesktop": "/sites/globe.com.ph/files/content/dam/globe/brie/About-us/Newsroom/image/Corporate/08292018/partners-gcash-xend-group-primary-thumbnail.png",
      "description": "GCash, Xend Group Partner for First QR-Paid Shipment Service in PH. Visit the Globe Newsroom for the latest news on Globe Telecom.",
      "datePosted": "Aug 06, 2018 | 03:09 PM",
      "titleFromTag": "Partners"
    },
    {
      "title": "Top Disney Duos that Show Ultimate #FriendshipGoals",
      "nonclickable": false,
      "openNewTab": false,
      "borderArticle": "border-color:#0074D9;",
      "borderTopArticle": "border-top-color:#0074D9;",
      "imageListing": "/sites/globe.com.ph/files/content/dam/globe/brie/About-us/Newsroom/image/Corporate/08292018/consumer-international-friendship-day-thumbnail-listing.png",
      "articleUrl": "https://www.globe.com.ph/about-us/newsroom/consumer/top-disney-duos-that-show-ultimate-friendshipgoals.html",
      "columnType": "articles--type-3",
      "typeListing": "article",
      "imageMobile": "/sites/globe.com.ph/files/content/dam/globe/brie/About-us/Newsroom/image/Corporate/08292018/consumer-international-friendship-day-banner-m.png",
      "imageDesktop": "/sites/globe.com.ph/files/content/dam/globe/brie/About-us/Newsroom/image/Corporate/08292018/consumer-international-friendship-day-primary-thumbnail.png",
      "description": "Top Disney Duos that Show Ultimate #FriendshipGoals. Visit the Globe Newsroom for the latest news on Globe Telecom.",
      "datePosted": "Aug 03, 2018 | 08:16 AM",
      "titleFromTag": "Consumer"
    },
    {
      "title": "Win Tickets to See Chance The Rapper in Manila with Globe GoSURF!",
      "nonclickable": false,
      "openNewTab": false,
      "borderArticle": "border-color:#0074D9;",
      "borderTopArticle": "border-top-color:#0074D9;",
      "imageListing": "/sites/globe.com.ph/files/content/dam/globe/brie/About-us/Newsroom/image/Corporate/08292018/consumer-win-tickets-chance-thumbnail-listing.png",
      "articleUrl": "https://www.globe.com.ph/about-us/newsroom/consumer/win-tickets-to-see-chance-the-rapper-in-manila-with-globe-gosurf.html",
      "columnType": "articles--type-3",
      "typeListing": "article",
      "imageMobile": "/sites/globe.com.ph/files/content/dam/globe/brie/About-us/Newsroom/image/Corporate/08292018/consumer-win-tickets-chance-banner-m.png",
      "imageDesktop": "/sites/globe.com.ph/files/content/dam/globe/brie/About-us/Newsroom/image/Corporate/08292018/consumer-win-tickets-chance-primary-thumbnail.png",
      "description": "Win Tickets to See Chance The Rapper in Manila with Globe GoSURF!. Visit the Globe Newsroom for the latest news on Globe Telecom.",
      "datePosted": "Aug 03, 2018 | 08:12 AM",
      "titleFromTag": "Consumer"
    }
  ]
}
