{
  "status": 200,
  "page": 229,
  "totalPage": 298,
  "range": "2737-2748",
  "total": 3573,
  "result": [
    {
      "title": "Globe Engages Employees in Rise Against Hunger Movement",
      "nonclickable": false,
      "openNewTab": false,
      "borderArticle": "border-color:#0074D9;",
      "borderTopArticle": "border-top-color:#0074D9;",
      "imageListing": "/sites/globe.com.ph/files/content/dam/globe/brie/About-us/Newsroom/image/Corporate/08292018/sustainability-rise-against-hunger-thumbnail-listing.png",
      "articleUrl": "https://www.globe.com.ph/about-us/newsroom/sustainability/globe-engages-employees-in-rise-against-hunger-movement.html",
      "columnType": "articles--type-3",
      "typeListing": "article",
      "imageMobile": "/sites/globe.com.ph/files/content/dam/globe/brie/About-us/Newsroom/image/Corporate/08292018/sustainability-rise-against-hunger-banner-m.png",
      "imageDesktop": "/sites/globe.com.ph/files/content/dam/globe/brie/About-us/Newsroom/image/Corporate/08292018/sustainability-rise-against-hunger-primary-thumbnail.png",
      "description": "Globe Telecom launches a program where employees can fund RAH's programs through the Taste N' Go app for in-house meal pre-ordering and seat reservation.",
      "datePosted": "Aug 01, 2018 | 02:00 PM",
      "titleFromTag": "Sustainability"
    },
    {
      "title": "BSP Governor Espenilla Inducts Philippine e-Money Association Officers",
      "nonclickable": false,
      "openNewTab": false,
      "borderArticle": "border-color:#0074D9;",
      "borderTopArticle": "border-top-color:#0074D9;",
      "imageListing": "/sites/globe.com.ph/files/content/dam/globe/brie/About-us/Newsroom/image/Partners/080820181021AM/partners-gcash-wendys-primary-thumbnail.jpg",
      "articleUrl": "https://www.globe.com.ph/about-us/newsroom/partners/wendys-philippines-now-accepts-gcash.html",
      "columnType": "articles--type-3",
      "typeListing": "article",
      "imageMobile": "/sites/globe.com.ph/files/content/dam/globe/brie/About-us/Newsroom/image/Partners/080820181021AM/partners-gcash-wendys-banner-m.jpg",
      "imageDesktop": "/sites/globe.com.ph/files/content/dam/globe/brie/About-us/Newsroom/image/Partners/080820181021AM/partners-gcash-wendys-primary-thumbnail.jpg",
      "description": "Wendy’s Philippines Now Accepts GCash. Visit the Globe Newsroom for the latest news on Globe Telecom.",
      "datePosted": "Jul 31, 2018 | 01:38 PM",
      "titleFromTag": "Partners"
    },
    {
      "title": "Churreria La Lola Spreads Happiness One Churro at a Time with RUSH-Powered Loyalty App",
      "nonclickable": false,
      "openNewTab": false,
      "borderArticle": "border-color:#0074D9;",
      "borderTopArticle": "border-top-color:#0074D9;",
      "imageListing": "/sites/globe.com.ph/files/content/dam/globe/brie/AboutUs/newsroom/consumer/08082018/consumer-churreria-la-lola-thumbnail-listing.jpg",
      "articleUrl": "https://www.globe.com.ph/about-us/newsroom/consumer/churreria-la-lola-spreads-happiness-with-rush-powered-loyalty-app.html",
      "columnType": "articles--type-3",
      "typeListing": "article",
      "imageMobile": "/sites/globe.com.ph/files/content/dam/globe/brie/AboutUs/newsroom/consumer/08082018/consumer-churreria-la-lola-banner-m.jpg",
      "imageDesktop": "/sites/globe.com.ph/files/content/dam/globe/brie/AboutUs/newsroom/consumer/08082018/consumer-churreria-la-lola-primary-thumbnail.jpg",
      "description": "Churreria La Lola Spreads Happiness One Churro at a Time with RUSH-Powered Loyalty App. Visit the Globe Newsroom for the latest news on Globe Telecom.",
      "datePosted": "Jul 31, 2018 | 01:32 PM",
      "titleFromTag": "Consumer"
    },
    {
      "title": "BSP Governor Espenilla Inducts Philippine e-Money Association Officers",
      "nonclickable": false,
      "openNewTab": false,
      "borderArticle": "border-color:#0074D9;",
      "borderTopArticle": "border-top-color:#0074D9;",
      "imageListing": "/sites/globe.com.ph/files/content/dam/globe/brie/About-us/Newsroom/image/Partners/08082018914AM/partners-bsp-emoney-primary-thumbnail.jpg",
      "articleUrl": "https://www.globe.com.ph/about-us/newsroom/partners/bsp-governor-espenilla-inducts-philippine-emoney-association-officers.html",
      "columnType": "articles--type-3",
      "typeListing": "article",
      "imageMobile": "/sites/globe.com.ph/files/content/dam/globe/brie/About-us/Newsroom/image/Partners/08082018914AM/partners-bsp-emoney-banner-m.jpg",
      "imageDesktop": "/sites/globe.com.ph/files/content/dam/globe/brie/About-us/Newsroom/image/Partners/08082018914AM/partners-bsp-emoney-primary-thumbnail.jpg",
      "description": "BSP Governor Espenilla Inducts Philippine e-Money Association Officers. Visit the Globe Newsroom for the latest news on Globe Telecom.",
      "datePosted": "Jul 30, 2018 | 11:59 AM",
      "titleFromTag": "Partners"
    },
    {
      "title": "Global Filipino Schools Program Reaches All 17 Regions in the PH",
      "nonclickable": false,
      "openNewTab": false,
      "borderArticle": "border-color:#0074D9;",
      "borderTopArticle": "border-top-color:#0074D9;",
      "imageListing": "/sites/globe.com.ph/files/content/dam/globe/brie/About-us/Newsroom/image/Sustainability/08082018425PM/sustainability-schools-education-thumbnail-listing.jpg",
      "articleUrl": "https://www.globe.com.ph/about-us/newsroom/sustainability/global-filipino-schools-program-reaches-all-17-regions-in-the-ph.html",
      "columnType": "articles--type-3",
      "typeListing": "article",
      "imageMobile": "/sites/globe.com.ph/files/content/dam/globe/brie/About-us/Newsroom/image/Sustainability/08082018425PM/sustainability-schools-education-banner-m.jpg",
      "imageDesktop": "/sites/globe.com.ph/files/content/dam/globe/brie/About-us/Newsroom/image/Sustainability/08082018425PM/sustainability-schools-education-banner-d.jpg",
      "description": "Global Filipino Schools Program Reaches All 17 Regions in the PH. Visit the Globe Newroom for the latest news on Globe Telecom.",
      "datePosted": "Jul 30, 2018 | 11:19 AM",
      "titleFromTag": "Sustainability"
    },
    {
      "title": "#HowToGlobe:  Globe Postpaid Customers Get Free 6-Month Access to All Things Magical on the DisneyLife App",
      "nonclickable": false,
      "openNewTab": false,
      "borderArticle": "border-color:#0074D9;",
      "borderTopArticle": "border-top-color:#0074D9;",
      "imageListing": "/sites/globe.com.ph/files/content/dam/globe/brie/AboutUs/newsroom/consumer/08082018/consumer-globe-postpaid-disneylife-thumbnail-listing.jpg",
      "articleUrl": "https://www.globe.com.ph/about-us/newsroom/consumer/howtoglobe-postpaid-customers-get-free-6-month-access-to-disneylife-app.html",
      "columnType": "articles--type-3",
      "typeListing": "article",
      "imageMobile": "/sites/globe.com.ph/files/content/dam/globe/brie/AboutUs/newsroom/consumer/08082018/consumer-globe-postpaid-disneylife-banner-m.jpg",
      "imageDesktop": "/sites/globe.com.ph/files/content/dam/globe/brie/AboutUs/newsroom/consumer/08082018/consumer-globe-postpaid-disneylife-primary-thumbnail.jpg",
      "description": "#HowToGlobe: Globe Postpaid Customers Get Free 6-Month Access to All Things Magical on the DisneyLife App. Visit the Globe Newsroom for the latest news",
      "datePosted": "Jul 27, 2018 | 12:24 PM",
      "titleFromTag": "Consumer"
    },
    {
      "title": "Globe Telecom Readies for 5G Implementation",
      "nonclickable": false,
      "openNewTab": false,
      "borderArticle": "border-color:#0074D9;",
      "borderTopArticle": "border-top-color:#0074D9;",
      "imageListing": "/sites/globe.com.ph/files/content/dam/globe/brie/About-us/Newsroom/image/Corporate/08092018935AM/Corporate_Globe_Listing.jpg",
      "articleUrl": "https://www.globe.com.ph/about-us/newsroom/corporate/globe-telecom-readies-for-5g-implementation.html",
      "columnType": "articles--type-3",
      "typeListing": "article",
      "imageMobile": "/sites/globe.com.ph/files/content/dam/globe/brie/About-us/Newsroom/image/Corporate/08092018935AM/Corporate_Globe_Hero-Banner-Mobile.jpg",
      "imageDesktop": "/sites/globe.com.ph/files/content/dam/globe/brie/About-us/Newsroom/image/Corporate/08092018935AM/Corporate_Globe_Primary-Desktop-Thumbnail.jpg",
      "description": "Globe Telecom Readies for 5G Implementation. Visit the Globe Newsroom for the latest news on Globe Telecom.",
      "datePosted": "Jul 27, 2018 | 11:48 AM",
      "titleFromTag": "Corporate"
    },
    {
      "title": "NTC Lifts Temporary Suspension of Network Services for SONA",
      "nonclickable": false,
      "openNewTab": false,
      "borderArticle": "border-color:#0074D9;",
      "borderTopArticle": "border-top-color:#0074D9;",
      "imageListing": "/sites/globe.com.ph/files/content/dam/globe/brie/About-us/Newsroom/image/Corporate/080920181016AM/Corporate_Globe_Listing.jpg",
      "articleUrl": "https://www.globe.com.ph/about-us/newsroom/corporate/globe-media-advisory-update-for-sona-2018.html",
      "columnType": "articles--type-3",
      "typeListing": "article",
      "imageMobile": "/sites/globe.com.ph/files/content/dam/globe/brie/About-us/Newsroom/image/Corporate/080920181016AM/Corporate_Globe_Hero-Banner-Mobile.jpg",
      "imageDesktop": "/sites/globe.com.ph/files/content/dam/globe/brie/About-us/Newsroom/image/Corporate/080920181016AM/Corporate_Globe_Primary-Desktop-Thumbnail.jpg",
      "description": "Globe Media Advisory Update: NTC Lifts Temporary Suspension of Network Services for SONA. Visit the Globe Newsroom for the latest news on Globe Telecom.",
      "datePosted": "Jul 27, 2018 | 11:48 AM",
      "titleFromTag": "Corporate"
    },
    {
      "title": "Globe Telecom Brings WiFi Connectivity to Puerto Princesa Underground River",
      "nonclickable": false,
      "openNewTab": false,
      "borderArticle": "border-color:#0074D9;",
      "borderTopArticle": "border-top-color:#0074D9;",
      "imageListing": "/sites/globe.com.ph/files/content/dam/globe/brie/AboutUs/newsroom/business/080082018/business-wifi-internet-palawane-thumbnail-listing.jpg",
      "articleUrl": "https://www.globe.com.ph/about-us/newsroom/business/globe-telecom-brings-wifi-connectivity-to-puerto-princesa-underground-river.html",
      "columnType": "articles--type-3",
      "typeListing": "article",
      "imageMobile": "/sites/globe.com.ph/files/content/dam/globe/brie/AboutUs/newsroom/business/080082018/business-wifi-internet-palawan-banner-m.jpg",
      "imageDesktop": "/sites/globe.com.ph/files/content/dam/globe/brie/AboutUs/newsroom/business/080082018/business-wifi-internet-palawan-primary-thumbnail.jpg",
      "description": "Globe Telecom Brings WiFi Connectivity to Puerto Princesa Underground River. Visit the Globe Newsroom for the latest news on Globe Telecom.",
      "datePosted": "Jul 25, 2018 | 11:57 AM",
      "titleFromTag": "Business"
    },
    {
      "title": "Exclusive Globe At Home Plans Now Available to New DMCI condo Owners",
      "nonclickable": false,
      "openNewTab": false,
      "borderArticle": "border-color:#0074D9;",
      "borderTopArticle": "border-top-color:#0074D9;",
      "imageListing": "/sites/globe.com.ph/files/content/dam/globe/brie/AboutUs/newsroom/consumer/08082018/consumer-globe-at-home-dmci-thumbnail-listing.png",
      "articleUrl": "https://www.globe.com.ph/about-us/newsroom/consumer/exclusive-globe-at-home-plans-now-available-to-new-dmci-condo-owners.html",
      "columnType": "articles--type-3",
      "typeListing": "article",
      "imageMobile": "/sites/globe.com.ph/files/content/dam/globe/brie/AboutUs/newsroom/consumer/08082018/consumer-globe-at-home-dmci-banner-m.png",
      "imageDesktop": "/sites/globe.com.ph/files/content/dam/globe/brie/AboutUs/newsroom/consumer/08082018/consumer-globe-at-home-dmci-primary-thumbnail.png",
      "description": "Exclusive Globe At Home Plans Now Available to New DMCI condo Owners. Visit the Globe Newsroom for the latest news on Globe Telecom.",
      "datePosted": "Jul 25, 2018 | 11:57 AM",
      "titleFromTag": "Consumer"
    },
    {
      "title": "1st GCash-Alipay QR Code in PH Launched in Partnership with The Islands Group",
      "nonclickable": false,
      "openNewTab": false,
      "borderArticle": "border-color:#0074D9;",
      "borderTopArticle": "border-top-color:#0074D9;",
      "imageListing": "/sites/globe.com.ph/files/content/dam/globe/brie/AboutUs/newsroom/consumer/08082018/consumer-gcash-alipay-thumbnail-listing.png",
      "articleUrl": "https://www.globe.com.ph/about-us/newsroom/consumer/first-gcash-alipay-qr-code-in-ph-launched-in-partnership-with-the-islands-group.html",
      "columnType": "articles--type-3",
      "typeListing": "article",
      "imageMobile": "/sites/globe.com.ph/files/content/dam/globe/brie/AboutUs/newsroom/consumer/08082018/consumer-gcash-alipay-banner-m.png",
      "imageDesktop": "/sites/globe.com.ph/files/content/dam/globe/brie/AboutUs/newsroom/consumer/08082018/consumer-gcash-alipay-primary-thumbnail.png",
      "description": "1st GCash-Alipay QR Code in PH Launched in Partnership with The Islands Group. Visit the Globe Newsroom for the latest news on Globe Telecom.",
      "datePosted": "Jul 24, 2018 | 03:18 PM",
      "titleFromTag": "Consumer"
    },
    {
      "title": "Watch All the Videos You Want with Globe GoSURF and GoSAKTO",
      "nonclickable": false,
      "openNewTab": false,
      "borderArticle": "border-color:#0074D9;",
      "borderTopArticle": "border-top-color:#0074D9;",
      "imageListing": "/sites/globe.com.ph/files/content/dam/globe/brie/About-us/Newsroom/Generic-banner/Corporate_Globe_Listing.jpg",
      "articleUrl": "https://www.globe.com.ph/about-us/newsroom/consumer/watch-all-the-videos-you-want-with-globe-gosurf-and-gosakto.html",
      "columnType": "articles--type-3",
      "typeListing": "article",
      "imageMobile": "/sites/globe.com.ph/files/content/dam/globe/brie/About-us/Newsroom/Generic-banner/Corporate_Globe_Hero-Banner-Mobile.jpg",
      "imageDesktop": "/sites/globe.com.ph/files/content/dam/globe/brie/About-us/Newsroom/Generic-banner/Corporate_Globe_Primary-Desktop-Thumbnail.jpg",
      "description": "The Watch All the Videos You Want with Globe GoSURF and GoSAKTO. Visit the Globe Newsroom for the latest news on Globe Telecom.",
      "datePosted": "Jul 23, 2018 | 01:59 PM",
      "titleFromTag": "Consumer"
    }
  ]
}
