{
  "status": 200,
  "page": 23,
  "totalPage": 298,
  "range": "265-276",
  "total": 3573,
  "result": [
    {
      "title": "ECPay Exceeds Digital Merchant Partnership Target, Boasts General Trade Retail Base of over 450K",
      "nonclickable": false,
      "openNewTab": false,
      "borderArticle": "border-color:#1C91C5;",
      "borderTopArticle": "border-top-color:#1C91C5;",
      "imageListing": "/sites/globe.com.ph/files/content/dam/globe/brie/AboutUs/newsroom/common/default-business-1/default-business-1-thumbnail-listing.jpg",
      "articleUrl": "https://www.globe.com.ph/about-us/newsroom/corporate/ecpay-exceeds-digital-merchant-partnership-target.html",
      "columnType": "articles--type-3",
      "typeListing": "article",
      "imageMobile": "/sites/globe.com.ph/files/content/dam/globe/brie/AboutUs/newsroom/common/default-business-1/default-business-1-primary-thumbnail-m.jpg",
      "imageDesktop": "/sites/globe.com.ph/files/content/dam/globe/brie/AboutUs/newsroom/common/default-business-1/default-business-1-primary-thumbnail-d.jpg",
      "description": "ECPay , the multi-payment platform of Globe, posted over 450K increase in digital merchant partners as more Filipinos transitioned to digital channels.",
      "datePosted": "Jun 02, 2023 | 11:49 AM",
      "titleFromTag": "Corporate"
    },
    {
      "title": "Globe Backs Creation of Connectivity Index Rating in PH, Expresses Readiness to Work with Government",
      "nonclickable": false,
      "openNewTab": false,
      "borderArticle": "border-color:#0074D9;",
      "borderTopArticle": "border-top-color:#0074D9;",
      "imageListing": "/sites/globe.com.ph/files/content/dam/globe/brie/AboutUs/newsroom/common/default-corporate-main/newsroom-default-corporate-thumbnail-listing.jpg",
      "articleUrl": "https://www.globe.com.ph/about-us/newsroom/corporate/creation-connectivity-index-rating-ph.html",
      "columnType": "articles--type-3",
      "typeListing": "article",
      "imageMobile": "/sites/globe.com.ph/files/content/dam/globe/brie/AboutUs/newsroom/common/default-corporate-main/newsroom-default-corporate-primary-thumbnail-m.jpg",
      "imageDesktop": "/sites/globe.com.ph/files/content/dam/globe/brie/AboutUs/newsroom/common/default-corporate-main/newsroom-default-corporate-primary-thumbnail-d.jpg",
      "description": "Globe supports calls for the establishment of a national Connectivity Index Rating, which sets a standard for internet quality.",
      "datePosted": "Jun 01, 2023 | 10:16 AM",
      "titleFromTag": "Corporate"
    },
    {
      "title": "ABSI Sets Sights on Becoming Shared Services and Outsourcing Arm of Globe and Ayala Groups",
      "nonclickable": false,
      "openNewTab": false,
      "borderArticle": "border-color:#0074D9;",
      "borderTopArticle": "border-top-color:#0074D9;",
      "imageListing": "/sites/globe.com.ph/files/content/dam/globe/brie/AboutUs/newsroom/common/default-corporate-tech-3/newsroom-corporate-tech-3-thumbnail-listing.jpg",
      "articleUrl": "https://www.globe.com.ph/about-us/newsroom/partners/absi-sets-sights-becoming-outsourcing-arm-ayala-groups.html",
      "columnType": "articles--type-3",
      "typeListing": "article",
      "imageMobile": "/sites/globe.com.ph/files/content/dam/globe/brie/AboutUs/newsroom/common/default-corporate-tech-3/newsroom-corporate-tech-3-primary-thumbnail-m.jpg",
      "imageDesktop": "/sites/globe.com.ph/files/content/dam/globe/brie/AboutUs/newsroom/common/default-corporate-tech-3/newsroom-corporate-tech-3-primary-thumbnail-d.jpg",
      "description": "ABSI  is setting its sights on becoming the tech-enabled shared services and outsourcing arm of the Globe and Ayala groups. ",
      "datePosted": "May 31, 2023 | 05:44 PM",
      "titleFromTag": "Partners"
    },
    {
      "title": "Globe Cements Partnership with AcadArena, Kicks it Off with Conquest 2023",
      "nonclickable": false,
      "openNewTab": false,
      "borderArticle": "border-color:#0074D9;",
      "borderTopArticle": "border-top-color:#0074D9;",
      "imageListing": "/sites/globe.com.ph/files/content/dam/globe/brie/AboutUs/newsroom/common/default-event-1/Newsroom-Event-Default-Images-Live-Concert-1-thumbnail-listing.jpg",
      "articleUrl": "https://www.globe.com.ph/about-us/newsroom/consumer/partnership-with-acadarena.html",
      "columnType": "articles--type-3",
      "typeListing": "article",
      "imageMobile": "/sites/globe.com.ph/files/content/dam/globe/brie/AboutUs/newsroom/common/default-event-1/Newsroom-Event-Default-Images-Live-Concert-1-primary-thumbnail-m.jpg",
      "imageDesktop": "/sites/globe.com.ph/files/content/dam/globe/brie/AboutUs/newsroom/common/default-event-1/Newsroom-Event-Default-Images-Live-Concert-1-primary-thumbnail-d.jpg",
      "description": "Globe levels up its stake in the gaming world through its partnership with AcadArena. ",
      "datePosted": "May 31, 2023 | 04:48 PM",
      "titleFromTag": "Consumer"
    },
    {
      "title": "Energy, Wellness, Innovation Mark KonsultaMD SuperApp Launch at  #IWantToBeHere ColorFest Run",
      "nonclickable": false,
      "openNewTab": false,
      "borderArticle": "border-color:#0074D9;",
      "borderTopArticle": "border-top-color:#0074D9;",
      "imageListing": "/sites/globe.com.ph/files/content/dam/globe/brie/About-us/Newsroom/image/Consumer/053123/thumbnail-listing.jpg",
      "articleUrl": "https://www.globe.com.ph/about-us/newsroom/consumer/konsultamd-superapp-launch-iwanttobehere-colorfest-run.html",
      "columnType": "articles--type-3",
      "typeListing": "article",
      "imageMobile": "/sites/globe.com.ph/files/content/dam/globe/brie/About-us/Newsroom/image/Consumer/053123/primary-thumbnail-m.jpg",
      "imageDesktop": "/sites/globe.com.ph/files/content/dam/globe/brie/About-us/Newsroom/image/Consumer/053123/primary-thumbnail-d.jpg",
      "description": "KonsultaMD SuperApp was successfully launched at the highly-successful #IWantToBeHere ColorFest Manila. ",
      "datePosted": "May 31, 2023 | 03:30 PM",
      "titleFromTag": "Consumer"
    },
    {
      "title": "Globe Earns Recognition as Climate Leader in Asia-Pacific for Second Year in a Row",
      "nonclickable": false,
      "openNewTab": false,
      "borderArticle": "border-color:#0074D9;",
      "borderTopArticle": "border-top-color:#0074D9;",
      "imageListing": "/sites/globe.com.ph/files/content/dam/globe/brie/AboutUs/newsroom/common/default-sustainability-3/corp-default-images-thumbnail-listing.jpg",
      "articleUrl": "https://www.globe.com.ph/about-us/newsroom/sustainability/climate-leader-asia-pacific-second-year.html",
      "columnType": "articles--type-3",
      "typeListing": "article",
      "imageMobile": "/sites/globe.com.ph/files/content/dam/globe/brie/AboutUs/newsroom/common/default-sustainability-3/corp-default-images-primary-thumbnail-m.jpg",
      "imageDesktop": "/sites/globe.com.ph/files/content/dam/globe/brie/AboutUs/newsroom/common/default-sustainability-3/corp-default-images-primary-thumbnail-d.jpg",
      "description": "For two consecutive years, leading digital solutions platform Globe has been recognized as one of Asia Pacific’s Climate Leaders.",
      "datePosted": "May 31, 2023 | 03:04 PM",
      "titleFromTag": "Sustainability"
    },
    {
      "title": "Globe, Home Credit Collaborate to Combat Financial Scams ",
      "nonclickable": false,
      "openNewTab": false,
      "borderArticle": "border-color:#0074D9;",
      "borderTopArticle": "border-top-color:#0074D9;",
      "imageListing": "/sites/globe.com.ph/files/content/dam/globe/brie/AboutUs/newsroom/common/default-total-globe-1/default-1-total-globe-thumbnail-listing.jpg",
      "articleUrl": "https://www.globe.com.ph/about-us/newsroom/corporate/globe-home-credit-combat-financial-scams.html",
      "columnType": "articles--type-3",
      "typeListing": "article",
      "imageMobile": "/sites/globe.com.ph/files/content/dam/globe/brie/AboutUs/newsroom/common/default-total-globe-1/default-1-total-globe-primary-thumbnail-m.jpg",
      "imageDesktop": "/sites/globe.com.ph/files/content/dam/globe/brie/AboutUs/newsroom/common/default-total-globe-1/default-1-total-globe-primary-thumbnail-d.jpg",
      "description": "Globe reaffirmed its dedication to fighting financial spam & scams by entering into an agreement with Home Credit, a consumer finance firm in the Philippines.",
      "datePosted": "May 31, 2023 | 03:03 PM",
      "titleFromTag": "Corporate"
    },
    {
      "title": "On World Hunger Day, Globe Kicks off Its Culinary Crusade against Hunger with Longest Hapag Food Festival Series",
      "nonclickable": false,
      "openNewTab": false,
      "borderArticle": "border-color:#0074D9;",
      "borderTopArticle": "border-top-color:#0074D9;",
      "imageListing": "/sites/globe.com.ph/files/content/dam/globe/brie/AboutUs/newsroom/sustainability/join-the-hapag-movement/Newsroom-sustainability-hapag-movement-relieve-hunger-thumbnail-listing.jpg",
      "articleUrl": "https://www.globe.com.ph/about-us/newsroom/corporate/longest-hapag-food-festival-series.html",
      "columnType": "articles--type-3",
      "typeListing": "article",
      "imageMobile": "/sites/globe.com.ph/files/content/dam/globe/brie/AboutUs/newsroom/sustainability/join-the-hapag-movement/newsroom-sustainability-hapag-movement-relieve-hunger-primary-thumbnail-m5.jpg",
      "imageDesktop": "/sites/globe.com.ph/files/content/dam/globe/brie/AboutUs/newsroom/sustainability/join-the-hapag-movement/Newsroom-sustainability-hapag-movement-relieve-hunger-primary-thumbnail-d.jpg",
      "description": "Standing firm against hunger, Globe launches the Longest Hapag—a five-month nationwide food festival series.",
      "datePosted": "May 31, 2023 | 03:00 PM",
      "titleFromTag": "Corporate"
    },
    {
      "title": "Globe Prepares Network, Personnel for Powerful Typhoon Mawar",
      "nonclickable": false,
      "openNewTab": false,
      "borderArticle": "border-color:#1C91C5;",
      "borderTopArticle": "border-top-color:#1C91C5;",
      "imageListing": "/sites/globe.com.ph/files/content/dam/globe/brie/AboutUs/newsroom/corporate/peparation-network-personnel-mawar/corp-listing-thumbnail.jpg",
      "articleUrl": "https://www.globe.com.ph/about-us/newsroom/corporate/preparation-network-personnel-mawar.html",
      "columnType": "articles--type-3",
      "typeListing": "article",
      "imageMobile": "/sites/globe.com.ph/files/content/dam/globe/brie/AboutUs/newsroom/corporate/peparation-network-personnel-mawar/corp-primary-banner-m.jpg",
      "imageDesktop": "/sites/globe.com.ph/files/content/dam/globe/brie/AboutUs/newsroom/corporate/peparation-network-personnel-mawar/corp-primary-thumbnail.jpg",
      "description": "Globe has initiated preparations of its network and personnel to brace for the potential impact of weather system Mawar.",
      "datePosted": "May 31, 2023 | 02:52 PM",
      "titleFromTag": "Corporate"
    },
    {
      "title": "FINSI's Quality Training Programs and People-Centered Initiatives Recognized at the 2023 Asian Telecom Awards",
      "nonclickable": false,
      "openNewTab": false,
      "borderArticle": "border-color:#0074D9;",
      "borderTopArticle": "border-top-color:#0074D9;",
      "imageListing": "/sites/globe.com.ph/files/content/dam/globe/brie/About-us/Newsroom/image/Partners/053123/thumbnail-listing.jpg",
      "articleUrl": "https://www.globe.com.ph/about-us/newsroom/partners/finsi-2023-asian-telecom-awards.html",
      "columnType": "articles--type-3",
      "typeListing": "article",
      "imageMobile": "/sites/globe.com.ph/files/content/dam/globe/brie/About-us/Newsroom/image/Partners/053123/primary-thumbnail-m.jpg",
      "imageDesktop": "/sites/globe.com.ph/files/content/dam/globe/brie/About-us/Newsroom/image/Partners/053123/primary-thumbnail-d.jpg",
      "description": "Fiber Infrastructure and Network Services Inc. (FINSI), a subsidiary of the Asticom Group of Companies, was recognized at the recent 2023 Asian Telecom Awards.",
      "datePosted": "May 31, 2023 | 02:44 PM",
      "titleFromTag": "Partners"
    },
    {
      "title": "Globe Leads 5G Speeds in Key Mindanao Cities",
      "nonclickable": false,
      "openNewTab": false,
      "borderArticle": "border-color:#0074D9;",
      "borderTopArticle": "border-top-color:#0074D9;",
      "imageListing": "/sites/globe.com.ph/files/content/dam/globe/brie/AboutUs/newsroom/common/default-corporate-main/newsroom-default-corporate-thumbnail-listing.jpg",
      "articleUrl": "https://www.globe.com.ph/about-us/newsroom/corporate/globe-leads-5g-speeds-key-mindanao-cities.html",
      "columnType": "articles--type-3",
      "typeListing": "article",
      "imageMobile": "/sites/globe.com.ph/files/content/dam/globe/brie/AboutUs/newsroom/common/default-corporate-main/newsroom-default-corporate-primary-thumbnail-m.jpg",
      "imageDesktop": "/sites/globe.com.ph/files/content/dam/globe/brie/AboutUs/newsroom/common/default-corporate-main/newsroom-default-corporate-primary-thumbnail-d.jpg",
      "description": "Globe dominated major areas in Mindanao in terms of 5G speeds.",
      "datePosted": "May 31, 2023 | 01:53 PM",
      "titleFromTag": "Corporate"
    },
    {
      "title": "Globe Builds 220 New Towers, Upgrades over 3K Mobile Sites to LTE in Q1",
      "nonclickable": false,
      "openNewTab": false,
      "borderArticle": "border-color:#1C91C5;",
      "borderTopArticle": "border-top-color:#1C91C5;",
      "imageListing": "/sites/globe.com.ph/files/content/dam/globe/brie/AboutUs/newsroom/corporate/globe-completes-sites-upgrades/corporate-default-6-thumbnail-listing.jpg",
      "articleUrl": "https://www.globe.com.ph/about-us/newsroom/corporate/220-new-towers-upgrades-over-3k-mobile-sites-lte.html",
      "columnType": "articles--type-3",
      "typeListing": "article",
      "imageMobile": "/sites/globe.com.ph/files/content/dam/globe/brie/AboutUs/newsroom/corporate/globe-completes-sites-upgrades/corporate-default-6-primary-thumbnail-m.jpg",
      "imageDesktop": "/sites/globe.com.ph/files/content/dam/globe/brie/AboutUs/newsroom/corporate/globe-completes-sites-upgrades/corporate-default-6-primary-thumbnail-d.jpg",
      "description": "Globe built 220 new cell towers and upgraded over 3,000  mobile sites to LTE in Q1  of the year to meet the dynamic and evolving needs of its customers.",
      "datePosted": "May 31, 2023 | 09:31 AM",
      "titleFromTag": "Corporate"
    }
  ]
}
