{
  "status": 200,
  "page": 230,
  "totalPage": 298,
  "range": "2749-2760",
  "total": 3573,
  "result": [
    {
      "title": "Globe Media Advisory",
      "nonclickable": false,
      "openNewTab": false,
      "borderArticle": "border-color:#0074D9;",
      "borderTopArticle": "border-top-color:#0074D9;",
      "imageListing": "/sites/globe.com.ph/files/content/dam/globe/brie/About-us/Newsroom/image/Corporate/08092018925AM/Corporate_Globe_Listing.jpg",
      "articleUrl": "https://www.globe.com.ph/about-us/newsroom/corporate/globe-media-advisory-for-sona-2018.html",
      "columnType": "articles--type-3",
      "typeListing": "article",
      "imageMobile": "/sites/globe.com.ph/files/content/dam/globe/brie/About-us/Newsroom/image/Corporate/08092018925AM/Corporate_Globe_Hero-Banner-Mobile.jpg",
      "imageDesktop": "/sites/globe.com.ph/files/content/dam/globe/brie/About-us/Newsroom/image/Corporate/08092018925AM/Corporate_Globe_Primary-Desktop-Thumbnail.jpg",
      "description": "Globe Media Advisory: NTC directive for Temporary Suspension of Network Services for SONA 2018. Visit the Globe Newsroom for the latest news on Globe Telecom.",
      "datePosted": "Jul 23, 2018 | 12:47 PM",
      "titleFromTag": "Corporate"
    },
    {
      "title": "Globe, Partners Start Long-Term Boracay Conservation Drive",
      "nonclickable": false,
      "openNewTab": false,
      "borderArticle": "border-color:#0074D9;",
      "borderTopArticle": "border-top-color:#0074D9;",
      "imageListing": "/sites/globe.com.ph/files/content/dam/globe/brie/About-us/Newsroom/image/Sustainability/08082018401PM/sustainability-partners-longterm-conservation-thumbnail-listing.jpg",
      "articleUrl": "https://www.globe.com.ph/about-us/newsroom/sustainability/globe-partners-start-long-term-boracay-conservation-drive.html",
      "columnType": "articles--type-3",
      "typeListing": "article",
      "imageMobile": "/sites/globe.com.ph/files/content/dam/globe/brie/About-us/Newsroom/image/Sustainability/08082018401PM/sustainability-partners-longterm-conservation-banner-m.jpg",
      "imageDesktop": "/sites/globe.com.ph/files/content/dam/globe/brie/About-us/Newsroom/image/Sustainability/08082018401PM/sustainability-partners-longterm-conservation-banner-d.jpg",
      "description": "Globe, Partners Start Long-Term Boracay Conservation Drive. Visit the Globe Newsroom for the latest news on Globe Telecom.",
      "datePosted": "Jul 20, 2018 | 11:38 AM",
      "titleFromTag": "Sustainability"
    },
    {
      "title": "The Rise of Voice: Globe Labs, Nexmo Team Up to Deliver Powerful Voice Solutions to SEA Market",
      "nonclickable": false,
      "openNewTab": false,
      "borderArticle": "border-color:#0074D9;",
      "borderTopArticle": "border-top-color:#0074D9;",
      "imageListing": "/sites/globe.com.ph/files/content/dam/globe/brie/AboutUs/newsroom/consumer/08082018/consumer-globe-labs-nexmo-thumbnail-listing.png",
      "articleUrl": "https://www.globe.com.ph/about-us/newsroom/consumer/the-rise-of-voice-globe-labs-nexmo-team-up-for-powerful-voice-solutions.html",
      "columnType": "articles--type-3",
      "typeListing": "article",
      "imageMobile": "/sites/globe.com.ph/files/content/dam/globe/brie/AboutUs/newsroom/consumer/08082018/consumer-globe-labs-nexmo-banner-m.png",
      "imageDesktop": "/sites/globe.com.ph/files/content/dam/globe/brie/AboutUs/newsroom/consumer/08082018/consumer-globe-labs-nexmo-primary-thumbnail.png",
      "description": "The Rise of Voice: Globe Labs, Nexmo Team Up to Deliver Powerful Voice Solutions to SEA Market. Visit the Globe Newsroom for the latest news on Globe Telecom.",
      "datePosted": "Jul 19, 2018 | 03:09 PM",
      "titleFromTag": "Consumer"
    },
    {
      "title": "Globe Intensifies Disaster Preparedness Campaign",
      "nonclickable": false,
      "openNewTab": false,
      "borderArticle": "border-color:#0074D9;",
      "borderTopArticle": "border-top-color:#0074D9;",
      "imageListing": "/sites/globe.com.ph/files/content/dam/globe/brie/About-us/Newsroom/image/Corporate/08092018910AM/corporate--disaster-preparedness-campaign-thumbnail-listing.jpg",
      "articleUrl": "https://www.globe.com.ph/about-us/newsroom/corporate/globe-intensifies-disaster-preparedness-campaign.html",
      "columnType": "articles--type-3",
      "typeListing": "article",
      "imageMobile": "/sites/globe.com.ph/files/content/dam/globe/brie/About-us/Newsroom/image/Corporate/08092018910AM/corporate--disaster-preparedness-campaign-banner-m.jpg",
      "imageDesktop": "/sites/globe.com.ph/files/content/dam/globe/brie/About-us/Newsroom/image/Corporate/08092018910AM/corporate--disaster-preparedness-campaign-primary-thumbnail.jpg",
      "description": "Globe Intensifies Disaster Preparedness Campaign. Visit the Globe Newsroom for the latest news on Globe Telecom.",
      "datePosted": "Jul 18, 2018 | 03:11 PM",
      "titleFromTag": "Corporate"
    },
    {
      "title": "Globe Telecom Says Third Player to Benefit Consumers",
      "nonclickable": false,
      "openNewTab": false,
      "borderArticle": "border-color:#0074D9;",
      "borderTopArticle": "border-top-color:#0074D9;",
      "imageListing": "/sites/globe.com.ph/files/content/dam/globe/brie/AboutUs/newsroom/common/Corporate_Globe_Listing.jpg",
      "articleUrl": "https://www.globe.com.ph/about-us/newsroom/corporate/globe-telecom-says-third-player-to-benefit-consumers.html",
      "columnType": "articles--type-3",
      "typeListing": "article",
      "imageMobile": "/sites/globe.com.ph/files/content/dam/globe/brie/AboutUs/newsroom/common/Corporate_Globe_Hero-Banner-Mobile.jpg",
      "imageDesktop": "/sites/globe.com.ph/files/content/dam/globe/brie/AboutUs/newsroom/common/Corporate_Globe_Primary-Desktop-Thumbnail.jpg",
      "description": "Globe Telecom Says Third Player to Benefit Consumers. Visit the Globe Newsroom for the latest news on Globe Telecom.",
      "datePosted": "Jul 18, 2018 | 02:12 PM",
      "titleFromTag": "Corporate"
    },
    {
      "title": "Globe and Viu Bring Filipinos Closer to their Favorite Koreanovelas",
      "nonclickable": false,
      "openNewTab": false,
      "borderArticle": "border-color:#0074D9;",
      "borderTopArticle": "border-top-color:#0074D9;",
      "imageListing": "/sites/globe.com.ph/files/content/dam/globe/brie/AboutUs/newsroom/consumer/08082018/consumer-globe-at-home-viu-thumbnail-listing.png",
      "articleUrl": "https://www.globe.com.ph/about-us/newsroom/consumer/globe-and-viu-bring-filipinos-closer-to-koreanovelas.html",
      "columnType": "articles--type-3",
      "typeListing": "article",
      "imageMobile": "/sites/globe.com.ph/files/content/dam/globe/brie/AboutUs/newsroom/consumer/08082018/consumer-globe-at-home-viu-banner-m.png",
      "imageDesktop": "/sites/globe.com.ph/files/content/dam/globe/brie/AboutUs/newsroom/consumer/08082018/consumer-globe-at-home-viu-primary-thumbnail.png",
      "description": "Globe and Viu Bring Filipinos Closer to their Favorite Koreanovelas. Visit the Globe Newsroom for the latest news on Globe Telecom.",
      "datePosted": "Jul 17, 2018 | 01:37 PM",
      "titleFromTag": "Consumer"
    },
    {
      "title": "Globe myBusiness Empowers Bruno’s Barbers with GCash",
      "nonclickable": false,
      "openNewTab": false,
      "borderArticle": "border-color:#0074D9;",
      "borderTopArticle": "border-top-color:#0074D9;",
      "imageListing": "/sites/globe.com.ph/files/content/dam/globe/brie/About-us/Newsroom/image/Partners/08072018539PM/partners-mybusiness-brunos-gcash-primary-thumbnail.jpg",
      "articleUrl": "https://www.globe.com.ph/about-us/newsroom/partners/globe-mybusiness-empowers-brunos-barbers-with-gcash.html",
      "columnType": "articles--type-3",
      "typeListing": "article",
      "imageMobile": "/sites/globe.com.ph/files/content/dam/globe/brie/About-us/Newsroom/image/Partners/08072018539PM/partners-mybusiness-brunos-gcash-banner-m.jpg",
      "imageDesktop": "/sites/globe.com.ph/files/content/dam/globe/brie/About-us/Newsroom/image/Partners/08072018539PM/partners-mybusiness-brunos-gcash-primary-thumbnail.jpg",
      "description": "Globe myBusiness Empowers Bruno’s Barbers with GCash. Visit the Globe Newsroom for the latest news on Globe Telecom.",
      "datePosted": "Jul 17, 2018 | 01:29 PM",
      "titleFromTag": "Partners"
    },
    {
      "title": "Globe Hints at Strategy to Win in the New Competitive Landscape",
      "nonclickable": false,
      "openNewTab": false,
      "borderArticle": "border-color:#0074D9;",
      "borderTopArticle": "border-top-color:#0074D9;",
      "imageListing": "/sites/globe.com.ph/files/content/dam/globe/brie/AboutUs/newsroom/common/Corporate_Globe_Listing.jpg",
      "articleUrl": "https://www.globe.com.ph/about-us/newsroom/corporate/globe-hints-at-strategy-to-win-in-the-new-competitive-landscape.html",
      "columnType": "articles--type-3",
      "typeListing": "article",
      "imageMobile": "/sites/globe.com.ph/files/content/dam/globe/brie/AboutUs/newsroom/common/Corporate_Globe_Hero-Banner-Mobile.jpg",
      "imageDesktop": "/sites/globe.com.ph/files/content/dam/globe/brie/AboutUs/newsroom/common/Corporate_Globe_Primary-Desktop-Thumbnail.jpg",
      "description": "Globe Hints at Strategy to Win in the New Competitive Landscape. Visit the Globe Newsroom for the latest news on Globe Telecom.",
      "datePosted": "Jul 17, 2018 | 01:19 PM",
      "titleFromTag": "Corporate"
    },
    {
      "title": "Get Globe Rewards for Sharing an Act of Kindness",
      "nonclickable": false,
      "openNewTab": false,
      "borderArticle": "border-color:#0074D9;",
      "borderTopArticle": "border-top-color:#0074D9;",
      "imageListing": "/sites/globe.com.ph/files/content/dam/globe/brie/About-us/Newsroom/image/Sustainability/08082018322PM/Corporate_Globe_Listing.jpg",
      "articleUrl": "https://www.globe.com.ph/about-us/newsroom/sustainability/get-globe-rewards-for-sharing-an-act-of-kindness.html",
      "columnType": "articles--type-3",
      "typeListing": "article",
      "imageMobile": "/sites/globe.com.ph/files/content/dam/globe/brie/About-us/Newsroom/image/Sustainability/08082018322PM/Corporate_Globe_Hero-Banner-Mobile.jpg",
      "imageDesktop": "/sites/globe.com.ph/files/content/dam/globe/brie/About-us/Newsroom/image/Sustainability/08082018322PM/Corporate_Globe_Primary-Desktop-Thumbnail.jpg",
      "description": "Get Globe Rewards for Sharing an Act of Kindness. Visit the Globe Newsroom for the latest news on Globe Telecom.",
      "datePosted": "Jul 16, 2018 | 04:07 PM",
      "titleFromTag": "Sustainability"
    },
    {
      "title": "AFP Arm Supports Nationwide Volunteering Program of Globe, Disney",
      "nonclickable": false,
      "openNewTab": false,
      "borderArticle": "border-color:#0074D9;",
      "borderTopArticle": "border-top-color:#0074D9;",
      "imageListing": "/sites/globe.com.ph/files/content/dam/globe/brie/About-us/Newsroom/image/Sustainability/08082018346PM/Corporate_Globe_Listing.jpg",
      "articleUrl": "https://www.globe.com.ph/about-us/newsroom/sustainability/afp-arm-supports-nationwide-volunteering-program-of-globe-disney.html",
      "columnType": "articles--type-3",
      "typeListing": "article",
      "imageMobile": "/sites/globe.com.ph/files/content/dam/globe/brie/About-us/Newsroom/image/Sustainability/08082018346PM/Corporate_Globe_Hero-Banner-Mobile.jpg",
      "imageDesktop": "/sites/globe.com.ph/files/content/dam/globe/brie/About-us/Newsroom/image/Sustainability/08082018346PM/Corporate_Globe_Primary-Desktop-Thumbnail.jpg",
      "description": "AFP Arm Supports Nationwide Volunteering Program of Globe, Disney. Visit the Globe Newsroom for the latest news on Globe Telecom.",
      "datePosted": "Jul 16, 2018 | 04:07 PM",
      "titleFromTag": "Sustainability"
    },
    {
      "title": "DepEd to Include Globe Digital Thumbprint Program in Public School Curriculum",
      "nonclickable": false,
      "openNewTab": false,
      "borderArticle": "border-color:#0074D9;",
      "borderTopArticle": "border-top-color:#0074D9;",
      "imageListing": "/sites/globe.com.ph/files/content/dam/globe/brie/AboutUs/newsroom/common/Corporate_Globe_Listing.jpg",
      "articleUrl": "https://www.globe.com.ph/about-us/newsroom/sustainability/deped-to-include-globe-digital-thumbprint-program-in-public-school-curriculum.html",
      "columnType": "articles--type-3",
      "typeListing": "article",
      "imageMobile": "/sites/globe.com.ph/files/content/dam/globe/brie/AboutUs/newsroom/common/Corporate_Globe_Hero-Banner-Mobile.jpg",
      "imageDesktop": "/sites/globe.com.ph/files/content/dam/globe/brie/AboutUs/newsroom/common/Corporate_Globe_Primary-Desktop-Thumbnail.jpg",
      "description": "DepEd to Include Globe Digital Thumbprint Program in Public School Curriculum. Visit the Globe Newroom for the latest news on Globe Telecom.",
      "datePosted": "Jul 13, 2018 | 03:56 PM",
      "titleFromTag": "Sustainability"
    },
    {
      "title": "Wanna One Returns to Manila! Globe Gives PH Wannables a Chance for First Dibs on Tickets",
      "nonclickable": false,
      "openNewTab": false,
      "borderArticle": "border-color:#0074D9;",
      "borderTopArticle": "border-top-color:#0074D9;",
      "imageListing": "/sites/globe.com.ph/files/content/dam/globe/brie/AboutUs/newsroom/consumer/08082018/consumer-wanna-one-thumbnail-listing.png",
      "articleUrl": "https://www.globe.com.ph/about-us/newsroom/consumer/globe-gives-first-dibs-on-wanna-one-tickets.html",
      "columnType": "articles--type-3",
      "typeListing": "article",
      "imageMobile": "/sites/globe.com.ph/files/content/dam/globe/brie/AboutUs/newsroom/consumer/08082018/consumer-wanna-one-banner-m.png",
      "imageDesktop": "/sites/globe.com.ph/files/content/dam/globe/brie/AboutUs/newsroom/consumer/08082018/consumer-wanna-one-primary-thumbnail.png",
      "description": "Wanna One Returns to Manila! Globe Gives PH Wannables a Chance for First Dibs on Tickets. Visit the Globe Newsroom for the latest news on Globe Telecom.",
      "datePosted": "Jul 13, 2018 | 11:57 AM",
      "titleFromTag": "Consumer"
    }
  ]
}
