{
  "status": 200,
  "page": 231,
  "totalPage": 298,
  "range": "2761-2772",
  "total": 3573,
  "result": [
    {
      "title": "Globe myBusiness Prepares Rural Bankers towards a More Tech-Savvy Future",
      "nonclickable": false,
      "openNewTab": false,
      "borderArticle": "border-color:#0074D9;",
      "borderTopArticle": "border-top-color:#0074D9;",
      "imageListing": "/sites/globe.com.ph/files/content/dam/globe/brie/AboutUs/newsroom/business/080082018/business-globe-mybusiness-sme-thumbnail-listing.png",
      "articleUrl": "https://www.globe.com.ph/about-us/newsroom/business/globe-mybusiness-prepares-rural-bankers-towards-a-more-tech-savvy-future.html",
      "columnType": "articles--type-3",
      "typeListing": "article",
      "imageMobile": "/sites/globe.com.ph/files/content/dam/globe/brie/AboutUs/newsroom/business/080082018/business-globe-mybusiness-smee-banner-m.png",
      "imageDesktop": "/sites/globe.com.ph/files/content/dam/globe/brie/AboutUs/newsroom/business/080082018/business-globe-mybusiness-sme-primary-thumbnail.png",
      "description": "Globe myBusiness Prepares Rural Bankers towards a More Tech-Savvy Future. Visit the Globe Newsroom for the latest news on Globe Telecom.",
      "datePosted": "Jul 13, 2018 | 11:35 AM",
      "titleFromTag": "Business"
    },
    {
      "title": "AdSpark Strengthens Digital Agency Capabilities through New Leadership",
      "nonclickable": false,
      "openNewTab": false,
      "borderArticle": "border-color:#0074D9;",
      "borderTopArticle": "border-top-color:#0074D9;",
      "imageListing": "/sites/globe.com.ph/files/content/dam/globe/brie/About-us/Newsroom/image/Partners/08072018426PM/partners-adspark-strengthens-digital-thumbnail-listing.jpg",
      "articleUrl": "https://www.globe.com.ph/about-us/newsroom/partners/adspark-strengthens-capabilities-with-new-leadership.html",
      "columnType": "articles--type-3",
      "typeListing": "article",
      "imageMobile": "/sites/globe.com.ph/files/content/dam/globe/brie/About-us/Newsroom/image/Partners/08072018426PM/partners-adspark-strengthens-digital-banner-m.jpg",
      "imageDesktop": "/sites/globe.com.ph/files/content/dam/globe/brie/About-us/Newsroom/image/Partners/08072018426PM/partners-adspark-strengthens-digital-primary-thumbnail.jpg",
      "description": "AdSpark Strengthens Digital Agency Capabilities through New Leadership. Visit the Globe Newsroom for the latest news on Globe Telecom.",
      "datePosted": "Jul 13, 2018 | 11:23 AM",
      "titleFromTag": "Partners"
    },
    {
      "title": "Birdshot Bags Three Major Awards at the Eddys",
      "nonclickable": false,
      "openNewTab": false,
      "borderArticle": "border-color:#0074D9;",
      "borderTopArticle": "border-top-color:#0074D9;",
      "imageListing": "/sites/globe.com.ph/files/content/dam/globe/brie/AboutUs/newsroom/consumer/08082018/consumer-birdshot--thumbnail-listing.png",
      "articleUrl": "https://www.globe.com.ph/about-us/newsroom/consumer/birdshot-bags-three-major-awards-at-the-eddys.html",
      "columnType": "articles--type-3",
      "typeListing": "article",
      "imageMobile": "/sites/globe.com.ph/files/content/dam/globe/brie/AboutUs/newsroom/consumer/08082018/consumer-birdshot--banner-m.png",
      "imageDesktop": "/sites/globe.com.ph/files/content/dam/globe/brie/AboutUs/newsroom/consumer/08082018/consumer-birdshot-primary-thumbnail.png",
      "description": "Birdshot Bags Three Major Awards at the Eddys. Visit the Globe Newsroom for the latest news on Globe Telecom.",
      "datePosted": "Jul 12, 2018 | 01:41 PM",
      "titleFromTag": "Consumer"
    },
    {
      "title": "#HowToGlobe: Find Out if Your SIM is LTE-ready!",
      "nonclickable": false,
      "openNewTab": false,
      "borderArticle": "border-color:#0074D9;",
      "borderTopArticle": "border-top-color:#0074D9;",
      "imageListing": "/sites/globe.com.ph/files/content/dam/globe/brie/About-us/Newsroom/image/Sustainability/080820181109AM/sustainability-sim-lte-telecom-thumbnail-listing.jpg",
      "articleUrl": "https://www.globe.com.ph/about-us/newsroom/sustainability/howtoglobe-find-out-if-your-sim-is-lte-ready.html",
      "columnType": "articles--type-3",
      "typeListing": "article",
      "imageMobile": "/sites/globe.com.ph/files/content/dam/globe/brie/About-us/Newsroom/image/Sustainability/080820181109AM/sustainability-sim-lte-telecom-banner-m.jpg",
      "imageDesktop": "/sites/globe.com.ph/files/content/dam/globe/brie/About-us/Newsroom/image/Sustainability/080820181109AM/sustainability-sim-lte-telecom-primary-thumbnail.jpg",
      "description": "#HowToGlobe: Find Out if Your SIM is LTE-ready! Visit the Globe Newroom for the latest news on Globe Telecom.",
      "datePosted": "Jul 11, 2018 | 01:26 PM",
      "titleFromTag": "Sustainability"
    },
    {
      "title": "Globe Nominated Among the Top Workplaces in Asia in ACES 2018",
      "nonclickable": false,
      "openNewTab": false,
      "borderArticle": "border-color:#0074D9;",
      "borderTopArticle": "border-top-color:#0074D9;",
      "imageListing": "/sites/globe.com.ph/files/content/dam/globe/brie/AboutUs/newsroom/business/08092018918AM/corporate-globe-aces-2018-thumbnail-listing.jpg",
      "articleUrl": "https://www.globe.com.ph/about-us/newsroom/corporate/globe-nominated-among-the-top-workplaces-in-asia-in-aces-2018.html",
      "columnType": "articles--type-3",
      "typeListing": "article",
      "imageMobile": "/sites/globe.com.ph/files/content/dam/globe/brie/AboutUs/newsroom/business/08092018918AM/corporate-globe-aces-2018le-banner-m.jpg",
      "imageDesktop": "/sites/globe.com.ph/files/content/dam/globe/brie/AboutUs/newsroom/business/08092018918AM/corporate-globe-aces-2018-primary-thumbnail.jpg",
      "description": "Globe Nominated Among the Top Workplaces in Asia in ACES 2018. Visit the Globe Newsroom for the latest news on Globe Telecom.",
      "datePosted": "Jul 11, 2018 | 01:17 PM",
      "titleFromTag": "Corporate"
    },
    {
      "title": "Suit Up for Marvel Studios’ Ant-Man and The Wasp, Brought to You by Globe!",
      "nonclickable": false,
      "openNewTab": false,
      "borderArticle": "border-color:#0074D9;",
      "borderTopArticle": "border-top-color:#0074D9;",
      "imageListing": "/sites/globe.com.ph/files/content/dam/globe/brie/AboutUs/newsroom/consumer/08082018/consumer-marvel-studios-antman-thumbnail-listing.jpg",
      "articleUrl": "https://www.globe.com.ph/about-us/newsroom/consumer/suit-up-for-marvel-studios-ant-man-and-the-wasp-brought-to-you-by-globe.html",
      "columnType": "articles--type-3",
      "typeListing": "article",
      "imageMobile": "/sites/globe.com.ph/files/content/dam/globe/brie/AboutUs/newsroom/consumer/08082018/consumer-marvel-studios-antman-banner-m.jpg",
      "imageDesktop": "/sites/globe.com.ph/files/content/dam/globe/brie/AboutUs/newsroom/consumer/08082018/consumer-marvel-studios-antman-primary-thumbnail.jpg",
      "description": "Suit Up for Marvel Studios’ Ant-Man and The Wasp, Brought to You by Globe!. Visit the Globe Newsroom for the latest news on Globe Telecom.",
      "datePosted": "Jul 10, 2018 | 01:18 PM",
      "titleFromTag": "Consumer"
    },
    {
      "title": "GCash Leads Mobile Financial Services Revolution in PH",
      "nonclickable": false,
      "openNewTab": false,
      "borderArticle": "border-color:#0074D9;",
      "borderTopArticle": "border-top-color:#0074D9;",
      "imageListing": "/sites/globe.com.ph/files/content/dam/globe/brie/About-us/Newsroom/image/Partners/08072018243PM/partners-gcash-leads-mobile-thumbnail-listing.jpg",
      "articleUrl": "https://www.globe.com.ph/about-us/newsroom/partners/gcash-leads-mobile-financial-services-revolution-in-ph.html",
      "columnType": "articles--type-3",
      "typeListing": "article",
      "imageMobile": "/sites/globe.com.ph/files/content/dam/globe/brie/About-us/Newsroom/image/Partners/08072018243PM/partners-gcash-leads-mobile-banner-m.jpg",
      "imageDesktop": "/sites/globe.com.ph/files/content/dam/globe/brie/About-us/Newsroom/image/Partners/08072018243PM/partners-gcash-leads-mobile-primary-thumbnail.jpg",
      "description": "GCash Leads Mobile Financial Services Revolution in PH. Visit the Globe Newsroom for the latest news on Globe Telecom.",
      "datePosted": "Jul 09, 2018 | 10:27 AM",
      "titleFromTag": "Partners"
    },
    {
      "title": "Level Up with these Mobile Games",
      "nonclickable": false,
      "openNewTab": false,
      "borderArticle": "border-color:#0074D9;",
      "borderTopArticle": "border-top-color:#0074D9;",
      "imageListing": "/sites/globe.com.ph/files/content/dam/globe/brie/AboutUs/newsroom/consumer/08082018/consumer-level-mobile-games-thumbnail-listing.jpg",
      "articleUrl": "https://www.globe.com.ph/about-us/newsroom/consumer/level-up-with-these-mobile-games.html",
      "columnType": "articles--type-3",
      "typeListing": "article",
      "imageMobile": "/sites/globe.com.ph/files/content/dam/globe/brie/AboutUs/newsroom/consumer/08082018/consumer-level-mobile-games-banner-m.jpg",
      "imageDesktop": "/sites/globe.com.ph/files/content/dam/globe/brie/AboutUs/newsroom/consumer/08082018/consumer-level-mobile-games-primary-thumbnail.jpg",
      "description": "Level Up with these Mobile Games. Visit the Globe Newsroom for the latest news on Globe Telecom.",
      "datePosted": "Jul 09, 2018 | 10:26 AM",
      "titleFromTag": "Consumer"
    },
    {
      "title": "Globe Telecom Sets Up New Company for Tower Assets",
      "nonclickable": false,
      "openNewTab": false,
      "borderArticle": "border-color:#0074D9;",
      "borderTopArticle": "border-top-color:#0074D9;",
      "imageListing": "/sites/globe.com.ph/files/content/dam/globe/brie/AboutUs/newsroom/common/Corporate_Globe_Listing.jpg",
      "articleUrl": "https://www.globe.com.ph/about-us/newsroom/corporate/globe-telecom-sets-up-new.html",
      "columnType": "articles--type-3",
      "typeListing": "article",
      "imageMobile": "/sites/globe.com.ph/files/content/dam/globe/brie/AboutUs/newsroom/common/Corporate_Globe_Hero-Banner-Mobile.jpg",
      "imageDesktop": "/sites/globe.com.ph/files/content/dam/globe/brie/AboutUs/newsroom/common/Corporate_Globe_Primary-Desktop-Thumbnail.jpg",
      "description": "Globe Telecom Sets Up New Company for Tower Assets. Visit the Globe Newsroom for the latest news on Globe Telecom.",
      "datePosted": "Jul 06, 2018 | 09:30 AM",
      "titleFromTag": "Corporate"
    },
    {
      "title": "Libreng Fiber Upgrade Para sa mga Bayantel Customers sa Zumbanalo Barangay Fiber Caravan sa Quezon City",
      "nonclickable": false,
      "openNewTab": false,
      "borderArticle": "border-color:#0074D9;",
      "borderTopArticle": "border-top-color:#0074D9;",
      "imageListing": "/sites/globe.com.ph/files/content/dam/globe/brie/About-us/Newsroom/Generic-banner/Corporate_Globe_Listing.jpg",
      "articleUrl": "https://www.globe.com.ph/about-us/newsroom/consumer/libreng-fiber-upgrade-para-sa-mga-bayantel-customers-sa-zumbanalo.html",
      "columnType": "articles--type-3",
      "typeListing": "article",
      "imageMobile": "/sites/globe.com.ph/files/content/dam/globe/brie/About-us/Newsroom/Generic-banner/Corporate_Globe_Hero-Banner-Mobile.jpg",
      "imageDesktop": "/sites/globe.com.ph/files/content/dam/globe/brie/About-us/Newsroom/Generic-banner/Corporate_Globe_Primary-Desktop-Thumbnail.jpg",
      "description": "Libreng fiber upgrade para sa mga Bayantel customers sa Zumbanalo Barangay Fiber Caravan sa Quezon City. Visit the Globe Newsroom for the latest news.",
      "datePosted": "Jun 30, 2018 | 08:00 AM",
      "titleFromTag": "Consumer"
    },
    {
      "title": "Heneral Luna Joins Globe and Disney’s Volunteering “Revolution”",
      "nonclickable": false,
      "openNewTab": false,
      "borderArticle": "border-color:#0074D9;",
      "borderTopArticle": "border-top-color:#0074D9;",
      "imageListing": "/sites/globe.com.ph/files/content/dam/globe/brie/About-us/Newsroom/image/Sustainability/08072018353PM/sustainability-heneral-luna-disney-thumbnail-listing.png",
      "articleUrl": "https://www.globe.com.ph/about-us/newsroom/sustainability/heneral-luna-joins-globe-and-disneys-volunteering-revolution.html",
      "columnType": "articles--type-3",
      "typeListing": "article",
      "imageMobile": "/sites/globe.com.ph/files/content/dam/globe/brie/About-us/Newsroom/image/Sustainability/08072018353PM/sustainability-heneral-luna-disney-banner-m.png",
      "imageDesktop": "/sites/globe.com.ph/files/content/dam/globe/brie/About-us/Newsroom/image/Sustainability/08072018353PM/sustainability-heneral-luna-disney-primary-thumbnail.png",
      "description": "Heneral Luna Joins Globe and Disney’s Volunteering “Revolution.”; Visit the Globe Newsroom for the latest news on Globe Telecom.",
      "datePosted": "Jun 29, 2018 | 02:22 PM",
      "titleFromTag": "Sustainability"
    },
    {
      "title": "Globe, Disney’s Time Please Gains Support from Customers, Celebrities, and Orgs",
      "nonclickable": false,
      "openNewTab": false,
      "borderArticle": "border-color:#0074D9;",
      "borderTopArticle": "border-top-color:#0074D9;",
      "imageListing": "/sites/globe.com.ph/files/content/dam/globe/brie/About-us/Newsroom/image/Sustainability/08072018324PM/sustainability-disney-time-please-thumbnail-listing.png",
      "articleUrl": "https://www.globe.com.ph/about-us/newsroom/sustainability/globe-disneys-time-gain-support-from-customers-celebs-orgs.html",
      "columnType": "articles--type-3",
      "typeListing": "article",
      "imageMobile": "/sites/globe.com.ph/files/content/dam/globe/brie/About-us/Newsroom/image/Sustainability/08072018324PM/sustainability-disney-time-please-banner-m.png",
      "imageDesktop": "/sites/globe.com.ph/files/content/dam/globe/brie/About-us/Newsroom/image/Sustainability/08072018324PM/sustainability-disney-time-pleaseprimary-thumbnail.png",
      "description": "Globe, Disney’s Time Please Gains Support From Customers, Celebrities, and Orgs. Visit the Globe Newsroom for the latest news on Globe Telecom.",
      "datePosted": "Jun 28, 2018 | 11:44 AM",
      "titleFromTag": "Sustainability"
    }
  ]
}
