{
  "status": 200,
  "page": 232,
  "totalPage": 298,
  "range": "2773-2784",
  "total": 3573,
  "result": [
    {
      "title": "Costa Coffee Now Accepts GCash Scan to Pay",
      "nonclickable": false,
      "openNewTab": false,
      "borderArticle": "border-color:#0074D9;",
      "borderTopArticle": "border-top-color:#0074D9;",
      "imageListing": "/sites/globe.com.ph/files/content/dam/globe/brie/About-us/Newsroom/image/Partners/08072018133PM/partners-costa-coffee-gcash-thumbnail-listing.jpg",
      "articleUrl": "https://www.globe.com.ph/about-us/newsroom/partners/costa-coffee-now-accepts-gcash-scan-to-pay.html",
      "columnType": "articles--type-3",
      "typeListing": "article",
      "imageMobile": "/sites/globe.com.ph/files/content/dam/globe/brie/About-us/Newsroom/image/Partners/08072018133PM/partners-costa-coffee-gcash-banner-m.jpg",
      "imageDesktop": "/sites/globe.com.ph/files/content/dam/globe/brie/About-us/Newsroom/image/Partners/08072018133PM/partners-costa-coffee-gcashprimary-thumbnail.jpg",
      "description": "Costa Coffee Now Accepts GCash Scan to Pay. Visit the Globe Newsroom for the latest news on Globe Telecom.",
      "datePosted": "Jun 28, 2018 | 11:16 AM",
      "titleFromTag": "Partners"
    },
    {
      "title": "Your Checklist for Super Show 7 in Manila",
      "nonclickable": false,
      "openNewTab": false,
      "borderArticle": "border-color:#0074D9;",
      "borderTopArticle": "border-top-color:#0074D9;",
      "imageListing": "/sites/globe.com.ph/files/content/dam/globe/brie/About-us/Newsroom/image/Consumer/08072018333PM/consumer-super-show-7-thumbnail-listing.png",
      "articleUrl": "https://www.globe.com.ph/about-us/newsroom/consumer/your-checklist-for-super-show-7-in-manila.html",
      "columnType": "articles--type-3",
      "typeListing": "article",
      "imageMobile": "/sites/globe.com.ph/files/content/dam/globe/brie/About-us/Newsroom/image/Consumer/08072018333PM/consumer-super-show-7-banner-m.png",
      "imageDesktop": "/sites/globe.com.ph/files/content/dam/globe/brie/About-us/Newsroom/image/Consumer/08072018333PM/consumer-super-show-7-primary-thumbnail.png",
      "description": "Your Checklist for Super Show 7 in Manila. Visit the Globe Newsroom for the latest news on Globe Telecom.",
      "datePosted": "Jun 28, 2018 | 10:55 AM",
      "titleFromTag": "Consumer"
    },
    {
      "title": "#UwianNa, may sulit na WiFi na sa bahay!",
      "nonclickable": false,
      "openNewTab": false,
      "borderArticle": "border-color:#0074D9;",
      "borderTopArticle": "border-top-color:#0074D9;",
      "imageListing": "/sites/globe.com.ph/files/content/dam/globe/brie/About-us/Newsroom/Generic-banner/Corporate_Globe_Listing.jpg",
      "articleUrl": "https://www.globe.com.ph/about-us/newsroom/consumer/uwianna-may-sulit-na-wifi-na-sa-bahay.html",
      "columnType": "articles--type-3",
      "typeListing": "article",
      "imageMobile": "/sites/globe.com.ph/files/content/dam/globe/brie/About-us/Newsroom/Generic-banner/Corporate_Globe_Hero-Banner-Mobile.jpg",
      "imageDesktop": "/sites/globe.com.ph/files/content/dam/globe/brie/About-us/Newsroom/Generic-banner/Corporate_Globe_Primary-Desktop-Thumbnail.jpg",
      "description": "#UwianNa, may sulit na WiFi na sa bahay! Visit the Globe Newsroom for the latest news on Globe Telecom.",
      "datePosted": "Jun 26, 2018 | 12:06 PM",
      "titleFromTag": "Consumer"
    },
    {
      "title": "AlipayHK and GCash Launch Cross-border Remittance Service Powered by Alipay’s Blockchain Technology",
      "nonclickable": false,
      "openNewTab": false,
      "borderArticle": "border-color:#0074D9;",
      "borderTopArticle": "border-top-color:#0074D9;",
      "imageListing": "/sites/globe.com.ph/files/content/dam/globe/brie/About-us/Newsroom/image/Partners/08072018117PM/partners-alipay-gcash-thumbnail-listing.png",
      "articleUrl": "https://www.globe.com.ph/about-us/newsroom/partners/alipayhk-and-gcash-launch-cross-border-remittance-service.html",
      "columnType": "articles--type-3",
      "typeListing": "article",
      "imageMobile": "/sites/globe.com.ph/files/content/dam/globe/brie/About-us/Newsroom/image/Partners/08072018117PM/partners-alipay-gcash-banner-m.png",
      "imageDesktop": "/sites/globe.com.ph/files/content/dam/globe/brie/About-us/Newsroom/image/Partners/08072018117PM/partners-alipay-gcash-primary-thumbnail.png",
      "description": "AlipayHK and GCash Launch Cross-border Remittance Service Powered by Alipay’s Blockchain Technology. Visit the Newsroom for the latest news on Globe Telecom.",
      "datePosted": "Jun 25, 2018 | 02:57 PM",
      "titleFromTag": "Partners"
    },
    {
      "title": "W Mall Opens with GCash",
      "nonclickable": false,
      "openNewTab": false,
      "borderArticle": "border-color:#0074D9;",
      "borderTopArticle": "border-top-color:#0074D9;",
      "imageListing": "/sites/globe.com.ph/files/content/dam/globe/brie/About-us/Newsroom/image/Partners/080720181252NN/partners-wmall-gcash-thumbnail-listing.png",
      "articleUrl": "https://www.globe.com.ph/about-us/newsroom/partners/w-mall-opens-with-gcash.html",
      "columnType": "articles--type-3",
      "typeListing": "article",
      "imageMobile": "/sites/globe.com.ph/files/content/dam/globe/brie/About-us/Newsroom/image/Partners/080720181252NN/partners-wmall-gcash-banner-m.png",
      "imageDesktop": "/sites/globe.com.ph/files/content/dam/globe/brie/About-us/Newsroom/image/Partners/080720181252NN/partners-wmall-gcash-primary-thumbnail.png",
      "description": "W Mall Opens with GCash. Visit the Globe Newsroom for the latest news on Globe Telecom.",
      "datePosted": "Jun 22, 2018 | 03:13 PM",
      "titleFromTag": "Partners"
    },
    {
      "title": "Stylefestph Brings the Best of Philippine Fashion and Beauty This September",
      "nonclickable": false,
      "openNewTab": false,
      "borderArticle": "border-color:#0074D9;",
      "borderTopArticle": "border-top-color:#0074D9;",
      "imageListing": "/sites/globe.com.ph/files/content/dam/globe/brie/About-us/Newsroom/image/Consumer/08072018246PM/consumer-stylefest-fashion-thumbnail-listing.png",
      "articleUrl": "https://www.globe.com.ph/about-us/newsroom/consumer/stylefest-brings-the-best-in-philippine-fashion.html",
      "columnType": "articles--type-3",
      "typeListing": "article",
      "imageMobile": "/sites/globe.com.ph/files/content/dam/globe/brie/About-us/Newsroom/image/Consumer/08072018246PM/consumer-stylefest-fashion-banner-m.png",
      "imageDesktop": "/sites/globe.com.ph/files/content/dam/globe/brie/About-us/Newsroom/image/Consumer/08072018246PM/consumer-stylefest-fashion-primary-thumbnail.png",
      "description": "Stylefestph Brings the Best of Philippine Fashion and Beauty This September. Visit the Globe Newsroom for the latest news on Globe Telecom.",
      "datePosted": "Jun 22, 2018 | 02:57 PM",
      "titleFromTag": "Consumer"
    },
    {
      "title": "Cloud, Cybersecurity Take Center Stage at “Breakthrough with Globe Business Solutions”",
      "nonclickable": false,
      "openNewTab": false,
      "borderArticle": "border-color:#0074D9;",
      "borderTopArticle": "border-top-color:#0074D9;",
      "imageListing": "/sites/globe.com.ph/files/content/dam/globe/brie/About-us/Newsroom/image/Business/08072018116PM/business-cloud-cybersecurity-thumbnail-listing.png",
      "articleUrl": "https://www.globe.com.ph/about-us/newsroom/business/cloud-cybersecurity-takes-center-stage.html",
      "columnType": "articles--type-3",
      "typeListing": "article",
      "imageMobile": "/sites/globe.com.ph/files/content/dam/globe/brie/About-us/Newsroom/image/Business/08072018116PM/business-cloud-cybersecurity-banner-m.png",
      "imageDesktop": "/sites/globe.com.ph/files/content/dam/globe/brie/About-us/Newsroom/image/Business/08072018116PM/business-cloud-cybersecurity-primary-thumbnail.png",
      "description": "Cloud, Cybersecurity Take Center Stage at “Breakthrough with Globe Business Solutions.&#34; Visit the Globe Newsroom for the latest news on Globe Telecom.",
      "datePosted": "Jun 19, 2018 | 02:27 PM",
      "titleFromTag": "Business"
    },
    {
      "title": "Watch Super Junior Live in Manila with Globe GoSURF!",
      "nonclickable": false,
      "openNewTab": false,
      "borderArticle": "border-color:#0074D9;",
      "borderTopArticle": "border-top-color:#0074D9;",
      "imageListing": "/sites/globe.com.ph/files/content/dam/globe/brie/AboutUs/newsroom/consumer/watch-super-junior-live-in-manila-with-globe-gosurf/consumer-super-junior-thumbnail-listing.png",
      "articleUrl": "https://www.globe.com.ph/about-us/newsroom/consumer/watch-super-junior-live-in-manila-with-globe-gosurf.html",
      "columnType": "articles--type-3",
      "typeListing": "article",
      "imageMobile": "/sites/globe.com.ph/files/content/dam/globe/brie/AboutUs/newsroom/consumer/watch-super-junior-live-in-manila-with-globe-gosurf/consumer-super-junior-banner-m.png",
      "imageDesktop": "/sites/globe.com.ph/files/content/dam/globe/brie/AboutUs/newsroom/consumer/watch-super-junior-live-in-manila-with-globe-gosurf/consumer-super-junior-primary-thumbnail.png",
      "description": "Watch Super Junior Live in Manila with Globe GoSURF. Visit the Globe Newsroom for the latest news on Globe Telecom.",
      "datePosted": "Jun 18, 2018 | 12:37 PM",
      "titleFromTag": "Consumer"
    },
    {
      "title": "Globe Drive vs. Fraudsters Leads to Convictions in Visayas",
      "nonclickable": false,
      "openNewTab": false,
      "borderArticle": "border-color:#0074D9;",
      "borderTopArticle": "border-top-color:#0074D9;",
      "imageListing": "/sites/globe.com.ph/files/content/dam/globe/brie/AboutUs/newsroom/common/Corporate_Globe_Listing.jpg",
      "articleUrl": "https://www.globe.com.ph/about-us/newsroom/consumer/globe-drive-vs-fraudsters-leads-to-convictions-in-visayas.html",
      "columnType": "articles--type-3",
      "typeListing": "article",
      "imageMobile": "/sites/globe.com.ph/files/content/dam/globe/brie/AboutUs/newsroom/common/Corporate_Globe_Hero-Banner-Mobile.jpg",
      "imageDesktop": "/sites/globe.com.ph/files/content/dam/globe/brie/AboutUs/newsroom/common/Corporate_Globe_Primary-Desktop-Thumbnail.jpg",
      "description": "Globe Drive vs. Fraudsters Leads to Convictions in Visayas. Visit the Globe Newsroom for the latest news on Globe Telecom.",
      "datePosted": "Jun 18, 2018 | 12:05 PM",
      "titleFromTag": "Consumer"
    },
    {
      "title": "Suit up for Disney Pixar's Incredibles 2 with Globe At Home",
      "nonclickable": false,
      "openNewTab": false,
      "borderArticle": "border-color:#0074D9;",
      "borderTopArticle": "border-top-color:#0074D9;",
      "imageListing": "/sites/globe.com.ph/files/content/dam/globe/brie/AboutUs/newsroom/common/Corporate_Globe_Listing.jpg",
      "articleUrl": "https://www.globe.com.ph/about-us/newsroom/consumer/suit-up-for-disney-pixars-incredibles-2-with-globe-at-home.html",
      "columnType": "articles--type-3",
      "typeListing": "article",
      "imageMobile": "/sites/globe.com.ph/files/content/dam/globe/brie/AboutUs/newsroom/common/Corporate_Globe_Hero-Banner-Mobile.jpg",
      "imageDesktop": "/sites/globe.com.ph/files/content/dam/globe/brie/AboutUs/newsroom/common/Corporate_Globe_Primary-Desktop-Thumbnail.jpg",
      "description": "Suit up for Disney Pixar&#39;s Incredibles 2 with Globe At Home. Visit the Globe Newsroom for the latest news on Globe Telecom.",
      "datePosted": "Jun 18, 2018 | 12:04 PM",
      "titleFromTag": "Consumer"
    },
    {
      "title": "Globe CEO Reiterates Commitment to Offer 5G at Home by Q2 2019",
      "nonclickable": false,
      "openNewTab": false,
      "borderArticle": "border-color:#0074D9;",
      "borderTopArticle": "border-top-color:#0074D9;",
      "imageListing": "/sites/globe.com.ph/files/content/dam/globe/brie/AboutUs/newsroom/corporate/globe-ceo-reiterates-commitment-to-offer-5g-at-home-by-q2-2019/corporate-globe-5g-ph-thumbnail-listing.png",
      "articleUrl": "https://www.globe.com.ph/about-us/newsroom/corporate/globe-ceo-reiterates-commitment-to-offer-5g-at-home-by-q2-2019.html",
      "columnType": "articles--type-3",
      "typeListing": "article",
      "imageMobile": "/sites/globe.com.ph/files/content/dam/globe/brie/AboutUs/newsroom/corporate/globe-ceo-reiterates-commitment-to-offer-5g-at-home-by-q2-2019/corporate-globe-5g-ph-banner-m.png",
      "imageDesktop": "/sites/globe.com.ph/files/content/dam/globe/brie/AboutUs/newsroom/corporate/globe-ceo-reiterates-commitment-to-offer-5g-at-home-by-q2-2019/corporate-globe-5g-ph-primary-thumbnail.png",
      "description": "Globe CEO Reiterates Commitment to Offer 5G at Home by Q2 2019. Visit the Globe Newsroom for the latest news on Globe Telecom.",
      "datePosted": "Jun 14, 2018 | 11:34 AM",
      "titleFromTag": "Corporate"
    },
    {
      "title": "Find Your Connection Through GoWiFi, Now Available in 1,500 Locations Nationwide",
      "nonclickable": false,
      "openNewTab": false,
      "borderArticle": "border-color:#0074D9;",
      "borderTopArticle": "border-top-color:#0074D9;",
      "imageListing": "/sites/globe.com.ph/files/content/dam/globe/brie/AboutUs/newsroom/consumer/find-your-connection-through-gowifi/consumer-globe-gowifi-thumbnail-listing.png",
      "articleUrl": "https://www.globe.com.ph/about-us/newsroom/consumer/find-your-connection-through-gowifi.html",
      "columnType": "articles--type-3",
      "typeListing": "article",
      "imageDesktop": "/sites/globe.com.ph/files/content/dam/globe/brie/AboutUs/newsroom/consumer/find-your-connection-through-gowifi/consumer-globe-gowifi-primary-thumbnail.png",
      "description": "Find Your Connection Through GoWiFi, Now Available in 1,500 Locations Nationwide. Visit the Globe Newsroom for the latest news on Globe Telecom.",
      "datePosted": "Jun 13, 2018 | 03:18 PM",
      "titleFromTag": "Consumer"
    }
  ]
}
