{
  "status": 200,
  "page": 233,
  "totalPage": 298,
  "range": "2785-2796",
  "total": 3573,
  "result": [
    {
      "title": "2018 French Open Highlights: Relive the Thrill of Roland Garros",
      "nonclickable": false,
      "openNewTab": false,
      "borderArticle": "border-color:#0074D9;",
      "borderTopArticle": "border-top-color:#0074D9;",
      "imageListing": "/sites/globe.com.ph/files/content/dam/globe/brie/AboutUs/newsroom/consumer/2018-french-open-highlights/consumer-2018-french-open-thumbnail-listing.png",
      "articleUrl": "https://www.globe.com.ph/about-us/newsroom/consumer/2018-french-open-highlights.html",
      "columnType": "articles--type-3",
      "typeListing": "article",
      "imageDesktop": "/sites/globe.com.ph/files/content/dam/globe/brie/AboutUs/newsroom/consumer/2018-french-open-highlights/consumer-2018-french-open-primary-thumbnail.png",
      "description": "2018 French Open Highlights: Relive the Thrill of Roland Garros. Visit the Globe Newsroom for the latest news on Globe Telecom.",
      "datePosted": "Jun 13, 2018 | 03:16 PM",
      "titleFromTag": "Consumer"
    },
    {
      "title": "5 Family-Friendly Movie Marathons for Your Next Road Trip",
      "nonclickable": false,
      "openNewTab": false,
      "borderArticle": "border-color:#0074D9;",
      "borderTopArticle": "border-top-color:#0074D9;",
      "imageListing": "/sites/globe.com.ph/files/content/dam/globe/brie/AboutUs/newsroom/consumer/5-family-friendly-movie-marathons-for-your-next-road-trip/consumer-movie-road-trip-thumbnail-listing.png",
      "articleUrl": "https://www.globe.com.ph/about-us/newsroom/consumer/5-family-friendly-movie-marathons-for-your-next-road-trip.html",
      "columnType": "articles--type-3",
      "typeListing": "article",
      "imageDesktop": "/sites/globe.com.ph/files/content/dam/globe/brie/AboutUs/newsroom/consumer/5-family-friendly-movie-marathons-for-your-next-road-trip/consumer-movie-road-trip-primary-thumbnail.png",
      "description": "5 Family-Friendly Movie Marathons for Your Next Road Trip. Visit the Globe Newsroom for the latest news on Globe Telecom.",
      "datePosted": "Jun 11, 2018 | 02:59 PM",
      "titleFromTag": "Consumer"
    },
    {
      "title": "Globe Launches Long-term Conservation Plan for Boracay",
      "nonclickable": false,
      "openNewTab": false,
      "borderArticle": "border-color:#0074D9;",
      "borderTopArticle": "border-top-color:#0074D9;",
      "imageListing": "/sites/globe.com.ph/files/content/dam/globe/brie/About-us/Newsroom/Generic-banner/Corporate_Globe_Listing.jpg",
      "articleUrl": "https://www.globe.com.ph/about-us/newsroom/sustainability/globe-launches-long-term-conservation-plan-for-boracay.html",
      "columnType": "articles--type-3",
      "typeListing": "article",
      "imageDesktop": "/sites/globe.com.ph/files/content/dam/globe/brie/About-us/Newsroom/Generic-banner/Corporate_Globe_Primary-Desktop-Thumbnail.jpg",
      "description": "Globe Launches Long-term Conservation Plan for Boracay. Visit the Globe Newsroom for the latest news on Globe Telecom.",
      "datePosted": "Jun 09, 2018 | 02:09 PM",
      "titleFromTag": "Sustainability"
    },
    {
      "title": "Conquer the SOLO: A Star Wars Story Breakout Room Challenge!",
      "nonclickable": false,
      "openNewTab": false,
      "borderArticle": "border-color:#0074D9;",
      "borderTopArticle": "border-top-color:#0074D9;",
      "imageListing": "/sites/globe.com.ph/files/content/dam/globe/brie/AboutUs/newsroom/consumer/conquer-the-solo-a-star-wars-story-breakout-room-challenge/consumer-solo-star-wars-thumbnail-listing.png",
      "articleUrl": "https://www.globe.com.ph/about-us/newsroom/consumer/conquer-the-solo-a-star-wars-story-breakout-room-challenge.html",
      "columnType": "articles--type-3",
      "typeListing": "article",
      "imageDesktop": "/sites/globe.com.ph/files/content/dam/globe/brie/AboutUs/newsroom/consumer/conquer-the-solo-a-star-wars-story-breakout-room-challenge/consumer-solo-star-wars-primary-thumbnail.png",
      "description": "Conquer the SOLO: A Star Wars Story Breakout Room Challenge! Visit the Globe Newsroom for the latest news on Globe Telecom.",
      "datePosted": "Jun 08, 2018 | 02:11 PM",
      "titleFromTag": "Consumer"
    },
    {
      "title": "Globe, De La Salle–College of Saint Benilde Prepare for the Future of Learning",
      "nonclickable": false,
      "openNewTab": false,
      "borderArticle": "border-color:#0074D9;",
      "borderTopArticle": "border-top-color:#0074D9;",
      "imageListing": "/sites/globe.com.ph/files/content/dam/globe/brie/AboutUs/newsroom/business/globe-de-lasalle-college-of-saint-benilde-prepare-for-the-future-of-learning/business-globe-de-la-salle-thumbnail-listing.png",
      "articleUrl": "https://www.globe.com.ph/about-us/newsroom/business/globe-de-lasalle-college-of-saint-benilde-prepare-for-the-future-of-learning.html",
      "columnType": "articles--type-3",
      "typeListing": "article",
      "imageMobile": "/sites/globe.com.ph/files/content/dam/globe/brie/AboutUs/newsroom/business/globe-de-lasalle-college-of-saint-benilde-prepare-for-the-future-of-learning/business-globe-de-la-salle-banner-m.png",
      "imageDesktop": "/sites/globe.com.ph/files/content/dam/globe/brie/AboutUs/newsroom/business/globe-de-lasalle-college-of-saint-benilde-prepare-for-the-future-of-learning/business-globe-de-la-salle-primary-thumbnail.png",
      "description": "Globe, De La Salle–College of Saint Benilde Prepare for the Future of Learning. Visit the Globe Newsroom for the latest news on Globe Telecom.",
      "datePosted": "Jun 08, 2018 | 02:10 PM",
      "titleFromTag": "Business"
    },
    {
      "title": "Globe Business, Restaurant Business Network Partner for RestomaniaPH 2018",
      "nonclickable": false,
      "openNewTab": false,
      "borderArticle": "border-color:#0074D9;",
      "borderTopArticle": "border-top-color:#0074D9;",
      "imageListing": "/sites/globe.com.ph/files/content/dam/globe/brie/AboutUs/newsroom/business/globe-mybusiness-restaurant-business-network-partner-for-restomaniaph/business-globe-mybusiness-thumbnail-listing.png",
      "articleUrl": "https://www.globe.com.ph/about-us/newsroom/business/globe-mybusiness-restaurant-business-network-partner-for-restomaniaph.html",
      "columnType": "articles--type-3",
      "typeListing": "article",
      "imageMobile": "/sites/globe.com.ph/files/content/dam/globe/brie/AboutUs/newsroom/business/globe-mybusiness-restaurant-business-network-partner-for-restomaniaph/business-globe-mybusiness-banner-m.png",
      "imageDesktop": "/sites/globe.com.ph/files/content/dam/globe/brie/AboutUs/newsroom/business/globe-mybusiness-restaurant-business-network-partner-for-restomaniaph/business-globe-mybusiness-primary-thumbnail.png",
      "description": "Globe Business, Restaurant Business Network Partner for RestomaniaPH 2018. Visit the Globe Newsroom for the latest news on Globe Telecom.",
      "datePosted": "Jun 08, 2018 | 02:10 PM",
      "titleFromTag": "Business"
    },
    {
      "title": "Globe Brings 5G Technology to the Philippines",
      "nonclickable": false,
      "openNewTab": false,
      "borderArticle": "border-color:#0074D9;",
      "borderTopArticle": "border-top-color:#0074D9;",
      "imageListing": "/sites/globe.com.ph/files/content/dam/globe/brie/AboutUs/newsroom/corporate/globe-brings-5g-technology-to-ph/corporate-globe-5g-thumbnail-listing.png",
      "articleUrl": "https://www.globe.com.ph/about-us/newsroom/corporate/globe-brings-5g-technology-to-ph.html",
      "columnType": "articles--type-3",
      "typeListing": "article",
      "imageDesktop": "/sites/globe.com.ph/files/content/dam/globe/brie/AboutUs/newsroom/corporate/globe-brings-5g-technology-to-ph/corporate-globe-5g-primary-thumbnail.png",
      "description": "Globe Brings 5G Technology to the Philippines. Visit the Globe Newsroom for the latest news on Globe Telecom.",
      "datePosted": "Jun 07, 2018 | 09:41 AM",
      "titleFromTag": "Corporate"
    },
    {
      "title": "PH Can Achieve At Least 50 Mbps Broadband Speeds by 2020",
      "nonclickable": false,
      "openNewTab": false,
      "borderArticle": "border-color:#0074D9;",
      "borderTopArticle": "border-top-color:#0074D9;",
      "imageListing": "/sites/globe.com.ph/files/content/dam/globe/brie/AboutUs/newsroom/common/Corporate_Globe_Listing.jpg",
      "articleUrl": "https://www.globe.com.ph/about-us/newsroom/corporate/ph-can-achieve-at-least-50-mbps-broadband-speed-by-2020.html",
      "columnType": "articles--type-3",
      "typeListing": "article",
      "imageDesktop": "/sites/globe.com.ph/files/content/dam/globe/brie/AboutUs/newsroom/common/Corporate_Globe_Primary-Desktop-Thumbnail.jpg",
      "description": "PH Can Achieve At Least 50 Mbps Broadband Speeds by 2020. Visit the Globe Newsroom for the latest news on Globe Telecom.",
      "datePosted": "Jun 05, 2018 | 01:13 PM",
      "titleFromTag": "Corporate"
    },
    {
      "title": "Globe Showcases Zone 917: Barangay Tagumpay at Puregold’s Tindahan ni Aling Puring Convention 2018",
      "nonclickable": false,
      "openNewTab": false,
      "borderArticle": "border-color:#0074D9;",
      "borderTopArticle": "border-top-color:#0074D9;",
      "imageListing": "/sites/globe.com.ph/files/content/dam/globe/brie/AboutUs/newsroom/consumer/globe-showcases-zone-917/partners-tnap-thumbnail-listing.png",
      "articleUrl": "https://www.globe.com.ph/about-us/newsroom/business/globe-showcases-zone-917.html",
      "columnType": "articles--type-3",
      "typeListing": "article",
      "imageDesktop": "/sites/globe.com.ph/files/content/dam/globe/brie/AboutUs/newsroom/consumer/globe-showcases-zone-917/partners-tnap-primary-thumbnail.png",
      "description": "Globe showcases Zone 917: Barangay Tagumpay at Puregold’s Tindahan ni Aling Puring Convention 2018. Visit the Globe Newsroom for the latest news.",
      "datePosted": "Jun 04, 2018 | 12:01 PM",
      "titleFromTag": "Business"
    },
    {
      "title": "Drew Arellano’s (Financial) Lifehack: Pay with Mobile Money",
      "nonclickable": false,
      "openNewTab": false,
      "borderArticle": "border-color:#0074D9;",
      "borderTopArticle": "border-top-color:#0074D9;",
      "imageListing": "/sites/globe.com.ph/files/content/dam/globe/brie/AboutUs/newsroom/common/Corporate_Globe_Listing.jpg",
      "articleUrl": "https://www.globe.com.ph/about-us/newsroom/consumer/drew-arellano-financial-lifehack.html",
      "columnType": "articles--type-3",
      "typeListing": "article",
      "imageDesktop": "/sites/globe.com.ph/files/content/dam/globe/brie/AboutUs/newsroom/common/Corporate_Globe_Primary-Desktop-Thumbnail.jpg",
      "description": "Drew Arellano’s (Financial) Lifehack: Pay with Mobile Money. Visit the Globe Newsroom for the latest news on Globe Telecom.",
      "datePosted": "Jun 01, 2018 | 06:52 PM",
      "titleFromTag": "Consumer"
    },
    {
      "title": "It’s Time to Watch These Star Wars Films on DisneyLife and Know More About Han Solo",
      "nonclickable": false,
      "openNewTab": false,
      "borderArticle": "border-color:#0074D9;",
      "borderTopArticle": "border-top-color:#0074D9;",
      "imageListing": "/sites/globe.com.ph/files/content/dam/globe/brie/AboutUs/newsroom/consumer/its-time-to-watch-these-star/partners-globe-disneylife-thumbnail-listing.png",
      "articleUrl": "https://www.globe.com.ph/about-us/newsroom/consumer/its-time-to-watch-these-star.html",
      "columnType": "articles--type-3",
      "typeListing": "article",
      "imageDesktop": "/sites/globe.com.ph/files/content/dam/globe/brie/AboutUs/newsroom/consumer/its-time-to-watch-these-star/partners-globe-disneylife-primary-thumbnail.png",
      "description": "It’s Time to Watch These Star Wars Films on DisneyLife and Know More About Han Solo. Visit the Globe Newsroom for the latest news on Globe Telecom.",
      "datePosted": "Jun 01, 2018 | 02:24 PM",
      "titleFromTag": "Consumer"
    },
    {
      "title": "Globe Welcomes Latest Crowdsourcing Speed Test Results in PH",
      "nonclickable": false,
      "openNewTab": false,
      "borderArticle": "border-color:#0074D9;",
      "borderTopArticle": "border-top-color:#0074D9;",
      "imageListing": "/sites/globe.com.ph/files/content/dam/globe/brie/AboutUs/newsroom/common/Corporate_Globe_Listing.jpg",
      "articleUrl": "https://www.globe.com.ph/about-us/newsroom/corporate/globe-welcomes-latest-crowdsourcing-speed.html",
      "columnType": "articles--type-3",
      "typeListing": "article",
      "imageDesktop": "/sites/globe.com.ph/files/content/dam/globe/brie/AboutUs/newsroom/common/Corporate_Globe_Primary-Desktop-Thumbnail.jpg",
      "description": "Globe welcomes latest crowdsourcing speed test results in PH. Visit the Globe Newsroom for the latest news on Globe Telecom.",
      "datePosted": "May 31, 2018 | 04:25 PM",
      "titleFromTag": "Corporate"
    }
  ]
}
