{
  "status": 200,
  "page": 234,
  "totalPage": 298,
  "range": "2797-2808",
  "total": 3573,
  "result": [
    {
      "title": "It’s Time for a Phone Upgrade with Globe and the Unstoppable Upgrade: Grand Gadget Sale",
      "nonclickable": false,
      "openNewTab": false,
      "borderArticle": "border-color:#0074D9;",
      "borderTopArticle": "border-top-color:#0074D9;",
      "imageListing": "/sites/globe.com.ph/files/content/dam/globe/brie/AboutUs/newsroom/consumer/its-time-for-a-phone-upgrade/consumer-time-for-phone-thumbnail-listing.png",
      "articleUrl": "https://www.globe.com.ph/about-us/newsroom/consumer/its-time-for-a-phone-upgrade.html",
      "columnType": "articles--type-3",
      "typeListing": "article",
      "imageDesktop": "/sites/globe.com.ph/files/content/dam/globe/brie/AboutUs/newsroom/consumer/its-time-for-a-phone-upgrade/consumer-time-for-phone-primary-thumbnail.png",
      "description": "It’s time for a phone upgrade with Globe and the Unstoppable Upgrade: Grand Gadget Sale. Visit the Globe Newsroom for the latest news on Globe Telecom.",
      "datePosted": "May 31, 2018 | 04:03 PM",
      "titleFromTag": "Consumer"
    },
    {
      "title": "Mynt CEO Anthony Thomas Receives Asian Banker Innovation Leadership Award for PH",
      "nonclickable": false,
      "openNewTab": false,
      "borderArticle": "border-color:#0074D9;",
      "borderTopArticle": "border-top-color:#0074D9;",
      "imageListing": "/sites/globe.com.ph/files/content/dam/globe/brie/AboutUs/newsroom/consumer/mynt-ceo-anthony-thomas-receives/partners-mynt-asian-banker-thumbnail-listing.png",
      "articleUrl": "https://www.globe.com.ph/about-us/newsroom/consumer/mynt-ceo-anthony-thomas-receives.html",
      "columnType": "articles--type-3",
      "typeListing": "article",
      "imageDesktop": "/sites/globe.com.ph/files/content/dam/globe/brie/AboutUs/newsroom/consumer/mynt-ceo-anthony-thomas-receives/partners-mynt-asian-banker-primary-thumbnail.png",
      "description": "Mynt CEO Anthony Thomas receives Asian Banker Innovation Leadership Award for Philippines. Visit the Globe Newsroom for the latest news on Globe Telecom.",
      "datePosted": "May 31, 2018 | 01:26 PM",
      "titleFromTag": "Consumer"
    },
    {
      "title": "Super Junior is Heading Back to Manila! Get First Dibs on Tickets with Globe Prepaid, Globe At Home Prepaid WiFi",
      "nonclickable": false,
      "openNewTab": false,
      "borderArticle": "border-color:#0074D9;",
      "borderTopArticle": "border-top-color:#0074D9;",
      "imageListing": "/sites/globe.com.ph/files/content/dam/globe/brie/About-us/Newsroom/image/Consumer/060620181230PM/consumer-super-junior-prepaid-thumbnail-listing.png",
      "articleUrl": "https://www.globe.com.ph/about-us/newsroom/consumer/super-junior-is-heading-back-to-manila.html",
      "columnType": "articles--type-3",
      "typeListing": "article",
      "imageDesktop": "/sites/globe.com.ph/files/content/dam/globe/brie/About-us/Newsroom/image/Consumer/060620181230PM/consumer-super-junior-prepaid-primary-thumbnail.png",
      "description": "Super Junior is heading back to Manila! Get first dibs on tickets with Globe Prepaid and Globe At Home Prepaid WiFi. Visit the Globe Newsroom for more.",
      "datePosted": "May 30, 2018 | 03:16 PM",
      "titleFromTag": "Consumer"
    },
    {
      "title": "Beat the Heat in Style with Globe 0917 Lifestyle’s Summer Collection",
      "nonclickable": false,
      "openNewTab": false,
      "borderArticle": "border-color:#0074D9;",
      "borderTopArticle": "border-top-color:#0074D9;",
      "imageListing": "/sites/globe.com.ph/files/content/dam/globe/brie/About-us/Newsroom/image/Consumer/060620181230PM/consumer-0917-lifestyle-collection-thumbnail-listing.png",
      "articleUrl": "https://www.globe.com.ph/about-us/newsroom/consumer/beat-the-heat-in-style.html",
      "columnType": "articles--type-3",
      "typeListing": "article",
      "imageDesktop": "/sites/globe.com.ph/files/content/dam/globe/brie/About-us/Newsroom/image/Consumer/060620181230PM/consumer-0917-lifestyle-collection-primary-thumbnail.png",
      "description": "Beat the heat in style with Globe 0917 Lifestyle’s summer collection. Visit the Globe Newsroom for the latest news on Globe Telecom.",
      "datePosted": "May 30, 2018 | 10:16 AM",
      "titleFromTag": "Consumer"
    },
    {
      "title": "Globe Reiterates Request to DPWH to Avoid Fiber Cut Incidents",
      "nonclickable": false,
      "openNewTab": false,
      "borderArticle": "border-color:#0074D9;",
      "borderTopArticle": "border-top-color:#0074D9;",
      "imageListing": "/sites/globe.com.ph/files/content/dam/globe/brie/AboutUs/newsroom/common/Corporate_Globe_Listing.jpg",
      "articleUrl": "https://www.globe.com.ph/about-us/newsroom/corporate/globe-reiterates-request-to-dpwh.html",
      "columnType": "articles--type-3",
      "typeListing": "article",
      "imageMobile": "/sites/globe.com.ph/files/content/dam/globe/brie/AboutUs/newsroom/common/Corporate_Globe_Hero-Banner-Mobile.jpg",
      "imageDesktop": "/sites/globe.com.ph/files/content/dam/globe/brie/AboutUs/newsroom/common/Corporate_Globe_Primary-Desktop-Thumbnail.jpg",
      "description": "Globe reiterates request to DPWH for cooperation to avoid fiber cut incidents that disrupt telco services. Visit the Globe Newsroom for the latest news",
      "datePosted": "May 29, 2018 | 06:49 PM",
      "titleFromTag": "Corporate"
    },
    {
      "title": "Globe Nabs 5 Prizes at 2018 YouTube Ads Awards",
      "nonclickable": false,
      "openNewTab": false,
      "borderArticle": "border-color:#0074D9;",
      "borderTopArticle": "border-top-color:#0074D9;",
      "imageListing": "/sites/globe.com.ph/files/content/dam/globe/brie/About-us/Newsroom/image/Consumer/060620181230PM/consumer-youtube-ads-awards-thumbnail-listing.png",
      "articleUrl": "https://www.globe.com.ph/about-us/newsroom/consumer/globe-nabs-5-prizes-at-2018.html",
      "columnType": "articles--type-3",
      "typeListing": "article",
      "imageDesktop": "/sites/globe.com.ph/files/content/dam/globe/brie/About-us/Newsroom/image/Consumer/060620181230PM/consumer-youtube-ads-awards-primary-thumbnail.png",
      "description": "Globe nabs 5 prizes at 2018 YouTube Ads Awards. Visit the Globe Newsroom for the latest news on Globe Telecom.",
      "datePosted": "May 29, 2018 | 10:32 AM",
      "titleFromTag": "Consumer"
    },
    {
      "title": "TM Football Para Sa Bayan: How Globe Changed the Business Model for Youth Football",
      "nonclickable": false,
      "openNewTab": false,
      "borderArticle": "border-color:#0074D9;",
      "borderTopArticle": "border-top-color:#0074D9;",
      "imageListing": "/sites/globe.com.ph/files/content/dam/globe/brie/About-us/Newsroom/image/Consumer/060620181230PM/community-tm-youth-football-thumbnail-listing.jpg",
      "articleUrl": "https://www.globe.com.ph/about-us/newsroom/sustainability/tm-football-para-sa-bayan.html",
      "columnType": "articles--type-3",
      "typeListing": "article",
      "imageMobile": "/sites/globe.com.ph/files/content/dam/globe/brie/About-us/Newsroom/image/Consumer/060620181230PM/community-tm-youth-football-banner-m.jpg",
      "imageDesktop": "/sites/globe.com.ph/files/content/dam/globe/brie/About-us/Newsroom/image/Consumer/060620181230PM/community-tm-youth-football-primary-thumbnail.jpg",
      "description": "TM Football Para Sa Bayan: How Globe changed the business model for youth football. Visit the Globe Newsroom for the latest news on Globe Telecom.",
      "datePosted": "May 28, 2018 | 02:36 PM",
      "titleFromTag": "Sustainability"
    },
    {
      "title": "Globe Telecom Debuts DisneyLife in Asia",
      "nonclickable": false,
      "openNewTab": false,
      "borderArticle": "border-color:#0074D9;",
      "borderTopArticle": "border-top-color:#0074D9;",
      "imageListing": "/sites/globe.com.ph/files/content/dam/globe/brie/About-us/Newsroom/image/Consumer/060620181230PM/partners-disney-life-thumbnail-listing.jpg",
      "articleUrl": "https://www.globe.com.ph/about-us/newsroom/partners/globe-telecom-debuts-disneylife-in-asia.html",
      "columnType": "articles--type-3",
      "typeListing": "article",
      "imageMobile": "/sites/globe.com.ph/files/content/dam/globe/brie/About-us/Newsroom/image/Consumer/060620181230PM/partners-disney-life-banner-m.jpg",
      "imageDesktop": "/sites/globe.com.ph/files/content/dam/globe/brie/About-us/Newsroom/image/Consumer/060620181230PM/partners-disney-life-primary-thumbnail.jpg",
      "description": "Globe Telecom debuts DisneyLife in Asia. Visit the Globe Newsroom for the latest news on Globe Telecom.",
      "datePosted": "May 28, 2018 | 09:56 AM",
      "titleFromTag": "Partners"
    },
    {
      "title": "Tech Mahindra Taps GCash PowerPay for Easier, Faster Reimbursement",
      "nonclickable": false,
      "openNewTab": false,
      "borderArticle": "border-color:#0074D9;",
      "borderTopArticle": "border-top-color:#0074D9;",
      "imageListing": "/sites/globe.com.ph/files/content/dam/globe/brie/About-us/Newsroom/image/Consumer/060620181230PM/partners-tech-mahindra-gcash-thumbnail-listing.jpg",
      "articleUrl": "https://www.globe.com.ph/about-us/newsroom/consumer/tech-mahindra-taps-gcash-powerpay.html",
      "columnType": "articles--type-3",
      "typeListing": "article",
      "imageDesktop": "/sites/globe.com.ph/files/content/dam/globe/brie/About-us/Newsroom/image/Consumer/060620181230PM/partners-tech-mahindra-gcash-primary-thumbnail.jpg",
      "description": "Tech Mahindra taps GCash PowerPay for easier, faster reimbursement. Visit the Globe Newsroom for the latest news on Globe Telecom.",
      "datePosted": "May 26, 2018 | 05:41 AM",
      "titleFromTag": "Consumer"
    },
    {
      "title": "Globe, Disney Spearhead ‘Time Please’ Nationwide Volunteering Program",
      "nonclickable": false,
      "openNewTab": false,
      "borderArticle": "border-color:#0074D9;",
      "borderTopArticle": "border-top-color:#0074D9;",
      "imageListing": "/sites/globe.com.ph/files/content/dam/globe/brie/About-us/Newsroom/image/Consumer/060620181230PM/partners-disney-time-please-thumbnail-listing.jpg",
      "articleUrl": "https://www.globe.com.ph/about-us/newsroom/partners/globe-disney-spearhead-time-please.html",
      "columnType": "articles--type-3",
      "typeListing": "article",
      "imageDesktop": "/sites/globe.com.ph/files/content/dam/globe/brie/About-us/Newsroom/image/Consumer/060620181230PM/partners-disney-time-please-primary-thumbnail.jpg",
      "description": "Globe, Disney spearhead “Time Please” nationwide volunteering program. Visit the Globe Newsroom for the latest news on Globe Telecom.",
      "datePosted": "May 25, 2018 | 05:24 PM",
      "titleFromTag": "Partners"
    },
    {
      "title": "Enjoy Unstoppable Battles on Arena of Valor with Globe Prepaid",
      "nonclickable": false,
      "openNewTab": false,
      "borderArticle": "border-color:#0074D9;",
      "borderTopArticle": "border-top-color:#0074D9;",
      "imageListing": "/sites/globe.com.ph/files/content/dam/globe/brie/AboutUs/newsroom/common/Corporate_Globe_Listing.jpg",
      "articleUrl": "https://www.globe.com.ph/about-us/newsroom/consumer/enjoy-unstoppable-battles-on-arena.html",
      "columnType": "articles--type-3",
      "typeListing": "article",
      "imageDesktop": "/sites/globe.com.ph/files/content/dam/globe/brie/AboutUs/newsroom/common/Corporate_Globe_Primary-Desktop-Thumbnail.jpg",
      "description": "Enjoy unstoppable battles on Arena of Valor with Globe Prepaid. Visit the Globe Newsroom for the latest news on Globe Telecom.",
      "datePosted": "May 25, 2018 | 09:25 AM",
      "titleFromTag": "Consumer"
    },
    {
      "title": "Globe Expands LTE Coverage with 934 New Sites Nationwide in Q1",
      "nonclickable": false,
      "openNewTab": false,
      "borderArticle": "border-color:#0074D9;",
      "borderTopArticle": "border-top-color:#0074D9;",
      "imageListing": "/sites/globe.com.ph/files/content/dam/globe/brie/AboutUs/newsroom/common/Corporate_Globe_Listing.jpg",
      "articleUrl": "https://www.globe.com.ph/about-us/newsroom/corporate/globe-expands-lte-coverage.html",
      "columnType": "articles--type-3",
      "typeListing": "article",
      "imageDesktop": "/sites/globe.com.ph/files/content/dam/globe/brie/AboutUs/newsroom/common/Corporate_Globe_Primary-Desktop-Thumbnail.jpg",
      "description": "Globe expands LTE coverage with 934 new sites nationwide in Q1. Visit the Globe Newsroom for the latest news on Globe Telecom.",
      "datePosted": "May 24, 2018 | 04:37 PM",
      "titleFromTag": "Corporate"
    }
  ]
}
