{
  "status": 200,
  "page": 235,
  "totalPage": 298,
  "range": "2809-2820",
  "total": 3573,
  "result": [
    {
      "title": "Earth Day 2018 Inspires Volunteering Activities at Globe",
      "nonclickable": false,
      "openNewTab": false,
      "borderArticle": "border-color:#0074D9;",
      "borderTopArticle": "border-top-color:#0074D9;",
      "imageListing": "/sites/globe.com.ph/files/content/dam/globe/brie/About-us/Newsroom/image/Consumer/060620181230PM/partners-disney-time-please-thumbnail-listing.jpg",
      "articleUrl": "https://www.globe.com.ph/about-us/newsroom/sustainability/earth-day-2018-inspires-volunteering.html",
      "columnType": "articles--type-3",
      "typeListing": "article",
      "imageDesktop": "/sites/globe.com.ph/files/content/dam/globe/brie/About-us/Newsroom/image/Consumer/060620181230PM/community-earth-day-2018-primary-thumbnail.jpg",
      "description": "Earth Day 2018 inspires volunteering activities at Globe. Visit the Globe Newsroom for the latest news on Globe Telecom.",
      "datePosted": "May 24, 2018 | 11:48 AM",
      "titleFromTag": "Sustainability"
    },
    {
      "title": "11 Organizations Join Globe Telecom’s Nationwide Volunteering Program",
      "nonclickable": false,
      "openNewTab": false,
      "borderArticle": "border-color:#0074D9;",
      "borderTopArticle": "border-top-color:#0074D9;",
      "imageListing": "/sites/globe.com.ph/files/content/dam/globe/brie/About-us/Newsroom/image/Consumer/060620181230PM/community-11org-voluntering-program--listing.jpg",
      "articleUrl": "https://www.globe.com.ph/about-us/newsroom/sustainability/11-organizations-join-globe-telecom.html",
      "columnType": "articles--type-3",
      "typeListing": "article",
      "imageDesktop": "/sites/globe.com.ph/files/content/dam/globe/brie/About-us/Newsroom/image/Consumer/060620181230PM/community-11org-voluntering-program-primary-thumbnail.jpg",
      "description": "11 organizations join Globe Telecom’s nationwide volunteering program. Visit the Globe Newsroom for the latest news on Globe Telecom.",
      "datePosted": "May 23, 2018 | 01:24 PM",
      "titleFromTag": "Sustainability"
    },
    {
      "title": "Strokes by Momoi Supe, Globe Business: Creating a Perfect Destination",
      "nonclickable": false,
      "openNewTab": false,
      "borderArticle": "border-color:#0074D9;",
      "borderTopArticle": "border-top-color:#0074D9;",
      "imageListing": "/sites/globe.com.ph/files/content/dam/globe/brie/About-us/Newsroom/image/Consumer/060620181230PM/consumer-strokes-momoi-supe-thumbnail-listing.jpg",
      "articleUrl": "https://www.globe.com.ph/about-us/newsroom/business/strokes-by-momoi-supe-globe.html",
      "columnType": "articles--type-3",
      "typeListing": "article",
      "imageDesktop": "/sites/globe.com.ph/files/content/dam/globe/brie/About-us/Newsroom/image/Consumer/060620181230PM/consumer-strokes-momoi-supe-primary-thumbnail.jpg",
      "description": "Strokes by Momoi Supe and Globe Business: creating a perfect destination. Visit the Globe Newsroom for the latest news on Globe Telecom.",
      "datePosted": "May 23, 2018 | 10:49 AM",
      "titleFromTag": "Business"
    },
    {
      "title": "Banks Rely on Globe SD-WAN for Secure, Efficient, Profitable Operations",
      "nonclickable": false,
      "openNewTab": false,
      "borderArticle": "border-color:#0074D9;",
      "borderTopArticle": "border-top-color:#0074D9;",
      "imageListing": "/sites/globe.com.ph/files/content/dam/globe/brie/AboutUs/newsroom/common/Corporate_Globe_Listing.jpg",
      "articleUrl": "https://www.globe.com.ph/about-us/newsroom/business/banks-rely-on-globe-sd-wan.html",
      "columnType": "articles--type-3",
      "typeListing": "article",
      "imageDesktop": "/sites/globe.com.ph/files/content/dam/globe/brie/AboutUs/newsroom/common/Corporate_Globe_Primary-Desktop-Thumbnail.jpg",
      "description": "Banks rely on Globe SD-WAN for secure, efficient, profitable operations. Visit the Globe Newsroom for the latest news on Globe Telecom.",
      "datePosted": "May 22, 2018 | 03:46 PM",
      "titleFromTag": "Business"
    },
    {
      "title": "Optical Media Board Supports #PlayItRight",
      "nonclickable": false,
      "openNewTab": false,
      "borderArticle": "border-color:#0074D9;",
      "borderTopArticle": "border-top-color:#0074D9;",
      "imageListing": "/sites/globe.com.ph/files/content/dam/globe/brie/About-us/Newsroom/image/Consumer/060620181230PM/consumer-opticalmediaboard-supports-playitright-thumbnail-listing.jpg",
      "articleUrl": "https://www.globe.com.ph/about-us/newsroom/consumer/optical-media-board-supports.html",
      "columnType": "articles--type-3",
      "typeListing": "article",
      "imageDesktop": "/sites/globe.com.ph/files/content/dam/globe/brie/About-us/Newsroom/image/Consumer/060620181230PM/consumer-opticalmediaboard-supports-playitright-primary-thumbnail.jpg",
      "description": "Optical Media Board supports #PlayItRight. Visit the Globe Newsroom for the latest news on Globe Telecom.",
      "datePosted": "May 22, 2018 | 03:18 PM",
      "titleFromTag": "Consumer"
    },
    {
      "title": "Globe Bags Multiple Recognition at Asia-Pacific Stevie Awards",
      "nonclickable": false,
      "openNewTab": false,
      "borderArticle": "border-color:#0074D9;",
      "borderTopArticle": "border-top-color:#0074D9;",
      "imageListing": "/sites/globe.com.ph/files/content/dam/globe/brie/About-us/Newsroom/Generic-banner/Corporate_Globe_Listing.jpg",
      "articleUrl": "https://www.globe.com.ph/about-us/newsroom/sustainability/globe-bags-multiple-recognition.html",
      "columnType": "articles--type-3",
      "typeListing": "article",
      "imageDesktop": "/sites/globe.com.ph/files/content/dam/globe/brie/About-us/Newsroom/Generic-banner/Corporate_Globe_Primary-Desktop-Thumbnail.jpg",
      "description": "Globe bags multiple recognition at Asia-Pacific Stevie Awards. Visit the Globe Newroom for the latest news on Globe Telecom.",
      "datePosted": "May 22, 2018 | 10:17 AM",
      "titleFromTag": "Sustainability"
    },
    {
      "title": "Eliminate Dead Spots in your Home with Globe At Home WiFi Mesh Devices",
      "nonclickable": false,
      "openNewTab": false,
      "borderArticle": "border-color:#0074D9;",
      "borderTopArticle": "border-top-color:#0074D9;",
      "imageListing": "/sites/globe.com.ph/files/content/dam/globe/brie/AboutUs/newsroom/common/Corporate_Globe_Listing.jpg",
      "articleUrl": "https://www.globe.com.ph/about-us/newsroom/consumer/eliminate-dead-spots-in-your-home.html",
      "columnType": "articles--type-3",
      "typeListing": "article",
      "imageDesktop": "/sites/globe.com.ph/files/content/dam/globe/brie/AboutUs/newsroom/common/Corporate_Globe_Primary-Desktop-Thumbnail.jpg",
      "description": "Eliminate dead spots in your home with Globe At Home WiFi Mesh Devices. Visit the Globe Newsroom for the latest news on Globe Telecom",
      "datePosted": "May 19, 2018 | 01:42 PM",
      "titleFromTag": "Consumer"
    },
    {
      "title": "Road to the French Open 2018: Get to Know Alex Eala, the Next PH Tennis Superstar",
      "nonclickable": false,
      "openNewTab": false,
      "borderArticle": "border-color:#0074D9;",
      "borderTopArticle": "border-top-color:#0074D9;",
      "imageListing": "/sites/globe.com.ph/files/content/dam/globe/brie/About-us/Newsroom/image/Consumer/060620181230PM/new-06082018-6PM/consumer-frenchopen-alexeala-tennis-thumbnail-listing.jpg",
      "articleUrl": "https://www.globe.com.ph/about-us/newsroom/consumer/road-to-the-french-open-2018.html",
      "columnType": "articles--type-3",
      "typeListing": "article",
      "imageDesktop": "/sites/globe.com.ph/files/content/dam/globe/brie/About-us/Newsroom/image/Consumer/060620181230PM/new-06082018-6PM/consumer-frenchopen-alexeala-tennis-primary-thumbnail.jpg",
      "description": "Road to the French Open 2018: Get to know Alex Eala, the next PH tennis superstar. Visit the Globe Newsroom for the latest news on Globe Telecom.",
      "datePosted": "May 18, 2018 | 02:21 PM",
      "titleFromTag": "Consumer"
    },
    {
      "title": "Kickstart Ventures Shares Insights at 51st ADB Annual Meeting",
      "nonclickable": false,
      "openNewTab": false,
      "borderArticle": "border-color:#0074D9;",
      "borderTopArticle": "border-top-color:#0074D9;",
      "imageListing": "/sites/globe.com.ph/files/content/dam/globe/brie/AboutUs/newsroom/common/Corporate_Globe_Listing.jpg",
      "articleUrl": "https://www.globe.com.ph/about-us/newsroom/consumer/kickstart-ventures-shares-insights-at-51st.html",
      "columnType": "articles--type-3",
      "typeListing": "article",
      "imageDesktop": "/sites/globe.com.ph/files/content/dam/globe/brie/AboutUs/newsroom/common/Corporate_Globe_Primary-Desktop-Thumbnail.jpg",
      "description": "Kickstart Ventures shares insights at 51st ADB annual meeting. Visit the Globe Newsroom for the latest news on Globe Telecom.",
      "datePosted": "May 17, 2018 | 03:09 PM",
      "titleFromTag": "Consumer"
    },
    {
      "title": "Globe Brings Bigger-Than-Ever GoSURF, GoSAKTO Promos With Free 2 GB Data",
      "nonclickable": false,
      "openNewTab": false,
      "borderArticle": "border-color:#0074D9;",
      "borderTopArticle": "border-top-color:#0074D9;",
      "imageListing": "/sites/globe.com.ph/files/content/dam/globe/brie/About-us/Newsroom/image/Consumer/060620181230PM/new-06082018/consumer-gosurf-gosakto-data-thumbnail-listing.png",
      "articleUrl": "https://www.globe.com.ph/about-us/newsroom/consumer/globe-brings-bigger-than-ever.html",
      "columnType": "articles--type-3",
      "typeListing": "article",
      "imageDesktop": "/sites/globe.com.ph/files/content/dam/globe/brie/About-us/Newsroom/image/Consumer/060620181230PM/new-06082018/consumer-gosurf-gosakto-data-primary-thumbnail.png",
      "description": "Globe brings bigger-than-ever GoSURF and GoSAKTO promos with free 2 GB data. Visit the Globe Newsroom for the latest news on Globe Telecom.",
      "datePosted": "May 17, 2018 | 02:47 PM",
      "titleFromTag": "Consumer"
    },
    {
      "title": "Vikings Group Launched GCash Scan to Pay at All Its Restaurants Nationwide",
      "nonclickable": false,
      "openNewTab": false,
      "borderArticle": "border-color:#0074D9;",
      "borderTopArticle": "border-top-color:#0074D9;",
      "imageListing": "/sites/globe.com.ph/files/content/dam/globe/brie/AboutUs/newsroom/partners/vikings-group-launched-gcash-scan-to-pay/partners-gcash-vikings-thumbnail-listing.png",
      "articleUrl": "https://www.globe.com.ph/about-us/newsroom/partners/vikings-group-launched-gcash-scan-to-pay.html",
      "columnType": "articles--type-3",
      "typeListing": "article",
      "imageMobile": "/sites/globe.com.ph/files/content/dam/globe/brie/AboutUs/newsroom/partners/vikings-group-launched-gcash-scan-to-pay/partners-gcash-vikings-banner-m.png",
      "imageDesktop": "/sites/globe.com.ph/files/content/dam/globe/brie/AboutUs/newsroom/partners/vikings-group-launched-gcash-scan-to-pay/partners-gcash-vikings-primary-thumbnail.png",
      "description": "Vikings Group Launched GCash Scan to Pay at All Its Restaurants Nationwide. Visit the Globe Newsroom for the latest news on Globe Telecom.",
      "datePosted": "May 11, 2018 | 03:28 PM",
      "titleFromTag": "Partners"
    },
    {
      "title": "GCash Now Accepted in Alfamart",
      "nonclickable": false,
      "openNewTab": false,
      "borderArticle": "border-color:#0074D9;",
      "borderTopArticle": "border-top-color:#0074D9;",
      "imageListing": "/sites/globe.com.ph/files/content/dam/globe/brie/AboutUs/newsroom/partners/gcash-is-now-accepted-in-alfamart/partners-gcash-alfamart-thumbnail-listing.png",
      "articleUrl": "https://www.globe.com.ph/about-us/newsroom/partners/gcash-is-now-accepted-in-alfamart.html",
      "columnType": "articles--type-3",
      "typeListing": "article",
      "imageDesktop": "/sites/globe.com.ph/files/content/dam/globe/brie/AboutUs/newsroom/partners/gcash-is-now-accepted-in-alfamart/partners-gcash-alfamart-primary-thumbnail.png",
      "description": "GCash Now Accepted in Alfamart. Visit the Globe Newsroom for the latest news on Globe Telecom.",
      "datePosted": "May 11, 2018 | 03:17 PM",
      "titleFromTag": "Partners"
    }
  ]
}
