{
  "status": 200,
  "page": 236,
  "totalPage": 298,
  "range": "2821-2832",
  "total": 3573,
  "result": [
    {
      "title": "PH Soaring Data Consumption Bodes Well for Globe",
      "nonclickable": false,
      "openNewTab": false,
      "borderArticle": "border-color:#0074D9;",
      "borderTopArticle": "border-top-color:#0074D9;",
      "imageListing": "/sites/globe.com.ph/files/content/dam/globe/brie/AboutUs/newsroom/common/Corporate_Globe_Listing.jpg",
      "articleUrl": "https://www.globe.com.ph/about-us/newsroom/corporate/ph-soaring-data-consumption-bodes.html",
      "columnType": "articles--type-3",
      "typeListing": "article",
      "imageDesktop": "/sites/globe.com.ph/files/content/dam/globe/brie/AboutUs/newsroom/common/Corporate_Globe_Primary-Desktop-Thumbnail.jpg",
      "description": "PH soaring data consumption bodes well for Globe. Visit the Globe Newsroom for the latest news on Globe Telecom.",
      "datePosted": "May 11, 2018 | 09:57 AM",
      "titleFromTag": "Corporate"
    },
    {
      "title": " Globe Activates LTE in Bongao, Tawi-Tawi",
      "nonclickable": false,
      "openNewTab": false,
      "borderArticle": "border-color:#0074D9;",
      "borderTopArticle": "border-top-color:#0074D9;",
      "imageListing": "/sites/globe.com.ph/files/content/dam/globe/brie/AboutUs/newsroom/common/Corporate_Globe_Listing.jpg",
      "articleUrl": "https://www.globe.com.ph/about-us/newsroom/corporate/globe-activates-lte-in-bongao.html",
      "columnType": "articles--type-3",
      "typeListing": "article",
      "imageDesktop": "/sites/globe.com.ph/files/content/dam/globe/brie/AboutUs/newsroom/common/Corporate_Globe_Primary-Desktop-Thumbnail.jpg",
      "description": "Globe activates LTE in Bongao, Tawi-Tawi. Visit the Globe Newsroom for the latest news on Globe Telecom.",
      "datePosted": "May 09, 2018 | 04:26 PM",
      "titleFromTag": "Corporate"
    },
    {
      "title": "Spreading Acts of Kindness in PH",
      "nonclickable": false,
      "openNewTab": false,
      "borderArticle": "border-color:#0074D9;",
      "borderTopArticle": "border-top-color:#0074D9;",
      "imageListing": "/sites/globe.com.ph/files/content/dam/globe/brie/About-us/Newsroom/Generic-banner/Corporate_Globe_Listing.jpg",
      "articleUrl": "https://www.globe.com.ph/about-us/newsroom/sustainability/spreading-acts-of-kindness-in-ph.html",
      "columnType": "articles--type-3",
      "typeListing": "article",
      "imageDesktop": "/sites/globe.com.ph/files/content/dam/globe/brie/About-us/Newsroom/Generic-banner/Corporate_Globe_Primary-Desktop-Thumbnail.jpg",
      "description": "Spreading acts of kindness in Philippines. Visit the Globe Newsroom for the latest news on Globe Telecom.",
      "datePosted": "May 09, 2018 | 10:13 AM",
      "titleFromTag": "Sustainability"
    },
    {
      "title": "Globe Sets Its Sights on Creating a New Stage for Fashion in PH",
      "nonclickable": false,
      "openNewTab": false,
      "borderArticle": "border-color:#0074D9;",
      "borderTopArticle": "border-top-color:#0074D9;",
      "imageListing": "/sites/globe.com.ph/files/content/dam/globe/brie/AboutUs/newsroom/common/Corporate_Globe_Listing.jpg",
      "articleUrl": "https://www.globe.com.ph/about-us/newsroom/consumer/globe-sets-its-sights-on-creating-a-new-stage-for-fashion-in-PH.html",
      "columnType": "articles--type-3",
      "typeListing": "article",
      "imageDesktop": "/sites/globe.com.ph/files/content/dam/globe/brie/AboutUs/newsroom/common/Corporate_Globe_Primary-Desktop-Thumbnail.jpg",
      "description": "Globe sets its sights on creating a new stage for fashion in PH. Visit the Globe Newsroom for the latest news on Globe Telecom.",
      "datePosted": "May 09, 2018 | 10:13 AM",
      "titleFromTag": "Consumer"
    },
    {
      "title": "Global Companies Join Globe Telecom in Enhancing Public School Teacher Training in PH",
      "nonclickable": false,
      "openNewTab": false,
      "borderArticle": "border-color:#0074D9;",
      "borderTopArticle": "border-top-color:#0074D9;",
      "imageListing": "/sites/globe.com.ph/files/content/dam/globe/brie/About-us/Newsroom/image/Consumer/060620181230PM/consumer-public-teacher-training-thumbnail-listing.png",
      "articleUrl": "https://www.globe.com.ph/about-us/newsroom/consumer/global-companies-join-globe-telecom.html",
      "columnType": "articles--type-3",
      "typeListing": "article",
      "imageDesktop": "/sites/globe.com.ph/files/content/dam/globe/brie/About-us/Newsroom/image/Consumer/060620181230PM/consumer-public-teacher-training-primary-thumbnail.png",
      "description": "Global companies join Globe Telecom in enhancing public school teacher training in PH. Visit the Globe Newsroom for the latest news on Globe Telecom",
      "datePosted": "May 08, 2018 | 02:21 PM",
      "titleFromTag": "Consumer"
    },
    {
      "title": "Globe Volunteers Lend a Hand to Julyan’s Farm to Help People with Special Needs",
      "nonclickable": false,
      "openNewTab": false,
      "borderArticle": "border-color:#0074D9;",
      "borderTopArticle": "border-top-color:#0074D9;",
      "imageListing": "/sites/globe.com.ph/files/content/dam/globe/brie/About-us/Newsroom/image/Consumer/060620181230PM/sustainability-globe-julyans-farm-thumbnail-listing.jpg",
      "articleUrl": "https://www.globe.com.ph/about-us/newsroom/sustainability/globe-volunteers-lend-a-hand.html",
      "columnType": "articles--type-3",
      "typeListing": "article",
      "imageDesktop": "/sites/globe.com.ph/files/content/dam/globe/brie/About-us/Newsroom/image/Consumer/060620181230PM/sustainability-globe-julyans-farm-primary-thumbnail.jpg",
      "description": "Globe volunteers lend a hand to Julyan’s Farm to help people with special needs. Visit the Globe Newsroom for the latest news on Globe Telecom.",
      "datePosted": "May 04, 2018 | 02:57 PM",
      "titleFromTag": "Sustainability"
    },
    {
      "title": "Wattpad Now Reaches 7 Million People in PH Each Month",
      "nonclickable": false,
      "openNewTab": false,
      "borderArticle": "border-color:#0074D9;",
      "borderTopArticle": "border-top-color:#0074D9;",
      "imageListing": "/sites/globe.com.ph/files/content/dam/globe/brie/AboutUs/newsroom/common/Corporate_Globe_Listing.jpg",
      "articleUrl": "https://www.globe.com.ph/about-us/newsroom/partners/wattpad-now-reaches-7-million.html",
      "columnType": "articles--type-3",
      "typeListing": "article",
      "imageDesktop": "/sites/globe.com.ph/files/content/dam/globe/brie/AboutUs/newsroom/common/Corporate_Globe_Primary-Desktop-Thumbnail.jpg",
      "description": "Wattpad now reaches seven million people in the Philippines each month. Visit the Globe Newsroom for the latest news on Globe Telecom.",
      "datePosted": "May 04, 2018 | 09:53 AM",
      "titleFromTag": "Partners"
    },
    {
      "title": "BSP, GCash Support Digitized Economy",
      "nonclickable": false,
      "openNewTab": false,
      "borderArticle": "border-color:#0074D9;",
      "borderTopArticle": "border-top-color:#0074D9;",
      "imageListing": "/sites/globe.com.ph/files/content/dam/globe/brie/About-us/Newsroom/image/Consumer/060620181217PM/consumer-bpi-gcash-digitized-thumbnail-listing.png",
      "articleUrl": "https://www.globe.com.ph/about-us/newsroom/partners/bsp-gcash-support-digitized-economy.html",
      "columnType": "articles--type-3",
      "typeListing": "article",
      "imageDesktop": "/sites/globe.com.ph/files/content/dam/globe/brie/About-us/Newsroom/image/Consumer/060620181217PM/consumer-bpi-gcash-digitized-primary-thumbnail.png",
      "description": "BSP, GCash support digitized economy. Visit the Globe Newsroom for the latest news on Globe Telecom.",
      "datePosted": "May 03, 2018 | 05:27 PM",
      "titleFromTag": "Partners"
    },
    {
      "title": "Globe At Home Features Filipino Comedian Kiray in New #PlayItRight Video to Combat Piracy",
      "nonclickable": false,
      "openNewTab": false,
      "borderArticle": "border-color:#0074D9;",
      "borderTopArticle": "border-top-color:#0074D9;",
      "imageListing": "/sites/globe.com.ph/files/content/dam/globe/brie/About-us/Newsroom/image/Consumer/060620181214PM/consumer-globe-at-home-thumbnail-listing.jpg",
      "articleUrl": "https://www.globe.com.ph/about-us/newsroom/consumer/globe-at-home-features-filipino.html",
      "columnType": "articles--type-3",
      "typeListing": "article",
      "imageDesktop": "/sites/globe.com.ph/files/content/dam/globe/brie/About-us/Newsroom/image/Consumer/060620181214PM/consumer-globe-at-home-primary-thumbnail.jpg",
      "description": "Globe At Home features Filipino comedian Kiray in new #PlayItRight video to combat piracy. Visit the Globe Newsroom for the latest news on Globe Telecom.",
      "datePosted": "May 03, 2018 | 12:01 PM",
      "titleFromTag": "Consumer"
    },
    {
      "title": "Fresh From the Oven: Auntie Anne’s Unveils New Custom Branded Loyalty App Powered by RUSH",
      "nonclickable": false,
      "openNewTab": false,
      "borderArticle": "border-color:#0074D9;",
      "borderTopArticle": "border-top-color:#0074D9;",
      "imageListing": "/sites/globe.com.ph/files/content/dam/globe/brie/About-us/Newsroom/image/Consumer/060620181216PM/consumer-fresh-from-oven-thumbnail-listing.png",
      "articleUrl": "https://www.globe.com.ph/about-us/newsroom/consumer/fresh-from-the-oven-auntie.html",
      "columnType": "articles--type-3",
      "typeListing": "article",
      "imageDesktop": "/sites/globe.com.ph/files/content/dam/globe/brie/About-us/Newsroom/image/Consumer/060620181216PM/consumer-fresh-from-oven-primary-thumbnail.png",
      "description": "Fresh from the oven: Auntie Anne’s unveils new custom branded loyalty app powered by RUSH. Visit the Globe Newsroom for the latest news on Globe Telecom.",
      "datePosted": "May 03, 2018 | 10:23 AM",
      "titleFromTag": "Consumer"
    },
    {
      "title": "“It’s a Girl Thing”—An Event to Inspire and Unite Young Women",
      "nonclickable": false,
      "openNewTab": false,
      "borderArticle": "border-color:#0074D9;",
      "borderTopArticle": "border-top-color:#0074D9;",
      "imageListing": "/sites/globe.com.ph/files/content/dam/globe/brie/AboutUs/newsroom/consumer/Consumer_Its-A-Girl/Consumer_Its-A-Girl_Thumbnail-Listing.jpg",
      "articleUrl": "https://www.globe.com.ph/about-us/newsroom/consumer/its-a-girl-thing.html",
      "columnType": "articles--type-3",
      "typeListing": "article",
      "imageMobile": "/sites/globe.com.ph/files/content/dam/globe/brie/AboutUs/newsroom/consumer/Consumer_Its-A-Girl/Consumer_Its-A-Girl_Banner-M.jpg",
      "imageDesktop": "/sites/globe.com.ph/files/content/dam/globe/brie/AboutUs/newsroom/consumer/Consumer_Its-A-Girl/Consumer_Its-A-Girl_Primary-Thumbnail.jpg",
      "description": "It’s a Girl Thing, a part live show and part experiential festival, is coming to Manila, Philippines for the global #itsagirlthing tour. Learn more here.",
      "datePosted": "May 02, 2018 | 03:12 PM",
      "titleFromTag": "Consumer"
    },
    {
      "title": "Do More of What You Love with Globe Postpaid ThePLAN PLUS and Up to 2x More Data",
      "nonclickable": false,
      "openNewTab": false,
      "borderArticle": "border-color:#0074D9;",
      "borderTopArticle": "border-top-color:#0074D9;",
      "imageListing": "/sites/globe.com.ph/files/content/dam/globe/brie/About-us/Newsroom/image/Consumer/0606201811AM/consumer-globe-plan-plus-thumbnail-listing.jpg",
      "articleUrl": "https://www.globe.com.ph/about-us/newsroom/consumer/do-more-of-what-you-love-with-globe.html",
      "columnType": "articles--type-3",
      "typeListing": "article",
      "imageDesktop": "/sites/globe.com.ph/files/content/dam/globe/brie/About-us/Newsroom/image/Consumer/0606201811AM/consumer-globe-plan-plus-primary-thumbnail.jpg",
      "description": "Do more of what you love with Globe Postpaid ThePLAN PLUS and up to 2x more data. Visit the Globe Newsroom for the latest on Globe Telecom.",
      "datePosted": "May 02, 2018 | 11:30 AM",
      "titleFromTag": "Consumer"
    }
  ]
}
