{
  "status": 200,
  "page": 237,
  "totalPage": 298,
  "range": "2833-2844",
  "total": 3573,
  "result": [
    {
      "title": "Globe GCash Now Accepts PRN-Based SSS Payments from Employers",
      "nonclickable": false,
      "openNewTab": false,
      "borderArticle": "border-color:#0074D9;",
      "borderTopArticle": "border-top-color:#0074D9;",
      "imageListing": "/sites/globe.com.ph/files/content/dam/globe/brie/AboutUs/newsroom/common/Corporate_Globe_Listing.jpg",
      "articleUrl": "https://www.globe.com.ph/about-us/newsroom/partners/globe-gcash-now-accepts-prn-based-sss-payments.html",
      "columnType": "articles--type-3",
      "typeListing": "article",
      "imageDesktop": "/sites/globe.com.ph/files/content/dam/globe/brie/AboutUs/newsroom/common/Corporate_Globe_Primary-Desktop-Thumbnail.jpg",
      "description": "Globe GCash now accepts PRN-based SSS payments from employers. Visit the Globe Newsroom for the latest news on Globe Telecom",
      "datePosted": "May 01, 2018 | 04:15 PM",
      "titleFromTag": "Partners"
    },
    {
      "title": "‘Black White Red’ Animated Video Gives Light to Depression",
      "nonclickable": false,
      "openNewTab": false,
      "borderArticle": "border-color:#0074D9;",
      "borderTopArticle": "border-top-color:#0074D9;",
      "imageListing": "/sites/globe.com.ph/files/content/dam/globe/brie/About-us/Newsroom/image/Consumer/0606201812PM/consumer-black-white-red-thumbnail-listing.jpg",
      "articleUrl": "https://www.globe.com.ph/about-us/newsroom/consumer/black-white-red-animated.html",
      "columnType": "articles--type-3",
      "typeListing": "article",
      "imageDesktop": "/sites/globe.com.ph/files/content/dam/globe/brie/About-us/Newsroom/image/Consumer/0606201812PM/consumer-black-white-red-primary-thumbnail.jpg",
      "description": "‘Black White Red’ animated video gives light to depression. Visit the Globe Newsroom for the latest news on Globe Telecom.",
      "datePosted": "Apr 30, 2018 | 05:03 PM",
      "titleFromTag": "Consumer"
    },
    {
      "title": "The Harry Styles: Live on Tour Ultimate Checklist",
      "nonclickable": false,
      "openNewTab": false,
      "borderArticle": "border-color:#0074D9;",
      "borderTopArticle": "border-top-color:#0074D9;",
      "imageListing": "/sites/globe.com.ph/files/content/dam/globe/brie/About-us/Newsroom/image/Consumer/05242018321PM/consumer-harry-styles-tour-thumbnail-listing.png",
      "articleUrl": "https://www.globe.com.ph/about-us/newsroom/consumer/harry-styles-live-on-tour.html",
      "columnType": "articles--type-3",
      "typeListing": "article",
      "imageDesktop": "/sites/globe.com.ph/files/content/dam/globe/brie/About-us/Newsroom/image/Consumer/05242018321PM/consumer-harry-styles-tour-primary-thumbnail.png",
      "description": "The Harry Styles: Live on Tour Ultimate Checklist. Read the full details on Newsroom.",
      "datePosted": "Apr 30, 2018 | 11:04 AM",
      "titleFromTag": "Consumer"
    },
    {
      "title": "Globe Business Empowers Business Owners in PH to Create Perfect Destinations",
      "nonclickable": false,
      "openNewTab": false,
      "borderArticle": "border-color:#0074D9;",
      "borderTopArticle": "border-top-color:#0074D9;",
      "imageListing": "/sites/globe.com.ph/files/content/dam/globe/brie/AboutUs/newsroom/common/Corporate_Globe_Listing.jpg",
      "articleUrl": "https://www.globe.com.ph/about-us/newsroom/consumer/globe-mybusiness-empowers.html",
      "columnType": "articles--type-3",
      "typeListing": "article",
      "imageDesktop": "/sites/globe.com.ph/files/content/dam/globe/brie/AboutUs/newsroom/common/Corporate_Globe_Primary-Desktop-Thumbnail.jpg",
      "description": "Globe Business empowers business owners in PH to create perfect destinations. Visit the Globe Newsroom for the latest news on Globe Telecom.",
      "datePosted": "Apr 29, 2018 | 03:07 PM",
      "titleFromTag": "Consumer"
    },
    {
      "title": "Get 6-Month Access to FOX+ App with Globe At Home Plans",
      "nonclickable": false,
      "openNewTab": false,
      "borderArticle": "border-color:#0074D9;",
      "borderTopArticle": "border-top-color:#0074D9;",
      "imageListing": "/sites/globe.com.ph/files/content/dam/globe/brie/AboutUs/newsroom/common/Corporate_Globe_Listing.jpg",
      "articleUrl": "https://www.globe.com.ph/about-us/newsroom/consumer/get-6-month-access-to-fox-plus.html",
      "columnType": "articles--type-3",
      "typeListing": "article",
      "imageDesktop": "/sites/globe.com.ph/files/content/dam/globe/brie/AboutUs/newsroom/common/Corporate_Globe_Primary-Desktop-Thumbnail.jpg",
      "description": "Get 6 months access to FOX+ app with Globe At Home Plans. Visit the Globe Newsroom for the latest news on Globe Telecom.",
      "datePosted": "Apr 29, 2018 | 03:07 PM",
      "titleFromTag": "Consumer"
    },
    {
      "title": " Every Household Should have the Globe At Home WiFi TV Pack",
      "nonclickable": false,
      "openNewTab": false,
      "borderArticle": "border-color:#0074D9;",
      "borderTopArticle": "border-top-color:#0074D9;",
      "imageListing": "/sites/globe.com.ph/files/content/dam/globe/brie/AboutUs/newsroom/common/Corporate_Globe_Listing.jpg",
      "articleUrl": "https://www.globe.com.ph/about-us/newsroom/consumer/every-household-globe-at-home.html",
      "columnType": "articles--type-3",
      "typeListing": "article",
      "imageDesktop": "/sites/globe.com.ph/files/content/dam/globe/brie/AboutUs/newsroom/common/Corporate_Globe_Primary-Desktop-Thumbnail.jpg",
      "description": "Every Household Should have the Globe At Home WiFi TV Pack. Read the full details on Newsroom.",
      "datePosted": "Apr 27, 2018 | 12:48 PM",
      "titleFromTag": "Consumer"
    },
    {
      "title": " Kick Off an Exciting Summer with Globe Sunkissed",
      "nonclickable": false,
      "openNewTab": false,
      "borderArticle": "border-color:#0074D9;",
      "borderTopArticle": "border-top-color:#0074D9;",
      "imageListing": "/sites/globe.com.ph/files/content/dam/globe/brie/About-us/Newsroom/Generic-banner/Corporate_Globe_Listing.jpg",
      "articleUrl": "https://www.globe.com.ph/about-us/newsroom/consumer/kick-off-exciting-summer-globe.html",
      "columnType": "articles--type-3",
      "typeListing": "article",
      "imageDesktop": "/sites/globe.com.ph/files/content/dam/globe/brie/About-us/Newsroom/Generic-banner/Corporate_Globe_Primary-Desktop-Thumbnail.jpg",
      "description": "Kick Off an Exciting Summer with Globe Sunkissed. Read the full details on Newsroom.",
      "datePosted": "Apr 27, 2018 | 12:32 PM",
      "titleFromTag": "Consumer"
    },
    {
      "title": " Globe Supports 2 Grade Schoolers Representing PH at Robotics World Championships",
      "nonclickable": false,
      "openNewTab": false,
      "borderArticle": "border-color:#0074D9;",
      "borderTopArticle": "border-top-color:#0074D9;",
      "imageListing": "/sites/globe.com.ph/files/content/dam/globe/brie/About-us/Newsroom/Generic-banner/Corporate_Globe_Listing.jpg",
      "articleUrl": "https://www.globe.com.ph/about-us/newsroom/sustainability/globe-supports-2-grade-schoolers.html",
      "columnType": "articles--type-3",
      "typeListing": "article",
      "imageDesktop": "/sites/globe.com.ph/files/content/dam/globe/brie/About-us/Newsroom/Generic-banner/Corporate_Globe_Primary-Desktop-Thumbnail.jpg",
      "description": "Globe Supports 2 Grade Schoolers Representing PH at Robotics World Championships. Read the full details on Newsroom.",
      "datePosted": "Apr 26, 2018 | 03:38 PM",
      "titleFromTag": "Sustainability"
    },
    {
      "title": " GMA-7 Employees’ Multipurpose Cooperative Adopts GCash E-Payment System",
      "nonclickable": false,
      "openNewTab": false,
      "borderArticle": "border-color:#0074D9;",
      "borderTopArticle": "border-top-color:#0074D9;",
      "imageListing": "/sites/globe.com.ph/files/content/dam/globe/brie/AboutUs/newsroom/common/Corporate_Globe_Listing.jpg",
      "articleUrl": "https://www.globe.com.ph/about-us/newsroom/consumer/gma-7-employees-multipurpose-cooper.html",
      "columnType": "articles--type-3",
      "typeListing": "article",
      "imageDesktop": "/sites/globe.com.ph/files/content/dam/globe/brie/AboutUs/newsroom/common/Corporate_Globe_Primary-Desktop-Thumbnail.jpg",
      "description": "GMA-7 Employees’ Multipurpose Cooperative Adopts GCash E-Payment System. Read the full details on Newsroom.",
      "datePosted": "Apr 25, 2018 | 04:38 PM",
      "titleFromTag": "Consumer"
    },
    {
      "title": " Globe Brings Exciting Perks, Promos for Marvel Studios’ Avengers: Infinity War",
      "nonclickable": false,
      "openNewTab": false,
      "borderArticle": "border-color:#0074D9;",
      "borderTopArticle": "border-top-color:#0074D9;",
      "imageListing": "/sites/globe.com.ph/files/content/dam/globe/brie/About-us/Newsroom/Generic-banner/Corporate_Globe_Listing.jpg",
      "articleUrl": "https://www.globe.com.ph/about-us/newsroom/consumer/globe-brings-exciting-perks-promos.html",
      "columnType": "articles--type-3",
      "typeListing": "article",
      "imageDesktop": "/sites/globe.com.ph/files/content/dam/globe/brie/About-us/Newsroom/Generic-banner/Corporate_Globe_Primary-Desktop-Thumbnail.jpg",
      "description": "Globe Brings Exciting Perks, Promos for Marvel Studios’ Avengers: Infinity War. Read the full details on Newsroom.",
      "datePosted": "Apr 24, 2018 | 06:20 PM",
      "titleFromTag": "Consumer"
    },
    {
      "title": "The Ultimate Concert Guide to EXO PLANET #4: The ElyXiOn",
      "nonclickable": false,
      "openNewTab": false,
      "borderArticle": "border-color:#0074D9;",
      "borderTopArticle": "border-top-color:#0074D9;",
      "imageListing": "/sites/globe.com.ph/files/content/dam/globe/brie/About-us/Newsroom/image/Consumer/05242018143PM/consumer-exo-live-guide-thumbnail-listing.png",
      "articleUrl": "https://www.globe.com.ph/about-us/newsroom/consumer/ultimate-concert-guide-exo-planet.html",
      "columnType": "articles--type-3",
      "typeListing": "article",
      "imageDesktop": "/sites/globe.com.ph/files/content/dam/globe/brie/About-us/Newsroom/image/Consumer/05242018143PM/consumer-exo-live-guideprimary-thumbnail.png",
      "description": "The Ultimate Concert Guide to EXO PLANET #4: The ElyXiOn. Read the full details on Newsroom.",
      "datePosted": "Apr 24, 2018 | 12:41 PM",
      "titleFromTag": "Consumer"
    },
    {
      "title": " Top BPO Company IBEX Global Now Powered by GCash PowerPay+",
      "nonclickable": false,
      "openNewTab": false,
      "borderArticle": "border-color:#0074D9;",
      "borderTopArticle": "border-top-color:#0074D9;",
      "imageListing": "/sites/globe.com.ph/files/content/dam/globe/brie/About-us/Newsroom/image/Partners/502420181PM/new-06082018/new-06082018/partner-ibex-gcash-powered-thumbnail-listing.png",
      "articleUrl": "https://www.globe.com.ph/about-us/newsroom/consumer/top-bpo-company-ibex-global.html",
      "columnType": "articles--type-3",
      "typeListing": "article",
      "imageDesktop": "/sites/globe.com.ph/files/content/dam/globe/brie/About-us/Newsroom/image/Partners/502420181PM/new-06082018/new-06082018/partner-ibex-gcash-powered-primary-thumbnail.png",
      "description": "Top BPO Company IBEX Global Now Powered by GCash PowerPay+. Read the full details on Newsroom.",
      "datePosted": "Apr 23, 2018 | 02:46 PM",
      "titleFromTag": "Consumer"
    }
  ]
}
