{
  "status": 200,
  "page": 238,
  "totalPage": 298,
  "range": "2845-2856",
  "total": 3573,
  "result": [
    {
      "title": "Switch to Globe LTE-powered SIM for FREE",
      "nonclickable": false,
      "openNewTab": false,
      "borderArticle": "border-color:#0074D9;",
      "borderTopArticle": "border-top-color:#0074D9;",
      "imageListing": "/sites/globe.com.ph/files/content/dam/globe/brie/About-us/Newsroom/image/Consumer/05242018145PM/consumer-free-lte-sim-thumbnail-listing.png",
      "articleUrl": "https://www.globe.com.ph/about-us/newsroom/consumer/switch-globe-lte-powered-sim.html",
      "columnType": "articles--type-3",
      "typeListing": "article",
      "imageDesktop": "/sites/globe.com.ph/files/content/dam/globe/brie/About-us/Newsroom/image/Consumer/05242018145PM/consumer-free-lte-sim-primary-thumbnail.png",
      "description": "Switch to Globe LTE-powered SIM for FREE. Read the full details on Newsroom.",
      "datePosted": "Apr 22, 2018 | 12:16 PM",
      "titleFromTag": "Consumer"
    },
    {
      "title": " Here’s Your Chance to Join the Harry Styles Fan Fair",
      "nonclickable": false,
      "openNewTab": false,
      "borderArticle": "border-color:#0074D9;",
      "borderTopArticle": "border-top-color:#0074D9;",
      "imageListing": "/sites/globe.com.ph/files/content/dam/globe/brie/About-us/Newsroom/image/Consumer/05242018135PM/consumer-harry-styles-fair-thumbnail-listing.png",
      "articleUrl": "https://www.globe.com.ph/about-us/newsroom/consumer/heres-chance-join-harry-styles.html",
      "columnType": "articles--type-3",
      "typeListing": "article",
      "imageDesktop": "/sites/globe.com.ph/files/content/dam/globe/brie/About-us/Newsroom/image/Consumer/05242018135PM/consumer-harry-styles-fair-primary-thumbnail.png",
      "description": "Here’s Your Chance to Join the Harry Styles Fan Fair. Read the full details on Newsroom.",
      "datePosted": "Apr 20, 2018 | 09:23 AM",
      "titleFromTag": "Consumer"
    },
    {
      "title": " Globe Gaming Launched",
      "nonclickable": false,
      "openNewTab": false,
      "borderArticle": "border-color:#0074D9;",
      "borderTopArticle": "border-top-color:#0074D9;",
      "imageListing": "/sites/globe.com.ph/files/content/dam/globe/brie/About-us/Newsroom/image/Consumer/05242018139PM/consumer-globe-gaming-launched-thumbnail-listing.png",
      "articleUrl": "https://www.globe.com.ph/about-us/newsroom/consumer/globe-gaming-launched.html",
      "columnType": "articles--type-3",
      "typeListing": "article",
      "imageDesktop": "/sites/globe.com.ph/files/content/dam/globe/brie/About-us/Newsroom/image/Consumer/05242018139PM/consumer-globe-gaming-launched-primary-thumbnail.png",
      "description": "Globe Gaming Launched. Read the full details on Newsroom.",
      "datePosted": "Apr 19, 2018 | 06:04 PM",
      "titleFromTag": "Consumer"
    },
    {
      "title": " Globe Calls for Collaborations to Create Ripples of Impact through Volunteerism ",
      "nonclickable": false,
      "openNewTab": false,
      "borderArticle": "border-color:#0074D9;",
      "borderTopArticle": "border-top-color:#0074D9;",
      "imageListing": "/sites/globe.com.ph/files/content/dam/globe/brie/About-us/Newsroom/image/Sustainability/05242018130AM/community-globe-collaboration_volunteerism-thumbnail-listing.png",
      "articleUrl": "https://www.globe.com.ph/about-us/newsroom/sustainability/globe-calls-collaborations-create-ripples.html",
      "columnType": "articles--type-3",
      "typeListing": "article",
      "imageDesktop": "/sites/globe.com.ph/files/content/dam/globe/brie/About-us/Newsroom/image/Sustainability/05242018130AM/community-globe-collaboration_volunteerism-primary-thumbnail.png",
      "description": "Globe Calls for Collaborations to Create Ripples of Impact through Volunteerism. Read the full details on Newsroom.",
      "datePosted": "Apr 18, 2018 | 11:15 AM",
      "titleFromTag": "Sustainability"
    },
    {
      "title": " Globe Strengthens Campaign to Fight Piracy",
      "nonclickable": false,
      "openNewTab": false,
      "borderArticle": "border-color:#0074D9;",
      "borderTopArticle": "border-top-color:#0074D9;",
      "imageListing": "/sites/globe.com.ph/files/content/dam/globe/brie/About-us/Newsroom/image/Corporate/05242018123AM/corporate-globe-fight-piracy-thumbnail-listing.png",
      "articleUrl": "https://www.globe.com.ph/about-us/newsroom/corporate/globe-strengthens-campaign-to-fight-piracy.html",
      "columnType": "articles--type-3",
      "typeListing": "article",
      "imageDesktop": "/sites/globe.com.ph/files/content/dam/globe/brie/About-us/Newsroom/image/Corporate/05242018123AM/corporate-globe-fight-piracy-primary-thumbnail.png",
      "description": "Globe Strengthens Campaign to Fight Piracy. Read the full details on Newsroom.",
      "datePosted": "Apr 18, 2018 | 10:26 AM",
      "titleFromTag": "Corporate"
    },
    {
      "title": " Globe Conquers World Communications Forum-Global 2018 in Geneva",
      "nonclickable": false,
      "openNewTab": false,
      "borderArticle": "border-color:#0074D9;",
      "borderTopArticle": "border-top-color:#0074D9;",
      "imageListing": "/sites/globe.com.ph/files/content/dam/globe/brie/About-us/Newsroom/image/Corporate/052420181AM/corporate-globe-conquers-world-thumbnail-listing.png",
      "articleUrl": "https://www.globe.com.ph/about-us/newsroom/corporate/globe-conquers-world-communications-forum.html",
      "columnType": "articles--type-3",
      "typeListing": "article",
      "imageDesktop": "/sites/globe.com.ph/files/content/dam/globe/brie/About-us/Newsroom/image/Corporate/052420181AM/corporate-globe-conquers-world-primary-thumbnail.png",
      "description": "Globe Conquers World Communications Forum-Global 2018 in Geneva. Read the full details on Newsroom.",
      "datePosted": "Apr 17, 2018 | 09:39 AM",
      "titleFromTag": "Corporate"
    },
    {
      "title": "Bob’s: Bacolod’s Well-Loved Homegrown Restaurant Adopts GCash Scan to Pay",
      "nonclickable": false,
      "openNewTab": false,
      "borderArticle": "border-color:#0074D9;",
      "borderTopArticle": "border-top-color:#0074D9;",
      "imageListing": "/sites/globe.com.ph/files/content/dam/globe/brie/About-us/Newsroom/image/Partners/502420181PM/new-06082018/partners-bobs-adopts-gcash-thumbnail-listing.png",
      "articleUrl": "https://www.globe.com.ph/about-us/newsroom/partners/bobs-bacolods-well-loved-homegrown.html",
      "columnType": "articles--type-3",
      "typeListing": "article",
      "imageDesktop": "/sites/globe.com.ph/files/content/dam/globe/brie/About-us/Newsroom/image/Partners/502420181PM/new-06082018/partners-bobs-adopts-gcash-primary-thumbnail.png",
      "description": "Bob’s: Bacolod’s Well-Loved Homegrown Restaurant Adopts GCash Scan to Pay. Read the full details on Newsroom.",
      "datePosted": "Apr 12, 2018 | 06:27 PM",
      "titleFromTag": "Partners"
    },
    {
      "title": "Lay Bare Adopts Digitized Solutions Powered by Globe myBusiness",
      "nonclickable": false,
      "openNewTab": false,
      "borderArticle": "border-color:#0074D9;",
      "borderTopArticle": "border-top-color:#0074D9;",
      "imageListing": "/sites/globe.com.ph/files/content/dam/globe/brie/About-us/Newsroom/image/Partners/0524201811AM/partners-lay-bare-globe-thumbnail-listing.png",
      "articleUrl": "https://www.globe.com.ph/about-us/newsroom/consumer/lay-bare-adopts-digitized-solutions.html",
      "columnType": "articles--type-3",
      "typeListing": "article",
      "imageDesktop": "/sites/globe.com.ph/files/content/dam/globe/brie/About-us/Newsroom/image/Partners/0524201811AM/partners-lay-bare-globe-primary-thumbnail.png",
      "description": "Lay Bare Adopts Digitized Solutions Powered by Globe myBusiness. Read the full details on Newsroom.",
      "datePosted": "Apr 12, 2018 | 06:27 PM",
      "titleFromTag": "Consumer"
    },
    {
      "title": " Be One of the Lucky Fans to Watch EXO Live in Manila with Globe",
      "nonclickable": false,
      "openNewTab": false,
      "borderArticle": "border-color:#0074D9;",
      "borderTopArticle": "border-top-color:#0074D9;",
      "imageListing": "/sites/globe.com.ph/files/content/dam/globe/brie/AboutUs/newsroom/common/Corporate_Globe_Listing.jpg",
      "articleUrl": "https://www.globe.com.ph/about-us/newsroom/consumer/be-one-lucky-fans-watch.html",
      "columnType": "articles--type-3",
      "typeListing": "article",
      "imageDesktop": "/sites/globe.com.ph/files/content/dam/globe/brie/AboutUs/newsroom/common/Corporate_Globe_Primary-Desktop-Thumbnail.jpg",
      "description": "Globe is giving away EXO Live tickets to 12 lucky customers. Visit the Globe Newsroom for the latest news on Globe Telecom.",
      "datePosted": "Apr 12, 2018 | 12:02 PM",
      "titleFromTag": "Consumer"
    },
    {
      "title": " Globe myBusiness, Lazada Philippines Help SMEs Expand Reach Via Online Shopping",
      "nonclickable": false,
      "openNewTab": false,
      "borderArticle": "border-color:#0074D9;",
      "borderTopArticle": "border-top-color:#0074D9;",
      "imageListing": "/sites/globe.com.ph/files/content/dam/globe/brie/About-us/Newsroom/image/Consumer/052420183PM/partner-lazada-online-shopping-thumbnail-listing.png",
      "articleUrl": "https://www.globe.com.ph/about-us/newsroom/business/globe-mybusiness-lazada-philippines-help.html",
      "columnType": "articles--type-3",
      "typeListing": "article",
      "imageDesktop": "/sites/globe.com.ph/files/content/dam/globe/brie/About-us/Newsroom/image/Consumer/052420183PM/partner-lazada-online-shopping-primary-thumbnail.png",
      "description": "Globe myBusiness, Lazada Philippines Help SMEs Expand Reach Via Online Shopping. Read the full details on Newsroom.",
      "datePosted": "Apr 11, 2018 | 04:08 PM",
      "titleFromTag": "Business"
    },
    {
      "title": "Mynt Eyes Youth to Help Drive Fintech Awareness, Usage in PH",
      "nonclickable": false,
      "openNewTab": false,
      "borderArticle": "border-color:#0074D9;",
      "borderTopArticle": "border-top-color:#0074D9;",
      "imageListing": "/sites/globe.com.ph/files/content/dam/globe/brie/AboutUs/newsroom/common/Corporate_Globe_Listing.jpg",
      "articleUrl": "https://www.globe.com.ph/about-us/newsroom/business/mynt-eyes-youth-help-drive.html",
      "columnType": "articles--type-3",
      "typeListing": "article",
      "imageDesktop": "/sites/globe.com.ph/files/content/dam/globe/brie/AboutUs/newsroom/common/Corporate_Globe_Primary-Desktop-Thumbnail.jpg",
      "description": "Mynt Eyes Youth to Help Drive Fintech Awareness, Usage in PH. Read the full details on Newsroom.",
      "datePosted": "Apr 09, 2018 | 11:13 AM",
      "titleFromTag": "Business"
    },
    {
      "title": " Globe to Spearhead Long-Term Sustainability Program for Boracay",
      "nonclickable": false,
      "openNewTab": false,
      "borderArticle": "border-color:#0074D9;",
      "borderTopArticle": "border-top-color:#0074D9;",
      "imageListing": "/sites/globe.com.ph/files/content/dam/globe/brie/AboutUs/newsroom/common/Corporate_Globe_Listing.jpg",
      "articleUrl": "https://www.globe.com.ph/about-us/newsroom/corporate/globe-spearhead-longterm-sustainability.html",
      "columnType": "articles--type-3",
      "typeListing": "article",
      "imageDesktop": "/sites/globe.com.ph/files/content/dam/globe/brie/AboutUs/newsroom/common/Corporate_Globe_Primary-Desktop-Thumbnail.jpg",
      "description": "Globe to Spearhead Long-Term Sustainability Program for Boracay. Read the full details on Newsroom.",
      "datePosted": "Apr 07, 2018 | 01:24 PM",
      "titleFromTag": "Corporate"
    }
  ]
}
