{
  "status": 200,
  "page": 239,
  "totalPage": 298,
  "range": "2857-2868",
  "total": 3573,
  "result": [
    {
      "title": "Globe SD-WAN Technology Enhances Manufacturing Industry’s Competitive Edge",
      "nonclickable": false,
      "openNewTab": false,
      "imageListing": "/sites/globe.com.ph/files/content/dam/globe/brie/AboutUs/newsroom/common/Corporate_Globe_Listing.jpg",
      "articleUrl": "https://www.globe.com.ph/about-us/newsroom/business/globe-sdwan-technology-enhances-manufacturing.html",
      "columnType": "articles--type-3",
      "typeListing": "article",
      "imageDesktop": "/sites/globe.com.ph/files/content/dam/globe/brie/AboutUs/newsroom/common/Corporate_Globe_Primary-Desktop-Thumbnail.jpg",
      "description": "Globe SD-WAN Technology Enhances Manufacturing Industry’s Competitive Edge. Read the full details on Newsroom.",
      "datePosted": "Apr 06, 2018 | 01:26 PM",
      "titleFromTag": "Business"
    },
    {
      "title": " Winners of the C4F Davos Award 2018 Announced in Geneva",
      "nonclickable": false,
      "openNewTab": false,
      "borderArticle": "border-color:#0074D9;",
      "borderTopArticle": "border-top-color:#0074D9;",
      "imageListing": "/sites/globe.com.ph/files/content/dam/globe/brie/About-us/Newsroom/image/Corporate/0524201810AM/corporate-davos-winners-thumbnail-listing.png",
      "articleUrl": "https://www.globe.com.ph/about-us/newsroom/corporate/winners-c4f-davos-award-2018.html",
      "columnType": "articles--type-3",
      "typeListing": "article",
      "imageDesktop": "/sites/globe.com.ph/files/content/dam/globe/brie/About-us/Newsroom/image/Corporate/0524201810AM/corporate-davos-winners-primary-thumbnail.png",
      "description": "Winners of the C4F Davos Award 2018 were announced in Geneva. Read the full details on Newsroom.",
      "datePosted": "Apr 03, 2018 | 04:05 PM",
      "titleFromTag": "Corporate"
    },
    {
      "title": " GCash Scan to Pay Now Accepted at Daiso Japan Outlets Nationwide",
      "nonclickable": false,
      "openNewTab": false,
      "borderArticle": "border-color:#0074D9;",
      "borderTopArticle": "border-top-color:#0074D9;",
      "imageListing": "/sites/globe.com.ph/files/content/dam/globe/brie/About-us/Newsroom/image/Partners/0524201810AM/partners-gcash-daiso-thumbnail-listing.png",
      "articleUrl": "https://www.globe.com.ph/about-us/newsroom/partners/gcash-scan-pay-now-accepted.html",
      "columnType": "articles--type-3",
      "typeListing": "article",
      "imageDesktop": "/sites/globe.com.ph/files/content/dam/globe/brie/About-us/Newsroom/image/Partners/0524201810AM/partners-gcash-daiso-primary-thumbnail.png",
      "description": "GCash announces partnership with DAISO. Read the full details on Newsroom",
      "datePosted": "Apr 02, 2018 | 06:41 PM",
      "titleFromTag": "Partners"
    },
    {
      "title": "5 Ways to Know If a Site is Distributing Content Illegally",
      "nonclickable": false,
      "openNewTab": false,
      "borderArticle": "border-color:#0074D9;",
      "borderTopArticle": "border-top-color:#0074D9;",
      "imageListing": "/sites/globe.com.ph/files/content/dam/globe/brie/AboutUs/newsroom/common/Corporate_Globe_Listing.jpg",
      "articleUrl": "https://www.globe.com.ph/about-us/newsroom/consumer/playitright-5-ways-to-know-if-a-site.html",
      "columnType": "articles--type-3",
      "typeListing": "article",
      "imageMobile": "/sites/globe.com.ph/files/content/dam/globe/brie/AboutUs/newsroom/common/Corporate_Globe_Hero-Banner-Mobile.jpg",
      "imageDesktop": "/sites/globe.com.ph/files/content/dam/globe/brie/AboutUs/newsroom/common/Corporate_Globe_Primary-Desktop-Thumbnail.jpg",
      "description": "Streaming videos online is hugely popular in the Philippines, but not everything online is legal. Here are five ways to know if a site is streaming illegally.",
      "datePosted": "Mar 28, 2018 | 04:02 PM",
      "titleFromTag": "Consumer"
    },
    {
      "title": "Globe Supports DOH in Promoting Mental Health Awareness",
      "nonclickable": false,
      "openNewTab": false,
      "borderArticle": "border-color:#0074D9;",
      "borderTopArticle": "border-top-color:#0074D9;",
      "imageListing": "/sites/globe.com.ph/files/content/dam/globe/brie/AboutUs/newsroom/common/Corporate_Globe_Listing.jpg",
      "articleUrl": "https://www.globe.com.ph/about-us/newsroom/citizenship/globe-supports-doh-in-promoting-mental-health.html",
      "columnType": "articles--type-3",
      "typeListing": "article",
      "imageMobile": "/sites/globe.com.ph/files/content/dam/globe/brie/AboutUs/newsroom/common/Corporate_Globe_Hero-Banner-Mobile.jpg",
      "imageDesktop": "/sites/globe.com.ph/files/content/dam/globe/brie/AboutUs/newsroom/common/Corporate_Globe_Primary-Desktop-Thumbnail.jpg",
      "description": "Globe Supports DOH in Promoting Mental Health Awareness. Visit the Globe Newsroom for the latest news on Globe Telecom.",
      "datePosted": "Mar 23, 2018 | 05:48 PM",
      "titleFromTag": "Citizenship"
    },
    {
      "title": "Globe Business, GCash ink partnership with Shakey’s Philippines",
      "nonclickable": false,
      "openNewTab": false,
      "borderArticle": "border-color:#0074D9;",
      "borderTopArticle": "border-top-color:#0074D9;",
      "imageListing": "/sites/globe.com.ph/files/content/dam/globe/brie/AboutUs/newsroom/business/globe-business-gcash-ink-partnership-with-shakeys-philippines/partners-gcash-shakeys-thumbnail-listing.jpg",
      "articleUrl": "https://www.globe.com.ph/about-us/newsroom/business/globe-business-gcash-partner-with-shakeys.html",
      "columnType": "articles--type-3",
      "typeListing": "article",
      "imageMobile": "/sites/globe.com.ph/files/content/dam/globe/brie/AboutUs/newsroom/business/globe-business-gcash-ink-partnership-with-shakeys-philippines/partners-gcash-shakeys-banner-m.jpg",
      "imageDesktop": "/sites/globe.com.ph/files/content/dam/globe/brie/AboutUs/newsroom/business/globe-business-gcash-ink-partnership-with-shakeys-philippines/partners-gcash-shakeys-primary-thumbnail.jpg",
      "description": "Globe Business, GCash ink partnership with Shakey’s Philippines. Visit the Globe Newsroom for the latest news on Globe Telecom.",
      "datePosted": "Mar 22, 2018 | 09:22 AM",
      "titleFromTag": "Business"
    },
    {
      "title": "Globe Now Carries 2x More Data Traffic than Competition",
      "nonclickable": false,
      "openNewTab": false,
      "borderArticle": "border-color:#0074D9;",
      "borderTopArticle": "border-top-color:#0074D9;",
      "imageListing": "/sites/globe.com.ph/files/content/dam/globe/brie/AboutUs/newsroom/common/Corporate_Globe_Listing.jpg",
      "articleUrl": "https://www.globe.com.ph/about-us/newsroom/corporate/globe-now-carries-2x-more-data.html",
      "columnType": "articles--type-3",
      "typeListing": "article",
      "imageMobile": "/sites/globe.com.ph/files/content/dam/globe/brie/AboutUs/newsroom/common/Corporate_Globe_Hero-Banner-Mobile.jpg",
      "imageDesktop": "/sites/globe.com.ph/files/content/dam/globe/brie/AboutUs/newsroom/common/Corporate_Globe_Primary-Desktop-Thumbnail.jpg",
      "description": "Globe Now Carries 2x More Data Traffic Than Competition. Visit the Globe Newsroom for the latest news on Globe Telecom.",
      "datePosted": "Mar 21, 2018 | 10:40 AM",
      "titleFromTag": "Corporate"
    },
    {
      "title": "VIU Supports Globe #PlayItRight Anti-illegal Sites Advocacy",
      "nonclickable": false,
      "openNewTab": false,
      "borderArticle": "border-color:#0074D9;",
      "borderTopArticle": "border-top-color:#0074D9;",
      "imageListing": "/sites/globe.com.ph/files/content/dam/globe/brie/AboutUs/newsroom/common/Corporate_Globe_Listing.jpg",
      "articleUrl": "https://www.globe.com.ph/about-us/newsroom/consumer/viu-supports-globe.html",
      "columnType": "articles--type-3",
      "typeListing": "article",
      "imageMobile": "/sites/globe.com.ph/files/content/dam/globe/brie/AboutUs/newsroom/common/Corporate_Globe_Hero-Banner-Mobile.jpg",
      "imageDesktop": "/sites/globe.com.ph/files/content/dam/globe/brie/AboutUs/newsroom/common/Corporate_Globe_Primary-Desktop-Thumbnail.jpg",
      "description": "Viu supports Globe's #PlayItRight advocacy with #VIUItRight, an appeal to Filipinos to help their idols achieve their dreams by watching Korean content legally.",
      "datePosted": "Mar 15, 2018 | 11:34 AM",
      "titleFromTag": "Consumer"
    },
    {
      "title": "Globe Wins at the Kidlat Awards for #PlayItRight Piracy Against Piracy Campaign",
      "nonclickable": false,
      "openNewTab": false,
      "borderArticle": "border-color:#0074D9;",
      "borderTopArticle": "border-top-color:#0074D9;",
      "imageListing": "/sites/globe.com.ph/files/content/dam/globe/brie/AboutUs/newsroom/common/Corporate_Globe_Listing.jpg",
      "articleUrl": "https://www.globe.com.ph/about-us/newsroom/consumer/globe-wins-at-the-kidlat-awards-for-play-it-right.html",
      "columnType": "articles--type-3",
      "typeListing": "article",
      "imageMobile": "/sites/globe.com.ph/files/content/dam/globe/brie/AboutUs/newsroom/common/Corporate_Globe_Hero-Banner-Mobile.jpg",
      "imageDesktop": "/sites/globe.com.ph/files/content/dam/globe/brie/AboutUs/newsroom/common/Corporate_Globe_Primary-Desktop-Thumbnail.jpg",
      "description": "Globe wins at the Kidlat Awards for #PlayItRight’s “Piracy vs. Piracy,” their advocacy to encourage Filipinos to stream content from legitimate sources.\"",
      "datePosted": "Mar 14, 2018 | 05:46 PM",
      "titleFromTag": "Consumer"
    },
    {
      "title": "Globe #PlayItRight Piracy Against Piracy Campaign Shortlisted at Kidlat Awards",
      "nonclickable": false,
      "openNewTab": false,
      "borderArticle": "border-color:#0074D9;",
      "borderTopArticle": "border-top-color:#0074D9;",
      "imageListing": "/sites/globe.com.ph/files/content/dam/globe/brie/AboutUs/newsroom/common/Corporate_Globe_Listing.jpg",
      "articleUrl": "https://www.globe.com.ph/about-us/newsroom/consumer/globe-playitright-piracy-against-piracy-campaign-shortlisted-at-kidlat-awards.html",
      "columnType": "articles--type-3",
      "typeListing": "article",
      "imageMobile": "/sites/globe.com.ph/files/content/dam/globe/brie/AboutUs/newsroom/common/Corporate_Globe_Hero-Banner-Mobile.jpg",
      "imageDesktop": "/sites/globe.com.ph/files/content/dam/globe/brie/AboutUs/newsroom/common/Corporate_Globe_Primary-Desktop-Thumbnail.jpg",
      "description": "Globe's #PlayItRight \"Piracy vs Piracy\" campaign  was shortlisted for three accolades at the Kidlat Awards happening on March 10, 2018.",
      "datePosted": "Mar 12, 2018 | 08:53 AM",
      "titleFromTag": "Consumer"
    },
    {
      "title": "Puregold is 1st National Supermarket Chain to Accept Mobile Payments via GCash Scan to Pay",
      "nonclickable": false,
      "openNewTab": false,
      "borderArticle": "border-color:#0074D9;",
      "borderTopArticle": "border-top-color:#0074D9;",
      "imageListing": "/sites/globe.com.ph/files/content/dam/globe/brie/AboutUs/newsroom/consumer/consumer-puregold-1st-national-supermarket/242_Thumbnail_Listing_288x170.jpg",
      "articleUrl": "https://www.globe.com.ph/about-us/newsroom/consumer/puregold-1st-national-supermarket-chain-to-accept-mobile-payments-gcash-scan-to-pay.html",
      "columnType": "articles--type-3",
      "typeListing": "article",
      "imageMobile": "/sites/globe.com.ph/files/content/dam/globe/brie/AboutUs/newsroom/consumer/consumer-puregold-1st-national-supermarket/242_Hero%20Banner_%20320x360_M.jpg",
      "imageDesktop": "/sites/globe.com.ph/files/content/dam/globe/brie/AboutUs/newsroom/consumer/consumer-puregold-1st-national-supermarket/242_Primary%20Desktop%20Thumbnail_860x400.jpg",
      "description": "Puregold is 1st national supermarket chain to accept mobile payments via GCash scan to pay. Visit the Globe Newsroom for the latest news on Globe Telecom.",
      "datePosted": "Mar 08, 2018 | 04:28 PM",
      "titleFromTag": "Consumer"
    },
    {
      "title": "Go All Out with Your GoUNLI Broadband Plans",
      "nonclickable": false,
      "openNewTab": false,
      "borderArticle": "border-color:#0074D9;",
      "borderTopArticle": "border-top-color:#0074D9;",
      "imageListing": "/sites/globe.com.ph/files/content/dam/globe/brie/AboutUs/newsroom/common/Corporate_Globe_Listing.jpg",
      "articleUrl": "https://www.globe.com.ph/about-us/newsroom/consumer/go-all-out-with-your-gounli-broadband-plans.html",
      "columnType": "articles--type-3",
      "typeListing": "article",
      "imageMobile": "/sites/globe.com.ph/files/content/dam/globe/brie/AboutUs/newsroom/common/Corporate_Globe_Hero-Banner-Mobile.jpg",
      "imageDesktop": "/sites/globe.com.ph/files/content/dam/globe/brie/AboutUs/newsroom/common/Corporate_Globe_Primary-Desktop-Thumbnail.jpg",
      "description": "Go all out with your GoUNLI broadband plans. Visit the Globe Newsroom for the latest news on Globe Telecom.",
      "datePosted": "Mar 08, 2018 | 04:28 PM",
      "titleFromTag": "Consumer"
    }
  ]
}
