{
  "status": 200,
  "page": 24,
  "totalPage": 298,
  "range": "277-288",
  "total": 3573,
  "result": [
    {
      "title": "Empowering Learning Through Connectivity: Globe Donates 100 Home Prepaid WiFi Units to DepEd’s MATATAG Agenda",
      "nonclickable": false,
      "openNewTab": false,
      "borderArticle": "border-color:#1C91C5;",
      "borderTopArticle": "border-top-color:#1C91C5;",
      "imageListing": "/sites/globe.com.ph/files/content/dam/globe/brie/AboutUs/newsroom/sustainability/globe-builds-teacher-skills-early-language-literacy/default-sustainability-1-thumbnail-listing.jpg",
      "articleUrl": "https://www.globe.com.ph/about-us/newsroom/sustainability/100-home-prepaid-wifi-donated-deped-matatag-agenda.html",
      "columnType": "articles--type-3",
      "typeListing": "article",
      "imageMobile": "/sites/globe.com.ph/files/content/dam/globe/brie/AboutUs/newsroom/sustainability/globe-builds-teacher-skills-early-language-literacy/default-sustainability-1-primary-thumbnail-m.jpg",
      "imageDesktop": "/sites/globe.com.ph/files/content/dam/globe/brie/AboutUs/newsroom/sustainability/globe-builds-teacher-skills-early-language-literacy/default-sustainability-1-primary-thumbnail-d.jpg",
      "description": "In support of DepEd’s MATATAG Agenda, Globe donates 100 Home Prepaid WiFi units to schools in CAR and Region 1 to improve basic education facilities.",
      "datePosted": "May 26, 2023 | 02:38 PM",
      "titleFromTag": "Sustainability"
    },
    {
      "title": "KonsultaMD Superapp: A Game-Changer in Philippine Healthcare",
      "nonclickable": false,
      "openNewTab": false,
      "borderArticle": "border-color:#0074D9;",
      "borderTopArticle": "border-top-color:#0074D9;",
      "imageListing": "/sites/globe.com.ph/files/content/dam/globe/brie/About-us/Newsroom/image/Consumer/052423/thumbnail-listing.jpg",
      "articleUrl": "https://www.globe.com.ph/about-us/newsroom/consumer/konsultamd-superapp-game-changer-ph-healthcare.html",
      "columnType": "articles--type-3",
      "typeListing": "article",
      "imageMobile": "/sites/globe.com.ph/files/content/dam/globe/brie/About-us/Newsroom/image/Consumer/052423/primary-thumbnail-m.jpg",
      "imageDesktop": "/sites/globe.com.ph/files/content/dam/globe/brie/About-us/Newsroom/image/Consumer/052423/primary-thumbnail-d.jpg",
      "description": "KonsultaMD Superapp promised to redefine the country's healthcare landscape.",
      "datePosted": "May 24, 2023 | 03:30 PM",
      "titleFromTag": "Consumer"
    },
    {
      "title": "Delivery Rider Faces Better Future after Tech-Voc Training through The Hapag Movement, Tzu Chi Foundation",
      "nonclickable": false,
      "openNewTab": false,
      "borderArticle": "border-color:#0074D9;",
      "borderTopArticle": "border-top-color:#0074D9;",
      "imageListing": "/sites/globe.com.ph/files/content/dam/globe/brie/AboutUs/newsroom/sustainability/delivery-rider-faces-better-future/corp-tech-voc-thumbnail-listing.jpg",
      "articleUrl": "https://www.globe.com.ph/about-us/newsroom/sustainability/delivery-rider-beter-future-tech-voc-training-the-hapag-movement.html",
      "columnType": "articles--type-3",
      "typeListing": "article",
      "imageMobile": "/sites/globe.com.ph/files/content/dam/globe/brie/AboutUs/newsroom/sustainability/delivery-rider-faces-better-future/corp-tech-voc-primary-thumbnail-m.jpg",
      "imageDesktop": "/sites/globe.com.ph/files/content/dam/globe/brie/AboutUs/newsroom/sustainability/delivery-rider-faces-better-future/corp-tech-voc-primary-thumbnail-d.jpg",
      "description": "Delivery rider faces better future after tech-voc training through Globe’s The Hapag Movement, in partnership with Tzu Chi Foundation.",
      "datePosted": "May 24, 2023 | 02:31 PM",
      "titleFromTag": "Sustainability"
    },
    {
      "title": "Globe Shifts Iloilo Facility to Renewable Energy, Total Sites on Clean Energy Now at 25",
      "nonclickable": false,
      "openNewTab": false,
      "borderArticle": "border-color:#0074D9;",
      "borderTopArticle": "border-top-color:#0074D9;",
      "imageListing": "/sites/globe.com.ph/files/content/dam/globe/brie/AboutUs/newsroom/common/default-sustainability-3/corp-default-images-thumbnail-listing.jpg",
      "articleUrl": "https://www.globe.com.ph/about-us/newsroom/sustainability/globe-shifts-iloilo-facility-renewable-energy.html",
      "columnType": "articles--type-3",
      "typeListing": "article",
      "imageMobile": "/sites/globe.com.ph/files/content/dam/globe/brie/AboutUs/newsroom/common/default-sustainability-3/corp-default-images-primary-thumbnail-m.jpg",
      "imageDesktop": "/sites/globe.com.ph/files/content/dam/globe/brie/AboutUs/newsroom/common/default-sustainability-3/corp-default-images-primary-thumbnail-d.jpg",
      "description": "Globe continues to uphold its commitment to sustainability by shifting another facility in Visayas to Renewable Energy (RE) via the GEOP of the DOE.",
      "datePosted": "May 24, 2023 | 02:31 PM",
      "titleFromTag": "Sustainability"
    },
    {
      "title": "Globe Dominates 5G Speeds in One of PH's Key Business Hubs",
      "nonclickable": false,
      "openNewTab": false,
      "borderArticle": "border-color:#0074D9;",
      "borderTopArticle": "border-top-color:#0074D9;",
      "imageListing": "/sites/globe.com.ph/files/content/dam/globe/brie/AboutUs/newsroom/common/default-corporate-5/corp-thumbnail-listing.jpg",
      "articleUrl": "https://www.globe.com.ph/about-us/newsroom/corporate/globe-dominates-5G-speeds-makati-city.html",
      "columnType": "articles--type-3",
      "typeListing": "article",
      "imageMobile": "/sites/globe.com.ph/files/content/dam/globe/brie/AboutUs/newsroom/common/default-corporate-5/corp-primary-thumbnail-m.jpg",
      "imageDesktop": "/sites/globe.com.ph/files/content/dam/globe/brie/AboutUs/newsroom/common/default-corporate-5/corp-primary-thumbnail-d.jpg",
      "description": "Leading digital solutions platform Globe dominates 5G speeds for the first quarter of 2023 in one of PH’s key business hubs.",
      "datePosted": "May 24, 2023 | 01:53 PM",
      "titleFromTag": "Corporate"
    },
    {
      "title": "Globe Group Cheers Passage of Bill Strengthening Intellectual Property Code, Cites Benefits of Effective Site Blocking vs Piracy",
      "nonclickable": false,
      "openNewTab": false,
      "borderArticle": "border-color:#0074D9;",
      "borderTopArticle": "border-top-color:#0074D9;",
      "imageListing": "/sites/globe.com.ph/files/content/dam/globe/brie/AboutUs/newsroom/common/default-corporate-main/newsroom-default-corporate-thumbnail-listing.jpg",
      "articleUrl": "https://www.globe.com.ph/about-us/newsroom/corporate/passage-bill-strengthening-intellectual-property-code.html",
      "columnType": "articles--type-3",
      "typeListing": "article",
      "imageMobile": "/sites/globe.com.ph/files/content/dam/globe/brie/AboutUs/newsroom/common/default-corporate-main/newsroom-default-corporate-primary-thumbnail-m.jpg",
      "imageDesktop": "/sites/globe.com.ph/files/content/dam/globe/brie/AboutUs/newsroom/common/default-corporate-main/newsroom-default-corporate-primary-thumbnail-d.jpg",
      "description": "Globe celebrated the passage of House Bill No. 7600, which proposes revisions to the country’s 26-year-old Intellectual Property Code allowing site blocking.",
      "datePosted": "May 23, 2023 | 03:53 PM",
      "titleFromTag": "Corporate"
    },
    {
      "title": "Women Helping Women–with the Power of Technology",
      "nonclickable": false,
      "openNewTab": false,
      "borderArticle": "border-color:#0074D9;",
      "borderTopArticle": "border-top-color:#0074D9;",
      "imageListing": "/sites/globe.com.ph/files/content/dam/globe/brie/AboutUs/newsroom/common/default-business-8/sg-default-images-thumbnail-listing.jpg",
      "articleUrl": "https://www.globe.com.ph/about-us/newsroom/business/women-helping-women-power-technology.html",
      "columnType": "articles--type-3",
      "typeListing": "article",
      "imageMobile": "/sites/globe.com.ph/files/content/dam/globe/brie/AboutUs/newsroom/common/default-business-8/sg-default-images-primary-thumbnail-m.jpg",
      "imageDesktop": "/sites/globe.com.ph/files/content/dam/globe/brie/AboutUs/newsroom/common/default-business-8/sg-default-images-primary-thumbnail-d.jpg",
      "description": "Globe Business, WomenBizPH partner to mentor new generation of female entrepreneurs.",
      "datePosted": "May 23, 2023 | 02:43 PM",
      "titleFromTag": "Business"
    },
    {
      "title": "Globe Exceeds Tower Sale Targets, Gross Proceeds Reach Close to ₱100B",
      "nonclickable": false,
      "openNewTab": false,
      "borderArticle": "border-color:#0074D9;",
      "borderTopArticle": "border-top-color:#0074D9;",
      "imageListing": "/sites/globe.com.ph/files/content/dam/globe/brie/AboutUs/newsroom/common/default-15/default-corporate-9-thumbnail-listing.jpg",
      "articleUrl": "https://www.globe.com.ph/about-us/newsroom/corporate/globe-exceeds-tower-sale-targets.html",
      "columnType": "articles--type-3",
      "typeListing": "article",
      "imageMobile": "/sites/globe.com.ph/files/content/dam/globe/brie/AboutUs/newsroom/common/default-15/default-corporate-9-primary-thumbnail-m.jpg",
      "imageDesktop": "/sites/globe.com.ph/files/content/dam/globe/brie/AboutUs/newsroom/common/default-15/default-corporate-9-primary-thumbnail-d.jpg",
      "description": "Globe exceeded its tower sale targets after finalizing a significant deal with Unity Digital Infrastructure, which entails the sale & leaseback of 447 towers.",
      "datePosted": "May 22, 2023 | 02:00 PM",
      "titleFromTag": "Corporate"
    },
    {
      "title": "Globe Group Cements Position as Top Employer in PH with Big Wins at LinkedIn Talent Awards 2022",
      "nonclickable": false,
      "openNewTab": false,
      "borderArticle": "border-color:#0074D9;",
      "borderTopArticle": "border-top-color:#0074D9;",
      "imageListing": "/sites/globe.com.ph/files/content/dam/globe/brie/AboutUs/newsroom/common/awards-01/corp-default-images-thumbnail-listing.jpg",
      "articleUrl": "https://www.globe.com.ph/about-us/newsroom/corporate/globe-group-cements-position-top-employer-ph.html",
      "columnType": "articles--type-3",
      "typeListing": "article",
      "imageMobile": "/sites/globe.com.ph/files/content/dam/globe/brie/AboutUs/newsroom/common/awards-01/corp-default-images-primary-thumbnail-m.jpg",
      "imageDesktop": "/sites/globe.com.ph/files/content/dam/globe/brie/AboutUs/newsroom/common/awards-01/corp-default-images-primary-thumbnail-d.jpg",
      "description": "Globe Group solidified its position as a top employer in the Philippines as it secured significant victories in key categories at LinkedIn Talent Awards 2022.",
      "datePosted": "May 22, 2023 | 01:53 PM",
      "titleFromTag": "Corporate"
    },
    {
      "title": "Update: Globe SIM Registration Portal",
      "nonclickable": false,
      "openNewTab": false,
      "borderArticle": "border-color:#0074D9;",
      "borderTopArticle": "border-top-color:#0074D9;",
      "imageListing": "/sites/globe.com.ph/files/content/dam/globe/brie/AboutUs/newsroom/common/default-total-globe-2/newsroom-total-globe-default-2-thumbnail-listing.jpg",
      "articleUrl": "https://www.globe.com.ph/about-us/newsroom/corporate/globe-sim-registration-portal-update.html",
      "columnType": "articles--type-3",
      "typeListing": "article",
      "imageMobile": "/sites/globe.com.ph/files/content/dam/globe/brie/AboutUs/newsroom/common/default-total-globe-2/newsroom-total-globe-default-2-primary-thumbnail-m.jpg",
      "imageDesktop": "/sites/globe.com.ph/files/content/dam/globe/brie/AboutUs/newsroom/common/default-total-globe-2/newsroom-total-globe-default-2-primary-thumbnail-d.jpg",
      "description": "SIM Registration is extended for 90 days. Read updates on Globe’s SIM Registration for Prepaid, TM, Globe At Home Prepaid WiFi, Postpaid, and Platinum here.",
      "datePosted": "May 19, 2023 | 02:00 PM",
      "titleFromTag": "Corporate"
    },
    {
      "title": "Jessie Sincioco's “Hapag ni LuzViMinda” Benefit Fundraiser a Delectable Success",
      "nonclickable": false,
      "openNewTab": false,
      "borderArticle": "border-color:#0074D9;",
      "borderTopArticle": "border-top-color:#0074D9;",
      "imageListing": "/sites/globe.com.ph/files/content/dam/globe/brie/AboutUs/newsroom/common/default-sustainability-2/corp-default-images-thumbnail-listing.jpg",
      "articleUrl": "https://www.globe.com.ph/about-us/newsroom/sustainability/jessie-sincioco-hapag-ni-luzviminda-success.html",
      "columnType": "articles--type-3",
      "typeListing": "article",
      "imageMobile": "/sites/globe.com.ph/files/content/dam/globe/brie/AboutUs/newsroom/common/default-sustainability-2/corp-default-images-primary-thumbnail-m.jpg",
      "imageDesktop": "/sites/globe.com.ph/files/content/dam/globe/brie/AboutUs/newsroom/common/default-sustainability-2/corp-default-images-primary-thumbnail-d.jpg",
      "description": "Chef Jessie Sincioco's “Hapag ni LuzViMinda” fundraising event for Globe’s Hapag Movement was a success.",
      "datePosted": "May 19, 2023 | 01:56 PM",
      "titleFromTag": "Sustainability"
    },
    {
      "title": "ST Telemedia Global Data Centres to Build Largest, Most Interconnected, and Sustainable Carrier-Neutral Data Center in the Philippines",
      "nonclickable": false,
      "openNewTab": false,
      "borderArticle": "border-color:#0074D9;",
      "borderTopArticle": "border-top-color:#0074D9;",
      "imageListing": "/sites/globe.com.ph/files/content/dam/globe/brie/AboutUs/newsroom/common/default-corporate-main/newsroom-default-corporate-thumbnail-listing.jpg",
      "articleUrl": "https://www.globe.com.ph/about-us/newsroom/corporate/stt-fairview-data-center-campus.html",
      "columnType": "articles--type-3",
      "typeListing": "article",
      "imageMobile": "/sites/globe.com.ph/files/content/dam/globe/brie/AboutUs/newsroom/common/default-corporate-main/newsroom-default-corporate-primary-thumbnail-m.jpg",
      "imageDesktop": "/sites/globe.com.ph/files/content/dam/globe/brie/AboutUs/newsroom/common/default-corporate-main/newsroom-default-corporate-primary-thumbnail-d.jpg",
      "description": "ST Telemedia Global Data Centres is building its largest and most interconnected carrier-neutral data center in the Philippines.",
      "datePosted": "May 18, 2023 | 02:34 AM",
      "titleFromTag": "Corporate"
    }
  ]
}
