{
  "status": 200,
  "page": 240,
  "totalPage": 298,
  "range": "2869-2880",
  "total": 3573,
  "result": [
    {
      "title": "Knowing Cybersecurity Threats a Must for all Businesses",
      "nonclickable": false,
      "openNewTab": false,
      "borderArticle": "border-color:#0074D9;",
      "borderTopArticle": "border-top-color:#0074D9;",
      "imageListing": "/sites/globe.com.ph/files/content/dam/globe/brie/AboutUs/newsroom/consumer/consumer-knowing-cybersecurity-threats-a-must/241_Thumbnail_Listing_288x170.jpg",
      "articleUrl": "https://www.globe.com.ph/about-us/newsroom/consumer/knowing-cybersecurity-threats-a-must.html",
      "columnType": "articles--type-3",
      "typeListing": "article",
      "imageMobile": "/sites/globe.com.ph/files/content/dam/globe/brie/AboutUs/newsroom/consumer/consumer-knowing-cybersecurity-threats-a-must/241_Hero%20Banner_%20320x360_M.jpg",
      "imageDesktop": "/sites/globe.com.ph/files/content/dam/globe/brie/AboutUs/newsroom/consumer/consumer-knowing-cybersecurity-threats-a-must/241_Primary%20Desktop%20Thumbnail_860x400.jpg",
      "description": "Globe Business’ #makeITSafePH provides useful tips and info for all organizations. Visit the Globe Newsroom for the latest news on Globe Telecom.",
      "datePosted": "Mar 07, 2018 | 04:27 PM",
      "titleFromTag": "Business"
    },
    {
      "title": "Alex Gonzaga Hunts Down WiFi Hunters in Hilarious New Clip",
      "nonclickable": false,
      "openNewTab": false,
      "borderArticle": "border-color:#0074D9;",
      "borderTopArticle": "border-top-color:#0074D9;",
      "imageListing": "/sites/globe.com.ph/files/content/dam/globe/brie/AboutUs/newsroom/consumer/consumer-alex-gonzaga-hunts-down-wifi-hunters/240_Thumbnail_Listing_288x170.jpg",
      "articleUrl": "https://www.globe.com.ph/about-us/newsroom/consumer/alex-gonzaga-hunts-down-wifi-hunters.html",
      "columnType": "articles--type-3",
      "typeListing": "article",
      "imageMobile": "/sites/globe.com.ph/files/content/dam/globe/brie/AboutUs/newsroom/consumer/consumer-alex-gonzaga-hunts-down-wifi-hunters/240_Hero%20Banner_%20320x360_M.jpg",
      "imageDesktop": "/sites/globe.com.ph/files/content/dam/globe/brie/AboutUs/newsroom/consumer/consumer-alex-gonzaga-hunts-down-wifi-hunters/240_Primary%20Desktop%20Thumbnail_860x400.jpg",
      "description": "Alex Gonzaga is on a mission: to look for WiFi hunters in public places and give them the new Globe At Home Prepaid WiFi. Visit the Globe Newsroom for more.",
      "datePosted": "Mar 07, 2018 | 04:27 PM",
      "titleFromTag": "Consumer"
    },
    {
      "title": "Globe, Hineleban Foundation 'Rainforestation' Efforts Underway, Now Covers 34 Hectares in Bukidnon",
      "nonclickable": false,
      "openNewTab": false,
      "borderArticle": "border-color:#0074D9;",
      "borderTopArticle": "border-top-color:#0074D9;",
      "imageListing": "/sites/globe.com.ph/files/content/dam/globe/brie/AboutUs/newsroom/common/Corporate_Globe_Listing.jpg",
      "articleUrl": "https://www.globe.com.ph/about-us/newsroom/sustainability/globe-hineleban-foundation-rainforestation-efforts-underway.html",
      "columnType": "articles--type-3",
      "typeListing": "article",
      "imageMobile": "/sites/globe.com.ph/files/content/dam/globe/brie/AboutUs/newsroom/common/Corporate_Globe_Hero-Banner-Mobile.jpg",
      "imageDesktop": "/sites/globe.com.ph/files/content/dam/globe/brie/AboutUs/newsroom/common/Corporate_Globe_Primary-Desktop-Thumbnail.jpg",
      "description": "Globe, Hineleban Foundation 'rainforestation' efforts underway, now covers 34 hectares in Bukidnon. Visit the Newsroom for the latest news on Globe Telecom.",
      "datePosted": "Mar 06, 2018 | 04:54 PM",
      "titleFromTag": "Sustainability"
    },
    {
      "title": "6 Kinds of People You're Likely to Encounter at a Music Festival",
      "nonclickable": false,
      "openNewTab": false,
      "borderArticle": "border-color:#0074D9;",
      "borderTopArticle": "border-top-color:#0074D9;",
      "imageListing": "/sites/globe.com.ph/files/content/dam/globe/brie/AboutUs/newsroom/consumer/consumer-kinds-of-people-you-are-likely-to-encounter-at-music-festivals/239_Thumbnail_Listing_288x170.jpg",
      "articleUrl": "https://www.globe.com.ph/about-us/newsroom/consumer/kinds-of-people-you-are-likely-to-encounter-at-music-festivals.html",
      "columnType": "articles--type-3",
      "typeListing": "article",
      "imageMobile": "/sites/globe.com.ph/files/content/dam/globe/brie/AboutUs/newsroom/consumer/consumer-kinds-of-people-you-are-likely-to-encounter-at-music-festivals/239_Hero%20Banner_%20320x360_M.jpg",
      "imageDesktop": "/sites/globe.com.ph/files/content/dam/globe/brie/AboutUs/newsroom/consumer/consumer-kinds-of-people-you-are-likely-to-encounter-at-music-festivals/239_Primary%20Desktop%20Thumbnail_860x400.jpg",
      "description": "Six kinds of people you are likely to encounter at a music festival. Visit the Globe Newsroom for the latest news on Globe Telecom.",
      "datePosted": "Mar 06, 2018 | 04:27 PM",
      "titleFromTag": "Consumer"
    },
    {
      "title": "Globe Successfully Blocks Over 400M Spam, Scam Messages",
      "nonclickable": false,
      "openNewTab": false,
      "borderArticle": "border-color:#0074D9;",
      "borderTopArticle": "border-top-color:#0074D9;",
      "imageListing": "/sites/globe.com.ph/files/content/dam/globe/brie/AboutUs/newsroom/common/Corporate_Globe_Listing.jpg",
      "articleUrl": "https://www.globe.com.ph/about-us/newsroom/corporate/globe-successfully-blocks-over-400-million-spam-scam-messages.html",
      "columnType": "articles--type-3",
      "typeListing": "article",
      "imageMobile": "/sites/globe.com.ph/files/content/dam/globe/brie/AboutUs/newsroom/common/Corporate_Globe_Hero-Banner-Mobile.jpg",
      "imageDesktop": "/sites/globe.com.ph/files/content/dam/globe/brie/AboutUs/newsroom/common/Corporate_Globe_Primary-Desktop-Thumbnail.jpg",
      "description": "Globe successfully blocks over 400M spam and scam messages. Visit the Globe Newsroom for the latest news on Globe Telecom.",
      "datePosted": "Mar 05, 2018 | 08:21 PM",
      "titleFromTag": "Corporate"
    },
    {
      "title": "13 Perfect Lyrics to Caption your IG Photos at #GlobeWanderland",
      "nonclickable": false,
      "openNewTab": false,
      "borderArticle": "border-color:#0074D9;",
      "borderTopArticle": "border-top-color:#0074D9;",
      "imageListing": "/sites/globe.com.ph/files/content/dam/globe/brie/AboutUs/newsroom/consumer/consumer-13-perfect-lyrics-caption-photos-globe-wanderland/238_Thumbnail_Listing_288x170.jpg",
      "articleUrl": "https://www.globe.com.ph/about-us/newsroom/consumer/13-perfect-lyrics-caption-photos-globe-wanderland.html",
      "columnType": "articles--type-3",
      "typeListing": "article",
      "imageMobile": "/sites/globe.com.ph/files/content/dam/globe/brie/AboutUs/newsroom/consumer/consumer-13-perfect-lyrics-caption-photos-globe-wanderland/238_Hero%20Banner_%20320x360_M.jpg",
      "imageDesktop": "/sites/globe.com.ph/files/content/dam/globe/brie/AboutUs/newsroom/consumer/consumer-13-perfect-lyrics-caption-photos-globe-wanderland/238_Primary%20Desktop%20Thumbnail_860x400.jpg",
      "description": "13 perfect lyrics to caption your IG photos at #GlobeWanderland. Visit the Globe Newsroom for the latest news on Globe Telecom.",
      "datePosted": "Mar 02, 2018 | 04:26 PM",
      "titleFromTag": "Consumer"
    },
    {
      "title": "Globe myBusiness Offers Digital Solutions for Hotels and Restaurants",
      "nonclickable": false,
      "openNewTab": false,
      "borderArticle": "border-color:#0074D9;",
      "borderTopArticle": "border-top-color:#0074D9;",
      "imageListing": "/sites/globe.com.ph/files/content/dam/globe/brie/AboutUs/newsroom/consumer/Consumer_Globe-myBusiness-offers/Consumer_Globe-myBusiness-offers_Thumbnail-Listing.jpg",
      "articleUrl": "https://www.globe.com.ph/about-us/newsroom/consumer/globe-mybusiness-offers-digital-solutions-hotels-restaurants.html",
      "columnType": "articles--type-3",
      "typeListing": "article",
      "imageMobile": "/sites/globe.com.ph/files/content/dam/globe/brie/AboutUs/newsroom/consumer/Consumer_Globe-myBusiness-offers/Consumer_Globe-myBusiness-offers_Hero-Banner-M.jpg",
      "imageDesktop": "/sites/globe.com.ph/files/content/dam/globe/brie/AboutUs/newsroom/consumer/Consumer_Globe-myBusiness-offers/Consumer_Globe-myBusiness-offers_Primary-Thumbnail.jpg",
      "description": "Globe myBusiness offers digital solutions for hotels and restaurants. Visit the Globe Newsroom for the latest news on Globe Telecom.",
      "datePosted": "Mar 02, 2018 | 04:26 PM",
      "titleFromTag": "Consumer"
    },
    {
      "title": "National Book Store to Offer GCash Scan to Pay in all Branches Nationwide",
      "nonclickable": false,
      "openNewTab": false,
      "borderArticle": "border-color:#0074D9;",
      "borderTopArticle": "border-top-color:#0074D9;",
      "imageListing": "/sites/globe.com.ph/files/content/dam/globe/brie/AboutUs/newsroom/consumer/Consumer_National-Bookstore/Consumer_National-Bookstore_Thumbnail-Listing.jpg",
      "articleUrl": "https://www.globe.com.ph/about-us/newsroom/consumer/national-book-store-to-offer-gcash-scan-to-pay.html",
      "columnType": "articles--type-3",
      "typeListing": "article",
      "imageMobile": "/sites/globe.com.ph/files/content/dam/globe/brie/AboutUs/newsroom/consumer/Consumer_National-Bookstore/Consumer_National-Bookstore_Hero-Banner-M.jpg",
      "imageDesktop": "/sites/globe.com.ph/files/content/dam/globe/brie/AboutUs/newsroom/consumer/Consumer_National-Bookstore/Consumer_National-Bookstore_Primary-Thumbnail.jpg",
      "description": "National Book Store to offer GCash scan to pay in all branches nationwide. Visit the Globe Newsroom for the latest news on Globe Telecom.",
      "datePosted": "Mar 02, 2018 | 04:26 PM",
      "titleFromTag": "Consumer"
    },
    {
      "title": "EXO’s Back in Manila! Here’s How to Score Tickets Ahead of the Pack with Globe At Home",
      "nonclickable": false,
      "openNewTab": false,
      "borderArticle": "border-color:#0074D9;",
      "borderTopArticle": "border-top-color:#0074D9;",
      "imageListing": "/sites/globe.com.ph/files/content/dam/globe/brie/AboutUs/newsroom/consumer/consumer-exos-back-in-manila/237_Thumbnail_Listing_288x170.jpg",
      "articleUrl": "https://www.globe.com.ph/about-us/newsroom/consumer/exos-back-in-manila.html",
      "columnType": "articles--type-3",
      "typeListing": "article",
      "imageMobile": "/sites/globe.com.ph/files/content/dam/globe/brie/AboutUs/newsroom/consumer/consumer-exos-back-in-manila/237_Hero-Banner_-320x360_M.jpg",
      "imageDesktop": "/sites/globe.com.ph/files/content/dam/globe/brie/AboutUs/newsroom/consumer/consumer-exos-back-in-manila/237_Primary-Desktop-Thumbnail_860x400.jpg",
      "description": "EXO’s back in Manila! Here’s how to score tickets ahead of the pack with Globe At Home. Visit the Globe Newsroom for the latest news on Globe Telecom.",
      "datePosted": "Mar 02, 2018 | 04:26 PM",
      "titleFromTag": "Consumer"
    },
    {
      "title": "Complimentary Passes for All Globe Platinum Customers at Art Fair Philippines",
      "nonclickable": false,
      "openNewTab": false,
      "borderArticle": "border-color:#0074D9;",
      "borderTopArticle": "border-top-color:#0074D9;",
      "imageListing": "/sites/globe.com.ph/files/content/dam/globe/brie/AboutUs/newsroom/consumer/Consumer_Complimentary-passes/Consumer_Complimentary-passes_Thumbnail-Listing.jpg",
      "articleUrl": "https://www.globe.com.ph/about-us/newsroom/consumer/complimentary-passes-for-globe-platinum-customers-art-fair.html",
      "columnType": "articles--type-3",
      "typeListing": "article",
      "imageMobile": "/sites/globe.com.ph/files/content/dam/globe/brie/AboutUs/newsroom/consumer/Consumer_Complimentary-passes/Consumer_Complimentary-passes_Hero-Banner-M.jpg",
      "imageDesktop": "/sites/globe.com.ph/files/content/dam/globe/brie/AboutUs/newsroom/consumer/Consumer_Complimentary-passes/Consumer_Complimentary-passes_Primary-Thumbnail.jpg",
      "description": "Complimentary passes for all Globe Platinum customers at Art Fair Philippines. Visit the Globe Newsroom for the latest news on Globe Telecom.",
      "datePosted": "Mar 02, 2018 | 04:25 PM",
      "titleFromTag": "Consumer"
    },
    {
      "title": "Homegrown Artists from Different Genres Take the Stage at #GlobeWanderland 2018",
      "nonclickable": false,
      "openNewTab": false,
      "borderArticle": "border-color:#0074D9;",
      "borderTopArticle": "border-top-color:#0074D9;",
      "imageListing": "/sites/globe.com.ph/files/content/dam/globe/brie/AboutUs/newsroom/consumer/Consumer_Homegrown-artists/Consumer_Homegrown-artists_Thumbnail-Listing.jpg",
      "articleUrl": "https://www.globe.com.ph/about-us/newsroom/consumer/homegrown-artists-different-genres-globe-wanderland.html",
      "columnType": "articles--type-3",
      "typeListing": "article",
      "imageMobile": "/sites/globe.com.ph/files/content/dam/globe/brie/AboutUs/newsroom/consumer/Consumer_Homegrown-artists/Consumer_Homegrown-artists_Hero-Banner-M.jpg",
      "imageDesktop": "/sites/globe.com.ph/files/content/dam/globe/brie/AboutUs/newsroom/consumer/Consumer_Homegrown-artists/Consumer_Homegrown-artists_Primary-Thumbnail.jpg",
      "description": "Homegrown artists from different genres take the stage at #GlobeWanderland 2018. Visit the Globe Newsroom for the latest news on Globe Telecom.",
      "datePosted": "Mar 01, 2018 | 04:25 PM",
      "titleFromTag": "Consumer"
    },
    {
      "title": "Globe, Cebu Provincial Govt to Build New Drug Rehabilitation Facility",
      "nonclickable": false,
      "openNewTab": false,
      "borderArticle": "border-color:#0074D9;",
      "borderTopArticle": "border-top-color:#0074D9;",
      "imageListing": "/sites/globe.com.ph/files/content/dam/globe/brie/AboutUs/newsroom/common/Corporate_Globe_Listing.jpg",
      "articleUrl": "https://www.globe.com.ph/about-us/newsroom/corporate/globe-cebu-build-new-drug-rehabilitation-facility.html",
      "columnType": "articles--type-3",
      "typeListing": "article",
      "imageMobile": "/sites/globe.com.ph/files/content/dam/globe/brie/AboutUs/newsroom/common/Corporate_Globe_Hero-Banner-Mobile.jpg",
      "imageDesktop": "/sites/globe.com.ph/files/content/dam/globe/brie/AboutUs/newsroom/common/Corporate_Globe_Primary-Desktop-Thumbnail.jpg",
      "description": "Globe, Cebu provincial govt to build new drug rehabilitation facility. Visit the Globe Newsroom for the latest news on Globe Telecom.",
      "datePosted": "Feb 28, 2018 | 08:20 PM",
      "titleFromTag": "Corporate"
    }
  ]
}
