{
  "status": 200,
  "page": 241,
  "totalPage": 298,
  "range": "2881-2892",
  "total": 3573,
  "result": [
    {
      "title": "Globe At Home Basic WiFi Tips: The Difference Between WiFi and Internet Explained",
      "nonclickable": false,
      "openNewTab": false,
      "borderArticle": "border-color:#0074D9;",
      "borderTopArticle": "border-top-color:#0074D9;",
      "imageListing": "/sites/globe.com.ph/files/content/dam/globe/brie/AboutUs/newsroom/common/Corporate_Globe_Listing.jpg",
      "articleUrl": "https://www.globe.com.ph/about-us/newsroom/consumer/globe-at-home-basic-wi-fi-tips.html",
      "columnType": "articles--type-3",
      "typeListing": "article",
      "imageMobile": "/sites/globe.com.ph/files/content/dam/globe/brie/AboutUs/newsroom/common/Corporate_Globe_Hero-Banner-Mobile.jpg",
      "imageDesktop": "/sites/globe.com.ph/files/content/dam/globe/brie/AboutUs/newsroom/common/Corporate_Globe_Primary-Desktop-Thumbnail.jpg",
      "description": "Here are some tips to boost your Globe WiFi connection courtesy of Globe At Home. Visit the Globe Newsroom for more.",
      "datePosted": "Feb 28, 2018 | 11:14 AM",
      "titleFromTag": "Consumer"
    },
    {
      "title": "Samsung Galaxy S9 and S9+ Now Available for Pre-Order with Globe",
      "nonclickable": false,
      "openNewTab": false,
      "borderArticle": "border-color:#0074D9;",
      "borderTopArticle": "border-top-color:#0074D9;",
      "imageListing": "/sites/globe.com.ph/files/content/dam/globe/brie/AboutUs/newsroom/consumer/consumer-samsung-galaxy-s9-and-s9plus/Consumer_Samsung-Galaxy-S9_Thumbnail-Listing.jpg",
      "articleUrl": "https://www.globe.com.ph/about-us/newsroom/consumer/samsung-galaxy-s9-and-s9plus.html",
      "columnType": "articles--type-3",
      "typeListing": "article",
      "imageMobile": "/sites/globe.com.ph/files/content/dam/globe/brie/AboutUs/newsroom/consumer/consumer-samsung-galaxy-s9-and-s9plus/Consumer_Samsung-Galaxy-S9_Hero-Banner-M.jpg",
      "imageDesktop": "/sites/globe.com.ph/files/content/dam/globe/brie/AboutUs/newsroom/consumer/consumer-samsung-galaxy-s9-and-s9plus/Consumer_Samsung-Galaxy-S9_Primary-Thumbnail.jpg",
      "description": "Samsung Galaxy S9 and S9+ now available for pre-order with Globe. Visit the Globe Newsroom for the latest news on Globe Telecom.",
      "datePosted": "Feb 28, 2018 | 11:11 AM",
      "titleFromTag": "Consumer"
    },
    {
      "title": "Beauché Boosts Operations by Tapping Globe Business for Connectivity Solutions",
      "nonclickable": false,
      "openNewTab": false,
      "borderArticle": "border-color:#0074D9;",
      "borderTopArticle": "border-top-color:#0074D9;",
      "imageListing": "/sites/globe.com.ph/files/content/dam/globe/brie/AboutUs/newsroom/consumer/Consumer-Beauche-Boosts/Consumer_Beauche-Boosts_Thumbnail-Listing.jpg",
      "articleUrl": "https://www.globe.com.ph/about-us/newsroom/consumer/beauche-boosts-operations.html",
      "columnType": "articles--type-3",
      "typeListing": "article",
      "imageMobile": "/sites/globe.com.ph/files/content/dam/globe/brie/AboutUs/newsroom/consumer/Consumer-Beauche-Boosts/Consumer_Beauche-Boosts_Hero-Banner-M.jpg",
      "imageDesktop": "/sites/globe.com.ph/files/content/dam/globe/brie/AboutUs/newsroom/consumer/Consumer-Beauche-Boosts/Consumer_Beauche-Boosts_Primary-Thumbnail.jpg",
      "description": "Beauché boosts operations by tapping Globe Business for connectivity solutions. Visit the Globe Newsroom for the latest news on Globe Telecom.",
      "datePosted": "Feb 27, 2018 | 04:24 PM",
      "titleFromTag": "Business"
    },
    {
      "title": "Let Your Weekend Bloom at Panagbenga Festival 2018 with Globe",
      "nonclickable": false,
      "openNewTab": false,
      "borderArticle": "border-color:#0074D9;",
      "borderTopArticle": "border-top-color:#0074D9;",
      "imageListing": "/sites/globe.com.ph/files/content/dam/globe/brie/AboutUs/newsroom/common/Corporate_Globe_Listing.jpg",
      "articleUrl": "https://www.globe.com.ph/about-us/newsroom/consumer/let-your-weekend-bloom-at-panagbenga.html",
      "columnType": "articles--type-3",
      "typeListing": "article",
      "imageMobile": "/sites/globe.com.ph/files/content/dam/globe/brie/AboutUs/newsroom/common/Corporate_Globe_Hero-Banner-Mobile.jpg",
      "imageDesktop": "/sites/globe.com.ph/files/content/dam/globe/brie/AboutUs/newsroom/common/Corporate_Globe_Primary-Desktop-Thumbnail.jpg",
      "description": "Let your weekend bloom at Panagbenga Festival 2018 with Globe. Visit the Globe Newsroom for the latest news on Globe Telecom.",
      "datePosted": "Feb 27, 2018 | 04:24 PM",
      "titleFromTag": "Consumer"
    },
    {
      "title": "Globe: Value Added Services (VAS) System Refresh Starts March 5",
      "nonclickable": false,
      "openNewTab": false,
      "borderArticle": "border-color:#0074D9;",
      "borderTopArticle": "border-top-color:#0074D9;",
      "imageListing": "/sites/globe.com.ph/files/content/dam/globe/brie/AboutUs/newsroom/common/Corporate_Globe_Listing.jpg",
      "articleUrl": "https://www.globe.com.ph/about-us/newsroom/corporate/globe-value-added-services.html",
      "columnType": "articles--type-3",
      "typeListing": "article",
      "imageMobile": "/sites/globe.com.ph/files/content/dam/globe/brie/AboutUs/newsroom/common/Corporate_Globe_Hero-Banner-Mobile.jpg",
      "imageDesktop": "/sites/globe.com.ph/files/content/dam/globe/brie/AboutUs/newsroom/common/Corporate_Globe_Primary-Desktop-Thumbnail.jpg",
      "description": "Globe Value Added Services (VAS) system refresh starts March 5. Visit the Globe Newsroom for the latest news on Globe Telecom",
      "datePosted": "Feb 26, 2018 | 08:20 PM",
      "titleFromTag": "Corporate"
    },
    {
      "title": "Globe Maximizes New Spectrum Assets; LTE 700 Sites Now Close to 1,700",
      "nonclickable": false,
      "openNewTab": false,
      "borderArticle": "border-color:#0074D9;",
      "borderTopArticle": "border-top-color:#0074D9;",
      "imageListing": "/sites/globe.com.ph/files/content/dam/globe/brie/AboutUs/newsroom/corporate/Corporate_Globe-Maximizes/Corporate_Globe-Maximizes_Thumbnail-Listing.jpg",
      "articleUrl": "https://www.globe.com.ph/about-us/newsroom/corporate/globe-maximizes-new-spectrum-assets.html",
      "columnType": "articles--type-3",
      "typeListing": "article",
      "imageMobile": "/sites/globe.com.ph/files/content/dam/globe/brie/AboutUs/newsroom/corporate/Corporate_Globe-Maximizes/Corporate_Globe-Maximizes_Banner-M.jpg",
      "imageDesktop": "/sites/globe.com.ph/files/content/dam/globe/brie/AboutUs/newsroom/corporate/Corporate_Globe-Maximizes/Corporate_Globe-Maximizes_Primary-Thumbnail.jpg",
      "description": "Globe maximizes new spectrum assets; LTE 700 sites now close to 1,700. Visit the Globe Newsroom for the latest news on Globe Telecom.",
      "datePosted": "Feb 24, 2018 | 08:20 PM",
      "titleFromTag": "Corporate"
    },
    {
      "title": "Apply these Feng Shui Principles to Your Everyday (Business) Life",
      "nonclickable": false,
      "openNewTab": false,
      "borderArticle": "border-color:#0074D9;",
      "borderTopArticle": "border-top-color:#0074D9;",
      "imageListing": "/sites/globe.com.ph/files/content/dam/globe/brie/AboutUs/newsroom/consumer/Consumer_Apply-These/Consumer_Apply-These_Thumbnail-Listing.jpg",
      "articleUrl": "https://www.globe.com.ph/about-us/newsroom/consumer/apply-these-feng-shui-principles-to-everyday-business-life.html",
      "columnType": "articles--type-3",
      "typeListing": "article",
      "imageMobile": "/sites/globe.com.ph/files/content/dam/globe/brie/AboutUs/newsroom/consumer/Consumer_Apply-These/Consumer_Apply-These_Hero-Banner-M.jpg",
      "imageDesktop": "/sites/globe.com.ph/files/content/dam/globe/brie/AboutUs/newsroom/consumer/Consumer_Apply-These/Consumer_Apply-These_Primary-Thumbnail.jpg",
      "description": "Apply these Feng Shui principles to your everyday (business) life. Visit the Globe Newsroom for the latest news on Globe Telecom.",
      "datePosted": "Feb 24, 2018 | 04:24 PM",
      "titleFromTag": "Consumer"
    },
    {
      "title": "KFC Welcomes GCash Scan-to-Pay",
      "nonclickable": false,
      "openNewTab": false,
      "borderArticle": "border-color:#0074D9;",
      "borderTopArticle": "border-top-color:#0074D9;",
      "imageListing": "/sites/globe.com.ph/files/content/dam/globe/brie/AboutUs/newsroom/consumer/Consumer-KFC-Welcomes/Consumer_KFC-Welcomes_Thumbnail-Listing.jpg",
      "articleUrl": "https://www.globe.com.ph/about-us/newsroom/consumer/kfc-welcomes-gcash-scan-to-pay.html",
      "columnType": "articles--type-3",
      "typeListing": "article",
      "imageMobile": "/sites/globe.com.ph/files/content/dam/globe/brie/AboutUs/newsroom/consumer/Consumer-KFC-Welcomes/Consumer_KFC-Welcomes_Hero-Banner-M.jpg",
      "imageDesktop": "/sites/globe.com.ph/files/content/dam/globe/brie/AboutUs/newsroom/consumer/Consumer-KFC-Welcomes/Consumer_KFC-Welcomes_Primary-Thumbnail.jpg",
      "description": "KFC welcomes GCash Scan-to-Pay. Please visit the Globe Newsroom for the latest news on Globe Telecom.",
      "datePosted": "Feb 24, 2018 | 04:24 PM",
      "titleFromTag": "Consumer"
    },
    {
      "title": "Globe Telecom lauded for supporting search for Model PNP Families",
      "nonclickable": false,
      "openNewTab": false,
      "borderArticle": "border-color:#0074D9;",
      "borderTopArticle": "border-top-color:#0074D9;",
      "imageListing": "/sites/globe.com.ph/files/content/dam/globe/brie/AboutUs/newsroom/corporate/Corporate_Globe-Telecom-Lauded/Corporate_Globe-Telecom-Lauded_Thumbnail-Listing.jpg",
      "articleUrl": "https://www.globe.com.ph/about-us/newsroom/corporate/globe-lauded-for-supporting-search-for-model-pnp-families.html",
      "columnType": "articles--type-3",
      "typeListing": "article",
      "imageMobile": "/sites/globe.com.ph/files/content/dam/globe/brie/AboutUs/newsroom/corporate/Corporate_Globe-Telecom-Lauded/Corporate_Globe-Telecom-Lauded_Banner-M.jpg",
      "imageDesktop": "/sites/globe.com.ph/files/content/dam/globe/brie/AboutUs/newsroom/corporate/Corporate_Globe-Telecom-Lauded/Corporate_Globe-Telecom-Lauded_Primary-Thumbnail.jpg",
      "description": "Globe Telecom lauded for supporting search for Model PNP Families. Visit the Globe Newsroom for the latest news on Globe Telecom.",
      "datePosted": "Feb 23, 2018 | 08:19 PM",
      "titleFromTag": "Corporate"
    },
    {
      "title": "Globe Leaders Undergo Extensive Study of Digital Applications in Hangzhou",
      "nonclickable": false,
      "openNewTab": false,
      "borderArticle": "border-color:#0074D9;",
      "borderTopArticle": "border-top-color:#0074D9;",
      "imageListing": "/sites/globe.com.ph/files/content/dam/globe/brie/AboutUs/newsroom/corporate/Corporate_Globe-Leaders/Corporate_Globe-Leaders_Thumbnail-Listing.jpg",
      "articleUrl": "https://www.globe.com.ph/about-us/newsroom/corporate/globe-leaders-undergo-extensive-study.html",
      "columnType": "articles--type-3",
      "typeListing": "article",
      "imageMobile": "/sites/globe.com.ph/files/content/dam/globe/brie/AboutUs/newsroom/corporate/Corporate_Globe-Leaders/Corporate_Globe-Leaders_Banner-M.jpg",
      "imageDesktop": "/sites/globe.com.ph/files/content/dam/globe/brie/AboutUs/newsroom/corporate/Corporate_Globe-Leaders/Corporate_Globe-Leaders_Primary-Thumbnail.jpg",
      "description": "Globe leaders undergo extensive study of digital applications in Hangzhou. Visit the Globe Newsroom for the latest news on Globe Telecom.",
      "datePosted": "Feb 23, 2018 | 08:19 PM",
      "titleFromTag": "Corporate"
    },
    {
      "title": "Globe Brings Marvel Studios’ Black Panther to Select Schools",
      "nonclickable": false,
      "openNewTab": false,
      "borderArticle": "border-color:#0074D9;",
      "borderTopArticle": "border-top-color:#0074D9;",
      "imageListing": "/sites/globe.com.ph/files/content/dam/globe/brie/AboutUs/newsroom/common/Corporate_Globe_Listing.jpg",
      "articleUrl": "https://www.globe.com.ph/about-us/newsroom/consumer/globe-brings-marvel-studios-black-panther-to-select-schools.html",
      "columnType": "articles--type-3",
      "typeListing": "article",
      "imageMobile": "/sites/globe.com.ph/files/content/dam/globe/brie/AboutUs/newsroom/common/Corporate_Globe_Hero-Banner-Mobile.jpg",
      "imageDesktop": "/sites/globe.com.ph/files/content/dam/globe/brie/AboutUs/newsroom/common/Corporate_Globe_Primary-Desktop-Thumbnail.jpg",
      "description": "Globe brings Marvel Studios’ Black Panther to select schools. Visit the Globe Newsroom for the latest news on Globe Telecom.",
      "datePosted": "Feb 23, 2018 | 04:23 PM",
      "titleFromTag": "Consumer"
    },
    {
      "title": "Globe Readies Network for Emerging IoT Services with 700 MHz Band",
      "nonclickable": false,
      "openNewTab": false,
      "borderArticle": "border-color:#0074D9;",
      "borderTopArticle": "border-top-color:#0074D9;",
      "imageListing": "/sites/globe.com.ph/files/content/dam/globe/brie/AboutUs/newsroom/common/Corporate_Globe_Listing.jpg",
      "articleUrl": "https://www.globe.com.ph/about-us/newsroom/corporate/globe-readies-network-for-emerging-iot-services.html",
      "columnType": "articles--type-3",
      "typeListing": "article",
      "imageMobile": "/sites/globe.com.ph/files/content/dam/globe/brie/AboutUs/newsroom/common/Corporate_Globe_Hero-Banner-Mobile.jpg",
      "imageDesktop": "/sites/globe.com.ph/files/content/dam/globe/brie/AboutUs/newsroom/common/Corporate_Globe_Primary-Desktop-Thumbnail.jpg",
      "description": "Globe readies network for emerging IoT services with 700 MHz band. Visit the Globe Newsroom for the latest news on Globe Telecom.",
      "datePosted": "Feb 21, 2018 | 08:19 PM",
      "titleFromTag": "Corporate"
    }
  ]
}
