{
  "status": 200,
  "page": 242,
  "totalPage": 298,
  "range": "2893-2904",
  "total": 3573,
  "result": [
    {
      "title": "Globe Telecom Anti-Spam Solution Nets Global Recognition",
      "nonclickable": false,
      "openNewTab": false,
      "borderArticle": "border-color:#0074D9;",
      "borderTopArticle": "border-top-color:#0074D9;",
      "imageListing": "/sites/globe.com.ph/files/content/dam/globe/brie/AboutUs/newsroom/corporate/corporate-anti-spam-solution/corporate-anti-spam-solution-thumbnail-listing.jpg",
      "articleUrl": "https://www.globe.com.ph/about-us/newsroom/corporate/globe-telecom-anti-spam-solution.html",
      "columnType": "articles--type-3",
      "typeListing": "article",
      "imageMobile": "/sites/globe.com.ph/files/content/dam/globe/brie/AboutUs/newsroom/corporate/corporate-anti-spam-solution/corporate-anti-spam-solution-banner-m.jpg",
      "imageDesktop": "/sites/globe.com.ph/files/content/dam/globe/brie/AboutUs/newsroom/corporate/corporate-anti-spam-solution/corporate-anti-spam-solution-primary-thumbnail.jpg",
      "description": "Globe Telecom anti-spam solution nets global recognition. Visit the Globe Newsroom for the latest news on Globe Telecom.",
      "datePosted": "Feb 20, 2018 | 08:18 PM",
      "titleFromTag": "Corporate"
    },
    {
      "title": "South Star Drug Now Accepts GCash in Metro Manila Outlets",
      "nonclickable": false,
      "openNewTab": false,
      "borderArticle": "border-color:#0074D9;",
      "borderTopArticle": "border-top-color:#0074D9;",
      "imageListing": "/sites/globe.com.ph/files/content/dam/globe/brie/AboutUs/newsroom/consumer/consumer-south-star-drug/consumer-south-star-drug-thumbnail-listing.jpg",
      "articleUrl": "https://www.globe.com.ph/about-us/newsroom/consumer/south-star-drug-now.html",
      "columnType": "articles--type-3",
      "typeListing": "article",
      "imageMobile": "/sites/globe.com.ph/files/content/dam/globe/brie/AboutUs/newsroom/consumer/consumer-south-star-drug/consumer-south-star-drug-banner-m.jpg",
      "imageDesktop": "/sites/globe.com.ph/files/content/dam/globe/brie/AboutUs/newsroom/consumer/consumer-south-star-drug/consumer-south-star-drug-primary-thumbnail.jpg",
      "description": "South Star Drug now accepts GCash in Metro Manila outlets. Visit the Globe Newsroom for the latest news on Globe Telecom.",
      "datePosted": "Feb 17, 2018 | 04:23 PM",
      "titleFromTag": "Consumer"
    },
    {
      "title": "Globe Launches First Fully Integrated Cloud-Based Wide Area Network in the Philippines",
      "nonclickable": false,
      "openNewTab": false,
      "borderArticle": "border-color:#0074D9;",
      "borderTopArticle": "border-top-color:#0074D9;",
      "imageListing": "/sites/globe.com.ph/files/content/dam/globe/brie/AboutUs/newsroom/common/Corporate_Globe_Listing.jpg",
      "articleUrl": "https://www.globe.com.ph/about-us/newsroom/corporate/sd-wan-launch.html",
      "columnType": "articles--type-3",
      "typeListing": "article",
      "imageMobile": "/sites/globe.com.ph/files/content/dam/globe/brie/AboutUs/newsroom/common/Corporate_Globe_Hero-Banner-Mobile.jpg",
      "imageDesktop": "/sites/globe.com.ph/files/content/dam/globe/brie/AboutUs/newsroom/common/Corporate_Globe_Primary-Desktop-Thumbnail.jpg",
      "description": "Globe introduces SD-WAN, a game-changing technology that enables faster businesses expansion through a corporate data network that is affordable and easy to dep",
      "datePosted": "Feb 13, 2018 | 08:21 PM",
      "titleFromTag": "Corporate"
    },
    {
      "title": "Globe myBusiness, Spring Valley Partner to Help Connect Students with Right Companies for On-the-Job Training",
      "nonclickable": false,
      "openNewTab": false,
      "borderArticle": "border-color:#0074D9;",
      "borderTopArticle": "border-top-color:#0074D9;",
      "imageListing": "/sites/globe.com.ph/files/content/dam/globe/brie/AboutUs/newsroom/consumer/consumer-spring-valley/consumer-spring-valley-thumbnail-listing.jpg",
      "articleUrl": "https://www.globe.com.ph/about-us/newsroom/consumer/globe-mybusiness-spring-valley-partner.html",
      "columnType": "articles--type-3",
      "typeListing": "article",
      "imageMobile": "/sites/globe.com.ph/files/content/dam/globe/brie/AboutUs/newsroom/consumer/consumer-spring-valley/consumer-spring-valley-banner-m.jpg",
      "imageDesktop": "/sites/globe.com.ph/files/content/dam/globe/brie/AboutUs/newsroom/consumer/consumer-spring-valley/consumer-spring-valley-primary-thumbnail.jpg",
      "description": "Globe myBusiness, Spring Valley partner to help connect students with right companies for on-the-job training. Visit the Globe Newsroom for the latest news.",
      "datePosted": "Feb 12, 2018 | 04:22 PM",
      "titleFromTag": "Consumer"
    },
    {
      "title": "Get the Globe Wanderlove Bundle Promo for Discounted Tickets to Wanderland 2018",
      "nonclickable": false,
      "openNewTab": false,
      "borderArticle": "border-color:#0074D9;",
      "borderTopArticle": "border-top-color:#0074D9;",
      "imageListing": "/sites/globe.com.ph/files/content/dam/globe/brie/AboutUs/newsroom/consumer/consumer-wanderlove-wanderland/consumer-wanderlove-wanderland-thumbnail-listing.jpg",
      "articleUrl": "https://www.globe.com.ph/about-us/newsroom/consumer/get-the-globe-wanderlove-bundle.html",
      "columnType": "articles--type-3",
      "typeListing": "article",
      "imageMobile": "/sites/globe.com.ph/files/content/dam/globe/brie/AboutUs/newsroom/consumer/consumer-wanderlove-wanderland/consumer-wanderlove-wanderland-banner-m.jpg",
      "imageDesktop": "/sites/globe.com.ph/files/content/dam/globe/brie/AboutUs/newsroom/consumer/consumer-wanderlove-wanderland/consumer-wanderlove-wanderland-primary-thumbnail.jpg",
      "description": "Get the Globe Wanderlove Bundle Promo for discounted tickets to Wanderland 2018. Visit the Globe Newsroom for the latest news on Globe Telecom.",
      "datePosted": "Feb 12, 2018 | 04:22 PM",
      "titleFromTag": "Consumer"
    },
    {
      "title": "5 Places You Can Visit to Make Valentine’s Day More Special",
      "nonclickable": false,
      "openNewTab": false,
      "borderArticle": "border-color:#0074D9;",
      "borderTopArticle": "border-top-color:#0074D9;",
      "imageListing": "/sites/globe.com.ph/files/content/dam/globe/brie/AboutUs/newsroom/consumer/consumer-places-valentines-day/consumer-places-valentines-day-thumbnail-listing.jpg",
      "articleUrl": "https://www.globe.com.ph/about-us/newsroom/consumer/5-places-you-can-visit-valentines-day.html",
      "columnType": "articles--type-3",
      "typeListing": "article",
      "imageMobile": "/sites/globe.com.ph/files/content/dam/globe/brie/AboutUs/newsroom/consumer/consumer-places-valentines-day/consumer-places-valentines-day-banner-m.jpg",
      "imageDesktop": "/sites/globe.com.ph/files/content/dam/globe/brie/AboutUs/newsroom/consumer/consumer-places-valentines-day/consumer-places-valentines-day-primary-thumbnail.jpg",
      "description": "Here are 5 places you can visit to make Valentine’s Day more special. Visit the Globe Newsroom for the latest news on Globe Telecom.",
      "datePosted": "Feb 10, 2018 | 04:22 PM",
      "titleFromTag": "Consumer"
    },
    {
      "title": "Globe Board Approves 1Q Cash Dividend of P22.75/Share for Common Shareholders",
      "nonclickable": false,
      "openNewTab": false,
      "borderArticle": "border-color:#0074D9;",
      "borderTopArticle": "border-top-color:#0074D9;",
      "imageListing": "/sites/globe.com.ph/files/content/dam/globe/brie/AboutUs/newsroom/corporate/corporate-globe-board/corporate-globe-board-thumbnail-listing.jpg",
      "articleUrl": "https://www.globe.com.ph/about-us/newsroom/corporate/globe-board-approves-1q-cash-dividend.html",
      "columnType": "articles--type-3",
      "typeListing": "article",
      "imageMobile": "/sites/globe.com.ph/files/content/dam/globe/brie/AboutUs/newsroom/corporate/corporate-globe-board/corporate-globe-board-banner-m.jpg",
      "imageDesktop": "/sites/globe.com.ph/files/content/dam/globe/brie/AboutUs/newsroom/corporate/corporate-globe-board/corporate-globe-board-primary-thumbnail.jpg",
      "description": "Globe board approves 1Q cash dividend of P22.75/share for common shareholders. Visit the Globe Newsroom for the latest news on Globe Telecom.",
      "datePosted": "Feb 09, 2018 | 08:18 PM",
      "titleFromTag": "Corporate"
    },
    {
      "title": "International Finance Recognizes Globe Efforts to Improve PH Internet with Best Telecom Service Provider of the Year",
      "nonclickable": false,
      "openNewTab": false,
      "borderArticle": "border-color:#0074D9;",
      "borderTopArticle": "border-top-color:#0074D9;",
      "imageListing": "/sites/globe.com.ph/files/content/dam/globe/brie/AboutUs/newsroom/common/Corporate_Globe_Listing.jpg",
      "articleUrl": "https://www.globe.com.ph/about-us/newsroom/corporate/international-finance-recognizes-globe-efforts.html",
      "columnType": "articles--type-3",
      "typeListing": "article",
      "imageMobile": "/sites/globe.com.ph/files/content/dam/globe/brie/AboutUs/newsroom/common/Corporate_Globe_Hero-Banner-Mobile.jpg",
      "imageDesktop": "/sites/globe.com.ph/files/content/dam/globe/brie/AboutUs/newsroom/common/Corporate_Globe_Primary-Desktop-Thumbnail.jpg",
      "description": "International Finance recognizes Globe efforts to improve PH internet with Best Telecom Service Provider of the Year. Visit the Globe Newsroom for more.",
      "datePosted": "Feb 08, 2018 | 08:17 PM",
      "titleFromTag": "Corporate"
    },
    {
      "title": "Globe in Talks with 3rd Parties for Creation of Independent Tower Company",
      "nonclickable": false,
      "openNewTab": false,
      "borderArticle": "border-color:#0074D9;",
      "borderTopArticle": "border-top-color:#0074D9;",
      "imageListing": "/sites/globe.com.ph/files/content/dam/globe/brie/AboutUs/newsroom/common/Corporate_Globe_Listing.jpg",
      "articleUrl": "https://www.globe.com.ph/about-us/newsroom/corporate/globe-in-talks-with-3rd-parties.html",
      "columnType": "articles--type-3",
      "typeListing": "article",
      "imageMobile": "/sites/globe.com.ph/files/content/dam/globe/brie/AboutUs/newsroom/common/Corporate_Globe_Hero-Banner-Mobile.jpg",
      "imageDesktop": "/sites/globe.com.ph/files/content/dam/globe/brie/AboutUs/newsroom/common/Corporate_Globe_Primary-Desktop-Thumbnail.jpg",
      "description": "Globe in talks with 3rd parties for creation of independent tower company. Visit the Globe Newsroom for the latest news on Globe Telecom.",
      "datePosted": "Feb 08, 2018 | 08:18 PM",
      "titleFromTag": "Corporate"
    },
    {
      "title": "5 Reasons Why You Should #PlayItRight",
      "nonclickable": false,
      "openNewTab": false,
      "borderArticle": "border-color:#0074D9;",
      "borderTopArticle": "border-top-color:#0074D9;",
      "imageListing": "/sites/globe.com.ph/files/content/dam/globe/brie/AboutUs/newsroom/common/Corporate_Globe_Listing.jpg",
      "articleUrl": "https://www.globe.com.ph/about-us/newsroom/consumer/5-reasons-why-you-should-play-it-right.html",
      "columnType": "articles--type-3",
      "typeListing": "article",
      "imageMobile": "/sites/globe.com.ph/files/content/dam/globe/brie/AboutUs/newsroom/common/Corporate_Globe_Hero-Banner-Mobile.jpg",
      "imageDesktop": "/sites/globe.com.ph/files/content/dam/globe/brie/AboutUs/newsroom/common/Corporate_Globe_Primary-Desktop-Thumbnail.jpg",
      "description": "5 Reasons Why You Should #PlayItRight. Visit the Globe Newsroom for the latest news on Globe Telecom.",
      "datePosted": "Feb 07, 2018 | 04:21 PM",
      "titleFromTag": "Consumer"
    },
    {
      "title": "Globe Keeps Revenue Growth Momentum; 2017 Topline Up 6%",
      "nonclickable": false,
      "openNewTab": false,
      "borderArticle": "border-color:#0074D9;",
      "borderTopArticle": "border-top-color:#0074D9;",
      "imageListing": "/sites/globe.com.ph/files/content/dam/globe/brie/AboutUs/newsroom/common/Corporate_Globe_Listing.jpg",
      "articleUrl": "https://www.globe.com.ph/about-us/newsroom/corporate/globe-keeps-revenue-growth.html",
      "columnType": "articles--type-3",
      "typeListing": "article",
      "imageMobile": "/sites/globe.com.ph/files/content/dam/globe/brie/AboutUs/newsroom/common/Corporate_Globe_Hero-Banner-Mobile.jpg",
      "imageDesktop": "/sites/globe.com.ph/files/content/dam/globe/brie/AboutUs/newsroom/common/Corporate_Globe_Primary-Desktop-Thumbnail.jpg",
      "description": "Globe keeps revenue growth momentum; 2017 topline up 6%. Visit the Globe Newsroom for the latest news on Globe Telecom.",
      "datePosted": "Feb 06, 2018 | 08:17 PM",
      "titleFromTag": "Corporate"
    },
    {
      "title": "Globe, Facebook, DepEd Collaborate to Promote Responsible Digital Citizenship in Schools Nationwide",
      "nonclickable": false,
      "openNewTab": false,
      "borderArticle": "border-color:#0074D9;",
      "borderTopArticle": "border-top-color:#0074D9;",
      "imageListing": "/sites/globe.com.ph/files/content/dam/globe/brie/AboutUs/newsroom/consumer/consumer-globe-facebook-deped/consumer-globe-facebook-deped-thumbnail-listing.jpg",
      "articleUrl": "https://www.globe.com.ph/about-us/newsroom/sustainability/responsible-digital-citizenship.html",
      "columnType": "articles--type-3",
      "typeListing": "article",
      "imageMobile": "/sites/globe.com.ph/files/content/dam/globe/brie/AboutUs/newsroom/consumer/consumer-globe-facebook-deped/consumer-globe-facebook-deped-banner-m.jpg",
      "imageDesktop": "/sites/globe.com.ph/files/content/dam/globe/brie/AboutUs/newsroom/consumer/consumer-globe-facebook-deped/consumer-globe-facebook-deped-primary-thumbnail.jpg",
      "description": "Globe, Facebook, DepEd collaborate to promote responsible digital citizenship in schools nationwide. Visit the Newsroom for the latest news on Globe Telecom.",
      "datePosted": "Feb 06, 2018 | 04:53 PM",
      "titleFromTag": "Sustainability"
    }
  ]
}
