{
  "status": 200,
  "page": 243,
  "totalPage": 298,
  "range": "2905-2916",
  "total": 3573,
  "result": [
    {
      "title": "Globe, Facebook, DepEd Collaborate to Promote Responsible Digital Citizenship in Schools Nationwide",
      "nonclickable": false,
      "openNewTab": false,
      "borderArticle": "border-color:#0074D9;",
      "borderTopArticle": "border-top-color:#0074D9;",
      "imageListing": "/sites/globe.com.ph/files/content/dam/globe/brie/AboutUs/newsroom/consumer/consumer-globe-facebook-deped/consumer-globe-facebook-deped-thumbnail-listing.jpg",
      "articleUrl": "https://www.globe.com.ph/about-us/newsroom/consumer/globe-facebook-deped-collaborate.html",
      "columnType": "articles--type-3",
      "typeListing": "article",
      "imageMobile": "/sites/globe.com.ph/files/content/dam/globe/brie/AboutUs/newsroom/consumer/consumer-globe-facebook-deped/consumer-globe-facebook-deped-banner-m.jpg",
      "imageDesktop": "/sites/globe.com.ph/files/content/dam/globe/brie/AboutUs/newsroom/consumer/consumer-globe-facebook-deped/consumer-globe-facebook-deped-primary-thumbnail.jpg",
      "description": "Globe, Facebook, DepEd collaborate to promote responsible digital citizenship in schools nationwide. Visit the Globe Newsroom for the latest news on Globe Telecom.",
      "datePosted": "Feb 06, 2018 | 04:21 PM",
      "titleFromTag": "Consumer"
    },
    {
      "title": "Globe Spearheads Clean-Up After Successful Dinagyang Festival in Iloilo",
      "nonclickable": false,
      "openNewTab": false,
      "borderArticle": "border-color:#0074D9;",
      "borderTopArticle": "border-top-color:#0074D9;",
      "imageListing": "/sites/globe.com.ph/files/content/dam/globe/brie/AboutUs/newsroom/consumer/consumer-spearheads-dinagyang/consumer-spearheads-dinagyang-thumbnail-listing.jpg",
      "articleUrl": "https://www.globe.com.ph/about-us/newsroom/consumer/globe-spearheads-clean-up-dinagyang-festival.html",
      "columnType": "articles--type-3",
      "typeListing": "article",
      "imageMobile": "/sites/globe.com.ph/files/content/dam/globe/brie/AboutUs/newsroom/consumer/consumer-spearheads-dinagyang/consumer-spearheads-dinagyang-banner-m.jpg",
      "imageDesktop": "/sites/globe.com.ph/files/content/dam/globe/brie/AboutUs/newsroom/consumer/consumer-spearheads-dinagyang/consumer-spearheads-dinagyang-primary-thumbnail.jpg",
      "description": "Globe spearheads clean-up after successful Dinagyang Festival in Iloilo. Visit the Globe Newsroom for the latest news on Globe Telecom.",
      "datePosted": "Feb 05, 2018 | 04:21 PM",
      "titleFromTag": "Consumer"
    },
    {
      "title": "Globe Spearheads Clean-Up After Successful Dinagyang Festival in Iloilo",
      "nonclickable": false,
      "openNewTab": false,
      "borderArticle": "border-color:#0074D9;",
      "borderTopArticle": "border-top-color:#0074D9;",
      "imageListing": "/sites/globe.com.ph/files/content/dam/globe/brie/AboutUs/newsroom/common/Corporate_Globe_Listing.jpg",
      "articleUrl": "https://www.globe.com.ph/about-us/newsroom/sustainability/globe-spearheads-clean-up-dinagyang-festival.html",
      "columnType": "articles--type-3",
      "typeListing": "article",
      "imageMobile": "/sites/globe.com.ph/files/content/dam/globe/brie/AboutUs/newsroom/common/Corporate_Globe_Hero-Banner-Mobile.jpg",
      "imageDesktop": "/sites/globe.com.ph/files/content/dam/globe/brie/AboutUs/newsroom/common/Corporate_Globe_Primary-Desktop-Thumbnail.jpg",
      "description": "Globe spearheads clean-up after successful Dinagyang Festival in Iloilo. Visit the Globe Newsroom for the latest news on Globe Telecom.",
      "datePosted": "Feb 05, 2018 | 04:53 PM",
      "titleFromTag": "Sustainability"
    },
    {
      "title": "GLOBE: Tighter Rules on VAS to Increase Customer Protection",
      "nonclickable": false,
      "openNewTab": false,
      "borderArticle": "border-color:#0074D9;",
      "borderTopArticle": "border-top-color:#0074D9;",
      "imageListing": "/sites/globe.com.ph/files/content/dam/globe/brie/AboutUs/newsroom/common/Corporate_Globe_Listing.jpg",
      "articleUrl": "https://www.globe.com.ph/about-us/newsroom/corporate/tighter-rules-on-vas.html",
      "columnType": "articles--type-3",
      "typeListing": "article",
      "imageMobile": "/sites/globe.com.ph/files/content/dam/globe/brie/AboutUs/newsroom/common/Corporate_Globe_Hero-Banner-Mobile.jpg",
      "imageDesktop": "/sites/globe.com.ph/files/content/dam/globe/brie/AboutUs/newsroom/common/Corporate_Globe_Primary-Desktop-Thumbnail.jpg",
      "description": "GLOBE: Tighter rules on VAS to increase customer protection. Visit the Globe Newsroom for the latest news on Globe Telecom.",
      "datePosted": "Feb 02, 2018 | 08:17 PM",
      "titleFromTag": "Corporate"
    },
    {
      "title": "Globe Rolls Out More Than 1M Broadband Lines Ahead of Schedule",
      "nonclickable": false,
      "openNewTab": false,
      "borderArticle": "border-color:#0074D9;",
      "borderTopArticle": "border-top-color:#0074D9;",
      "imageListing": "/sites/globe.com.ph/files/content/dam/globe/brie/AboutUs/newsroom/common/Corporate_Globe_Listing.jpg",
      "articleUrl": "https://www.globe.com.ph/about-us/newsroom/corporate/globe-rolls-out-1-million-broadband-lines.html",
      "columnType": "articles--type-3",
      "typeListing": "article",
      "imageMobile": "/sites/globe.com.ph/files/content/dam/globe/brie/AboutUs/newsroom/common/Corporate_Globe_Hero-Banner-Mobile.jpg",
      "imageDesktop": "/sites/globe.com.ph/files/content/dam/globe/brie/AboutUs/newsroom/common/Corporate_Globe_Primary-Desktop-Thumbnail.jpg",
      "description": "Globe rolls out more than 1 million broadband lines ahead of schedule. Visit the Globe Newsroom for the latest news on Globe Telecom.",
      "datePosted": "Feb 01, 2018 | 08:16 PM",
      "titleFromTag": "Corporate"
    },
    {
      "title": "Win Wanderland 2018 Tickets with Globe GoSURF",
      "nonclickable": false,
      "openNewTab": false,
      "borderArticle": "border-color:#0074D9;",
      "borderTopArticle": "border-top-color:#0074D9;",
      "imageListing": "/sites/globe.com.ph/files/content/dam/globe/brie/AboutUs/newsroom/consumer/consumer-wanderland-gosurf/consumer-wanderland-gosurf-thumbnail-listing.jpg",
      "articleUrl": "https://www.globe.com.ph/about-us/newsroom/consumer/win-wanderland-2018-tickets.html",
      "columnType": "articles--type-3",
      "typeListing": "article",
      "imageMobile": "/sites/globe.com.ph/files/content/dam/globe/brie/AboutUs/newsroom/consumer/consumer-wanderland-gosurf/consumer-wanderland-gosurf-banner-m.jpg",
      "imageDesktop": "/sites/globe.com.ph/files/content/dam/globe/brie/AboutUs/newsroom/consumer/consumer-wanderland-gosurf/consumer-wanderland-gosurf-primary-thumbnail.jpg",
      "description": "Win Wanderland 2018 tickets with Globe GoSURF. Visit the Globe Newsroom for the latest news on Globe Telecom.",
      "datePosted": "Jan 29, 2018 | 04:20 PM",
      "titleFromTag": "Consumer"
    },
    {
      "title": "Globe Telecom Cuts Delinquencies by 40% Using FICO Solution for Analytically Driven Collections",
      "nonclickable": false,
      "openNewTab": false,
      "borderArticle": "border-color:#0074D9;",
      "borderTopArticle": "border-top-color:#0074D9;",
      "imageListing": "/sites/globe.com.ph/files/content/dam/globe/brie/AboutUs/newsroom/common/Corporate_Globe_Listing.jpg",
      "articleUrl": "https://www.globe.com.ph/about-us/newsroom/corporate/globe-cuts-delinquencies.html",
      "columnType": "articles--type-3",
      "typeListing": "article",
      "imageMobile": "/sites/globe.com.ph/files/content/dam/globe/brie/AboutUs/newsroom/common/Corporate_Globe_Hero-Banner-Mobile.jpg",
      "imageDesktop": "/sites/globe.com.ph/files/content/dam/globe/brie/AboutUs/newsroom/common/Corporate_Globe_Primary-Desktop-Thumbnail.jpg",
      "description": "Globe Telecom Cuts Delinquencies by 40 Percent Using FICO Solution for Analytically Driven Collections. Visit the Globe Newsroom for the latest news",
      "datePosted": "Jan 26, 2018 | 08:16 PM",
      "titleFromTag": "Corporate"
    },
    {
      "title": "Globe Sets Up Libreng WiFi/Libreng Tawag Stations in Tacloban City, Eastern Samar, Aklan",
      "nonclickable": false,
      "openNewTab": false,
      "borderArticle": "border-color:#0074D9;",
      "borderTopArticle": "border-top-color:#0074D9;",
      "imageListing": "/sites/globe.com.ph/files/content/dam/globe/brie/AboutUs/newsroom/corporate/Corporate_Globe-Sets/Corporate_Globe-Sets_Thumbnail-Listing.jpg",
      "articleUrl": "https://www.globe.com.ph/about-us/newsroom/corporate/globe-sets-up-libreng-wifi.html",
      "columnType": "articles--type-3",
      "typeListing": "article",
      "imageMobile": "/sites/globe.com.ph/files/content/dam/globe/brie/AboutUs/newsroom/corporate/Corporate_Globe-Sets/Corporate_Globe-Sets_Banner-M.jpg",
      "imageDesktop": "/sites/globe.com.ph/files/content/dam/globe/brie/AboutUs/newsroom/corporate/Corporate_Globe-Sets/Corporate_Globe-Sets_Primary-Thumbnail.jpg",
      "description": "Globe sets up Libreng WiFi, Tawag, Charging stations in Albay. Visit the Globe Newsroom for the latest news on Globe Telecom.",
      "datePosted": "Jan 26, 2018 | 07:58 PM",
      "titleFromTag": "Corporate"
    },
    {
      "title": "Boracay Businesses Learn From the Experts",
      "nonclickable": false,
      "openNewTab": false,
      "borderArticle": "border-color:#0074D9;",
      "borderTopArticle": "border-top-color:#0074D9;",
      "imageListing": "/sites/globe.com.ph/files/content/dam/globe/brie/AboutUs/newsroom/consumer/boracay-businesses-learn-from-experts/215_Thumbnail_Listing_288x170.jpg",
      "articleUrl": "https://www.globe.com.ph/about-us/newsroom/consumer/boracay-businesses-learn-from-experts.html",
      "columnType": "articles--type-3",
      "typeListing": "article",
      "imageMobile": "/sites/globe.com.ph/files/content/dam/globe/brie/AboutUs/newsroom/consumer/boracay-businesses-learn-from-experts/215_Hero-Banner_-320x360_M.jpg",
      "imageDesktop": "/sites/globe.com.ph/files/content/dam/globe/brie/AboutUs/newsroom/consumer/boracay-businesses-learn-from-experts/215_Primary-Desktop-Thumbnail_860x400.jpg",
      "description": "Boracay businesses learn from the experts. Visit the Globe Newsroom for the latest news on Globe Telecom.",
      "datePosted": "Jan 26, 2018 | 04:20 PM",
      "titleFromTag": "Consumer"
    },
    {
      "title": "Why It’s Awesome to Have WiFi at Home",
      "nonclickable": false,
      "openNewTab": false,
      "borderArticle": "border-color:#0074D9;",
      "borderTopArticle": "border-top-color:#0074D9;",
      "imageListing": "/sites/globe.com.ph/files/content/dam/globe/brie/AboutUs/newsroom/common/Corporate_Globe_Listing.jpg",
      "articleUrl": "https://www.globe.com.ph/about-us/newsroom/consumer/why-its-awesome-to-have-wifi.html",
      "columnType": "articles--type-3",
      "typeListing": "article",
      "imageMobile": "/sites/globe.com.ph/files/content/dam/globe/brie/AboutUs/newsroom/common/Corporate_Globe_Hero-Banner-Mobile.jpg",
      "imageDesktop": "/sites/globe.com.ph/files/content/dam/globe/brie/AboutUs/newsroom/common/Corporate_Globe_Primary-Desktop-Thumbnail.jpg",
      "description": "Globe At Home Prepaid WiFi is your Most Affordable Option for Reliable Connectivity at Home. Visit the Globe Newsroom for the latest news on Globe Telecom.",
      "datePosted": "Jan 24, 2018 | 04:20 PM",
      "titleFromTag": "Consumer"
    },
    {
      "title": "Globe, Facebook Launch 'Digital Discernment' Module to Promote Responsible Digital Citizenship",
      "nonclickable": false,
      "openNewTab": false,
      "borderArticle": "border-color:#0074D9;",
      "borderTopArticle": "border-top-color:#0074D9;",
      "imageListing": "/sites/globe.com.ph/files/content/dam/globe/brie/AboutUs/newsroom/common/Corporate_Globe_Listing.jpg",
      "articleUrl": "https://www.globe.com.ph/about-us/newsroom/consumer/globe-facebook-launch-digital-discernment.html",
      "columnType": "articles--type-3",
      "typeListing": "article",
      "imageMobile": "/sites/globe.com.ph/files/content/dam/globe/brie/AboutUs/newsroom/common/Corporate_Globe_Hero-Banner-Mobile.jpg",
      "imageDesktop": "/sites/globe.com.ph/files/content/dam/globe/brie/AboutUs/newsroom/common/Corporate_Globe_Primary-Desktop-Thumbnail.jpg",
      "description": "Globe, Facebook launch “Digital Discernment” module to promote responsible digital citizenship. Visit the Globe Newsroom for the latest news on Globe Telecom.",
      "datePosted": "Jan 23, 2018 | 07:07 PM",
      "titleFromTag": "Consumer"
    },
    {
      "title": "Morgan Stanley Reinforces Positive Outlook on PH Telco Play, Globe Stock Earns Ratings Upgrade",
      "nonclickable": false,
      "openNewTab": false,
      "borderArticle": "border-color:#0074D9;",
      "borderTopArticle": "border-top-color:#0074D9;",
      "imageListing": "/sites/globe.com.ph/files/content/dam/globe/brie/AboutUs/newsroom/common/Corporate_Globe_Listing.jpg",
      "articleUrl": "https://www.globe.com.ph/about-us/newsroom/corporate/morgan-stanley-reinforces-positive-outlook.html",
      "columnType": "articles--type-3",
      "typeListing": "article",
      "imageMobile": "/sites/globe.com.ph/files/content/dam/globe/brie/AboutUs/newsroom/common/Corporate_Globe_Hero-Banner-Mobile.jpg",
      "imageDesktop": "/sites/globe.com.ph/files/content/dam/globe/brie/AboutUs/newsroom/common/Corporate_Globe_Primary-Desktop-Thumbnail.jpg",
      "description": "Morgan Stanley reinforce positive outlook on PH telco play, Globe stock earns ratings upgrade. Visit the Globe Newsroom for the latest news on Globe Telecom.",
      "datePosted": "Jan 22, 2018 | 08:15 PM",
      "titleFromTag": "Corporate"
    }
  ]
}
