{
  "status": 200,
  "page": 244,
  "totalPage": 298,
  "range": "2917-2928",
  "total": 3573,
  "result": [
    {
      "title": "Globe Seeks Private Sector Support to Build More Cell Sites",
      "nonclickable": false,
      "openNewTab": false,
      "borderArticle": "border-color:#0074D9;",
      "borderTopArticle": "border-top-color:#0074D9;",
      "imageListing": "/sites/globe.com.ph/files/content/dam/globe/brie/AboutUs/newsroom/corporate/corporate-globe-seeks/corporate-globe-seeks-thumbnail-listing.jpg",
      "articleUrl": "https://www.globe.com.ph/about-us/newsroom/corporate/globe-seeks-private-sector-support.html",
      "columnType": "articles--type-3",
      "typeListing": "article",
      "imageMobile": "/sites/globe.com.ph/files/content/dam/globe/brie/AboutUs/newsroom/corporate/corporate-globe-seeks/corporate-globe-seeks-banner-m.jpg",
      "imageDesktop": "/sites/globe.com.ph/files/content/dam/globe/brie/AboutUs/newsroom/corporate/corporate-globe-seeks/corporate-globe-seeks-primary-thumbnail.jpg",
      "description": "Globe seeks private sector support to build more cell sites. Visit the Globe Newsroom for the latest news on Globe Telecom.",
      "datePosted": "Jan 22, 2018 | 08:15 PM",
      "titleFromTag": "Corporate"
    },
    {
      "title": "Globe Telecom Named GoCanvas APAC Partner of the Year 2017",
      "nonclickable": false,
      "openNewTab": false,
      "borderArticle": "border-color:#1C91C5;",
      "borderTopArticle": "border-top-color:#1C91C5;",
      "imageListing": "/sites/globe.com.ph/files/content/dam/globe/brie/AboutUs/newsroom/business/business-globe-gocanvas-apac/partners-globe-gocanvas-apac-thumbnail-listing.jpg",
      "articleUrl": "https://www.globe.com.ph/about-us/newsroom/business/globe-named-gocanvas-apac-partner-of-the-year-2017.html",
      "columnType": "articles--type-3",
      "typeListing": "article",
      "imageMobile": "/sites/globe.com.ph/files/content/dam/globe/brie/AboutUs/newsroom/business/business-globe-gocanvas-apac/partners-globe-gocanvas-apac-banner-m.jpg",
      "imageDesktop": "/sites/globe.com.ph/files/content/dam/globe/brie/AboutUs/newsroom/business/business-globe-gocanvas-apac/partners-globe-gocanvas-apac-primary-thumbnail.jpg",
      "description": "Globe Telecom has been named GoCanvas APAC Partner of the Year 2017. Visit the Globe Newsroom for the latest news on Globe Telecom.",
      "datePosted": "Jan 19, 2018 | 04:38 PM",
      "titleFromTag": "Business"
    },
    {
      "title": "Globe Telecom, MET to Introduce Largest Multi-Title eSports League in PH",
      "nonclickable": false,
      "openNewTab": false,
      "borderArticle": "border-color:#0074D9;",
      "borderTopArticle": "border-top-color:#0074D9;",
      "imageListing": "/sites/globe.com.ph/files/content/dam/globe/brie/AboutUs/newsroom/common/Corporate_Globe_Listing.jpg",
      "articleUrl": "https://www.globe.com.ph/about-us/newsroom/consumer/globe-met-to-introduce-largest-multi-title-esports-league-philippines.html",
      "columnType": "articles--type-3",
      "typeListing": "article",
      "imageMobile": "/sites/globe.com.ph/files/content/dam/globe/brie/AboutUs/newsroom/common/Corporate_Globe_Hero-Banner-Mobile.jpg",
      "imageDesktop": "/sites/globe.com.ph/files/content/dam/globe/brie/AboutUs/newsroom/common/Corporate_Globe_Primary-Desktop-Thumbnail.jpg",
      "description": "Globe Telecom and MET to introduce largest multi-title eSports league In the Philippines. Visit the Globe Newsroom for the latest news on Globe Telecom.",
      "datePosted": "Jan 19, 2018 | 04:19 PM",
      "titleFromTag": "Consumer"
    },
    {
      "title": "Experience a Different, Digital Sinulog with Globe",
      "nonclickable": false,
      "openNewTab": false,
      "borderArticle": "border-color:#0074D9;",
      "borderTopArticle": "border-top-color:#0074D9;",
      "imageListing": "/sites/globe.com.ph/files/content/dam/globe/brie/AboutUs/newsroom/consumer/consumer-digital-sinulog/consumer-digital-sinulog-thumbnail-listing.jpg",
      "articleUrl": "https://www.globe.com.ph/about-us/newsroom/consumer/experience-a-different-digital-sinulog.html",
      "columnType": "articles--type-3",
      "typeListing": "article",
      "imageMobile": "/sites/globe.com.ph/files/content/dam/globe/brie/AboutUs/newsroom/consumer/consumer-digital-sinulog/consumer-digital-sinulog-banner-m.jpg",
      "imageDesktop": "/sites/globe.com.ph/files/content/dam/globe/brie/AboutUs/newsroom/consumer/consumer-digital-sinulog/consumer-digital-sinulog-primary-thumbnail.jpg",
      "description": "Experience a different, digital Sinulog with Globe. Visit the Globe Newsroom for the latest news on Globe Telecom.",
      "datePosted": "Jan 19, 2018 | 04:19 PM",
      "titleFromTag": "Consumer"
    },
    {
      "title": "Globe Telecom Looks at Global Best Practices in Fight vs. Illegal Sites, Child Pornography",
      "nonclickable": false,
      "openNewTab": false,
      "borderArticle": "border-color:#0074D9;",
      "borderTopArticle": "border-top-color:#0074D9;",
      "imageListing": "/sites/globe.com.ph/files/content/dam/globe/brie/AboutUs/newsroom/common/Corporate_Globe_Listing.jpg",
      "articleUrl": "https://www.globe.com.ph/about-us/newsroom/corporate/globe-looks-at-global-best-practices.html",
      "columnType": "articles--type-3",
      "typeListing": "article",
      "imageMobile": "/sites/globe.com.ph/files/content/dam/globe/brie/AboutUs/newsroom/common/Corporate_Globe_Hero-Banner-Mobile.jpg",
      "imageDesktop": "/sites/globe.com.ph/files/content/dam/globe/brie/AboutUs/newsroom/common/Corporate_Globe_Primary-Desktop-Thumbnail.jpg",
      "description": "Globe Telecom looks at global best practices in fight vs. illegal sites and child pornography. Visit the Globe Newsroom for the latest news on Globe Telecom.",
      "datePosted": "Jan 18, 2018 | 08:15 PM",
      "titleFromTag": "Corporate"
    },
    {
      "title": "GCash to Raffle Off 10 iPhone X for SM Store Shoppers",
      "nonclickable": false,
      "openNewTab": false,
      "borderArticle": "border-color:#0074D9;",
      "borderTopArticle": "border-top-color:#0074D9;",
      "imageListing": "/sites/globe.com.ph/files/content/dam/globe/brie/AboutUs/newsroom/common/Corporate_Globe_Listing.jpg",
      "articleUrl": "https://www.globe.com.ph/about-us/newsroom/consumer/gcash-to-raffle-off-10-iphone-x.html",
      "columnType": "articles--type-3",
      "typeListing": "article",
      "imageMobile": "/sites/globe.com.ph/files/content/dam/globe/brie/AboutUs/newsroom/common/Corporate_Globe_Hero-Banner-Mobile.jpg",
      "imageDesktop": "/sites/globe.com.ph/files/content/dam/globe/brie/AboutUs/newsroom/common/Corporate_Globe_Primary-Desktop-Thumbnail.jpg",
      "description": "GCash to raffle off 10 iPhone X for The SM Store shoppers. Visit the Globe Newsroom for the latest news on Globe Telecom.",
      "datePosted": "Jan 17, 2018 | 04:18 PM",
      "titleFromTag": "Consumer"
    },
    {
      "title": "Globe Wins TM Forum Catalyst Award for Innovation, Pushes for API Standardization",
      "nonclickable": false,
      "openNewTab": false,
      "borderArticle": "border-color:#0074D9;",
      "borderTopArticle": "border-top-color:#0074D9;",
      "imageListing": "/sites/globe.com.ph/files/content/dam/globe/brie/AboutUs/newsroom/corporate/corporate-globe-wins/corporate-globe-wins-thumbnail-listing.jpg",
      "articleUrl": "https://www.globe.com.ph/about-us/newsroom/corporate/globe-wins-tm-forum-catalyst-award.html",
      "columnType": "articles--type-3",
      "typeListing": "article",
      "imageMobile": "/sites/globe.com.ph/files/content/dam/globe/brie/AboutUs/newsroom/corporate/corporate-globe-wins/corporate-globe-wins-banner-m.jpg",
      "imageDesktop": "/sites/globe.com.ph/files/content/dam/globe/brie/AboutUs/newsroom/corporate/corporate-globe-wins/corporate-globe-wins-primary-thumbnail.jpg",
      "description": "Globe wins TM Forum Catalyst Award for Innovation, pushes for API standardization. Visit the Globe Newsroom for the latest news on Globe Telecom.",
      "datePosted": "Jan 16, 2018 | 08:14 PM",
      "titleFromTag": "Corporate"
    },
    {
      "title": "Globe myBusiness Helps SMEs Become Future-Proof",
      "nonclickable": false,
      "openNewTab": false,
      "borderArticle": "border-color:#1C91C5;",
      "borderTopArticle": "border-top-color:#1C91C5;",
      "imageListing": "/sites/globe.com.ph/files/content/dam/globe/brie/AboutUs/newsroom/business/consumer-globe-mybusiness/consumer-globe-mybusiness-thumbnail-listing.jpg",
      "articleUrl": "https://www.globe.com.ph/about-us/newsroom/business/globe-mybusiness-helps-smes.html",
      "columnType": "articles--type-3",
      "typeListing": "article",
      "imageMobile": "/sites/globe.com.ph/files/content/dam/globe/brie/AboutUs/newsroom/business/consumer-globe-mybusiness/consumer-globe-mybusiness-banner-m.jpg",
      "imageDesktop": "/sites/globe.com.ph/files/content/dam/globe/brie/AboutUs/newsroom/business/consumer-globe-mybusiness/consumer-globe-mybusiness-primary-thumbnail.jpg",
      "description": "Globe myBusiness helps SMEs in Boracay become future-proof through digital technology in the Digital Tools to Future-Proof Your Business workshop.",
      "datePosted": "Jan 16, 2018 | 04:37 PM",
      "titleFromTag": "Business"
    },
    {
      "title": "Bench, 39 Retail Brands to Accept GCash Scan to Pay in January",
      "nonclickable": false,
      "openNewTab": false,
      "borderArticle": "border-color:#0074D9;",
      "borderTopArticle": "border-top-color:#0074D9;",
      "imageListing": "/sites/globe.com.ph/files/content/dam/globe/brie/AboutUs/newsroom/consumer/consumer-bench-gcash/consumer-bench-gcash-thumbnail-listing.jpg",
      "articleUrl": "https://www.globe.com.ph/about-us/newsroom/consumer/bench-39-retail-brands-to-accept-gcash-scan-to-pay.html",
      "columnType": "articles--type-3",
      "typeListing": "article",
      "imageMobile": "/sites/globe.com.ph/files/content/dam/globe/brie/AboutUs/newsroom/consumer/consumer-bench-gcash/consumer-bench-gcash-banner-m.jpg",
      "imageDesktop": "/sites/globe.com.ph/files/content/dam/globe/brie/AboutUs/newsroom/consumer/consumer-bench-gcash/consumer-bench-gcash-primary-thumbnail.jpg",
      "description": "Bench and 39 retail brands to accept GC Scan to Pay in January. Visit the Globe Newsroom for the latest news on Globe Telecom.",
      "datePosted": "Jan 11, 2018 | 04:18 PM",
      "titleFromTag": "Consumer"
    },
    {
      "title": "Globe, DQ Institute, DepEd Collaborate to Nurture Digital Intelligence in Public Schools",
      "nonclickable": false,
      "openNewTab": false,
      "borderArticle": "border-color:#0074D9;",
      "borderTopArticle": "border-top-color:#0074D9;",
      "imageListing": "/sites/globe.com.ph/files/content/dam/globe/brie/AboutUs/newsroom/common/Corporate_Globe_Listing.jpg",
      "articleUrl": "https://www.globe.com.ph/about-us/newsroom/consumer/globe-dq-institute-deped-collaborate-to-nurture-digital-intelligence.html",
      "columnType": "articles--type-3",
      "typeListing": "article",
      "imageMobile": "/sites/globe.com.ph/files/content/dam/globe/brie/AboutUs/newsroom/common/Corporate_Globe_Hero-Banner-Mobile.jpg",
      "imageDesktop": "/sites/globe.com.ph/files/content/dam/globe/brie/AboutUs/newsroom/common/Corporate_Globe_Primary-Desktop-Thumbnail.jpg",
      "description": "Globe, DQ Institute, DepEd collaborate to nurture digital intelligence in public schools. Visit the Globe Newsroom for the latest news on Globe Telecom.",
      "datePosted": "Jan 10, 2018 | 04:18 PM",
      "titleFromTag": "Consumer"
    },
    {
      "title": "Globe Blocks Nearly 2,500 Illegal Sites with #PlayItRight",
      "nonclickable": false,
      "openNewTab": false,
      "borderArticle": "border-color:#0074D9;",
      "borderTopArticle": "border-top-color:#0074D9;",
      "imageListing": "/sites/globe.com.ph/files/content/dam/globe/brie/AboutUs/newsroom/common/Corporate_Globe_Listing.jpg",
      "articleUrl": "https://www.globe.com.ph/about-us/newsroom/consumer/globe-blocks-nearly-2500-illegal-sites.html",
      "columnType": "articles--type-3",
      "typeListing": "article",
      "imageMobile": "/sites/globe.com.ph/files/content/dam/globe/brie/AboutUs/newsroom/common/Corporate_Globe_Hero-Banner-Mobile.jpg",
      "imageDesktop": "/sites/globe.com.ph/files/content/dam/globe/brie/AboutUs/newsroom/common/Corporate_Globe_Primary-Desktop-Thumbnail.jpg",
      "description": "Globe Blocks Nearly 2,500 Illegal Sites with #PlayItRight. Visit the Globe Newsroom for the latest news on Globe Telecom.",
      "datePosted": "Jan 10, 2018 | 04:17 PM",
      "titleFromTag": "Consumer"
    },
    {
      "title": "Globe Mobile Services Suspended in Quiapo for Black Nazarene Procession",
      "nonclickable": false,
      "openNewTab": false,
      "borderArticle": "border-color:#0074D9;",
      "borderTopArticle": "border-top-color:#0074D9;",
      "imageListing": "/sites/globe.com.ph/files/content/dam/globe/brie/AboutUs/newsroom/common/Corporate_Globe_Listing.jpg",
      "articleUrl": "https://www.globe.com.ph/about-us/newsroom/corporate/globe-mobile-services-suspended-in-quiapo.html",
      "columnType": "articles--type-3",
      "typeListing": "article",
      "imageMobile": "/sites/globe.com.ph/files/content/dam/globe/brie/AboutUs/newsroom/common/Corporate_Globe_Hero-Banner-Mobile.jpg",
      "imageDesktop": "/sites/globe.com.ph/files/content/dam/globe/brie/AboutUs/newsroom/common/Corporate_Globe_Primary-Desktop-Thumbnail.jpg",
      "description": "Globe mobile services suspended in Quiapo on January 9 for Black Nazarene procession. Visit the Globe Newsroom for the latest news on Globe Telecom.",
      "datePosted": "Jan 08, 2018 | 08:14 PM",
      "titleFromTag": "Corporate"
    }
  ]
}
