{
  "status": 200,
  "page": 245,
  "totalPage": 298,
  "range": "2929-2940",
  "total": 3573,
  "result": [
    {
      "title": "Globe Board Approves Capex Budget of $850-M for 2018",
      "nonclickable": false,
      "openNewTab": false,
      "borderArticle": "border-color:#0074D9;",
      "borderTopArticle": "border-top-color:#0074D9;",
      "imageListing": "/sites/globe.com.ph/files/content/dam/globe/brie/AboutUs/newsroom/common/Corporate_Globe_Listing.jpg",
      "articleUrl": "https://www.globe.com.ph/about-us/newsroom/corporate/globe-board-approves-capex-budget-2018.html",
      "columnType": "articles--type-3",
      "typeListing": "article",
      "imageMobile": "/sites/globe.com.ph/files/content/dam/globe/brie/AboutUs/newsroom/common/Corporate_Globe_Hero-Banner-Mobile.jpg",
      "imageDesktop": "/sites/globe.com.ph/files/content/dam/globe/brie/AboutUs/newsroom/common/Corporate_Globe_Primary-Desktop-Thumbnail.jpg",
      "description": "Globe Board approves capex budget of US$850 Million for 2018. Visit the Globe Newsroom for the latest news on Globe Telecom.",
      "datePosted": "Jan 08, 2018 | 08:14 PM",
      "titleFromTag": "Corporate"
    },
    {
      "title": "Easily Manage your Broadband Plan with the New Globe At Home App",
      "nonclickable": false,
      "openNewTab": false,
      "borderArticle": "border-color:#0074D9;",
      "borderTopArticle": "border-top-color:#0074D9;",
      "imageListing": "/sites/globe.com.ph/files/content/dam/globe/brie/AboutUs/newsroom/common/Corporate_Globe_Listing.jpg",
      "articleUrl": "https://www.globe.com.ph/about-us/newsroom/consumer/easily-manage-your-broadband-plan.html",
      "columnType": "articles--type-3",
      "typeListing": "article",
      "imageMobile": "/sites/globe.com.ph/files/content/dam/globe/brie/AboutUs/newsroom/common/Corporate_Globe_Hero-Banner-Mobile.jpg",
      "imageDesktop": "/sites/globe.com.ph/files/content/dam/globe/brie/AboutUs/newsroom/common/Corporate_Globe_Primary-Desktop-Thumbnail.jpg",
      "description": "Easily Manage your Broadband Plan with the new Globe At Home app. Visit the Globe Newsroom for the latest news on Globe Telecom.",
      "datePosted": "Jan 08, 2018 | 05:31 PM",
      "titleFromTag": "Consumer"
    },
    {
      "title": "Robinsons Retail Expands Acceptance of GCash QR Payments",
      "nonclickable": false,
      "openNewTab": false,
      "borderArticle": "border-color:#0074D9;",
      "borderTopArticle": "border-top-color:#0074D9;",
      "imageListing": "/sites/globe.com.ph/files/content/dam/globe/brie/AboutUs/newsroom/consumer/consumer-robinsons-retail-gcash/consumer-robinsons-retail-gcash-thumbnail-listing.jpg",
      "articleUrl": "https://www.globe.com.ph/about-us/newsroom/consumer/robinsons-retail-expands-acceptance-of-gcash.html",
      "columnType": "articles--type-3",
      "typeListing": "article",
      "imageMobile": "/sites/globe.com.ph/files/content/dam/globe/brie/AboutUs/newsroom/consumer/consumer-robinsons-retail-gcash/consumer-robinsons-retail-gcash-banner-m.jpg",
      "imageDesktop": "/sites/globe.com.ph/files/content/dam/globe/brie/AboutUs/newsroom/consumer/consumer-robinsons-retail-gcash/consumer-robinsons-retail-gcash-primary-thumbnail.jpg",
      "description": "Retail expands acceptance of GCash QR payments. Visit the Globe Newsroom for the latest news on Globe Telecom.",
      "datePosted": "Jan 06, 2018 | 04:17 PM",
      "titleFromTag": "Consumer"
    },
    {
      "title": "OFFICIAL STATEMENT ON THE ONE YEAR EXPIRY OF PREPAID LOAD",
      "nonclickable": false,
      "openNewTab": false,
      "borderArticle": "border-color:#0074D9;",
      "borderTopArticle": "border-top-color:#0074D9;",
      "imageListing": "/sites/globe.com.ph/files/content/dam/globe/brie/AboutUs/newsroom/common/Corporate_Globe_Listing.jpg",
      "articleUrl": "https://www.globe.com.ph/about-us/newsroom/corporate/official-statement-one-year-expiry-prepaid-load.html",
      "columnType": "articles--type-3",
      "typeListing": "article",
      "imageMobile": "/sites/globe.com.ph/files/content/dam/globe/brie/AboutUs/newsroom/common/Corporate_Globe_Hero-Banner-Mobile.jpg",
      "imageDesktop": "/sites/globe.com.ph/files/content/dam/globe/brie/AboutUs/newsroom/common/Corporate_Globe_Primary-Desktop-Thumbnail.jpg",
      "description": "Globe releases official statement on the one-year expiry of prepaid load. Visit the Globe Newsroom for the latest news on Globe Telecom.",
      "datePosted": "Jan 05, 2018 | 08:13 PM",
      "titleFromTag": "Corporate"
    },
    {
      "title": "3 Easy Tips to Maximize your Internet Connection",
      "nonclickable": false,
      "openNewTab": false,
      "borderArticle": "border-color:#0074D9;",
      "borderTopArticle": "border-top-color:#0074D9;",
      "imageListing": "/sites/globe.com.ph/files/content/dam/globe/brie/AboutUs/newsroom/common/Corporate_Globe_Listing.jpg",
      "articleUrl": "https://www.globe.com.ph/about-us/newsroom/consumer/3-easy-tips-to-maximize-your-internet-connection.html",
      "columnType": "articles--type-3",
      "typeListing": "article",
      "imageMobile": "/sites/globe.com.ph/files/content/dam/globe/brie/AboutUs/newsroom/common/Corporate_Globe_Hero-Banner-Mobile.jpg",
      "imageDesktop": "/sites/globe.com.ph/files/content/dam/globe/brie/AboutUs/newsroom/common/Corporate_Globe_Primary-Desktop-Thumbnail.jpg",
      "description": "How to make your Globe internet faster? Here are three easy tips to maximize your internet connection. Visit Globe Newsroom for more.",
      "datePosted": "Jan 04, 2018 | 04:17 PM",
      "titleFromTag": "Consumer"
    },
    {
      "title": "The Spark Project: Creating Spark in Crowdfunding",
      "nonclickable": false,
      "openNewTab": false,
      "borderArticle": "border-color:#0074D9;",
      "borderTopArticle": "border-top-color:#0074D9;",
      "imageListing": "/sites/globe.com.ph/files/content/dam/globe/brie/AboutUs/newsroom/consumer/consumer-spark-project/consumer-spark-project-thumbnail-listing.jpg",
      "articleUrl": "https://www.globe.com.ph/about-us/newsroom/sustainability/the-spark-project.html",
      "columnType": "articles--type-3",
      "typeListing": "article",
      "imageMobile": "/sites/globe.com.ph/files/content/dam/globe/brie/AboutUs/newsroom/consumer/consumer-spark-project/consumer-spark-project-banner-m.jpg",
      "imageDesktop": "/sites/globe.com.ph/files/content/dam/globe/brie/AboutUs/newsroom/consumer/consumer-spark-project/consumer-spark-project-primary-thumbnail.jpg",
      "description": "The Spark Project: Creating spark in crowdfunding. Visit the Globe Newsroom for the latest news on Globe Telecom.",
      "datePosted": "Jan 02, 2018 | 04:52 PM",
      "titleFromTag": "Sustainability"
    },
    {
      "title": "The Spark Project: Creating Spark in Crowdfunding",
      "nonclickable": false,
      "openNewTab": false,
      "borderArticle": "border-color:#0074D9;",
      "borderTopArticle": "border-top-color:#0074D9;",
      "imageListing": "/sites/globe.com.ph/files/content/dam/globe/brie/AboutUs/newsroom/consumer/consumer-spark-project/consumer-spark-project-thumbnail-listing.jpg",
      "articleUrl": "https://www.globe.com.ph/about-us/newsroom/consumer/the-spark-project.html",
      "columnType": "articles--type-3",
      "typeListing": "article",
      "imageMobile": "/sites/globe.com.ph/files/content/dam/globe/brie/AboutUs/newsroom/consumer/consumer-spark-project/consumer-spark-project-banner-m.jpg",
      "imageDesktop": "/sites/globe.com.ph/files/content/dam/globe/brie/AboutUs/newsroom/consumer/consumer-spark-project/consumer-spark-project-primary-thumbnail.jpg",
      "description": "The Spark Project: Creating spark in crowdfunding. Visit the Globe Newsroom for the latest news on Globe Telecom.",
      "datePosted": "Jan 02, 2018 | 04:16 PM",
      "titleFromTag": "Consumer"
    },
    {
      "title": "MilkTrack: Solving the Problem of Breast Milk Scarcity, One Area at a Time",
      "nonclickable": false,
      "openNewTab": false,
      "borderArticle": "border-color:#0074D9;",
      "borderTopArticle": "border-top-color:#0074D9;",
      "imageListing": "/sites/globe.com.ph/files/content/dam/globe/brie/AboutUs/newsroom/citizenship/citizenship-milktrack-solving/citizenship-milktrack-solving-thumbnail-listing.jpg",
      "articleUrl": "https://www.globe.com.ph/about-us/newsroom/citizenship/milktrack-solving-the-problem-of-breast-milk-scarcity.html",
      "columnType": "articles--type-3",
      "typeListing": "article",
      "imageMobile": "/sites/globe.com.ph/files/content/dam/globe/brie/AboutUs/newsroom/citizenship/citizenship-milktrack-solving/citizenship-milktrack-solving-banner-m.jpg",
      "imageDesktop": "/sites/globe.com.ph/files/content/dam/globe/brie/AboutUs/newsroom/citizenship/citizenship-milktrack-solving/citizenship-milktrack-solving-primary-thumbnail.jpg",
      "description": "MilkTrack, a mobile app that addresses logistic and information access for sourcing breast milk, was one of Globe Future Makers Program’s top five winners.",
      "datePosted": "Dec 29, 2017 | 04:47 PM",
      "titleFromTag": "Citizenship"
    },
    {
      "title": "GCash Scan to Pay Rolls Out in Transport Industry",
      "nonclickable": false,
      "openNewTab": false,
      "borderArticle": "border-color:#0074D9;",
      "borderTopArticle": "border-top-color:#0074D9;",
      "imageListing": "/sites/globe.com.ph/files/content/dam/globe/brie/AboutUs/newsroom/consumer/consumer-gcash-transport/consumer-gcash-transport-thumbnail-listing.jpg",
      "articleUrl": "https://www.globe.com.ph/about-us/newsroom/consumer/gcash-scan-to-pay-rolls-out-transport-industry.html",
      "columnType": "articles--type-3",
      "typeListing": "article",
      "imageMobile": "/sites/globe.com.ph/files/content/dam/globe/brie/AboutUs/newsroom/consumer/consumer-gcash-transport/consumer-gcash-transport-banner-m.jpg",
      "imageDesktop": "/sites/globe.com.ph/files/content/dam/globe/brie/AboutUs/newsroom/consumer/consumer-gcash-transport/consumer-gcash-transport-primary-thumbnail.jpg",
      "description": "GCash scan to pay rolls out in transport industry. Visit the Globe Newsroom for the latest news on Globe Telecom.",
      "datePosted": "Dec 29, 2017 | 04:15 PM",
      "titleFromTag": "Consumer"
    },
    {
      "title": "Virtualahan: Breaking Down Employment Barriers for PWDs",
      "nonclickable": false,
      "openNewTab": false,
      "borderArticle": "border-color:#0074D9;",
      "borderTopArticle": "border-top-color:#0074D9;",
      "imageListing": "/sites/globe.com.ph/files/content/dam/globe/brie/AboutUs/newsroom/common/Corporate_Globe_Listing.jpg",
      "articleUrl": "https://www.globe.com.ph/about-us/newsroom/sustainability/virtualahan-breaking-down-employment-barriers-pwd.html",
      "columnType": "articles--type-3",
      "typeListing": "article",
      "imageMobile": "/sites/globe.com.ph/files/content/dam/globe/brie/AboutUs/newsroom/common/Corporate_Globe_Hero-Banner-Mobile.jpg",
      "imageDesktop": "/sites/globe.com.ph/files/content/dam/globe/brie/AboutUs/newsroom/common/Corporate_Globe_Primary-Desktop-Thumbnail.jpg",
      "description": "Virtualahan: Breaking down employment barriers for PWDs. Visit the Globe Newsroom for the latest news on Globe Telecom.",
      "datePosted": "Dec 27, 2017 | 05:29 PM",
      "titleFromTag": "Community"
    },
    {
      "title": "Virtualahan: Breaking Down Employment Barriers for PWDs",
      "nonclickable": false,
      "openNewTab": false,
      "borderArticle": "border-color:#0074D9;",
      "borderTopArticle": "border-top-color:#0074D9;",
      "imageListing": "/sites/globe.com.ph/files/content/dam/globe/brie/AboutUs/newsroom/consumer/consumer-virtualahan-pwd/consumer-virtualahan-pwd-thumbnail-listing.jpg",
      "articleUrl": "https://www.globe.com.ph/about-us/newsroom/consumer/virtualahan-breaking-down-employment.html",
      "columnType": "articles--type-3",
      "typeListing": "article",
      "imageMobile": "/sites/globe.com.ph/files/content/dam/globe/brie/AboutUs/newsroom/consumer/consumer-virtualahan-pwd/consumer-virtualahan-pwd-banner-m.jpg",
      "imageDesktop": "/sites/globe.com.ph/files/content/dam/globe/brie/AboutUs/newsroom/consumer/consumer-virtualahan-pwd/consumer-virtualahan-pwd-primary-thumbnail.jpg",
      "description": "Virtualahan: Breaking down employment barriers for PWDs. Visit the Globe Newsroom for the latest news on Globe Telecom.",
      "datePosted": "Dec 27, 2017 | 04:16 PM",
      "titleFromTag": "Consumer"
    },
    {
      "title": "iVolunteer: Making a Sustainable Impact in Volunteerism",
      "nonclickable": false,
      "openNewTab": false,
      "borderArticle": "border-color:#0074D9;",
      "borderTopArticle": "border-top-color:#0074D9;",
      "imageListing": "/sites/globe.com.ph/files/content/dam/globe/brie/AboutUs/newsroom/consumer/consumer-ivolunteer-volunteerism/consumer-ivolunteer-volunteerism-thumbnail-listing.jpg",
      "articleUrl": "https://www.globe.com.ph/about-us/newsroom/sustainability/ivolunteer-making-a-sustainable-impact.html",
      "columnType": "articles--type-3",
      "typeListing": "article",
      "imageMobile": "/sites/globe.com.ph/files/content/dam/globe/brie/AboutUs/newsroom/consumer/consumer-ivolunteer-volunteerism/consumer-ivolunteer-volunteerism-banner-m.jpg",
      "imageDesktop": "/sites/globe.com.ph/files/content/dam/globe/brie/AboutUs/newsroom/consumer/consumer-ivolunteer-volunteerism/consumer-ivolunteer-volunteerism-primary-thumbnail.jpg",
      "description": "iVolunteer: Making a sustainable impact in volunteerism. Visit the Globe Newsroom for the latest news on Globe Telecom.",
      "datePosted": "Dec 26, 2017 | 04:52 PM",
      "titleFromTag": "Digital Nation"
    }
  ]
}
