{
  "status": 200,
  "page": 246,
  "totalPage": 298,
  "range": "2941-2952",
  "total": 3573,
  "result": [
    {
      "title": "Globe Expands Global Filipino Schools Program to 15 Regions Nationwide",
      "nonclickable": false,
      "openNewTab": false,
      "borderArticle": "border-color:#0074D9;",
      "borderTopArticle": "border-top-color:#0074D9;",
      "imageListing": "/sites/globe.com.ph/files/content/dam/globe/brie/AboutUs/newsroom/sustainability/citizenship-globe-expands-school/citizenship-globe-expands-school-thumbnail-listing.jpg",
      "articleUrl": "https://www.globe.com.ph/about-us/newsroom/citizenship/globe-expands-global-filipino-schools.html",
      "columnType": "articles--type-3",
      "typeListing": "article",
      "imageMobile": "/sites/globe.com.ph/files/content/dam/globe/brie/AboutUs/newsroom/sustainability/citizenship-globe-expands-school/citizenship-globe-expands-school-banner-m.jpg",
      "imageDesktop": "/sites/globe.com.ph/files/content/dam/globe/brie/AboutUs/newsroom/sustainability/citizenship-globe-expands-school/citizenship-globe-expands-school-primary-thumbnail.jpg",
      "description": "Around 60 schools were added to a 21st-century learning program to be introduced and implemented in public schools, covering 15 out of 17 Philippine regions.",
      "datePosted": "Dec 26, 2017 | 04:48 PM",
      "titleFromTag": "Citizenship"
    },
    {
      "title": "iVolunteer: Making a Sustainable Impact in Volunteerism",
      "nonclickable": false,
      "openNewTab": false,
      "borderArticle": "border-color:#0074D9;",
      "borderTopArticle": "border-top-color:#0074D9;",
      "imageListing": "/sites/globe.com.ph/files/content/dam/globe/brie/AboutUs/newsroom/consumer/consumer-ivolunteer-volunteerism/consumer-ivolunteer-volunteerism-thumbnail-listing.jpg",
      "articleUrl": "https://www.globe.com.ph/about-us/newsroom/consumer/ivolunteer-making-a-sustainable-impact.html",
      "columnType": "articles--type-3",
      "typeListing": "article",
      "imageMobile": "/sites/globe.com.ph/files/content/dam/globe/brie/AboutUs/newsroom/consumer/consumer-ivolunteer-volunteerism/consumer-ivolunteer-volunteerism-banner-m.jpg/sites/globe.com.ph/files/content/dam/globe/brie/AboutUs/newsroom/consumer/consumer-ivolunteer-volunteerism/consumer-ivolunteer-volunteerism-banner-m.jpg",
      "imageDesktop": "/sites/globe.com.ph/files/content/dam/globe/brie/AboutUs/newsroom/consumer/consumer-ivolunteer-volunteerism/consumer-ivolunteer-volunteerism-primary-thumbnail.jpg",
      "description": "iVolunteer: Making a sustainable impact in volunteerism. Visit the Globe Newsroom for the latest news on Globe Telecom.",
      "datePosted": "Dec 26, 2017 | 04:14 PM",
      "titleFromTag": "Consumer"
    },
    {
      "title": "Christmas Comes Early for Returning Kababayans, Tourists",
      "nonclickable": false,
      "openNewTab": false,
      "borderArticle": "border-color:#0074D9;",
      "borderTopArticle": "border-top-color:#0074D9;",
      "imageListing": "/sites/globe.com.ph/files/content/dam/globe/brie/AboutUs/newsroom/consumer/consumer-christmas-kababayan/consumer-christmas-kababayan-thumbnail-listing.jpg",
      "articleUrl": "https://www.globe.com.ph/about-us/newsroom/consumer/christmas-comes-early-for-returning-kababayans-tourists.html",
      "columnType": "articles--type-3",
      "typeListing": "article",
      "imageMobile": "/sites/globe.com.ph/files/content/dam/globe/brie/AboutUs/newsroom/consumer/consumer-christmas-kababayan/consumer-christmas-kababayan-banner-m.jpg",
      "imageDesktop": "/sites/globe.com.ph/files/content/dam/globe/brie/AboutUs/newsroom/consumer/consumer-christmas-kababayan/consumer-christmas-kababayan-primary-thumbnail.jpg",
      "description": "Christmas comes early for returning kababayans, tourists. Visit the Globe Newsroom for the latest news on Globe Telecom.",
      "datePosted": "Dec 25, 2017 | 04:15 PM",
      "titleFromTag": "Consumer"
    },
    {
      "title": "Bicol Isarog, Globe Business Team Up to Give Holiday Travelers a Wonderful Christmas Surprise",
      "nonclickable": false,
      "openNewTab": false,
      "borderArticle": "border-color:#0074D9;",
      "borderTopArticle": "border-top-color:#0074D9;",
      "imageListing": "/sites/globe.com.ph/files/content/dam/globe/brie/AboutUs/newsroom/consumer/consumer-bicol-isarog/consumer-bicol-isarog-thumbnail-listing.jpg",
      "articleUrl": "https://www.globe.com.ph/about-us/newsroom/consumer/bicol-isarog-globe-mybusiness-team.html",
      "columnType": "articles--type-3",
      "typeListing": "article",
      "imageMobile": "/sites/globe.com.ph/files/content/dam/globe/brie/AboutUs/newsroom/consumer/consumer-bicol-isarog/consumer-bicol-isarog-banner-m.jpg",
      "imageDesktop": "/sites/globe.com.ph/files/content/dam/globe/brie/AboutUs/newsroom/consumer/consumer-bicol-isarog/consumer-bicol-isarog-primary-thumbnail.jpg",
      "description": "Bicol Isarog, Globe Business team up to give holiday travelers a wonderful Christmas surprise. Visit the Globe Newsroom for the latest news on Globe Telecom.",
      "datePosted": "Dec 23, 2017 | 04:15 PM",
      "titleFromTag": "Consumer"
    },
    {
      "title": "Globe Taps Partners to Give Surprise Noche Buena Packs, Transport Discounts to Returning OFWs, Tourists",
      "nonclickable": false,
      "openNewTab": false,
      "borderArticle": "border-color:#0074D9;",
      "borderTopArticle": "border-top-color:#0074D9;",
      "imageListing": "/sites/globe.com.ph/files/content/dam/globe/brie/AboutUs/newsroom/corporate/corporate-globe-taps/Corporate_Globe-Taps_Thumbnail-Listing.jpg",
      "articleUrl": "https://www.globe.com.ph/about-us/newsroom/corporate/globe-taps-partners-to-give-surprise-noche-buena.html",
      "columnType": "articles--type-3",
      "typeListing": "article",
      "imageMobile": "/sites/globe.com.ph/files/content/dam/globe/brie/AboutUs/newsroom/corporate/corporate-globe-taps/Corporate_Globe-Taps_Banner-M.jpg",
      "imageDesktop": "/sites/globe.com.ph/files/content/dam/globe/brie/AboutUs/newsroom/corporate/corporate-globe-taps/Corporate_Globe-Taps_Primary-Thumbnail.jpg",
      "description": "Globe taps partners to give surprise Noche Buena packs and transport discounts to returning OFWs, tourists. Visit the Globe Newsroom for the latest news",
      "datePosted": "Dec 22, 2017 | 08:00 PM",
      "titleFromTag": "Corporate"
    },
    {
      "title": "GCash Continues to Give Gifts this Christmas with 50% Rebate on GoSURF50",
      "nonclickable": false,
      "openNewTab": false,
      "borderArticle": "border-color:#0074D9;",
      "borderTopArticle": "border-top-color:#0074D9;",
      "imageListing": "/sites/globe.com.ph/files/content/dam/globe/brie/AboutUs/newsroom/common/Corporate_Globe_Listing.jpg",
      "articleUrl": "https://www.globe.com.ph/about-us/newsroom/consumer/gcash-continues-to-give-gifts.html",
      "columnType": "articles--type-3",
      "typeListing": "article",
      "imageMobile": "/sites/globe.com.ph/files/content/dam/globe/brie/AboutUs/newsroom/common/Corporate_Globe_Hero-Banner-Mobile.jpg",
      "imageDesktop": "/sites/globe.com.ph/files/content/dam/globe/brie/AboutUs/newsroom/common/Corporate_Globe_Primary-Desktop-Thumbnail.jpg",
      "description": "GCash continues to give gifts this Christmas with 50% rebate on GoSURF50. Visit the Globe Newsroom for the latest news on Globe Telecom.",
      "datePosted": "Dec 22, 2017 | 04:14 PM",
      "titleFromTag": "Consumer"
    },
    {
      "title": "Globe #PlayItRight Campaign Goes to the MMFF Via All Of You",
      "nonclickable": false,
      "openNewTab": false,
      "borderArticle": "border-color:#0074D9;",
      "borderTopArticle": "border-top-color:#0074D9;",
      "imageListing": "/sites/globe.com.ph/files/content/dam/globe/brie/AboutUs/newsroom/consumer/globe-playitright-campaign/193_Thumbnail_Listing_288x170.jpg",
      "articleUrl": "https://www.globe.com.ph/about-us/newsroom/consumer/globe-playitright-campaign.html",
      "columnType": "articles--type-3",
      "typeListing": "article",
      "imageMobile": "/sites/globe.com.ph/files/content/dam/globe/brie/AboutUs/newsroom/consumer/globe-playitright-campaign/193_Hero Banner_ 320x360_M.jpg",
      "imageDesktop": "/sites/globe.com.ph/files/content/dam/globe/brie/AboutUs/newsroom/consumer/globe-playitright-campaign/193_Primary Desktop Thumbnail_860x400.jpg",
      "description": "Globe #PlayItRight campaign goes to the MMFF via All Of You. Visit the Globe Newsroom for the latest news on Globe Telecom.",
      "datePosted": "Dec 22, 2017 | 04:14 PM",
      "titleFromTag": "Consumer"
    },
    {
      "title": "6 Perfect Gifts for the Holiday Season",
      "nonclickable": false,
      "openNewTab": false,
      "borderArticle": "border-color:#0074D9;",
      "borderTopArticle": "border-top-color:#0074D9;",
      "imageListing": "/sites/globe.com.ph/files/content/dam/globe/brie/AboutUs/newsroom/consumer/consumer-6-perfect-gifts/192_Thumbnail_Listing_288x170.jpg",
      "articleUrl": "https://www.globe.com.ph/about-us/newsroom/consumer/6-perfect-gifts.html",
      "columnType": "articles--type-3",
      "typeListing": "article",
      "imageMobile": "/sites/globe.com.ph/files/content/dam/globe/brie/AboutUs/newsroom/consumer/consumer-6-perfect-gifts/192_Hero Banner_ 320x360_M.jpg",
      "imageDesktop": "/sites/globe.com.ph/files/content/dam/globe/brie/AboutUs/newsroom/consumer/consumer-6-perfect-gifts/192_Primary Desktop Thumbnail_860x400.jpg",
      "description": "Here are six perfect gifts for the holiday season. Visit the Globe Newsroom for the latest new on Globe Telecom.",
      "datePosted": "Dec 22, 2017 | 04:13 PM",
      "titleFromTag": "Consumer"
    },
    {
      "title": "Best Travel Deals with Globe Platinum, Singapore Airlines at Showcase and Travel Fair 2018",
      "nonclickable": false,
      "openNewTab": false,
      "borderArticle": "border-color:#0074D9;",
      "borderTopArticle": "border-top-color:#0074D9;",
      "imageListing": "/sites/globe.com.ph/files/content/dam/globe/brie/AboutUs/newsroom/consumer/consumer-platinum-airlines-travel/consumer-platinum-airlines-travel-thumbnail-listing.jpg",
      "articleUrl": "https://www.globe.com.ph/about-us/newsroom/consumer/best-travel-deals-globe-platinum.html",
      "columnType": "articles--type-3",
      "typeListing": "article",
      "imageMobile": "/sites/globe.com.ph/files/content/dam/globe/brie/AboutUs/newsroom/consumer/consumer-platinum-airlines-travel/consumer-platinum-airlines-travel-banner-m.jpg",
      "imageDesktop": "/sites/globe.com.ph/files/content/dam/globe/brie/AboutUs/newsroom/consumer/consumer-platinum-airlines-travel/consumer-platinum-airlines-travel-primary-thumbnail.jpg",
      "description": "Best travel deals with Globe Platinum and Singapore Airlines at the Showcase and Travel Fair 2018. Visit the Globe Newsroom for the latest news.",
      "datePosted": "Dec 22, 2017 | 02:29 PM",
      "titleFromTag": "Consumer"
    },
    {
      "title": "Globe Cited for Outstanding Environmental, Social & Corporate Governance Work by The Asset Corporate Awards",
      "nonclickable": false,
      "openNewTab": false,
      "borderArticle": "border-color:#0074D9;",
      "borderTopArticle": "border-top-color:#0074D9;",
      "imageListing": "/sites/globe.com.ph/files/content/dam/globe/brie/AboutUs/newsroom/common/Corporate_Globe_Listing.jpg",
      "articleUrl": "https://www.globe.com.ph/about-us/newsroom/corporate/globe-cited-for-outstanding-environmental-social.html",
      "columnType": "articles--type-3",
      "typeListing": "article",
      "imageMobile": "/sites/globe.com.ph/files/content/dam/globe/brie/AboutUs/newsroom/common/Corporate_Globe_Hero-Banner-Mobile.jpg",
      "imageDesktop": "/sites/globe.com.ph/files/content/dam/globe/brie/AboutUs/newsroom/common/Corporate_Globe_Primary-Desktop-Thumbnail.jpg",
      "description": "Globe cited for outstanding Environmental, Social & Corporate Governance work by The Asset Corporate Awards. Visit the Globe Newsroom for the latest news",
      "datePosted": "Dec 21, 2017 | 08:13 PM",
      "titleFromTag": "Corporate"
    },
    {
      "title": "More Filipinos Now Streaming HD Videos",
      "nonclickable": false,
      "openNewTab": false,
      "borderArticle": "border-color:#0074D9;",
      "borderTopArticle": "border-top-color:#0074D9;",
      "imageListing": "/sites/globe.com.ph/files/content/dam/globe/brie/AboutUs/newsroom/common/Corporate_Globe_Listing.jpg",
      "articleUrl": "https://www.globe.com.ph/about-us/newsroom/consumer/more-filipinos-now-streaming.html",
      "columnType": "articles--type-3",
      "typeListing": "article",
      "imageMobile": "/sites/globe.com.ph/files/content/dam/globe/brie/AboutUs/newsroom/common/Corporate_Globe_Hero-Banner-Mobile.jpg",
      "imageDesktop": "/sites/globe.com.ph/files/content/dam/globe/brie/AboutUs/newsroom/common/Corporate_Globe_Primary-Desktop-Thumbnail.jpg",
      "description": "More Filipinos now streaming HD videos. Visit the Globe Newsroom for the latest news on Globe Telecom.",
      "datePosted": "Dec 20, 2017 | 04:13 PM",
      "titleFromTag": "Consumer"
    },
    {
      "title": "GCash Dominates Philippine Retail E-Payment Landscape with Over 4,000 QRs Deployed Nationwide",
      "nonclickable": false,
      "openNewTab": false,
      "borderArticle": "border-color:#0074D9;",
      "borderTopArticle": "border-top-color:#0074D9;",
      "imageListing": "/sites/globe.com.ph/files/content/dam/globe/brie/AboutUs/newsroom/common/Corporate_Globe_Listing.jpg",
      "articleUrl": "https://www.globe.com.ph/about-us/newsroom/consumer/gcash-dominates-philippine-retail-e-payment-with-over-4000-qr-codes.html",
      "columnType": "articles--type-3",
      "typeListing": "article",
      "imageMobile": "/sites/globe.com.ph/files/content/dam/globe/brie/AboutUs/newsroom/common/Corporate_Globe_Hero-Banner-Mobile.jpg",
      "imageDesktop": "/sites/globe.com.ph/files/content/dam/globe/brie/AboutUs/newsroom/common/Corporate_Globe_Primary-Desktop-Thumbnail.jpg",
      "description": "GCash dominates Philippine retail e-payment landscape with over 4,000 QRs deployed nationwide. Visit the Globe Newsroom for the latest news on Globe Telecom.",
      "datePosted": "Dec 19, 2017 | 04:11 PM",
      "titleFromTag": "Consumer"
    }
  ]
}
