{
  "status": 200,
  "page": 247,
  "totalPage": 298,
  "range": "2953-2964",
  "total": 3573,
  "result": [
    {
      "title": "Globe Telecom Wraps Up TM Basketball Para Sa Bayan with Championship Games",
      "nonclickable": false,
      "openNewTab": false,
      "borderArticle": "border-color:#0074D9;",
      "borderTopArticle": "border-top-color:#0074D9;",
      "imageListing": "/sites/globe.com.ph/files/content/dam/globe/brie/AboutUs/newsroom/consumer/consumer-tm-basketball/consumer-tm-basketball-thumbnail-listing.jpg",
      "articleUrl": "https://www.globe.com.ph/about-us/newsroom/consumer/globe-wraps-up-tm-basketball.html",
      "columnType": "articles--type-3",
      "typeListing": "article",
      "imageMobile": "/sites/globe.com.ph/files/content/dam/globe/brie/AboutUs/newsroom/consumer/consumer-tm-basketball/consumer-tm-basketball-banner-m.jpg",
      "imageDesktop": "/sites/globe.com.ph/files/content/dam/globe/brie/AboutUs/newsroom/consumer/consumer-tm-basketball/consumer-tm-basketball-primary-thumbnail.jpg",
      "description": "Globe Telecom wraps up TM Basketball Para Sa Bayan with championship games. Visit the Globe Newsroom for the latest news on Globe Telecom.",
      "datePosted": "Dec 18, 2017 | 04:12 PM",
      "titleFromTag": "Consumer"
    },
    {
      "title": "Support the HERO Foundation with your Globe Rewards Points",
      "nonclickable": false,
      "openNewTab": false,
      "borderArticle": "border-color:#0074D9;",
      "borderTopArticle": "border-top-color:#0074D9;",
      "imageListing": "/sites/globe.com.ph/files/content/dam/globe/brie/AboutUs/newsroom/consumer/consumer-hero-foundation-rewards/consumer-hero-foundation-rewards-thumbnail-listing.jpg",
      "articleUrl": "https://www.globe.com.ph/about-us/newsroom/consumer/support-the-hero-foundation.html",
      "columnType": "articles--type-3",
      "typeListing": "article",
      "imageMobile": "/sites/globe.com.ph/files/content/dam/globe/brie/AboutUs/newsroom/consumer/consumer-hero-foundation-rewards/consumer-hero-foundation-rewards-banner-m.jpg",
      "imageDesktop": "/sites/globe.com.ph/files/content/dam/globe/brie/AboutUs/newsroom/consumer/consumer-hero-foundation-rewards/consumer-hero-foundation-rewards-primary-thumbnail.jpg",
      "description": "Support the HERO Foundation with your Globe Rewards points. Visit the Globe Newsroom for the latest news on Globe Telecom.",
      "datePosted": "Dec 18, 2017 | 04:12 PM",
      "titleFromTag": "Consumer"
    },
    {
      "title": "Level-Up the WiFi Experience in Every Part of your Home with Globe Tech Squad",
      "nonclickable": false,
      "openNewTab": false,
      "borderArticle": "border-color:#0074D9;",
      "borderTopArticle": "border-top-color:#0074D9;",
      "imageListing": "/sites/globe.com.ph/files/content/dam/globe/brie/AboutUs/newsroom/common/Corporate_Globe_Listing.jpg",
      "articleUrl": "https://www.globe.com.ph/about-us/newsroom/consumer/level-up-the-wifi-experience.html",
      "columnType": "articles--type-3",
      "typeListing": "article",
      "imageMobile": "/sites/globe.com.ph/files/content/dam/globe/brie/AboutUs/newsroom/common/Corporate_Globe_Hero-Banner-Mobile.jpg",
      "imageDesktop": "/sites/globe.com.ph/files/content/dam/globe/brie/AboutUs/newsroom/common/Corporate_Globe_Primary-Desktop-Thumbnail.jpg",
      "description": "Level-Up the WiFi experience in every part of your home with Globe Tech Squad. Visit the Globe Newsroom for the latest news on Globe Telecom.",
      "datePosted": "Dec 18, 2017 | 04:12 PM",
      "titleFromTag": "Consumer"
    },
    {
      "title": "Globe: Over 1,200 Cell Sites Affected by Mobile Service Interference Caused by Illegal Signal Transmitters",
      "nonclickable": false,
      "openNewTab": false,
      "borderArticle": "border-color:#0074D9;",
      "borderTopArticle": "border-top-color:#0074D9;",
      "imageListing": "/sites/globe.com.ph/files/content/dam/globe/brie/AboutUs/newsroom/common/Corporate_Globe_Listing.jpg",
      "articleUrl": "https://www.globe.com.ph/about-us/newsroom/corporate/globe-illegal-signal-transmitters-affecting-over-1200-cell-sites.html",
      "columnType": "articles--type-3",
      "typeListing": "article",
      "imageMobile": "/sites/globe.com.ph/files/content/dam/globe/brie/AboutUs/newsroom/common/Corporate_Globe_Hero-Banner-Mobile.jpg",
      "imageDesktop": "/sites/globe.com.ph/files/content/dam/globe/brie/AboutUs/newsroom/common/Corporate_Globe_Primary-Desktop-Thumbnail.jpg",
      "description": "Globe says over 1,200 cell sites are affected by mobile service interference caused by illegal signal transmitters. Visit the Globe Newsroom for more.",
      "datePosted": "Dec 12, 2017 | 08:12 PM",
      "titleFromTag": "Corporate"
    },
    {
      "title": "Globe, SM Team Up for Seamless Digital Experience in Supermalls Through GoWiFi",
      "nonclickable": false,
      "openNewTab": false,
      "borderArticle": "border-color:#0074D9;",
      "borderTopArticle": "border-top-color:#0074D9;",
      "imageListing": "/sites/globe.com.ph/files/content/dam/globe/brie/AboutUs/newsroom/consumer/consumer-globe-sm/consumer-globe-sm-thumbnail-listing.jpg",
      "articleUrl": "https://www.globe.com.ph/about-us/newsroom/consumer/globe-sm-team-up-for-seamless-digital-experience.html",
      "columnType": "articles--type-3",
      "typeListing": "article",
      "imageMobile": "/sites/globe.com.ph/files/content/dam/globe/brie/AboutUs/newsroom/consumer/consumer-globe-sm/consumer-globe-sm-banner-m.jpg",
      "imageDesktop": "/sites/globe.com.ph/files/content/dam/globe/brie/AboutUs/newsroom/consumer/consumer-globe-sm/consumer-globe-sm-primary-thumbnail.jpg",
      "description": "Globe and SM team up for seamless digital experience in Supermalls through GoWiFi. Visit the Globe Newsroom for the latest news on Globe Telecom.",
      "datePosted": "Dec 12, 2017 | 04:11 PM",
      "titleFromTag": "Consumer"
    },
    {
      "title": "Grassroots Program TM Basketball Para sa Bayan Joins Forces with LA Tenorio in 3 Provinces",
      "nonclickable": false,
      "openNewTab": false,
      "borderArticle": "border-color:#0074D9;",
      "borderTopArticle": "border-top-color:#0074D9;",
      "imageListing": "/sites/globe.com.ph/files/content/dam/globe/brie/AboutUs/newsroom/consumer/consumer-grassroots-tm-basketball/consumer-grassroots-tm-basketball-thumbnail-listing.jpg",
      "articleUrl": "https://www.globe.com.ph/about-us/newsroom/consumer/grassroots-program-tm-basketball.html",
      "columnType": "articles--type-3",
      "typeListing": "article",
      "imageMobile": "/sites/globe.com.ph/files/content/dam/globe/brie/AboutUs/newsroom/consumer/consumer-grassroots-tm-basketball/consumer-grassroots-tm-basketball-banner-m.jpg",
      "imageDesktop": "/sites/globe.com.ph/files/content/dam/globe/brie/AboutUs/newsroom/consumer/consumer-grassroots-tm-basketball/consumer-grassroots-tm-basketball-primary-thumbnail.jpg",
      "description": "Grassroots program TM Basketball Para sa Bayan joins forces with LA Tenorio in 3 provinces. Visit the Globe Newsroom for the latest news on Globe Telecom.",
      "datePosted": "Dec 12, 2017 | 04:10 PM",
      "titleFromTag": "Consumer"
    },
    {
      "title": "OFWs Can Now Give Gift of Connectivity at Home Through SarisariPH",
      "nonclickable": false,
      "openNewTab": false,
      "borderArticle": "border-color:#0074D9;",
      "borderTopArticle": "border-top-color:#0074D9;",
      "imageListing": "/sites/globe.com.ph/files/content/dam/globe/brie/AboutUs/newsroom/common/Corporate_Globe_Listing.jpg",
      "articleUrl": "https://www.globe.com.ph/about-us/newsroom/consumer/ofws-can-now-give-the-gift-of-connectivity.html",
      "columnType": "articles--type-3",
      "typeListing": "article",
      "imageMobile": "/sites/globe.com.ph/files/content/dam/globe/brie/AboutUs/newsroom/common/Corporate_Globe_Hero-Banner-Mobile.jpg",
      "imageDesktop": "/sites/globe.com.ph/files/content/dam/globe/brie/AboutUs/newsroom/common/Corporate_Globe_Primary-Desktop-Thumbnail.jpg",
      "description": "OFWs can now give gift of connectivity at home through SarisariPH. Visit the Globe Newsroom for the latest news on Globe Telecom.",
      "datePosted": "Dec 11, 2017 | 04:09 PM",
      "titleFromTag": "Consumer"
    },
    {
      "title": "Globe, Abojeb Bring Cheers to Seafarers this Holiday Season",
      "nonclickable": false,
      "openNewTab": false,
      "borderArticle": "border-color:#0074D9;",
      "borderTopArticle": "border-top-color:#0074D9;",
      "imageListing": "/sites/globe.com.ph/files/content/dam/globe/brie/AboutUs/newsroom/consumer/consumer-globe-abojeb-seafarers/consumer-globe-abojeb-seafarers-thumbnail-listing.jpg",
      "articleUrl": "https://www.globe.com.ph/about-us/newsroom/consumer/globe-abojeb-bring-cheers-to-seafarers.html",
      "columnType": "articles--type-3",
      "typeListing": "article",
      "imageMobile": "/sites/globe.com.ph/files/content/dam/globe/brie/AboutUs/newsroom/consumer/consumer-globe-abojeb-seafarers/consumer-globe-abojeb-seafarers-banner-m.jpg",
      "imageDesktop": "/sites/globe.com.ph/files/content/dam/globe/brie/AboutUs/newsroom/consumer/consumer-globe-abojeb-seafarers/consumer-globe-abojeb-seafarers-primary-thumbnail.jpg",
      "description": "Globe and Abojeb bring cheers to seafarers this holiday season. Visit the Globe Newsroom for the latest news on Globe Telecom.﻿",
      "datePosted": "Dec 09, 2017 | 04:09 PM",
      "titleFromTag": "Consumer"
    },
    {
      "title": "Indonesian Talent Sweeps Awards at Singtel Group’s ‘The 5-Min Video Challenge’",
      "nonclickable": false,
      "openNewTab": false,
      "borderArticle": "border-color:#0074D9;",
      "borderTopArticle": "border-top-color:#0074D9;",
      "imageListing": "/sites/globe.com.ph/files/content/dam/globe/brie/AboutUs/newsroom/consumer/consumer-indonesian-singtel/consumer-indonesian-singtel-thumbnail-listing.jpg",
      "articleUrl": "https://www.globe.com.ph/about-us/newsroom/consumer/indonesian-talent-sweeps-awards.html",
      "columnType": "articles--type-3",
      "typeListing": "article",
      "imageMobile": "/sites/globe.com.ph/files/content/dam/globe/brie/AboutUs/newsroom/consumer/consumer-indonesian-singtel/consumer-indonesian-singtel-banner-m.jpg",
      "imageDesktop": "/sites/globe.com.ph/files/content/dam/globe/brie/AboutUs/newsroom/consumer/consumer-indonesian-singtel/consumer-indonesian-singtel-primary-thumbnail.jpg",
      "description": "Indonesian talent sweep awards at Singtel Group’s 'The 5-Min Video Challenge'. Visit the Globe Newsroom for the latest news on Globe Telecom.",
      "datePosted": "Dec 08, 2017 | 04:09 PM",
      "titleFromTag": "Consumer"
    },
    {
      "title": "Access FOX+ for 3 Months with your Globe Streamwatch Roku Powered",
      "nonclickable": false,
      "openNewTab": false,
      "borderArticle": "border-color:#0074D9;",
      "borderTopArticle": "border-top-color:#0074D9;",
      "imageListing": "/sites/globe.com.ph/files/content/dam/globe/brie/AboutUs/newsroom/common/Corporate_Globe_Listing.jpg",
      "articleUrl": "https://www.globe.com.ph/about-us/newsroom/consumer/access-fox-for-3-months.html",
      "columnType": "articles--type-3",
      "typeListing": "article",
      "imageMobile": "/sites/globe.com.ph/files/content/dam/globe/brie/AboutUs/newsroom/common/Corporate_Globe_Hero-Banner-Mobile.jpg",
      "imageDesktop": "/sites/globe.com.ph/files/content/dam/globe/brie/AboutUs/newsroom/common/Corporate_Globe_Primary-Desktop-Thumbnail.jpg",
      "description": "Access FOX+ for 3 months with your Globe Streamwatch Roku Powered. Visit the Globe Newsroom for the latest news on Globe Telecom.",
      "datePosted": "Dec 07, 2017 | 04:08 PM",
      "titleFromTag": "Consumer"
    },
    {
      "title": "Globe Lead-In 2017: Unlocking Doors of ‘Bigness Beyond Business’",
      "nonclickable": false,
      "openNewTab": false,
      "borderArticle": "border-color:#0074D9;",
      "borderTopArticle": "border-top-color:#0074D9;",
      "imageListing": "/sites/globe.com.ph/files/content/dam/globe/brie/AboutUs/newsroom/common/Corporate_Globe_Listing.jpg",
      "articleUrl": "https://www.globe.com.ph/about-us/newsroom/corporate/unlocking-doors-bigness-beyond-business.html",
      "columnType": "articles--type-3",
      "typeListing": "article",
      "imageMobile": "/sites/globe.com.ph/files/content/dam/globe/brie/AboutUs/newsroom/common/Corporate_Globe_Hero-Banner-Mobile.jpg",
      "imageDesktop": "/sites/globe.com.ph/files/content/dam/globe/brie/AboutUs/newsroom/common/Corporate_Globe_Hero-Banner-Desktop.jpg",
      "description": "This year’s convergence is a beginning, a gateway, an opening that invites us to unlock the potential of bigness beyond business.",
      "datePosted": "Dec 04, 2017 | 08:21 PM",
      "titleFromTag": "Business"
    },
    {
      "title": "Get Star Wars: The Last Jedi Movie Invites When You Subscribe to a Globe Streamwatch Bundle",
      "nonclickable": false,
      "openNewTab": false,
      "borderArticle": "border-color:#0074D9;",
      "borderTopArticle": "border-top-color:#0074D9;",
      "imageListing": "/sites/globe.com.ph/files/content/dam/globe/brie/AboutUs/newsroom/consumer/consumer-star-wars-streamwatch/consumer-star-wars-streamwatch-thumbnail-listing.jpg",
      "articleUrl": "https://www.globe.com.ph/about-us/newsroom/consumer/get-star-wars-the-last-jedi-tickets.html",
      "columnType": "articles--type-3",
      "typeListing": "article",
      "imageMobile": "/sites/globe.com.ph/files/content/dam/globe/brie/AboutUs/newsroom/consumer/consumer-star-wars-streamwatch/consumer-star-wars-streamwatch-banner-m.jpg",
      "imageDesktop": "/sites/globe.com.ph/files/content/dam/globe/brie/AboutUs/newsroom/consumer/consumer-star-wars-streamwatch/consumer-star-wars-streamwatch-primary-thumbnail.jpg",
      "description": "Get Star Wars: The Last Jedi movie invites when you subscribe to a Globe Streamwatch Bundle. Visit the Globe Newsroom for the latest news on Globe Telecom.",
      "datePosted": "Dec 02, 2017 | 04:08 PM",
      "titleFromTag": "Consumer"
    }
  ]
}
