{
  "status": 200,
  "page": 248,
  "totalPage": 298,
  "range": "2965-2976",
  "total": 3573,
  "result": [
    {
      "title": "Globe myBusiness Academy Gathers Online Sellers, Industry Experts",
      "nonclickable": false,
      "openNewTab": false,
      "borderArticle": "border-color:#0074D9;",
      "borderTopArticle": "border-top-color:#0074D9;",
      "imageListing": "/sites/globe.com.ph/files/content/dam/globe/brie/AboutUs/newsroom/common/Corporate_Globe_Listing.jpg",
      "articleUrl": "https://www.globe.com.ph/about-us/newsroom/consumer/globe-mybusiness-academy.html",
      "columnType": "articles--type-3",
      "typeListing": "article",
      "imageMobile": "/sites/globe.com.ph/files/content/dam/globe/brie/AboutUs/newsroom/common/Corporate_Globe_Hero-Banner-Mobile.jpg",
      "imageDesktop": "/sites/globe.com.ph/files/content/dam/globe/brie/AboutUs/newsroom/common/Corporate_Globe_Primary-Desktop-Thumbnail.jpg",
      "description": "Globe myBusiness Academy gathers online sellers and industry experts. Visit the Globe Newsroom for the latest news on Globe Telecom.",
      "datePosted": "Dec 01, 2017 | 04:36 PM",
      "titleFromTag": "Consumer"
    },
    {
      "title": "GCash ‘Scan to Pay’ Feature Now at The SM Store Nationwide",
      "nonclickable": false,
      "openNewTab": false,
      "borderArticle": "border-color:#0074D9;",
      "borderTopArticle": "border-top-color:#0074D9;",
      "imageListing": "/sites/globe.com.ph/files/content/dam/globe/brie/AboutUs/newsroom/common/Corporate_Globe_Listing.jpg",
      "articleUrl": "https://www.globe.com.ph/about-us/newsroom/consumer/gcash-scan-to-pay-feature.html",
      "columnType": "articles--type-3",
      "typeListing": "article",
      "imageMobile": "/sites/globe.com.ph/files/content/dam/globe/brie/AboutUs/newsroom/common/Corporate_Globe_Hero-Banner-Mobile.jpg",
      "imageDesktop": "/sites/globe.com.ph/files/content/dam/globe/brie/AboutUs/newsroom/common/Corporate_Globe_Primary-Desktop-Thumbnail.jpg",
      "description": "GCash 'Scan to Pay’ feature now at The SM Store nationwide. Visit the Globe Newsroom for the latest news on Globe Telecom.",
      "datePosted": "Dec 01, 2017 | 04:08 PM",
      "titleFromTag": "Consumer"
    },
    {
      "title": "3 Things You’ll Love About the New Globe At Home App",
      "nonclickable": false,
      "openNewTab": false,
      "borderArticle": "border-color:#0074D9;",
      "borderTopArticle": "border-top-color:#0074D9;",
      "imageListing": "/sites/globe.com.ph/files/content/dam/globe/brie/AboutUs/newsroom/common/Corporate_Globe_Listing.jpg",
      "articleUrl": "https://www.globe.com.ph/about-us/newsroom/consumer/new-globe-at-home-app.html",
      "columnType": "articles--type-3",
      "typeListing": "article",
      "imageMobile": "/sites/globe.com.ph/files/content/dam/globe/brie/AboutUs/newsroom/common/Corporate_Globe_Hero-Banner-Mobile.jpg",
      "imageDesktop": "/sites/globe.com.ph/files/content/dam/globe/brie/AboutUs/newsroom/common/Corporate_Globe_Primary-Desktop-Thumbnail.jpg",
      "description": "3 things you'll love about the new Globe At Home app. Visit the Globe Newsroom for the latest news on Globe Telecom.",
      "datePosted": "Nov 28, 2017 | 04:07 PM",
      "titleFromTag": "Consumer"
    },
    {
      "title": "Ministop Becomes 1st Convenience Store to Accept QR Payments via GCash",
      "nonclickable": false,
      "openNewTab": false,
      "borderArticle": "border-color:#0074D9;",
      "borderTopArticle": "border-top-color:#0074D9;",
      "imageListing": "/sites/globe.com.ph/files/content/dam/globe/brie/AboutUs/newsroom/common/Corporate_Globe_Listing.jpg",
      "articleUrl": "https://www.globe.com.ph/about-us/newsroom/consumer/ministop-1st-convenience-store-to-accept-qr-payments-gcash.html",
      "columnType": "articles--type-3",
      "typeListing": "article",
      "imageMobile": "/sites/globe.com.ph/files/content/dam/globe/brie/AboutUs/newsroom/common/Corporate_Globe_Hero-Banner-Mobile.jpg",
      "imageDesktop": "/sites/globe.com.ph/files/content/dam/globe/brie/AboutUs/newsroom/common/Corporate_Globe_Primary-Desktop-Thumbnail.jpg",
      "description": "Ministop becomes the first convenience store to accept QR payments via GCash. Visit the Globe Newsroom for the latest news on Globe Telecom.",
      "datePosted": "Nov 23, 2017 | 04:07 PM",
      "titleFromTag": "Consumer"
    },
    {
      "title": "Globe Telecom Data-Related Revenues Now Account for 53% of Topline",
      "nonclickable": false,
      "openNewTab": false,
      "borderArticle": "border-color:#0074D9;",
      "borderTopArticle": "border-top-color:#0074D9;",
      "imageListing": "/sites/globe.com.ph/files/content/dam/globe/brie/AboutUs/newsroom/common/Corporate_Globe_Listing.jpg",
      "articleUrl": "https://www.globe.com.ph/about-us/newsroom/corporate/globe-data-related.html",
      "columnType": "articles--type-3",
      "typeListing": "article",
      "imageMobile": "/sites/globe.com.ph/files/content/dam/globe/brie/AboutUs/newsroom/common/Corporate_Globe_Hero-Banner-Mobile.jpg",
      "imageDesktop": "/sites/globe.com.ph/files/content/dam/globe/brie/AboutUs/newsroom/common/Corporate_Globe_Primary-Desktop-Thumbnail.jpg",
      "description": "Globe Telecom data-related revenues now account for 53% of topline. Visit the Globe Newsroom for the latest news on Globe Telecom.",
      "datePosted": "Nov 20, 2017 | 08:12 PM",
      "titleFromTag": "Corporate"
    },
    {
      "title": "GCash Partners with Noel Bazaar for Early Christmas Shopping",
      "nonclickable": false,
      "openNewTab": false,
      "borderArticle": "border-color:#0074D9;",
      "borderTopArticle": "border-top-color:#0074D9;",
      "imageListing": "/sites/globe.com.ph/files/content/dam/globe/brie/AboutUs/newsroom/common/Corporate_Globe_Listing.jpg",
      "articleUrl": "https://www.globe.com.ph/about-us/newsroom/consumer/gcash-partners-with-noel-bazaar.html",
      "columnType": "articles--type-3",
      "typeListing": "article",
      "imageMobile": "/sites/globe.com.ph/files/content/dam/globe/brie/AboutUs/newsroom/common/Corporate_Globe_Hero-Banner-Mobile.jpg",
      "imageDesktop": "/sites/globe.com.ph/files/content/dam/globe/brie/AboutUs/newsroom/common/Corporate_Globe_Primary-Desktop-Thumbnail.jpg",
      "description": "GCash partners with Noel Bazaar for early Christmas shopping. Visit the Globe Newsroom for the latest news on Globe Telecom.",
      "datePosted": "Nov 20, 2017 | 04:06 PM",
      "titleFromTag": "Consumer"
    },
    {
      "title": "GCash Raffles Off Honda CRV for 12 Weeks of Christmas Promo",
      "nonclickable": false,
      "openNewTab": false,
      "borderArticle": "border-color:#0074D9;",
      "borderTopArticle": "border-top-color:#0074D9;",
      "imageListing": "/sites/globe.com.ph/files/content/dam/globe/brie/AboutUs/newsroom/common/Corporate_Globe_Listing.jpg",
      "articleUrl": "https://www.globe.com.ph/about-us/newsroom/consumer/gcash-raffles-off-honda-crv.html",
      "columnType": "articles--type-3",
      "typeListing": "article",
      "imageMobile": "/sites/globe.com.ph/files/content/dam/globe/brie/AboutUs/newsroom/common/Corporate_Globe_Hero-Banner-Mobile.jpg",
      "imageDesktop": "/sites/globe.com.ph/files/content/dam/globe/brie/AboutUs/newsroom/common/Corporate_Globe_Primary-Desktop-Thumbnail.jpg",
      "description": "GCash raffles off Honda CRV for 12 Weeks of Christmas promo. Visit the Globe Newsroom for the latest news on Globe Telecom.",
      "datePosted": "Nov 17, 2017 | 04:06 PM",
      "titleFromTag": "Consumer"
    },
    {
      "title": "No Humbugs Here: Globe LIVE & 9Works Theatricals Bring Back Menken & Ahrenn’s A Christmas Carol",
      "nonclickable": false,
      "openNewTab": false,
      "borderArticle": "border-color:#0074D9;",
      "borderTopArticle": "border-top-color:#0074D9;",
      "imageListing": "/sites/globe.com.ph/files/content/dam/globe/brie/AboutUs/newsroom/consumer/consumer-christmas-carol/consumer-christmas-carol-thumbnail-listing.jpg",
      "articleUrl": "https://www.globe.com.ph/about-us/newsroom/consumer/globe-live-9works-bring-back-a-christmas-carol.html",
      "columnType": "articles--type-3",
      "typeListing": "article",
      "imageMobile": "/sites/globe.com.ph/files/content/dam/globe/brie/AboutUs/newsroom/consumer/consumer-christmas-carol/consumer-christmas-carol-banner-m.jpg",
      "imageDesktop": "/sites/globe.com.ph/files/content/dam/globe/brie/AboutUs/newsroom/consumer/consumer-christmas-carol/consumer-christmas-carol-primary-thumbnail.jpg",
      "description": "Globe LIVE & 9Works Theatricals bring back Menken & Ahrenn’s A Christmas Carol. Visit the Globe Newsroom for the latest news on Globe Telecom.",
      "datePosted": "Nov 16, 2017 | 04:05 PM",
      "titleFromTag": "Consumer"
    },
    {
      "title": "Max’s Group Partners with GCash on E-Payment Via QR Codes",
      "nonclickable": false,
      "openNewTab": false,
      "borderArticle": "border-color:#0074D9;",
      "borderTopArticle": "border-top-color:#0074D9;",
      "imageListing": "/sites/globe.com.ph/files/content/dam/globe/brie/AboutUs/newsroom/consumer/consumer-max-gcash/consumer-max-gcash-thumbnail-listing.jpg",
      "articleUrl": "https://www.globe.com.ph/about-us/newsroom/consumer/max-group-partners-with-gcash.html",
      "columnType": "articles--type-3",
      "typeListing": "article",
      "imageMobile": "/sites/globe.com.ph/files/content/dam/globe/brie/AboutUs/newsroom/consumer/consumer-max-gcash/consumer-max-gcash-banner-m.jpg",
      "imageDesktop": "/sites/globe.com.ph/files/content/dam/globe/brie/AboutUs/newsroom/consumer/consumer-max-gcash/consumer-max-gcash-primary-thumbnail.jpg",
      "description": "Max’s Group partners with GCash on e-payment via QR codes. Visit the Globe Newsroom for the latest news on Globe Telecom.",
      "datePosted": "Nov 16, 2017 | 04:05 PM",
      "titleFromTag": "Consumer"
    },
    {
      "title": "Globe, DepEd Share Successful Partnership Experience at EdTechXAsia Singapore",
      "nonclickable": false,
      "openNewTab": false,
      "borderArticle": "border-color:#0074D9;",
      "borderTopArticle": "border-top-color:#0074D9;",
      "imageListing": "/sites/globe.com.ph/files/content/dam/globe/brie/AboutUs/newsroom/partners/partners-globe-deped-edtechxasia/partners-globe-deped-edtechxasia-thumbnail-listing.jpg",
      "articleUrl": "https://www.globe.com.ph/about-us/newsroom/partners/globe-deped-share-successful-partnership-experience.html",
      "columnType": "articles--type-3",
      "typeListing": "article",
      "imageMobile": "/sites/globe.com.ph/files/content/dam/globe/brie/AboutUs/newsroom/partners/partners-globe-deped-edtechxasia/partners-globe-deped-edtechxasia-banner-m.jpg",
      "imageDesktop": "/sites/globe.com.ph/files/content/dam/globe/brie/AboutUs/newsroom/partners/partners-globe-deped-edtechxasia/partners-globe-deped-edtechxasia-primary-thumbnail.jpg",
      "description": "Globe Telecom and the Department of Education discussed sustainable 21st century learning collaborations such as the Global Filipino School Program.",
      "datePosted": "Nov 14, 2017 | 04:44 PM",
      "titleFromTag": "Partners"
    },
    {
      "title": "Country’s Largest Teaching Institution Joins Globe PRISM Program",
      "nonclickable": false,
      "openNewTab": false,
      "borderArticle": "border-color:#0074D9;",
      "borderTopArticle": "border-top-color:#0074D9;",
      "imageListing": "/sites/globe.com.ph/files/content/dam/globe/brie/AboutUs/newsroom/consumer/consumer-globe-prism/consumer-globe-prism-thumbnail-listing.jpg",
      "articleUrl": "https://www.globe.com.ph/about-us/newsroom/consumer/country-largest-teaching-institution.html",
      "columnType": "articles--type-3",
      "typeListing": "article",
      "imageMobile": "/sites/globe.com.ph/files/content/dam/globe/brie/AboutUs/newsroom/consumer/consumer-globe-prism/consumer-globe-prism-banner-m.jpg",
      "imageDesktop": "/sites/globe.com.ph/files/content/dam/globe/brie/AboutUs/newsroom/consumer/consumer-globe-prism/consumer-globe-prism-primary-thumbnail.jpg",
      "description": "Country’s largest teaching institution joins Globe PRISM Program. Visit the Globe Newsroom for the latest news on Globe Telecom.",
      "datePosted": "Oct 31, 2017 | 04:10 PM",
      "titleFromTag": "Consumer"
    },
    {
      "title": "Globe Presents Solenn Heussaff’s New Solo Art Exhibit 'Kalsada'",
      "nonclickable": false,
      "openNewTab": false,
      "borderArticle": "border-color:#0074D9;",
      "borderTopArticle": "border-top-color:#0074D9;",
      "imageListing": "/sites/globe.com.ph/files/content/dam/globe/brie/AboutUs/newsroom/consumer/consumer-solenn-exhibit-kalsada/consumer-solenn-exhibit-kalsada-thumbnail-listing.jpg",
      "articleUrl": "https://www.globe.com.ph/about-us/newsroom/consumer/globe-presents-solenn-heussaff-new-solo-art.html",
      "columnType": "articles--type-3",
      "typeListing": "article",
      "imageMobile": "/sites/globe.com.ph/files/content/dam/globe/brie/AboutUs/newsroom/consumer/consumer-solenn-exhibit-kalsada/consumer-solenn-exhibit-kalsada-banner-m.jpg",
      "imageDesktop": "/sites/globe.com.ph/files/content/dam/globe/brie/AboutUs/newsroom/consumer/consumer-solenn-exhibit-kalsada/consumer-solenn-exhibit-kalsada-primary-thumbnail.jpg",
      "description": "Globe presents Solenn Heusaff’s new solo art exhibit “Kalsada\". Visit the Globe Newsroom for the latest news on Globe Telecom.",
      "datePosted": "Oct 30, 2017 | 04:04 PM",
      "titleFromTag": "Consumer"
    }
  ]
}
