{
  "status": 200,
  "page": 249,
  "totalPage": 298,
  "range": "2977-2988",
  "total": 3573,
  "result": [
    {
      "title": "Globe, Netflix Launch Stranger Things Apparel",
      "nonclickable": false,
      "openNewTab": false,
      "borderArticle": "border-color:#0074D9;",
      "borderTopArticle": "border-top-color:#0074D9;",
      "imageListing": "/sites/globe.com.ph/files/content/dam/globe/brie/AboutUs/newsroom/consumer/consumer-stranger-things-apparel/consumer-stranger-things-apparel-thumbnail-listing.jpg",
      "articleUrl": "https://www.globe.com.ph/about-us/newsroom/consumer/globe-netflix-launch-stranger-things-apparel.html",
      "columnType": "articles--type-3",
      "typeListing": "article",
      "imageMobile": "/sites/globe.com.ph/files/content/dam/globe/brie/AboutUs/newsroom/consumer/consumer-stranger-things-apparel/consumer-stranger-things-apparel-banner-m.jpg",
      "imageDesktop": "/sites/globe.com.ph/files/content/dam/globe/brie/AboutUs/newsroom/consumer/consumer-stranger-things-apparel/consumer-stranger-things-apparel-primary-thumbnail.jpg",
      "description": "Globe, Netflix launch Stranger Things apparel. Visit the Globe Newsroom for the latest news on Globe Telecom.",
      "datePosted": "Oct 30, 2017 | 04:05 PM",
      "titleFromTag": "Consumer"
    },
    {
      "title": "GCash Leads Future of Payments in Philippines at Ayala Malls",
      "nonclickable": false,
      "openNewTab": false,
      "borderArticle": "border-color:#0074D9;",
      "borderTopArticle": "border-top-color:#0074D9;",
      "imageListing": "/sites/globe.com.ph/files/content/dam/globe/brie/AboutUs/newsroom/consumer/consumer-gcash-ayala/consumer-gcash-ayala-thumbnail-listing.jpg",
      "articleUrl": "https://www.globe.com.ph/about-us/newsroom/consumer/gcash-leads-future-of-payments.html",
      "columnType": "articles--type-3",
      "typeListing": "article",
      "imageMobile": "/sites/globe.com.ph/files/content/dam/globe/brie/AboutUs/newsroom/consumer/consumer-gcash-ayala/consumer-gcash-ayala-banner-m.jpg",
      "imageDesktop": "/sites/globe.com.ph/files/content/dam/globe/brie/AboutUs/newsroom/consumer/consumer-gcash-ayala/consumer-gcash-ayala-primary-thumbnail.jpg",
      "description": "GCash leads future of payments in Philippines at Ayala Malls. Visit the Globe Newsroom for the latest news on Globe Telecom.",
      "datePosted": "Oct 26, 2017 | 04:04 PM",
      "titleFromTag": "Consumer"
    },
    {
      "title": "Here's your Chance to Catch Harry Styles Live with Globe",
      "nonclickable": false,
      "openNewTab": false,
      "borderArticle": "border-color:#0074D9;",
      "borderTopArticle": "border-top-color:#0074D9;",
      "imageListing": "/sites/globe.com.ph/files/content/dam/globe/brie/AboutUs/newsroom/common/Corporate_Globe_Listing.jpg",
      "articleUrl": "https://www.globe.com.ph/about-us/newsroom/consumer/catch-harry-styles.html",
      "columnType": "articles--type-3",
      "typeListing": "article",
      "imageMobile": "/sites/globe.com.ph/files/content/dam/globe/brie/AboutUs/newsroom/common/Corporate_Globe_Hero-Banner-Mobile.jpg",
      "imageDesktop": "/sites/globe.com.ph/files/content/dam/globe/brie/AboutUs/newsroom/common/Corporate_Globe_Primary-Desktop-Thumbnail.jpg",
      "description": "Here's your chance to catch Harry Styles live with Globe. Visit the Globe Newsroom for the latest news on Globe Telecom.",
      "datePosted": "Oct 26, 2017 | 04:03 PM",
      "titleFromTag": "Consumer"
    },
    {
      "title": "Roku to Power Globe Streamwatch",
      "nonclickable": false,
      "openNewTab": false,
      "borderArticle": "border-color:#0074D9;",
      "borderTopArticle": "border-top-color:#0074D9;",
      "imageListing": "/sites/globe.com.ph/files/content/dam/globe/brie/AboutUs/newsroom/consumer/consumer-roku-streamwatch/consumer-roku-streamwatch-thumbnail-listing.jpg",
      "articleUrl": "https://www.globe.com.ph/about-us/newsroom/consumer/roku-to-power-globe-streamwatch.html",
      "columnType": "articles--type-3",
      "typeListing": "article",
      "imageMobile": "/sites/globe.com.ph/files/content/dam/globe/brie/AboutUs/newsroom/consumer/consumer-roku-streamwatch/consumer-roku-streamwatch-banner-m.jpg",
      "imageDesktop": "/sites/globe.com.ph/files/content/dam/globe/brie/AboutUs/newsroom/consumer/consumer-roku-streamwatch/consumer-roku-streamwatch-primary-thumbnail.jpg",
      "description": "Roku to power Globe Streamwatch device. Visit the Globe Newsroom for the latest news on Globe Telecom.",
      "datePosted": "Oct 24, 2017 | 04:03 PM",
      "titleFromTag": "Consumer"
    },
    {
      "title": "Globe President, CEO Ernest Cu on Digital Transformation: It’s a Matter of Survival",
      "nonclickable": false,
      "openNewTab": false,
      "borderArticle": "border-color:#0074D9;",
      "borderTopArticle": "border-top-color:#0074D9;",
      "imageListing": "/sites/globe.com.ph/files/content/dam/globe/brie/AboutUs/newsroom/common/Corporate_Globe_Listing.jpg",
      "articleUrl": "https://www.globe.com.ph/about-us/newsroom/consumer/globe-president-ceo-ernest-cu.html",
      "columnType": "articles--type-3",
      "typeListing": "article",
      "imageMobile": "/sites/globe.com.ph/files/content/dam/globe/brie/AboutUs/newsroom/common/Corporate_Globe_Hero-Banner-Mobile.jpg",
      "imageDesktop": "/sites/globe.com.ph/files/content/dam/globe/brie/AboutUs/newsroom/common/Corporate_Globe_Primary-Desktop-Thumbnail.jpg",
      "description": "Globe President and CEO Ernest Cu highlights the importance of digital transformation. Visit the Globe Newsroom for the latest news on Globe Telecom.",
      "datePosted": "Oct 20, 2017 | 04:03 PM",
      "titleFromTag": "Consumer"
    },
    {
      "title": "Filipino Seafarers Enjoy More Affordable International Call Rates with the New Globe Seafarer SIM",
      "nonclickable": false,
      "openNewTab": false,
      "borderArticle": "border-color:#0074D9;",
      "borderTopArticle": "border-top-color:#0074D9;",
      "imageListing": "/sites/globe.com.ph/files/content/dam/globe/brie/AboutUs/newsroom/common/Corporate_Globe_Listing.jpg",
      "articleUrl": "https://www.globe.com.ph/about-us/newsroom/consumer/filipino-seafarers-enjoy-more-affordable-international-call-rates.html",
      "columnType": "articles--type-3",
      "typeListing": "article",
      "imageMobile": "/sites/globe.com.ph/files/content/dam/globe/brie/AboutUs/newsroom/common/Corporate_Globe_Hero-Banner-Mobile.jpg",
      "imageDesktop": "/sites/globe.com.ph/files/content/dam/globe/brie/AboutUs/newsroom/common/Corporate_Globe_Primary-Desktop-Thumbnail.jpg",
      "description": "Filipino seafarers enjoy more affordable international call rates with the new Globe Seafarer SIM. Visit the Globe Newsroom for the latest news.",
      "datePosted": "Oct 19, 2017 | 04:02 PM",
      "titleFromTag": "Consumer"
    },
    {
      "title": "Globe Leadership Innovation Forum Primes PH Enterprises to Redefine How Businesses Work",
      "nonclickable": false,
      "openNewTab": false,
      "borderArticle": "border-color:#0074D9;",
      "borderTopArticle": "border-top-color:#0074D9;",
      "imageListing": "/sites/globe.com.ph/files/content/dam/globe/brie/AboutUs/newsroom/common/Corporate_Globe_Listing.jpg",
      "articleUrl": "https://www.globe.com.ph/about-us/newsroom/corporate/lead-in-primes-enterprises.html",
      "columnType": "articles--type-3",
      "typeListing": "article",
      "imageMobile": "/sites/globe.com.ph/files/content/dam/globe/brie/AboutUs/newsroom/common/Corporate_Globe_Hero-Banner-Mobile.jpg",
      "imageDesktop": "/sites/globe.com.ph/files/content/dam/globe/brie/AboutUs/newsroom/common/Corporate_Globe_Primary-Desktop-Thumbnail.jpg",
      "description": "Lead-In aims to empower enterprises to act on their business purpose and to partake in initiatives that build the nation.",
      "datePosted": "Oct 18, 2017 | 08:22 PM",
      "titleFromTag": "Corporate"
    },
    {
      "title": "#CoupleGoals Solenn Heussaff, Nico Bolzico Take On Data Usage Education with Globe Data Drills",
      "nonclickable": false,
      "openNewTab": false,
      "borderArticle": "border-color:#0074D9;",
      "borderTopArticle": "border-top-color:#0074D9;",
      "imageListing": "/sites/globe.com.ph/files/content/dam/globe/brie/AboutUs/newsroom/consumer/consumer-globe-data-drill/consumer-globe-data-drill-thumbnail-listing.jpg",
      "articleUrl": "https://www.globe.com.ph/about-us/newsroom/consumer/couplegoals-solenn-heussaff-nico-bolzico.html",
      "columnType": "articles--type-3",
      "typeListing": "article",
      "imageMobile": "/sites/globe.com.ph/files/content/dam/globe/brie/AboutUs/newsroom/consumer/consumer-globe-data-drill/consumer-globe-data-drill-banner-m.jpg",
      "imageDesktop": "/sites/globe.com.ph/files/content/dam/globe/brie/AboutUs/newsroom/consumer/consumer-globe-data-drill/consumer-globe-data-drill-primary-thumbnail.jpg",
      "description": "Solenn Heussaff, Nico Bolzico take on data usage education with Globe Data Drills. Visit the Globe Newsroom for the latest news on Globe Telecom.",
      "datePosted": "Oct 18, 2017 | 04:02 PM",
      "titleFromTag": "Consumer"
    },
    {
      "title": "Globe, Singtel, Optus Hold Volunteering Program in Batangas",
      "nonclickable": false,
      "openNewTab": false,
      "borderArticle": "border-color:#0074D9;",
      "borderTopArticle": "border-top-color:#0074D9;",
      "imageListing": "/sites/globe.com.ph/files/content/dam/globe/brie/AboutUs/newsroom/partners/partners-globe-singtel-optus/partners-globe-singtel-optus-thumbnail-listing.jpg",
      "articleUrl": "https://www.globe.com.ph/about-us/newsroom/partners/globe-singtel-optus-hold-volunteering-program-batangas.html",
      "columnType": "articles--type-3",
      "typeListing": "article",
      "imageMobile": "/sites/globe.com.ph/files/content/dam/globe/brie/AboutUs/newsroom/partners/partners-globe-singtel-optus/partners-globe-singtel-optus-banner-m.jpg",
      "imageDesktop": "/sites/globe.com.ph/files/content/dam/globe/brie/AboutUs/newsroom/partners/partners-globe-singtel-optus/partners-globe-singtel-optus-primary-thumbnail.jpg",
      "description": "Volunteers focused on education and environment, engaging in activities along the Taal Lake Conservation Area shorelines. Visit Globe Newsroom for more news.",
      "datePosted": "Oct 17, 2017 | 04:44 PM",
      "titleFromTag": "Partners"
    },
    {
      "title": "Globe Platinum Rewards Lucky Bidder with Luxury Trip to Amanpulo",
      "nonclickable": false,
      "openNewTab": false,
      "borderArticle": "border-color:#0074D9;",
      "borderTopArticle": "border-top-color:#0074D9;",
      "imageListing": "/sites/globe.com.ph/files/content/dam/globe/brie/AboutUs/newsroom/consumer/consumer-platinum-rewards/consumer-platinum-rewards-thumbnail-listing.jpg",
      "articleUrl": "https://www.globe.com.ph/about-us/newsroom/consumer/globe-platinum-rewards.html",
      "columnType": "articles--type-3",
      "typeListing": "article",
      "imageMobile": "/sites/globe.com.ph/files/content/dam/globe/brie/AboutUs/newsroom/consumer/consumer-platinum-rewards/consumer-platinum-rewards-banner-m.jpg",
      "imageDesktop": "/sites/globe.com.ph/files/content/dam/globe/brie/AboutUs/newsroom/consumer/consumer-platinum-rewards/consumer-platinum-rewards-primary-thumbnail.jpg",
      "description": "Globe Platinum rewards lucky bidder with luxury trip to Amanpulo. Visit the Globe Newsroom for the latest news on Globe Telecom.",
      "datePosted": "Oct 17, 2017 | 04:01 PM",
      "titleFromTag": "Consumer"
    },
    {
      "title": "Globe Business Helps Retail Industry Future-Proof their Businesses",
      "nonclickable": false,
      "openNewTab": false,
      "borderArticle": "border-color:#0074D9;",
      "borderTopArticle": "border-top-color:#0074D9;",
      "imageListing": "/sites/globe.com.ph/files/content/dam/globe/brie/AboutUs/newsroom/consumer/consumer-globe-busiess-retail/consumer-globe-busiess-retail-thumbnail-listing.jpg",
      "articleUrl": "https://www.globe.com.ph/about-us/newsroom/consumer/globe-business-helps-retail-industry.html",
      "columnType": "articles--type-3",
      "typeListing": "article",
      "imageMobile": "/sites/globe.com.ph/files/content/dam/globe/brie/AboutUs/newsroom/consumer/consumer-globe-busiess-retail/consumer-globe-busiess-retail-banner-m.jpg",
      "imageDesktop": "/sites/globe.com.ph/files/content/dam/globe/brie/AboutUs/newsroom/consumer/consumer-globe-busiess-retail/consumer-globe-busiess-retail-primary-thumbnail.jpg",
      "description": "Globe Business helps retail industry future-proof their businesses. Visit the Globe Newsroom for the latest news on Globe Telecom.",
      "datePosted": "Oct 13, 2017 | 04:00 PM",
      "titleFromTag": "Consumer"
    },
    {
      "title": "Collaborate or Be Disrupted: How Large Corporations and Startups Can Adapt to Technological Change to Keep Growing",
      "nonclickable": false,
      "openNewTab": false,
      "borderArticle": "border-color:#1C91C5;",
      "borderTopArticle": "border-top-color:#1C91C5;",
      "imageListing": "/sites/globe.com.ph/files/content/dam/globe/brie/AboutUs/newsroom/common/Corporate_Globe_Listing.jpg",
      "articleUrl": "https://www.globe.com.ph/about-us/newsroom/business/collaborate-or-be-disrupted.html",
      "columnType": "articles--type-3",
      "typeListing": "article",
      "imageMobile": "/sites/globe.com.ph/files/content/dam/globe/brie/AboutUs/newsroom/common/Corporate_Globe_Hero-Banner-Mobile.jpg",
      "imageDesktop": "/sites/globe.com.ph/files/content/dam/globe/brie/AboutUs/newsroom/common/Corporate_Globe_Primary-Desktop-Thumbnail.jpg",
      "description": "Kickstart Ventures President Minette Navarrete emphasized the essence of collaboration between large enterprises and agile startups for industries’ growth.",
      "datePosted": "Oct 11, 2017 | 04:38 PM",
      "titleFromTag": "Business"
    }
  ]
}
