{
  "status": 200,
  "page": 25,
  "totalPage": 298,
  "range": "289-300",
  "total": 3573,
  "result": [
    {
      "title": "IWF Study Shows Global Online Child Sexual Abuse Content Reaches Record-Breaking Figures, Globe Calls for Greater Vigilance",
      "nonclickable": false,
      "openNewTab": false,
      "borderArticle": "border-color:#0074D9;",
      "borderTopArticle": "border-top-color:#0074D9;",
      "imageListing": "/sites/globe.com.ph/files/content/dam/globe/brie/AboutUs/newsroom/common/default-corporate-11/corp-thumbnail-listing.jpg",
      "articleUrl": "https://www.globe.com.ph/about-us/newsroom/sustainability/iwf-report-increase-global-online-child-sexual-abuse-content.html",
      "columnType": "articles--type-3",
      "typeListing": "article",
      "imageMobile": "/sites/globe.com.ph/files/content/dam/globe/brie/AboutUs/newsroom/common/default-corporate-11/corp-primary-thumbnail-m.jpg",
      "imageDesktop": "/sites/globe.com.ph/files/content/dam/globe/brie/AboutUs/newsroom/common/default-corporate-11/corp-primary-thumbnail-d.jpg",
      "description": "Globe has called for greater vigilance against cases of OSAEC after a recent report of IWF showed an increase in these disturbing cases globally.",
      "datePosted": "May 17, 2023 | 02:55 PM",
      "titleFromTag": "Sustainability"
    },
    {
      "title": "The Power of the ‘Hapag’: Kyani Philippines Joins Globe’s The Hapag Movement to Transform Lives",
      "nonclickable": false,
      "openNewTab": false,
      "borderArticle": "border-color:#0074D9;",
      "borderTopArticle": "border-top-color:#0074D9;",
      "imageListing": "/sites/globe.com.ph/files/content/dam/globe/brie/AboutUs/newsroom/common/default-partners-2/default-partners-2-thumbnail-listing.jpg",
      "articleUrl": "https://www.globe.com.ph/about-us/newsroom/sustainability/kyani-ph-joins-the-hapag-movement.html",
      "columnType": "articles--type-3",
      "typeListing": "article",
      "imageMobile": "/sites/globe.com.ph/files/content/dam/globe/brie/AboutUs/newsroom/common/default-partners-2/default-partners-2-primary-thumbnail-m.jpg",
      "imageDesktop": "/sites/globe.com.ph/files/content/dam/globe/brie/AboutUs/newsroom/common/default-partners-2/default-partners-2-primary-thumbnail-d.jpg",
      "description": "Kyani Philippines, a corporate member of Rotary Club of Makati Business District entered a 4-year partnership with Globe to raise funds for The Hapag Movement.",
      "datePosted": "May 17, 2023 | 01:56 PM",
      "titleFromTag": "Sustainability"
    },
    {
      "title": "HCX Promotes Inclusive Access to Updated and Sustainable Tech, Named Official Distributor of Tech Products for Globe Group",
      "nonclickable": false,
      "openNewTab": false,
      "borderArticle": "border-color:#0074D9;",
      "borderTopArticle": "border-top-color:#0074D9;",
      "imageListing": "/sites/globe.com.ph/files/content/dam/globe/brie/AboutUs/newsroom/common/default-partners-4/default-partners-4-primary-thumbnail-listing.jpg",
      "articleUrl": "https://www.globe.com.ph/about-us/newsroom/corporate/hcx-official-distributor-tech-products-globe-group.html",
      "columnType": "articles--type-3",
      "typeListing": "article",
      "imageMobile": "/sites/globe.com.ph/files/content/dam/globe/brie/AboutUs/newsroom/common/default-partners-4/default-partners-4-primary-primary-thumbnail-m.jpg",
      "imageDesktop": "/sites/globe.com.ph/files/content/dam/globe/brie/AboutUs/newsroom/common/default-partners-4/default-partners-4-primary-primary-thumbnail-d.jpg",
      "description": "HCX Technology Partners Inc. supports inclusive access to updated and sustainable technology for Filipino businesses.",
      "datePosted": "May 17, 2023 | 01:53 PM",
      "titleFromTag": "Corporate"
    },
    {
      "title": "  Globe's Value Brand TM Emerges in SWS Survey as Most Used Mobile Brand among Filipinos ",
      "nonclickable": false,
      "openNewTab": false,
      "borderArticle": "border-color:#0074D9;",
      "borderTopArticle": "border-top-color:#0074D9;",
      "imageListing": "/sites/globe.com.ph/files/content/dam/globe/brie/AboutUs/newsroom/common/default-corporate-13/corp-listing-thumbnail.jpg",
      "articleUrl": "https://www.globe.com.ph/about-us/newsroom/corporate/tm-sws-survey-most-used-mobile-brand-filipinos.html",
      "columnType": "articles--type-3",
      "typeListing": "article",
      "imageMobile": "/sites/globe.com.ph/files/content/dam/globe/brie/AboutUs/newsroom/common/default-corporate-13/corp-primary-banner-m.jpg",
      "imageDesktop": "/sites/globe.com.ph/files/content/dam/globe/brie/AboutUs/newsroom/common/default-corporate-13/corp-primary-thumbnail.jpg",
      "description": "Globe’s value brand TM has emerged as the most used mobile brand among Filipinos nationwide according to a recent Social Weather Stations (SWS) survey.\r\n\r\n",
      "datePosted": "May 16, 2023 | 01:53 PM",
      "titleFromTag": "Corporate"
    },
    {
      "title": "Globe-Supported TSD Facility in Malabon City Empowers Women Workers with Safe and Sustainable E-waste Recycling Opportunities",
      "nonclickable": false,
      "openNewTab": false,
      "borderArticle": "border-color:#1C91C5;",
      "borderTopArticle": "border-top-color:#1C91C5;",
      "imageListing": "/sites/globe.com.ph/files/content/dam/globe/brie/AboutUs/newsroom/sustainability/globe-supported-tsd-facility-empowers-women/corp-tsd-thumbnail-listing.jpg",
      "articleUrl": "https://www.globe.com.ph/about-us/newsroom/sustainability/globe-supported-tsd-facility-empowers-women.html",
      "columnType": "articles--type-3",
      "typeListing": "article",
      "imageMobile": "/sites/globe.com.ph/files/content/dam/globe/brie/AboutUs/newsroom/sustainability/globe-supported-tsd-facility-empowers-women/corp-tsd-primary-thumbnail-m.jpg",
      "imageDesktop": "/sites/globe.com.ph/files/content/dam/globe/brie/AboutUs/newsroom/sustainability/globe-supported-tsd-facility-empowers-women/corp-tsd-primary-thumbnail-d.jpg",
      "description": "Globe partnered with stakeholders to raise awareness about the importance of e-waste management in the country & the critical role that women play in this area.",
      "datePosted": "May 16, 2023 | 01:50 PM",
      "titleFromTag": "Sustainability"
    },
    {
      "title": "May 2023 Updates: Globe SIM Registration Portal",
      "nonclickable": false,
      "openNewTab": false,
      "borderArticle": "border-color:#0074D9;",
      "borderTopArticle": "border-top-color:#0074D9;",
      "imageListing": "/sites/globe.com.ph/files/content/dam/globe/brie/AboutUs/newsroom/common/default-total-globe-2/newsroom-total-globe-default-2-thumbnail-listing.jpg",
      "articleUrl": "https://www.globe.com.ph/about-us/newsroom/corporate/sim-registration-may-2023.html",
      "columnType": "articles--type-3",
      "typeListing": "article",
      "imageMobile": "/sites/globe.com.ph/files/content/dam/globe/brie/AboutUs/newsroom/common/default-total-globe-2/newsroom-total-globe-default-2-primary-thumbnail-m.jpg",
      "imageDesktop": "/sites/globe.com.ph/files/content/dam/globe/brie/AboutUs/newsroom/common/default-total-globe-2/newsroom-total-globe-default-2-primary-thumbnail-d.jpg",
      "description": "Read the May 2023 updates on Globe's SIM Registration on this page.",
      "datePosted": "May 15, 2023 | 02:00 PM",
      "titleFromTag": "Corporate"
    },
    {
      "title": "Globe Group Partners with Aklan LGU to Encourage Responsible Tourism in Love Boracay 2023",
      "nonclickable": false,
      "openNewTab": false,
      "borderArticle": "border-color:#1C91C5;",
      "borderTopArticle": "border-top-color:#1C91C5;",
      "imageListing": "/sites/globe.com.ph/files/content/dam/globe/brie/AboutUs/newsroom/sustainability/Globe-Group-Partners-with-Aklan-LGU-to-Encourage-Responsible-Tourism-in-Love-Boracay-2023/corp-default-images-thumbnail-listing.jpg",
      "articleUrl": "https://www.globe.com.ph/about-us/newsroom/sustainability/responsible-tourism-love-boracay-2023.html",
      "columnType": "articles--type-3",
      "typeListing": "article",
      "imageMobile": "/sites/globe.com.ph/files/content/dam/globe/brie/AboutUs/newsroom/sustainability/Globe-Group-Partners-with-Aklan-LGU-to-Encourage-Responsible-Tourism-in-Love-Boracay-2023/corp-default-images-primary-thumbnail-m.jpg",
      "imageDesktop": "/sites/globe.com.ph/files/content/dam/globe/brie/AboutUs/newsroom/sustainability/Globe-Group-Partners-with-Aklan-LGU-to-Encourage-Responsible-Tourism-in-Love-Boracay-2023/corp-default-images-primary-thumbnail-d.jpg",
      "description": "Globe partnered with the local government of Malay, Aklan in Love Boracay 2023 to encourage sustainable tourism.\r\n\r\n",
      "datePosted": "May 15, 2023 | 11:42 AM",
      "titleFromTag": "Sustainability"
    },
    {
      "title": "Because Mom’s Love Connects Us All, Globe At Home Celebrates Mother’s Day with Exclusive Offers",
      "nonclickable": false,
      "openNewTab": false,
      "borderArticle": "border-color:#0074D9;",
      "borderTopArticle": "border-top-color:#0074D9;",
      "imageListing": "/sites/globe.com.ph/files/content/dam/globe/brie/AboutUs/newsroom/common/default-consumer-3/default-consumer-thumbnail-listing.jpg",
      "articleUrl": "https://www.globe.com.ph/about-us/newsroom/consumer/globe-at-home-celebrates-mothers-day-exclusive-offers.html",
      "columnType": "articles--type-3",
      "typeListing": "article",
      "imageMobile": "/sites/globe.com.ph/files/content/dam/globe/brie/AboutUs/newsroom/common/default-consumer-3/default-consumer-primary-thumbnail-m.jpg",
      "imageDesktop": "/sites/globe.com.ph/files/content/dam/globe/brie/AboutUs/newsroom/common/default-consumer-3/default-consumer-primary-thumbnail-d.jpg",
      "description": "Enjoy exclusive offers from Globe At Home this Mother’s Day when you upgrade your GFiber UNLI Plan, avail FamSURF199, or register your Home Prepaid WiFi SIM. ",
      "datePosted": "May 12, 2023 | 03:30 PM",
      "titleFromTag": "Consumer"
    },
    {
      "title": "FINSI, 917Ventures Partner to Deploy Gogoro Battery-Swapping Network in PH",
      "nonclickable": false,
      "openNewTab": false,
      "borderArticle": "border-color:#0074D9;",
      "borderTopArticle": "border-top-color:#0074D9;",
      "imageListing": "/sites/globe.com.ph/files/content/dam/globe/brie/AboutUs/newsroom/917ventures/finsi-917ventures-partner-to-deploy-gogoro-battery-swapping-network-in-ph/corp-gogoro-thumbnail-listing.jpg",
      "articleUrl": "https://www.globe.com.ph/about-us/newsroom/917ventures/finsi-917ventures-deploy-gogoro-battery-swapping.html",
      "columnType": "articles--type-3",
      "typeListing": "article",
      "imageMobile": "/sites/globe.com.ph/files/content/dam/globe/brie/AboutUs/newsroom/917ventures/finsi-917ventures-partner-to-deploy-gogoro-battery-swapping-network-in-ph/corp-gogoro-primary-thumbnail-m.jpg",
      "imageDesktop": "/sites/globe.com.ph/files/content/dam/globe/brie/AboutUs/newsroom/917ventures/finsi-917ventures-partner-to-deploy-gogoro-battery-swapping-network-in-ph/corp-gogoro-primary-thumbnail-d.jpg",
      "description": "FINSI was tapped by 917Ventures to deploy and maintain the first-ever Gogoro® battery-swapping platform for its Smartscooters® in the Philippines.",
      "datePosted": "May 12, 2023 | 03:04 PM",
      "titleFromTag": "917Ventures"
    },
    {
      "title": "KROMA Entertainment Calls for Stronger Protection of Intellectual Property Rights, Seeks Legislated Site Blocking",
      "nonclickable": false,
      "openNewTab": false,
      "borderArticle": "border-color:#0074D9;",
      "borderTopArticle": "border-top-color:#0074D9;",
      "imageListing": "/sites/globe.com.ph/files/content/dam/globe/brie/AboutUs/newsroom/common/default-mobile-3/Newsroom-Total-Globe-Default-Images-Mobile-3-thumbnail-listing.jpg",
      "articleUrl": "https://www.globe.com.ph/about-us/newsroom/partners/kroma-calls-for-stronger-protection-intellectual-property-rights.html",
      "columnType": "articles--type-3",
      "typeListing": "article",
      "imageMobile": "/sites/globe.com.ph/files/content/dam/globe/brie/AboutUs/newsroom/common/default-mobile-3/Newsroom-Total-Globe-Default-Images-Mobile-3-primary-thumbnail-m.jpg",
      "imageDesktop": "/sites/globe.com.ph/files/content/dam/globe/brie/AboutUs/newsroom/common/default-mobile-3/Newsroom-Total-Globe-Default-Images-Mobile-3-primary-thumbnail-d.jpg",
      "description": "KROMA has taken a stand against piracy, pushing for passage of a bill that seeks to strengthen intellectual property protection such as site-blocking.",
      "datePosted": "May 12, 2023 | 02:44 PM",
      "titleFromTag": "Partners"
    },
    {
      "title": "Protecting Children’s Mental Health in the Digital Age: Globe’s #MakeITSafePH Cyber Safety Goes beyond Its Campaign Promise",
      "nonclickable": false,
      "openNewTab": false,
      "borderArticle": "border-color:#0074D9;",
      "borderTopArticle": "border-top-color:#0074D9;",
      "imageListing": "/sites/globe.com.ph/files/content/dam/globe/brie/AboutUs/newsroom/common/default-consumer-2/default-consumer-thumbnail-listing.jpg",
      "articleUrl": "https://www.globe.com.ph/about-us/newsroom/sustainability/protecting-childrens-mental-health-digital-age.html",
      "columnType": "articles--type-3",
      "typeListing": "article",
      "imageMobile": "/sites/globe.com.ph/files/content/dam/globe/brie/AboutUs/newsroom/common/default-consumer-2/default-consumer-primary-thumbnail-m.jpg",
      "imageDesktop": "/sites/globe.com.ph/files/content/dam/globe/brie/AboutUs/newsroom/common/default-consumer-2/default-consumer-primary-thumbnail-d.jpg",
      "description": "Globe’s #MakeITSafePH Cyber Safety campaign highlights how a simple tech-enabled cybersecurity and safety campaign evolved into a meaningful movement.",
      "datePosted": "May 12, 2023 | 11:27 AM",
      "titleFromTag": "Sustainability"
    },
    {
      "title": "Globe Renews Call to Institutionalize Streamlined Permitting Process for Telco Infra",
      "nonclickable": false,
      "openNewTab": false,
      "borderArticle": "border-color:#0074D9;",
      "borderTopArticle": "border-top-color:#0074D9;",
      "imageListing": "/sites/globe.com.ph/files/content/dam/globe/brie/AboutUs/newsroom/common/default-corporate-5/corp-thumbnail-listing.jpg",
      "articleUrl": "https://www.globe.com.ph/about-us/newsroom/corporate/institutionalize-streamlined-permitting-process-telco-infra.html",
      "columnType": "articles--type-3",
      "typeListing": "article",
      "imageMobile": "/sites/globe.com.ph/files/content/dam/globe/brie/AboutUs/newsroom/common/default-corporate-5/corp-primary-thumbnail-m.jpg",
      "imageDesktop": "/sites/globe.com.ph/files/content/dam/globe/brie/AboutUs/newsroom/common/default-corporate-5/corp-primary-thumbnail-d.jpg",
      "description": "Globe  has been a strong advocate for the extension of the Anti-Red Tape Authority's (ARTA) Joint Memorandum Circular (JMC).",
      "datePosted": "May 11, 2023 | 01:53 PM",
      "titleFromTag": "Corporate"
    }
  ]
}
