{
  "status": 200,
  "page": 250,
  "totalPage": 298,
  "range": "2989-3000",
  "total": 3573,
  "result": [
    {
      "title": "Taking It to the Streets: The 0917 Bloc Parade",
      "nonclickable": false,
      "openNewTab": false,
      "borderArticle": "border-color:#0074D9;",
      "borderTopArticle": "border-top-color:#0074D9;",
      "imageListing": "/sites/globe.com.ph/files/content/dam/globe/brie/AboutUs/newsroom/consumer/consumer-bloc-parade/consumer-bloc-parade-thumbnail-listing.jpg",
      "articleUrl": "https://www.globe.com.ph/about-us/newsroom/consumer/taking-it-to-the-streets.html",
      "columnType": "articles--type-3",
      "typeListing": "article",
      "imageMobile": "/sites/globe.com.ph/files/content/dam/globe/brie/AboutUs/newsroom/consumer/consumer-bloc-parade/consumer-bloc-parade-banner-m.jpg",
      "imageDesktop": "/sites/globe.com.ph/files/content/dam/globe/brie/AboutUs/newsroom/consumer/consumer-bloc-parade/consumer-bloc-parade-primary-thumbnail.jpg",
      "description": "Globe Lifestyle launches its latest collection for 0917 month-long celebration. Visit the Globe Newsroom for the latest news on Globe Telecom.",
      "datePosted": "Oct 11, 2017 | 04:00 PM",
      "titleFromTag": "Consumer"
    },
    {
      "title": "Globe MyBusiness, Globe Labs Host 'Integrate' Forum on New Digital Technologies",
      "nonclickable": false,
      "openNewTab": false,
      "borderArticle": "border-color:#0074D9;",
      "borderTopArticle": "border-top-color:#0074D9;",
      "imageListing": "/sites/globe.com.ph/files/content/dam/globe/brie/AboutUs/newsroom/consumer/consumer-globe-labs/consumer-globe-labs-thumbnail-listing.jpg",
      "articleUrl": "https://www.globe.com.ph/about-us/newsroom/consumer/globe-mybusiness-globe-labs.html",
      "columnType": "articles--type-3",
      "typeListing": "article",
      "imageMobile": "/sites/globe.com.ph/files/content/dam/globe/brie/AboutUs/newsroom/consumer/consumer-globe-labs/consumer-globe-labs-banner-m.jpg",
      "imageDesktop": "/sites/globe.com.ph/files/content/dam/globe/brie/AboutUs/newsroom/consumer/consumer-globe-labs/consumer-globe-labs-primary-thumbnail.jpg",
      "description": "Globe MyBusiness, Globe Labs host 'Integrate' forum on new digital technologies. Visit the Globe Newsroom for the latest news on Globe Telecom.",
      "datePosted": "Oct 09, 2017 | 04:01 PM",
      "titleFromTag": "Consumer"
    },
    {
      "title": "Globe Telecom’s Ernest Cu Among Most Powerful Telecom Execs Worldwide",
      "nonclickable": false,
      "openNewTab": false,
      "borderArticle": "border-color:#0074D9;",
      "borderTopArticle": "border-top-color:#0074D9;",
      "imageListing": "/sites/globe.com.ph/files/content/dam/globe/brie/AboutUs/newsroom/common/Corporate_Globe_Listing.jpg",
      "articleUrl": "https://www.globe.com.ph/about-us/newsroom/corporate/globe-ernest-cu.html",
      "columnType": "articles--type-3",
      "typeListing": "article",
      "imageMobile": "/sites/globe.com.ph/files/content/dam/globe/brie/AboutUs/newsroom/common/Corporate_Globe_Hero-Banner-Mobile.jpg",
      "imageDesktop": "/sites/globe.com.ph/files/content/dam/globe/brie/AboutUs/newsroom/common/Corporate_Globe_Primary-Desktop-Thumbnail.jpg",
      "description": "Globe Telecom’s Ernest Cu among most powerful telecom execs worldwide. Visit the Globe Newsroom for the latest news on Globe Telecom.",
      "datePosted": "Oct 06, 2017 | 08:12 PM",
      "titleFromTag": "Corporate"
    },
    {
      "title": "Globe Telecom: 80% of Postpaid Mobile Customers Prefer E-Billing",
      "nonclickable": false,
      "openNewTab": false,
      "borderArticle": "border-color:#0074D9;",
      "borderTopArticle": "border-top-color:#0074D9;",
      "imageListing": "/sites/globe.com.ph/files/content/dam/globe/brie/AboutUs/newsroom/common/Corporate_Globe_Listing.jpg",
      "articleUrl": "https://www.globe.com.ph/about-us/newsroom/corporate/globe-80-of-postpaid.html",
      "columnType": "articles--type-3",
      "typeListing": "article",
      "imageMobile": "/sites/globe.com.ph/files/content/dam/globe/brie/AboutUs/newsroom/common/Corporate_Globe_Hero-Banner-Mobile.jpg",
      "imageDesktop": "/sites/globe.com.ph/files/content/dam/globe/brie/AboutUs/newsroom/common/Corporate_Globe_Primary-Desktop-Thumbnail.jpg",
      "description": "Globe Telecom: 80% of postpaid mobile customers prefer e-billing. Visit the Globe Newsroom for the latest news on Globe Telecom.",
      "datePosted": "Oct 06, 2017 | 08:11 PM",
      "titleFromTag": "Corporate"
    },
    {
      "title": "Globe Expects 50% of Data Traffic to Come from LTE Network by Year-End",
      "nonclickable": false,
      "openNewTab": false,
      "borderArticle": "border-color:#0074D9;",
      "borderTopArticle": "border-top-color:#0074D9;",
      "imageListing": "/sites/globe.com.ph/files/content/dam/globe/brie/AboutUs/newsroom/common/Corporate_Globe_Listing.jpg",
      "articleUrl": "https://www.globe.com.ph/about-us/newsroom/corporate/globe-expects-50-percent-data-traffic-lte-network-year-end.html",
      "columnType": "articles--type-3",
      "typeListing": "article",
      "imageMobile": "/sites/globe.com.ph/files/content/dam/globe/brie/AboutUs/newsroom/common/Corporate_Globe_Hero-Banner-Mobile.jpg",
      "imageDesktop": "/sites/globe.com.ph/files/content/dam/globe/brie/AboutUs/newsroom/common/Corporate_Globe_Primary-Desktop-Thumbnail.jpg",
      "description": "Globe expects 50% of data traffic to come from LTE network by year-end. Visit the Globe Newsroom for the latest news on Globe Telecom.",
      "datePosted": "Oct 02, 2017 | 08:11 PM",
      "titleFromTag": "Corporate"
    },
    {
      "title": "How to Optimize Your WiFi at Home",
      "nonclickable": false,
      "openNewTab": false,
      "borderArticle": "border-color:#0074D9;",
      "borderTopArticle": "border-top-color:#0074D9;",
      "imageListing": "/sites/globe.com.ph/files/content/dam/globe/brie/AboutUs/newsroom/consumer/consumer-optimize-your-wifi/consumer-optimize-your-wifi-thumbnail-listing.jpg",
      "articleUrl": "https://www.globe.com.ph/about-us/newsroom/consumer/how-to-optimize-your-wifi-at-home.html",
      "columnType": "articles--type-3",
      "typeListing": "article",
      "imageMobile": "/sites/globe.com.ph/files/content/dam/globe/brie/AboutUs/newsroom/consumer/consumer-optimize-your-wifi/consumer-optimize-your-wifi-banner-m.jpg",
      "imageDesktop": "/sites/globe.com.ph/files/content/dam/globe/brie/AboutUs/newsroom/consumer/consumer-optimize-your-wifi/consumer-optimize-your-wifi-primary-thumbnail.jpg",
      "description": "How to Optimize Your WiFi at Home. Visit Globe Newsroom for the latest news on Globe Telecom.",
      "datePosted": "Oct 02, 2017 | 06:19 PM",
      "titleFromTag": "Consumer"
    },
    {
      "title": "Globe Business Helps Philippine Logistics Companies Maximize Reach via Digital Marketing and Big Data",
      "nonclickable": false,
      "openNewTab": false,
      "borderArticle": "border-color:#1C91C5;",
      "borderTopArticle": "border-top-color:#1C91C5;",
      "imageListing": "/sites/globe.com.ph/files/content/dam/globe/brie/AboutUs/newsroom/business/business-globe-logistics/business-globe-logistics-thumbnail-listing.jpg",
      "articleUrl": "https://www.globe.com.ph/about-us/newsroom/business/globe-business-helps-philippine-logistics.html",
      "columnType": "articles--type-3",
      "typeListing": "article",
      "imageMobile": "/sites/globe.com.ph/files/content/dam/globe/brie/AboutUs/newsroom/business/business-globe-logistics/business-globe-logistics-banner-m.jpg",
      "imageDesktop": "/sites/globe.com.ph/files/content/dam/globe/brie/AboutUs/newsroom/business/business-globe-logistics/business-globe-logistics-primary-thumbnail.jpg",
      "description": "Globe Business held the Logistics Industry Roadshow to educate logistics companies on digital marketing. Visit the Globe Newsroom for the latest news on Globe",
      "datePosted": "Oct 02, 2017 | 04:37 PM",
      "titleFromTag": "Business"
    },
    {
      "title": "Jollibee Partners with Globe Business to Expand its Express Delivery Service",
      "nonclickable": false,
      "openNewTab": false,
      "borderArticle": "border-color:#0074D9;",
      "borderTopArticle": "border-top-color:#0074D9;",
      "imageListing": "/sites/globe.com.ph/files/content/dam/globe/brie/AboutUs/newsroom/consumer/consumer-jollibee-partners/consumer-jollibee-partners-thumbnail-listing.jpg",
      "articleUrl": "https://www.globe.com.ph/about-us/newsroom/business/jollibee-partners-with-globe-business.html",
      "columnType": "articles--type-3",
      "typeListing": "article",
      "imageMobile": "/sites/globe.com.ph/files/content/dam/globe/brie/AboutUs/newsroom/consumer/consumer-jollibee-partners/consumer-jollibee-partners-banner-m.jpg",
      "imageDesktop": "/sites/globe.com.ph/files/content/dam/globe/brie/AboutUs/newsroom/consumer/consumer-jollibee-partners/consumer-jollibee-partners-primary-thumbnail.jpg",
      "description": "Jollibee Partners with Globe Business to Expand its Express Delivery Service. Visit Globe Newsroom for the latest news on Globe Telecom.",
      "datePosted": "Oct 02, 2017 | 12:26 PM",
      "titleFromTag": "Business"
    },
    {
      "title": "Jollibee Partners with Globe Business to Expand its Express Delivery Service",
      "nonclickable": false,
      "openNewTab": false,
      "borderArticle": "border-color:#0074D9;",
      "borderTopArticle": "border-top-color:#0074D9;",
      "imageListing": "/sites/globe.com.ph/files/content/dam/globe/brie/AboutUs/newsroom/consumer/consumer-jollibee-partners/consumer-jollibee-partners-thumbnail-listing.jpg",
      "articleUrl": "https://www.globe.com.ph/about-us/newsroom/consumer/jollibee-partners-with-globe-business.html",
      "columnType": "articles--type-3",
      "typeListing": "article",
      "imageMobile": "/sites/globe.com.ph/files/content/dam/globe/brie/AboutUs/newsroom/consumer/consumer-jollibee-partners/consumer-jollibee-partners-banner-m.jpg",
      "imageDesktop": "/sites/globe.com.ph/files/content/dam/globe/brie/AboutUs/newsroom/consumer/consumer-jollibee-partners/consumer-jollibee-partners-primary-thumbnail.jpg",
      "description": "Jollibee Partners with Globe Business to Expand its Express Delivery Service. Visit Globe Newsroom for the latest news on Globe Telecom.",
      "datePosted": "Oct 02, 2017 | 12:26 PM",
      "titleFromTag": "Consumer"
    },
    {
      "title": "Globe SEA-US Cable System: “A mark of excellence in service to the Filipinos”",
      "nonclickable": false,
      "openNewTab": false,
      "borderArticle": "border-color:#1C91C5;",
      "borderTopArticle": "border-top-color:#1C91C5;",
      "imageListing": "/sites/globe.com.ph/files/content/dam/globe/brie/AboutUs/newsroom/common/Corporate_Globe_Listing.jpg",
      "articleUrl": "https://www.globe.com.ph/about-us/newsroom/business/globe-sea-us-cable-system.html",
      "columnType": "articles--type-3",
      "typeListing": "article",
      "imageMobile": "/sites/globe.com.ph/files/content/dam/globe/brie/AboutUs/newsroom/common/Corporate_Globe_Hero-Banner-Mobile.jpg",
      "imageDesktop": "/sites/globe.com.ph/files/content/dam/globe/brie/AboutUs/newsroom/common/Corporate_Globe_Primary-Desktop-Thumbnail.jpg",
      "description": "Davao City Mayor Sara Duterte refers to the Globe SEA-US Cable System as “A mark of excellence in service to the Filipinos.” Visit the Newsroom for more.",
      "datePosted": "Sep 29, 2017 | 04:37 PM",
      "titleFromTag": "Business"
    },
    {
      "title": "Jollibee Partners with Globe Business to Expand its Express Delivery Service",
      "nonclickable": false,
      "openNewTab": false,
      "borderArticle": "border-color:#0074D9;",
      "borderTopArticle": "border-top-color:#0074D9;",
      "imageListing": "/sites/globe.com.ph/files/content/dam/globe/brie/AboutUs/newsroom/common/Corporate_Globe_Listing.jpg",
      "articleUrl": "https://www.globe.com.ph/about-us/newsroom/corporate/jollibee-to-expand-express-delivery.html",
      "columnType": "articles--type-3",
      "typeListing": "article",
      "imageMobile": "/sites/globe.com.ph/files/content/dam/globe/brie/AboutUs/newsroom/common/Corporate_Globe_Hero-Banner-Mobile.jpg",
      "imageDesktop": "/sites/globe.com.ph/files/content/dam/globe/brie/AboutUs/newsroom/common/Corporate_Globe_Primary-Desktop-Thumbnail.jpg",
      "description": "Jollibee Foods Corporation (JFC) recently signed with Globe Business to centralize its express delivery service.",
      "datePosted": "Sep 28, 2017 | 08:22 PM",
      "titleFromTag": "Corporate"
    },
    {
      "title": "Get New Globe At Home Plans with No Commitment, No Lock-up Period",
      "nonclickable": false,
      "openNewTab": false,
      "borderArticle": "border-color:#0074D9;",
      "borderTopArticle": "border-top-color:#0074D9;",
      "imageListing": "/sites/globe.com.ph/files/content/dam/globe/brie/AboutUs/newsroom/common/Corporate_Globe_Listing.jpg",
      "articleUrl": "https://www.globe.com.ph/about-us/newsroom/consumer/get-new-globe-at-home-plans.html",
      "columnType": "articles--type-3",
      "typeListing": "article",
      "imageMobile": "/sites/globe.com.ph/files/content/dam/globe/brie/AboutUs/newsroom/common/Corporate_Globe_Hero-Banner-Mobile.jpg",
      "imageDesktop": "/sites/globe.com.ph/files/content/dam/globe/brie/AboutUs/newsroom/common/Corporate_Globe_Primary-Desktop-Thumbnail.jpg",
      "description": "Get New Globe At Home Plans with No Commitment, No Lock-up Period. Visit Globe Newsroom for the latest news on Globe Telecom.",
      "datePosted": "Sep 27, 2017 | 09:22 AM",
      "titleFromTag": "Consumer"
    }
  ]
}
