{
  "status": 200,
  "page": 251,
  "totalPage": 298,
  "range": "3001-3012",
  "total": 3573,
  "result": [
    {
      "title": "Globe, Facebook Collaborate to Promote the Digital Thumbprint Program",
      "nonclickable": false,
      "openNewTab": false,
      "borderArticle": "border-color:#0074D9;",
      "borderTopArticle": "border-top-color:#0074D9;",
      "imageListing": "/sites/globe.com.ph/files/content/dam/globe/brie/AboutUs/newsroom/common/Corporate_Globe_Listing.jpg",
      "articleUrl": "https://www.globe.com.ph/about-us/newsroom/consumer/globe-facebook-collaborate.html",
      "columnType": "articles--type-3",
      "typeListing": "article",
      "imageMobile": "/sites/globe.com.ph/files/content/dam/globe/brie/AboutUs/newsroom/common/Corporate_Globe_Hero-Banner-Mobile.jpg",
      "imageDesktop": "/sites/globe.com.ph/files/content/dam/globe/brie/AboutUs/newsroom/common/Corporate_Globe_Primary-Desktop-Thumbnail.jpg",
      "description": "Globe, Facebook Collaborate to Promote the Digital Thumbprint Program. Visit Globe Newsroom for the latest news on Globe Telecom.",
      "datePosted": "Sep 25, 2017 | 11:57 AM",
      "titleFromTag": "Consumer"
    },
    {
      "title": "Globe Holds SEA-US Cable System Ceremonial Launch in Davao City",
      "nonclickable": false,
      "openNewTab": false,
      "borderArticle": "border-color:#0074D9;",
      "borderTopArticle": "border-top-color:#0074D9;",
      "imageListing": "/sites/globe.com.ph/files/content/dam/globe/brie/AboutUs/newsroom/business/business-sea-us-davao/business-sea-us-davao-thumbnail-listing.jpg",
      "articleUrl": "https://www.globe.com.ph/about-us/newsroom/business/globe-holds-sea-us-cable-system.html",
      "columnType": "articles--type-3",
      "typeListing": "article",
      "imageMobile": "/sites/globe.com.ph/files/content/dam/globe/brie/AboutUs/newsroom/business/business-sea-us-davao/business-sea-us-davao-banner-m.jpg",
      "imageDesktop": "/sites/globe.com.ph/files/content/dam/globe/brie/AboutUs/newsroom/business/business-sea-us-davao/business-sea-us-davao-primary-thumbnail.jpg",
      "description": "Globe Telecom held the ceremonial launch, led by PCOO Secretary Martin Andanar, for the $250m SEA-US submarine cable system. Visit the Newsroom for more.",
      "datePosted": "Sep 24, 2017 | 04:36 PM",
      "titleFromTag": "Business"
    },
    {
      "title": "GCash Scan to Pay Now Enabled in Mercato Centrale",
      "nonclickable": false,
      "openNewTab": false,
      "borderArticle": "border-color:#0074D9;",
      "borderTopArticle": "border-top-color:#0074D9;",
      "imageListing": "/sites/globe.com.ph/files/content/dam/globe/brie/AboutUs/newsroom/common/Corporate_Globe_Listing.jpg",
      "articleUrl": "https://www.globe.com.ph/about-us/newsroom/consumer/gcash-scan-to-pay-now-enabled.html",
      "columnType": "articles--type-3",
      "typeListing": "article",
      "imageMobile": "/sites/globe.com.ph/files/content/dam/globe/brie/AboutUs/newsroom/common/Corporate_Globe_Hero-Banner-Mobile.jpg",
      "imageDesktop": "/sites/globe.com.ph/files/content/dam/globe/brie/AboutUs/newsroom/common/Corporate_Globe_Primary-Desktop-Thumbnail.jpg",
      "description": "GCash Scan to Pay now enabled in Mercato Centrale. Visit the Globe Newsroom for the latest news on Globe Telecom.",
      "datePosted": "Sep 18, 2017 | 04:00 PM",
      "titleFromTag": "Consumer"
    },
    {
      "title": "Enjoy Exclusive Entertainment Privileges with Globe Rewards This September",
      "nonclickable": false,
      "openNewTab": false,
      "borderArticle": "border-color:#0074D9;",
      "borderTopArticle": "border-top-color:#0074D9;",
      "imageListing": "/sites/globe.com.ph/files/content/dam/globe/brie/AboutUs/newsroom/common/Corporate_Globe_Listing.jpg",
      "articleUrl": "https://www.globe.com.ph/about-us/newsroom/consumer/enjoy-exclusive-entertainment-privileges.html",
      "columnType": "articles--type-3",
      "typeListing": "article",
      "imageMobile": "/sites/globe.com.ph/files/content/dam/globe/brie/AboutUs/newsroom/common/Corporate_Globe_Hero-Banner-Mobile.jpg",
      "imageDesktop": "/sites/globe.com.ph/files/content/dam/globe/brie/AboutUs/newsroom/common/Corporate_Globe_Primary-Desktop-Thumbnail.jpg",
      "description": "Enjoy exclusive entertainment privileges with Globe Rewards this September. Visit the Globe Newsroom for the latest news on Globe Telecom.",
      "datePosted": "Sep 16, 2017 | 03:59 PM",
      "titleFromTag": "Consumer"
    },
    {
      "title": "Producers Savings Bank Signs up with Globe Business for G Suite",
      "nonclickable": false,
      "openNewTab": false,
      "borderArticle": "border-color:#0074D9;",
      "borderTopArticle": "border-top-color:#0074D9;",
      "imageListing": "/sites/globe.com.ph/files/content/dam/globe/brie/AboutUs/newsroom/common/Corporate_Globe_Listing.jpg",
      "articleUrl": "https://www.globe.com.ph/about-us/newsroom/corporate/producers-savings-bank-uses-g-suite.html",
      "columnType": "articles--type-3",
      "typeListing": "article",
      "imageMobile": "/sites/globe.com.ph/files/content/dam/globe/brie/AboutUs/newsroom/common/Corporate_Globe_Hero-Banner-Mobile.jpg",
      "imageDesktop": "/sites/globe.com.ph/files/content/dam/globe/brie/AboutUs/newsroom/common/Corporate_Globe_Primary-Desktop-Thumbnail.jpg",
      "description": "Aggressively growing banking & financial services company Producers Savings Banking Corporation (PSBC) is the first PH bank to sign up with Globe Business.",
      "datePosted": "Sep 14, 2017 | 08:23 PM",
      "titleFromTag": "Corporate"
    },
    {
      "title": "Globe myBusiness Cooks Up Restaurant Business Network to Boost Food Firms",
      "nonclickable": false,
      "openNewTab": false,
      "borderArticle": "border-color:#0074D9;",
      "borderTopArticle": "border-top-color:#0074D9;",
      "imageListing": "/sites/globe.com.ph/files/content/dam/globe/brie/AboutUs/newsroom/consumer/globe-mybusiness-cooks-up-restaurant-business-network/145_Thumbnail_Listing_288x170.jpg",
      "articleUrl": "https://www.globe.com.ph/about-us/newsroom/consumer/globe-mybusiness-cooks-up-restaurant-business-network.html",
      "columnType": "articles--type-3",
      "typeListing": "article",
      "imageMobile": "/sites/globe.com.ph/files/content/dam/globe/brie/AboutUs/newsroom/consumer/globe-mybusiness-cooks-up-restaurant-business-network/145_Hero-Banner_-320x360_M.jpg",
      "imageDesktop": "/sites/globe.com.ph/files/content/dam/globe/brie/AboutUs/newsroom/consumer/globe-mybusiness-cooks-up-restaurant-business-network/145_Primary-Desktop-Thumbnail_860x400.jpg",
      "description": "Globe myBusiness cooks up Restaurant Business Network to boost food firms. Visit the Globe Newsroom for the latest news on Globe Telecom.",
      "datePosted": "Sep 13, 2017 | 03:59 PM",
      "titleFromTag": "Consumer"
    },
    {
      "title": "Globe Thanks Customers with Exciting Surprises on 09.17",
      "nonclickable": false,
      "openNewTab": false,
      "borderArticle": "border-color:#0074D9;",
      "borderTopArticle": "border-top-color:#0074D9;",
      "imageListing": "/sites/globe.com.ph/files/content/dam/globe/brie/AboutUs/newsroom/consumer/consumer-globe-thanks-customers-with-exciting-09-17/144_Thumbnail_Listing_288x170.jpg",
      "articleUrl": "https://www.globe.com.ph/about-us/newsroom/consumer/globe-thanks-customers-with-exciting-09-17.html",
      "columnType": "articles--type-3",
      "typeListing": "article",
      "imageMobile": "/sites/globe.com.ph/files/content/dam/globe/brie/AboutUs/newsroom/consumer/consumer-globe-thanks-customers-with-exciting-09-17/144_Hero Banner_ 320x360_M.jpg",
      "imageDesktop": "/sites/globe.com.ph/files/content/dam/globe/brie/AboutUs/newsroom/consumer/consumer-globe-thanks-customers-with-exciting-09-17/144_Primary Desktop Thumbnail_860x400.jpg",
      "description": "Globe thanks customers with exciting surprises on 09.17. Visit the Globe Newsroom for the latest news on Globe Telecom.",
      "datePosted": "Sep 12, 2017 | 03:59 PM",
      "titleFromTag": "Consumer"
    },
    {
      "title": "Animated Video Competition Gives 'Hope in 40 Seconds'",
      "nonclickable": false,
      "openNewTab": false,
      "borderArticle": "border-color:#0074D9;",
      "borderTopArticle": "border-top-color:#0074D9;",
      "imageListing": "/sites/globe.com.ph/files/content/dam/globe/brie/AboutUs/newsroom/common/Corporate_Globe_Listing.jpg",
      "articleUrl": "https://www.globe.com.ph/about-us/newsroom/sustainability/animated-video-competition-gives-hope.html",
      "columnType": "articles--type-3",
      "typeListing": "article",
      "imageMobile": "/sites/globe.com.ph/files/content/dam/globe/brie/AboutUs/newsroom/common/Corporate_Globe_Hero-Banner-Mobile.jpg",
      "imageDesktop": "/sites/globe.com.ph/files/content/dam/globe/brie/AboutUs/newsroom/common/Corporate_Globe_Primary-Desktop-Thumbnail.jpg",
      "description": "Animated video competition gives “Hope in 40 seconds.\" Visit the Globe Newsroom for the latest news on Globe Telecom.",
      "datePosted": "Sep 08, 2017 | 04:51 PM",
      "titleFromTag": "Sustainability"
    },
    {
      "title": "Animated Video Competition Gives 'Hope in 40 Seconds'",
      "nonclickable": false,
      "openNewTab": false,
      "borderArticle": "border-color:#0074D9;",
      "borderTopArticle": "border-top-color:#0074D9;",
      "imageListing": "/sites/globe.com.ph/files/content/dam/globe/brie/AboutUs/newsroom/common/Corporate_Globe_Listing.jpg",
      "articleUrl": "https://www.globe.com.ph/about-us/newsroom/consumer/animated-video-competition-gives-hope.html",
      "columnType": "articles--type-3",
      "typeListing": "article",
      "imageMobile": "/sites/globe.com.ph/files/content/dam/globe/brie/AboutUs/newsroom/common/Corporate_Globe_Hero-Banner-Mobile.jpg",
      "imageDesktop": "/sites/globe.com.ph/files/content/dam/globe/brie/AboutUs/newsroom/common/Corporate_Globe_Primary-Desktop-Thumbnail.jpg",
      "description": "Animated video competition gives “Hope in 40 seconds\". Visit the Globe Newsroom for the latest news on Globe Telecom.",
      "datePosted": "Sep 08, 2017 | 03:58 PM",
      "titleFromTag": "Consumer"
    },
    {
      "title": "Globe Delivers on Commitment to Government to Improve Internet Services in PH",
      "nonclickable": false,
      "openNewTab": false,
      "borderArticle": "border-color:#0074D9;",
      "borderTopArticle": "border-top-color:#0074D9;",
      "imageListing": "/sites/globe.com.ph/files/content/dam/globe/brie/AboutUs/newsroom/common/Corporate_Globe_Listing.jpg",
      "articleUrl": "https://www.globe.com.ph/about-us/newsroom/consumer/globe-delivers-on-commitment.html",
      "columnType": "articles--type-3",
      "typeListing": "article",
      "imageMobile": "/sites/globe.com.ph/files/content/dam/globe/brie/AboutUs/newsroom/common/Corporate_Globe_Hero-Banner-Mobile.jpg",
      "imageDesktop": "/sites/globe.com.ph/files/content/dam/globe/brie/AboutUs/newsroom/common/Corporate_Globe_Primary-Desktop-Thumbnail.jpg",
      "description": "Globe delivers on its commitment to government to improve internet services in the Philippines. Visit the Globe Newsroom for the latest news on Globe Telecom.",
      "datePosted": "Sep 08, 2017 | 03:57 PM",
      "titleFromTag": "Consumer"
    },
    {
      "title": "TM Forum CEO Nik Willetts Keynotes Globe Innovation Forum",
      "nonclickable": false,
      "openNewTab": false,
      "borderArticle": "border-color:#0074D9;",
      "borderTopArticle": "border-top-color:#0074D9;",
      "imageListing": "/sites/globe.com.ph/files/content/dam/globe/brie/AboutUs/newsroom/business/business-tm-forum/business-tm-forum-thumbnail-listing.jpg",
      "articleUrl": "https://www.globe.com.ph/about-us/newsroom/business/tm-forum-ceo-nik-willetts-keynotes.html",
      "columnType": "articles--type-3",
      "typeListing": "article",
      "imageMobile": "/sites/globe.com.ph/files/content/dam/globe/brie/AboutUs/newsroom/business/business-tm-forum/business-tm-forum-banner-m.jpg",
      "imageDesktop": "/sites/globe.com.ph/files/content/dam/globe/brie/AboutUs/newsroom/business/business-tm-forum/business-tm-forum-primary-thumbnail.jpg",
      "description": "Willetts urges communication providers to leverage digitalization with Digital Ecosystem Enablement and Services Provisioning at the Globe Innovation Forum.",
      "datePosted": "Sep 07, 2017 | 04:36 PM",
      "titleFromTag": "Business"
    },
    {
      "title": "Globe Business Academy Offers Free Training for Aspiring Entrepreneurs",
      "nonclickable": false,
      "openNewTab": false,
      "borderArticle": "border-color:#0074D9;",
      "borderTopArticle": "border-top-color:#0074D9;",
      "imageListing": "/sites/globe.com.ph/files/content/dam/globe/brie/AboutUs/newsroom/consumer/consumer-globe-mybusiness-academy-offers/Consumer_Globe-myBusiness-Academy_Thumbnail-Listing.jpg",
      "articleUrl": "https://www.globe.com.ph/about-us/newsroom/consumer/globe-mybusiness-academy-offers-free-training-aspiring-entrepreneurs.html",
      "columnType": "articles--type-3",
      "typeListing": "article",
      "imageMobile": "/sites/globe.com.ph/files/content/dam/globe/brie/AboutUs/newsroom/consumer/consumer-globe-mybusiness-academy-offers/Consumer_Globe-myBusiness-Academy_Hero-Banner-M.jpg",
      "imageDesktop": "/sites/globe.com.ph/files/content/dam/globe/brie/AboutUs/newsroom/consumer/consumer-globe-mybusiness-academy-offers/Consumer_Globe-myBusiness-Academy_Primary-Thumbnail.jpg",
      "description": "Globe Business Academy offers free training for aspiring entrepreneurs. Visit the Globe Newsroom for the latest news on Globe Telecom.",
      "datePosted": "Sep 07, 2017 | 03:58 PM",
      "titleFromTag": "Consumer"
    }
  ]
}
