{
  "status": 200,
  "page": 252,
  "totalPage": 298,
  "range": "3013-3024",
  "total": 3573,
  "result": [
    {
      "title": "GCash App Becomes 1st Integrated Payments, Entertainment App in PH",
      "nonclickable": false,
      "openNewTab": false,
      "borderArticle": "border-color:#0074D9;",
      "borderTopArticle": "border-top-color:#0074D9;",
      "imageListing": "/sites/globe.com.ph/files/content/dam/globe/brie/AboutUs/newsroom/common/Corporate_Globe_Listing.jpg",
      "articleUrl": "https://www.globe.com.ph/about-us/newsroom/consumer/gcash-app-1st-integrated-payments-entertainment-app-philippines.html",
      "columnType": "articles--type-3",
      "typeListing": "article",
      "imageMobile": "/sites/globe.com.ph/files/content/dam/globe/brie/AboutUs/newsroom/common/Corporate_Globe_Hero-Banner-Mobile.jpg",
      "imageDesktop": "/sites/globe.com.ph/files/content/dam/globe/brie/AboutUs/newsroom/common/Corporate_Globe_Primary-Desktop-Thumbnail.jpg",
      "description": "GCash app becomes 1st integrated payments and entertainment app in PH with GMovies booking feature. Visit the Globe Newsroom for the latest news",
      "datePosted": "Sep 06, 2017 | 03:57 PM",
      "titleFromTag": "Consumer"
    },
    {
      "title": "Subsea Cable Systems Advisory",
      "nonclickable": false,
      "openNewTab": false,
      "borderArticle": "border-color:#0074D9;",
      "borderTopArticle": "border-top-color:#0074D9;",
      "imageListing": "/sites/globe.com.ph/files/content/dam/globe/brie/AboutUs/newsroom/common/Corporate_Globe_Listing.jpg",
      "articleUrl": "https://www.globe.com.ph/about-us/newsroom/corporate/subsea-cable-systems.html",
      "columnType": "articles--type-3",
      "typeListing": "article",
      "imageMobile": "/sites/globe.com.ph/files/content/dam/globe/brie/AboutUs/newsroom/common/Corporate_Globe_Primary-Desktop-Thumbnail.jpg",
      "imageDesktop": "/sites/globe.com.ph/files/content/dam/globe/brie/AboutUs/newsroom/common/Corporate_Globe_Primary-Desktop-Thumbnail.jpg",
      "description": "Globe has successfully rerouted data traffic that goes through the affected cable systems to other subsea cable capacity routes.  In so doing, the multiple subs",
      "datePosted": "Sep 04, 2017 | 08:23 PM",
      "titleFromTag": "Business"
    },
    {
      "title": "GoWiFi Powers Bulacan State University",
      "nonclickable": false,
      "openNewTab": false,
      "borderArticle": "border-color:#0074D9;",
      "borderTopArticle": "border-top-color:#0074D9;",
      "imageListing": "/sites/globe.com.ph/files/content/dam/globe/brie/AboutUs/newsroom/sustainability/Consumer_Go-WiFi-Powers/Consumer_Go-WiFi-Powers_Thumbnail-Listing.jpg",
      "articleUrl": "https://www.globe.com.ph/about-us/newsroom/sustainability/gowifi-powers-bulacan-state-university.html",
      "columnType": "articles--type-3",
      "typeListing": "article",
      "imageMobile": "/sites/globe.com.ph/files/content/dam/globe/brie/AboutUs/newsroom/sustainability/Consumer_Go-WiFi-Powers/Consumer_Go-WiFi-Powers_Hero-Banner-M.jpg",
      "imageDesktop": "/sites/globe.com.ph/files/content/dam/globe/brie/AboutUs/newsroom/sustainability/Consumer_Go-WiFi-Powers/Consumer_Go-WiFi-Powers_Primary-Thumbnail.jpg",
      "description": "GoWiFi powers Bulacan State University. Visit the Globe Newsroom for the latest news on Globe Telecom.",
      "datePosted": "Sep 04, 2017 | 04:51 PM",
      "titleFromTag": "Sustainability"
    },
    {
      "title": "Cloud-Based Platform to Outsource Everyday Tasks Wins Globe Hack-For-A-Nation",
      "nonclickable": false,
      "openNewTab": false,
      "borderArticle": "border-color:#0074D9;",
      "borderTopArticle": "border-top-color:#0074D9;",
      "imageListing": "/sites/globe.com.ph/files/content/dam/globe/brie/AboutUs/newsroom/common/Corporate_Globe_Listing.jpg",
      "articleUrl": "https://www.globe.com.ph/about-us/newsroom/consumer/cloud-based-platform-to-outsource.html",
      "columnType": "articles--type-3",
      "typeListing": "article",
      "imageMobile": "/sites/globe.com.ph/files/content/dam/globe/brie/AboutUs/newsroom/common/Corporate_Globe_Hero-Banner-Mobile.jpg",
      "imageDesktop": "/sites/globe.com.ph/files/content/dam/globe/brie/AboutUs/newsroom/common/Corporate_Globe_Primary-Desktop-Thumbnail.jpg",
      "description": "Cloud-based platform to outsource everyday tasks wins Globe Hack-for-a-Nation. Visit the Globe Newsroom for the latest news on Globe Telecom.",
      "datePosted": "Sep 04, 2017 | 03:56 PM",
      "titleFromTag": "Consumer"
    },
    {
      "title": "GoWiFi Powers Bulacan State University",
      "nonclickable": false,
      "openNewTab": false,
      "borderArticle": "border-color:#0074D9;",
      "borderTopArticle": "border-top-color:#0074D9;",
      "imageListing": "/sites/globe.com.ph/files/content/dam/globe/brie/AboutUs/newsroom/consumer/Consumer_Go-WiFi-Powers/Consumer_Go-WiFi-Powers_Thumbnail-Listing.jpg",
      "articleUrl": "https://www.globe.com.ph/about-us/newsroom/consumer/gowifi-powers-bulacan-state-university.html",
      "columnType": "articles--type-3",
      "typeListing": "article",
      "imageMobile": "/sites/globe.com.ph/files/content/dam/globe/brie/AboutUs/newsroom/consumer/Consumer_Go-WiFi-Powers/Consumer_Go-WiFi-Powers_Hero-Banner-M.jpg",
      "imageDesktop": "/sites/globe.com.ph/files/content/dam/globe/brie/AboutUs/newsroom/consumer/Consumer_Go-WiFi-Powers/Consumer_Go-WiFi-Powers_Primary-Thumbnail.jpg",
      "description": "GoWiFi powers Bulacan State University. Visit the Globe Newsroom for the latest news on Globe Telecom.",
      "datePosted": "Sep 04, 2017 | 03:56 PM",
      "titleFromTag": "Consumer"
    },
    {
      "title": "EMQ, GCash Partnership to Boost Remittance Services Across the Philippines",
      "nonclickable": false,
      "openNewTab": false,
      "borderArticle": "border-color:#0074D9;",
      "borderTopArticle": "border-top-color:#0074D9;",
      "imageListing": "/sites/globe.com.ph/files/content/dam/globe/brie/AboutUs/newsroom/common/Corporate_Globe_Listing.jpg",
      "articleUrl": "https://www.globe.com.ph/about-us/newsroom/consumer/emq-gcash-partnership.html",
      "columnType": "articles--type-3",
      "typeListing": "article",
      "imageMobile": "/sites/globe.com.ph/files/content/dam/globe/brie/AboutUs/newsroom/common/Corporate_Globe_Hero-Banner-Mobile.jpg",
      "imageDesktop": "/sites/globe.com.ph/files/content/dam/globe/brie/AboutUs/newsroom/common/Corporate_Globe_Primary-Desktop-Thumbnail.jpg",
      "description": "EMQ, GCash partnership to boost remittance services across the Philippines. Visit the Globe Newsroom for the latest news on Globe Telecom.",
      "datePosted": "Sep 04, 2017 | 03:56 PM",
      "titleFromTag": "Consumer"
    },
    {
      "title": "iVolunteer, Milktrack, The Spark Project, TULA, and Virtualahan Lead Globe Future Makers Program",
      "nonclickable": false,
      "openNewTab": false,
      "borderArticle": "border-color:#0074D9;",
      "borderTopArticle": "border-top-color:#0074D9;",
      "imageListing": "/sites/globe.com.ph/files/content/dam/globe/brie/AboutUs/newsroom/consumer/Consumer_iVolunteer/Consumer_iVolunteer_Thumbnail-Listing.jpg",
      "articleUrl": "https://www.globe.com.ph/about-us/newsroom/consumer/ivolunteer-milktrack-the-spark-project.html",
      "columnType": "articles--type-3",
      "typeListing": "article",
      "imageMobile": "/sites/globe.com.ph/files/content/dam/globe/brie/AboutUs/newsroom/consumer/Consumer_iVolunteer/Consumer_iVolunteer_Hero-Banner-M.jpg",
      "imageDesktop": "/sites/globe.com.ph/files/content/dam/globe/brie/AboutUs/newsroom/consumer/Consumer_iVolunteer/Consumer_iVolunteer_Primary-Thumbnail.jpg",
      "description": "iVolunteer, Milktrack, The Spark Project, TULA, and Virtualahan lead Globe Future Makers program. Visit the Globe Newsroom for the latest news on Globe Telecom.",
      "datePosted": "Aug 30, 2017 | 03:55 PM",
      "titleFromTag": "Consumer"
    },
    {
      "title": "Tell Your Story and Join Singtel’s The 5-Min Video Challenge",
      "nonclickable": false,
      "openNewTab": false,
      "borderArticle": "border-color:#1C91C5;",
      "borderTopArticle": "border-top-color:#1C91C5;",
      "imageListing": "/sites/globe.com.ph/files/content/dam/globe/brie/AboutUs/newsroom/consumer/Consumer_Tell-Your-Story/Consumer_Tell-Your-Story_Thumbnail-Listing.jpg",
      "articleUrl": "https://www.globe.com.ph/about-us/newsroom/consumer/tell-your-story-join-singtel-5-minute-video-challenge.html",
      "columnType": "articles--type-3",
      "typeListing": "article",
      "imageMobile": "/sites/globe.com.ph/files/content/dam/globe/brie/AboutUs/newsroom/consumer/Consumer_Tell-Your-Story/Consumer_Tell-Your-Story_Hero-Banner-M.jpg",
      "imageDesktop": "/sites/globe.com.ph/files/content/dam/globe/brie/AboutUs/newsroom/consumer/Consumer_Tell-Your-Story/Consumer_Tell-Your-Story_Primary-Thumbnail.jpg",
      "description": "Tell your story and join Singtel’s The 5-Min Video Challenge. Visit the Globe Newsroom for the latest news on Globe Telecom.",
      "datePosted": "Aug 26, 2017 | 03:53 PM",
      "titleFromTag": "Consumer"
    },
    {
      "title": "Globe Joins DENR’s Bike Plant Hike 2017 Reforestation Initiative",
      "nonclickable": false,
      "openNewTab": false,
      "borderArticle": "border-color:#1C91C5;",
      "borderTopArticle": "border-top-color:#1C91C5;",
      "imageListing": "/sites/globe.com.ph/files/content/dam/globe/brie/AboutUs/newsroom/consumer/Consumer_Globe-Joins-DENR/Consumer_Globe-Joins-DENR_Thumbnail-Listing.jpg",
      "articleUrl": "https://www.globe.com.ph/about-us/newsroom/consumer/globe-joins-denr-bike-plant.html",
      "columnType": "articles--type-3",
      "typeListing": "article",
      "imageMobile": "/sites/globe.com.ph/files/content/dam/globe/brie/AboutUs/newsroom/consumer/Consumer_Globe-Joins-DENR/Consumer_Globe-Joins-DENR_Hero-Banner-M.jpg",
      "imageDesktop": "/sites/globe.com.ph/files/content/dam/globe/brie/AboutUs/newsroom/consumer/Consumer_Globe-Joins-DENR/Consumer_Globe-Joins-DENR_Primary-Thumbnail.jpg",
      "description": "Globe joins DENR’s Bike Plant Hike 2017 reforestation initiative. Visit the Globe Newsroom for the latest news on Globe Telecom.",
      "datePosted": "Aug 25, 2017 | 03:54 PM",
      "titleFromTag": "Consumer"
    },
    {
      "title": "Globe Accelerates LTE Deployment in VisMin for Better Customer Experience",
      "nonclickable": false,
      "openNewTab": false,
      "borderArticle": "border-color:#0074D9;",
      "borderTopArticle": "border-top-color:#0074D9;",
      "imageListing": "/sites/globe.com.ph/files/content/dam/globe/brie/AboutUs/newsroom/common/Corporate_Globe_Listing.jpg",
      "articleUrl": "https://www.globe.com.ph/about-us/newsroom/corporate/globe-accelerates-lte-deployment.html",
      "columnType": "articles--type-3",
      "typeListing": "article",
      "imageMobile": "/sites/globe.com.ph/files/content/dam/globe/brie/AboutUs/newsroom/common/Corporate_Globe_Hero-Banner-Mobile.jpg",
      "imageDesktop": "/sites/globe.com.ph/files/content/dam/globe/brie/AboutUs/newsroom/common/Corporate_Globe_Primary-Desktop-Thumbnail.jpg",
      "description": "Globe accelerates LTE deployment in VisMin for better customer experience. Visit the Globe Newsroom for the latest news on Globe Telecom.",
      "datePosted": "Aug 24, 2017 | 08:11 PM",
      "titleFromTag": "Corporate"
    },
    {
      "title": "Globe Telecom Reaps Five Stevie Awards",
      "nonclickable": false,
      "openNewTab": false,
      "borderArticle": "border-color:#0074D9;",
      "borderTopArticle": "border-top-color:#0074D9;",
      "imageListing": "/sites/globe.com.ph/files/content/dam/globe/brie/AboutUs/newsroom/common/Corporate_Globe_Listing.jpg",
      "articleUrl": "https://www.globe.com.ph/about-us/newsroom/corporate/2017-stevie-awards.html",
      "columnType": "articles--type-3",
      "typeListing": "article",
      "imageMobile": "/sites/globe.com.ph/files/content/dam/globe/brie/AboutUs/newsroom/common/Corporate_Globe_Primary-Desktop-Thumbnail.jpg",
      "imageDesktop": "/sites/globe.com.ph/files/content/dam/globe/brie/AboutUs/newsroom/common/Corporate_Globe_Primary-Desktop-Thumbnail.jpg",
      "description": "Globe Telecom Reaps Five Stevie Awards. Visit Globe Newsroom for the latest news on Globe Telecom.",
      "datePosted": "Aug 18, 2017 | 08:23 PM",
      "titleFromTag": "Corporate"
    },
    {
      "title": "Globe Telecom Reaps 5 Stevie Awards",
      "nonclickable": false,
      "openNewTab": false,
      "borderArticle": "border-color:#0074D9;",
      "borderTopArticle": "border-top-color:#0074D9;",
      "imageListing": "/sites/globe.com.ph/files/content/dam/globe/brie/AboutUs/newsroom/common/Corporate_Globe_Listing.jpg",
      "articleUrl": "https://www.globe.com.ph/about-us/newsroom/corporate/globe-reaps-5-stevie-awards.html",
      "columnType": "articles--type-3",
      "typeListing": "article",
      "imageMobile": "/sites/globe.com.ph/files/content/dam/globe/brie/AboutUs/newsroom/common/Corporate_Globe_Hero-Banner-Mobile.jpg",
      "imageDesktop": "/sites/globe.com.ph/files/content/dam/globe/brie/AboutUs/newsroom/common/Corporate_Globe_Primary-Desktop-Thumbnail.jpg",
      "description": "Globe Telecom reaps five Stevie Awards. Visit the Globe Newsroom for the latest news on Globe Telecom.",
      "datePosted": "Aug 18, 2017 | 08:10 PM",
      "titleFromTag": "Corporate"
    }
  ]
}
