{
  "status": 200,
  "page": 253,
  "totalPage": 298,
  "range": "3025-3036",
  "total": 3573,
  "result": [
    {
      "title": "SEA-US Consortium Announces Commercial Operations of USD250 Million State-of-the-Art Undersea Cable System",
      "nonclickable": false,
      "openNewTab": false,
      "borderArticle": "border-color:#1C91C5;",
      "borderTopArticle": "border-top-color:#1C91C5;",
      "imageListing": "/sites/globe.com.ph/files/content/dam/globe/brie/AboutUs/newsroom/common/Corporate_Globe_Listing.jpg",
      "articleUrl": "https://www.globe.com.ph/about-us/newsroom/business/sea-us-cable-system-in-commercial-operations.html",
      "columnType": "articles--type-3",
      "typeListing": "article",
      "imageMobile": "/sites/globe.com.ph/files/content/dam/globe/brie/AboutUs/newsroom/common/Corporate_Globe_Hero-Banner-Mobile.jpg",
      "imageDesktop": "/sites/globe.com.ph/files/content/dam/globe/brie/AboutUs/newsroom/common/Corporate_Globe_Primary-Desktop-Thumbnail.jpg",
      "description": "The $250 million submarine fiber Southeast Asia-United States cable system for faster data transmission and greater network resiliency is now fully operational.",
      "datePosted": "Aug 17, 2017 | 04:39 PM",
      "titleFromTag": "Business"
    },
    {
      "title": "Optimizing Your Business with Digital Solutions: The DIGITS Trading Corporation Success Story",
      "nonclickable": false,
      "openNewTab": false,
      "borderArticle": "border-color:#0074D9;",
      "borderTopArticle": "border-top-color:#0074D9;",
      "imageListing": "/sites/globe.com.ph/files/content/dam/globe/brie/AboutUs/newsroom/business/business-optimizing-your/business-optimizing-your-thumbnail-listing.jpg",
      "articleUrl": "https://www.globe.com.ph/about-us/newsroom/business/optimizing-your-business-with-digital-solutions.html",
      "columnType": "articles--type-3",
      "typeListing": "article",
      "imageMobile": "/sites/globe.com.ph/files/content/dam/globe/brie/AboutUs/newsroom/business/business-optimizing-your/business-optimizing-your-banner-m.jpg",
      "imageDesktop": "/sites/globe.com.ph/files/content/dam/globe/brie/AboutUs/newsroom/business/business-optimizing-your/business-optimizing-your-primary-thumbnail.jpg",
      "description": "DIGITS Trading Corporation has transformed from a computer shop to one of the most successful tech giants in the Philippines with the right business solutions.",
      "datePosted": "Aug 16, 2017 | 04:35 PM",
      "titleFromTag": "Business"
    },
    {
      "title": "Globe At Home Shares Commitment to Connecting Filipino Homes at APOStech Conference",
      "nonclickable": false,
      "openNewTab": false,
      "borderArticle": "border-color:#0074D9;",
      "borderTopArticle": "border-top-color:#0074D9;",
      "imageListing": "/sites/globe.com.ph/files/content/dam/globe/brie/AboutUs/newsroom/consumer/Consumer_Globe-At-Home-Shares/Consumer_Globe-At-Home-Shares_Thumbnail-Listing.jpg",
      "articleUrl": "https://www.globe.com.ph/about-us/newsroom/consumer/globe-at-home-shares-commitment.html",
      "columnType": "articles--type-3",
      "typeListing": "article",
      "imageMobile": "/sites/globe.com.ph/files/content/dam/globe/brie/AboutUs/newsroom/consumer/Consumer_Globe-At-Home-Shares/Consumer_Globe-At-Home-Shares_Hero-Banner-M.jpg",
      "imageDesktop": "/sites/globe.com.ph/files/content/dam/globe/brie/AboutUs/newsroom/consumer/Consumer_Globe-At-Home-Shares/Consumer_Globe-At-Home-Shares_Primary-Thumbnail.jpg",
      "description": "Globe At Home shares commitment to connecting Filipino homes at APOStech Conference. Visit the Globe Newsroom for the latest news on Globe Telecom.",
      "datePosted": "Aug 16, 2017 | 03:54 PM",
      "titleFromTag": "Business"
    },
    {
      "title": "GMovies Partners with Pista ng Pelikulang Pilipino",
      "nonclickable": false,
      "openNewTab": false,
      "borderArticle": "border-color:#0074D9;",
      "borderTopArticle": "border-top-color:#0074D9;",
      "imageListing": "/sites/globe.com.ph/files/content/dam/globe/brie/AboutUs/newsroom/common/Corporate_Globe_Listing.jpg",
      "articleUrl": "https://www.globe.com.ph/about-us/newsroom/consumer/gmovies-partners-with-pista-ng-pelikulang-pilipino.html",
      "columnType": "articles--type-3",
      "typeListing": "article",
      "imageMobile": "/sites/globe.com.ph/files/content/dam/globe/brie/AboutUs/newsroom/common/Corporate_Globe_Hero-Banner-Mobile.jpg",
      "imageDesktop": "/sites/globe.com.ph/files/content/dam/globe/brie/AboutUs/newsroom/common/Corporate_Globe_Primary-Desktop-Thumbnail.jpg",
      "description": "GMovies partners with Pista ng Pelikulang Pilipino. Visit the Globe Newsroom for the latest news on Globe Telecom.",
      "datePosted": "Aug 15, 2017 | 03:55 PM",
      "titleFromTag": "Consumer"
    },
    {
      "title": "Globe Commercially Launches SEA-US Cable System; Connects Davao to U.S. for Enhanced Philippine Internet Connectivity",
      "nonclickable": false,
      "openNewTab": false,
      "borderArticle": "border-color:#0074D9;",
      "borderTopArticle": "border-top-color:#0074D9;",
      "imageListing": "/sites/globe.com.ph/files/content/dam/globe/brie/AboutUs/newsroom/common/Corporate_Globe_Listing.jpg",
      "articleUrl": "https://www.globe.com.ph/about-us/newsroom/corporate/sea-us-cable-system-connects-davao-to-us.html",
      "columnType": "articles--type-3",
      "typeListing": "article",
      "imageMobile": "/sites/globe.com.ph/files/content/dam/globe/brie/AboutUs/newsroom/common/Corporate_Globe_Primary-Desktop-Thumbnail.jpg",
      "imageDesktop": "/sites/globe.com.ph/files/content/dam/globe/brie/AboutUs/newsroom/common/Corporate_Globe_Primary-Desktop-Thumbnail.jpg",
      "description": "Globe commercially launched the Southeast Asia-United States submarine cable system which directly links Davao & US for enhanced international connectivity.",
      "datePosted": "Aug 11, 2017 | 02:27 PM",
      "titleFromTag": "Business"
    },
    {
      "title": "Globe Art Gallery Features Hans Brumann’s “Variations in Mother of Pearl”",
      "nonclickable": false,
      "openNewTab": false,
      "borderArticle": "border-color:#0074D9;",
      "borderTopArticle": "border-top-color:#0074D9;",
      "imageListing": "/sites/globe.com.ph/files/content/dam/globe/brie/AboutUs/newsroom/consumer/Consumer_Globe-Art-Gallery/Consumer_Globe-Art-Gallery_Thumbnail-Listingjpg.jpg",
      "articleUrl": "https://www.globe.com.ph/about-us/newsroom/consumer/globe-art-gallery-features-hans-brumann.html",
      "columnType": "articles--type-3",
      "typeListing": "article",
      "imageMobile": "/sites/globe.com.ph/files/content/dam/globe/brie/AboutUs/newsroom/consumer/Consumer_Globe-Art-Gallery/Consumer_Globe-Art-Gallery_Hero-Banner-M.jpg",
      "imageDesktop": "/sites/globe.com.ph/files/content/dam/globe/brie/AboutUs/newsroom/consumer/Consumer_Globe-Art-Gallery/Consumer_Globe-Art-Galler_Hero-Banner-D.jpg",
      "description": "Globe Art Gallery Features Hans Brumann’s “Variations in Mother of Pearl.” Visit Globe Newsroom for the latest news on Globe Telecom.",
      "datePosted": "Aug 11, 2017 | 01:37 PM",
      "titleFromTag": "Consumer"
    },
    {
      "title": "Have a Doctor Available Via Phone Or At Your Doorstep with KonsultaMD, AIDE Partnership",
      "nonclickable": false,
      "openNewTab": false,
      "borderArticle": "border-color:#0074D9;",
      "borderTopArticle": "border-top-color:#0074D9;",
      "imageListing": "/sites/globe.com.ph/files/content/dam/globe/brie/AboutUs/newsroom/consumer/Consumer_Have-A-Doctor/Consumer_Have-A-Doctor_Thumbnail-Listing.jpg",
      "articleUrl": "https://www.globe.com.ph/about-us/newsroom/consumer/have-a-doctor-available-via-phone.html",
      "columnType": "articles--type-3",
      "typeListing": "article",
      "imageMobile": "/sites/globe.com.ph/files/content/dam/globe/brie/AboutUs/newsroom/consumer/Consumer_Have-A-Doctor/Consumer_Have-A-Doctor_Hero-Banner-M.jpg",
      "imageDesktop": "/sites/globe.com.ph/files/content/dam/globe/brie/AboutUs/newsroom/consumer/Consumer_Have-A-Doctor/Consumer_Have-A-Doctor_Primary-Thumbnail.jpg",
      "description": "Have a doctor available via phone or at your doorstep with KonsultaMD, AIDE partnership. Visit the Globe Newsroom for the latest news on Globe Telecom.",
      "datePosted": "Aug 08, 2017 | 03:54 PM",
      "titleFromTag": "Consumer"
    },
    {
      "title": "GCash Launches GoPay, Philippines’ 1st Mobile Money QR Payment",
      "nonclickable": false,
      "openNewTab": false,
      "borderArticle": "border-color:#0074D9;",
      "borderTopArticle": "border-top-color:#0074D9;",
      "imageListing": "/sites/globe.com.ph/files/content/dam/globe/brie/AboutUs/newsroom/consumer/Consumer_GCash-Launches/Consumer_GCash-Launches_Thumbnail-Listing.jpg",
      "articleUrl": "https://www.globe.com.ph/about-us/newsroom/consumer/gcash-launches-gopay.html",
      "columnType": "articles--type-3",
      "typeListing": "article",
      "imageMobile": "/sites/globe.com.ph/files/content/dam/globe/brie/AboutUs/newsroom/consumer/Consumer_GCash-Launches/Consumer_GCash-Launches_Banner-M.jpg",
      "imageDesktop": "/sites/globe.com.ph/files/content/dam/globe/brie/AboutUs/newsroom/consumer/Consumer_GCash-Launches/Consumer_GCash-Launches_Primary-Thumbnail.jpg",
      "description": "GCash Launches GoPay, Philippines’ 1st Mobile Money QR Payment. Visit Globe Newsroom for the latest news on Globe Telecom.",
      "datePosted": "Aug 05, 2017 | 06:52 PM",
      "titleFromTag": "Consumer"
    },
    {
      "title": "Globe Telecom Certifies 25 Public School Teachers in Batanes as Digital Thumbprint Program Ambassadors",
      "nonclickable": false,
      "openNewTab": false,
      "borderArticle": "border-color:#0074D9;",
      "borderTopArticle": "border-top-color:#0074D9;",
      "imageListing": "/sites/globe.com.ph/files/content/dam/globe/brie/AboutUs/newsroom/common/Corporate_Globe_Listing.jpg",
      "articleUrl": "https://www.globe.com.ph/about-us/newsroom/consumer/globe-certifies-25-public-school-teachers-batanes.html",
      "columnType": "articles--type-3",
      "typeListing": "article",
      "imageMobile": "/sites/globe.com.ph/files/content/dam/globe/brie/AboutUs/newsroom/common/Corporate_Globe_Hero-Banner-Mobile.jpg",
      "imageDesktop": "/sites/globe.com.ph/files/content/dam/globe/brie/AboutUs/newsroom/common/Corporate_Globe_Primary-Desktop-Thumbnail.jpg",
      "description": "Globe Telecom Certifies 25 Public School Teachers in Batanes as Digital Thumbprint Program Ambassadors. Visit Globe Newsroom for the latest news",
      "datePosted": "Aug 04, 2017 | 04:41 PM",
      "titleFromTag": "Consumer"
    },
    {
      "title": "Davao City Mayor Sara Duterte-Carpio Praises Globe SEA-US Cable System",
      "nonclickable": false,
      "openNewTab": false,
      "borderArticle": "border-color:#0074D9;",
      "borderTopArticle": "border-top-color:#0074D9;",
      "imageListing": "/sites/globe.com.ph/files/content/dam/globe/brie/AboutUs/newsroom/consumer/Consumer_IBPAP/Consumer_IBPAP_Thumbnail-Listing.jpg",
      "articleUrl": "https://www.globe.com.ph/about-us/newsroom/business/mayor-sara-duterte-praises-globe-sea-us-cable-system.html",
      "columnType": "articles--type-3",
      "typeListing": "article",
      "imageMobile": "/sites/globe.com.ph/files/content/dam/globe/brie/AboutUs/newsroom/consumer/Consumer_IBPAP/Consumer_IBPAP_Banner-M.jpg",
      "imageDesktop": "/sites/globe.com.ph/files/content/dam/globe/brie/AboutUs/newsroom/consumer/Consumer_IBPAP/Consumer_IBPAP_Primary-Thumbnail.jpg",
      "description": "Mayor Sara Duterte-Carpio has acknowledged the Globe South East Asia-US Cable System as \"A mark of excellence in service to Filipinos\". Learn more here.",
      "datePosted": "Aug 02, 2017 | 01:21 PM",
      "titleFromTag": "Business"
    },
    {
      "title": "Globe Business Helps Corporations Transform into Customer-Centric Enterprises Through ICT",
      "nonclickable": false,
      "openNewTab": false,
      "borderArticle": "border-color:#1C91C5;",
      "borderTopArticle": "border-top-color:#1C91C5;",
      "imageListing": "/sites/globe.com.ph/files/content/dam/globe/brie/AboutUs/newsroom/business/partners-customer-centric-enterprises/partners-customer-centric-enterprises-thumbnail-listing.jpg",
      "articleUrl": "https://www.globe.com.ph/about-us/newsroom/partners/globe-business-helps-corporations-transform.html",
      "columnType": "articles--type-3",
      "typeListing": "article",
      "imageMobile": "/sites/globe.com.ph/files/content/dam/globe/brie/AboutUs/newsroom/business/partners-customer-centric-enterprises/partners-customer-centric-enterprises-banner-m.jpg",
      "imageDesktop": "/sites/globe.com.ph/files/content/dam/globe/brie/AboutUs/newsroom/business/partners-customer-centric-enterprises/partners-customer-centric-enterprises-primary-thumbnail.jpg",
      "description": "Globe Business helps corporations transform into customer-centric enterprises through ICT. Visit the Globe Newsroom for the latest news on Globe Telecom.",
      "datePosted": "Aug 01, 2017 | 04:41 PM",
      "titleFromTag": "Partners"
    },
    {
      "title": "Globe Advocates Bike Commuting to Reduce Carbon Footprint",
      "nonclickable": false,
      "openNewTab": false,
      "borderArticle": "border-color:#0074D9;",
      "borderTopArticle": "border-top-color:#0074D9;",
      "imageListing": "/sites/globe.com.ph/files/content/dam/globe/brie/AboutUs/newsroom/sustainability/sustainability-globe-bike-commuting/sustainability-globe-bike-commuting-thumbnail-listing.jpg",
      "articleUrl": "https://www.globe.com.ph/about-us/newsroom/sustainability/globe-advocates-bike-commuting-reduce-carbon-footprint.html",
      "columnType": "articles--type-3",
      "typeListing": "article",
      "imageMobile": "/sites/globe.com.ph/files/content/dam/globe/brie/AboutUs/newsroom/sustainability/sustainability-globe-bike-commuting/sustainability-globe-bike-commuting-banner-m.jpg",
      "imageDesktop": "/sites/globe.com.ph/files/content/dam/globe/brie/AboutUs/newsroom/sustainability/sustainability-globe-bike-commuting/sustainability-globe-bike-commuting-primary-thumbnail.jpg",
      "description": "Bike2Globe launched a forum on bike and road safety for Globe employees with booths on bicycle merch, survival kit products, and a Project1Phone eWaste bin.",
      "datePosted": "Jul 31, 2017 | 04:48 PM",
      "titleFromTag": "Sustainability"
    }
  ]
}
