{
  "status": 200,
  "page": 254,
  "totalPage": 298,
  "range": "3037-3048",
  "total": 3573,
  "result": [
    {
      "title": "YouTube Creator Jayden Rodrigues Joins Globe’s Digital Thumbprint Program",
      "nonclickable": false,
      "openNewTab": false,
      "borderArticle": "border-color:#0074D9;",
      "borderTopArticle": "border-top-color:#0074D9;",
      "imageListing": "/sites/globe.com.ph/files/content/dam/globe/brie/AboutUs/newsroom/consumer/Consumer_YouTube/Consumer_YouTube_Thumbnail-Listing.jpg",
      "articleUrl": "https://www.globe.com.ph/about-us/newsroom/consumer/youtube-creator-jayden-rodrigues-joins-globe-digital-thumbprint-program.html",
      "columnType": "articles--type-3",
      "typeListing": "article",
      "imageMobile": "/sites/globe.com.ph/files/content/dam/globe/brie/AboutUs/newsroom/consumer/Consumer_YouTube/Consumer_YouTube_Banner-M.jpg",
      "imageDesktop": "/sites/globe.com.ph/files/content/dam/globe/brie/AboutUs/newsroom/consumer/Consumer_YouTube/Consumer_YouTube_Primary-Thumbnail.jpg",
      "description": "YouTube Creator Jayden Rodrigues Joins Globe’s Digital Thumbprint Program. Visit Globe Newsroom for the latest news on Globe Telecom.",
      "datePosted": "Jul 29, 2017 | 10:38 AM",
      "titleFromTag": "Consumer"
    },
    {
      "title": "Here's Your Chance to Catch The Chainsmokers Live in Manila",
      "nonclickable": false,
      "openNewTab": false,
      "borderArticle": "border-color:#0074D9;",
      "borderTopArticle": "border-top-color:#0074D9;",
      "imageListing": "/sites/globe.com.ph/files/content/dam/globe/brie/AboutUs/newsroom/common/Corporate_Globe_Listing.jpg",
      "articleUrl": "https://www.globe.com.ph/about-us/newsroom/consumer/catch-the-chainsmokers-live-in-manila.html",
      "columnType": "articles--type-3",
      "typeListing": "article",
      "imageMobile": "/sites/globe.com.ph/files/content/dam/globe/brie/AboutUs/newsroom/common/Corporate_Globe_Hero-Banner-Mobile.jpg",
      "imageDesktop": "/sites/globe.com.ph/files/content/dam/globe/brie/AboutUs/newsroom/common/Corporate_Globe_Primary-Desktop-Thumbnail.jpg",
      "description": "Here's Your Chance to Catch The Chainsmokers Live in Manila. Visit Globe Newsroom for the latest news on Globe Telecom.",
      "datePosted": "Jul 28, 2017 | 04:59 PM",
      "titleFromTag": "Consumer"
    },
    {
      "title": "GoWiFi Introduces 3-Day Free Trial of GoWiFi Auto",
      "nonclickable": false,
      "openNewTab": false,
      "borderArticle": "border-color:#0074D9;",
      "borderTopArticle": "border-top-color:#0074D9;",
      "imageListing": "/sites/globe.com.ph/files/content/dam/globe/brie/AboutUs/newsroom/common/Corporate_Globe_Listing.jpg",
      "articleUrl": "https://www.globe.com.ph/about-us/newsroom/consumer/gowifi-introduces-3-day-free-trial.html",
      "columnType": "articles--type-3",
      "typeListing": "article",
      "imageMobile": "/sites/globe.com.ph/files/content/dam/globe/brie/AboutUs/newsroom/common/Corporate_Globe_Hero-Banner-Mobile.jpg",
      "imageDesktop": "/sites/globe.com.ph/files/content/dam/globe/brie/AboutUs/newsroom/common/Corporate_Globe_Primary-Desktop-Thumbnail.jpg",
      "description": "GoWiFi Introduces 3-Day Free Trial of GoWiFi Auto. Visit Globe Newsroom for the latest news on Globe Telecom.",
      "datePosted": "Jul 28, 2017 | 04:39 PM",
      "titleFromTag": "Consumer"
    },
    {
      "title": "7 Things To Look Out For in Disney's Newsies",
      "nonclickable": false,
      "openNewTab": false,
      "borderArticle": "border-color:#0074D9;",
      "borderTopArticle": "border-top-color:#0074D9;",
      "imageListing": "/sites/globe.com.ph/files/content/dam/globe/brie/AboutUs/newsroom/consumer/Consumer_7-Things/Consumer_7-Things_Thumbnail-Listing.jpg",
      "articleUrl": "https://www.globe.com.ph/about-us/newsroom/consumer/disney-newsies.html",
      "columnType": "articles--type-3",
      "typeListing": "article",
      "imageMobile": "/sites/globe.com.ph/files/content/dam/globe/brie/AboutUs/newsroom/consumer/Consumer_7-Things/Consumer_7-Things_Banner-M.jpg",
      "imageDesktop": "/sites/globe.com.ph/files/content/dam/globe/brie/AboutUs/newsroom/consumer/Consumer_7-Things/Consumer_7-Things_Primary-Thumbnail.jpg",
      "description": "7 Things To Look Out For in Disney's Newsies. Visit the Globe Newsroom for the latest news on Globe Telecom.",
      "datePosted": "Jul 27, 2017 | 03:23 PM",
      "titleFromTag": "Consumer"
    },
    {
      "title": "Globe Provides Relief Assistance to Leyte and Ormoc Earthquake Victims",
      "nonclickable": false,
      "openNewTab": false,
      "borderArticle": "border-color:#0074D9;",
      "borderTopArticle": "border-top-color:#0074D9;",
      "imageListing": "/sites/globe.com.ph/files/content/dam/globe/brie/AboutUs/newsroom/consumer/Consumer_Globe-Provides/Consumer_Globe-Provides_Thumbnail-Listing.jpg",
      "articleUrl": "https://www.globe.com.ph/about-us/newsroom/consumer/globe-provides-relief-assistance.html",
      "columnType": "articles--type-3",
      "typeListing": "article",
      "imageMobile": "/sites/globe.com.ph/files/content/dam/globe/brie/AboutUs/newsroom/consumer/Consumer_Globe-Provides/Consumer_Globe-Provides_Banner-M.jpg",
      "imageDesktop": "/sites/globe.com.ph/files/content/dam/globe/brie/AboutUs/newsroom/consumer/Consumer_Globe-Provides/Consumer_Globe-Provides_Primary-Thumbnail.jpg",
      "description": "Globe Telecom has provided relief assistance to earthquake victims in Leyte and Ormoc. Visit the Globe Newsroom for the latest news on Globe Telecom.",
      "datePosted": "Jul 27, 2017 | 03:22 PM",
      "titleFromTag": "Consumer"
    },
    {
      "title": "Globe Business Powers Unilab with Mobility and Managed Connectivity Solutions",
      "nonclickable": false,
      "openNewTab": false,
      "borderArticle": "border-color:#0074D9;",
      "borderTopArticle": "border-top-color:#0074D9;",
      "imageListing": "/sites/globe.com.ph/files/content/dam/globe/brie/AboutUs/newsroom/common/Corporate_Globe_Listing.jpg",
      "articleUrl": "https://www.globe.com.ph/about-us/newsroom/corporate/mobility-managed-connectivity-unilab.html",
      "columnType": "articles--type-3",
      "typeListing": "article",
      "imageMobile": "/sites/globe.com.ph/files/content/dam/globe/brie/AboutUs/newsroom/common/Corporate_Globe_Primary-Desktop-Thumbnail.jpg",
      "imageDesktop": "/sites/globe.com.ph/files/content/dam/globe/brie/AboutUs/newsroom/common/Corporate_Globe_Primary-Desktop-Thumbnail.jpg",
      "description": "Globe Business Powers Unilab with Mobility and Managed Connectivity Solutions. Visit Globe Newsroom for the latest news on Globe Telecom.",
      "datePosted": "Jul 25, 2017 | 08:24 PM",
      "titleFromTag": "Business"
    },
    {
      "title": "Davao del Norte Partners with Globe, GCash on Revenue Collection and Citizen ID System",
      "nonclickable": false,
      "openNewTab": false,
      "borderArticle": "border-color:#0074D9;",
      "borderTopArticle": "border-top-color:#0074D9;",
      "imageListing": "/sites/globe.com.ph/files/content/dam/globe/brie/AboutUs/newsroom/business/business-davao-del-norte/business-davao-del-norte-thumbnail-listing.jpg",
      "articleUrl": "https://www.globe.com.ph/about-us/newsroom/business/davao-del-norte-partners-with-globe.html",
      "columnType": "articles--type-3",
      "typeListing": "article",
      "imageMobile": "/sites/globe.com.ph/files/content/dam/globe/brie/AboutUs/newsroom/business/business-davao-del-norte/business-davao-del-norte-banner-m.jpg",
      "imageDesktop": "/sites/globe.com.ph/files/content/dam/globe/brie/AboutUs/newsroom/business/business-davao-del-norte/business-davao-del-norte-primary-thumbnail.jpg",
      "description": "Davao del Norte partners with Globe and GCash on Revenue Collection and Citizen ID System. Visit the Globe Newsroom for latest news on Globe Telecom.",
      "datePosted": "Jul 24, 2017 | 04:35 PM",
      "titleFromTag": "Business"
    },
    {
      "title": "More Families Can Now Enjoy Free YouTube in Makati",
      "nonclickable": false,
      "openNewTab": false,
      "borderArticle": "border-color:#0074D9;",
      "borderTopArticle": "border-top-color:#0074D9;",
      "imageListing": "/sites/globe.com.ph/files/content/dam/globe/brie/AboutUs/newsroom/common/Corporate_Globe_Listing.jpg",
      "articleUrl": "https://www.globe.com.ph/about-us/newsroom/consumer/enjoy-free-youtube-makati.html",
      "columnType": "articles--type-3",
      "typeListing": "article",
      "imageMobile": "/sites/globe.com.ph/files/content/dam/globe/brie/AboutUs/newsroom/common/Corporate_Globe_Hero-Banner-Mobile.jpg",
      "imageDesktop": "/sites/globe.com.ph/files/content/dam/globe/brie/AboutUs/newsroom/common/Corporate_Globe_Primary-Desktop-Thumbnail.jpg",
      "description": "More families can now enjoy free YouTube in Makati. Visit the Globe Newsroom for the latest news on Globe Telecom.",
      "datePosted": "Jul 24, 2017 | 03:23 PM",
      "titleFromTag": "Consumer"
    },
    {
      "title": "Globe Launches TM Sports Para sa Bayan 2017 for Underprivileged Youth",
      "nonclickable": false,
      "openNewTab": false,
      "borderArticle": "border-color:#0074D9;",
      "borderTopArticle": "border-top-color:#0074D9;",
      "imageListing": "/sites/globe.com.ph/files/content/dam/globe/brie/AboutUs/newsroom/consumer/Consumer_Globe-Launches-Sports/Consumer_Globe-Launches-Sports_Thumbnail-Listing.jpg",
      "articleUrl": "https://www.globe.com.ph/about-us/newsroom/consumer/globe-launches-sports-para-sa-bayan-2017.html",
      "columnType": "articles--type-3",
      "typeListing": "article",
      "imageMobile": "/sites/globe.com.ph/files/content/dam/globe/brie/AboutUs/newsroom/consumer/Consumer_Globe-Launches-Sports/Consumer_Globe-Launches-Sports_Banner-M.jpg",
      "imageDesktop": "/sites/globe.com.ph/files/content/dam/globe/brie/AboutUs/newsroom/consumer/Consumer_Globe-Launches-Sports/Consumer_Globe-Launches-Sports_Primary-Thumbnail.jpg",
      "description": "Globe Launches TM Sports Para sa Bayan 2017 for Underprivileged Youth. Visit the Globe Newsroom for the latest news on Globe Telecom.",
      "datePosted": "Jul 20, 2017 | 03:23 PM",
      "titleFromTag": "Consumer"
    },
    {
      "title": "Globe Holds First-Ever Mobile Legends Southeast Asia Cup Philippine Finals",
      "nonclickable": false,
      "openNewTab": false,
      "borderArticle": "border-color:#1C91C5;",
      "borderTopArticle": "border-top-color:#1C91C5;",
      "imageListing": "/sites/globe.com.ph/files/content/dam/globe/brie/AboutUs/newsroom/common/Corporate_Globe_Listing.jpg",
      "articleUrl": "https://www.globe.com.ph/about-us/newsroom/partners/globe-holds-first-ever-mobile-legends-southeast-asia-cup-philippines-finals.html",
      "columnType": "articles--type-3",
      "typeListing": "article",
      "imageMobile": "/sites/globe.com.ph/files/content/dam/globe/brie/AboutUs/newsroom/common/Corporate_Globe_Hero-Banner-Mobile.jpg",
      "imageDesktop": "/sites/globe.com.ph/files/content/dam/globe/brie/AboutUs/newsroom/common/Corporate_Globe_Primary-Desktop-Thumbnail.jpg",
      "description": "The national offline event will be on July 29, 2017, where the top two teams will advance to the Southeast Asia Finals. Visit the Globe Newsroom for more.",
      "datePosted": "Jul 19, 2017 | 04:41 PM",
      "titleFromTag": "Partners"
    },
    {
      "title": "Globe Business to Redefine How Businesses Work",
      "nonclickable": false,
      "openNewTab": false,
      "borderArticle": "border-color:#1C91C5;",
      "borderTopArticle": "border-top-color:#1C91C5;",
      "imageListing": "/sites/globe.com.ph/files/content/dam/globe/brie/AboutUs/newsroom/common/Corporate_Globe_Listing.jpg",
      "articleUrl": "https://www.globe.com.ph/about-us/newsroom/business/redefine-how-businesses-work.html",
      "columnType": "articles--type-3",
      "typeListing": "article",
      "imageMobile": "/sites/globe.com.ph/files/content/dam/globe/brie/AboutUs/newsroom/common/Corporate_Globe_Hero-Banner-Mobile.jpg",
      "imageDesktop": "/sites/globe.com.ph/files/content/dam/globe/brie/AboutUs/newsroom/common/Corporate_Globe_Primary-Desktop-Thumbnail.jpg",
      "description": "Globe Business goes beyond business to create meaningful experiences for businesses and the nation. Visit the Globe Newsroom for the latest news",
      "datePosted": "Jul 18, 2017 | 04:40 PM",
      "titleFromTag": "Business"
    },
    {
      "title": "Meet NBA’s Steven Adams of the Oklahoma City Thunder at the Globe At Home League Exclusive",
      "nonclickable": false,
      "openNewTab": false,
      "borderArticle": "border-color:#0074D9;",
      "borderTopArticle": "border-top-color:#0074D9;",
      "imageListing": "/sites/globe.com.ph/files/content/dam/globe/brie/AboutUs/newsroom/common/Corporate_Globe_Listing.jpg",
      "articleUrl": "https://www.globe.com.ph/about-us/newsroom/consumer/steven-adams-nba.html",
      "columnType": "articles--type-3",
      "typeListing": "article",
      "imageMobile": "/sites/globe.com.ph/files/content/dam/globe/brie/AboutUs/newsroom/common/Corporate_Globe_Hero-Banner-Mobile.jpg",
      "imageDesktop": "/sites/globe.com.ph/files/content/dam/globe/brie/AboutUs/newsroom/common/Corporate_Globe_Primary-Desktop-Thumbnail.jpg",
      "description": "Meet NBA’s Steven Adams of the Oklahoma City Thunder at the Globe At Home League Exclusive. Visit the Globe Newsroom for the latest news on Globe Telecom.",
      "datePosted": "Jul 18, 2017 | 03:24 PM",
      "titleFromTag": "Consumer"
    }
  ]
}
