{
  "status": 200,
  "page": 255,
  "totalPage": 298,
  "range": "3049-3060",
  "total": 3573,
  "result": [
    {
      "title": "Disney・Pixar’s Cars 3 Movie Tickets Up For Grabs for New Globe At Home Customers",
      "nonclickable": false,
      "openNewTab": false,
      "borderArticle": "border-color:#0074D9;",
      "borderTopArticle": "border-top-color:#0074D9;",
      "imageListing": "/sites/globe.com.ph/files/content/dam/globe/brie/AboutUs/newsroom/consumer/Consumer_Disney-Pixars/Consumer_Disney-Pixars_Thumbnail-Listing.jpg",
      "articleUrl": "https://www.globe.com.ph/about-us/newsroom/consumer/disney-pixars-cars-3-movie.html",
      "columnType": "articles--type-3",
      "typeListing": "article",
      "imageMobile": "/sites/globe.com.ph/files/content/dam/globe/brie/AboutUs/newsroom/consumer/Consumer_Disney-Pixars/Consumer_Disney-Pixars_Banner-M.jpg",
      "imageDesktop": "/sites/globe.com.ph/files/content/dam/globe/brie/AboutUs/newsroom/consumer/Consumer_Disney-Pixars/Consumer_Disney-Pixars_Primary-Thumbnail.jpg",
      "description": "Disney・Pixar’s Cars 3 Movie Tickets Up For Grabs for New Globe At Home Customers. Visit the Globe Newsroom for the latest news on Globe Telecom.",
      "datePosted": "Jul 18, 2017 | 03:24 PM",
      "titleFromTag": "Consumer"
    },
    {
      "title": "Globe Officially Moves to Change the PH Entertainment Landscape with an Extensive Lineup of Productions",
      "nonclickable": false,
      "openNewTab": false,
      "borderArticle": "border-color:#0074D9;",
      "borderTopArticle": "border-top-color:#0074D9;",
      "imageListing": "/sites/globe.com.ph/files/content/dam/globe/brie/AboutUs/newsroom/consumer/Consumer_Globe-Officially/Consumer_Globe-Officially_Thumbnail-Listing.jpg",
      "articleUrl": "https://www.globe.com.ph/about-us/newsroom/consumer/globe-officially-moves-to-change-ph-entertainment-landscape.html",
      "columnType": "articles--type-3",
      "typeListing": "article",
      "imageMobile": "/sites/globe.com.ph/files/content/dam/globe/brie/AboutUs/newsroom/consumer/Consumer_Globe-Officially/Consumer_Globe-Officially_Banner-M.jpg",
      "imageDesktop": "/sites/globe.com.ph/files/content/dam/globe/brie/AboutUs/newsroom/consumer/Consumer_Globe-Officially/Consumer_Globe-Officially_Primary-Thumbnail.jpg",
      "description": "Globe Telecom officially moves to change the PH entertainment landscape with an extensive lineup of productions. Visit the Globe Newsroom for the latest news.",
      "datePosted": "Jul 12, 2017 | 03:25 PM",
      "titleFromTag": "Consumer"
    },
    {
      "title": "Globe Launches How to Globe, an Information Campaign to Deliver Basic Know-How and Tips",
      "nonclickable": false,
      "openNewTab": false,
      "borderArticle": "border-color:#0074D9;",
      "borderTopArticle": "border-top-color:#0074D9;",
      "imageListing": "/sites/globe.com.ph/files/content/dam/globe/brie/AboutUs/newsroom/sustainability/sustainability-how-to-globe/sustainability-how-to-globe-thumbnail-listing.jpg",
      "articleUrl": "https://www.globe.com.ph/about-us/newsroom/sustainability/globe-launches-how-to-globe-information-campaign.html",
      "columnType": "articles--type-3",
      "typeListing": "article",
      "imageMobile": "/sites/globe.com.ph/files/content/dam/globe/brie/AboutUs/newsroom/sustainability/sustainability-how-to-globe/sustainability-how-to-globe-banner-m.jpg",
      "imageDesktop": "/sites/globe.com.ph/files/content/dam/globe/brie/AboutUs/newsroom/sustainability/sustainability-how-to-globe/sustainability-how-to-globe-primary-thumbnail.jpg",
      "description": "Customers can now benefit form quick, simple, and easy-to-follow steps about Globe products and services and handy tips on maximizing them. Learn more here.",
      "datePosted": "Jul 11, 2017 | 04:49 PM",
      "titleFromTag": "Sustainability"
    },
    {
      "title": "Globe Connects with MMDA for 2017 Metro Manila Shakedrill",
      "nonclickable": false,
      "openNewTab": false,
      "borderArticle": "border-color:#1C91C5;",
      "borderTopArticle": "border-top-color:#1C91C5;",
      "imageListing": "/sites/globe.com.ph/files/content/dam/globe/brie/AboutUs/newsroom/common/Corporate_Globe_Listing.jpg",
      "articleUrl": "https://www.globe.com.ph/about-us/newsroom/partners/globe-connects-mmda-2017-metro-manila-shakedrill.html",
      "columnType": "articles--type-3",
      "typeListing": "article",
      "imageMobile": "/sites/globe.com.ph/files/content/dam/globe/brie/AboutUs/newsroom/common/Corporate_Globe_Hero-Banner-Mobile.jpg",
      "imageDesktop": "/sites/globe.com.ph/files/content/dam/globe/brie/AboutUs/newsroom/common/Corporate_Globe_Primary-Desktop-Thumbnail.jpg",
      "description": "Globe Telecom collaborates with MMDA to enhance the country’s disaster management capacities in the event a 7.2 magnitude earthquake. Learn more here.",
      "datePosted": "Jul 11, 2017 | 04:42 PM",
      "titleFromTag": "Partners"
    },
    {
      "title": "Globe Launches How to Globe, an Information Campaign to Deliver Basic Know-How and Tips",
      "nonclickable": false,
      "openNewTab": false,
      "borderArticle": "border-color:#0074D9;",
      "borderTopArticle": "border-top-color:#0074D9;",
      "imageListing": "/sites/globe.com.ph/files/content/dam/globe/brie/AboutUs/newsroom/consumer/Consumer_Globe-Launches-How/Consumer_Globe-Launches-How_Thumbnail-Listing.jpg",
      "articleUrl": "https://www.globe.com.ph/about-us/newsroom/consumer/globe-launches-how-to-globe.html",
      "columnType": "articles--type-3",
      "typeListing": "article",
      "imageMobile": "/sites/globe.com.ph/files/content/dam/globe/brie/AboutUs/newsroom/consumer/Consumer_Globe-Launches-How/Consumer_Globe-Launches-How_Banner-M.jpg",
      "imageDesktop": "/sites/globe.com.ph/files/content/dam/globe/brie/AboutUs/newsroom/consumer/Consumer_Globe-Launches-How/Consumer_Globe-Launches-How_Primary-Thumbnail.jpg",
      "description": "Globe Launches How to Globe, an Information Campaign to Deliver Basic Know-How and Tips. Visit the Globe Newsroom for the latest news on Globe Telecom.",
      "datePosted": "Jul 11, 2017 | 03:25 PM",
      "titleFromTag": "Consumer"
    },
    {
      "title": "Ten Finalists of Globe Future Makers Program Announced",
      "nonclickable": false,
      "openNewTab": false,
      "borderArticle": "border-color:#1C91C5;",
      "borderTopArticle": "border-top-color:#1C91C5;",
      "imageListing": "/sites/globe.com.ph/files/content/dam/globe/brie/AboutUs/newsroom/common/Corporate_Globe_Listing.jpg",
      "articleUrl": "https://www.globe.com.ph/about-us/newsroom/partners/globe-future-makers-program-finalists-announced.html",
      "columnType": "articles--type-3",
      "typeListing": "article",
      "imageMobile": "/sites/globe.com.ph/files/content/dam/globe/brie/AboutUs/newsroom/common/Corporate_Globe_Hero-Banner-Mobile.jpg",
      "imageDesktop": "/sites/globe.com.ph/files/content/dam/globe/brie/AboutUs/newsroom/common/Corporate_Globe_Primary-Desktop-Thumbnail.jpg",
      "description": "Launched in March, the Globe Future Makers program was developed to influence and build a whole ecosystem of social innovators. Learn more here.",
      "datePosted": "Jul 10, 2017 | 04:42 PM",
      "titleFromTag": "Partners"
    },
    {
      "title": "The New Globe Lifestyle's Fall/Winter 17 Collection is Out of This World!",
      "nonclickable": false,
      "openNewTab": false,
      "borderArticle": "border-color:#0074D9;",
      "borderTopArticle": "border-top-color:#0074D9;",
      "imageListing": "/sites/globe.com.ph/files/content/dam/globe/brie/AboutUs/newsroom/common/Corporate_Globe_Listing.jpg",
      "articleUrl": "https://www.globe.com.ph/about-us/newsroom/consumer/globe-lifestyle-fall-winter-17-collection.html",
      "columnType": "articles--type-3",
      "typeListing": "article",
      "imageMobile": "/sites/globe.com.ph/files/content/dam/globe/brie/AboutUs/newsroom/common/Corporate_Globe_Hero-Banner-Mobile.jpg",
      "imageDesktop": "/sites/globe.com.ph/files/content/dam/globe/brie/AboutUs/newsroom/common/Corporate_Globe_Primary-Desktop-Thumbnail.jpg",
      "description": "The New Globe Lifestyle's Fall/Winter 17 Collection is Out of This World! Visit the Globe Newsroom for the latest news on Globe Telecom.",
      "datePosted": "Jul 05, 2017 | 03:26 PM",
      "titleFromTag": "Consumer"
    },
    {
      "title": "Globe Business Academy Brings Top Industry Experts to DTI’s Negosyo Fair",
      "nonclickable": false,
      "openNewTab": false,
      "borderArticle": "border-color:#0074D9;",
      "borderTopArticle": "border-top-color:#0074D9;",
      "imageListing": "/sites/globe.com.ph/files/content/dam/globe/brie/AboutUs/newsroom/consumer/Consumer_Globe-myBusiness-Academy/Consumer_Globe-myBusiness-Academy_Thumbnail-Listing.jpg",
      "articleUrl": "https://www.globe.com.ph/about-us/newsroom/business/globe-mybusiness-academy-brings-top-industry-experts-dti-negosyo-fair.html",
      "columnType": "articles--type-3",
      "typeListing": "article",
      "imageMobile": "/sites/globe.com.ph/files/content/dam/globe/brie/AboutUs/newsroom/consumer/Consumer_Globe-myBusiness-Academy/Consumer_Globe-myBusiness-Academy_Banner-M.jpg",
      "imageDesktop": "/sites/globe.com.ph/files/content/dam/globe/brie/AboutUs/newsroom/consumer/Consumer_Globe-myBusiness-Academy/Consumer_Globe-myBusiness-Academy_Primary-Thumbnail.jpg",
      "description": "Globe Business Academy Brings Top Industry Experts to DTI’s Negosyo Fair. Visit the Globe Newsroom for the latest news on Globe Telecom.",
      "datePosted": "Jul 04, 2017 | 03:27 PM",
      "titleFromTag": "Business"
    },
    {
      "title": "Globe myBusiness Academy Brings Top Industry Experts to DTI’s Negosyo Fair",
      "nonclickable": false,
      "openNewTab": false,
      "borderArticle": "border-color:#0074D9;",
      "borderTopArticle": "border-top-color:#0074D9;",
      "imageListing": "/sites/globe.com.ph/files/content/dam/globe/brie/AboutUs/newsroom/consumer/Consumer_Globe-myBusiness-Academy/Consumer_Globe-myBusiness-Academy_Thumbnail-Listing.jpg",
      "articleUrl": "https://www.globe.com.ph/about-us/newsroom/consumer/globe-mybusiness-academy-brings-top-industry-experts-dti-negosyo-fair.html",
      "columnType": "articles--type-3",
      "typeListing": "article",
      "imageMobile": "/sites/globe.com.ph/files/content/dam/globe/brie/AboutUs/newsroom/consumer/Consumer_Globe-myBusiness-Academy/Consumer_Globe-myBusiness-Academy_Banner-M.jpg",
      "imageDesktop": "/sites/globe.com.ph/files/content/dam/globe/brie/AboutUs/newsroom/consumer/Consumer_Globe-myBusiness-Academy/Consumer_Globe-myBusiness-Academy_Primary-Thumbnail.jpg",
      "description": "Globe myBusiness Academy Brings Top Industry Experts to DTI’s Negosyo Fair. Visit the Globe Newsroom for the latest news on Globe Telecom.",
      "datePosted": "Jul 04, 2017 | 03:27 PM",
      "titleFromTag": "Consumer"
    },
    {
      "title": "Globe #makeITsafePH Campaign: Keeping Businesses and Consumers Safe Online",
      "nonclickable": false,
      "openNewTab": false,
      "borderArticle": "border-color:#0074D9;",
      "borderTopArticle": "border-top-color:#0074D9;",
      "imageListing": "/sites/globe.com.ph/files/content/dam/globe/brie/AboutUs/newsroom/consumer/Consumer_Globe-makeITsafe/Consumer_Globe-makeITsafe_Thumbnail-Listing.jpg",
      "articleUrl": "https://www.globe.com.ph/about-us/newsroom/consumer/globe-makeitsafeph-campaign-keeping-businesses-consumers-safe-online.html",
      "columnType": "articles--type-3",
      "typeListing": "article",
      "imageMobile": "/sites/globe.com.ph/files/content/dam/globe/brie/AboutUs/newsroom/consumer/Consumer_Globe-makeITsafe/Consumer_Globe-makeITsafe_Banner-M.jpg",
      "imageDesktop": "/sites/globe.com.ph/files/content/dam/globe/brie/AboutUs/newsroom/consumer/Consumer_Globe-makeITsafe/Consumer_Globe-makeITsafe_Primary-Thumbnail.jpg",
      "description": "Globe #makeITsafePH Campaign: Keeping Businesses and Consumers Safe Online. Visit the Globe Newsroom for the latest news on Globe Telecom.",
      "datePosted": "Jul 04, 2017 | 03:26 PM",
      "titleFromTag": "Consumer"
    },
    {
      "title": "Globe Telecom Strengthens Broadband, Mobile Connectivity in Cebu",
      "nonclickable": false,
      "openNewTab": false,
      "borderArticle": "border-color:#0074D9;",
      "borderTopArticle": "border-top-color:#0074D9;",
      "imageListing": "/sites/globe.com.ph/files/content/dam/globe/brie/AboutUs/newsroom/consumer/Consumer_Globe-Telecom-Strengthens/Consumer_Globe-Telecom-Strengthens_Thumbnail-Listing.jpg",
      "articleUrl": "https://www.globe.com.ph/about-us/newsroom/consumer/globe-strengthens-broadband-mobile-connectivity-cebu.html",
      "columnType": "articles--type-3",
      "typeListing": "article",
      "imageMobile": "/sites/globe.com.ph/files/content/dam/globe/brie/AboutUs/newsroom/consumer/Consumer_Globe-Telecom-Strengthens/Consumer_Globe-Telecom-Strengthens_Banner-M.jpg",
      "imageDesktop": "/sites/globe.com.ph/files/content/dam/globe/brie/AboutUs/newsroom/consumer/Consumer_Globe-Telecom-Strengthens/Consumer_Globe-Telecom-Strengthens_Primary-Thumbnail.jpg",
      "description": "Globe Telecom Strengthens Broadband, Mobile Connectivity in Cebu. Visit the Globe Newsroom for the latest news on Globe Telecom.",
      "datePosted": "Jul 01, 2017 | 03:27 PM",
      "titleFromTag": "Consumer"
    },
    {
      "title": "Petya/NotPetya Ransomware Advisory",
      "nonclickable": false,
      "openNewTab": false,
      "borderArticle": "border-color:#0074D9;",
      "borderTopArticle": "border-top-color:#0074D9;",
      "imageListing": "/sites/globe.com.ph/files/content/dam/globe/brie/AboutUs/newsroom/common/Corporate_Globe_Listing.jpg",
      "articleUrl": "https://www.globe.com.ph/about-us/newsroom/corporate/petya-notpetya-ransomware-advisory.html",
      "columnType": "articles--type-3",
      "typeListing": "article",
      "imageMobile": "/sites/globe.com.ph/files/content/dam/globe/brie/AboutUs/newsroom/common/Corporate_Globe_Primary-Desktop-Thumbnail.jpg",
      "imageDesktop": "/sites/globe.com.ph/files/content/dam/globe/brie/AboutUs/newsroom/common/Corporate_Globe_Primary-Desktop-Thumbnail.jpg",
      "description": "Petya/NotPetya Ransomware Advisory. Visit Globe Newsroom for the latest news on Globe Telecom.",
      "datePosted": "Jun 30, 2017 | 08:24 PM",
      "titleFromTag": "Business"
    }
  ]
}
