{
  "status": 200,
  "page": 256,
  "totalPage": 298,
  "range": "3061-3072",
  "total": 3573,
  "result": [
    {
      "title": "TOYCON Returns to Celebrate Pop Culture this 2017",
      "nonclickable": false,
      "openNewTab": false,
      "borderArticle": "border-color:#0074D9;",
      "borderTopArticle": "border-top-color:#0074D9;",
      "imageListing": "/sites/globe.com.ph/files/content/dam/globe/brie/AboutUs/newsroom/common/Corporate_Globe_Listing.jpg",
      "articleUrl": "https://www.globe.com.ph/about-us/newsroom/consumer/toycon-returns-2017.html",
      "columnType": "articles--type-3",
      "typeListing": "article",
      "imageMobile": "/sites/globe.com.ph/files/content/dam/globe/brie/AboutUs/newsroom/common/Corporate_Globe_Hero-Banner-Mobile.jpg",
      "imageDesktop": "/sites/globe.com.ph/files/content/dam/globe/brie/AboutUs/newsroom/common/Corporate_Globe_Primary-Desktop-Thumbnail.jpg",
      "description": "TOYCON Returns to Celebrate Pop Culture this 2017. Visit the Globe Newsroom for the latest news on Globe Telecom.",
      "datePosted": "Jun 29, 2017 | 03:27 PM",
      "titleFromTag": "Consumer"
    },
    {
      "title": "Globe At Home Rolls Out the New GoBIG Broadband Plans in Cebu",
      "nonclickable": false,
      "openNewTab": false,
      "borderArticle": "border-color:#0074D9;",
      "borderTopArticle": "border-top-color:#0074D9;",
      "imageListing": "/sites/globe.com.ph/files/content/dam/globe/brie/AboutUs/newsroom/consumer/Consumer_Globe-At-Home-Rolls/Consumer_Globe-At-Home-Rolls_Thumbnail-Listing.jpg",
      "articleUrl": "https://www.globe.com.ph/about-us/newsroom/consumer/globe-at-home-rolls-out-new-gobig-broadband-plans-cebu.html",
      "columnType": "articles--type-3",
      "typeListing": "article",
      "imageMobile": "/sites/globe.com.ph/files/content/dam/globe/brie/AboutUs/newsroom/consumer/Consumer_Globe-At-Home-Rolls/Consumer_Globe-At-Home-Rolls_Banner-M.jpg",
      "imageDesktop": "/sites/globe.com.ph/files/content/dam/globe/brie/AboutUs/newsroom/consumer/Consumer_Globe-At-Home-Rolls/Consumer_Globe-At-Home-Rolls_Primary-Thumbnail.jpg",
      "description": "Globe At Home Rolls Out the New GoBIG Broadband Plans in Cebu. Visit the Globe Newsroom for the latest news on Globe Telecom.",
      "datePosted": "Jun 28, 2017 | 03:28 PM",
      "titleFromTag": "Consumer"
    },
    {
      "title": "Four Life and Culinary Lessons for Food Entrepreneurs from Chef Anthony Bourdain",
      "nonclickable": false,
      "openNewTab": false,
      "borderArticle": "border-color:#0074D9;",
      "borderTopArticle": "border-top-color:#0074D9;",
      "imageListing": "/sites/globe.com.ph/files/content/dam/globe/brie/AboutUs/newsroom/consumer/Consumer_Four-Life/Consumer_Four-Life_Thumbnail-Listing.jpg",
      "articleUrl": "https://www.globe.com.ph/about-us/newsroom/consumer/life-culinary-lessons-food-entrepreneurs-anthony-bourdain.html",
      "columnType": "articles--type-3",
      "typeListing": "article",
      "imageMobile": "/sites/globe.com.ph/files/content/dam/globe/brie/AboutUs/newsroom/consumer/Consumer_Four-Life/Consumer_Four-Life_Banner-M.jpg",
      "imageDesktop": "/sites/globe.com.ph/files/content/dam/globe/brie/AboutUs/newsroom/consumer/Consumer_Four-Life/Consumer_Four-Life_Primary-Thumbnail.jpg",
      "description": "Four Life and Culinary Lessons for Food Entrepreneurs from Chef Anthony Bourdain. Visit the Globe Newsroom for the latest news on Globe Telecom.",
      "datePosted": "Jun 27, 2017 | 03:28 PM",
      "titleFromTag": "Consumer"
    },
    {
      "title": "AdSpark Forms Strategic Partnerships with Wootag and Tracx",
      "nonclickable": false,
      "openNewTab": false,
      "borderArticle": "border-color:#0074D9;",
      "borderTopArticle": "border-top-color:#0074D9;",
      "imageListing": "/sites/globe.com.ph/files/content/dam/globe/brie/AboutUs/newsroom/consumer/Consumer_Adspark/Consumer_Adspark_Thumbnail-Listing.jpg",
      "articleUrl": "https://www.globe.com.ph/about-us/newsroom/consumer/adspark-forms-strategic-partnerships-with-wootag-tracx.html",
      "columnType": "articles--type-3",
      "typeListing": "article",
      "imageMobile": "/sites/globe.com.ph/files/content/dam/globe/brie/AboutUs/newsroom/consumer/Consumer_Adspark/Consumer_Adspark_Banner-M.jpg",
      "imageDesktop": "/sites/globe.com.ph/files/content/dam/globe/brie/AboutUs/newsroom/consumer/Consumer_Adspark/Consumer_Adspark_Primary-Thumbnail.jpg",
      "description": "AdSpark Forms Strategic Partnerships with Wootag and Tracx. Visit the Globe Newsroom for the latest news on Globe Telecom.",
      "datePosted": "Jun 24, 2017 | 03:29 PM",
      "titleFromTag": "Consumer"
    },
    {
      "title": "AFP, DICT, Globe Provide Free Mobile Services in Marawi City",
      "nonclickable": false,
      "openNewTab": false,
      "borderArticle": "border-color:#0074D9;",
      "borderTopArticle": "border-top-color:#0074D9;",
      "imageListing": "/sites/globe.com.ph/files/content/dam/globe/brie/AboutUs/newsroom/partners/partners-afp-dict-globe/partners-afp-dict-globe-thumbnail-listing.jpg",
      "articleUrl": "https://www.globe.com.ph/about-us/newsroom/partners/afp-dict-globe-provide-free-mobile-services-marawi-city.html",
      "columnType": "articles--type-3",
      "typeListing": "article",
      "imageMobile": "/sites/globe.com.ph/files/content/dam/globe/brie/AboutUs/newsroom/partners/partners-afp-dict-globe/partners-afp-dict-globe-banner-m.jpg",
      "imageDesktop": "/sites/globe.com.ph/files/content/dam/globe/brie/AboutUs/newsroom/partners/partners-afp-dict-globe/partners-afp-dict-globe-primary-thumbnail.jpg",
      "description": "Globe and TM customers in Marawi City will be provided 15 days of free texts to all networks and calls to Globe and TM. Visit the Globe Newsroom for more.",
      "datePosted": "Jun 22, 2017 | 04:43 PM",
      "titleFromTag": "Partners"
    },
    {
      "title": "Globe Business Champions Environmental Sustainability Through Project 1 Phone",
      "nonclickable": false,
      "openNewTab": false,
      "borderArticle": "border-color:#0074D9;",
      "borderTopArticle": "border-top-color:#0074D9;",
      "imageListing": "/sites/globe.com.ph/files/content/dam/globe/brie/AboutUs/newsroom/common/Corporate_Globe_Listing.jpg",
      "articleUrl": "https://www.globe.com.ph/about-us/newsroom/corporate/environmental-sustainability-p1p.html",
      "columnType": "articles--type-3",
      "typeListing": "article",
      "imageMobile": "/sites/globe.com.ph/files/content/dam/globe/brie/AboutUs/newsroom/common/Corporate_Globe_Primary-Desktop-Thumbnail.jpg",
      "imageDesktop": "/sites/globe.com.ph/files/content/dam/globe/brie/AboutUs/newsroom/common/Corporate_Globe_Primary-Desktop-Thumbnail.jpg",
      "description": "Globe Business Champions Environmental Sustainability Through Project 1 Phone. Visit Globe Newsroom for the latest news on Globe Telecom.",
      "datePosted": "Jun 21, 2017 | 08:25 PM",
      "titleFromTag": "Business"
    },
    {
      "title": "One Hand, One Heart! West Side Story is Coming to Manila",
      "nonclickable": false,
      "openNewTab": false,
      "borderArticle": "border-color:#0074D9;",
      "borderTopArticle": "border-top-color:#0074D9;",
      "imageListing": "/sites/globe.com.ph/files/content/dam/globe/brie/AboutUs/newsroom/consumer/Consumer_One-Hand/Consumer_One-Hand_Thumbnail-Listing.jpg",
      "articleUrl": "https://www.globe.com.ph/about-us/newsroom/consumer/west-side-story-is-coming-to-manila.html",
      "columnType": "articles--type-3",
      "typeListing": "article",
      "imageMobile": "/sites/globe.com.ph/files/content/dam/globe/brie/AboutUs/newsroom/consumer/Consumer_One-Hand/Consumer_One-Hand_Banner-M.jpg",
      "imageDesktop": "/sites/globe.com.ph/files/content/dam/globe/brie/AboutUs/newsroom/consumer/Consumer_One-Hand/Consumer_One-Hand_Primary-Thumbnail.jpg",
      "description": "One Hand, One Heart! West Side Story is Coming to Manila. Visit the Globe Newsroom for the latest news on Globe Telecom.",
      "datePosted": "Jun 19, 2017 | 03:29 PM",
      "titleFromTag": "Consumer"
    },
    {
      "title": "Globe Revolutionizes Mobile Video Viewing with the All-New GoWATCH",
      "nonclickable": false,
      "openNewTab": false,
      "borderArticle": "border-color:#0074D9;",
      "borderTopArticle": "border-top-color:#0074D9;",
      "imageListing": "/sites/globe.com.ph/files/content/dam/globe/brie/AboutUs/newsroom/common/Corporate_Globe_Listing.jpg",
      "articleUrl": "https://www.globe.com.ph/about-us/newsroom/consumer/globe-revolutionizes-mobile-video-viewing-with-all-new-gowatch.html",
      "columnType": "articles--type-3",
      "typeListing": "article",
      "imageMobile": "/sites/globe.com.ph/files/content/dam/globe/brie/AboutUs/newsroom/common/Corporate_Globe_Hero-Banner-Mobile.jpg",
      "imageDesktop": "/sites/globe.com.ph/files/content/dam/globe/brie/AboutUs/newsroom/common/Corporate_Globe_Primary-Desktop-Thumbnail.jpg",
      "description": "Globe Revolutionizes Mobile Video Viewing with the All-New GoWATCH. Visit the Globe Newsroom for the latest news on Globe Telecom.",
      "datePosted": "Jun 18, 2017 | 03:29 PM",
      "titleFromTag": "Consumer"
    },
    {
      "title": "Globe Operates Relief Drive for Displaced Marawi Residents",
      "nonclickable": false,
      "openNewTab": false,
      "borderArticle": "border-color:#0074D9;",
      "borderTopArticle": "border-top-color:#0074D9;",
      "imageListing": "/sites/globe.com.ph/files/content/dam/globe/brie/AboutUs/newsroom/citizenship/citizenship-globe-marawi-relief/citizenship-globe-marawi-relief-thumbnail-listing.jpg",
      "articleUrl": "https://www.globe.com.ph/about-us/newsroom/citizenship/globe-operates-relief-drive-for-displaced-marawi-residents.html",
      "columnType": "articles--type-3",
      "typeListing": "article",
      "imageMobile": "/sites/globe.com.ph/files/content/dam/globe/brie/AboutUs/newsroom/citizenship/citizenship-globe-marawi-relief/citizenship-globe-marawi-relief-banner-m.jpg",
      "imageDesktop": "/sites/globe.com.ph/files/content/dam/globe/brie/AboutUs/newsroom/citizenship/citizenship-globe-marawi-relief/citizenship-globe-marawi-relief-primary-thumbnail.jpg",
      "description": "Some food packs, toiletries, towels, and sleeping items were provided while free calls, charging stations, and WiFi connections were set up for the evacuees.",
      "datePosted": "Jun 15, 2017 | 04:45 PM",
      "titleFromTag": "Sustainability"
    },
    {
      "title": "Nestlé Philippines Joins Globe Telecom’s Project 1 Phone",
      "nonclickable": false,
      "openNewTab": false,
      "borderArticle": "border-color:#0074D9;",
      "borderTopArticle": "border-top-color:#0074D9;",
      "imageListing": "/sites/globe.com.ph/files/content/dam/globe/brie/AboutUs/newsroom/sustainability/sustainability-nestle-philippines/sustainability-nestle-philippines-thumbnail-listing.jpg",
      "articleUrl": "https://www.globe.com.ph/about-us/newsroom/sustainability/nestle-philippines-joins-globe-telecoms-project-1-phone.html",
      "columnType": "articles--type-3",
      "typeListing": "article",
      "imageMobile": "/sites/globe.com.ph/files/content/dam/globe/brie/AboutUs/newsroom/sustainability/sustainability-nestle-philippines/sustainability-nestle-philippines-banner-m.jpg",
      "imageDesktop": "/sites/globe.com.ph/files/content/dam/globe/brie/AboutUs/newsroom/sustainability/sustainability-nestle-philippines/sustainability-nestle-philippinese-primary-thumbnail.jpg",
      "description": "Nestlé Philippines has joined Globe Telecom’s Project 1 Phone (P1P). Visit the Globe Newsroom for the latest news on Globe Telecom.",
      "datePosted": "Jun 14, 2017 | 04:49 PM",
      "titleFromTag": "Sustainability"
    },
    {
      "title": "Harry Styles Concert Tickets Allocated for Globe Customer Pre-Registration: Gone in 52 Seconds",
      "nonclickable": false,
      "openNewTab": false,
      "borderArticle": "border-color:#0074D9;",
      "borderTopArticle": "border-top-color:#0074D9;",
      "imageListing": "/sites/globe.com.ph/files/content/dam/globe/brie/AboutUs/newsroom/common/Corporate_Globe_Listing.jpg",
      "articleUrl": "https://www.globe.com.ph/about-us/newsroom/consumer/harry-styles-concert-tickets.html",
      "columnType": "articles--type-3",
      "typeListing": "article",
      "imageMobile": "/sites/globe.com.ph/files/content/dam/globe/brie/AboutUs/newsroom/common/Corporate_Globe_Hero-Banner-Mobile.jpg",
      "imageDesktop": "/sites/globe.com.ph/files/content/dam/globe/brie/AboutUs/newsroom/common/Corporate_Globe_Primary-Desktop-Thumbnail.jpg",
      "description": "Harry Styles Concert Tickets Allocated for Globe Customer Pre-Registration: Gone in 52 Seconds. Visit the Globe Newsroom for the latest news on Globe Telecom.",
      "datePosted": "Jun 14, 2017 | 03:30 PM",
      "titleFromTag": "Consumer"
    },
    {
      "title": "Globe Future Makers Program Attracts 135 Startups and Individuals Who Want to Solve Poverty in PH",
      "nonclickable": false,
      "openNewTab": false,
      "borderArticle": "border-color:#0074D9;",
      "borderTopArticle": "border-top-color:#0074D9;",
      "imageListing": "/sites/globe.com.ph/files/content/dam/globe/brie/AboutUs/newsroom/common/Corporate_Globe_Listing.jpg",
      "articleUrl": "https://www.globe.com.ph/about-us/newsroom/sustainability/globe-future-makers-program.html",
      "columnType": "articles--type-3",
      "typeListing": "article",
      "imageMobile": "/sites/globe.com.ph/files/content/dam/globe/brie/AboutUs/newsroom/common/Corporate_Globe_Hero-Banner-Mobile.jpg",
      "imageDesktop": "/sites/globe.com.ph/files/content/dam/globe/brie/AboutUs/newsroom/common/Corporate_Globe_Primary-Desktop-Thumbnail.jpg",
      "description": "One hundred thirty-five startups and individuals joined Globe Telecom’s Future Makers Program (GFM) in 2017. Visit the Newsroom for the latest news on Globe.",
      "datePosted": "Jun 13, 2017 | 04:49 PM",
      "titleFromTag": "Sustainability"
    }
  ]
}
