{
  "status": 200,
  "page": 257,
  "totalPage": 298,
  "range": "3073-3084",
  "total": 3573,
  "result": [
    {
      "title": "Globe Expands GoWiFi Hotspots to 1,000 New Locations in PH",
      "nonclickable": false,
      "openNewTab": false,
      "borderArticle": "border-color:#0074D9;",
      "borderTopArticle": "border-top-color:#0074D9;",
      "imageListing": "/sites/globe.com.ph/files/content/dam/globe/brie/AboutUs/newsroom/common/Corporate_Globe_Listing.jpg",
      "articleUrl": "https://www.globe.com.ph/about-us/newsroom/consumer/globe-expands-gowifi-hotspots.html",
      "columnType": "articles--type-3",
      "typeListing": "article",
      "imageMobile": "/sites/globe.com.ph/files/content/dam/globe/brie/AboutUs/newsroom/common/Corporate_Globe_Hero-Banner-Mobile.jpg",
      "imageDesktop": "/sites/globe.com.ph/files/content/dam/globe/brie/AboutUs/newsroom/common/Corporate_Globe_Primary-Desktop-Thumbnail.jpg",
      "description": "Globe Expands GoWiFi Hotspots to 1,000 New Locations in PH. Visit the Globe Newsroom for the latest news on Globe Telecom.",
      "datePosted": "Jun 10, 2017 | 03:30 PM",
      "titleFromTag": "Consumer"
    },
    {
      "title": "Globe at Home Gives Families a Weekend of Fun Activities and Free Movies at #StreamFest",
      "nonclickable": false,
      "openNewTab": false,
      "borderArticle": "border-color:#0074D9;",
      "borderTopArticle": "border-top-color:#0074D9;",
      "imageListing": "/sites/globe.com.ph/files/content/dam/globe/brie/AboutUs/newsroom/consumer/Consumer_Globe-At-Home/Consumer_Globe-At-Home_Thumbnail-Listing.jpg",
      "articleUrl": "https://www.globe.com.ph/about-us/newsroom/consumer/globe-at-home-fun-activities-free-movies-streamfest.html",
      "columnType": "articles--type-3",
      "typeListing": "article",
      "imageMobile": "/sites/globe.com.ph/files/content/dam/globe/brie/AboutUs/newsroom/consumer/Consumer_Globe-At-Home/Consumer_Globe-At-Home_Banner-M.jpg",
      "imageDesktop": "/sites/globe.com.ph/files/content/dam/globe/brie/AboutUs/newsroom/consumer/Consumer_Globe-At-Home/Consumer_Globe-At-Home_Primary-Thumbnail.jpg",
      "description": "Globe at Home Gives Families a Weekend of Fun Activities and Free Movies at #StreamFest. Visit the Globe Newsroom for the latest news on Globe Telecom.",
      "datePosted": "Jun 10, 2017 | 02:20 PM",
      "titleFromTag": "Consumer"
    },
    {
      "title": "4 Things to Remember When Building Customer Loyalty",
      "nonclickable": false,
      "openNewTab": false,
      "borderArticle": "border-color:#0074D9;",
      "borderTopArticle": "border-top-color:#0074D9;",
      "imageListing": "/sites/globe.com.ph/files/content/dam/globe/brie/AboutUs/newsroom/common/Corporate_Globe_Listing.jpg",
      "articleUrl": "https://www.globe.com.ph/about-us/newsroom/consumer/things-to-remember-when-building-customer-loyalty.html",
      "columnType": "articles--type-3",
      "typeListing": "article",
      "imageMobile": "/sites/globe.com.ph/files/content/dam/globe/brie/AboutUs/newsroom/common/Corporate_Globe_Hero-Banner-Mobile.jpg",
      "imageDesktop": "/sites/globe.com.ph/files/content/dam/globe/brie/AboutUs/newsroom/common/Corporate_Globe_Primary-Desktop-Thumbnail.jpg",
      "description": "4 Things to Remember When Building Customer Loyalty. Visit Globe Newsroom for the latest news on Globe Telecom.",
      "datePosted": "Jun 09, 2017 | 05:26 PM",
      "titleFromTag": "Consumer"
    },
    {
      "title": "Globe Telecom’s Rogue One Ad Dominates Asia-Pacific Tambuli Awards 2017",
      "nonclickable": false,
      "openNewTab": false,
      "borderArticle": "border-color:#0074D9;",
      "borderTopArticle": "border-top-color:#0074D9;",
      "imageListing": "/sites/globe.com.ph/files/content/dam/globe/brie/AboutUs/newsroom/consumer/Consumer_Globe-Telecoms-Rogue/Consumer_Globe-Telecoms-Rogue_Thumbnail-Listing.jpg",
      "articleUrl": "https://www.globe.com.ph/about-us/newsroom/consumer/globe-rogue-one.html",
      "columnType": "articles--type-3",
      "typeListing": "article",
      "imageMobile": "/sites/globe.com.ph/files/content/dam/globe/brie/AboutUs/newsroom/consumer/Consumer_Globe-Telecoms-Rogue/Consumer_Globe-Telecoms-Rogue_Banner-M.jpg",
      "imageDesktop": "/sites/globe.com.ph/files/content/dam/globe/brie/AboutUs/newsroom/consumer/Consumer_Globe-Telecoms-Rogue/Consumer_Globe-Telecoms-Rogue_Primary-Thumbnail.jpg",
      "description": "Globe Telecom’s Rogue One Ad Dominates Asia-Pacific Tambuli Awards 2017. Visit the Globe Newsroom for the latest news on Globe Telecom.",
      "datePosted": "Jun 09, 2017 | 03:31 PM",
      "titleFromTag": "Consumer"
    },
    {
      "title": "Get Bigger Data and Free YouTube with the New Globe At Home GoBIG Broadband Plans",
      "nonclickable": false,
      "openNewTab": false,
      "borderArticle": "border-color:#0074D9;",
      "borderTopArticle": "border-top-color:#0074D9;",
      "imageListing": "/sites/globe.com.ph/files/content/dam/globe/brie/AboutUs/newsroom/common/Corporate_Globe_Listing.jpg",
      "articleUrl": "https://www.globe.com.ph/about-us/newsroom/consumer/get-bigger-data-free-youtube.html",
      "columnType": "articles--type-3",
      "typeListing": "article",
      "imageMobile": "/sites/globe.com.ph/files/content/dam/globe/brie/AboutUs/newsroom/common/Corporate_Globe_Hero-Banner-Mobile.jpg",
      "imageDesktop": "/sites/globe.com.ph/files/content/dam/globe/brie/AboutUs/newsroom/common/Corporate_Globe_Primary-Desktop-Thumbnail.jpg",
      "description": "Get Bigger Data and Free YouTube with the New Globe At Home GoBIG Broadband Plans. Visit Globe Newsroom for the latest news on Globe Telecom.",
      "datePosted": "Jun 08, 2017 | 04:38 PM",
      "titleFromTag": "Consumer"
    },
    {
      "title": "Catch the Heart-Pumping Action of the 2017 NBA Finals Straight on Your Mobile with Globe and NBA LEAGUE PASS on NBA App",
      "nonclickable": false,
      "openNewTab": false,
      "borderArticle": "border-color:#0074D9;",
      "borderTopArticle": "border-top-color:#0074D9;",
      "imageListing": "/sites/globe.com.ph/files/content/dam/globe/brie/AboutUs/newsroom/common/Corporate_Globe_Listing.jpg",
      "articleUrl": "https://www.globe.com.ph/about-us/newsroom/consumer/2017-nba-finals-nba-league-pass-nba-app.html",
      "columnType": "articles--type-3",
      "typeListing": "article",
      "imageMobile": "/sites/globe.com.ph/files/content/dam/globe/brie/AboutUs/newsroom/common/Corporate_Globe_Hero-Banner-Mobile.jpg",
      "imageDesktop": "/sites/globe.com.ph/files/content/dam/globe/brie/AboutUs/newsroom/common/Corporate_Globe_Primary-Desktop-Thumbnail.jpg",
      "description": "Catch the Heart-Pumping Action of the 2017 NBA Finals Straight on Your Mobile with Globe and NBA LEAGUE PASS on NBA App. Visit the Globe Newsroom for more.",
      "datePosted": "Jun 08, 2017 | 03:31 PM",
      "titleFromTag": "Consumer"
    },
    {
      "title": "IBPAP, Globe Business Mount IT-BPM Cybersecurity Summit to Accelerate PHL Fight Against Cybercrime",
      "nonclickable": false,
      "openNewTab": false,
      "borderArticle": "border-color:#0074D9;",
      "borderTopArticle": "border-top-color:#0074D9;",
      "imageListing": "/sites/globe.com.ph/files/content/dam/globe/brie/AboutUs/newsroom/consumer/Consumer_IBPAP/Consumer_IBPAP_Thumbnail-Listing.jpg",
      "articleUrl": "https://www.globe.com.ph/about-us/newsroom/business/cybersecurity-summit-to-accelerate-phl-fight-against-cybercrime.html",
      "columnType": "articles--type-3",
      "typeListing": "article",
      "imageMobile": "/sites/globe.com.ph/files/content/dam/globe/brie/AboutUs/newsroom/consumer/Consumer_IBPAP/Consumer_IBPAP_Banner-M.jpg",
      "imageDesktop": "/sites/globe.com.ph/files/content/dam/globe/brie/AboutUs/newsroom/consumer/Consumer_IBPAP/Consumer_IBPAP_Primary-Thumbnail.jpg",
      "description": "IBPAP, Globe Business Mount IT-BPM Cybersecurity Summit to Accelerate PHL Fight Against Cybercrime.Visit the Globe Newsroom for the latest news.",
      "datePosted": "Jun 06, 2017 | 03:31 PM",
      "titleFromTag": "Business"
    },
    {
      "title": "IBPAP, Globe Business Mount IT-BPM Cybersecurity Summit to Accelerate PHL Fight Against Cybercrime",
      "nonclickable": false,
      "openNewTab": false,
      "borderArticle": "border-color:#0074D9;",
      "borderTopArticle": "border-top-color:#0074D9;",
      "imageListing": "/sites/globe.com.ph/files/content/dam/globe/brie/AboutUs/newsroom/consumer/Consumer_IBPAP/Consumer_IBPAP_Thumbnail-Listing.jpg",
      "articleUrl": "https://www.globe.com.ph/about-us/newsroom/consumer/cybersecurity-summit-to-accelerate-phl-fight-against-cybercrime.html",
      "columnType": "articles--type-3",
      "typeListing": "article",
      "imageMobile": "/sites/globe.com.ph/files/content/dam/globe/brie/AboutUs/newsroom/consumer/Consumer_IBPAP/Consumer_IBPAP_Banner-M.jpg",
      "imageDesktop": "/sites/globe.com.ph/files/content/dam/globe/brie/AboutUs/newsroom/consumer/Consumer_IBPAP/Consumer_IBPAP_Primary-Thumbnail.jpg",
      "description": "IBPAP, Globe Business Mount IT-BPM Cybersecurity Summit to Accelerate PHL Fight Against Cybercrime. Visit the Globe Newsroom for the latest news on Globe Telecom.",
      "datePosted": "Jun 06, 2017 | 03:31 PM",
      "titleFromTag": "Consumer"
    },
    {
      "title": "Globe Customers Get Exclusive Ticket Discounts for Cirque du Soleil’s TORUK – The First Flight in Manila",
      "nonclickable": false,
      "openNewTab": false,
      "borderArticle": "border-color:#0074D9;",
      "borderTopArticle": "border-top-color:#0074D9;",
      "imageListing": "/sites/globe.com.ph/files/content/dam/globe/brie/AboutUs/newsroom/consumer/Consumer_Globe-Customers/Consumer_Globe-Customers_Thumbnail-Listing.jpg",
      "articleUrl": "https://www.globe.com.ph/about-us/newsroom/consumer/globe-customers-get-exclusive-ticket-discounts-for-cirque-du-soleils-toruk-the-first-flight-in-manila.html",
      "columnType": "articles--type-3",
      "typeListing": "article",
      "imageMobile": "/sites/globe.com.ph/files/content/dam/globe/brie/AboutUs/newsroom/consumer/Consumer_Globe-Customers/Consumer_Globe-Customers_Banner-M.jpg",
      "imageDesktop": "/sites/globe.com.ph/files/content/dam/globe/brie/AboutUs/newsroom/consumer/Consumer_Globe-Customers/Consumer_Globe-Customers_Primary-Thumbnail.jpg",
      "description": "Globe GCash joins Black Friday, Cyber Monday, and the Philippine Cyber Sale from November 25 to 28, 2016. Visit the Globe Newsroom for the latest news.",
      "datePosted": "Jun 06, 2017 | 09:22 AM",
      "titleFromTag": "Consumer"
    },
    {
      "title": "Globe Empowers Sari-Sari Stores and Filipino Entrepreneurs at the 2017 Tindahan ni Aling Puring Convention",
      "nonclickable": false,
      "openNewTab": false,
      "borderArticle": "border-color:#0074D9;",
      "borderTopArticle": "border-top-color:#0074D9;",
      "imageListing": "/sites/globe.com.ph/files/content/dam/globe/brie/AboutUs/newsroom/common/Corporate_Globe_Listing.jpg",
      "articleUrl": "https://www.globe.com.ph/about-us/newsroom/sustainability/globe-empowers-sari-sari-stores-2017-tindahan-ni-aling-puring.html",
      "columnType": "articles--type-3",
      "typeListing": "article",
      "imageMobile": "/sites/globe.com.ph/files/content/dam/globe/brie/AboutUs/newsroom/common/Corporate_Globe_Hero-Banner-Mobile.jpg",
      "imageDesktop": "/sites/globe.com.ph/files/content/dam/globe/brie/AboutUs/newsroom/common/Corporate_Globe_Primary-Desktop-Thumbnail.jpg",
      "description": "Globe Telecom further beefs up its support for Filipino entrepreneurs and sari-sari store owners in the country by being a major participant in Puregold Price Club’s 12th Tindahan ni Aling Puring (TNAP) Sari-Sari Store Convention. Visit the Globe Newsroom for the latest news on Globe Telecom.",
      "datePosted": "Jun 05, 2017 | 04:50 PM",
      "titleFromTag": "Sustainability"
    },
    {
      "title": "UnionBank Champions Environmental Sustainability Through Globe Telecom’s Project 1 Phone",
      "nonclickable": false,
      "openNewTab": false,
      "borderArticle": "border-color:#0074D9;",
      "borderTopArticle": "border-top-color:#0074D9;",
      "imageListing": "/sites/globe.com.ph/files/content/dam/globe/brie/AboutUs/newsroom/partners/partners-unionbank-champions/section-title-thumbnail-listing.jpg",
      "articleUrl": "https://www.globe.com.ph/about-us/newsroom/partners/unionbank-champions-environmental-sustainability-through-globes-project-1-phone.html",
      "columnType": "articles--type-3",
      "typeListing": "article",
      "imageMobile": "/sites/globe.com.ph/files/content/dam/globe/brie/AboutUs/newsroom/partners/partners-unionbank-champions/partners-unionbank-champions-banner-m.jpg",
      "imageDesktop": "/sites/globe.com.ph/files/content/dam/globe/brie/AboutUs/newsroom/partners/partners-unionbank-champions/section-title-primary-thumbnail.jpg",
      "description": "Union Bank of the Philippines turned over 11,223.45 kilograms of various electronic waste to support Globe Telecom’s Project 1 Phone e-waste recycling program.",
      "datePosted": "Jun 05, 2017 | 04:43 PM",
      "titleFromTag": "Partners"
    },
    {
      "title": "Globe Empowers Sari-Sari Stores and Filipino Entrepreneurs at the 2017 Tindahan ni Aling Puring Convention",
      "nonclickable": false,
      "openNewTab": false,
      "borderArticle": "border-color:#1C91C5;",
      "borderTopArticle": "border-top-color:#1C91C5;",
      "imageListing": "/sites/globe.com.ph/files/content/dam/globe/brie/AboutUs/newsroom/consumer/Consumer_Globe-Empowers/Consumer_Globe-Empowers_Thumbnail-Listing.jpg",
      "articleUrl": "https://www.globe.com.ph/about-us/newsroom/consumer/globe-empowers-sari-sari-stores-filipino-entrepreneurs-2017-tindahan-ni-aling-puring-convention.html",
      "columnType": "articles--type-3",
      "typeListing": "article",
      "imageMobile": "/sites/globe.com.ph/files/content/dam/globe/brie/AboutUs/newsroom/consumer/Consumer_Globe-Empowers/Consumer_Globe-Empowers_Banner-M.jpg",
      "imageDesktop": "/sites/globe.com.ph/files/content/dam/globe/brie/AboutUs/newsroom/consumer/Consumer_Globe-Empowers/Consumer_Globe-Empowers_Primary-Thumbnail.jpg",
      "description": "Globe Empowers Sari-Sari Stores and Filipino Entrepreneurs at the 2017 Tindahan ni Aling Puring Convention. Visit the Globe Newsroom for the latest news",
      "datePosted": "Jun 05, 2017 | 03:32 PM",
      "titleFromTag": "Consumer"
    }
  ]
}
