{
  "status": 200,
  "page": 258,
  "totalPage": 298,
  "range": "3085-3096",
  "total": 3573,
  "result": [
    {
      "title": "How to Watch the NBA Finals Right at the Comfort of Your Own Home",
      "nonclickable": false,
      "openNewTab": false,
      "borderArticle": "border-color:#0074D9;",
      "borderTopArticle": "border-top-color:#0074D9;",
      "imageListing": "/sites/globe.com.ph/files/content/dam/globe/brie/AboutUs/newsroom/common/Corporate_Globe_Listing.jpg",
      "articleUrl": "https://www.globe.com.ph/about-us/newsroom/consumer/how-to-watch-the-nba-finals-at-home.html",
      "columnType": "articles--type-3",
      "typeListing": "article",
      "imageMobile": "/sites/globe.com.ph/files/content/dam/globe/brie/AboutUs/newsroom/common/Corporate_Globe_Hero-Banner-Mobile.jpg",
      "imageDesktop": "/sites/globe.com.ph/files/content/dam/globe/brie/AboutUs/newsroom/common/Corporate_Globe_Primary-Desktop-Thumbnail.jpg",
      "description": "How to Watch the NBA Finals Right at the Comfort of Your Own Home. Visit the Globe Newsroom for the latest news on Globe Telecom.",
      "datePosted": "Jun 02, 2017 | 11:34 AM",
      "titleFromTag": "Consumer"
    },
    {
      "title": "Globe Telecom Optimistic on Growing Speed and Adoption of Home Broadband",
      "nonclickable": false,
      "openNewTab": false,
      "borderArticle": "border-color:#0074D9;",
      "borderTopArticle": "border-top-color:#0074D9;",
      "imageListing": "/sites/globe.com.ph/files/content/dam/globe/brie/AboutUs/newsroom/common/Corporate_Globe_Listing.jpg",
      "articleUrl": "https://www.globe.com.ph/about-us/newsroom/corporate/globe-telecom-optimistic-growing-speed.html",
      "columnType": "articles--type-3",
      "typeListing": "article",
      "imageMobile": "/sites/globe.com.ph/files/content/dam/globe/brie/AboutUs/newsroom/common/Corporate_Globe_Hero-Banner-Mobile.jpg",
      "imageDesktop": "/sites/globe.com.ph/files/content/dam/globe/brie/AboutUs/newsroom/common/Corporate_Globe_Primary-Desktop-Thumbnail.jpg",
      "description": "Globe Telecom Optimistic on Growing Speed and Adoption of Home Broadband. Visit the Globe Newsroom for the latest news on Globe Telecom.",
      "datePosted": "Jun 01, 2017 | 12:45 PM",
      "titleFromTag": "Corporate"
    },
    {
      "title": "Globe Donates P5M Worth of Storybooks to Public Schools Nationwide",
      "nonclickable": false,
      "openNewTab": false,
      "borderArticle": "border-color:#0074D9;",
      "borderTopArticle": "border-top-color:#0074D9;",
      "imageListing": "/sites/globe.com.ph/files/content/dam/globe/brie/AboutUs/newsroom/citizenship/citizenship-globe-donates-banner/citizenship-globe-donates-thumbnail-listing.jpg",
      "articleUrl": "https://www.globe.com.ph/about-us/newsroom/citizenship/globe-donates-p5m.html",
      "columnType": "articles--type-3",
      "typeListing": "article",
      "imageMobile": "/sites/globe.com.ph/files/content/dam/globe/brie/AboutUs/newsroom/citizenship/citizenship-globe-donates-banner/citizenship-globe-donates-banner-m.jpg",
      "imageDesktop": "/sites/globe.com.ph/files/content/dam/globe/brie/AboutUs/newsroom/citizenship/citizenship-globe-donates-banner/citizenship-globe-donates-primary-thumbnail.jpg",
      "description": "The 72,000 storybooks with an all-Filipino theme and written by Filipino authors is part of Globe Telecom’s Global Filipino Schools program and a long-term collaboration with the Department of Education for a progressive 21st century learning environment in public schools nationwide. Visit the Globe Newsroom for the latest news on Globe Telecom.",
      "datePosted": "May 31, 2017 | 04:45 PM",
      "titleFromTag": "Sustainability"
    },
    {
      "title": "Globe LIVE Wows Theatre Lovers with Four Musical Productions This Year",
      "nonclickable": false,
      "openNewTab": false,
      "borderArticle": "border-color:#1C91C5;",
      "borderTopArticle": "border-top-color:#1C91C5;",
      "imageListing": "/sites/globe.com.ph/files/content/dam/globe/brie/AboutUs/newsroom/consumer/Consumer_Globe-LIVE/Consumer_Globe-LIVE_Thumbnail-Listing.jpg",
      "articleUrl": "https://www.globe.com.ph/about-us/newsroom/consumer/globe-live-wows-theatre-lovers-with-4-musical-productions.html",
      "columnType": "articles--type-3",
      "typeListing": "article",
      "imageMobile": "/sites/globe.com.ph/files/content/dam/globe/brie/AboutUs/newsroom/consumer/Consumer_Globe-LIVE/Consumer_Globe-LIVE_Banner-M.jpg",
      "imageDesktop": "/sites/globe.com.ph/files/content/dam/globe/brie/AboutUs/newsroom/consumer/Consumer_Globe-LIVE/Consumer_Globe-LIVE_Primary-Thumbnail.jpg",
      "description": "Globe LIVE wows theatre lovers with four musical productions this year. Visit Globe Newsroom for the latest news on Globe Telecom.",
      "datePosted": "May 31, 2017 | 03:33 PM",
      "titleFromTag": "Consumer"
    },
    {
      "title": "Official Statement on PCC and SMC",
      "nonclickable": false,
      "openNewTab": false,
      "borderArticle": "border-color:#0074D9;",
      "borderTopArticle": "border-top-color:#0074D9;",
      "imageListing": "/sites/globe.com.ph/files/content/dam/globe/brie/AboutUs/newsroom/common/Corporate_Globe_Listing.jpg",
      "articleUrl": "https://www.globe.com.ph/about-us/newsroom/corporate/official-statement-pcc-smc.html",
      "columnType": "articles--type-3",
      "typeListing": "article",
      "imageMobile": "/sites/globe.com.ph/files/content/dam/globe/brie/AboutUs/newsroom/common/Corporate_Globe_Hero-Banner-Mobile.jpg",
      "imageDesktop": "/sites/globe.com.ph/files/content/dam/globe/brie/AboutUs/newsroom/common/Corporate_Globe_Primary-Desktop-Thumbnail.jpg",
      "description": "Read Globe Telecom's official statement regarding Philippine Competition Commission (PCC) and the acquisition of San Miguel Corporation's (SMC) telco assets.",
      "datePosted": "May 31, 2017 | 12:46 PM",
      "titleFromTag": "Corporate"
    },
    {
      "title": "Makati City Government, Globe, GCash, and iBayad introduce Makatizen Card Today",
      "nonclickable": false,
      "openNewTab": false,
      "borderArticle": "border-color:#0074D9;",
      "borderTopArticle": "border-top-color:#0074D9;",
      "imageListing": "/sites/globe.com.ph/files/content/dam/globe/brie/AboutUs/newsroom/corporate/Corporate_Makati-City/Corporate_Makati-City_Thumbnail-Listing_.jpg",
      "articleUrl": "https://www.globe.com.ph/about-us/newsroom/corporate/makati-city-globe-gcash-ibayad-introduce-makatizen-card.html",
      "columnType": "articles--type-3",
      "typeListing": "article",
      "imageMobile": "/sites/globe.com.ph/files/content/dam/globe/brie/AboutUs/newsroom/corporate/Corporate_Makati-City/Corporate_Makati-City_Banner-M.jpg",
      "imageDesktop": "/sites/globe.com.ph/files/content/dam/globe/brie/AboutUs/newsroom/corporate/Corporate_Makati-City/Corporate_Makati-City_Primary-Thumbnail.jpg",
      "description": "Makati City Government, Globe, GCash, and iBayad introduce Makatizen Card Today",
      "datePosted": "May 31, 2017 | 12:47 PM",
      "titleFromTag": "Corporate"
    },
    {
      "title": "Globe Telecom Chooses Canvas to Cement Digital Transformation",
      "nonclickable": false,
      "openNewTab": false,
      "borderArticle": "border-color:#1C91C5;",
      "borderTopArticle": "border-top-color:#1C91C5;",
      "imageListing": "/sites/globe.com.ph/files/content/dam/globe/brie/AboutUs/newsroom/common/Corporate_Globe_Listing.jpg",
      "articleUrl": "https://www.globe.com.ph/about-us/newsroom/consumer/globe-chooses-canvas-to-cement-digital-transformation.html",
      "columnType": "articles--type-3",
      "typeListing": "article",
      "imageMobile": "/sites/globe.com.ph/files/content/dam/globe/brie/AboutUs/newsroom/common/Corporate_Globe_Hero-Banner-Mobile.jpg",
      "imageDesktop": "/sites/globe.com.ph/files/content/dam/globe/brie/AboutUs/newsroom/common/Corporate_Globe_Primary-Desktop-Thumbnail.jpg",
      "description": "Globe Telecom Chooses Canvas to Cement Digital Transformation. Visit the Globe Newsroom for the latest news on Globe Telecom.",
      "datePosted": "May 31, 2017 | 10:12 AM",
      "titleFromTag": "Consumer"
    },
    {
      "title": "Globe Business Innovates Solutions for Culinary Entrepreneurs",
      "nonclickable": false,
      "openNewTab": false,
      "borderArticle": "border-color:#1C91C5;",
      "borderTopArticle": "border-top-color:#1C91C5;",
      "imageListing": "/sites/globe.com.ph/files/content/dam/globe/brie/AboutUs/newsroom/consumer/Consumer_Globe-myBusiness-Innovates/Consumer_Globe-myBusiness-Innovates_Thumbnail-Listing.jpg",
      "articleUrl": "https://www.globe.com.ph/about-us/newsroom/consumer/globe-mybisness-innovates-solutions-for-culinary-entrepreneurs.html",
      "columnType": "articles--type-3",
      "typeListing": "article",
      "imageMobile": "/sites/globe.com.ph/files/content/dam/globe/brie/AboutUs/newsroom/consumer/Consumer_Globe-myBusiness-Innovates/Consumer_Globe-myBusiness-Innovates_Banner-M.jpg",
      "imageDesktop": "/sites/globe.com.ph/files/content/dam/globe/brie/AboutUs/newsroom/consumer/Consumer_Globe-myBusiness-Innovates/Consumer_Globe-myBusiness-Innovates_Primary-Thumbnail.jpg",
      "description": "Globe Business Innovates Solutions for Culinary Entrepreneurs. Visit the Globe Newsroom for the latest news on Globe Telecom.",
      "datePosted": "May 30, 2017 | 06:05 PM",
      "titleFromTag": "Consumer"
    },
    {
      "title": "Globe LIVE and 9Works Theatrical Stage First Local Production of Disney’s Newsies",
      "nonclickable": false,
      "openNewTab": false,
      "borderArticle": "border-color:#1C91C5;",
      "borderTopArticle": "border-top-color:#1C91C5;",
      "imageListing": "/sites/globe.com.ph/files/content/dam/globe/brie/AboutUs/newsroom/consumer/Consumer_Globe-LIVE-9Works/Consumer_Globe-LIVE-9Works_Thumbnail-Listing.jpg",
      "articleUrl": "https://www.globe.com.ph/about-us/newsroom/consumer/globe-live-9works-theatrical-stage-first-local-production-disneys-newsies.html",
      "columnType": "articles--type-3",
      "typeListing": "article",
      "imageMobile": "/sites/globe.com.ph/files/content/dam/globe/brie/AboutUs/newsroom/consumer/Consumer_Globe-LIVE-9Works/Consumer_Globe-LIVE-9Works_Banner-M.jpg",
      "imageDesktop": "/sites/globe.com.ph/files/content/dam/globe/brie/AboutUs/newsroom/consumer/Consumer_Globe-LIVE-9Works/Consumer_Globe-LIVE-9Works_Primary-Thumbnail.jpg",
      "description": "Globe LIVE and 9Works Theatrical Stage First Local Production of Disney’s Newsies. Visit the Globe Newsroom for the latest news on Globe Telecom.",
      "datePosted": "May 30, 2017 | 05:50 PM",
      "titleFromTag": "Consumer"
    },
    {
      "title": "Globe Partners with Teacher Training Innovators for Global Filipino Schools Program",
      "nonclickable": false,
      "openNewTab": false,
      "borderArticle": "border-color:#0074D9;",
      "borderTopArticle": "border-top-color:#0074D9;",
      "imageListing": "/sites/globe.com.ph/files/content/dam/globe/brie/AboutUs/newsroom/common/Corporate_Globe_Listing.jpg",
      "articleUrl": "https://www.globe.com.ph/about-us/newsroom/citizenship/globe-partners-with-teacher-training-innovations.html",
      "columnType": "articles--type-3",
      "typeListing": "article",
      "imageMobile": "/sites/globe.com.ph/files/content/dam/globe/brie/AboutUs/newsroom/common/Corporate_Globe_Hero-Banner-Mobile.jpg",
      "imageDesktop": "/sites/globe.com.ph/files/content/dam/globe/brie/AboutUs/newsroom/common/Corporate_Globe_Primary-Desktop-Thumbnail.jpg",
      "description": "Mano Amiga Academy, Inc., Habi Education Lab, and Affordable Private Education Center will tackle the integration of ICT in the classroom, design thinking, and 21st Century learning in the workshop aimed at transforming 120 teachers nationwide into DepEd trainers and experts. Visit the Globe Newsroom for the latest news on Globe Telecom.",
      "datePosted": "May 27, 2017 | 04:46 PM",
      "titleFromTag": "Sustainability"
    },
    {
      "title": "Globe Live and BHS Bring Kyla, Jay-R, Jason Dy, and Daryl Ong to Summer ASAP Soul Sessions",
      "nonclickable": false,
      "openNewTab": false,
      "borderArticle": "border-color:#1C91C5;",
      "borderTopArticle": "border-top-color:#1C91C5;",
      "imageListing": "/sites/globe.com.ph/files/content/dam/globe/brie/AboutUs/newsroom/consumer/Consumer_Globe-LIVE-BHS/Consumer_Globe-LIVE-BHS_Thumbnail-Listing.jpg",
      "articleUrl": "https://www.globe.com.ph/about-us/newsroom/consumer/globe-live-bhs-brings-you-kyla-jay-r-jason-dy-daryl-ong.html",
      "columnType": "articles--type-3",
      "typeListing": "article",
      "imageMobile": "/sites/globe.com.ph/files/content/dam/globe/brie/AboutUs/newsroom/consumer/Consumer_Globe-LIVE-BHS/Consumer_Globe-LIVE-BHS_Banner-M.jpg",
      "imageDesktop": "/sites/globe.com.ph/files/content/dam/globe/brie/AboutUs/newsroom/consumer/Consumer_Globe-LIVE-BHS/Consumer_Globe-LIVE-BHS_Primary-Thumbnail.jpg",
      "description": "Globe Live and BHS Bring Kyla, Jay-R, Jason Dy, and Daryl Ong to Summer ASAP Soul Sessions. Visit the Globe Newsroom for the latest news on Globe Telecom.",
      "datePosted": "May 26, 2017 | 04:04 PM",
      "titleFromTag": "Consumer"
    },
    {
      "title": "5 Things We Love About the #GlobeLGG6",
      "nonclickable": false,
      "openNewTab": false,
      "borderArticle": "border-color:#1C91C5;",
      "borderTopArticle": "border-top-color:#1C91C5;",
      "imageListing": "/sites/globe.com.ph/files/content/dam/globe/brie/AboutUs/newsroom/common/Corporate_Globe_Listing.jpg",
      "articleUrl": "https://www.globe.com.ph/about-us/newsroom/consumer/5-things-we-love-about-globelgg6.html",
      "columnType": "articles--type-3",
      "typeListing": "article",
      "imageDesktop": "/sites/globe.com.ph/files/content/dam/globe/brie/AboutUs/newsroom/common/Corporate_Globe_Primary-Desktop-Thumbnail.jpg",
      "description": "5 Things We Love About the #GlobeLGG6. Visit the Globe Newsroom for the latest news on Globe Telecom.",
      "datePosted": "May 25, 2017 | 06:25 PM",
      "titleFromTag": "Consumer"
    }
  ]
}
