{
  "status": 200,
  "page": 259,
  "totalPage": 298,
  "range": "3097-3108",
  "total": 3573,
  "result": [
    {
      "title": "RD Corporation Switches to G Suite Provided by Globe Business",
      "nonclickable": false,
      "openNewTab": false,
      "borderArticle": "border-color:#0074D9;",
      "borderTopArticle": "border-top-color:#0074D9;",
      "imageListing": "/sites/globe.com.ph/files/content/dam/globe/brie/AboutUs/newsroom/corporate/corporate-RD/Corporate_RD_Thumbnail-Listing.jpg",
      "articleUrl": "https://www.globe.com.ph/about-us/newsroom/corporate/rd-corporation-switches-to-g-suite.html",
      "columnType": "articles--type-3",
      "typeListing": "article",
      "imageMobile": "/sites/globe.com.ph/files/content/dam/globe/brie/AboutUs/newsroom/corporate/corporate-RD/Corporate_RD_Banner-M.jpg",
      "imageDesktop": "/sites/globe.com.ph/files/content/dam/globe/brie/AboutUs/newsroom/corporate/corporate-RD/Corporate_RD_Primary-Thumbnail.jpg",
      "description": "RD Corporation is Globe Business’ biggest G Suite client in the VisMin region. Visit the Globe Newsroom for the latest news on Globe Telecom.",
      "datePosted": "May 25, 2017 | 12:47 PM",
      "titleFromTag": "Corporate"
    },
    {
      "title": "Public Advisory for Enterprise Customers",
      "nonclickable": false,
      "openNewTab": false,
      "borderArticle": "border-color:#0074D9;",
      "borderTopArticle": "border-top-color:#0074D9;",
      "imageListing": "/sites/globe.com.ph/files/content/dam/globe/brie/AboutUs/newsroom/common/Corporate_Globe_Listing.jpg",
      "articleUrl": "https://www.globe.com.ph/about-us/newsroom/corporate/enterprise-group-public-advisory-on-ransomware.html",
      "columnType": "articles--type-3",
      "typeListing": "article",
      "imageMobile": "/sites/globe.com.ph/files/content/dam/globe/brie/AboutUs/newsroom/common/Corporate_Globe_Primary-Desktop-Thumbnail.jpg",
      "imageDesktop": "/sites/globe.com.ph/files/content/dam/globe/brie/AboutUs/newsroom/common/Corporate_Globe_Primary-Desktop-Thumbnail.jpg",
      "description": "Public Advisory for Enterprise Customers. Visit Globe Newsroom for the latest news on Globe Telecom.",
      "datePosted": "May 16, 2017 | 08:25 PM",
      "titleFromTag": "Business"
    },
    {
      "title": "Globe “#CreateCourage” Campaign for “Rogue One: A Star Wars Story” Shortlisted in the Tangrams [email protected] Awards",
      "nonclickable": false,
      "openNewTab": false,
      "borderArticle": "border-color:#0074D9;",
      "borderTopArticle": "border-top-color:#0074D9;",
      "imageListing": "/sites/globe.com.ph/files/content/dam/globe/brie/AboutUs/newsroom/common/Corporate_Globe_Listing.jpg",
      "articleUrl": "https://www.globe.com.ph/about-us/newsroom/corporate/globe-create-courage-rogue-one-a-star-wars-story-shortlisted-tangrams-award.html",
      "columnType": "articles--type-3",
      "typeListing": "article",
      "imageMobile": "/sites/globe.com.ph/files/content/dam/globe/brie/AboutUs/newsroom/common/Corporate_Globe_Hero-Banner-Mobile.jpg",
      "imageDesktop": "/sites/globe.com.ph/files/content/dam/globe/brie/AboutUs/newsroom/common/Corporate_Globe_Primary-Desktop-Thumbnail.jpg",
      "description": "Globe “#CreateCourage” Campaign for “Rogue One: A Star Wars Story” Shortlisted in the Tangrams Effectiveness@Spikes Awards. Visit the Newsroom for more.",
      "datePosted": "May 15, 2017 | 12:48 PM",
      "titleFromTag": "Corporate"
    },
    {
      "title": "Globe Telecom Board Approves 2Q P22.75 per Share Cash Dividend",
      "nonclickable": false,
      "openNewTab": false,
      "borderArticle": "border-color:#0074D9;",
      "borderTopArticle": "border-top-color:#0074D9;",
      "imageListing": "/sites/globe.com.ph/files/content/dam/globe/brie/AboutUs/newsroom/common/Corporate_Globe_Listing.jpg",
      "articleUrl": "https://www.globe.com.ph/about-us/newsroom/corporate/globe-board-approves-share-cash-dividend.html",
      "columnType": "articles--type-3",
      "typeListing": "article",
      "imageMobile": "/sites/globe.com.ph/files/content/dam/globe/brie/AboutUs/newsroom/common/Corporate_Globe_Hero-Banner-Mobile.jpg",
      "imageDesktop": "/sites/globe.com.ph/files/content/dam/globe/brie/AboutUs/newsroom/common/Corporate_Globe_Primary-Desktop-Thumbnail.jpg",
      "description": "Globe Telecom Board approves 2Q P22.75 per share cash dividend. Visit the Globe Newsroom for the latest news on Globe Telecom.",
      "datePosted": "May 12, 2017 | 12:49 PM",
      "titleFromTag": "Corporate"
    },
    {
      "title": "Globe Telecom’s Rogue One Ad Wins at Brand Film Festival New York",
      "nonclickable": false,
      "openNewTab": false,
      "borderArticle": "border-color:#0074D9;",
      "borderTopArticle": "border-top-color:#0074D9;",
      "imageListing": "/sites/globe.com.ph/files/content/dam/globe/brie/AboutUs/newsroom/corporate/corporate-globe-telecoms/Corporate_Globe-Telecoms_Thumbnail-Listing.jpg",
      "articleUrl": "https://www.globe.com.ph/about-us/newsroom/corporate/globe-telecoms-rogue-ad-wins.html",
      "columnType": "articles--type-3",
      "typeListing": "article",
      "imageMobile": "/sites/globe.com.ph/files/content/dam/globe/brie/AboutUs/newsroom/corporate/corporate-globe-telecoms/Corporate_Globe-Telecoms_Banner-M.jpg",
      "imageDesktop": "/sites/globe.com.ph/files/content/dam/globe/brie/AboutUs/newsroom/corporate/corporate-globe-telecoms/Corporate_Globe-Telecoms_Primary-Thumbnail.jpg",
      "description": "Globe Telecom is the first Philippine brand to be part of the Brand Film Festival’s roster, as well as the sole winner for Asia this year. Learn more here.",
      "datePosted": "May 12, 2017 | 12:48 PM",
      "titleFromTag": "Corporate"
    },
    {
      "title": "Globe 1Q Revenue Growth at Record Level P31.1 Bln; Up 4% On-Year",
      "nonclickable": false,
      "openNewTab": false,
      "borderArticle": "border-color:#0074D9;",
      "borderTopArticle": "border-top-color:#0074D9;",
      "imageListing": "/sites/globe.com.ph/files/content/dam/globe/brie/AboutUs/newsroom/common/Corporate_Globe_Listing.jpg",
      "articleUrl": "https://www.globe.com.ph/about-us/newsroom/corporate/globe-iq-revenue-growth-at-record-level.html",
      "columnType": "articles--type-3",
      "typeListing": "article",
      "imageMobile": "/sites/globe.com.ph/files/content/dam/globe/brie/AboutUs/newsroom/common/Corporate_Globe_Hero-Banner-Mobile.jpg",
      "imageDesktop": "/sites/globe.com.ph/files/content/dam/globe/brie/AboutUs/newsroom/common/Corporate_Globe_Primary-Desktop-Thumbnail.jpg",
      "description": "Globe 1Q revenue growth at record level P31.1 billion—up 4% on-year. Visit the Globe Newsroom for the latest news on Globe Telecom.",
      "datePosted": "May 11, 2017 | 12:49 PM",
      "titleFromTag": "Corporate"
    },
    {
      "title": "Globe Resumes Full Mobile Services in Quiapo Area",
      "nonclickable": false,
      "openNewTab": false,
      "borderArticle": "border-color:#1C91C5;",
      "borderTopArticle": "border-top-color:#1C91C5;",
      "imageListing": "/sites/globe.com.ph/files/content/dam/globe/brie/AboutUs/newsroom/common/Corporate_Globe_Listing.jpg",
      "articleUrl": "https://www.globe.com.ph/about-us/newsroom/consumer/globe-resumes-full-mobile-services-in-quiapo.html",
      "columnType": "articles--type-3",
      "typeListing": "article",
      "imageMobile": "/sites/globe.com.ph/files/content/dam/globe/brie/AboutUs/newsroom/common/Corporate_Globe_Hero-Banner-Mobile.jpg",
      "imageDesktop": "/sites/globe.com.ph/files/content/dam/globe/brie/AboutUs/newsroom/common/Corporate_Globe_Primary-Desktop-Thumbnail.jpg",
      "description": "Globe Resumes Full Mobile Services in Quiapo Area. Visit the Globe Newsroom for the latest news on Globe Telecom.",
      "datePosted": "May 10, 2017 | 07:40 PM",
      "titleFromTag": "Consumer"
    },
    {
      "title": "Globe Mobile Services in Quiapo Temporarily Suspended from 3 to 6 PM Today",
      "nonclickable": false,
      "openNewTab": false,
      "borderArticle": "border-color:#1C91C5;",
      "borderTopArticle": "border-top-color:#1C91C5;",
      "imageListing": "/sites/globe.com.ph/files/content/dam/globe/brie/AboutUs/newsroom/common/Corporate_Globe_Listing.jpg",
      "articleUrl": "https://www.globe.com.ph/about-us/newsroom/consumer/globe-mobile-services-quiapo-temporarily-sespended.html",
      "columnType": "articles--type-3",
      "typeListing": "article",
      "imageMobile": "/sites/globe.com.ph/files/content/dam/globe/brie/AboutUs/newsroom/common/Corporate_Globe_Hero-Banner-Mobile.jpg",
      "imageDesktop": "/sites/globe.com.ph/files/content/dam/globe/brie/AboutUs/newsroom/common/Corporate_Globe_Primary-Desktop-Thumbnail.jpg",
      "description": "Globe Mobile Services in Quiapo Temporarily Suspended from 3 to 6 PM Today. Visit the Globe Newsroom for the latest news on Globe Telecom.",
      "datePosted": "May 10, 2017 | 03:12 PM",
      "titleFromTag": "Consumer"
    },
    {
      "title": "Globe, DepEd to Bring Responsible Digital Citizenship to Public Schools in Region IX",
      "nonclickable": false,
      "openNewTab": false,
      "borderArticle": "border-color:#0074D9;",
      "borderTopArticle": "border-top-color:#0074D9;",
      "imageListing": "/sites/globe.com.ph/files/content/dam/globe/brie/AboutUs/newsroom/corporate/corporate-globe-deped/Corporate_Globe-DepEd_Thumbnail-Listing.jpg",
      "articleUrl": "https://www.globe.com.ph/about-us/newsroom/corporate/globe-deped-responsible-digital-citizenship.html",
      "columnType": "articles--type-3",
      "typeListing": "article",
      "imageMobile": "/sites/globe.com.ph/files/content/dam/globe/brie/AboutUs/newsroom/corporate/corporate-globe-deped/Corporate_Globe-DepEd_Banner-M.jpg",
      "imageDesktop": "/sites/globe.com.ph/files/content/dam/globe/brie/AboutUs/newsroom/corporate/corporate-globe-deped/Corporate_Globe-DepEd_Primary-Thumbnail.jpg",
      "description": "Globe customers can subscribe to KonsultaMD, a 24/7 health hotline service that provides access to licensed and professional doctors. Learn more here.",
      "datePosted": "May 10, 2017 | 12:50 PM",
      "titleFromTag": "Corporate"
    },
    {
      "title": "Globe Telecom Partners with Ashoka Philippines for Globe Future Makers Program",
      "nonclickable": false,
      "openNewTab": false,
      "borderArticle": "border-color:#0074D9;",
      "borderTopArticle": "border-top-color:#0074D9;",
      "imageListing": "/sites/globe.com.ph/files/content/dam/globe/brie/AboutUs/newsroom/corporate/Corporate_Globe-Telecom-Partners/Corporate_Globe-Telecom-Partners_Thumbnail_Listing.jpg",
      "articleUrl": "https://www.globe.com.ph/about-us/newsroom/corporate/globe-ashoka-philippines-future-makers-program.html",
      "columnType": "articles--type-3",
      "typeListing": "article",
      "imageMobile": "/sites/globe.com.ph/files/content/dam/globe/brie/AboutUs/newsroom/corporate/Corporate_Globe-Telecom-Partners/Corporate_Globe-Telecom-Partners_Banner-M.jpg",
      "imageDesktop": "/sites/globe.com.ph/files/content/dam/globe/brie/AboutUs/newsroom/corporate/Corporate_Globe-Telecom-Partners/Corporate_Globe-Telecom-Partners_Primary-Thumbnail.jpg",
      "description": "The application period for the Globe Future Makers program is extended until May 21, 2017. Visit the Globe Newsroom for the latest news on Globe Telecom.",
      "datePosted": "May 10, 2017 | 12:50 PM",
      "titleFromTag": "Corporate"
    },
    {
      "title": "Globe, BSCC Sign SEA-US Cable Interconnection Agreement in Guam",
      "nonclickable": false,
      "openNewTab": false,
      "borderArticle": "border-color:#0074D9;",
      "borderTopArticle": "border-top-color:#0074D9;",
      "imageListing": "/sites/globe.com.ph/files/content/dam/globe/brie/AboutUs/newsroom/common/Corporate_Globe_Listing.jpg",
      "articleUrl": "https://www.globe.com.ph/about-us/newsroom/corporate/globe-bscc-sign-sea-us-cable-interconnection-agreement.html",
      "columnType": "articles--type-3",
      "typeListing": "article",
      "imageMobile": "/sites/globe.com.ph/files/content/dam/globe/brie/AboutUs/newsroom/common/Corporate_Globe_Primary-Desktop-Thumbnail.jpg",
      "imageDesktop": "/sites/globe.com.ph/files/content/dam/globe/brie/AboutUs/newsroom/common/Corporate_Globe_Primary-Desktop-Thumbnail.jpg",
      "description": "Globe, BSCC Sign SEA-US Cable Interconnection Agreement in Guam. Visit Globe Newsroom for the latest news on Globe Telecom.",
      "datePosted": "May 09, 2017 | 08:26 PM",
      "titleFromTag": "Business"
    },
    {
      "title": "Globe, BSCC Sign SEA-US Cable Interconnection Agreement in Guam",
      "nonclickable": false,
      "openNewTab": false,
      "borderArticle": "border-color:#0074D9;",
      "borderTopArticle": "border-top-color:#0074D9;",
      "imageListing": "/sites/globe.com.ph/files/content/dam/globe/brie/AboutUs/newsroom/corporate/Corporate_Globe-BSCC/Corporate_Globe-BSCC_Thumbnail-Listing.jpg",
      "articleUrl": "https://www.globe.com.ph/about-us/newsroom/corporate/globe-bscc-signs-sea-us-cable-interconnection-agreement-guam.html",
      "columnType": "articles--type-3",
      "typeListing": "article",
      "imageMobile": "/sites/globe.com.ph/files/content/dam/globe/brie/AboutUs/newsroom/corporate/Corporate_Globe-BSCC/Corporate_Globe-BSCC_Banner-M.jpg",
      "imageDesktop": "/sites/globe.com.ph/files/content/dam/globe/brie/AboutUs/newsroom/corporate/Corporate_Globe-BSCC/Corporate_Globe-BSCC_Primary-Thumbnail.jpg",
      "description": "Globe, BSCC Sign SEA-US Cable Interconnection Agreement in Guam. Visit the Globe Newsroom for the latest news on Globe Telecom.",
      "datePosted": "May 09, 2017 | 12:51 PM",
      "titleFromTag": "Corporate"
    }
  ]
}
