{
  "status": 200,
  "page": 26,
  "totalPage": 298,
  "range": "301-312",
  "total": 3573,
  "result": [
    {
      "title": "Globe Business Donates to The Hapag Movement via Food Rescue NGO SOS PH",
      "nonclickable": false,
      "openNewTab": false,
      "borderArticle": "border-color:#1C91C5;",
      "borderTopArticle": "border-top-color:#1C91C5;",
      "imageListing": "/sites/globe.com.ph/files/content/dam/globe/brie/AboutUs/newsroom/common/default-sustainability-5/default-sustainability-4-thumbnail-listing.jpg",
      "articleUrl": "https://www.globe.com.ph/about-us/newsroom/sustainability/globe-business-donates-to-the-hapag-movement.html",
      "columnType": "articles--type-3",
      "typeListing": "article",
      "imageMobile": "/sites/globe.com.ph/files/content/dam/globe/brie/AboutUs/newsroom/common/default-sustainability-5/default-sustainability-4-primary-thumbnail-m.jpg",
      "imageDesktop": "/sites/globe.com.ph/files/content/dam/globe/brie/AboutUs/newsroom/common/default-sustainability-5/default-sustainability-4-primary-thumbnail-d.jpg",
      "description": "Globe Business, Scholars of Sustenance Philippines Food Rescue (SOS PH) partners to donate to TheHapag Movement.",
      "datePosted": "May 11, 2023 | 11:42 AM",
      "titleFromTag": "Sustainability"
    },
    {
      "title": "I-ACT At Your Service Awards 2.0 Honors Globe for COVID-19 Response Efforts",
      "nonclickable": false,
      "openNewTab": false,
      "borderArticle": "border-color:#0074D9;",
      "borderTopArticle": "border-top-color:#0074D9;",
      "imageListing": "/sites/globe.com.ph/files/content/dam/globe/brie/AboutUs/newsroom/common/default-awards-1/corp-default-images-thumbnail-listing.jpg",
      "articleUrl": "https://www.globe.com.ph/about-us/newsroom/sustainability/i-act-at-your-service-awards-honors-globe.html",
      "columnType": "articles--type-3",
      "typeListing": "article",
      "imageMobile": "/sites/globe.com.ph/files/content/dam/globe/brie/AboutUs/newsroom/common/default-awards-1/corp-default-images-primary-thumbnail-m.jpg",
      "imageDesktop": "/sites/globe.com.ph/files/content/dam/globe/brie/AboutUs/newsroom/common/default-awards-1/corp-default-images-primary-thumbnail-d.jpg",
      "description": "Globe was recognized by the Inter-Agency Council for Traffic (I-ACT) and SM Cares for its steadfast support during the height of the COVID-19 pandemic.",
      "datePosted": "May 10, 2023 | 02:30 PM",
      "titleFromTag": "Sustainability"
    },
    {
      "title": "Make Every Day a Celebration with Chef Jessie while Helping Fight Involuntary Hunger",
      "nonclickable": false,
      "openNewTab": false,
      "borderArticle": "border-color:#0074D9;",
      "borderTopArticle": "border-top-color:#0074D9;",
      "imageListing": "/sites/globe.com.ph/files/content/dam/globe/brie/AboutUs/newsroom/sustainability/make-every-day-a-celebration-with-chef-jessie/corp-hapag-movement-thumbnail-listing.jpg",
      "articleUrl": "https://www.globe.com.ph/about-us/newsroom/sustainability/chef-jessie-the-hapag-movement-menu.html",
      "columnType": "articles--type-3",
      "typeListing": "article",
      "imageMobile": "/sites/globe.com.ph/files/content/dam/globe/brie/AboutUs/newsroom/sustainability/make-every-day-a-celebration-with-chef-jessie/corp-hapag-movement-primary-thumbnail-m.jpg",
      "imageDesktop": "/sites/globe.com.ph/files/content/dam/globe/brie/AboutUs/newsroom/sustainability/make-every-day-a-celebration-with-chef-jessie/corp-hapag-movement-primary-thumbnail-d.jpg",
      "description": "At the Chef Jessie Rockwell Club, you & your loved ones can enjoy exceptional cuisine while contributing to a worthy cause—the fight against involuntary hunger.",
      "datePosted": "May 10, 2023 | 12:06 PM",
      "titleFromTag": "Sustainability"
    },
    {
      "title": "Globe Foils over 4M Malicious Bank-Related SMS from January to March",
      "nonclickable": false,
      "openNewTab": false,
      "borderArticle": "border-color:#0074D9;",
      "borderTopArticle": "border-top-color:#0074D9;",
      "imageListing": "/sites/globe.com.ph/files/content/dam/globe/brie/AboutUs/newsroom/common/default-total-globe-1/default-1-total-globe-thumbnail-listing.jpg",
      "articleUrl": "https://www.globe.com.ph/about-us/newsroom/corporate/over-4m-malicious-bank-related-sms-jan-march-2023.html",
      "columnType": "articles--type-3",
      "typeListing": "article",
      "imageMobile": "/sites/globe.com.ph/files/content/dam/globe/brie/AboutUs/newsroom/common/default-total-globe-1/default-1-total-globe-primary-thumbnail-m.jpg",
      "imageDesktop": "/sites/globe.com.ph/files/content/dam/globe/brie/AboutUs/newsroom/common/default-total-globe-1/default-1-total-globe-primary-thumbnail-d.jpg",
      "description": "The latest data showed the number of malicious bank-related messages blocked by Globe reached 4.07 million from January to March this year.",
      "datePosted": "May 10, 2023 | 11:42 AM",
      "titleFromTag": "Corporate"
    },
    {
      "title": "KonsultaMD, Makati City Team Up to Provide Free 24/7 Online Medical Consultations for City Hall Employees",
      "nonclickable": false,
      "openNewTab": false,
      "borderArticle": "border-color:#0074D9;",
      "borderTopArticle": "border-top-color:#0074D9;",
      "imageListing": "/sites/globe.com.ph/files/content/dam/globe/brie/About-us/Newsroom/image/Corporate/050823/konsultamd-makati-city-24-7-online-medical-consultations-thumbnail-listing.jpg",
      "articleUrl": "https://www.globe.com.ph/about-us/newsroom/corporate/konsultamd-makati-city-24-7-online-medical-consultations.html",
      "columnType": "articles--type-3",
      "typeListing": "article",
      "imageMobile": "/sites/globe.com.ph/files/content/dam/globe/brie/About-us/Newsroom/image/Corporate/050823/konsultamd-makati-city-24-7-online-medical-consultations-primary-thumbnail-m.jpg",
      "imageDesktop": "/sites/globe.com.ph/files/content/dam/globe/brie/About-us/Newsroom/image/Corporate/050823/konsultamd-makati-city-24-7-online-medical-consultations-primary-thumbnail-d.jpg",
      "description": "KonsultaMD has joined hands with the Makati City government to provide 24/7 online doctor consultations for free starting May 2023.",
      "datePosted": "May 08, 2023 | 01:53 PM",
      "titleFromTag": "Corporate"
    },
    {
      "title": "Globe’s Employee Super App Wins Two Gold Stevie® Awards For Transforming Employee Experience",
      "nonclickable": false,
      "openNewTab": false,
      "borderArticle": "border-color:#0074D9;",
      "borderTopArticle": "border-top-color:#0074D9;",
      "imageListing": "/sites/globe.com.ph/files/content/dam/globe/brie/About-us/Newsroom/image/Corporate/050423/Gold-Stevie-Awards-for-transforming-employee-experience-thumbnail-listing.jpg",
      "articleUrl": "https://www.globe.com.ph/about-us/newsroom/corporate/employee-super-app-wins-two-gold-stevie-awards.html",
      "columnType": "articles--type-3",
      "typeListing": "article",
      "imageMobile": "/sites/globe.com.ph/files/content/dam/globe/brie/About-us/Newsroom/image/Corporate/050423/Gold-Stevie-Awards-for-transforming-employee-experience-primary-thumbnail-m.jpg",
      "imageDesktop": "/sites/globe.com.ph/files/content/dam/globe/brie/About-us/Newsroom/image/Corporate/050423/employee-super-app-wins-two-gold-stevie-awards-primary-thumbnail-d.jpg",
      "description": "Globe’s internal employee super app Quest won two Gold Stevie® Awards for transforming employee experience in the 19th annual international business awards.",
      "datePosted": "May 04, 2023 | 01:53 PM",
      "titleFromTag": "Corporate"
    },
    {
      "title": "RUSH Launches eStore Charge, the Ultimate Affordable Solution for Efficient Social Selling",
      "nonclickable": false,
      "openNewTab": false,
      "borderArticle": "border-color:#0074D9;",
      "borderTopArticle": "border-top-color:#0074D9;",
      "imageListing": "/sites/globe.com.ph/files/content/dam/globe/brie/AboutUs/newsroom/common/default-business-6/sg-default-images-thumbnail-listing.jpg",
      "articleUrl": "https://www.globe.com.ph/about-us/newsroom/business/rush-launches-estore-charge.html",
      "columnType": "articles--type-3",
      "typeListing": "article",
      "imageMobile": "/sites/globe.com.ph/files/content/dam/globe/brie/AboutUs/newsroom/common/default-business-6/sg-default-images-primary-thumbnail-m.jpg",
      "imageDesktop": "/sites/globe.com.ph/files/content/dam/globe/brie/AboutUs/newsroom/common/default-business-6/sg-default-images-primary-thumbnail-d.jpg",
      "description": "eStore Charge aims to empower entrepreneurs to manage their businesses through a user-friendly platform.",
      "datePosted": "May 04, 2023 | 11:38 AM",
      "titleFromTag": "Business"
    },
    {
      "title": "Sustainability Takes Center Stage in Globe’s 2022 Network Operations",
      "nonclickable": false,
      "openNewTab": false,
      "borderArticle": "border-color:#0074D9;",
      "borderTopArticle": "border-top-color:#0074D9;",
      "imageListing": "/sites/globe.com.ph/files/content/dam/globe/brie/AboutUs/newsroom/common/default-corporate-main/newsroom-default-corporate-thumbnail-listing.jpg",
      "articleUrl": "https://www.globe.com.ph/about-us/newsroom/sustainability/center-stage-globe-2022-network-operations.html",
      "columnType": "articles--type-3",
      "typeListing": "article",
      "imageMobile": "/sites/globe.com.ph/files/content/dam/globe/brie/AboutUs/newsroom/common/default-corporate-main/newsroom-default-corporate-primary-thumbnail-m.jpg",
      "imageDesktop": "/sites/globe.com.ph/files/content/dam/globe/brie/AboutUs/newsroom/common/default-corporate-main/newsroom-default-corporate-primary-thumbnail-d.jpg",
      "description": "Globe integrated sustainability into its network operations, as the company continued to roll out green technologies towards achieving Net Zero GHG by 2050.",
      "datePosted": "May 03, 2023 | 03:53 PM",
      "titleFromTag": "Sustainability"
    },
    {
      "title": "PNP Arrests Cordillera’s Most Wanted in Collaboration With GCash",
      "nonclickable": false,
      "openNewTab": false,
      "borderArticle": "border-color:#0074D9;",
      "borderTopArticle": "border-top-color:#0074D9;",
      "imageListing": "/sites/globe.com.ph/files/content/dam/globe/brie/About-us/Newsroom/image/Corporate/050323/thumbnail-listing.jpg",
      "articleUrl": "https://www.globe.com.ph/about-us/newsroom/corporate/pnp-arrests-cordilleras-most-wanted-collaboration-gcash.html",
      "columnType": "articles--type-3",
      "typeListing": "article",
      "imageMobile": "/sites/globe.com.ph/files/content/dam/globe/brie/About-us/Newsroom/image/Corporate/050323/primary-thumbnail-m.jpg",
      "imageDesktop": "/sites/globe.com.ph/files/content/dam/globe/brie/About-us/Newsroom/image/Corporate/050323/primary-thumbnail-d.jpg",
      "description": "PNP arrests the most wanted person in the Cordillera in collaboration with the country’s leading mobile wallet, GCash.",
      "datePosted": "May 03, 2023 | 01:53 PM",
      "titleFromTag": "Corporate"
    },
    {
      "title": "Globe Blocks Over 65K Child Porn Sites in Three Months",
      "nonclickable": false,
      "openNewTab": false,
      "borderArticle": "border-color:#0074D9;",
      "borderTopArticle": "border-top-color:#0074D9;",
      "imageListing": "/sites/globe.com.ph/files/content/dam/globe/brie/AboutUs/newsroom/common/default-corporate-11/corp-thumbnail-listing.jpg",
      "articleUrl": "https://www.globe.com.ph/about-us/newsroom/corporate/globe-blocks-over-65k-child-porn-sites.html",
      "columnType": "articles--type-3",
      "typeListing": "article",
      "imageMobile": "/sites/globe.com.ph/files/content/dam/globe/brie/AboutUs/newsroom/common/default-corporate-11/corp-primary-thumbnail-m.jpg",
      "imageDesktop": "/sites/globe.com.ph/files/content/dam/globe/brie/AboutUs/newsroom/common/default-corporate-11/corp-primary-thumbnail-d.jpg",
      "description": "Globe has blocked over 65,000 child porn sites in the first quarter of the year.",
      "datePosted": "May 03, 2023 | 01:53 PM",
      "titleFromTag": "Corporate"
    },
    {
      "title": "From Microwaves to Fiber Optics: Globe Journeys Towards Greener Network",
      "nonclickable": false,
      "openNewTab": false,
      "borderArticle": "border-color:#0074D9;",
      "borderTopArticle": "border-top-color:#0074D9;",
      "imageListing": "/sites/globe.com.ph/files/content/dam/globe/brie/AboutUs/newsroom/common/default-corporate-5/corp-thumbnail-listing.jpg",
      "articleUrl": "https://www.globe.com.ph/about-us/newsroom/corporate/globe-journeys-towards-greener-network.html",
      "columnType": "articles--type-3",
      "typeListing": "article",
      "imageMobile": "/sites/globe.com.ph/files/content/dam/globe/brie/AboutUs/newsroom/common/default-corporate-5/corp-primary-thumbnail-m.jpg",
      "imageDesktop": "/sites/globe.com.ph/files/content/dam/globe/brie/AboutUs/newsroom/common/default-corporate-5/corp-primary-thumbnail-d.jpg",
      "description": "From using microwave antennas, Globe recently migrated to using fiber optic cable as a more energy-efficient and economical option.",
      "datePosted": "May 03, 2023 | 01:53 PM",
      "titleFromTag": "Corporate"
    },
    {
      "title": "Globe Tests Successful on VoLTE Roaming for Partner Operators’ Upgrade",
      "nonclickable": false,
      "openNewTab": false,
      "borderArticle": "border-color:#0074D9;",
      "borderTopArticle": "border-top-color:#0074D9;",
      "imageListing": "/sites/globe.com.ph/files/content/dam/globe/brie/AboutUs/newsroom/consumer/roaming-like-a-local/Newsroom-International-Default-Images-Solo-Travel-with-mobile-1-thumbnail-listing.jpg",
      "articleUrl": "https://www.globe.com.ph/about-us/newsroom/corporate/globe-tests-successful-volte-roaming.html",
      "columnType": "articles--type-3",
      "typeListing": "article",
      "imageMobile": "/sites/globe.com.ph/files/content/dam/globe/brie/AboutUs/newsroom/consumer/roaming-like-a-local/Newsroom-International-Default-Images-Solo-Travel-with-mobile-1-primary-thumbnail-m.jpg",
      "imageDesktop": "/sites/globe.com.ph/files/content/dam/globe/brie/AboutUs/newsroom/consumer/roaming-like-a-local/Newsroom-International-Default-Images-Solo-Travel-with-mobile-1-primary-thumbnail-d.jpg",
      "description": "Globe's technical team performed successful VoLTE Outbound Roaming and VoLTE Inbound Roaming calls with Airtel.",
      "datePosted": "May 03, 2023 | 01:53 PM",
      "titleFromTag": "Corporate"
    }
  ]
}
