{
  "status": 200,
  "page": 260,
  "totalPage": 298,
  "range": "3109-3120",
  "total": 3573,
  "result": [
    {
      "title": "KonsultaMD Collaborates with New Partners to Provide Better Medical Service to Globe Customers",
      "nonclickable": false,
      "openNewTab": false,
      "borderArticle": "border-color:#1C91C5;",
      "borderTopArticle": "border-top-color:#1C91C5;",
      "imageListing": "/sites/globe.com.ph/files/content/dam/globe/brie/AboutUs/newsroom/consumer/Consumer_KonsultaMD/Consumer_KonsultaMD_Thumbnail_Listing.jpg",
      "articleUrl": "https://www.globe.com.ph/about-us/newsroom/consumer/konsultamd-collaborates-with-new-partners.html",
      "columnType": "articles--type-3",
      "typeListing": "article",
      "imageMobile": "/sites/globe.com.ph/files/content/dam/globe/brie/AboutUs/newsroom/consumer/Consumer_KonsultaMD/Consumer_KonsultaMD_Hero-Banner-M.jpg",
      "imageDesktop": "/sites/globe.com.ph/files/content/dam/globe/brie/AboutUs/newsroom/consumer/Consumer_KonsultaMD/Consumer_KonsultaMD_Primary-Thumbnail.jpg",
      "description": "KonsultaMD Collaborates with New Partners to Provide Better Medical Service to Globe Customers. Visit the Globe Newsroom for the latest news on Globe Telecom.",
      "datePosted": "May 08, 2017 | 06:46 PM",
      "titleFromTag": "Consumer"
    },
    {
      "title": "Globe to Suspend Mobile Services in Select Areas in Quiapo for 48 Hours",
      "nonclickable": false,
      "openNewTab": false,
      "borderArticle": "border-color:#1C91C5;",
      "borderTopArticle": "border-top-color:#1C91C5;",
      "imageListing": "/sites/globe.com.ph/files/content/dam/globe/brie/AboutUs/newsroom/common/Corporate_Globe_Listing.jpg",
      "articleUrl": "https://www.globe.com.ph/about-us/newsroom/consumer/globe-to-suspend-mobile-services-quiapo.html",
      "columnType": "articles--type-3",
      "typeListing": "article",
      "imageMobile": "/sites/globe.com.ph/files/content/dam/globe/brie/AboutUs/newsroom/common/Corporate_Globe_Hero-Banner-Mobile.jpg",
      "imageDesktop": "/sites/globe.com.ph/files/content/dam/globe/brie/AboutUs/newsroom/common/Corporate_Globe_Primary-Desktop-Thumbnail.jpg",
      "description": "Globe to Suspend Mobile Services in Select Areas in Quiapo for 48 Hours. Visit the Globe Newsroom for the latest news on Globe Telecom.",
      "datePosted": "May 07, 2017 | 08:00 PM",
      "titleFromTag": "Consumer"
    },
    {
      "title": "Globe #1stWorldInternetPH is Best Telecom Campaign in Asia Pacific",
      "nonclickable": false,
      "openNewTab": false,
      "borderArticle": "border-color:#0074D9;",
      "borderTopArticle": "border-top-color:#0074D9;",
      "imageListing": "/sites/globe.com.ph/files/content/dam/globe/brie/AboutUs/newsroom/corporate/Corporate_1st-World/Corporate_1st-World_Thumbnail-Listing.jpg",
      "articleUrl": "https://www.globe.com.ph/about-us/newsroom/corporate/globe-1stworldinternetph-best-telecom-campaign-asia-pacific.html",
      "columnType": "articles--type-3",
      "typeListing": "article",
      "imageMobile": "/sites/globe.com.ph/files/content/dam/globe/brie/AboutUs/newsroom/corporate/Corporate_1st-World/Corporate_1st-World_Banner-M.jpg",
      "imageDesktop": "/sites/globe.com.ph/files/content/dam/globe/brie/AboutUs/newsroom/corporate/Corporate_1st-World/Corporate_1st-World_Primary-Thumbnail.jpg",
      "description": "Globe #1stWorldInternetPH is best telecom campaign in the Asia Pacific. Visit the Globe Newsroom for the latest news on Globe Telecom.",
      "datePosted": "May 05, 2017 | 12:52 PM",
      "titleFromTag": "Corporate"
    },
    {
      "title": "Globe Telecom Lauds 5 LGUs for Telecom Support",
      "nonclickable": false,
      "openNewTab": false,
      "borderArticle": "border-color:#0074D9;",
      "borderTopArticle": "border-top-color:#0074D9;",
      "imageListing": "/sites/globe.com.ph/files/content/dam/globe/brie/AboutUs/newsroom/common/Corporate_Globe_Listing.jpg",
      "articleUrl": "https://www.globe.com.ph/about-us/newsroom/corporate/globe-lauds-5-lgus-for-telecom-support.html",
      "columnType": "articles--type-3",
      "typeListing": "article",
      "imageMobile": "/sites/globe.com.ph/files/content/dam/globe/brie/AboutUs/newsroom/common/Corporate_Globe_Hero-Banner-Mobile.jpg",
      "imageDesktop": "/sites/globe.com.ph/files/content/dam/globe/brie/AboutUs/newsroom/common/Corporate_Globe_Primary-Desktop-Thumbnail.jpg",
      "description": "LGUs in support of the establishment of telecommunication facilities are expected to benefit from better, faster services. Visit the Globe Newsroom for more.",
      "datePosted": "May 05, 2017 | 12:51 PM",
      "titleFromTag": "Corporate"
    },
    {
      "title": "Get Your Food Business Going with These Top 10 Tips from the Experts",
      "nonclickable": false,
      "openNewTab": false,
      "borderArticle": "border-color:#0074D9;",
      "borderTopArticle": "border-top-color:#0074D9;",
      "imageListing": "/sites/globe.com.ph/files/content/dam/globe/brie/AboutUs/newsroom/business/business-food-business/consumer-food-business-thumbnail-listing.jpg",
      "articleUrl": "https://www.globe.com.ph/about-us/newsroom/business/get-your-food-business-going.html",
      "columnType": "articles--type-3",
      "typeListing": "article",
      "imageMobile": "/sites/globe.com.ph/files/content/dam/globe/brie/AboutUs/newsroom/business/business-food-business/consumer-food-business-banner-m.jpg",
      "imageDesktop": "/sites/globe.com.ph/files/content/dam/globe/brie/AboutUs/newsroom/business/business-food-business/consumer-food-business-primary-thumbnail.jpg",
      "description": "Globe Business, in partnership with Entrepreneur magazine, hosted the first of the Globe Business Academy Series called Trep Talks. Learn more here.",
      "datePosted": "May 03, 2017 | 11:09 AM",
      "titleFromTag": "Business"
    },
    {
      "title": "10 Things You Need to Know Before You Watch Globe Live’s Newsies",
      "nonclickable": false,
      "openNewTab": false,
      "borderArticle": "border-color:#1C91C5;",
      "borderTopArticle": "border-top-color:#1C91C5;",
      "imageListing": "/sites/globe.com.ph/files/content/dam/globe/brie/AboutUs/newsroom/common/Corporate_Globe_Listing.jpg",
      "articleUrl": "https://www.globe.com.ph/about-us/newsroom/consumer/10-things-you-need-to-know-disney-newsies.html",
      "columnType": "articles--type-3",
      "typeListing": "article",
      "imageMobile": "/sites/globe.com.ph/files/content/dam/globe/brie/AboutUs/newsroom/common/Corporate_Globe_Hero-Banner-Mobile.jpg",
      "imageDesktop": "/sites/globe.com.ph/files/content/dam/globe/brie/AboutUs/newsroom/common/Corporate_Globe_Primary-Desktop-Thumbnail.jpg",
      "description": "10 Things You Need to Know Before You Watch Globe Live’s Newsies. Visit the Globe Newsroom for the latest news on Globe Telecom.",
      "datePosted": "May 02, 2017 | 12:21 PM",
      "titleFromTag": "Consumer"
    },
    {
      "title": "Globe, UC Hold PRISM Digital Literacy Training Program for Teachers in the Visayas",
      "nonclickable": false,
      "openNewTab": false,
      "borderArticle": "border-color:#0074D9;",
      "borderTopArticle": "border-top-color:#0074D9;",
      "imageListing": "/sites/globe.com.ph/files/content/dam/globe/brie/AboutUs/newsroom/common/Corporate_Globe_Listing.jpg",
      "articleUrl": "https://www.globe.com.ph/about-us/newsroom/business/globe-uc-hold-prism-digital-literacy-training-program.html",
      "columnType": "articles--type-3",
      "typeListing": "article",
      "imageMobile": "/sites/globe.com.ph/files/content/dam/globe/brie/AboutUs/newsroom/common/Corporate_Globe_Hero-Banner-Mobile.jpg",
      "imageDesktop": "/sites/globe.com.ph/files/content/dam/globe/brie/AboutUs/newsroom/common/Corporate_Globe_Primary-Desktop-Thumbnail.jpg",
      "description": "PRISM is designed to equip private school teachers with technological skills for effective classroom teaching. Visit the Globe Newsroom for the latest news",
      "datePosted": "Apr 29, 2017 | 04:28 PM",
      "titleFromTag": "Business"
    },
    {
      "title": "Globe Boosts Boracay Mobile Data Network Coverage and Capacity with New Massive MIMO Technology",
      "nonclickable": false,
      "openNewTab": false,
      "borderArticle": "border-color:#0074D9;",
      "borderTopArticle": "border-top-color:#0074D9;",
      "imageListing": "/sites/globe.com.ph/files/content/dam/globe/brie/AboutUs/newsroom/common/Corporate_Globe_Listing.jpg",
      "articleUrl": "https://www.globe.com.ph/about-us/newsroom/corporate/globe-boost-boracay-data-network-coverage.html",
      "columnType": "articles--type-3",
      "typeListing": "article",
      "imageMobile": "/sites/globe.com.ph/files/content/dam/globe/brie/AboutUs/newsroom/common/Corporate_Globe_Hero-Banner-Mobile.jpg",
      "imageDesktop": "/sites/globe.com.ph/files/content/dam/globe/brie/AboutUs/newsroom/common/Corporate_Globe_Primary-Desktop-Thumbnail.jpg",
      "description": "Globe Telecom deploys new technology to boost its mobile data coverage and capacity in time for LaBoracay. Visit the Globe Newsroom for the latest news",
      "datePosted": "Apr 28, 2017 | 12:52 PM",
      "titleFromTag": "Corporate"
    },
    {
      "title": "Globe Holds 1st PH Mobile Legends Tournament at Pinoy Gaming Festival 2017",
      "nonclickable": false,
      "openNewTab": false,
      "borderArticle": "border-color:#1C91C5;",
      "borderTopArticle": "border-top-color:#1C91C5;",
      "imageListing": "/sites/globe.com.ph/files/content/dam/globe/brie/AboutUs/newsroom/consumer/Consumer_Globe-Holds/Consumer_Globe-Holds_Thumbnail-Listing.jpg",
      "articleUrl": "https://www.globe.com.ph/about-us/newsroom/consumer/globe-holds-1st-philippine-mobile-legend-tournament.html",
      "columnType": "articles--type-3",
      "typeListing": "article",
      "imageMobile": "/sites/globe.com.ph/files/content/dam/globe/brie/AboutUs/newsroom/consumer/Consumer_Globe-Holds/Consumer_Globe-Holds_Hero-Banner-M.jpg",
      "imageDesktop": "/sites/globe.com.ph/files/content/dam/globe/brie/AboutUs/newsroom/consumer/Consumer_Globe-Holds/Consumer_Globe-Holds_Primary-Thumbnail.jpg",
      "description": "Globe Holds 1st PH Mobile Legends Tournament at Pinoy Gaming Festival 2017. Visit the Globe Newsroom for the latest news on Globe Telecom.",
      "datePosted": "Apr 27, 2017 | 09:02 PM",
      "titleFromTag": "Consumer"
    },
    {
      "title": "Create Your Next Adventure with These Globe Roaming Offers",
      "nonclickable": false,
      "openNewTab": false,
      "borderArticle": "border-color:#1C91C5;",
      "borderTopArticle": "border-top-color:#1C91C5;",
      "imageListing": "/sites/globe.com.ph/files/content/dam/globe/brie/AboutUs/newsroom/consumer/Consumer_Create-Your-Next/Consumer_Create-Your-Next_Thumbnail-Listing.jpg",
      "articleUrl": "https://www.globe.com.ph/about-us/newsroom/consumer/create-your-next-adventure.html",
      "columnType": "articles--type-3",
      "typeListing": "article",
      "imageMobile": "/sites/globe.com.ph/files/content/dam/globe/brie/AboutUs/newsroom/consumer/Consumer_Create-Your-Next/Consumer_Create-Your-Next_Hero-Banner-M.jpg",
      "imageDesktop": "/sites/globe.com.ph/files/content/dam/globe/brie/AboutUs/newsroom/consumer/Consumer_Create-Your-Next/Consumer_Create-Your-Next_Primary-Thumbnail.jpg",
      "description": "Create Your Next Adventure with These Globe Roaming Offers. Visit the Globe Newsroom for the latest news on Globe Telecom.",
      "datePosted": "Apr 26, 2017 | 12:20 PM",
      "titleFromTag": "Consumer"
    },
    {
      "title": "Globe Encourages Innovation, Transformational Change in Schools Through IGNITE 2017",
      "nonclickable": false,
      "openNewTab": false,
      "borderArticle": "border-color:#0074D9;",
      "borderTopArticle": "border-top-color:#0074D9;",
      "imageListing": "/sites/globe.com.ph/files/content/dam/globe/brie/AboutUs/newsroom/common/Corporate_Globe_Listing.jpg",
      "articleUrl": "https://www.globe.com.ph/about-us/newsroom/consumer/globe-encourages-innovation.html",
      "columnType": "articles--type-3",
      "typeListing": "article",
      "imageMobile": "/sites/globe.com.ph/files/content/dam/globe/brie/AboutUs/newsroom/common/Corporate_Globe_Hero-Banner-Mobile.jpg",
      "imageDesktop": "/sites/globe.com.ph/files/content/dam/globe/brie/AboutUs/newsroom/common/Corporate_Globe_Primary-Desktop-Thumbnail.jpg",
      "description": "Globe encourages innovation and transformational change in schools through IGNITE 2017. Visit the Globe Newsroom for the latest news on Globe Telecom.",
      "datePosted": "Apr 24, 2017 | 04:11 PM",
      "titleFromTag": "Consumer"
    },
    {
      "title": "Globe Telecom in Talks with Its Accredited Third-Party Vendor Partners on Employee Regularization",
      "nonclickable": false,
      "openNewTab": false,
      "borderArticle": "border-color:#0074D9;",
      "borderTopArticle": "border-top-color:#0074D9;",
      "imageListing": "/sites/globe.com.ph/files/content/dam/globe/brie/AboutUs/newsroom/common/Corporate_Globe_Listing.jpg",
      "articleUrl": "https://www.globe.com.ph/about-us/newsroom/corporate/globe-talks-with-accredited-third-party-vendors.html",
      "columnType": "articles--type-3",
      "typeListing": "article",
      "imageMobile": "/sites/globe.com.ph/files/content/dam/globe/brie/AboutUs/newsroom/common/Corporate_Globe_Hero-Banner-Mobile.jpg",
      "imageDesktop": "/sites/globe.com.ph/files/content/dam/globe/brie/AboutUs/newsroom/common/Corporate_Globe_Primary-Desktop-Thumbnail.jpg",
      "description": "Globe Telecom supports the Department of Labor and Employment (DOLE)’s campaign against all forms of illegal contractualization. Learn more here.",
      "datePosted": "Apr 22, 2017 | 12:53 PM",
      "titleFromTag": "Corporate"
    }
  ]
}
