{
  "status": 200,
  "page": 261,
  "totalPage": 298,
  "range": "3121-3132",
  "total": 3573,
  "result": [
    {
      "title": "Globe Launches Anti-Piracy Campaign #PlayItRight",
      "nonclickable": false,
      "openNewTab": false,
      "borderArticle": "border-color:#0074D9;",
      "borderTopArticle": "border-top-color:#0074D9;",
      "imageListing": "/sites/globe.com.ph/files/content/dam/globe/brie/AboutUs/newsroom/sustainability/sustainability-Globe-Launches-Anti/Consumer_Globe-Launches-Anti_Thumbnail-Listing.jpg",
      "articleUrl": "https://www.globe.com.ph/about-us/newsroom/sustainability/globe-launches-anti-piracy-campaign.html",
      "columnType": "articles--type-3",
      "typeListing": "article",
      "imageMobile": "/sites/globe.com.ph/files/content/dam/globe/brie/AboutUs/newsroom/sustainability/sustainability-Globe-Launches-Anti/Consumer_Globe-Launches-Anti_Hero-Banner-M.jpg",
      "imageDesktop": "/sites/globe.com.ph/files/content/dam/globe/brie/AboutUs/newsroom/sustainability/sustainability-Globe-Launches-Anti/Consumer_Globe-Launches-Anti_Primary-Thumbnail.jpg",
      "description": "Globe Telecom encourages its customers and the public to play content from legitimate sources. Visit the Globe Newsroom for the latest news on Globe Telecom.",
      "datePosted": "Apr 21, 2017 | 04:50 PM",
      "titleFromTag": "Sustainability"
    },
    {
      "title": "Globe Launches Anti-Piracy Campaign #PlayItRight",
      "nonclickable": false,
      "openNewTab": false,
      "borderArticle": "border-color:#1C91C5;",
      "borderTopArticle": "border-top-color:#1C91C5;",
      "imageListing": "/sites/globe.com.ph/files/content/dam/globe/brie/AboutUs/newsroom/consumer/Consumer_Globe-Launches-Anti/Consumer_Globe-Launches-Anti_Thumbnail-Listing.jpg",
      "articleUrl": "https://www.globe.com.ph/about-us/newsroom/consumer/globe-launches-anti-piracy-campaign.html",
      "columnType": "articles--type-3",
      "typeListing": "article",
      "imageMobile": "/sites/globe.com.ph/files/content/dam/globe/brie/AboutUs/newsroom/consumer/Consumer_Globe-Launches-Anti/Consumer_Globe-Launches-Anti_Hero-Banner-M.jpg",
      "imageDesktop": "/sites/globe.com.ph/files/content/dam/globe/brie/AboutUs/newsroom/consumer/Consumer_Globe-Launches-Anti/Consumer_Globe-Launches-Anti_Primary-Thumbnail.jpg",
      "description": "Globe Launches Anti-Piracy Campaign #PlayItRight. Visit the Globe Newsroom for the latest news on Globe Telecom.",
      "datePosted": "Apr 21, 2017 | 03:37 PM",
      "titleFromTag": "Consumer"
    },
    {
      "title": "Globe Telecom Signs P8 Billion Term Loan with BDO Unibank, Inc.",
      "nonclickable": false,
      "openNewTab": false,
      "borderArticle": "border-color:#0074D9;",
      "borderTopArticle": "border-top-color:#0074D9;",
      "imageListing": "/sites/globe.com.ph/files/content/dam/globe/brie/AboutUs/newsroom/common/Corporate_Globe_Listing.jpg",
      "articleUrl": "https://www.globe.com.ph/about-us/newsroom/corporate/globe-signs-p8-billion-term-loan.html",
      "columnType": "articles--type-3",
      "typeListing": "article",
      "imageMobile": "/sites/globe.com.ph/files/content/dam/globe/brie/AboutUs/newsroom/common/Corporate_Globe_Hero-Banner-Mobile.jpg",
      "imageDesktop": "/sites/globe.com.ph/files/content/dam/globe/brie/AboutUs/newsroom/common/Corporate_Globe_Primary-Desktop-Thumbnail.jpg",
      "description": "Globe Telecom, Inc. will use the term loan facility to finance the company’s capital expenditures and general corporate requirements. Learn more here.",
      "datePosted": "Apr 21, 2017 | 12:53 PM",
      "titleFromTag": "Corporate"
    },
    {
      "title": "RipeConcepts Selects Globe Business to Increase Operational Efficiency",
      "nonclickable": false,
      "openNewTab": false,
      "borderArticle": "border-color:#0074D9;",
      "borderTopArticle": "border-top-color:#0074D9;",
      "imageListing": "/sites/globe.com.ph/files/content/dam/globe/brie/AboutUs/newsroom/business/business-ripeconcepts-globe/consumer-ripeconcepts-globe-thumbnail-listing.jpg",
      "articleUrl": "https://www.globe.com.ph/about-us/newsroom/business/ripeconcepts-selects-globe-business.html",
      "columnType": "articles--type-3",
      "typeListing": "article",
      "imageMobile": "/sites/globe.com.ph/files/content/dam/globe/brie/AboutUs/newsroom/business/business-ripeconcepts-globe/consumer-ripeconcepts-globe-banner-m.jpg",
      "imageDesktop": "/sites/globe.com.ph/files/content/dam/globe/brie/AboutUs/newsroom/business/business-ripeconcepts-globe/consumer-ripeconcepts-globe-primary-thumbnail.jpg",
      "description": "RipeConcepts tapped Globe Business for G Suite powered by Google Cloud and leased-line direct internet to maximize business efficiency. Learn more here.",
      "datePosted": "Apr 20, 2017 | 04:29 PM",
      "titleFromTag": "Business"
    },
    {
      "title": "Globe Takes Part in Agreement to Extend AT&T and Bridge Alliance’s Global Connected Car Leadership",
      "nonclickable": false,
      "openNewTab": false,
      "borderArticle": "border-color:#0074D9;",
      "borderTopArticle": "border-top-color:#0074D9;",
      "imageListing": "/sites/globe.com.ph/files/content/dam/globe/brie/AboutUs/newsroom/corporate/corporate-globe-takes/Corporate_Globe-Takes_Listing.jpg",
      "articleUrl": "https://www.globe.com.ph/about-us/newsroom/corporate/globe-takes-part-in-agreement.html",
      "columnType": "articles--type-3",
      "typeListing": "article",
      "imageMobile": "/sites/globe.com.ph/files/content/dam/globe/brie/AboutUs/newsroom/corporate/corporate-globe-takes/Corporate_Globe-Takes_Banner-M.jpg",
      "imageDesktop": "/sites/globe.com.ph/files/content/dam/globe/brie/AboutUs/newsroom/corporate/corporate-globe-takes/Corporate_Globe-Takes_Primary-Thumbnail.jpg",
      "description": "Globe President & CEO Ernest Cu joined AT&T and Bridge Alliance executives at the Mobile World Congress held in Barcelona, Spain. Learn more here.",
      "datePosted": "Apr 19, 2017 | 03:17 PM",
      "titleFromTag": "Corporate"
    },
    {
      "title": "Enjoy the Ground-breaking Samsung Galaxy S8 with Globe",
      "nonclickable": false,
      "openNewTab": false,
      "borderArticle": "border-color:#1C91C5;",
      "borderTopArticle": "border-top-color:#1C91C5;",
      "imageListing": "/sites/globe.com.ph/files/content/dam/globe/brie/AboutUs/newsroom/common/Corporate_Globe_Listing.jpg",
      "articleUrl": "https://www.globe.com.ph/about-us/newsroom/consumer/enjoy-samsung-galaxy-s8-with-globe.html",
      "columnType": "articles--type-3",
      "typeListing": "article",
      "imageMobile": "/sites/globe.com.ph/files/content/dam/globe/brie/AboutUs/newsroom/common/Corporate_Globe_Hero-Banner-Mobile.jpg",
      "imageDesktop": "/sites/globe.com.ph/files/content/dam/globe/brie/AboutUs/newsroom/common/Corporate_Globe_Primary-Desktop-Thumbnail.jpg",
      "description": "Enjoy the Ground-breaking Samsung Galaxy S8 with Globe. Visit the Globe Newsroom for the latest news on Globe Telecom.",
      "datePosted": "Apr 19, 2017 | 02:40 PM",
      "titleFromTag": "Consumer"
    },
    {
      "title": "The Next Level of On-demand Entertainment with Android TV",
      "nonclickable": false,
      "openNewTab": false,
      "borderArticle": "border-color:#1C91C5;",
      "borderTopArticle": "border-top-color:#1C91C5;",
      "imageListing": "/sites/globe.com.ph/files/content/dam/globe/brie/AboutUs/newsroom/common/Corporate_Globe_Listing.jpg",
      "articleUrl": "https://www.globe.com.ph/about-us/newsroom/consumer/next-level-of-on-demand-entertainment.html",
      "columnType": "articles--type-3",
      "typeListing": "article",
      "imageMobile": "/sites/globe.com.ph/files/content/dam/globe/brie/AboutUs/newsroom/common/Corporate_Globe_Hero-Banner-Mobile.jpg",
      "imageDesktop": "/sites/globe.com.ph/files/content/dam/globe/brie/AboutUs/newsroom/common/Corporate_Globe_Primary-Desktop-Thumbnail.jpg",
      "description": "The Next Level of On-demand Entertainment with Android TV. Visit the Globe Newsroom for the latest news on Globe Telecom.",
      "datePosted": "Apr 18, 2017 | 05:52 PM",
      "titleFromTag": "Consumer"
    },
    {
      "title": "Globe Telecom Supports Local Indigenous Communities and Weavers at Mindanao Tapestry Event",
      "nonclickable": false,
      "openNewTab": false,
      "borderArticle": "border-color:#0074D9;",
      "borderTopArticle": "border-top-color:#0074D9;",
      "imageListing": "/sites/globe.com.ph/files/content/dam/globe/brie/AboutUs/newsroom/corporate/corporate-globe-telecom-support/Corporate_Globe-Telecom-Supports_Thumbnail-Listing.jpg",
      "articleUrl": "https://www.globe.com.ph/about-us/newsroom/corporate/globe-supports-local-indigenous.html",
      "columnType": "articles--type-3",
      "typeListing": "article",
      "imageMobile": "/sites/globe.com.ph/files/content/dam/globe/brie/AboutUs/newsroom/corporate/corporate-globe-takes/Corporate_Globe-Takes_Banner-M.jpg",
      "imageDesktop": "/sites/globe.com.ph/files/content/dam/globe/brie/AboutUs/newsroom/corporate/corporate-globe-telecom-support/Corporate_Globe-Telecom-Supports_Primary-Thumbnail.jpg",
      "description": "Mindanao Tapestry is a modern ethnic fashion show presented by Mode Devi to showcase Filipino talents through fashion, music, and dance. Learn more here.",
      "datePosted": "Apr 18, 2017 | 03:18 PM",
      "titleFromTag": "Corporate"
    },
    {
      "title": "Globe Telecom Engages Local Startup Community for Globe Future Makers Program",
      "nonclickable": false,
      "openNewTab": false,
      "borderArticle": "border-color:#0074D9;",
      "borderTopArticle": "border-top-color:#0074D9;",
      "imageListing": "/sites/globe.com.ph/files/content/dam/globe/brie/AboutUs/newsroom/business/business-local-startup/business-local-startup-thumbnail-listing.jpg",
      "articleUrl": "https://www.globe.com.ph/about-us/newsroom/business/globe-engages-local-startup.html",
      "columnType": "articles--type-3",
      "typeListing": "article",
      "imageMobile": "/sites/globe.com.ph/files/content/dam/globe/brie/AboutUs/newsroom/business/business-local-startup/business-local-startup-banner-m.jpg",
      "imageDesktop": "/sites/globe.com.ph/files/content/dam/globe/brie/AboutUs/newsroom/business/business-local-startup/business-local-startup-primary-thumbnail.jpg",
      "description": "Globe Future Makers is a social innovation program that seeks to adopt game-changing digital solutions to address the various causes of poverty in the country.",
      "datePosted": "Apr 17, 2017 | 04:29 PM",
      "titleFromTag": "Business"
    },
    {
      "title": "Ernest Cu of Globe Telecom Hailed as PH Best CEO by FinanceAsia",
      "nonclickable": false,
      "openNewTab": false,
      "borderArticle": "border-color:#0074D9;",
      "borderTopArticle": "border-top-color:#0074D9;",
      "imageListing": "/sites/globe.com.ph/files/content/dam/globe/brie/AboutUs/newsroom/corporate/Corporate_Ernest-Cu/Corporate_Ernest-Cu_Thumbnail-Listing.jpg",
      "articleUrl": "https://www.globe.com.ph/about-us/newsroom/corporate/ernest-cu-of-globe-telecom-hailed-as-ph-best-ceo.html",
      "columnType": "articles--type-3",
      "typeListing": "article",
      "imageMobile": "/sites/globe.com.ph/files/content/dam/globe/brie/AboutUs/newsroom/corporate/Corporate_Ernest-Cu/Corporate_Ernest-Cu_Banner-M.jpg",
      "imageDesktop": "/sites/globe.com.ph/files/content/dam/globe/brie/AboutUs/newsroom/corporate/Corporate_Ernest-Cu/Corporate_Ernest-Cu_Primary-Thumbnail.jpg",
      "description": "Ernest Cu of Globe Telecom hailed as PH Best CEO by FinanceAsia. Visit the Globe Newsroom for the latest news on Globe Telecom.",
      "datePosted": "Apr 12, 2017 | 03:18 PM",
      "titleFromTag": "Corporate"
    },
    {
      "title": "#GlobeColdplay Is Still Our Hymn for The Weekend",
      "nonclickable": false,
      "openNewTab": false,
      "borderArticle": "border-color:#1C91C5;",
      "borderTopArticle": "border-top-color:#1C91C5;",
      "imageListing": "/sites/globe.com.ph/files/content/dam/globe/brie/AboutUs/newsroom/consumer/Consumer_Globe-Coldplay/Consumer_Globe-Coldplay_Thumbnail-Listing.jpg",
      "articleUrl": "https://www.globe.com.ph/about-us/newsroom/consumer/globe-coldplay-is-still-our-hymn.html",
      "columnType": "articles--type-3",
      "typeListing": "article",
      "imageMobile": "/sites/globe.com.ph/files/content/dam/globe/brie/AboutUs/newsroom/consumer/Consumer_Globe-Coldplay/Consumer_Globe-Coldplay_Hero-Banner-M.jpg",
      "imageDesktop": "/sites/globe.com.ph/files/content/dam/globe/brie/AboutUs/newsroom/consumer/Consumer_Globe-Coldplay/Consumer_Globe-Coldplay_Primary-Thumbnail.jpg",
      "description": "#GlobeColdplay Is Still Our Hymn for The Weekend. Visit the Globe Newsroom for the latest news on Globe Telecom",
      "datePosted": "Apr 11, 2017 | 06:16 PM",
      "titleFromTag": "Consumer"
    },
    {
      "title": "#DoItDifferent: Five Musical.ly Tips From The Caleon Twins",
      "nonclickable": false,
      "openNewTab": false,
      "borderArticle": "border-color:#1C91C5;",
      "borderTopArticle": "border-top-color:#1C91C5;",
      "imageListing": "/sites/globe.com.ph/files/content/dam/globe/brie/AboutUs/newsroom/consumer/Consumer_Do-It-Different/Consumer_Do-It-Different_Thumbnail-Listing.jpg",
      "articleUrl": "https://www.globe.com.ph/about-us/newsroom/consumer/doitdifferent-5-musicals.html",
      "columnType": "articles--type-3",
      "typeListing": "article",
      "imageMobile": "/sites/globe.com.ph/files/content/dam/globe/brie/AboutUs/newsroom/consumer/Consumer_Do-It-Different/Consumer_Do-It-Different_Hero-Banner-M.jpg",
      "imageDesktop": "/sites/globe.com.ph/files/content/dam/globe/brie/AboutUs/newsroom/consumer/Consumer_Do-It-Different/Consumer_Do-It-Different_Primary-Thumbnail.jpg",
      "description": "#DoItDifferent: Five Musical.ly Tips From The Caleon Twins. Visit the Globe Newsroom for the latest news on Globe Telecom.",
      "datePosted": "Apr 11, 2017 | 04:21 PM",
      "titleFromTag": "Consumer"
    }
  ]
}
