{
  "status": 200,
  "page": 262,
  "totalPage": 298,
  "range": "3133-3144",
  "total": 3573,
  "result": [
    {
      "title": "Globe At Home Introduces 1st Prepaid Home WiFi Device",
      "nonclickable": false,
      "openNewTab": false,
      "borderArticle": "border-color:#1C91C5;",
      "borderTopArticle": "border-top-color:#1C91C5;",
      "imageListing": "/sites/globe.com.ph/files/content/dam/globe/brie/AboutUs/newsroom/common/Corporate_Globe_Listing.jpg",
      "articleUrl": "https://www.globe.com.ph/about-us/newsroom/consumer/globe-at-home-introduces-1st-prepaid-home-wifi-device.html",
      "columnType": "articles--type-3",
      "typeListing": "article",
      "imageMobile": "/sites/globe.com.ph/files/content/dam/globe/brie/AboutUs/newsroom/common/Corporate_Globe_Hero-Banner-Mobile.jpg",
      "imageDesktop": "/sites/globe.com.ph/files/content/dam/globe/brie/AboutUs/newsroom/common/Corporate_Globe_Primary-Desktop-Thumbnail.jpg",
      "description": "Globe At Home Introduces 1st Prepaid Home WiFi Device. Visit the Globe Newsroom for the latest news on Globe Telecom.",
      "datePosted": "Apr 10, 2017 | 05:15 PM",
      "titleFromTag": "Consumer"
    },
    {
      "title": "Philippine’s First Online Film Fest Hails Grand Winners",
      "nonclickable": false,
      "openNewTab": false,
      "borderArticle": "border-color:#1C91C5;",
      "borderTopArticle": "border-top-color:#1C91C5;",
      "imageListing": "/sites/globe.com.ph/files/content/dam/globe/brie/AboutUs/newsroom/consumer/Consumer_PH-First-Online/Consumer_PH-First-Online_Thumbnail-Listing.jpg",
      "articleUrl": "https://www.globe.com.ph/about-us/newsroom/consumer/philippines-first-online-film-fest.html",
      "columnType": "articles--type-3",
      "typeListing": "article",
      "imageMobile": "/sites/globe.com.ph/files/content/dam/globe/brie/AboutUs/newsroom/consumer/Consumer_PH-First-Online/Consumer_PH-First-Online_Hero-Banner-M.jpg",
      "imageDesktop": "/sites/globe.com.ph/files/content/dam/globe/brie/AboutUs/newsroom/consumer/Consumer_PH-First-Online/Consumer_PH-First-Online_Primary-Thumbnail.jpg",
      "description": "Philippine’s First Online Film Fest Hails Grand Winners. Visit the Globe Newsroom for the latest news on Globe Telecom.",
      "datePosted": "Apr 08, 2017 | 09:40 AM",
      "titleFromTag": "Consumer"
    },
    {
      "title": "Globe Now in Talks with 5 HOAs to Improve Customer Experience",
      "nonclickable": false,
      "openNewTab": false,
      "borderArticle": "border-color:#0074D9;",
      "borderTopArticle": "border-top-color:#0074D9;",
      "imageListing": "/sites/globe.com.ph/files/content/dam/globe/brie/AboutUs/newsroom/common/Corporate_Globe_Listing.jpg",
      "articleUrl": "https://www.globe.com.ph/about-us/newsroom/corporate/globe-in-talks-with-5-hoa.html",
      "columnType": "articles--type-3",
      "typeListing": "article",
      "imageMobile": "/sites/globe.com.ph/files/content/dam/globe/brie/AboutUs/newsroom/common/Corporate_Globe_Hero-Banner-Mobile.jpg",
      "imageDesktop": "/sites/globe.com.ph/files/content/dam/globe/brie/AboutUs/newsroom/common/Corporate_Globe_Primary-Desktop-Thumbnail.jpg",
      "description": "Homeowners Associations in Magallanes, Bel-Air, Greenhills North, Ayala Alabang, and Hillsborough conveyed willingness to help Globe to roll out cell sites.",
      "datePosted": "Apr 07, 2017 | 03:19 PM",
      "titleFromTag": "Corporate"
    },
    {
      "title": "Public Advisory: Unauthorized Individuals Posing as Globe Collectors",
      "nonclickable": false,
      "openNewTab": false,
      "borderArticle": "border-color:#1C91C5;",
      "borderTopArticle": "border-top-color:#1C91C5;",
      "imageListing": "/sites/globe.com.ph/files/content/dam/globe/brie/AboutUs/newsroom/common/Corporate_Globe_Listing.jpg",
      "articleUrl": "https://www.globe.com.ph/about-us/newsroom/consumer/public-advisory-unauthorized-individuals-posing-as-globe-collectors.html",
      "columnType": "articles--type-3",
      "typeListing": "article",
      "imageMobile": "/sites/globe.com.ph/files/content/dam/globe/brie/AboutUs/newsroom/common/Corporate_Globe_Hero-Banner-Mobile.jpg",
      "imageDesktop": "/sites/globe.com.ph/files/content/dam/globe/brie/AboutUs/newsroom/common/Corporate_Globe_Primary-Desktop-Thumbnail.jpg",
      "description": "Public Advisory: Unauthorized Individuals Posing as Globe Collectors. Visit the Globe Newsroom for the latest news on Globe Telecom.",
      "datePosted": "Apr 06, 2017 | 10:15 AM",
      "titleFromTag": "Consumer"
    },
    {
      "title": "5 Things You Should Know Before Watching #GlobeColdplay",
      "nonclickable": false,
      "openNewTab": false,
      "borderArticle": "border-color:#1C91C5;",
      "borderTopArticle": "border-top-color:#1C91C5;",
      "imageListing": "/sites/globe.com.ph/files/content/dam/globe/brie/AboutUs/newsroom/common/Corporate_Globe_Listing.jpg",
      "articleUrl": "https://www.globe.com.ph/about-us/newsroom/consumer/5-things-you-should-know-globe-coldplay.html",
      "columnType": "articles--type-3",
      "typeListing": "article",
      "imageMobile": "/sites/globe.com.ph/files/content/dam/globe/brie/AboutUs/newsroom/common/Corporate_Globe_Hero-Banner-Mobile.jpg",
      "imageDesktop": "/sites/globe.com.ph/files/content/dam/globe/brie/AboutUs/newsroom/common/Corporate_Globe_Primary-Desktop-Thumbnail.jpg",
      "description": "5 Things You Should Know Before Watching #GlobeColdplay. Visit the Globe Newsroom for the latest news on Globe Telecom.",
      "datePosted": "Apr 01, 2017 | 08:59 AM",
      "titleFromTag": "Consumer"
    },
    {
      "title": "As the World Goes Full Steam Ahead in the Digital Economy, PH is Hampered by So-Called Health Issues from Cell Sites",
      "nonclickable": false,
      "openNewTab": false,
      "borderArticle": "border-color:#0074D9;",
      "borderTopArticle": "border-top-color:#0074D9;",
      "imageListing": "/sites/globe.com.ph/files/content/dam/globe/brie/AboutUs/newsroom/common/Corporate_Globe_Listing.jpg",
      "articleUrl": "https://www.globe.com.ph/about-us/newsroom/corporate/as-the-world-goes-full-steam-ahead.html",
      "columnType": "articles--type-3",
      "typeListing": "article",
      "imageMobile": "/sites/globe.com.ph/files/content/dam/globe/brie/AboutUs/newsroom/common/Corporate_Globe_Hero-Banner-Mobile.jpg",
      "imageDesktop": "/sites/globe.com.ph/files/content/dam/globe/brie/AboutUs/newsroom/common/Corporate_Globe_Primary-Desktop-Thumbnail.jpg",
      "description": "Globe Telecom’s aggressive bid to build more cell sites is in line with its commitment to provide better internet experience. Visit the newsroom for more.",
      "datePosted": "Mar 31, 2017 | 07:50 PM",
      "titleFromTag": "Corporate"
    },
    {
      "title": "Globe myBusiness Hosts Product Photography Tips by a Pro",
      "nonclickable": false,
      "openNewTab": false,
      "borderArticle": "border-color:#0074D9;",
      "borderTopArticle": "border-top-color:#0074D9;",
      "imageListing": "/sites/globe.com.ph/files/content/dam/globe/brie/AboutUs/newsroom/business/business-product-photography/business-product-photography-thumbnail-listing.jpg",
      "articleUrl": "https://www.globe.com.ph/about-us/newsroom/business/globe-mybusiness-hosts-product-photography.html",
      "columnType": "articles--type-3",
      "typeListing": "article",
      "imageMobile": "/sites/globe.com.ph/files/content/dam/globe/brie/AboutUs/newsroom/business/business-product-photography/business-product-photography-banner-m.jpg",
      "imageDesktop": "/sites/globe.com.ph/files/content/dam/globe/brie/AboutUs/newsroom/business/business-product-photography/business-product-photography-primary-thumbnail.jpg",
      "description": "In a series of workshops called “Growing Your Homemade Business” hosted by Globe myBusiness, professional photographer Jeryc Garcia lectured on the basics of photography to help small business owners create compelling product photos. Visit the Globe Newsroom for the latest news on Globe Telecom.",
      "datePosted": "Mar 31, 2017 | 04:30 PM",
      "titleFromTag": "Business"
    },
    {
      "title": "Globe and Ayala Malls Cinemas Relaunched Enhanced SureSeats Website",
      "nonclickable": false,
      "openNewTab": false,
      "borderArticle": "border-color:#1C91C5;",
      "borderTopArticle": "border-top-color:#1C91C5;",
      "imageListing": "/sites/globe.com.ph/files/content/dam/globe/brie/AboutUs/newsroom/consumer/Consumer_Globe-and-Ayala/Consumer_Globe-and-Ayala_Thumbnail-Listing.jpg",
      "articleUrl": "https://www.globe.com.ph/about-us/newsroom/consumer/globe-ayala-malls-cinemas.html",
      "columnType": "articles--type-3",
      "typeListing": "article",
      "imageMobile": "/sites/globe.com.ph/files/content/dam/globe/brie/AboutUs/newsroom/consumer/Consumer_Globe-and-Ayala/Consumer_Globe-and-Ayala_Hero-Banner-M.jpg",
      "imageDesktop": "/sites/globe.com.ph/files/content/dam/globe/brie/AboutUs/newsroom/consumer/Consumer_Globe-and-Ayala/Consumer_Globe-and-Ayala_Primary-Thumbnail.jpg",
      "description": "Globe and Ayala Malls Cinemas Relaunched Enhanced SureSeats Website. Visit the Globe Newsroom for the latest news on Globe Telecom.",
      "datePosted": "Mar 31, 2017 | 02:53 PM",
      "titleFromTag": "Consumer"
    },
    {
      "title": "Globe, PAL Partnership to Benefit OFWs and PH Tourism",
      "nonclickable": false,
      "openNewTab": false,
      "borderArticle": "border-color:#0074D9;",
      "borderTopArticle": "border-top-color:#0074D9;",
      "imageListing": "/sites/globe.com.ph/files/content/dam/globe/brie/AboutUs/newsroom/corporate/corporate-Globe-PAL/Corporate_Globe-PAL_Thumbnail_Listing.jpg",
      "articleUrl": "https://www.globe.com.ph/about-us/newsroom/corporate/globe-pal-partnership-to-benefit-ofws.html",
      "columnType": "articles--type-3",
      "typeListing": "article",
      "imageMobile": "/sites/globe.com.ph/files/content/dam/globe/brie/AboutUs/newsroom/corporate/corporate-Globe-PAL/Corporate_Globe-PAL_Banner-M.jpg",
      "imageDesktop": "/sites/globe.com.ph/files/content/dam/globe/brie/AboutUs/newsroom/corporate/corporate-Globe-PAL/Corporate_Globe-PAL_Primary-Thumbnail.jpg",
      "description": "Globe Telecom and Philippine Airlines (PAL) have joined forces to provide more benefits to tourists, balikbayans, and OFWs. Visit the Newsroom for more.",
      "datePosted": "Mar 30, 2017 | 07:51 PM",
      "titleFromTag": "Corporate"
    },
    {
      "title": "Globe Future Makers Program Seeks Innovative Solutions to Poverty Issues from Tech Community",
      "nonclickable": false,
      "openNewTab": false,
      "borderArticle": "border-color:#0074D9;",
      "borderTopArticle": "border-top-color:#0074D9;",
      "imageListing": "/sites/globe.com.ph/files/content/dam/globe/brie/AboutUs/newsroom/sustainability/sustainability-globe-future-maker/business-globe-future-maker-thumbnail-listing.jpg",
      "articleUrl": "https://www.globe.com.ph/about-us/newsroom/sustainability/globe-future-makers-innovative-solutions-poverty-issues.html",
      "columnType": "articles--type-3",
      "typeListing": "article",
      "imageMobile": "/sites/globe.com.ph/files/content/dam/globe/brie/AboutUs/newsroom/sustainability/sustainability-globe-future-maker/business-globe-future-maker-banner-m.jpg",
      "imageDesktop": "/sites/globe.com.ph/files/content/dam/globe/brie/AboutUs/newsroom/sustainability/sustainability-globe-future-maker/business-globe-future-maker-primary-thumbnail.jpg",
      "description": "Globe Telecom is calling on social innovators to use digital technology to address challenges caused by poverty in the Philippines. Learn more here.",
      "datePosted": "Mar 29, 2017 | 04:51 PM",
      "titleFromTag": "Sustainability"
    },
    {
      "title": "Globe Future Makers Program Seeks Innovative Solutions to Poverty Issues from Tech Community",
      "nonclickable": false,
      "openNewTab": false,
      "borderArticle": "border-color:#0074D9;",
      "borderTopArticle": "border-top-color:#0074D9;",
      "imageListing": "/sites/globe.com.ph/files/content/dam/globe/brie/AboutUs/newsroom/business/business-globe-future-maker/business-globe-future-maker-thumbnail-listing.jpg",
      "articleUrl": "https://www.globe.com.ph/about-us/newsroom/business/globe-future-makers-program.html",
      "columnType": "articles--type-3",
      "typeListing": "article",
      "imageMobile": "/sites/globe.com.ph/files/content/dam/globe/brie/AboutUs/newsroom/business/business-globe-future-maker/business-globe-future-maker-banner-m.jpg",
      "imageDesktop": "/sites/globe.com.ph/files/content/dam/globe/brie/AboutUs/newsroom/business/business-globe-future-maker/business-globe-future-maker-primary-thumbnail.jpg",
      "description": "Globe Telecom is calling on social innovators to use digital technology to address challenges caused by poverty in the Philippines. Visit the Globe Newsroom for the latest news on Globe Telecom.",
      "datePosted": "Mar 29, 2017 | 04:30 PM",
      "titleFromTag": "Business"
    },
    {
      "title": "Big Musical.ly Stars Caleon Twins Meet Their Fans in Manila",
      "nonclickable": false,
      "openNewTab": false,
      "borderArticle": "border-color:#1C91C5;",
      "borderTopArticle": "border-top-color:#1C91C5;",
      "imageListing": "/sites/globe.com.ph/files/content/dam/globe/brie/AboutUs/newsroom/common/Corporate_Globe_Listing.jpg",
      "articleUrl": "https://www.globe.com.ph/about-us/newsroom/consumer/big-musically-stars-caleon-twins.html",
      "columnType": "articles--type-3",
      "typeListing": "article",
      "imageMobile": "/sites/globe.com.ph/files/content/dam/globe/brie/AboutUs/newsroom/common/Corporate_Globe_Hero-Banner-Mobile.jpg",
      "imageDesktop": "/sites/globe.com.ph/files/content/dam/globe/brie/AboutUs/newsroom/common/Corporate_Globe_Primary-Desktop-Thumbnail.jpg",
      "description": "Big Musical.ly Stars Caleon Twins Meet Their Fans in Manila. Visit the Globe Newsroom for the latest news on Globe Telecom.",
      "datePosted": "Mar 29, 2017 | 04:06 PM",
      "titleFromTag": "Consumer"
    }
  ]
}
