{
  "status": 200,
  "page": 263,
  "totalPage": 298,
  "range": "3145-3156",
  "total": 3573,
  "result": [
    {
      "title": "First PH Digital Reality Series Disney Princess: I Dare to Dream Hails All 6 Finalists as Grand Winners",
      "nonclickable": false,
      "openNewTab": false,
      "borderArticle": "border-color:#1C91C5;",
      "borderTopArticle": "border-top-color:#1C91C5;",
      "imageListing": "/sites/globe.com.ph/files/content/dam/globe/brie/AboutUs/newsroom/consumer/Consumer_First-PH-Digital/Consumer_First-PH-Digital_Thumbnail-Listing.jpg",
      "articleUrl": "https://www.globe.com.ph/about-us/newsroom/consumer/first-philippine-digital-reality-series-disney-princess.html",
      "columnType": "articles--type-3",
      "typeListing": "article",
      "imageMobile": "/sites/globe.com.ph/files/content/dam/globe/brie/AboutUs/newsroom/consumer/Consumer_First-PH-Digital/Consumer_First-PH-Digital_Hero-Banner-M.jpg",
      "imageDesktop": "/sites/globe.com.ph/files/content/dam/globe/brie/AboutUs/newsroom/consumer/Consumer_First-PH-Digital/Consumer_First-PH-Digital_Primary-Thumbnail.jpg",
      "description": "First PH Digital Reality Series Disney Princess: I Dare to Dream Hails All 6 Finalists as Grand Winners. Visit the Globe Newsroom for the latest news.",
      "datePosted": "Mar 29, 2017 | 11:44 AM",
      "titleFromTag": "Consumer"
    },
    {
      "title": "Globe Lands SEA-US Cable System in Davao City; Nears Commercial Operations",
      "nonclickable": false,
      "openNewTab": false,
      "borderArticle": "border-color:#0074D9;",
      "borderTopArticle": "border-top-color:#0074D9;",
      "imageListing": "/sites/globe.com.ph/files/content/dam/globe/brie/AboutUs/newsroom/common/Corporate_Globe_Listing.jpg",
      "articleUrl": "https://www.globe.com.ph/about-us/newsroom/corporate/globe-lands-sea-us-cable-system-davao-city.html",
      "columnType": "articles--type-3",
      "typeListing": "article",
      "imageMobile": "/sites/globe.com.ph/files/content/dam/globe/brie/AboutUs/newsroom/common/Corporate_Globe_Primary-Desktop-Thumbnail.jpg",
      "imageDesktop": "/sites/globe.com.ph/files/content/dam/globe/brie/AboutUs/newsroom/common/Corporate_Globe_Primary-Desktop-Thumbnail.jpg",
      "description": "Globe Lands SEA-US Cable System in Davao City; Nears Commercial Operations. Visit Globe Newsroom for the latest news on Globe Telecom.",
      "datePosted": "Mar 27, 2017 | 08:26 PM",
      "titleFromTag": "Business"
    },
    {
      "title": "Globe to HOAs: Refusal to Give Permits Violates the Rights of Residents in Need of Internet/Mobile Services",
      "nonclickable": false,
      "openNewTab": false,
      "borderArticle": "border-color:#0074D9;",
      "borderTopArticle": "border-top-color:#0074D9;",
      "imageListing": "/sites/globe.com.ph/files/content/dam/globe/brie/AboutUs/newsroom/common/Corporate_Globe_Listing.jpg",
      "articleUrl": "https://www.globe.com.ph/about-us/newsroom/corporate/globe-to-hoas.html",
      "columnType": "articles--type-3",
      "typeListing": "article",
      "imageMobile": "/sites/globe.com.ph/files/content/dam/globe/brie/AboutUs/newsroom/common/Corporate_Globe_Hero-Banner-Mobile.jpg",
      "imageDesktop": "/sites/globe.com.ph/files/content/dam/globe/brie/AboutUs/newsroom/common/Corporate_Globe_Primary-Desktop-Thumbnail.jpg",
      "description": "Globe also sought its customers' support to secure approvals and clearances for telecom facilities in uncooperative villages. Visit the Globe Newsroom for more.",
      "datePosted": "Mar 27, 2017 | 07:51 PM",
      "titleFromTag": "Corporate"
    },
    {
      "title": "Open Letter to Globe Customers",
      "nonclickable": false,
      "openNewTab": false,
      "borderArticle": "border-color:#0074D9;",
      "borderTopArticle": "border-top-color:#0074D9;",
      "imageListing": "/sites/globe.com.ph/files/content/dam/globe/brie/AboutUs/newsroom/common/Corporate_Globe_Listing.jpg",
      "articleUrl": "https://www.globe.com.ph/about-us/newsroom/corporate/open-letter-to-globe-customers.html",
      "columnType": "articles--type-3",
      "typeListing": "article",
      "imageMobile": "/sites/globe.com.ph/files/content/dam/globe/brie/AboutUs/newsroom/common/Corporate_Globe_Hero-Banner-Mobile.jpg",
      "imageDesktop": "/sites/globe.com.ph/files/content/dam/globe/brie/AboutUs/newsroom/common/Corporate_Globe_Primary-Desktop-Thumbnail.jpg",
      "description": "We remain hopeful of your cooperation in building first world internet in the Philippines. Visit the Globe Newsroom for the latest news on Globe Telecom.",
      "datePosted": "Mar 27, 2017 | 07:52 PM",
      "titleFromTag": "Corporate"
    },
    {
      "title": "Globe Urges Customers to Shift to LTE-Capable Devices/LTE SIMs",
      "nonclickable": false,
      "openNewTab": false,
      "borderArticle": "border-color:#0074D9;",
      "borderTopArticle": "border-top-color:#0074D9;",
      "imageListing": "/sites/globe.com.ph/files/content/dam/globe/brie/AboutUs/newsroom/common/Corporate_Globe_Listing.jpg",
      "articleUrl": "https://www.globe.com.ph/about-us/newsroom/corporate/globe-urges-customers-to-shift.html",
      "columnType": "articles--type-3",
      "typeListing": "article",
      "imageMobile": "/sites/globe.com.ph/files/content/dam/globe/brie/AboutUs/newsroom/common/Corporate_Globe_Hero-Banner-Mobile.jpg",
      "imageDesktop": "/sites/globe.com.ph/files/content/dam/globe/brie/AboutUs/newsroom/common/Corporate_Globe_Primary-Desktop-Thumbnail.jpg",
      "description": "Globe Telecom encourages customers to shift to LTE-capable devices amid the aggressive deployment of LTE sites. Visit the Globe Newsroom for the latest news",
      "datePosted": "Mar 24, 2017 | 07:53 PM",
      "titleFromTag": "Corporate"
    },
    {
      "title": "Singtel, Optus, and Globe Collaborate on Singtel Future Makers Programme to Promote Social Innovation Across the Region",
      "nonclickable": false,
      "openNewTab": false,
      "borderArticle": "border-color:#0074D9;",
      "borderTopArticle": "border-top-color:#0074D9;",
      "imageListing": "/sites/globe.com.ph/files/content/dam/globe/brie/AboutUs/newsroom/business/business-singtel-optus-globe/business-singtel-optus-globe-thumbnail-listing.jpg",
      "articleUrl": "https://www.globe.com.ph/about-us/newsroom/business/singtel-optus-and-globe-collaborate.html",
      "columnType": "articles--type-3",
      "typeListing": "article",
      "imageMobile": "/sites/globe.com.ph/files/content/dam/globe/brie/AboutUs/newsroom/business/business-singtel-optus-globe/business-singtel-optus-globe-banner-m.jpg",
      "imageDesktop": "/sites/globe.com.ph/files/content/dam/globe/brie/AboutUs/newsroom/business/business-singtel-optus-globe/business-singtel-optus-globe-primary-thumbnail.jpg",
      "description": "Singtel Future Makers seeks individuals and organisations in Singapore, Australia, and the Philippines, which are addressing community needs with tech.",
      "datePosted": "Mar 22, 2017 | 04:31 PM",
      "titleFromTag": "Business"
    },
    {
      "title": "Globe Equips Manila Science HS with 21st Century Classroom",
      "nonclickable": false,
      "openNewTab": false,
      "borderArticle": "border-color:#0074D9;",
      "borderTopArticle": "border-top-color:#0074D9;",
      "imageListing": "/sites/globe.com.ph/files/content/dam/globe/brie/AboutUs/newsroom/corporate/Corporate_Globe-Equips/Corporate_Globe-Equips_Thumbnail-Listing.jpg",
      "articleUrl": "https://www.globe.com.ph/about-us/newsroom/corporate/globe-equips-manila-science-hs.html",
      "columnType": "articles--type-3",
      "typeListing": "article",
      "imageMobile": "/sites/globe.com.ph/files/content/dam/globe/brie/AboutUs/newsroom/corporate/Corporate_Globe-Equips/Corporate_Globe-Equips_Banner-M.jpg",
      "imageDesktop": "/sites/globe.com.ph/files/content/dam/globe/brie/AboutUs/newsroom/corporate/Corporate_Globe-Equips/Corporate_Globe-Equips_Primary-Thumbnail.jpg",
      "description": "Manila Science, the first pilot science high school in the Philippines, is part of Globe Telecom’s Global Filipino School Program. Learn more here.",
      "datePosted": "Mar 20, 2017 | 07:54 PM",
      "titleFromTag": "Corporate"
    },
    {
      "title": "NBA Legend Glen Rice and LA Tenorio Stage NBA Cares-Globe Telecom Basketball Clinic for Underprivileged Kids",
      "nonclickable": false,
      "openNewTab": false,
      "borderArticle": "border-color:#0074D9;",
      "borderTopArticle": "border-top-color:#0074D9;",
      "imageListing": "/sites/globe.com.ph/files/content/dam/globe/brie/AboutUs/newsroom/corporate/corporate-NBA-Legend/Corporate_NBA-Legend_Thumbnail-Listing.jpg",
      "articleUrl": "https://www.globe.com.ph/about-us/newsroom/corporate/nba-legend-glen-rice-la-tenorio.html",
      "columnType": "articles--type-3",
      "typeListing": "article",
      "imageMobile": "/sites/globe.com.ph/files/content/dam/globe/brie/AboutUs/newsroom/corporate/corporate-NBA-Legend/Corporate_NBA-Legend_Banner-M.jpg",
      "imageDesktop": "/sites/globe.com.ph/files/content/dam/globe/brie/AboutUs/newsroom/corporate/corporate-NBA-Legend/Corporate_NBA-Legend_Primary-Thumbnail.jpg",
      "description": "The NBA Cares-Globe Telecom sports clinic for underprivileged youth was part of the first-ever NBA Filipino Heritage Week from March 13-19, 2017.",
      "datePosted": "Mar 18, 2017 | 07:54 PM",
      "titleFromTag": "Corporate"
    },
    {
      "title": "Globe At Home Customers Meet the Cast of Wicked",
      "nonclickable": false,
      "openNewTab": false,
      "borderArticle": "border-color:#1C91C5;",
      "borderTopArticle": "border-top-color:#1C91C5;",
      "imageListing": "/sites/globe.com.ph/files/content/dam/globe/brie/About-us/Newsroom/image/Consumer/06292018/Consumer_Globe-At-Home-Customers_Thumbnail-Listing.jpg",
      "articleUrl": "https://www.globe.com.ph/about-us/newsroom/consumer/globe-at-home-customers-meet-wicked-cast.html",
      "columnType": "articles--type-3",
      "typeListing": "article",
      "imageDesktop": "/sites/globe.com.ph/files/content/dam/globe/brie/About-us/Newsroom/image/Consumer/06292018/Consumer_Globe-At-Home-Customers_Primary-Thumbnail.jpg",
      "description": "Globe At Home Customers Meet the Cast of Wicked. Visit the Globe Newsroom for the latest news on Globe Telecom.",
      "datePosted": "Mar 17, 2017 | 06:35 PM",
      "titleFromTag": "Consumer"
    },
    {
      "title": "Globe Business Further Solidifies Position in the Cybersecurity Space",
      "nonclickable": false,
      "openNewTab": false,
      "borderArticle": "border-color:#0074D9;",
      "borderTopArticle": "border-top-color:#0074D9;",
      "imageListing": "/sites/globe.com.ph/files/content/dam/globe/brie/AboutUs/newsroom/common/Corporate_Globe_Listing.jpg",
      "articleUrl": "https://www.globe.com.ph/about-us/newsroom/business/globe-business-further-solidifies-position.html",
      "columnType": "articles--type-3",
      "typeListing": "article",
      "imageMobile": "/sites/globe.com.ph/files/content/dam/globe/brie/AboutUs/newsroom/common/Corporate_Globe_Hero-Banner-Mobile.jpg",
      "imageDesktop": "/sites/globe.com.ph/files/content/dam/globe/brie/AboutUs/newsroom/common/Corporate_Globe_Primary-Desktop-Thumbnail.jpg",
      "description": "Globe Telecom strengthens its position to in fighting against cybersecurity threats. Visit the Globe Newsroom for the latest news on Globe Telecom.",
      "datePosted": "Mar 15, 2017 | 04:31 PM",
      "titleFromTag": "Business"
    },
    {
      "title": "Globe First PH Telco to Commercially Deploy LTE-Advanced 4CC Aggregation to Improve PH Mobile Internet",
      "nonclickable": false,
      "openNewTab": false,
      "borderArticle": "border-color:#0074D9;",
      "borderTopArticle": "border-top-color:#0074D9;",
      "imageListing": "/sites/globe.com.ph/files/content/dam/globe/brie/AboutUs/newsroom/common/Corporate_Globe_Listing.jpg",
      "articleUrl": "https://www.globe.com.ph/about-us/newsroom/corporate/globe-first-ph-telco-to-commercially-deploy.html",
      "columnType": "articles--type-3",
      "typeListing": "article",
      "imageMobile": "/sites/globe.com.ph/files/content/dam/globe/brie/AboutUs/newsroom/common/Corporate_Globe_Hero-Banner-Mobile.jpg",
      "imageDesktop": "/sites/globe.com.ph/files/content/dam/globe/brie/AboutUs/newsroom/common/Corporate_Globe_Primary-Desktop-Thumbnail.jpg",
      "description": "Globe Telecom commercially deploys LTE-Advanced 4CC Aggregation to improve mobile internet in the Philippines. Visit the Globe Newsroom for the latest news",
      "datePosted": "Mar 14, 2017 | 07:55 PM",
      "titleFromTag": "Corporate"
    },
    {
      "title": "Globe Working with Google to Deliver Innovation in Messaging",
      "nonclickable": false,
      "openNewTab": false,
      "borderArticle": "border-color:#1C91C5;",
      "borderTopArticle": "border-top-color:#1C91C5;",
      "imageListing": "/sites/globe.com.ph/files/content/dam/globe/brie/AboutUs/newsroom/consumer/Consumer_Globe-Working/Consumer_Globe-Working_Thumbnail-Listing.jpg",
      "articleUrl": "https://www.globe.com.ph/about-us/newsroom/consumer/globe-working-with-google.html",
      "columnType": "articles--type-3",
      "typeListing": "article",
      "imageMobile": "/sites/globe.com.ph/files/content/dam/globe/brie/AboutUs/newsroom/consumer/Consumer_Globe-Working/Consumer_Globe-Working_Hero-Banner-M.jpg",
      "imageDesktop": "/sites/globe.com.ph/files/content/dam/globe/brie/AboutUs/newsroom/consumer/Consumer_Globe-Working/Consumer_Globe-Working_Primary-Thumbnail.jpg",
      "description": "Globe Working with Google to Deliver Innovation in Messaging. Visit the Globe Newsroom for the latest news on Globe Telecom.",
      "datePosted": "Mar 14, 2017 | 09:43 AM",
      "titleFromTag": "Consumer"
    }
  ]
}
