{
  "status": 200,
  "page": 264,
  "totalPage": 298,
  "range": "3157-3168",
  "total": 3573,
  "result": [
    {
      "title": "Globe Telecom Brings Digital Literacy Program to Bicol; University of Nueva Caceres Hosts PRISM",
      "nonclickable": false,
      "openNewTab": false,
      "borderArticle": "border-color:#0074D9;",
      "borderTopArticle": "border-top-color:#0074D9;",
      "imageListing": "/sites/globe.com.ph/files/content/dam/globe/brie/AboutUs/newsroom/corporate/Corporate_Globe-Telecom-Brings/Corporate_Globe-Telecom-Brings_Thumbnail-Listing.jpg",
      "articleUrl": "https://www.globe.com.ph/about-us/newsroom/corporate/globe-brings-digital-literacy-program.html",
      "columnType": "articles--type-3",
      "typeListing": "article",
      "imageMobile": "/sites/globe.com.ph/files/content/dam/globe/brie/AboutUs/newsroom/corporate/Corporate_Globe-Telecom-Brings/Corporate_Globe-Telecom-Brings_Banner-M.jpg",
      "imageDesktop": "/sites/globe.com.ph/files/content/dam/globe/brie/AboutUs/newsroom/corporate/Corporate_Globe-Telecom-Brings/Corporate_Globe-Telecom-Brings_Primary-Thumbnail.jpg",
      "description": "The University of Nueva Caceres Hosts PRISM, a three-week professional development program conducted by Globe Telecom. Visit the Globe Newsroom for more.",
      "datePosted": "Mar 13, 2017 | 07:55 PM",
      "titleFromTag": "Corporate"
    },
    {
      "title": "Get Your Tickets to Lea Salonga’s Star-Studded Concert with the Next Disney Princess",
      "nonclickable": false,
      "openNewTab": false,
      "borderArticle": "border-color:#1C91C5;",
      "borderTopArticle": "border-top-color:#1C91C5;",
      "imageListing": "/sites/globe.com.ph/files/content/dam/globe/brie/AboutUs/newsroom/consumer/Consumer_Get-Your-Tickets/Consumer_Get-Your-Tickets_Thumbnail-Listing.jpg",
      "articleUrl": "https://www.globe.com.ph/about-us/newsroom/consumer/get-your-tickets-to-lea-salonga.html",
      "columnType": "articles--type-3",
      "typeListing": "article",
      "imageMobile": "/sites/globe.com.ph/files/content/dam/globe/brie/AboutUs/newsroom/consumer/Consumer_Get-Your-Tickets/Consumer_Get-Your-Tickets_Hero-Banner-M.jpg",
      "imageDesktop": "/sites/globe.com.ph/files/content/dam/globe/brie/AboutUs/newsroom/consumer/Consumer_Get-Your-Tickets/Consumer_Get-Your-Tickets_Primary-Thumbnail.jpg",
      "description": "Get Your Tickets to Lea Salonga’s Star-Studded Concert with the Next Disney Princess. Visit the Globe Newsroom for the latest news on Globe Telecom.",
      "datePosted": "Mar 13, 2017 | 05:06 PM",
      "titleFromTag": "Consumer"
    },
    {
      "title": "Globe Signs Pact with Government Agencies to Fast Track Delivery of Public Services",
      "nonclickable": false,
      "openNewTab": false,
      "borderArticle": "border-color:#0074D9;",
      "borderTopArticle": "border-top-color:#0074D9;",
      "imageListing": "/sites/globe.com.ph/files/content/dam/globe/brie/AboutUs/newsroom/corporate/corporate-globe-Signs/Corporate_Globe-Signs_Thumbnail-Listing.jpg",
      "articleUrl": "https://www.globe.com.ph/about-us/newsroom/corporate/globe-signs-pact-with-government-agencies.html",
      "columnType": "articles--type-3",
      "typeListing": "article",
      "imageMobile": "/sites/globe.com.ph/files/content/dam/globe/brie/AboutUs/newsroom/corporate/corporate-globe-Signs/Corporate_Globe-Signs_Banner-M.jpg",
      "imageDesktop": "/sites/globe.com.ph/files/content/dam/globe/brie/AboutUs/newsroom/corporate/corporate-globe-Signs/Corporate_Globe-Signs_Primary-Thumbnail.jpg",
      "description": "Globe CEO and Chief Commercial Officer sign memorandum of understanding with key government officials for the fast tracking delivery of public services.",
      "datePosted": "Mar 10, 2017 | 07:56 PM",
      "titleFromTag": "Corporate"
    },
    {
      "title": "Globe Business Secures Online Presence of Enterprises with Anti-DDoS Service",
      "nonclickable": false,
      "openNewTab": false,
      "borderArticle": "border-color:#0074D9;",
      "borderTopArticle": "border-top-color:#0074D9;",
      "imageListing": "/sites/globe.com.ph/files/content/dam/globe/brie/AboutUs/newsroom/common/Corporate_Globe_Listing.jpg",
      "articleUrl": "https://www.globe.com.ph/about-us/newsroom/business/globe-business-secures-online-presence.html",
      "columnType": "articles--type-3",
      "typeListing": "article",
      "imageMobile": "/sites/globe.com.ph/files/content/dam/globe/brie/AboutUs/newsroom/common/Corporate_Globe_Hero-Banner-Mobile.jpg",
      "imageDesktop": "/sites/globe.com.ph/files/content/dam/globe/brie/AboutUs/newsroom/common/Corporate_Globe_Primary-Desktop-Thumbnail.jpg",
      "description": "Globe Business Anti-DDoS service provides organizations with high throughput mitigation capability. Visit the Globe Newsroom for the latest news.",
      "datePosted": "Mar 10, 2017 | 04:32 PM",
      "titleFromTag": "Business"
    },
    {
      "title": "Get Disney’s Beauty and the Beast Movie Passes with Globe At Home!",
      "nonclickable": false,
      "openNewTab": false,
      "borderArticle": "border-color:#1C91C5;",
      "borderTopArticle": "border-top-color:#1C91C5;",
      "imageListing": "/sites/globe.com.ph/files/content/dam/globe/brie/AboutUs/newsroom/consumer/Consumer_Get-Disneys/Consumer_Get-Disneys_Thumbnail-Listing.jpg",
      "articleUrl": "https://www.globe.com.ph/about-us/newsroom/consumer/get-disney-beauty-and-the-beast.html",
      "columnType": "articles--type-3",
      "typeListing": "article",
      "imageMobile": "/sites/globe.com.ph/files/content/dam/globe/brie/AboutUs/newsroom/consumer/Consumer_Get-Disneys/Consumer_Get-Disneys_Hero-Banner-M.jpg",
      "imageDesktop": "/sites/globe.com.ph/files/content/dam/globe/brie/AboutUs/newsroom/consumer/Consumer_Get-Disneys/Consumer_Get-Disneys_Primary-Thumbnail.jpg",
      "description": "Get Disney’s Beauty and the Beast Movie Passes with Globe At Home! Visit the Globe Newsroom for the latest news on Globe Telecom.",
      "datePosted": "Mar 10, 2017 | 12:20 PM",
      "titleFromTag": "Consumer"
    },
    {
      "title": "Globe Telecom Calls for the Amendment of Local Government Code",
      "nonclickable": false,
      "openNewTab": false,
      "borderArticle": "border-color:#0074D9;",
      "borderTopArticle": "border-top-color:#0074D9;",
      "imageListing": "/sites/globe.com.ph/files/content/dam/globe/brie/AboutUs/newsroom/common/Corporate_Globe_Listing.jpg",
      "articleUrl": "https://www.globe.com.ph/about-us/newsroom/corporate/globe-calls-for-amendment.html",
      "columnType": "articles--type-3",
      "typeListing": "article",
      "imageMobile": "/sites/globe.com.ph/files/content/dam/globe/brie/AboutUs/newsroom/common/Corporate_Globe_Hero-Banner-Mobile.jpg",
      "imageDesktop": "/sites/globe.com.ph/files/content/dam/globe/brie/AboutUs/newsroom/common/Corporate_Globe_Primary-Desktop-Thumbnail.jpg",
      "description": "Globe appeals to expedite the issuance of all relevant permits for all telecommunication facilities at the local level. Visit the Globe Newsroom for more.",
      "datePosted": "Mar 09, 2017 | 07:56 PM",
      "titleFromTag": "Corporate"
    },
    {
      "title": "Globe Mobile Data Traffic Rises 44% to 361 Petabytes Amid Continuing Shift to Digital Lifestyle",
      "nonclickable": false,
      "openNewTab": false,
      "borderArticle": "border-color:#0074D9;",
      "borderTopArticle": "border-top-color:#0074D9;",
      "imageListing": "/sites/globe.com.ph/files/content/dam/globe/brie/AboutUs/newsroom/common/Corporate_Globe_Listing.jpg",
      "articleUrl": "https://www.globe.com.ph/about-us/newsroom/corporate/globe-mobile-data-traffic-rises.html",
      "columnType": "articles--type-3",
      "typeListing": "article",
      "imageMobile": "/sites/globe.com.ph/files/content/dam/globe/brie/AboutUs/newsroom/common/Corporate_Globe_Hero-Banner-Mobile.jpg",
      "imageDesktop": "/sites/globe.com.ph/files/content/dam/globe/brie/AboutUs/newsroom/common/Corporate_Globe_Primary-Desktop-Thumbnail.jpg",
      "description": "The significant increase follows Globe Telecom’s aggressive network enhancement build in a bid to boost capacities and expand coverage. Learn more here.",
      "datePosted": "Mar 08, 2017 | 07:57 PM",
      "titleFromTag": "Corporate"
    },
    {
      "title": "Globe Sees Demand for More Video Streaming Services to Support Broadband Business Growth",
      "nonclickable": false,
      "openNewTab": false,
      "borderArticle": "border-color:#0074D9;",
      "borderTopArticle": "border-top-color:#0074D9;",
      "imageListing": "/sites/globe.com.ph/files/content/dam/globe/brie/AboutUs/newsroom/common/Corporate_Globe_Listing.jpg",
      "articleUrl": "https://www.globe.com.ph/about-us/newsroom/corporate/globe-sees-demand-for-more-video-streaming-services.html",
      "columnType": "articles--type-3",
      "typeListing": "article",
      "imageMobile": "/sites/globe.com.ph/files/content/dam/globe/brie/AboutUs/newsroom/common/Corporate_Globe_Hero-Banner-Mobile.jpg",
      "imageDesktop": "/sites/globe.com.ph/files/content/dam/globe/brie/AboutUs/newsroom/common/Corporate_Globe_Primary-Desktop-Thumbnail.jpg",
      "description": "Globe President & CEO Ernest Cu said the availability of video streaming services in the country has changed the way customers view entertainment content.",
      "datePosted": "Mar 07, 2017 | 07:57 PM",
      "titleFromTag": "Corporate"
    },
    {
      "title": "Globe Telecom Selects NEC and Netcracker to Accelerate Digital Transformation and Infrastructure Virtualization",
      "nonclickable": false,
      "openNewTab": false,
      "borderArticle": "border-color:#0074D9;",
      "borderTopArticle": "border-top-color:#0074D9;",
      "imageListing": "/sites/globe.com.ph/files/content/dam/globe/brie/AboutUs/newsroom/common/Corporate_Globe_Listing.jpg",
      "articleUrl": "https://www.globe.com.ph/about-us/newsroom/corporate/globe-selects-nec-netcracker.html",
      "columnType": "articles--type-3",
      "typeListing": "article",
      "imageMobile": "/sites/globe.com.ph/files/content/dam/globe/brie/AboutUs/newsroom/common/Corporate_Globe_Hero-Banner-Mobile.jpg",
      "imageDesktop": "/sites/globe.com.ph/files/content/dam/globe/brie/AboutUs/newsroom/common/Corporate_Globe_Primary-Desktop-Thumbnail.jpg",
      "description": "NEC and Netcracker's Orchestration and OSS Solutions will enable Globe to drive service innovation and hybrid operations. Read more on the Newsroom.",
      "datePosted": "Mar 01, 2017 | 07:58 PM",
      "titleFromTag": "Corporate"
    },
    {
      "title": "Globe and Mabuhay Miles Give FREE SIMs to PAL Passengers",
      "nonclickable": false,
      "openNewTab": false,
      "borderArticle": "border-color:#1C91C5;",
      "borderTopArticle": "border-top-color:#1C91C5;",
      "imageListing": "/sites/globe.com.ph/files/content/dam/globe/brie/AboutUs/newsroom/common/Corporate_Globe_Listing.jpg",
      "articleUrl": "https://www.globe.com.ph/about-us/newsroom/consumer/globe-mabuhay-miles-give-free-sims.html",
      "columnType": "articles--type-3",
      "typeListing": "article",
      "imageMobile": "/sites/globe.com.ph/files/content/dam/globe/brie/AboutUs/newsroom/common/Corporate_Globe_Hero-Banner-Mobile.jpg",
      "imageDesktop": "/sites/globe.com.ph/files/content/dam/globe/brie/AboutUs/newsroom/common/Corporate_Globe_Primary-Desktop-Thumbnail.jpg",
      "description": "Globe and Mabuhay Miles Give FREE SIMs to PAL Passengers. Visit the Globe Newsroom for the latest news on Globe Telecom.",
      "datePosted": "Mar 01, 2017 | 03:58 PM",
      "titleFromTag": "Consumer"
    },
    {
      "title": "Globe Picks: YouTube Kids Channels for Your Kids to Enjoy",
      "nonclickable": false,
      "openNewTab": false,
      "borderArticle": "border-color:#1C91C5;",
      "borderTopArticle": "border-top-color:#1C91C5;",
      "imageListing": "/sites/globe.com.ph/files/content/dam/globe/brie/AboutUs/newsroom/common/Corporate_Globe_Listing.jpg",
      "articleUrl": "https://www.globe.com.ph/about-us/newsroom/consumer/globe-picks-youtube-kids-channels.html",
      "columnType": "articles--type-3",
      "typeListing": "article",
      "imageMobile": "/sites/globe.com.ph/files/content/dam/globe/brie/AboutUs/newsroom/common/Corporate_Globe_Hero-Banner-Mobile.jpg",
      "imageDesktop": "/sites/globe.com.ph/files/content/dam/globe/brie/AboutUs/newsroom/common/Corporate_Globe_Primary-Desktop-Thumbnail.jpg",
      "description": "Globe Picks: YouTube Kids Channels for Your Kids to Enjoy. Visit the Globe Newsroom for the latest news on Globe Telecom.",
      "datePosted": "Feb 28, 2017 | 12:15 PM",
      "titleFromTag": "Consumer"
    },
    {
      "title": "Globe Telecom Signs 15-Year P5 Billion Term Loan with Union Bank",
      "nonclickable": false,
      "openNewTab": false,
      "imageListing": "/sites/globe.com.ph/files/content/dam/globe/brie/AboutUs/newsroom/corporate/Corporate_Globe-Telecom-Signs/Corporate_Globe-Telecom-Signs_Thumbnail-Listing.jpg",
      "articleUrl": "https://www.globe.com.ph/about-us/newsroom/corporate/globe-signs-15-year-p5-billion-term-loan.html",
      "columnType": "articles--type-3",
      "typeListing": "article",
      "imageMobile": "/sites/globe.com.ph/files/content/dam/globe/brie/AboutUs/newsroom/corporate/Corporate_Globe-Telecom-Signs/Corporate_Globe-Telecom-Signs_Banner-M.jpg",
      "imageDesktop": "/sites/globe.com.ph/files/content/dam/globe/brie/AboutUs/newsroom/corporate/Corporate_Globe-Telecom-Signs/Corporate_Globe-Telecom-Signs_Primary-Thumbnail.jpg",
      "description": "Globe Telecom will use the 15-year, 5 billion peso term loan to finance the acquisition of San Miguel’s telecommunications assets.",
      "datePosted": "Feb 27, 2017 | 07:58 PM",
      "titleFromTag": "Corporate"
    }
  ]
}
