{
  "status": 200,
  "page": 265,
  "totalPage": 298,
  "range": "3169-3180",
  "total": 3573,
  "result": [
    {
      "title": "Globe Live and 9Works Theatrical Call for Auditions for the Hit Disney Musical Newsies",
      "nonclickable": false,
      "openNewTab": false,
      "borderArticle": "border-color:#1C91C5;",
      "borderTopArticle": "border-top-color:#1C91C5;",
      "imageListing": "/sites/globe.com.ph/files/content/dam/globe/brie/AboutUs/newsroom/common/Corporate_Globe_Listing.jpg",
      "articleUrl": "https://www.globe.com.ph/about-us/newsroom/consumer/globe-live-9works-theatrical-call-for-auditions.html",
      "columnType": "articles--type-3",
      "typeListing": "article",
      "imageMobile": "/sites/globe.com.ph/files/content/dam/globe/brie/AboutUs/newsroom/common/Corporate_Globe_Hero-Banner-Mobile.jpg",
      "imageDesktop": "/sites/globe.com.ph/files/content/dam/globe/brie/AboutUs/newsroom/common/Corporate_Globe_Primary-Desktop-Thumbnail.jpg",
      "description": "Globe Live and 9Works Theatrical Call for Auditions for the Hit Disney Musical Newsies. Visit the Globe Newsroom for the latest news on Globe Telecom.",
      "datePosted": "Feb 27, 2017 | 03:42 PM",
      "titleFromTag": "Consumer"
    },
    {
      "title": "Media Advisory on Fake Globe Website",
      "nonclickable": false,
      "openNewTab": false,
      "imageListing": "/sites/globe.com.ph/files/content/dam/globe/brie/AboutUs/newsroom/common/Corporate_Globe_Listing.jpg",
      "articleUrl": "https://www.globe.com.ph/about-us/newsroom/corporate/media-advisory-on-fake-globe-website.html",
      "columnType": "articles--type-3",
      "typeListing": "article",
      "imageMobile": "/sites/globe.com.ph/files/content/dam/globe/brie/AboutUs/newsroom/common/Corporate_Globe_Hero-Banner-Mobile.jpg",
      "imageDesktop": "/sites/globe.com.ph/files/content/dam/globe/brie/AboutUs/newsroom/common/Corporate_Globe_Primary-Desktop-Thumbnail.jpg",
      "description": "Globe Telecom is now working with authorities on fraud and trademark infringement of the fake website. Visit the Newsroom for the latest news on Globe Telecom.",
      "datePosted": "Feb 24, 2017 | 07:59 PM",
      "titleFromTag": "Corporate"
    },
    {
      "title": "Globe Provides Assistance to Fire and Earthquake Victims",
      "nonclickable": false,
      "openNewTab": false,
      "borderArticle": "border-color:#0074D9;",
      "borderTopArticle": "border-top-color:#0074D9;",
      "imageListing": "/sites/globe.com.ph/files/content/dam/globe/brie/AboutUs/newsroom/citizenship/citizenship-globe-provides-assistance/citizenship-globe-provides-assistance-thumbnail-listing.jpg",
      "articleUrl": "https://www.globe.com.ph/about-us/newsroom/citizenship/globe-provides-assistance-to-fire.html",
      "columnType": "articles--type-3",
      "typeListing": "article",
      "imageMobile": "/sites/globe.com.ph/files/content/dam/globe/brie/AboutUs/newsroom/citizenship/citizenship-globe-provides-assistance/citizenship-globe-provides-assistance-banner-m.jpg",
      "imageDesktop": "/sites/globe.com.ph/files/content/dam/globe/brie/AboutUs/newsroom/citizenship/citizenship-globe-provides-assistance/citizenship-globe-provides-assistance-primary-thumbnail.jpg",
      "description": "Relief goods were donated while Libreng Tawag and Charging Stations were set up for fire, earthquake victims in Barangay Catmon in Malabon and Surigao City.",
      "datePosted": "Feb 24, 2017 | 04:46 PM",
      "titleFromTag": "Sustainability"
    },
    {
      "title": "Globe Business Receives PCI DSS Certification, Assures Enterprise Clients of Data Security",
      "nonclickable": false,
      "openNewTab": false,
      "borderArticle": "border-color:#0074D9;",
      "borderTopArticle": "border-top-color:#0074D9;",
      "imageListing": "/sites/globe.com.ph/files/content/dam/globe/brie/AboutUs/newsroom/common/Corporate_Globe_Listing.jpg",
      "articleUrl": "https://www.globe.com.ph/about-us/newsroom/business/globe-business-receives-pci-dss-certification.html",
      "columnType": "articles--type-3",
      "typeListing": "article",
      "imageMobile": "/sites/globe.com.ph/files/content/dam/globe/brie/AboutUs/newsroom/common/Corporate_Globe_Hero-Banner-Mobile.jpg",
      "imageDesktop": "/sites/globe.com.ph/files/content/dam/globe/brie/AboutUs/newsroom/common/Corporate_Globe_Primary-Desktop-Thumbnail.jpg",
      "description": "Companies that handle cardholder data, including Globe Telecom, need to be PCI DSS compliant as proof that their network is secure. Learn more here.",
      "datePosted": "Feb 24, 2017 | 04:32 PM",
      "titleFromTag": "Business"
    },
    {
      "title": "Globe Telecom Tops Asiamoney’s Best Managed Companies Poll",
      "nonclickable": false,
      "openNewTab": false,
      "borderArticle": "border-color:#0074D9;",
      "borderTopArticle": "border-top-color:#0074D9;",
      "imageListing": "/sites/globe.com.ph/files/content/dam/globe/brie/AboutUs/newsroom/common/Corporate_Globe_Listing.jpg",
      "articleUrl": "https://www.globe.com.ph/about-us/newsroom/corporate/globe-tops-asiamoney.html",
      "columnType": "articles--type-3",
      "typeListing": "article",
      "imageMobile": "/sites/globe.com.ph/files/content/dam/globe/brie/AboutUs/newsroom/common/Corporate_Globe_Hero-Banner-Mobile.jpg",
      "imageDesktop": "/sites/globe.com.ph/files/content/dam/globe/brie/AboutUs/newsroom/common/Corporate_Globe_Primary-Desktop-Thumbnail.jpg",
      "description": "Globe gains another recognition for coming out on top of the poll for large-cap companies in the Philippines. Visit the Globe Newsroom for the latest news",
      "datePosted": "Feb 23, 2017 | 07:59 PM",
      "titleFromTag": "Corporate"
    },
    {
      "title": "Ant Financial, Ayala Corp, and Globe Hold Ceremonial Agreement Signing",
      "nonclickable": false,
      "openNewTab": false,
      "imageListing": "/sites/globe.com.ph/files/content/dam/globe/brie/AboutUs/newsroom/corporate/Corporate_Ant-Financial/Corporate_Ant-Financial_Thumbnail-Listing.jpg",
      "articleUrl": "https://www.globe.com.ph/about-us/newsroom/corporate/ant-financial-ayala-corporation-globe.html",
      "columnType": "articles--type-3",
      "typeListing": "article",
      "imageMobile": "/sites/globe.com.ph/files/content/dam/globe/brie/AboutUs/newsroom/corporate/Corporate_Ant-Financial/Corporate_Ant-Financial_Banner-M.jpg",
      "imageDesktop": "/sites/globe.com.ph/files/content/dam/globe/brie/AboutUs/newsroom/corporate/Corporate_Ant-Financial/Corporate_Ant-Financial_Primary-Thumbnail.jpg",
      "description": "The ceremonial agreement signing is for the strategic partnership in Globe Fintech Innovations, Inc. (Mynt). Visit the Globe Newsroom for the latest news",
      "datePosted": "Feb 23, 2017 | 11:42 AM",
      "titleFromTag": "Corporate"
    },
    {
      "title": "Globe myBusiness Tips: Reasons Why It’s Important to Legitimize Your Business",
      "nonclickable": false,
      "openNewTab": false,
      "borderArticle": "border-color:#0074D9;",
      "borderTopArticle": "border-top-color:#0074D9;",
      "imageListing": "/sites/globe.com.ph/files/content/dam/globe/brie/AboutUs/newsroom/common/Corporate_Globe_Listing.jpg",
      "articleUrl": "https://www.globe.com.ph/about-us/newsroom/business/globe-mybusiness-tips.html",
      "columnType": "articles--type-3",
      "typeListing": "article",
      "imageMobile": "/sites/globe.com.ph/files/content/dam/globe/brie/AboutUs/newsroom/common/Corporate_Globe_Hero-Banner-Mobile.jpg",
      "imageDesktop": "/sites/globe.com.ph/files/content/dam/globe/brie/AboutUs/newsroom/common/Corporate_Globe_Primary-Desktop-Thumbnail.jpg",
      "description": "Globe myBusiness provides entrepreneurs some tips in legitimizing a business. Visit the Globe Newsroom for the latest news on Globe Telecom.",
      "datePosted": "Feb 21, 2017 | 04:33 PM",
      "titleFromTag": "Business"
    },
    {
      "title": "Enjoy WiFi on Your Own Terms with Globe Prepaid Home WiFi",
      "nonclickable": false,
      "openNewTab": false,
      "borderArticle": "border-color:#1C91C5;",
      "borderTopArticle": "border-top-color:#1C91C5;",
      "imageListing": "/sites/globe.com.ph/files/content/dam/globe/brie/AboutUs/newsroom/common/Corporate_Globe_Listing.jpg",
      "articleUrl": "https://www.globe.com.ph/about-us/newsroom/consumer/enjoy-wifi-on-your-own.html",
      "columnType": "articles--type-3",
      "typeListing": "article",
      "imageMobile": "/sites/globe.com.ph/files/content/dam/globe/brie/AboutUs/newsroom/common/Corporate_Globe_Hero-Banner-Mobile.jpg",
      "imageDesktop": "/sites/globe.com.ph/files/content/dam/globe/brie/AboutUs/newsroom/common/Corporate_Globe_Primary-Desktop-Thumbnail.jpg",
      "description": "Enjoy WiFi on Your Own Terms with Globe Prepaid Home WiFi. Visit the Globe Newsroom for the latest news on Globe Telecom.",
      "datePosted": "Feb 21, 2017 | 10:17 AM",
      "titleFromTag": "Consumer"
    },
    {
      "title": "Ant Financial and Ayala Corporation to Promote Equal Access to Financial Services in the Philippines with Investment in Globe Telecom’s Mynt",
      "nonclickable": false,
      "openNewTab": false,
      "borderArticle": "border-color:#0074D9;",
      "borderTopArticle": "border-top-color:#0074D9;",
      "imageListing": "/sites/globe.com.ph/files/content/dam/globe/brie/AboutUs/newsroom/common/Corporate_Globe_Listing.jpg",
      "articleUrl": "https://www.globe.com.ph/about-us/newsroom/corporate/ant-financial-ayala-corporation.html",
      "columnType": "articles--type-3",
      "typeListing": "article",
      "imageMobile": "/sites/globe.com.ph/files/content/dam/globe/brie/AboutUs/newsroom/common/Corporate_Globe_Hero-Banner-Mobile.jpg",
      "imageDesktop": "/sites/globe.com.ph/files/content/dam/globe/brie/AboutUs/newsroom/common/Corporate_Globe_Primary-Desktop-Thumbnail.jpg",
      "description": "Ant Financial and Ayala Corporation to promote equal access to financial services in the Philippines with investment in Globe Telecom’s Mynt. Learn more here.",
      "datePosted": "Feb 17, 2017 | 08:01 PM",
      "titleFromTag": "Corporate"
    },
    {
      "title": "Globe to Continue Ramping Up the Deployment of 700 MHz LTE Sites",
      "nonclickable": false,
      "openNewTab": false,
      "borderArticle": "border-color:#0074D9;",
      "borderTopArticle": "border-top-color:#0074D9;",
      "imageListing": "/sites/globe.com.ph/files/content/dam/globe/brie/AboutUs/newsroom/common/Corporate_Globe_Listing.jpg",
      "articleUrl": "https://www.globe.com.ph/about-us/newsroom/corporate/globe-to-continue-ramping-up.html",
      "columnType": "articles--type-3",
      "typeListing": "article",
      "imageMobile": "/sites/globe.com.ph/files/content/dam/globe/brie/AboutUs/newsroom/common/Corporate_Globe_Hero-Banner-Mobile.jpg",
      "imageDesktop": "/sites/globe.com.ph/files/content/dam/globe/brie/AboutUs/newsroom/common/Corporate_Globe_Primary-Desktop-Thumbnail.jpg",
      "description": "Globe Telecom targets to increase 700 MHz spectrum utilization by over 300%, in support of its bid to improve the internet experience of its customers.",
      "datePosted": "Feb 17, 2017 | 08:01 PM",
      "titleFromTag": "Corporate"
    },
    {
      "title": "Globe At Home Subscribers Fly to the U.S. for the NBA All-Star Weekend!",
      "nonclickable": false,
      "openNewTab": false,
      "borderArticle": "border-color:#1C91C5;",
      "borderTopArticle": "border-top-color:#1C91C5;",
      "imageListing": "/sites/globe.com.ph/files/content/dam/globe/brie/AboutUs/newsroom/common/Corporate_Globe_Listing.jpg",
      "articleUrl": "https://www.globe.com.ph/about-us/newsroom/consumer/globe-at-home-subscribers-fly-to-us-nba-all-star-weekend.html",
      "columnType": "articles--type-3",
      "typeListing": "article",
      "imageMobile": "/sites/globe.com.ph/files/content/dam/globe/brie/AboutUs/newsroom/common/Corporate_Globe_Hero-Banner-Mobile.jpg",
      "imageDesktop": "/sites/globe.com.ph/files/content/dam/globe/brie/AboutUs/newsroom/common/Corporate_Globe_Primary-Desktop-Thumbnail.jpg",
      "description": "Globe At Home Subscribers Fly to the U.S. for the NBA All-Star Weekend! Visit the Globe Newsroom for the latest news on Globe Telecom.",
      "datePosted": "Feb 17, 2017 | 06:04 PM",
      "titleFromTag": "Consumer"
    },
    {
      "title": "Globe Studios and Disney Launches Disney Princess: I Dare To Dream Web Series",
      "nonclickable": false,
      "openNewTab": false,
      "borderArticle": "border-color:#1C91C5;",
      "borderTopArticle": "border-top-color:#1C91C5;",
      "imageListing": "/sites/globe.com.ph/files/content/dam/globe/brie/AboutUs/newsroom/consumer/Consumer_Globe-Studios-and-Disney/Consumer_Globe-Studios-and-Disney_Thumbnail-Listing.jpg",
      "articleUrl": "https://www.globe.com.ph/about-us/newsroom/consumer/globe-studios-disney-launches-i-dare-to-dream-web-series.html",
      "columnType": "articles--type-3",
      "typeListing": "article",
      "imageMobile": "/sites/globe.com.ph/files/content/dam/globe/brie/AboutUs/newsroom/consumer/Consumer_Globe-Studios-and-Disney/Consumer_Globe-Studios-and-Disney_Hero-Banner-M.jpg",
      "imageDesktop": "/sites/globe.com.ph/files/content/dam/globe/brie/AboutUs/newsroom/consumer/Consumer_Globe-Studios-and-Disney/Consumer_Globe-Studios-and-Disney_Primary-Thumbnail.jpg",
      "description": "Globe Telecom is redefining the landscape of local entertainment by launching Disney Princess: I Dare To Dream. Visit the Globe Newsroom for the latest news",
      "datePosted": "Feb 16, 2017 | 10:24 AM",
      "titleFromTag": "Consumer"
    }
  ]
}
