{
  "status": 200,
  "page": 266,
  "totalPage": 298,
  "range": "3181-3192",
  "total": 3573,
  "result": [
    {
      "title": "Globe Business Lets MSMEs Go Beyond Flowers this Valentine Month",
      "nonclickable": false,
      "openNewTab": false,
      "borderArticle": "border-color:#0074D9;",
      "borderTopArticle": "border-top-color:#0074D9;",
      "imageListing": "/sites/globe.com.ph/files/content/dam/globe/brie/AboutUs/newsroom/business/business-mybusiness-valentine-flowers/business-mybusiness-valentine-flowers-thumbnail-listing.jpg",
      "articleUrl": "https://www.globe.com.ph/about-us/newsroom/business/globe-mybusiness-lets-msmes-go.html",
      "columnType": "articles--type-3",
      "typeListing": "article",
      "imageMobile": "/sites/globe.com.ph/files/content/dam/globe/brie/AboutUs/newsroom/business/business-mybusiness-valentine-flowers/business-mybusiness-valentine-flowers-banner-m.jpg",
      "imageDesktop": "/sites/globe.com.ph/files/content/dam/globe/brie/AboutUs/newsroom/business/business-mybusiness-valentine-flowers/business-mybusiness-valentine-flowers-primary-thumbnail.jpg",
      "description": "Globe Business, Te Amo Floristeria held a Brush Lettering & Boxed Flower Arrangements workshop to help entrepreneurs enhance their businesses this Valentine's.",
      "datePosted": "Feb 14, 2017 | 04:33 PM",
      "titleFromTag": "Business"
    },
    {
      "title": "Globe Supports Senate’s Move to Reform Telco Industry",
      "nonclickable": false,
      "openNewTab": false,
      "borderArticle": "border-color:#0074D9;",
      "borderTopArticle": "border-top-color:#0074D9;",
      "imageListing": "/sites/globe.com.ph/files/content/dam/globe/brie/AboutUs/newsroom/common/Corporate_Globe_Listing.jpg",
      "articleUrl": "https://www.globe.com.ph/about-us/newsroom/corporate/globe-supports-senate-move.html",
      "columnType": "articles--type-3",
      "typeListing": "article",
      "imageMobile": "/sites/globe.com.ph/files/content/dam/globe/brie/AboutUs/newsroom/common/Corporate_Globe_Hero-Banner-Mobile.jpg",
      "imageDesktop": "/sites/globe.com.ph/files/content/dam/globe/brie/AboutUs/newsroom/common/Corporate_Globe_Primary-Desktop-Thumbnail.jpg",
      "description": "Globe Telecom expressed support for the bills introduced by Sen. Gatchalian that directly affect the telecommunications industry. Learn more here.",
      "datePosted": "Feb 13, 2017 | 08:03 PM",
      "titleFromTag": "Corporate"
    },
    {
      "title": "Globe Provides Call Cards and SIM Cards to Surigao del Norte",
      "nonclickable": false,
      "openNewTab": false,
      "imageListing": "/sites/globe.com.ph/files/content/dam/globe/brie/AboutUs/newsroom/common/Corporate_Globe_Listing.jpg",
      "articleUrl": "https://www.globe.com.ph/about-us/newsroom/corporate/globe-provides-call-cards.html",
      "columnType": "articles--type-3",
      "typeListing": "article",
      "imageMobile": "/sites/globe.com.ph/files/content/dam/globe/brie/AboutUs/newsroom/common/Corporate_Globe_Hero-Banner-Mobile.jpg",
      "imageDesktop": "/sites/globe.com.ph/files/content/dam/globe/brie/AboutUs/newsroom/common/Corporate_Globe_Primary-Desktop-Thumbnail.jpg",
      "description": "An additional Libreng Tawag and Charging station is also set up at the San Francisco Municipal Hall. Visit the Newsroom for the latest news on Globe Telecom.",
      "datePosted": "Feb 13, 2017 | 08:02 PM",
      "titleFromTag": "Corporate"
    },
    {
      "title": "Globe Partners with Adobo Magazine for 2017 Adobo Design Awards Asia (aDAA)",
      "nonclickable": false,
      "openNewTab": false,
      "borderArticle": "border-color:#0074D9;",
      "borderTopArticle": "border-top-color:#0074D9;",
      "imageListing": "/sites/globe.com.ph/files/content/dam/globe/brie/AboutUs/newsroom/common/Corporate_Globe_Listing.jpg",
      "articleUrl": "https://www.globe.com.ph/about-us/newsroom/corporate/globe-partners-with-adobo-magazine.html",
      "columnType": "articles--type-3",
      "typeListing": "article",
      "imageMobile": "/sites/globe.com.ph/files/content/dam/globe/brie/AboutUs/newsroom/common/Corporate_Globe_Hero-Banner-Mobile.jpg",
      "imageDesktop": "/sites/globe.com.ph/files/content/dam/globe/brie/AboutUs/newsroom/common/Corporate_Globe_Primary-Desktop-Thumbnail.jpg",
      "description": "Globe Telecom lends its support to one of Asia’s most important creative awards. Visit the Globe Newsroom for the latest news on Globe Telecom.",
      "datePosted": "Feb 13, 2017 | 08:02 PM",
      "titleFromTag": "Corporate"
    },
    {
      "title": "Globe Telecom Sets Up Libreng Tawag and Libreng Charging booths in Surigao City",
      "nonclickable": false,
      "openNewTab": false,
      "borderArticle": "border-color:#0074D9;",
      "borderTopArticle": "border-top-color:#0074D9;",
      "imageListing": "/sites/globe.com.ph/files/content/dam/globe/brie/AboutUs/newsroom/corporate/corporate-Globe-Telecom-Sets/Corporate_Globe-Telecom-Sets_Thumbnail-Listing.jpg",
      "articleUrl": "https://www.globe.com.ph/about-us/newsroom/corporate/globe-sets-up-libreng-tawag.html",
      "columnType": "articles--type-3",
      "typeListing": "article",
      "imageMobile": "/sites/globe.com.ph/files/content/dam/globe/brie/AboutUs/newsroom/corporate/corporate-Globe-Telecom-Sets/Corporate_Globe-Telecom-Sets_Banner-M.jpg",
      "imageDesktop": "/sites/globe.com.ph/files/content/dam/globe/brie/AboutUs/newsroom/corporate/corporate-Globe-Telecom-Sets/Corporate_Globe-Telecom-Sets_Primary-Thumbnail.jpg",
      "description": "Globe provides free services to residents that were affected by the strong 6.7 magnitude earthquake that shook Surigao del Norte Friday evening.",
      "datePosted": "Feb 12, 2017 | 08:03 PM",
      "titleFromTag": "Corporate"
    },
    {
      "title": "Advisory on Surigao Del Norte Earthquake",
      "nonclickable": false,
      "openNewTab": false,
      "borderArticle": "border-color:#0074D9;",
      "borderTopArticle": "border-top-color:#0074D9;",
      "imageListing": "/sites/globe.com.ph/files/content/dam/globe/brie/AboutUs/newsroom/common/Corporate_Globe_Listing.jpg",
      "articleUrl": "https://www.globe.com.ph/about-us/newsroom/corporate/advisory-on-surigao-del-norte.html",
      "columnType": "articles--type-3",
      "typeListing": "article",
      "imageMobile": "/sites/globe.com.ph/files/content/dam/globe/brie/AboutUs/newsroom/common/Corporate_Globe_Hero-Banner-Mobile.jpg",
      "imageDesktop": "/sites/globe.com.ph/files/content/dam/globe/brie/AboutUs/newsroom/common/Corporate_Globe_Primary-Desktop-Thumbnail.jpg",
      "description": "Globe Telecom mobile services are available in Surigao Del Norte province even in areas affected by the earthquake. Visit the Globe Newsroom for more.",
      "datePosted": "Feb 11, 2017 | 08:04 PM",
      "titleFromTag": "Corporate"
    },
    {
      "title": "Globe Telecom Board Approves 1Q P22.75/Share Cash Dividend",
      "nonclickable": false,
      "openNewTab": false,
      "borderArticle": "border-color:#0074D9;",
      "borderTopArticle": "border-top-color:#0074D9;",
      "imageListing": "/sites/globe.com.ph/files/content/dam/globe/brie/AboutUs/newsroom/corporate/corporate-globe-telecom-board/Corporate_Globe-Telecom-Board_Thumbnail-Listing.jpg",
      "articleUrl": "https://www.globe.com.ph/about-us/newsroom/corporate/globe-board-approves-1q.html",
      "columnType": "articles--type-3",
      "typeListing": "article",
      "imageMobile": "/sites/globe.com.ph/files/content/dam/globe/brie/AboutUs/newsroom/corporate/corporate-globe-telecom-board/Corporate_Globe-Telecom-Board_Banner-M.jpg",
      "imageDesktop": "/sites/globe.com.ph/files/content/dam/globe/brie/AboutUs/newsroom/corporate/corporate-globe-telecom-board/Corporate_Globe-Telecom-Board_Primary-Thumbnail.jpg",
      "description": "The approval of the cash dividend follows the release of Globe’s financial performance report. Visit the Globe Newsroom for the latest news on Globe Telecom.",
      "datePosted": "Feb 09, 2017 | 08:04 PM",
      "titleFromTag": "Corporate"
    },
    {
      "title": "Get High-Speed Broadband Now with Globe At Home",
      "nonclickable": false,
      "openNewTab": false,
      "borderArticle": "border-color:#1C91C5;",
      "borderTopArticle": "border-top-color:#1C91C5;",
      "imageListing": "/sites/globe.com.ph/files/content/dam/globe/brie/AboutUs/newsroom/common/Corporate_Globe_Listing.jpg",
      "articleUrl": "https://www.globe.com.ph/about-us/newsroom/consumer/get-high-speed-broadband-now.html",
      "columnType": "articles--type-3",
      "typeListing": "article",
      "imageMobile": "/sites/globe.com.ph/files/content/dam/globe/brie/AboutUs/newsroom/common/Corporate_Globe_Hero-Banner-Mobile.jpg",
      "imageDesktop": "/sites/globe.com.ph/files/content/dam/globe/brie/AboutUs/newsroom/common/Corporate_Globe_Primary-Desktop-Thumbnail.jpg",
      "description": "Globe At Home makes it more convenient for its potential customers. Visit the Globe Newsroom for the latest news on Globe Telecom.",
      "datePosted": "Feb 09, 2017 | 03:34 PM",
      "titleFromTag": "Consumer"
    },
    {
      "title": "Globe Ends 2016 with Record Core Net Profit at P16 Billion",
      "nonclickable": false,
      "openNewTab": false,
      "borderArticle": "border-color:#0074D9;",
      "borderTopArticle": "border-top-color:#0074D9;",
      "imageListing": "/sites/globe.com.ph/files/content/dam/globe/brie/AboutUs/newsroom/common/Corporate_Globe_Listing.jpg",
      "articleUrl": "https://www.globe.com.ph/about-us/newsroom/corporate/globe-ends-2016-with-record-core-net.html",
      "columnType": "articles--type-3",
      "typeListing": "article",
      "imageDesktop": "/sites/globe.com.ph/files/content/dam/globe/brie/AboutUs/newsroom/common/Corporate_Globe_Primary-Desktop-Thumbnail.jpg",
      "description": "Despite heightened industry competition, Globe Telecom’s core net profit reached a record high of P16 billion, up 6% YOY. Visit the Globe Newsroom for more.",
      "datePosted": "Feb 08, 2017 | 08:05 PM",
      "titleFromTag": "Corporate"
    },
    {
      "title": "Globe to Equip 1,000 Private School Teachers with Digital Literacy Skills",
      "nonclickable": false,
      "openNewTab": false,
      "borderArticle": "border-color:#0074D9;",
      "borderTopArticle": "border-top-color:#0074D9;",
      "imageListing": "/sites/globe.com.ph/files/content/dam/globe/brie/AboutUs/newsroom/corporate/corporate-globe-digital-literacy/corporate-globe-digital-literacy-thumbnail-listing.jpg",
      "articleUrl": "https://www.globe.com.ph/about-us/newsroom/corporate/globe-to-equip-1000-private-school-teachers.html",
      "columnType": "articles--type-3",
      "typeListing": "article",
      "imageMobile": "/sites/globe.com.ph/files/content/dam/globe/brie/AboutUs/newsroom/corporate/corporate-globe-digital-literacy/corporate-globe-digital-literacy-banner-m.jpg",
      "imageDesktop": "/sites/globe.com.ph/files/content/dam/globe/brie/AboutUs/newsroom/corporate/corporate-globe-digital-literacy/corporate-globe-digital-literacy-primary-thumbnail.jpg",
      "description": "Globe Telecom designs a professional development program for those teaching the new Media and Information Literacy (MIL) subject in Senior High School.",
      "datePosted": "Feb 07, 2017 | 08:05 PM",
      "titleFromTag": "Corporate"
    },
    {
      "title": "Globe Telecom Celebrates Safer Internet Day with #CyberPinoy",
      "nonclickable": false,
      "openNewTab": false,
      "borderArticle": "border-color:#1C91C5;",
      "borderTopArticle": "border-top-color:#1C91C5;",
      "imageListing": "/sites/globe.com.ph/files/content/dam/globe/brie/AboutUs/newsroom/consumer/Consumer_Globe-Telecom-Celebrates-Safer/Consumer_Globe-Telecom-Celebrates-Safer_Thumbnail-Listing.jpg",
      "articleUrl": "https://www.globe.com.ph/about-us/newsroom/consumer/globe-celebrates-safer-internet.html",
      "columnType": "articles--type-3",
      "typeListing": "article",
      "imageMobile": "/sites/globe.com.ph/files/content/dam/globe/brie/AboutUs/newsroom/consumer/Consumer_Globe-Telecom-Celebrates-Safer/Consumer_Globe-Telecom-Celebrates-Safer_Hero-Banner-M.jpg",
      "imageDesktop": "/sites/globe.com.ph/files/content/dam/globe/brie/AboutUs/newsroom/consumer/Consumer_Globe-Telecom-Celebrates-Safer/Consumer_Globe-Telecom-Celebrates-Safer_Primary-Thumbnail.jpg",
      "description": "Globe Telecom Celebrates Safer Internet Day with #CyberPinoy. Visit the Globe Newsroom for the latest news on Globe Telecom.",
      "datePosted": "Feb 07, 2017 | 01:02 PM",
      "titleFromTag": "Consumer"
    },
    {
      "title": "KonsultaMD is Now Accessible from All Philippine Telecom Networks",
      "nonclickable": false,
      "openNewTab": false,
      "borderArticle": "border-color:#1C91C5;",
      "borderTopArticle": "border-top-color:#1C91C5;",
      "imageListing": "/sites/globe.com.ph/files/content/dam/globe/brie/AboutUs/newsroom/consumer/Consumer_KonsultaMD-is-Now/Consumer_KonsultaMD-is-Now_Thumbnail-Listing.jpg",
      "articleUrl": "https://www.globe.com.ph/about-us/newsroom/consumer/konsultamd-now-accessible-all-philippine-telecom-networks.html",
      "columnType": "articles--type-3",
      "typeListing": "article",
      "imageMobile": "/sites/globe.com.ph/files/content/dam/globe/brie/AboutUs/newsroom/consumer/Consumer_KonsultaMD-is-Now/Consumer_KonsultaMD-is-Now_Hero-Banner-M.jpg",
      "imageDesktop": "/sites/globe.com.ph/files/content/dam/globe/brie/AboutUs/newsroom/consumer/Consumer_KonsultaMD-is-Now/Consumer_KonsultaMD-is-Now_Primary-Thumbnail.jpg",
      "description": "KonsultaMD is Now Accessible from All Philippine Telecom Networks. Visit the Globe Newsroom for the latest news on Globe Telecom.",
      "datePosted": "Feb 03, 2017 | 02:22 PM",
      "titleFromTag": "Consumer"
    }
  ]
}
