{
  "status": 200,
  "page": 267,
  "totalPage": 298,
  "range": "3193-3204",
  "total": 3573,
  "result": [
    {
      "title": "Globe Fetes Key Industry Partners at CEO Appreciation Night",
      "nonclickable": false,
      "openNewTab": false,
      "borderArticle": "border-color:#0074D9;",
      "borderTopArticle": "border-top-color:#0074D9;",
      "imageListing": "/sites/globe.com.ph/files/content/dam/globe/brie/AboutUs/newsroom/common/Corporate_Globe_Listing.jpg",
      "articleUrl": "https://www.globe.com.ph/about-us/newsroom/corporate/globe-fetes-key-industry-partners-ceo-appreciation-night.html",
      "columnType": "articles--type-3",
      "typeListing": "article",
      "imageMobile": "/sites/globe.com.ph/files/content/dam/globe/brie/AboutUs/newsroom/common/Corporate_Globe_Primary-Desktop-Thumbnail.jpg",
      "imageDesktop": "/sites/globe.com.ph/files/content/dam/globe/brie/AboutUs/newsroom/common/Corporate_Globe_Primary-Desktop-Thumbnail.jpg",
      "description": "Globe Fetes Key Industry Partners at CEO Appreciation Night. Visit Globe Newsroom for the latest news on Globe Telecom.",
      "datePosted": "Feb 02, 2017 | 08:27 PM",
      "titleFromTag": "Business"
    },
    {
      "title": "Mindanao’s Parasat Cable TV Boosts Service with Globe Business Connectivity Solutions",
      "nonclickable": false,
      "openNewTab": false,
      "borderArticle": "border-color:#0074D9;",
      "borderTopArticle": "border-top-color:#0074D9;",
      "imageListing": "/sites/globe.com.ph/files/content/dam/globe/brie/AboutUs/newsroom/business/business-parasat-cable/business-parasat-cable-thumbnail-listing.jpg",
      "articleUrl": "https://www.globe.com.ph/about-us/newsroom/business/mindanaos-parasat-cable-tv-boosts.html",
      "columnType": "articles--type-3",
      "typeListing": "article",
      "imageMobile": "/sites/globe.com.ph/files/content/dam/globe/brie/AboutUs/newsroom/business/business-parasat-cable/business-parasat-cable-banner-m.jpg",
      "imageDesktop": "/sites/globe.com.ph/files/content/dam/globe/brie/AboutUs/newsroom/business/business-parasat-cable/business-parasat-cable-primary-thumbnail.jpg",
      "description": "Globe Business connectivity solutions were availed by Parasat Cable Television in response to the high demand for broadband internet. Learn more here.",
      "datePosted": "Feb 02, 2017 | 04:34 PM",
      "titleFromTag": "Business"
    },
    {
      "title": "Globe Customers Receive Exclusive Ticket Discounts to Experience Award-winning Broadway and West End Musical Wicked",
      "nonclickable": false,
      "openNewTab": false,
      "borderArticle": "border-color:#1C91C5;",
      "borderTopArticle": "border-top-color:#1C91C5;",
      "imageListing": "/sites/globe.com.ph/files/content/dam/globe/brie/AboutUs/newsroom/consumer/Consumer_Globe-Customers-Receive/Consumer_Globe-Customers-Receive_Thumbnail-Listing.jpg",
      "articleUrl": "https://www.globe.com.ph/about-us/newsroom/consumer/globe-customers-receive-exclusive-ticket-discounts-wicked.html",
      "columnType": "articles--type-3",
      "typeListing": "article",
      "imageMobile": "/sites/globe.com.ph/files/content/dam/globe/brie/AboutUs/newsroom/consumer/Consumer_Globe-Customers-Receive/Consumer_Globe-Customers-Receive_Hero-Banner-M.jpg",
      "imageDesktop": "/sites/globe.com.ph/files/content/dam/globe/brie/AboutUs/newsroom/consumer/Consumer_Globe-Customers-Receive/Consumer_Globe-Customers-Receive_Primary-Thumbnail.jpg",
      "description": "Globe Customers Receive Exclusive Ticket Discounts to Experience Award-winning Broadway and West End Musical Wicked. Visit the Globe Newsroom for more.",
      "datePosted": "Jan 30, 2017 | 03:58 PM",
      "titleFromTag": "Consumer"
    },
    {
      "title": "Globe blocks more than 165 M spam/scam messages in 2016",
      "nonclickable": false,
      "openNewTab": false,
      "borderArticle": "border-color:#0074D9;",
      "borderTopArticle": "border-top-color:#0074D9;",
      "imageListing": "/sites/globe.com.ph/files/content/dam/globe/brie/AboutUs/newsroom/common/Corporate_Globe_Listing.jpg",
      "articleUrl": "https://www.globe.com.ph/about-us/newsroom/corporate/globe-blocks-more-than-165-million-spam-scam-messages.html",
      "columnType": "articles--type-3",
      "typeListing": "article",
      "imageMobile": "/sites/globe.com.ph/files/content/dam/globe/brie/AboutUs/newsroom/common/Corporate_Globe_Hero-Banner-Mobile.jpg",
      "imageDesktop": "/sites/globe.com.ph/files/content/dam/globe/brie/AboutUs/newsroom/common/Corporate_Globe_Primary-Desktop-Thumbnail.jpg",
      "description": "Globe Telecom’s mechanism blocked an average of 200,000 unwanted messages per day. Visit the Globe Newsroom for the latest news on Globe Telecom.",
      "datePosted": "Jan 26, 2017 | 08:06 PM",
      "titleFromTag": "Corporate"
    },
    {
      "title": "First and Only Outdoor Theater Production House, Globe LIVE, Wins Big at Broadway World Awards PH 2016",
      "nonclickable": false,
      "openNewTab": false,
      "borderArticle": "border-color:#0074D9;",
      "borderTopArticle": "border-top-color:#0074D9;",
      "imageListing": "/sites/globe.com.ph/files/content/dam/globe/brie/AboutUs/newsroom/common/Corporate_Globe_Listing.jpg",
      "articleUrl": "https://www.globe.com.ph/about-us/newsroom/partners/first-and-only-outdoor-theater.html",
      "columnType": "articles--type-3",
      "typeListing": "article",
      "imageMobile": "/sites/globe.com.ph/files/content/dam/globe/brie/AboutUs/newsroom/common/Corporate_Globe_Hero-Banner-Mobile.jpg",
      "imageDesktop": "/sites/globe.com.ph/files/content/dam/globe/brie/AboutUs/newsroom/common/Corporate_Globe_Primary-Desktop-Thumbnail.jpg",
      "description": "Globe LIVE bagged seven awards along with other musical productions such as Les Miserables, Constellations, Love/Sick, and Katips: Ang Mga Katipuneros.",
      "datePosted": "Jan 26, 2017 | 04:43 PM",
      "titleFromTag": "Partners"
    },
    {
      "title": "6 Feng Shui Tips Before Starting Your Business",
      "nonclickable": false,
      "openNewTab": false,
      "borderArticle": "border-color:#1C91C5;",
      "borderTopArticle": "border-top-color:#1C91C5;",
      "imageListing": "/sites/globe.com.ph/files/content/dam/globe/brie/AboutUs/newsroom/common/Corporate_Globe_Listing.jpg",
      "articleUrl": "https://www.globe.com.ph/about-us/newsroom/consumer/6-feng-shui-tips.html",
      "columnType": "articles--type-3",
      "typeListing": "article",
      "imageMobile": "/sites/globe.com.ph/files/content/dam/globe/brie/AboutUs/newsroom/common/Corporate_Globe_Hero-Banner-Mobile.jpg",
      "imageDesktop": "/sites/globe.com.ph/files/content/dam/globe/brie/AboutUs/newsroom/common/Corporate_Globe_Primary-Desktop-Thumbnail.jpg",
      "description": "6 Feng Shui Tips Before Starting Your Business. Visit the Globe Newsroom for the latest news on Globe Telecom.",
      "datePosted": "Jan 26, 2017 | 10:33 AM",
      "titleFromTag": "Consumer"
    },
    {
      "title": "Globe broadband sees 88% price reduction within 4 years",
      "nonclickable": false,
      "openNewTab": false,
      "borderArticle": "border-color:#0074D9;",
      "borderTopArticle": "border-top-color:#0074D9;",
      "imageListing": "/sites/globe.com.ph/files/content/dam/globe/brie/AboutUs/newsroom/common/Corporate_Globe_Listing.jpg",
      "articleUrl": "https://www.globe.com.ph/about-us/newsroom/corporate/globe-broadband-sees-88-percent-price-reduction.html",
      "columnType": "articles--type-3",
      "typeListing": "article",
      "imageMobile": "/sites/globe.com.ph/files/content/dam/globe/brie/AboutUs/newsroom/common/Corporate_Globe_Hero-Banner-Mobile.jpg",
      "imageDesktop": "/sites/globe.com.ph/files/content/dam/globe/brie/AboutUs/newsroom/common/Corporate_Globe_Primary-Desktop-Thumbnail.jpg",
      "description": "Globe broadband prices declined substantially over four years amid the steady uptake of the telecommunication operator’s wired broadband services.",
      "datePosted": "Jan 25, 2017 | 08:06 PM",
      "titleFromTag": "Corporate"
    },
    {
      "title": "Globe Teams Up with League of Vice Governors to Develop Telco Infra",
      "nonclickable": false,
      "openNewTab": false,
      "borderArticle": "border-color:#0074D9;",
      "borderTopArticle": "border-top-color:#0074D9;",
      "imageListing": "/sites/globe.com.ph/files/content/dam/globe/brie/AboutUs/newsroom/common/Corporate_Globe_Listing.jpg",
      "articleUrl": "https://www.globe.com.ph/about-us/newsroom/corporate/globe-teams-up-with-league.html",
      "columnType": "articles--type-3",
      "typeListing": "article",
      "imageMobile": "/sites/globe.com.ph/files/content/dam/globe/brie/AboutUs/newsroom/common/Corporate_Globe_Hero-Banner-Mobile.jpg",
      "imageDesktop": "/sites/globe.com.ph/files/content/dam/globe/brie/AboutUs/newsroom/common/Corporate_Globe_Primary-Desktop-Thumbnail.jpg",
      "description": "Globe Telecom’s new partnership will enhance connectivity for businesses and communities. Visit the Globe Newsroom for the latest news on Globe Telecom.",
      "datePosted": "Jan 24, 2017 | 08:07 PM",
      "titleFromTag": "Corporate"
    },
    {
      "title": "Globe ready to provide support for the establishment of a comprehensive credit information system",
      "nonclickable": false,
      "openNewTab": false,
      "borderArticle": "border-color:#0074D9;",
      "borderTopArticle": "border-top-color:#0074D9;",
      "imageListing": "/sites/globe.com.ph/files/content/dam/globe/brie/AboutUs/newsroom/common/Corporate_Globe_Listing.jpg",
      "articleUrl": "https://www.globe.com.ph/about-us/newsroom/corporate/globe-ready-to-provide-support.html",
      "columnType": "articles--type-3",
      "typeListing": "article",
      "imageDesktop": "/sites/globe.com.ph/files/content/dam/globe/brie/AboutUs/newsroom/common/Corporate_Globe_Primary-Desktop-Thumbnail.jpg",
      "description": "he Credit Information Corporation’s coverage recently expanded to include telecommunication companies under CIC Circular 2016-01. Learn more here.",
      "datePosted": "Jan 20, 2017 | 08:08 PM",
      "titleFromTag": "Corporate"
    },
    {
      "title": "Globe Launches #CyberPinoy Cyberwellness Campaign to Promote Online Health and Safety",
      "nonclickable": false,
      "openNewTab": false,
      "borderArticle": "border-color:#0074D9;",
      "borderTopArticle": "border-top-color:#0074D9;",
      "imageListing": "/sites/globe.com.ph/files/content/dam/globe/brie/AboutUs/newsroom/corporate/corporate-globe-launches-cyberpinoy/corporate-globe-launches-cyberpinoy-thumbnail-listing.jpg",
      "articleUrl": "https://www.globe.com.ph/about-us/newsroom/corporate/globe-launches-cyber-pinoy.html",
      "columnType": "articles--type-3",
      "typeListing": "article",
      "imageMobile": "/sites/globe.com.ph/files/content/dam/globe/brie/AboutUs/newsroom/corporate/corporate-globe-launches-cyberpinoy/corporate-globe-launches-cyberpinoy-banner-m.jpg",
      "imageDesktop": "/sites/globe.com.ph/files/content/dam/globe/brie/AboutUs/newsroom/corporate/corporate-globe-launches-cyberpinoy/corporate-globe-launches-cyberpinoy-primary-thumbnail.jpg",
      "description": "Globe Telecom launches the #CyberPinoy cyberwellness campaign to promote a safe and inspiring digital nation. Visit the Globe Newsroom for the latest news",
      "datePosted": "Jan 20, 2017 | 08:07 PM",
      "titleFromTag": "Corporate"
    },
    {
      "title": "The Best Travel Deals for Your Next Dream Getaway",
      "nonclickable": false,
      "openNewTab": false,
      "borderArticle": "border-color:#1C91C5;",
      "borderTopArticle": "border-top-color:#1C91C5;",
      "imageListing": "/sites/globe.com.ph/files/content/dam/globe/brie/AboutUs/newsroom/consumer/Consumer_The-Best-Travel/Consumer_The-Best-Travel_Thumbnail-Listing.jpg",
      "articleUrl": "https://www.globe.com.ph/about-us/newsroom/consumer/best-travel-deals-dream-getaway.html",
      "columnType": "articles--type-3",
      "typeListing": "article",
      "imageMobile": "/sites/globe.com.ph/files/content/dam/globe/brie/AboutUs/newsroom/consumer/Consumer_The-Best-Travel/Consumer_The-Best-Travel_Hero-Banner-M.jpg",
      "imageDesktop": "/sites/globe.com.ph/files/content/dam/globe/brie/AboutUs/newsroom/consumer/Consumer_The-Best-Travel/Consumer_The-Best-Travel_Primary-Thumbnail.jpg",
      "description": "The Best Travel Deals for Your Next Dream Getaway. Visit the Globe Newsroom for the latest news on Globe Telecom.",
      "datePosted": "Jan 20, 2017 | 09:46 AM",
      "titleFromTag": "Consumer"
    },
    {
      "title": "Globe expands interconnection with competition for fixed voice calls to include Davao Oriental",
      "nonclickable": false,
      "openNewTab": false,
      "borderArticle": "border-color:#0074D9;",
      "borderTopArticle": "border-top-color:#0074D9;",
      "imageListing": "/sites/globe.com.ph/files/content/dam/globe/brie/AboutUs/newsroom/common/Corporate_Globe_Listing.jpg",
      "articleUrl": "https://www.globe.com.ph/about-us/newsroom/corporate/globe-expands-interconnection-with-competition.html",
      "columnType": "articles--type-3",
      "typeListing": "article",
      "imageMobile": "/sites/globe.com.ph/files/content/dam/globe/brie/AboutUs/newsroom/common/Corporate_Globe_Hero-Banner-Mobile.jpg",
      "imageDesktop": "/sites/globe.com.ph/files/content/dam/globe/brie/AboutUs/newsroom/common/Corporate_Globe_Primary-Desktop-Thumbnail.jpg",
      "description": "Globe Telecom’s interconnection with other telco providers lower connectivity cost for customers’ benefit. Visit the Globe Newsroom for the latest news",
      "datePosted": "Jan 19, 2017 | 08:08 PM",
      "titleFromTag": "Corporate"
    }
  ]
}
