{
  "status": 200,
  "page": 268,
  "totalPage": 298,
  "range": "3205-3216",
  "total": 3573,
  "result": [
    {
      "title": "Globe Provides Libreng Tawag and Charging to CDO Flood Victims.",
      "nonclickable": false,
      "openNewTab": false,
      "borderArticle": "border-color:#0074D9;",
      "borderTopArticle": "border-top-color:#0074D9;",
      "imageListing": "/sites/globe.com.ph/files/content/dam/globe/brie/AboutUs/newsroom/common/Corporate_Globe_Listing.jpg",
      "articleUrl": "https://www.globe.com.ph/about-us/newsroom/citizenship/globe-provides-libreng-tawag.html",
      "columnType": "articles--type-3",
      "typeListing": "article",
      "imageMobile": "/sites/globe.com.ph/files/content/dam/globe/brie/AboutUs/newsroom/common/Corporate_Globe_Hero-Banner-Mobile.jpg",
      "imageDesktop": "/sites/globe.com.ph/files/content/dam/globe/brie/AboutUs/newsroom/common/Corporate_Globe_Primary-Desktop-Thumbnail.jpg",
      "description": "Globe helps the victims of the severe flooding in Cagayan de Oro City by setting up Libreng Tawag and Charging stations. Visit Globe Newsroom for more.",
      "datePosted": "Jan 19, 2017 | 04:47 PM",
      "titleFromTag": "Sustainability"
    },
    {
      "title": "Global Filipino Schools Enhance eLearning with 220 Tablet Donation from Cloudfone",
      "nonclickable": false,
      "openNewTab": false,
      "borderArticle": "border-color:#0074D9;",
      "borderTopArticle": "border-top-color:#0074D9;",
      "imageListing": "/sites/globe.com.ph/files/content/dam/globe/brie/AboutUs/newsroom/common/Corporate_Globe_Listing.jpg",
      "articleUrl": "https://www.globe.com.ph/about-us/newsroom/citizenship/global-filipino-schools-enhance-elearning.html",
      "columnType": "articles--type-3",
      "typeListing": "article",
      "imageMobile": "/sites/globe.com.ph/files/content/dam/globe/brie/AboutUs/newsroom/common/Corporate_Globe_Hero-Banner-Mobile.jpg",
      "imageDesktop": "/sites/globe.com.ph/files/content/dam/globe/brie/AboutUs/newsroom/common/Corporate_Globe_Primary-Desktop-Thumbnail.jpg",
      "description": "Select public schools under Globe Telecom’s GFS program received 220 tablets from Cloudfone, a leading provider of smartphones and tablets in the country. ",
      "datePosted": "Jan 19, 2017 | 04:47 PM",
      "titleFromTag": "Sustainability"
    },
    {
      "title": "Don’t Be Guilty of Paper Crime - Reduce Clutter, Protect the Environment, Save Time",
      "nonclickable": false,
      "openNewTab": false,
      "borderArticle": "border-color:#1C91C5;",
      "borderTopArticle": "border-top-color:#1C91C5;",
      "imageListing": "/sites/globe.com.ph/files/content/dam/globe/brie/AboutUs/newsroom/common/Corporate_Globe_Listing.jpg",
      "articleUrl": "https://www.globe.com.ph/about-us/newsroom/consumer/dont-be-guilty-of-paper-crime.html",
      "columnType": "articles--type-3",
      "typeListing": "article",
      "imageMobile": "/sites/globe.com.ph/files/content/dam/globe/brie/AboutUs/newsroom/common/Corporate_Globe_Hero-Banner-Mobile.jpg",
      "imageDesktop": "/sites/globe.com.ph/files/content/dam/globe/brie/AboutUs/newsroom/common/Corporate_Globe_Primary-Desktop-Thumbnail.jpg",
      "description": "Don’t Be Guilty of Paper Crime! Visit the Globe Newsroom for the latest news on Globe Telecom.",
      "datePosted": "Jan 18, 2017 | 03:51 PM",
      "titleFromTag": "Consumer"
    },
    {
      "title": "Create Your Globe Coldplay Story on April 4, 2017",
      "nonclickable": false,
      "openNewTab": false,
      "borderArticle": "border-color:#1C91C5;",
      "borderTopArticle": "border-top-color:#1C91C5;",
      "imageListing": "/sites/globe.com.ph/files/content/dam/globe/brie/AboutUs/newsroom/consumer/Consumer_Create-your-Globe/Consumer_Create-your-Globe_Thumbnail-Listing.jpg",
      "articleUrl": "https://www.globe.com.ph/about-us/newsroom/consumer/create-your-globe-coldplay-story.html",
      "columnType": "articles--type-3",
      "typeListing": "article",
      "imageMobile": "/sites/globe.com.ph/files/content/dam/globe/brie/AboutUs/newsroom/consumer/Consumer_Create-your-Globe/Consumer_Create-your-Globe_Hero-Banner-M.jpg",
      "imageDesktop": "/sites/globe.com.ph/files/content/dam/globe/brie/AboutUs/newsroom/consumer/Consumer_Create-your-Globe/Consumer_Create-your-Globe_Primary-Thumbnail.jpg",
      "description": "Create Your Globe Coldplay Story on April 4, 2017. Visit the Globe Newsroom for the latest news on Globe Telecom.",
      "datePosted": "Jan 18, 2017 | 01:17 PM",
      "titleFromTag": "Consumer"
    },
    {
      "title": "Ayala SureSeats Partners with Globe Digital Ventures",
      "nonclickable": false,
      "openNewTab": false,
      "borderArticle": "border-color:#1C91C5;",
      "borderTopArticle": "border-top-color:#1C91C5;",
      "imageListing": "/sites/globe.com.ph/files/content/dam/globe/brie/AboutUs/newsroom/common/Corporate_Globe_Listing.jpg",
      "articleUrl": "https://www.globe.com.ph/about-us/newsroom/consumer/ayala-sureseats-partners-with-globe-digital-ventures.html",
      "columnType": "articles--type-3",
      "typeListing": "article",
      "imageMobile": "/sites/globe.com.ph/files/content/dam/globe/brie/AboutUs/newsroom/common/Corporate_Globe_Hero-Banner-Mobile.jpg",
      "imageDesktop": "/sites/globe.com.ph/files/content/dam/globe/brie/AboutUs/newsroom/common/Corporate_Globe_Primary-Desktop-Thumbnail.jpg",
      "description": "Ayala SureSeats Partners with Globe Digital Ventures. Visit the Globe Newsroom for the latest news on Globe Telecom.",
      "datePosted": "Jan 17, 2017 | 02:01 PM",
      "titleFromTag": "Consumer"
    },
    {
      "title": "SEA-US Cable System Secures FCC License",
      "nonclickable": false,
      "openNewTab": false,
      "borderArticle": "border-color:#0074D9;",
      "borderTopArticle": "border-top-color:#0074D9;",
      "imageListing": "/sites/globe.com.ph/files/content/dam/globe/brie/AboutUs/newsroom/corporate/Corporate_SEA-US/Corporate_SEA-US_Thumbnail-Listing.jpg",
      "articleUrl": "https://www.globe.com.ph/about-us/newsroom/corporate/sea-us-cable-system-secures-fcc-license.html",
      "columnType": "articles--type-3",
      "typeListing": "article",
      "imageMobile": "/sites/globe.com.ph/files/content/dam/globe/brie/AboutUs/newsroom/corporate/Corporate_SEA-US/Corporate_SEA-US_Banner-M.jpg",
      "imageDesktop": "/sites/globe.com.ph/files/content/dam/globe/brie/AboutUs/newsroom/corporate/Corporate_SEA-US/Corporate_SEA-US_Primary-Thumbnail.jpg",
      "description": "The installation of the state-of-the-art undersea fiber optic cable network is targeted for completion by the second quarter of 2017. Learn more here.",
      "datePosted": "Jan 16, 2017 | 08:09 PM",
      "titleFromTag": "Corporate"
    },
    {
      "title": "The 2nd #GlobeColdplay Sessions",
      "nonclickable": false,
      "openNewTab": false,
      "borderArticle": "border-color:#1C91C5;",
      "borderTopArticle": "border-top-color:#1C91C5;",
      "imageListing": "/sites/globe.com.ph/files/content/dam/globe/brie/AboutUs/newsroom/common/Corporate_Globe_Listing.jpg",
      "articleUrl": "https://www.globe.com.ph/about-us/newsroom/consumer/globe-coldplay-sessions.html",
      "columnType": "articles--type-3",
      "typeListing": "article",
      "imageMobile": "/sites/globe.com.ph/files/content/dam/globe/brie/AboutUs/newsroom/common/Corporate_Globe_Hero-Banner-Mobile.jpg",
      "imageDesktop": "/sites/globe.com.ph/files/content/dam/globe/brie/AboutUs/newsroom/common/Corporate_Globe_Primary-Desktop-Thumbnail.jpg",
      "description": "The 2nd #GlobeColdplay Sessions. Visit the Globe Newsroom for the latest news on Globe Telecom.",
      "datePosted": "Jan 16, 2017 | 02:02 PM",
      "titleFromTag": "Consumer"
    },
    {
      "title": "Globe Business Launches BigSky at De La Salle-College of Saint Benilde",
      "nonclickable": false,
      "openNewTab": false,
      "borderArticle": "border-color:#0074D9;",
      "borderTopArticle": "border-top-color:#0074D9;",
      "imageListing": "/sites/globe.com.ph/files/content/dam/globe/brie/AboutUs/newsroom/common/Corporate_Globe_Listing.jpg",
      "articleUrl": "https://www.globe.com.ph/about-us/newsroom/corporate/globe-business-launches-bigsky-dlsu-csb.html",
      "columnType": "articles--type-3",
      "typeListing": "article",
      "imageMobile": "/sites/globe.com.ph/files/content/dam/globe/brie/AboutUs/newsroom/common/Corporate_Globe_Primary-Desktop-Thumbnail.jpg",
      "imageDesktop": "/sites/globe.com.ph/files/content/dam/globe/brie/AboutUs/newsroom/common/Corporate_Globe_Primary-Desktop-Thumbnail.jpg",
      "description": "Globe Business Launches BigSky at De La Salle-College of Saint Benilde. Visit Globe Newsroom for the latest news on Globe Telecom.",
      "datePosted": "Jan 13, 2017 | 08:27 PM",
      "titleFromTag": "Business"
    },
    {
      "title": "Phoenix Petroleum taps Globe Business to boost employee productivity",
      "nonclickable": false,
      "openNewTab": false,
      "borderArticle": "border-color:#0074D9;",
      "borderTopArticle": "border-top-color:#0074D9;",
      "imageListing": "/sites/globe.com.ph/files/content/dam/globe/brie/AboutUs/newsroom/business/business_phoenix-petroleum/business_phoenix-petroleum-thumbnail-listing.jpg",
      "articleUrl": "https://www.globe.com.ph/about-us/newsroom/business/phoenix-petroleum-taps-globe-business.html",
      "columnType": "articles--type-3",
      "typeListing": "article",
      "imageMobile": "/sites/globe.com.ph/files/content/dam/globe/brie/AboutUs/newsroom/business/business_phoenix-petroleum/business_phoenix-petroleum-banner-m.jpg",
      "imageDesktop": "/sites/globe.com.ph/files/content/dam/globe/brie/AboutUs/newsroom/business/business_phoenix-petroleum/business_phoenix-petroleum-primary-thumbnail.jpg",
      "description": "Phoenix Petroleum Philippines, Inc. (PNX) has tapped Globe for the use of G Suite to maximize business efficiency. Visit the Globe Newsroom for more.",
      "datePosted": "Jan 13, 2017 | 12:50 PM",
      "titleFromTag": "Business"
    },
    {
      "title": "Globe sets out to conquer homes, on track at deploying 2M home broadband by 2020",
      "nonclickable": false,
      "openNewTab": false,
      "borderArticle": "border-color:#0074D9;",
      "borderTopArticle": "border-top-color:#0074D9;",
      "imageListing": "/sites/globe.com.ph/files/content/dam/globe/brie/AboutUs/newsroom/common/Corporate_Globe_Listing.jpg",
      "articleUrl": "https://www.globe.com.ph/about-us/newsroom/corporate/globe-sets-out-to-conquer-homes.html",
      "columnType": "articles--type-3",
      "typeListing": "article",
      "imageMobile": "/sites/globe.com.ph/files/content/dam/globe/brie/AboutUs/newsroom/common/Corporate_Globe_Hero-Banner-Mobile.jpg",
      "imageDesktop": "/sites/globe.com.ph/files/content/dam/globe/brie/AboutUs/newsroom/common/Corporate_Globe_Primary-Desktop-Thumbnail.jpg",
      "description": "Globe Telecom has already made over 260,000 lines delivering 10 Mbps in select areas. Visit the Globe Newsroom for the latest news on Globe Telecom.",
      "datePosted": "Jan 09, 2017 | 08:09 PM",
      "titleFromTag": "Corporate"
    },
    {
      "title": "Catch Lemony Snicket’s A Series of Unfortunate Events on Netflix this January",
      "nonclickable": false,
      "openNewTab": false,
      "borderArticle": "border-color:#1C91C5;",
      "borderTopArticle": "border-top-color:#1C91C5;",
      "imageListing": "/sites/globe.com.ph/files/content/dam/globe/brie/AboutUs/newsroom/common/Corporate_Globe_Listing.jpg",
      "articleUrl": "https://www.globe.com.ph/about-us/newsroom/consumer/catch-lemony-snicket-a-series-of-unfortunate-events.html",
      "columnType": "articles--type-3",
      "typeListing": "article",
      "imageMobile": "/sites/globe.com.ph/files/content/dam/globe/brie/AboutUs/newsroom/common/Corporate_Globe_Hero-Banner-Mobile.jpg",
      "imageDesktop": "/sites/globe.com.ph/files/content/dam/globe/brie/AboutUs/newsroom/common/Corporate_Globe_Primary-Desktop-Thumbnail.jpg",
      "description": "Catch Lemony Snicket’s A Series of Unfortunate Events on Netflix this January. Visit the Globe Newsroom for the latest news on Globe Telecom.",
      "datePosted": "Jan 09, 2017 | 03:18 PM",
      "titleFromTag": "Consumer"
    },
    {
      "title": "Globe Telecom: Making a difference through the gift of giving",
      "nonclickable": false,
      "openNewTab": false,
      "borderArticle": "border-color:#0074D9;",
      "borderTopArticle": "border-top-color:#0074D9;",
      "imageListing": "/sites/globe.com.ph/files/content/dam/globe/brie/AboutUs/newsroom/common/Corporate_Globe_Listing.jpg",
      "articleUrl": "https://www.globe.com.ph/about-us/newsroom/corporate/globe-making-a-difference.html",
      "columnType": "articles--type-3",
      "typeListing": "article",
      "imageMobile": "/sites/globe.com.ph/files/content/dam/globe/brie/AboutUs/newsroom/common/Corporate_Globe_Hero-Banner-Mobile.jpg",
      "imageDesktop": "/sites/globe.com.ph/files/content/dam/globe/brie/AboutUs/newsroom/common/Corporate_Globe_Primary-Desktop-Thumbnail.jpg",
      "description": "Globe Telecom: Making a difference through the gift of giving. Visit the Globe Newsroom for the latest news on Globe Telecom.",
      "datePosted": "Jan 06, 2017 | 08:10 PM",
      "titleFromTag": "Corporate"
    }
  ]
}
