{
  "status": 200,
  "page": 269,
  "totalPage": 298,
  "range": "3217-3228",
  "total": 3573,
  "result": [
    {
      "title": "Globe conducts relief operations in Bicol Region.",
      "nonclickable": false,
      "openNewTab": false,
      "borderArticle": "border-color:#0074D9;",
      "borderTopArticle": "border-top-color:#0074D9;",
      "imageListing": "/sites/globe.com.ph/files/content/dam/globe/brie/AboutUs/newsroom/common/Corporate_Globe_Listing.jpg",
      "articleUrl": "https://www.globe.com.ph/about-us/newsroom/corporate/globe-conducts-relief-operations-in.html",
      "columnType": "articles--type-3",
      "typeListing": "article",
      "imageMobile": "/sites/globe.com.ph/files/content/dam/globe/brie/AboutUs/newsroom/common/Corporate_Globe_Hero-Banner-Mobile.jpg",
      "imageDesktop": "/sites/globe.com.ph/files/content/dam/globe/brie/AboutUs/newsroom/common/Corporate_Globe_Primary-Desktop-Thumbnail.jpg",
      "description": "Globe Telecom conducted relief operations in Bicol Region provinces which were severely hit by Typhoon Nina during Christmas day. Learn more here.",
      "datePosted": "Dec 30, 2016 | 01:02 PM",
      "titleFromTag": "Corporate"
    },
    {
      "title": "Temper Trap, The Ting Tings to co-headline 2017 Wanderland music fest lineup",
      "nonclickable": false,
      "openNewTab": false,
      "borderArticle": "border-color:#0074D9;",
      "borderTopArticle": "border-top-color:#0074D9;",
      "imageListing": "/sites/globe.com.ph/files/content/dam/globe/brie/AboutUs/newsroom/common/Corporate_Globe_Listing.jpg",
      "articleUrl": "https://www.globe.com.ph/about-us/newsroom/consumer/temper-trap-the-ting-tings.html",
      "columnType": "articles--type-3",
      "typeListing": "article",
      "imageMobile": "/sites/globe.com.ph/files/content/dam/globe/brie/AboutUs/newsroom/common/Corporate_Globe_Hero-Banner-Mobile.jpg",
      "imageDesktop": "/sites/globe.com.ph/files/content/dam/globe/brie/AboutUs/newsroom/common/Corporate_Globe_Primary-Desktop-Thumbnail.jpg",
      "description": "Globe reveals the complete lineup and gives customers a chance to win #GlobeWanderland passes. Visit the Globe Newsroom for the latest news on Globe Telecom.",
      "datePosted": "Dec 29, 2016 | 01:52 PM",
      "titleFromTag": "Consumer"
    },
    {
      "title": "Globe Business, SCMAP Partner to Forward PH Supply Chain Industry",
      "nonclickable": false,
      "openNewTab": false,
      "borderArticle": "border-color:#0074D9;",
      "borderTopArticle": "border-top-color:#0074D9;",
      "imageListing": "/sites/globe.com.ph/files/content/dam/globe/brie/AboutUs/newsroom/business/Globe-Business--SCMAP-partner-to-forward-PH-supply-chain-industry/business-globe-scmap-partner-thumbnail-listing.png",
      "articleUrl": "https://www.globe.com.ph/about-us/newsroom/business/globe-business-scmap-partner-to.html",
      "columnType": "articles--type-3",
      "typeListing": "article",
      "imageMobile": "/sites/globe.com.ph/files/content/dam/globe/brie/AboutUs/newsroom/business/Globe-Business--SCMAP-partner-to-forward-PH-supply-chain-industry/business-globe-scmap-partner-banner-m.png",
      "imageDesktop": "/sites/globe.com.ph/files/content/dam/globe/brie/AboutUs/newsroom/business/Globe-Business--SCMAP-partner-to-forward-PH-supply-chain-industry/business-globe-scmap-partner-primary-thumbnail.png",
      "description": "New trends and insights to stay ahead of competition discussed at the Globe Supply Chain Interactive Workshop. Visit the Globe Newsroom for the latest news",
      "datePosted": "Dec 28, 2016 | 02:21 PM",
      "titleFromTag": "Business"
    },
    {
      "title": "Globe Business spearheads Healthcare at the digital age",
      "nonclickable": false,
      "openNewTab": false,
      "borderArticle": "border-color:#0074D9;",
      "borderTopArticle": "border-top-color:#0074D9;",
      "imageListing": "/sites/globe.com.ph/files/content/dam/globe/brie/AboutUs/newsroom/business/Globe-Business-spearheads-Healthcare-at-the-digital-age/business-globe-spearheads-healthcarethumbnail-listing.png",
      "articleUrl": "https://www.globe.com.ph/about-us/newsroom/business/globe-business-spearheads-healthcare-at.html",
      "columnType": "articles--type-3",
      "typeListing": "article",
      "imageMobile": "/sites/globe.com.ph/files/content/dam/globe/brie/AboutUs/newsroom/business/Globe-Business-spearheads-Healthcare-at-the-digital-age/business-globe-spearheads-healthcare-banner-m.png",
      "imageDesktop": "/sites/globe.com.ph/files/content/dam/globe/brie/AboutUs/newsroom/business/Globe-Business-spearheads-Healthcare-at-the-digital-age/business-globe-spearheads-healthcare-primary-thumbnail.png",
      "description": "Globe Telecom supports the Sustainable Development Goals of the country’s Department of Health. Visit the Globe Newsroom for the latest news on Globe Telecom.",
      "datePosted": "Dec 28, 2016 | 02:21 PM",
      "titleFromTag": "Business"
    },
    {
      "title": "Globe, GCash, Cauayan City Ink Strategic Partnership to Deliver 1st World Internet",
      "nonclickable": false,
      "openNewTab": false,
      "borderArticle": "border-color:#0074D9;",
      "borderTopArticle": "border-top-color:#0074D9;",
      "imageListing": "/sites/globe.com.ph/files/content/dam/globe/brie/AboutUs/newsroom/common/Corporate_Globe_Listing.jpg",
      "articleUrl": "https://www.globe.com.ph/about-us/newsroom/partners/globe-gcash-cauayan-city-ink.html",
      "columnType": "articles--type-3",
      "typeListing": "article",
      "imageMobile": "/sites/globe.com.ph/files/content/dam/globe/brie/AboutUs/newsroom/common/Corporate_Globe_Hero-Banner-Mobile.jpg",
      "imageDesktop": "/sites/globe.com.ph/files/content/dam/globe/brie/AboutUs/newsroom/common/Corporate_Globe_Primary-Desktop-Thumbnail.jpg",
      "description": "The Globe Telecom and Cauayan City collaboration also includes the creation of a digital cashless ecosystem. Visit the Globe Newsroom for the latest news",
      "datePosted": "Dec 27, 2016 | 03:05 PM",
      "titleFromTag": "Partners"
    },
    {
      "title": "10 Ways to Enjoy the Holidays at Home",
      "nonclickable": false,
      "openNewTab": false,
      "borderArticle": "border-color:#0074D9;",
      "borderTopArticle": "border-top-color:#0074D9;",
      "imageListing": "/sites/globe.com.ph/files/content/dam/globe/brie/AboutUs/newsroom/common/Corporate_Globe_Listing.jpg",
      "articleUrl": "https://www.globe.com.ph/about-us/newsroom/consumer/10-ways-to-enjoy-the.html",
      "columnType": "articles--type-3",
      "typeListing": "article",
      "imageMobile": "/sites/globe.com.ph/files/content/dam/globe/brie/AboutUs/newsroom/common/Corporate_Globe_Hero-Banner-Mobile.jpg",
      "imageDesktop": "/sites/globe.com.ph/files/content/dam/globe/brie/AboutUs/newsroom/common/Corporate_Globe_Primary-Desktop-Thumbnail.jpg",
      "description": "New holiday traditions are now being created by Globe Broadband with more ways for Filipinos to enjoy a digital lifestyle at home. Visit the Globe Newsroom for the latest news on Globe Telecom.",
      "datePosted": "Dec 27, 2016 | 01:52 PM",
      "titleFromTag": "Consumer"
    },
    {
      "title": "Globe provides support to communities affected by Typhoon Nina as restoration activities continue",
      "nonclickable": false,
      "openNewTab": false,
      "borderArticle": "border-color:#0074D9;",
      "borderTopArticle": "border-top-color:#0074D9;",
      "imageListing": "/sites/globe.com.ph/files/content/dam/globe/brie/AboutUs/newsroom/corporate/Globe-provides-support-to-communities-affected-by-Typhoon-Nina-as-restoration-activities-continue/corporate-support-typhoon-nina-thumbnail-listing.png",
      "articleUrl": "https://www.globe.com.ph/about-us/newsroom/corporate/globe-provides-support-to-communities.html",
      "columnType": "articles--type-3",
      "typeListing": "article",
      "imageMobile": "/sites/globe.com.ph/files/content/dam/globe/brie/AboutUs/newsroom/corporate/Globe-provides-support-to-communities-affected-by-Typhoon-Nina-as-restoration-activities-continue/corporate-support-typhoon-nina-banner-m.png",
      "imageDesktop": "/sites/globe.com.ph/files/content/dam/globe/brie/AboutUs/newsroom/corporate/Globe-provides-support-to-communities-affected-by-Typhoon-Nina-as-restoration-activities-continue/corporate-support-typhoon-nina-primary-thumbnail.png",
      "description": "Globe Telecom is now able to provide critical telecommunication services in majority of areas heavily affected by Typhoon Nina. Learn more here.",
      "datePosted": "Dec 27, 2016 | 01:02 PM",
      "titleFromTag": "Corporate"
    },
    {
      "title": "Globe, GCash, Cauayan City ink strategic partnership to deliver 1st world internet",
      "nonclickable": false,
      "openNewTab": false,
      "borderArticle": "border-color:#0074D9;",
      "borderTopArticle": "border-top-color:#0074D9;",
      "imageListing": "/sites/globe.com.ph/files/content/dam/globe/brie/AboutUs/newsroom/common/Corporate_Globe_Listing.jpg",
      "articleUrl": "https://www.globe.com.ph/about-us/newsroom/corporate/globe-gcash-cauayan-city-ink.html",
      "columnType": "articles--type-3",
      "typeListing": "article",
      "imageMobile": "/sites/globe.com.ph/files/content/dam/globe/brie/AboutUs/newsroom/common/Corporate_Globe_Hero-Banner-Mobile.jpg",
      "imageDesktop": "/sites/globe.com.ph/files/content/dam/globe/brie/AboutUs/newsroom/common/Corporate_Globe_Primary-Desktop-Thumbnail.jpg",
      "description": "Globe Telecom and the Cauayan City government have hammered out a strategic partnership to deliver 1st world internet services. Visit the Globe Newsroom for the latest news on Globe Telecom.",
      "datePosted": "Dec 27, 2016 | 01:00 PM",
      "titleFromTag": "Corporate"
    },
    {
      "title": "Globe undertakes restoration activities amidst Typhoon Nina aftermath",
      "nonclickable": false,
      "openNewTab": false,
      "borderArticle": "border-color:#0074D9;",
      "borderTopArticle": "border-top-color:#0074D9;",
      "imageListing": "/sites/globe.com.ph/files/content/dam/globe/brie/AboutUs/newsroom/corporate/Globe-undertakes-restoration-activities-amidst-Typhoon-Nina-aftermath/corporate-typhoon-nina-restoration-thumbnail-listing.png",
      "articleUrl": "https://www.globe.com.ph/about-us/newsroom/corporate/globe-undertakes-restoration-activities-amidst.html",
      "columnType": "articles--type-3",
      "typeListing": "article",
      "imageMobile": "/sites/globe.com.ph/files/content/dam/globe/brie/AboutUs/newsroom/corporate/Globe-undertakes-restoration-activities-amidst-Typhoon-Nina-aftermath/corporate-typhoon-nina-restoration-banner-m.png",
      "imageDesktop": "/sites/globe.com.ph/files/content/dam/globe/brie/AboutUs/newsroom/corporate/Globe-undertakes-restoration-activities-amidst-Typhoon-Nina-aftermath/corporate-typhoon-nina-restoration-primary-thumbnail.png",
      "description": "Globe Telecom has dispatched technical personnel to immediately restore network services affected by Typhoon Nina. Visit the Globe Newsroom for more.",
      "datePosted": "Dec 26, 2016 | 01:01 PM",
      "titleFromTag": "Corporate"
    },
    {
      "title": "Globe: 11 SMS alerts sent out to customers prior to Typhoon Nina’s landfall",
      "nonclickable": false,
      "openNewTab": false,
      "borderArticle": "border-color:#0074D9;",
      "borderTopArticle": "border-top-color:#0074D9;",
      "imageListing": "/sites/globe.com.ph/files/content/dam/globe/brie/AboutUs/newsroom/common/Corporate_Globe_Listing.jpg",
      "articleUrl": "https://www.globe.com.ph/about-us/newsroom/corporate/globe-11-sms-alerts-sent.html",
      "columnType": "articles--type-3",
      "typeListing": "article",
      "imageMobile": "/sites/globe.com.ph/files/content/dam/globe/brie/AboutUs/newsroom/common/Corporate_Globe_Hero-Banner-Mobile.jpg",
      "imageDesktop": "/sites/globe.com.ph/files/content/dam/globe/brie/AboutUs/newsroom/common/Corporate_Globe_Primary-Desktop-Thumbnail.jpg",
      "description": "Globe Telecom transmitted a total of 11 text messages, warning customers of potential dangers coming from typhoon Nina prior to its landfall. Learn more here.",
      "datePosted": "Dec 26, 2016 | 01:00 PM",
      "titleFromTag": "Corporate"
    },
    {
      "title": "Globe advocates environmental sustainability, encourages consumers to save thousands of trees via paperless billing",
      "nonclickable": false,
      "openNewTab": false,
      "borderArticle": "border-color:#0074D9;",
      "borderTopArticle": "border-top-color:#0074D9;",
      "imageListing": "/sites/globe.com.ph/files/content/dam/globe/brie/AboutUs/newsroom/common/Corporate_Globe_Listing.jpg",
      "articleUrl": "https://www.globe.com.ph/about-us/newsroom/sustainability/globe-advocates-environmental-sustainability-encourages.html",
      "columnType": "articles--type-3",
      "typeListing": "article",
      "imageMobile": "/sites/globe.com.ph/files/content/dam/globe/brie/AboutUs/newsroom/common/Corporate_Globe_Hero-Banner-Mobile.jpg",
      "imageDesktop": "/sites/globe.com.ph/files/content/dam/globe/brie/AboutUs/newsroom/common/Corporate_Globe_Primary-Desktop-Thumbnail.jpg",
      "description": "Globe Telecom encourages its millions of postpaid customers to help save thousands of trees and reduce greenhouse gas emission. Learn more here.",
      "datePosted": "Dec 24, 2016 | 03:06 PM",
      "titleFromTag": "Sustainability"
    },
    {
      "title": "Globe well-equipped to accommodate upsurge in holiday network traffic",
      "nonclickable": false,
      "openNewTab": false,
      "borderArticle": "border-color:#0074D9;",
      "borderTopArticle": "border-top-color:#0074D9;",
      "imageListing": "/sites/globe.com.ph/files/content/dam/globe/brie/AboutUs/newsroom/common/Corporate_Globe_Listing.jpg",
      "articleUrl": "https://www.globe.com.ph/about-us/newsroom/consumer/globe-well-equipped-to-accommodate.html",
      "columnType": "articles--type-3",
      "typeListing": "article",
      "imageMobile": "/sites/globe.com.ph/files/content/dam/globe/brie/AboutUs/newsroom/common/Corporate_Globe_Hero-Banner-Mobile.jpg",
      "imageDesktop": "/sites/globe.com.ph/files/content/dam/globe/brie/AboutUs/newsroom/common/Corporate_Globe_Primary-Desktop-Thumbnail.jpg",
      "description": "Globe Telecom is well-prepared for the expected increase in network traffic even as customer behavior evolves. Visit the Globe Newsroom for the latest news on Globe Telecom.",
      "datePosted": "Dec 24, 2016 | 01:51 PM",
      "titleFromTag": "Consumer"
    }
  ]
}
