{
  "status": 200,
  "page": 27,
  "totalPage": 298,
  "range": "313-324",
  "total": 3573,
  "result": [
    {
      "title": "Globe and Nabu Partner to Improve PH Student Reading Comprehension Using Native Languages",
      "nonclickable": false,
      "openNewTab": false,
      "borderArticle": "border-color:#0074D9;",
      "borderTopArticle": "border-top-color:#0074D9;",
      "imageListing": "/sites/globe.com.ph/files/content/dam/globe/brie/AboutUs/newsroom/common/default-partners-3/default-partners-3-thumbnail-listing.jpg",
      "articleUrl": "https://www.globe.com.ph/about-us/newsroom/sustainability/globe-nabu-improve-ph-student-reading-comprehension.html",
      "columnType": "articles--type-3",
      "typeListing": "article",
      "imageMobile": "/sites/globe.com.ph/files/content/dam/globe/brie/AboutUs/newsroom/common/default-partners-3/default-partners-3-primary-thumbnail-m.jpg",
      "imageDesktop": "/sites/globe.com.ph/files/content/dam/globe/brie/AboutUs/newsroom/common/default-partners-3/default-partners-3-primary-thumbnail-d.jpg",
      "description": "The free-to-download tech-publishing app NABU: Multilingual Kids Books has released its first batch of regional language books for Filipino learners.",
      "datePosted": "May 02, 2023 | 08:05 AM",
      "titleFromTag": "Sustainability"
    },
    {
      "title": "Globe Puts ‘Soul’ into Leadership to Create A Better, Kinder, Sustainable Corporate Culture",
      "nonclickable": false,
      "openNewTab": false,
      "borderArticle": "border-color:#0074D9;",
      "borderTopArticle": "border-top-color:#0074D9;",
      "imageListing": "/sites/globe.com.ph/files/content/dam/globe/brie/AboutUs/newsroom/common/default-corporate-14/corp-default-images-thumbnail-listing.jpg",
      "articleUrl": "https://www.globe.com.ph/about-us/newsroom/corporate/soul-leadership-better-kinder-sustainable-corporate-culture.html",
      "columnType": "articles--type-3",
      "typeListing": "article",
      "imageMobile": "/sites/globe.com.ph/files/content/dam/globe/brie/AboutUs/newsroom/common/default-corporate-14/corp-default-images-primary-thumbnail-m.jpg",
      "imageDesktop": "/sites/globe.com.ph/files/content/dam/globe/brie/AboutUs/newsroom/common/default-corporate-14/corp-default-images-primary-thumbnail-d.jpg",
      "description": "Globe launched the Soul Leadership Program, a development course designed to help leaders communicate a clear vision of the future and inspire their teams.",
      "datePosted": "Apr 28, 2023 | 01:53 PM",
      "titleFromTag": "Corporate"
    },
    {
      "title": "Globe Advances Net Zero Commitments by Greening its Supply Chain, Starts with Globe At Home Modem Packaging",
      "nonclickable": false,
      "openNewTab": false,
      "borderArticle": "border-color:#1C91C5;",
      "borderTopArticle": "border-top-color:#1C91C5;",
      "imageListing": "/sites/globe.com.ph/files/content/dam/globe/brie/AboutUs/newsroom/common/default-sustainability-1/default-sustainability-2-thumbnail-listing.jpg",
      "articleUrl": "https://www.globe.com.ph/about-us/newsroom/sustainability/net-zero-commitments-greening-supply-chain.html",
      "columnType": "articles--type-3",
      "typeListing": "article",
      "imageMobile": "/sites/globe.com.ph/files/content/dam/globe/brie/AboutUs/newsroom/common/default-sustainability-1/default-sustainability-2-primary-thumbnail-m.jpg",
      "imageDesktop": "/sites/globe.com.ph/files/content/dam/globe/brie/AboutUs/newsroom/common/default-sustainability-1/default-sustainability-2-primary-thumbnail-d.jpg",
      "description": "Globe continues to show its Net Zero commitments by introducing recyclable and recyclable packaging for Globe At Home’s new modems.",
      "datePosted": "Apr 28, 2023 | 01:50 PM",
      "titleFromTag": "Sustainability"
    },
    {
      "title": "Globe Welcomes Four New Board Members, Looks Forward to Sustained Economic Recovery in 2023 despite Headwinds",
      "nonclickable": false,
      "openNewTab": false,
      "borderArticle": "border-color:#0074D9;",
      "borderTopArticle": "border-top-color:#0074D9;",
      "imageListing": "/sites/globe.com.ph/files/content/dam/globe/brie/AboutUs/newsroom/common/default-corporate-4/corp-listing-thumbnail.jpg",
      "articleUrl": "https://www.globe.com.ph/about-us/newsroom/corporate/globe-welcomes-four-new-board-members.html",
      "columnType": "articles--type-3",
      "typeListing": "article",
      "imageMobile": "/sites/globe.com.ph/files/content/dam/globe/brie/AboutUs/newsroom/common/default-corporate-4/corp-primary-banner-m.jpg",
      "imageDesktop": "/sites/globe.com.ph/files/content/dam/globe/brie/AboutUs/newsroom/common/default-corporate-4/corp-primary-thumbnail.jpg",
      "description": "Globe welcomed 4 new Directors to its board, as it delivered its full-year 2022 report to its stockholders, looking forward to sustained business growth.",
      "datePosted": "Apr 27, 2023 | 04:00 PM",
      "titleFromTag": "Corporate"
    },
    {
      "title": "Joining KonsultaMD's #IWantToBeHere Colorfest Run? This Guide Will Help You Gear Up",
      "nonclickable": false,
      "openNewTab": false,
      "borderArticle": "border-color:#0074D9;",
      "borderTopArticle": "border-top-color:#0074D9;",
      "imageListing": "/sites/globe.com.ph/files/content/dam/globe/brie/AboutUs/newsroom/common/default-event-live-concert-2/thumbnail-listing.jpg",
      "articleUrl": "https://www.globe.com.ph/about-us/newsroom/consumer/konsultamd-iwanttobehere-colorfest-run-guide.html",
      "columnType": "articles--type-3",
      "typeListing": "article",
      "imageMobile": "/sites/globe.com.ph/files/content/dam/globe/brie/AboutUs/newsroom/common/default-event-live-concert-2/primary-thumbnail-m.jpg",
      "imageDesktop": "/sites/globe.com.ph/files/content/dam/globe/brie/AboutUs/newsroom/common/default-event-live-concert-2/primary-thumbnail-d.jpg",
      "description": "Here’s a quick guide on what to watch out for KonsultaMD’s #IwantToBeHere ColorFest Run.",
      "datePosted": "Apr 27, 2023 | 03:30 PM",
      "titleFromTag": "Consumer"
    },
    {
      "title": "Globe Filters Out 554 Online Gambling, Smishing, Phishing Sites in Q1",
      "nonclickable": false,
      "openNewTab": false,
      "borderArticle": "border-color:#0074D9;",
      "borderTopArticle": "border-top-color:#0074D9;",
      "imageListing": "/sites/globe.com.ph/files/content/dam/globe/brie/AboutUs/newsroom/common/default-corporate-11/corp-thumbnail-listing.jpg",
      "articleUrl": "https://www.globe.com.ph/about-us/newsroom/corporate/online-gambling-smishing-phishing-sites-q1-2023.html",
      "columnType": "articles--type-3",
      "typeListing": "article",
      "imageMobile": "/sites/globe.com.ph/files/content/dam/globe/brie/AboutUs/newsroom/common/default-corporate-11/corp-primary-thumbnail-m.jpg",
      "imageDesktop": "/sites/globe.com.ph/files/content/dam/globe/brie/AboutUs/newsroom/common/default-corporate-11/corp-primary-thumbnail-d.jpg",
      "description": "Globe removed 554 online gambling, smishing and phishing sites, 162 more than the 392 illegal domains blocked in the same period last year.",
      "datePosted": "Apr 26, 2023 | 12:08 PM",
      "titleFromTag": "Corporate"
    },
    {
      "title": "HCX Technology Partners Transforms 100+ Businesses  with HR Tech and Solutions",
      "nonclickable": false,
      "openNewTab": false,
      "borderArticle": "border-color:#0074D9;",
      "borderTopArticle": "border-top-color:#0074D9;",
      "imageListing": "/sites/globe.com.ph/files/content/dam/globe/brie/AboutUs/newsroom/common/default-partners-7/Default-Images-Partners-1-thumbnail-listing.jpg",
      "articleUrl": "https://www.globe.com.ph/about-us/newsroom/partners/hcx-technology-partners-transforms-businesses.html",
      "columnType": "articles--type-3",
      "typeListing": "article",
      "imageMobile": "/sites/globe.com.ph/files/content/dam/globe/brie/AboutUs/newsroom/common/default-partners-7/Default-Images-Partners-1-primary-thumbnail-m.jpg",
      "imageDesktop": "/sites/globe.com.ph/files/content/dam/globe/brie/AboutUs/newsroom/common/default-partners-7/Default-Images-Partners-1-primary-thumbnail-d.jpg",
      "description": "HCX Technology Partners has transformed the operations of over 100 businesses in the Philippines through its HR and tech solutions. ",
      "datePosted": "Apr 25, 2023 | 03:33 PM",
      "titleFromTag": "Partners"
    },
    {
      "title": "April 2023 Updates: Globe SIM Registration Portal",
      "nonclickable": false,
      "openNewTab": false,
      "borderArticle": "border-color:#0074D9;",
      "borderTopArticle": "border-top-color:#0074D9;",
      "imageListing": "/sites/globe.com.ph/files/content/dam/globe/brie/AboutUs/newsroom/common/default-total-globe-2/newsroom-total-globe-default-2-thumbnail-listing.jpg",
      "articleUrl": "https://www.globe.com.ph/about-us/newsroom/corporate/sim-registration-april-2023.html",
      "columnType": "articles--type-3",
      "typeListing": "article",
      "imageMobile": "/sites/globe.com.ph/files/content/dam/globe/brie/AboutUs/newsroom/common/default-total-globe-2/newsroom-total-globe-default-2-primary-thumbnail-m.jpg",
      "imageDesktop": "/sites/globe.com.ph/files/content/dam/globe/brie/AboutUs/newsroom/common/default-total-globe-2/newsroom-total-globe-default-2-primary-thumbnail-d.jpg",
      "description": "Read the April 2023 updates on Globe's SIM Registration here.",
      "datePosted": "Apr 25, 2023 | 02:00 PM",
      "titleFromTag": "Corporate"
    },
    {
      "title": "Globe Group’s 917Ventures, Ayala Corp and Gogoro Introduce New Era of Sustainable Transport in PH",
      "nonclickable": false,
      "openNewTab": false,
      "borderArticle": "border-color:#0074D9;",
      "borderTopArticle": "border-top-color:#0074D9;",
      "imageListing": "/sites/globe.com.ph/files/content/dam/globe/brie/AboutUs/newsroom/corporate/globe-groups-917ventures-ayala-corp-and-gogoro-introduce-new-era-of-sustainable-transport/corp-917-ventures-thumbnail-listing.jpg",
      "articleUrl": "https://www.globe.com.ph/about-us/newsroom/corporate/gogoro-smartscooters-battery-swapping.html",
      "columnType": "articles--type-3",
      "typeListing": "article",
      "imageMobile": "/sites/globe.com.ph/files/content/dam/globe/brie/AboutUs/newsroom/corporate/globe-groups-917ventures-ayala-corp-and-gogoro-introduce-new-era-of-sustainable-transport/corp-917-ventures-primary-thumbnail-m.jpg",
      "imageDesktop": "/sites/globe.com.ph/files/content/dam/globe/brie/AboutUs/newsroom/corporate/globe-groups-917ventures-ayala-corp-and-gogoro-introduce-new-era-of-sustainable-transport/corp-917-ventures-primary-thumbnail-d.jpg",
      "description": "Globe Group’s 917Ventures, Ayala Corporation, & Gogoro Inc. launched Gogoro Smartscooters & battery-swapping in the Philippines for sustainable transportation.",
      "datePosted": "Apr 24, 2023 | 10:55 AM",
      "titleFromTag": "Corporate"
    },
    {
      "title": "Globe Blocks 1.1B Scam, Spam Messages in Q1",
      "nonclickable": false,
      "openNewTab": false,
      "borderArticle": "border-color:#0074D9;",
      "borderTopArticle": "border-top-color:#0074D9;",
      "imageListing": "/sites/globe.com.ph/files/content/dam/globe/brie/AboutUs/newsroom/common/default-corporate-13/corp-listing-thumbnail.jpg",
      "articleUrl": "https://www.globe.com.ph/about-us/newsroom/corporate/globe-blocks-one-billion-scam-spam-messages-q1-2023.html",
      "columnType": "articles--type-3",
      "typeListing": "article",
      "imageMobile": "/sites/globe.com.ph/files/content/dam/globe/brie/AboutUs/newsroom/common/default-corporate-13/corp-primary-banner-m.jpg",
      "imageDesktop": "/sites/globe.com.ph/files/content/dam/globe/brie/AboutUs/newsroom/common/default-corporate-13/corp-primary-thumbnail.jpg",
      "description": "Globe blocked 1.1 billion scam and spam messages in Q1 of 2023, complementing government efforts against online fraud bolstered by the SIM Registration Act.",
      "datePosted": "Apr 21, 2023 | 11:42 AM",
      "titleFromTag": "Corporate"
    },
    {
      "title": "Chef Jessie Hosts Fundraiser to Launch Chefs Unite, Ramps Up Support for The Hapag Movement",
      "nonclickable": false,
      "openNewTab": false,
      "borderArticle": "border-color:#0074D9;",
      "borderTopArticle": "border-top-color:#0074D9;",
      "imageListing": "/sites/globe.com.ph/files/content/dam/globe/brie/AboutUs/newsroom/common/default-sustainability-2/corp-default-images-thumbnail-listing.jpg",
      "articleUrl": "https://www.globe.com.ph/about-us/newsroom/corporate/chef-jessie-hosts-fundraiser-for-the-hapag-movement.html",
      "columnType": "articles--type-3",
      "typeListing": "article",
      "imageMobile": "/sites/globe.com.ph/files/content/dam/globe/brie/AboutUs/newsroom/common/default-sustainability-2/corp-default-images-primary-thumbnail-m.jpg",
      "imageDesktop": "/sites/globe.com.ph/files/content/dam/globe/brie/AboutUs/newsroom/common/default-sustainability-2/corp-default-images-primary-thumbnail-d.jpg",
      "description": "Renowned Chef Jessie Sincioco hosted a  fundraising dinner “Hapag ni LuzViMinda” to kick off her project Chefs Unite to support Globe’s  The Hapag Movement.",
      "datePosted": "Apr 21, 2023 | 10:56 AM",
      "titleFromTag": "Corporate"
    },
    {
      "title": "Revive Your Globe At Home Prepaid WiFi Experience with Unbeatable ₱88 SIM Deal Plus 10 GB Free Shareable Data",
      "nonclickable": false,
      "openNewTab": false,
      "borderArticle": "border-color:#0074D9;",
      "borderTopArticle": "border-top-color:#0074D9;",
      "imageListing": "/sites/globe.com.ph/files/content/dam/globe/brie/AboutUs/newsroom/common/default-consumer-2/default-consumer-thumbnail-listing.jpg",
      "articleUrl": "https://www.globe.com.ph/about-us/newsroom/consumer/prepaid-wifi-sim-deal-free-shareable-data.html",
      "columnType": "articles--type-3",
      "typeListing": "article",
      "imageMobile": "/sites/globe.com.ph/files/content/dam/globe/brie/AboutUs/newsroom/common/default-consumer-2/default-consumer-primary-thumbnail-m.jpg",
      "imageDesktop": "/sites/globe.com.ph/files/content/dam/globe/brie/AboutUs/newsroom/common/default-consumer-2/default-consumer-primary-thumbnail-d.jpg",
      "description": "Bring your Globe At Home Prepaid WiFi back to life for only ₱88 and enjoy 10 GB of free, shareable data.",
      "datePosted": "Apr 20, 2023 | 03:30 PM",
      "titleFromTag": "Consumer"
    }
  ]
}
