{
  "status": 200,
  "page": 270,
  "totalPage": 298,
  "range": "3229-3240",
  "total": 3573,
  "result": [
    {
      "title": "Globe well-equipped to accommodate upsurge in holiday network traffic",
      "nonclickable": false,
      "openNewTab": false,
      "borderArticle": "border-color:#0074D9;",
      "borderTopArticle": "border-top-color:#0074D9;",
      "imageListing": "/sites/globe.com.ph/files/content/dam/globe/brie/AboutUs/newsroom/common/Corporate_Globe_Listing.jpg",
      "articleUrl": "https://www.globe.com.ph/about-us/newsroom/corporate/globe-well-equipped-to-accommodate.html",
      "columnType": "articles--type-3",
      "typeListing": "article",
      "imageMobile": "/sites/globe.com.ph/files/content/dam/globe/brie/AboutUs/newsroom/common/Corporate_Globe_Hero-Banner-Mobile.jpg",
      "imageDesktop": "/sites/globe.com.ph/files/content/dam/globe/brie/AboutUs/newsroom/common/Corporate_Globe_Primary-Desktop-Thumbnail.jpg",
      "description": "Globe Telecom said it is ready and well-prepared to accommodate an expected surge in network traffic during the holiday season. Learn more here.",
      "datePosted": "Dec 24, 2016 | 12:59 PM",
      "titleFromTag": "Corporate"
    },
    {
      "title": "Globe and Partners Commit to Rehabilitation of PGH Pediatric Cancer Clinic",
      "nonclickable": false,
      "openNewTab": false,
      "borderArticle": "border-color:#0074D9;",
      "borderTopArticle": "border-top-color:#0074D9;",
      "imageListing": "/sites/globe.com.ph/files/content/dam/globe/brie/AboutUs/newsroom/citizenship/Globe-and-partners-commit-to-rehabilitation-of-PGH-Pediatric-Cancer-Clinic/community-pgh-pediatric-center-thumbnail-listing.png",
      "articleUrl": "https://www.globe.com.ph/about-us/newsroom/citizenship/globe-and-partners-commit-to.html",
      "columnType": "articles--type-3",
      "typeListing": "article",
      "imageMobile": "/sites/globe.com.ph/files/content/dam/globe/brie/AboutUs/newsroom/citizenship/Globe-and-partners-commit-to-rehabilitation-of-PGH-Pediatric-Cancer-Clinic/community-pgh-pediatric-center-banner-m.png",
      "imageDesktop": "/sites/globe.com.ph/files/content/dam/globe/brie/AboutUs/newsroom/citizenship/Globe-and-partners-commit-to-rehabilitation-of-PGH-Pediatric-Cancer-Clinic/community-pgh-pediatric-center-primary-thumbnail.png",
      "description": "The joined forces successfully raised funds for the much-needed rehabilitation of the Philippine General Hospital’s pediatric cancer clinic. Visit the Globe Newsroom for the latest news on Globe Telecom.",
      "datePosted": "Dec 22, 2016 | 02:49 PM",
      "titleFromTag": "Citizenship"
    },
    {
      "title": "Globe interconnection with competition for fixed voice calls extended to include Bukidnon",
      "nonclickable": false,
      "openNewTab": false,
      "borderArticle": "border-color:#0074D9;",
      "borderTopArticle": "border-top-color:#0074D9;",
      "imageListing": "/sites/globe.com.ph/files/content/dam/globe/brie/AboutUs/newsroom/common/Corporate_Globe_Listing.jpg",
      "articleUrl": "https://www.globe.com.ph/about-us/newsroom/corporate/globe-interconnection-with-competition-for.html",
      "columnType": "articles--type-3",
      "typeListing": "article",
      "imageMobile": "/sites/globe.com.ph/files/content/dam/globe/brie/AboutUs/newsroom/common/Corporate_Globe_Hero-Banner-Mobile.jpg",
      "imageDesktop": "/sites/globe.com.ph/files/content/dam/globe/brie/AboutUs/newsroom/common/Corporate_Globe_Primary-Desktop-Thumbnail.jpg",
      "description": "The interconnection reduces the cost of connectivity for the benefit of customers in several areas, now including Bukidnon province. Learn more here.",
      "datePosted": "Dec 21, 2016 | 01:50 PM",
      "titleFromTag": "Corporate"
    },
    {
      "title": "Globe interconnection with competition for fixed voice calls extended to include Bukidnon",
      "nonclickable": false,
      "openNewTab": false,
      "borderArticle": "border-color:#0074D9;",
      "borderTopArticle": "border-top-color:#0074D9;",
      "imageListing": "/sites/globe.com.ph/files/content/dam/globe/brie/AboutUs/newsroom/common/Corporate_Globe_Listing.jpg",
      "articleUrl": "https://www.globe.com.ph/about-us/newsroom/consumer/globe-interconnection-with-competition-for.html",
      "columnType": "articles--type-3",
      "typeListing": "article",
      "imageMobile": "/sites/globe.com.ph/files/content/dam/globe/brie/AboutUs/newsroom/common/Corporate_Globe_Hero-Banner-Mobile.jpg",
      "imageDesktop": "/sites/globe.com.ph/files/content/dam/globe/brie/AboutUs/newsroom/common/Corporate_Globe_Primary-Desktop-Thumbnail.jpg",
      "description": "The interconnection reduces the cost of connectivity for the benefit of customers in several areas, now including Bukidnon province. Visit the Globe Newsroom for the latest news on Globe Telecom.",
      "datePosted": "Dec 21, 2016 | 01:50 PM",
      "titleFromTag": "Consumer"
    },
    {
      "title": "10 Netflix Picks to Binge-Watch with Globe",
      "nonclickable": false,
      "openNewTab": false,
      "borderArticle": "border-color:#0074D9;",
      "borderTopArticle": "border-top-color:#0074D9;",
      "imageListing": "/sites/globe.com.ph/files/content/dam/globe/brie/AboutUs/newsroom/consumer/10-Netflix-picks-to-binge-watch-with-Globe/consumer-10-netflix-picks-thumbnail-listing.png",
      "articleUrl": "https://www.globe.com.ph/about-us/newsroom/consumer/10-netflix-picks-to-binge.html",
      "columnType": "articles--type-3",
      "typeListing": "article",
      "imageMobile": "/sites/globe.com.ph/files/content/dam/globe/brie/AboutUs/newsroom/consumer/10-Netflix-picks-to-binge-watch-with-Globe/consumer-10-netflix-picks-banner-m.png",
      "imageDesktop": "/sites/globe.com.ph/files/content/dam/globe/brie/AboutUs/newsroom/consumer/10-Netflix-picks-to-binge-watch-with-Globe/consumer-10-netflix-picks-primary-thumbnail.png",
      "description": "Create wonderful moments for you and your loved ones as you watch well-loved films and shows on Netflix with Globe Broadband. Visit the Newsroom for more.",
      "datePosted": "Dec 21, 2016 | 01:50 PM",
      "titleFromTag": "Consumer"
    },
    {
      "title": "Globe Roaming enables digital travel lifestyle",
      "nonclickable": false,
      "openNewTab": false,
      "borderArticle": "border-color:#0074D9;",
      "borderTopArticle": "border-top-color:#0074D9;",
      "imageListing": "/sites/globe.com.ph/files/content/dam/globe/brie/AboutUs/newsroom/common/Corporate_Globe_Hero-Banner-Mobile.jpg",
      "articleUrl": "https://www.globe.com.ph/about-us/newsroom/consumer/globe-roaming-enables-digital-travel.html",
      "columnType": "articles--type-3",
      "typeListing": "article",
      "imageMobile": "/sites/globe.com.ph/files/content/dam/globe/brie/AboutUs/newsroom/common/Corporate_Globe_Hero-Banner-Mobile.jpg",
      "imageDesktop": "/sites/globe.com.ph/files/content/dam/globe/brie/AboutUs/newsroom/common/Corporate_Globe_Primary-Desktop-Thumbnail.jpg",
      "description": "The all new Globe Prepaid Roam Surf promos are now available for travels abroad.  Visit the Globe Newsroom for the latest news on Globe Telecom.",
      "datePosted": "Dec 21, 2016 | 01:49 PM",
      "titleFromTag": "Consumer"
    },
    {
      "title": "Globe hits target of deploying 500 LTE sites using 700 MHz band",
      "nonclickable": false,
      "openNewTab": false,
      "borderArticle": "border-color:#0074D9;",
      "borderTopArticle": "border-top-color:#0074D9;",
      "imageListing": "/sites/globe.com.ph/files/content/dam/globe/brie/AboutUs/newsroom/common/Corporate_Globe_Listing.jpg",
      "articleUrl": "https://www.globe.com.ph/about-us/newsroom/corporate/globe-hits-target-of-deploying.html",
      "columnType": "articles--type-3",
      "typeListing": "article",
      "imageMobile": "/sites/globe.com.ph/files/content/dam/globe/brie/AboutUs/newsroom/common/Corporate_Globe_Hero-Banner-Mobile.jpg",
      "imageDesktop": "/sites/globe.com.ph/files/content/dam/globe/brie/AboutUs/newsroom/common/Corporate_Globe_Primary-Desktop-Thumbnail.jpg",
      "description": "Globe Telecom hit its target of deploying 500 LTE sites using the 700 megahertz band. Visit the Globe Newsroom for the latest news on Globe Telecom.",
      "datePosted": "Dec 21, 2016 | 12:58 PM",
      "titleFromTag": "Corporate"
    },
    {
      "title": "Globe Telecom’s viral Star Wars Video Garners Over 41 Million Views",
      "nonclickable": false,
      "openNewTab": false,
      "borderArticle": "border-color:#0074D9;",
      "borderTopArticle": "border-top-color:#0074D9;",
      "imageListing": "/sites/globe.com.ph/files/content/dam/globe/brie/AboutUs/newsroom/common/Corporate_Globe_Listing.jpg",
      "articleUrl": "https://www.globe.com.ph/about-us/newsroom/citizenship/globe-telecom-viral-star-wars.html",
      "columnType": "articles--type-3",
      "typeListing": "article",
      "imageMobile": "/sites/globe.com.ph/files/content/dam/globe/brie/AboutUs/newsroom/common/Corporate_Globe_Hero-Banner-Mobile.jpg",
      "imageDesktop": "/sites/globe.com.ph/files/content/dam/globe/brie/AboutUs/newsroom/common/Corporate_Globe_Primary-Desktop-Thumbnail.jpg",
      "description": "Globe also raises awareness in partnership with The Philippine General Hospital for the rehabilitation of its pediatric clinic. Visit the Globe Newsroom for the latest news on Globe Telecom.",
      "datePosted": "Dec 20, 2016 | 02:51 PM",
      "titleFromTag": "Citizenship"
    },
    {
      "title": "Globe Helps Rebuild Schools in Isabela",
      "nonclickable": false,
      "openNewTab": false,
      "borderArticle": "border-color:#0074D9;",
      "borderTopArticle": "border-top-color:#0074D9;",
      "imageListing": "/sites/globe.com.ph/files/content/dam/globe/brie/AboutUs/newsroom/citizenship/Globe-helps-rebuild-schools-in-Isabela/community-rebuild-schools-isabela-thumbnail-listing.png",
      "articleUrl": "https://www.globe.com.ph/about-us/newsroom/citizenship/globe-helps-rebuild-schools-in-isabela.html",
      "columnType": "articles--type-3",
      "typeListing": "article",
      "imageMobile": "/sites/globe.com.ph/files/content/dam/globe/brie/AboutUs/newsroom/citizenship/Globe-helps-rebuild-schools-in-Isabela/community-rebuild-schools-isabela-banner-m.png",
      "imageDesktop": "/sites/globe.com.ph/files/content/dam/globe/brie/AboutUs/newsroom/citizenship/Globe-helps-rebuild-schools-in-Isabela/community-rebuild-schools-isabela-primary-thumbnail.png",
      "description": "Globe Telecom donated construction materials to the Province of Isabela for the rebuilding of schools severely damaged by Super Typhoon Lawin last October.",
      "datePosted": "Dec 20, 2016 | 02:49 PM",
      "titleFromTag": "Citizenship"
    },
    {
      "title": "Globe Business Advances the Expansion of the Contact Center Industry in PH",
      "nonclickable": false,
      "openNewTab": false,
      "borderArticle": "border-color:#0074D9;",
      "borderTopArticle": "border-top-color:#0074D9;",
      "imageListing": "/sites/globe.com.ph/files/content/dam/globe/brie/AboutUs/newsroom/business/Globe-Business-advances-the-expansion-of-the-contact-center-industry-in-PH/business-globe-expansion-thumbnail-listing.png",
      "articleUrl": "https://www.globe.com.ph/about-us/newsroom/business/globe-business-advances-the-expansion.html",
      "columnType": "articles--type-3",
      "typeListing": "article",
      "imageMobile": "/sites/globe.com.ph/files/content/dam/globe/brie/AboutUs/newsroom/business/Globe-Business-advances-the-expansion-of-the-contact-center-industry-in-PH/business-globe-expansion-banner-m.png",
      "imageDesktop": "/sites/globe.com.ph/files/content/dam/globe/brie/AboutUs/newsroom/business/Globe-Business-advances-the-expansion-of-the-contact-center-industry-in-PH/business-globe-expansion-primary-thumbnail.png",
      "description": "The country’s contact center industry is expected to earn $25 billion in revenues this year. Visit the Globe Newsroom for the latest news on Globe Telecom.",
      "datePosted": "Dec 20, 2016 | 02:20 PM",
      "titleFromTag": "Business"
    },
    {
      "title": "OFWs now able to provide medicines to their families through Globe and RiteMed partnership",
      "nonclickable": false,
      "openNewTab": false,
      "borderArticle": "border-color:#0074D9;",
      "borderTopArticle": "border-top-color:#0074D9;",
      "imageListing": "/sites/globe.com.ph/files/content/dam/globe/brie/AboutUs/newsroom/consumer/OFWs-now-able-to-provide-medicines-to-their-families-through-Globe-and-RiteMed-partnership/partners-globe-ritemed-partnership-thumbnail-listing.png",
      "articleUrl": "https://www.globe.com.ph/about-us/newsroom/consumer/ofws-now-able-to-provide.html",
      "columnType": "articles--type-3",
      "typeListing": "article",
      "imageMobile": "/sites/globe.com.ph/files/content/dam/globe/brie/AboutUs/newsroom/consumer/OFWs-now-able-to-provide-medicines-to-their-families-through-Globe-and-RiteMed-partnership/partners-globe-ritemed-partnership-banner-m.png",
      "imageDesktop": "/sites/globe.com.ph/files/content/dam/globe/brie/AboutUs/newsroom/consumer/OFWs-now-able-to-provide-medicines-to-their-families-through-Globe-and-RiteMed-partnership/partners-globe-ritemed-partnership-primary-thumbnail.png",
      "description": "Overseas Filipinos may now purchase RiteMED medicines while abroad and have these delivered to their dependents in the Philippines. Learn more here.",
      "datePosted": "Dec 20, 2016 | 01:49 PM",
      "titleFromTag": "Consumer"
    },
    {
      "title": "Globe Telecom’s viral Star Wars video garners over 41 Million views",
      "nonclickable": false,
      "openNewTab": false,
      "borderArticle": "border-color:#0074D9;",
      "borderTopArticle": "border-top-color:#0074D9;",
      "imageListing": "/sites/globe.com.ph/files/content/dam/globe/brie/AboutUs/newsroom/consumer/Globe-Telecom-s-viral-Star-Wars-video-garners-over-41-Million-views/consumer-globe-viral-starwars-thumbnail-listing.png",
      "articleUrl": "https://www.globe.com.ph/about-us/newsroom/consumer/globe-telecom-viral-star-wars.html",
      "columnType": "articles--type-3",
      "typeListing": "article",
      "imageMobile": "/sites/globe.com.ph/files/content/dam/globe/brie/AboutUs/newsroom/consumer/Globe-Telecom-s-viral-Star-Wars-video-garners-over-41-Million-views/consumer-globe-viral-starwars-banner-m.png",
      "imageDesktop": "/sites/globe.com.ph/files/content/dam/globe/brie/AboutUs/newsroom/consumer/Globe-Telecom-s-viral-Star-Wars-video-garners-over-41-Million-views/consumer-globe-viral-starwars-primary-thumbnail.png",
      "description": "Globe also raises awareness in partnership with The Philippine General Hospital for the rehabilitation of its pediatric clinic. Visit the Globe Newsroom for the latest news on Globe Telecom.",
      "datePosted": "Dec 20, 2016 | 01:48 PM",
      "titleFromTag": "Consumer"
    }
  ]
}
