{
  "status": 200,
  "page": 271,
  "totalPage": 298,
  "range": "3241-3252",
  "total": 3573,
  "result": [
    {
      "title": "Globe bags The Asset Platinum Award for Excellence in Governance, Corporate Social Responsibility & Investor Relations Benchmarking",
      "nonclickable": false,
      "openNewTab": false,
      "borderArticle": "border-color:#0074D9;",
      "borderTopArticle": "border-top-color:#0074D9;",
      "imageListing": "/sites/globe.com.ph/files/content/dam/globe/brie/AboutUs/newsroom/common/Corporate_Globe_Listing.jpg",
      "articleUrl": "https://www.globe.com.ph/about-us/newsroom/corporate/globe-bags-the-asset-platinum.html",
      "columnType": "articles--type-3",
      "typeListing": "article",
      "imageMobile": "/sites/globe.com.ph/files/content/dam/globe/brie/AboutUs/newsroom/common/Corporate_Globe_Hero-Banner-Mobile.jpg",
      "imageDesktop": "/sites/globe.com.ph/files/content/dam/globe/brie/AboutUs/newsroom/common/Corporate_Globe_Primary-Desktop-Thumbnail.jpg",
      "description": "Globe Telecom bagged the Platinum Award for Excellence in Governance, Corporate Social Responsibility, and Investor Relations Benchmarking from The Asset.",
      "datePosted": "Dec 16, 2016 | 12:58 PM",
      "titleFromTag": "Corporate"
    },
    {
      "title": "Globe to PCCI: Be with Us in Building One Digital Nation",
      "nonclickable": false,
      "openNewTab": false,
      "borderArticle": "border-color:#0074D9;",
      "borderTopArticle": "border-top-color:#0074D9;",
      "imageListing": "/sites/globe.com.ph/files/content/dam/globe/brie/AboutUs/newsroom/business/Globe-to-PCCI--Be-with-us-in-building-one-digital-nation/corporate-globe-pldt-agreement-thumbnail-listing.png",
      "articleUrl": "https://www.globe.com.ph/about-us/newsroom/business/globe-to-pcci-be-with.html",
      "columnType": "articles--type-3",
      "typeListing": "article",
      "imageMobile": "/sites/globe.com.ph/files/content/dam/globe/brie/AboutUs/newsroom/business/Globe-to-PCCI--Be-with-us-in-building-one-digital-nation/corporate-globe-pldt-agreement-banner-m.png",
      "imageDesktop": "/sites/globe.com.ph/files/content/dam/globe/brie/AboutUs/newsroom/business/Globe-to-PCCI--Be-with-us-in-building-one-digital-nation/corporate-globe-pldt-agreement-primary-thumbnail.png",
      "description": "Globe discusses connectivity challenges and initiatives at the PCCI CEO Breakfast Forum. Visit the Globe Newsroom for the latest news on Globe Telecom.",
      "datePosted": "Dec 15, 2016 | 02:20 PM",
      "titleFromTag": "Business"
    },
    {
      "title": "Get the know-how on your Globe Broadband connection with the informative and entertaining Just So You Know video series",
      "nonclickable": false,
      "openNewTab": false,
      "borderArticle": "border-color:#0074D9;",
      "borderTopArticle": "border-top-color:#0074D9;",
      "imageListing": "/sites/globe.com.ph/files/content/dam/globe/brie/AboutUs/newsroom/common/Corporate_Globe_Listing.jpg",
      "articleUrl": "https://www.globe.com.ph/about-us/newsroom/consumer/get-the-know-how-on.html",
      "columnType": "articles--type-3",
      "typeListing": "article",
      "imageMobile": "/sites/globe.com.ph/files/content/dam/globe/brie/AboutUs/newsroom/common/Corporate_Globe_Hero-Banner-Mobile.jpg",
      "imageDesktop": "/sites/globe.com.ph/files/content/dam/globe/brie/AboutUs/newsroom/common/Corporate_Globe_Primary-Desktop-Thumbnail.jpg",
      "description": "Globe Broadband launched #JSYK, a series of educational and entertaining videos to answer frequently asked questions about one’s home broadband connection.",
      "datePosted": "Dec 13, 2016 | 01:48 PM",
      "titleFromTag": "Consumer"
    },
    {
      "title": "Globe Telecom and iPhone 7 Customers Help in Mindanao “Rainforestation” Efforts",
      "nonclickable": false,
      "openNewTab": false,
      "borderArticle": "border-color:#0074D9;",
      "borderTopArticle": "border-top-color:#0074D9;",
      "imageListing": "/sites/globe.com.ph/files/content/dam/globe/brie/AboutUs/newsroom/citizenship/Globe-Telecom-and-iPhone-7-customers-help-in-Mindanao--rainforestation--efforts/sustainability-iphone7-customers-rainforestation-thumbnail-listing.png",
      "articleUrl": "https://www.globe.com.ph/about-us/newsroom/citizenship/globe-telecom-and-iphone-7-customers.html",
      "columnType": "articles--type-3",
      "typeListing": "article",
      "imageMobile": "/sites/globe.com.ph/files/content/dam/globe/brie/AboutUs/newsroom/citizenship/Globe-Telecom-and-iPhone-7-customers-help-in-Mindanao--rainforestation--efforts/sustainability-iphone7-customers-rainforestation-banner-m.png",
      "imageDesktop": "/sites/globe.com.ph/files/content/dam/globe/brie/AboutUs/newsroom/citizenship/Globe-Telecom-and-iPhone-7-customers-help-in-Mindanao--rainforestation--efforts/sustainability-iphone7-customers-rainforestation-primary-thumbnail.png",
      "description": "Globe signs MoA with Hineleban Foundation, Inc. on five-year Rainforestation Program in Bukidnon and Lanao del Sur. Visit the Globe Newsroom for more.",
      "datePosted": "Dec 12, 2016 | 02:50 PM",
      "titleFromTag": "Citizenship"
    },
    {
      "title": "Fans countdown to the much awaited 2017 Coldplay concert with #GlobeColdplay music sessions",
      "nonclickable": false,
      "openNewTab": false,
      "borderArticle": "border-color:#0074D9;",
      "borderTopArticle": "border-top-color:#0074D9;",
      "imageListing": "/sites/globe.com.ph/files/content/dam/globe/brie/AboutUs/newsroom/common/Corporate_Globe_Listing.jpg",
      "articleUrl": "https://www.globe.com.ph/about-us/newsroom/consumer/fans-countdown-to-the-much.html",
      "columnType": "articles--type-3",
      "typeListing": "article",
      "imageMobile": "/sites/globe.com.ph/files/content/dam/globe/brie/AboutUs/newsroom/common/Corporate_Globe_Hero-Banner-Mobile.jpg",
      "imageDesktop": "/sites/globe.com.ph/files/content/dam/globe/brie/AboutUs/newsroom/common/Corporate_Globe_Primary-Desktop-Thumbnail.jpg",
      "description": "Coldplay fans are in for a musical adventure as they await one of the most anticipated concerts of 2017. Visit the Globe Newsroom for the latest news on Globe",
      "datePosted": "Dec 12, 2016 | 01:47 PM",
      "titleFromTag": "Consumer"
    },
    {
      "title": "Globe Business Enables Affordable Tech-Based Education in PH",
      "nonclickable": false,
      "openNewTab": false,
      "borderArticle": "border-color:#0074D9;",
      "borderTopArticle": "border-top-color:#0074D9;",
      "imageListing": "/sites/globe.com.ph/files/content/dam/globe/brie/AboutUs/newsroom/common/Corporate_Globe_Listing.jpg",
      "articleUrl": "https://www.globe.com.ph/about-us/newsroom/corporate/globe-business-enables-affordable-tech-based-education.html",
      "columnType": "articles--type-3",
      "typeListing": "article",
      "imageMobile": "/sites/globe.com.ph/files/content/dam/globe/brie/AboutUs/newsroom/common/Corporate_Globe_Primary-Desktop-Thumbnail.jpg",
      "imageDesktop": "/sites/globe.com.ph/files/content/dam/globe/brie/AboutUs/newsroom/common/Corporate_Globe_Primary-Desktop-Thumbnail.jpg",
      "description": "Globe Business Enables Affordable Tech-Based Education in PH. Visit Globe Newsroom for the latest news on Globe Telecom.",
      "datePosted": "Dec 09, 2016 | 08:28 PM",
      "titleFromTag": "Business"
    },
    {
      "title": "Globe signs P20-Billion term loan facility with Metrobank",
      "nonclickable": false,
      "openNewTab": false,
      "borderArticle": "border-color:#0074D9;",
      "borderTopArticle": "border-top-color:#0074D9;",
      "imageListing": "/sites/globe.com.ph/files/content/dam/globe/brie/AboutUs/newsroom/common/Corporate_Globe_Listing.jpg",
      "articleUrl": "https://www.globe.com.ph/about-us/newsroom/corporate/globe-signs-p20-billion.html",
      "columnType": "articles--type-3",
      "typeListing": "article",
      "imageMobile": "/sites/globe.com.ph/files/content/dam/globe/brie/AboutUs/newsroom/common/Corporate_Globe_Hero-Banner-Mobile.jpg",
      "imageDesktop": "/sites/globe.com.ph/files/content/dam/globe/brie/AboutUs/newsroom/common/Corporate_Globe_Primary-Desktop-Thumbnail.jpg",
      "description": "The loan will help finance network investments to expand coverage and enhance capacities. Visit the Globe Newsroom for the latest news on Globe Telecom.",
      "datePosted": "Dec 09, 2016 | 12:57 PM",
      "titleFromTag": "Corporate"
    },
    {
      "title": "Create New Traditions at Home This Christmas",
      "nonclickable": false,
      "openNewTab": false,
      "borderArticle": "border-color:#0074D9;",
      "borderTopArticle": "border-top-color:#0074D9;",
      "imageListing": "/sites/globe.com.ph/files/content/dam/globe/brie/AboutUs/newsroom/consumer/Create-New-Traditions-at-Home-This-Christmas/consumer-create-new-traditions-christmas-thumbnail-listing.png",
      "articleUrl": "https://www.globe.com.ph/about-us/newsroom/consumer/create-new-traditions-at-home.html",
      "columnType": "articles--type-3",
      "typeListing": "article",
      "imageMobile": "/sites/globe.com.ph/files/content/dam/globe/brie/AboutUs/newsroom/consumer/Create-New-Traditions-at-Home-This-Christmas/consumer-create-new-traditions-christmas-banner-m.png",
      "imageDesktop": "/sites/globe.com.ph/files/content/dam/globe/brie/AboutUs/newsroom/consumer/Create-New-Traditions-at-Home-This-Christmas/consumer-create-new-traditions-christmas-banner-d.png",
      "description": "Globe Broadband reinforces their commitment connect two million homes with fast Internet by the year 2020 with a line-up of offers. Learn more here.",
      "datePosted": "Dec 06, 2016 | 01:46 PM",
      "titleFromTag": "Consumer"
    },
    {
      "title": "Globe creates new holiday traditions for the most wonderful time of the year",
      "nonclickable": false,
      "openNewTab": false,
      "borderArticle": "border-color:#0074D9;",
      "borderTopArticle": "border-top-color:#0074D9;",
      "imageListing": "/sites/globe.com.ph/files/content/dam/globe/brie/AboutUs/newsroom/corporate/Globe-creates-new-holiday-traditions-for-the-most-wonderful-time-of-the-year/corporate-most-wonderful-time-year-thumbnail-listing.png",
      "articleUrl": "https://www.globe.com.ph/about-us/newsroom/corporate/globe-creates-new-holiday-traditions.html",
      "columnType": "articles--type-3",
      "typeListing": "article",
      "imageMobile": "/sites/globe.com.ph/files/content/dam/globe/brie/AboutUs/newsroom/corporate/Globe-creates-new-holiday-traditions-for-the-most-wonderful-time-of-the-year/corporate-most-wonderful-time-year-banner-m.png",
      "imageDesktop": "/sites/globe.com.ph/files/content/dam/globe/brie/AboutUs/newsroom/corporate/Globe-creates-new-holiday-traditions-for-the-most-wonderful-time-of-the-year/corporate-most-wonderful-time-year-primary-thumbnail.png",
      "description": "Globe creates new holiday traditions for the most wonderful time of the year. Visit the Globe Newsroom for the latest news on Globe Telecom.",
      "datePosted": "Dec 06, 2016 | 12:57 PM",
      "titleFromTag": "Corporate"
    },
    {
      "title": "Six Filipino Kids Get Exclusive Training with FC Barcelona in Spain through Astro Kem Bola and TM Football Para sa Bayan Programs",
      "nonclickable": false,
      "openNewTab": false,
      "borderArticle": "border-color:#0074D9;",
      "borderTopArticle": "border-top-color:#0074D9;",
      "imageListing": "/sites/globe.com.ph/files/content/dam/globe/brie/AboutUs/newsroom/citizenship/Six-Filipino-kids-get-exclusive-training-with-FC-Barcelona-in-Spain-through-Astro-Kem-Bola-and-TM-Football-Para-sa-Bayan-programs/citizenship-kids-training-fc-barcelona-thumbnail-listing.png",
      "articleUrl": "https://www.globe.com.ph/about-us/newsroom/citizenship/six-filipino-kids-get-exclusive.html",
      "columnType": "articles--type-3",
      "typeListing": "article",
      "imageMobile": "/sites/globe.com.ph/files/content/dam/globe/brie/AboutUs/newsroom/citizenship/Six-Filipino-kids-get-exclusive-training-with-FC-Barcelona-in-Spain-through-Astro-Kem-Bola-and-TM-Football-Para-sa-Bayan-programs/citizenship-kids-training-fc-barcelona-banner-m.png",
      "imageDesktop": "/sites/globe.com.ph/files/content/dam/globe/brie/AboutUs/newsroom/citizenship/Six-Filipino-kids-get-exclusive-training-with-FC-Barcelona-in-Spain-through-Astro-Kem-Bola-and-TM-Football-Para-sa-Bayan-programs/citizenship-kids-training-fc-barcelona-primary-thumbnail.png",
      "description": "Through the Astro Kem Bola and TM Football Para sa Bayan programs, homegrown Filipino booters will once again step on the popular La Liga team’s pitch.",
      "datePosted": "Dec 05, 2016 | 02:51 PM",
      "titleFromTag": "Citizenship"
    },
    {
      "title": "Twitter announces Globe as the first advertising partner in Asia for NBA Live Stream Shows",
      "nonclickable": false,
      "openNewTab": false,
      "borderArticle": "border-color:#0074D9;",
      "borderTopArticle": "border-top-color:#0074D9;",
      "imageListing": "/sites/globe.com.ph/files/content/dam/globe/brie/AboutUs/newsroom/common/Corporate_Globe_Listing.jpg",
      "articleUrl": "https://www.globe.com.ph/about-us/newsroom/consumer/twitter-announces-globe-as-the.html",
      "columnType": "articles--type-3",
      "typeListing": "article",
      "imageMobile": "/sites/globe.com.ph/files/content/dam/globe/brie/AboutUs/newsroom/common/Corporate_Globe_Hero-Banner-Mobile.jpg",
      "imageDesktop": "/sites/globe.com.ph/files/content/dam/globe/brie/AboutUs/newsroom/common/Corporate_Globe_Primary-Desktop-Thumbnail.jpg",
      "description": "Twitter and Globe announced a collaboration for NBA’s two live exclusive program streams and custom NBA highlights in the Philippines. Learn more here.",
      "datePosted": "Dec 02, 2016 | 01:47 PM",
      "titleFromTag": "Consumer"
    },
    {
      "title": "PH IT-BPM Industry Continues to Flourish with a Projected US$40B Revenue by 2022",
      "nonclickable": false,
      "openNewTab": false,
      "borderArticle": "border-color:#0074D9;",
      "borderTopArticle": "border-top-color:#0074D9;",
      "imageListing": "/sites/globe.com.ph/files/content/dam/globe/brie/AboutUs/newsroom/business/PH-IT-BPM-industry-continues-to-flourish-with-a-projected-US-40B-revenue-by-2022/business-ph-itbpm-industry-thumbnail-listing.png",
      "articleUrl": "https://www.globe.com.ph/about-us/newsroom/business/ph-it-bpm-industry-continues-to.html",
      "columnType": "articles--type-3",
      "typeListing": "article",
      "imageMobile": "/sites/globe.com.ph/files/content/dam/globe/brie/AboutUs/newsroom/business/PH-IT-BPM-industry-continues-to-flourish-with-a-projected-US-40B-revenue-by-2022/business-ph-itbpm-industry-banner-m.png",
      "imageDesktop": "/sites/globe.com.ph/files/content/dam/globe/brie/AboutUs/newsroom/business/PH-IT-BPM-industry-continues-to-flourish-with-a-projected-US-40B-revenue-by-2022/business-ph-itbpm-industry-primary-thumbnail.png",
      "description": "Globe Business was a co-presenter for the 8th International IT-BPM Summit held by The Information Technology and Business Process Association of the Philippines",
      "datePosted": "Dec 01, 2016 | 02:19 PM",
      "titleFromTag": "Business"
    }
  ]
}
