{
  "status": 200,
  "page": 272,
  "totalPage": 298,
  "range": "3253-3264",
  "total": 3573,
  "result": [
    {
      "title": "Making A Christmas Carol a Filipino Christmas Tradition",
      "nonclickable": false,
      "openNewTab": false,
      "borderArticle": "border-color:#0074D9;",
      "borderTopArticle": "border-top-color:#0074D9;",
      "imageListing": "/sites/globe.com.ph/files/content/dam/globe/brie/AboutUs/newsroom/common/Corporate_Globe_Listing.jpg",
      "articleUrl": "https://www.globe.com.ph/about-us/newsroom/consumer/making-a-christmas-carol-a.html",
      "columnType": "articles--type-3",
      "typeListing": "article",
      "imageMobile": "/sites/globe.com.ph/files/content/dam/globe/brie/AboutUs/newsroom/common/Corporate_Globe_Hero-Banner-Mobile.jpg",
      "imageDesktop": "/sites/globe.com.ph/files/content/dam/globe/brie/AboutUs/newsroom/common/Corporate_Globe_Primary-Desktop-Thumbnail.jpg",
      "description": "Globe Live is staging Menken & Ahrens’ A Christmas Carol The Musical. Visit the Globe Newsroom for the latest news on Globe Telecom.",
      "datePosted": "Nov 29, 2016 | 01:46 PM",
      "titleFromTag": "Consumer"
    },
    {
      "title": "A new family adventure awaits with the premiere of Disney’s MOANA",
      "nonclickable": false,
      "openNewTab": false,
      "borderArticle": "border-color:#0074D9;",
      "borderTopArticle": "border-top-color:#0074D9;",
      "imageListing": "/sites/globe.com.ph/files/content/dam/globe/brie/AboutUs/newsroom/common/Corporate_Globe_Listing.jpg",
      "articleUrl": "https://www.globe.com.ph/about-us/newsroom/consumer/a-new-family-adventure-awaits-with.html",
      "columnType": "articles--type-3",
      "typeListing": "article",
      "imageMobile": "/sites/globe.com.ph/files/content/dam/globe/brie/AboutUs/newsroom/common/Corporate_Globe_Hero-Banner-Mobile.jpg",
      "imageDesktop": "/sites/globe.com.ph/files/content/dam/globe/brie/AboutUs/newsroom/common/Corporate_Globe_Primary-Desktop-Thumbnail.jpg",
      "description": "Globe Postpaid customers get a chance to watch the Walt Disney’s animated movie for free. Visit the Globe Newsroom for the latest news on Globe Telecom.",
      "datePosted": "Nov 29, 2016 | 01:45 PM",
      "titleFromTag": "Consumer"
    },
    {
      "title": "Globe iPhone 7 Customers Helped Create a Global Filipino School in GenSan",
      "nonclickable": false,
      "openNewTab": false,
      "borderArticle": "border-color:#0074D9;",
      "borderTopArticle": "border-top-color:#0074D9;",
      "imageListing": "/sites/globe.com.ph/files/content/dam/globe/brie/AboutUs/newsroom/citizenship/Globe-iPhone-7-customers-helped-create-a-Global-Filipino-School-in-GenSan/corporate-5th-excellence-awards-thumbnail-listing.png",
      "articleUrl": "https://www.globe.com.ph/about-us/newsroom/citizenship/globe-iphone-7-customers-helped.html",
      "columnType": "articles--type-3",
      "typeListing": "article",
      "imageMobile": "/sites/globe.com.ph/files/content/dam/globe/brie/AboutUs/newsroom/citizenship/Globe-iPhone-7-customers-helped-create-a-Global-Filipino-School-in-GenSan/corporate-5th-excellence-awards-banner-m.png",
      "imageDesktop": "/sites/globe.com.ph/files/content/dam/globe/brie/AboutUs/newsroom/citizenship/Globe-iPhone-7-customers-helped-create-a-Global-Filipino-School-in-GenSan/corporate-5th-excellence-awards-primary-thumbnail.png",
      "description": "Thousands of Globe Telecom customers, through the Global Filipino School (GFS) program, gave teachers and students access to 21st century learning.",
      "datePosted": "Nov 28, 2016 | 02:47 PM",
      "titleFromTag": "Citizenship"
    },
    {
      "title": "Davao IT-BPM Industry to Benefit from Globe Business Davao Data Center",
      "nonclickable": false,
      "openNewTab": false,
      "borderArticle": "border-color:#0074D9;",
      "borderTopArticle": "border-top-color:#0074D9;",
      "imageListing": "/sites/globe.com.ph/files/content/dam/globe/brie/AboutUs/newsroom/business/Davao-IT-BPM-Industry-to-benefit-from-Globe-Business-Davao-Data-Center/business-davao-itbmp-industry-thumbnail-listing.png",
      "articleUrl": "https://www.globe.com.ph/about-us/newsroom/business/davao-it-bpm-industry-to.html",
      "columnType": "articles--type-3",
      "typeListing": "article",
      "imageMobile": "/sites/globe.com.ph/files/content/dam/globe/brie/AboutUs/newsroom/business/Davao-IT-BPM-Industry-to-benefit-from-Globe-Business-Davao-Data-Center/business-davao-itbmp-industry-banner-m.png",
      "imageDesktop": "/sites/globe.com.ph/files/content/dam/globe/brie/AboutUs/newsroom/business/Davao-IT-BPM-Industry-to-benefit-from-Globe-Business-Davao-Data-Center/business-davao-itbmp-industry-primary-thumbnail.png",
      "description": "Globe Telecom’s investment in Davao will provide the ideal IT Infrastructure not only for local businesses, but also for enterprises in Luzon and Visayas.",
      "datePosted": "Nov 28, 2016 | 02:19 PM",
      "titleFromTag": "Business"
    },
    {
      "title": "Globe, PLDT sign agreement to cut interconnection rate for voice calls",
      "nonclickable": false,
      "openNewTab": false,
      "borderArticle": "border-color:#0074D9;",
      "borderTopArticle": "border-top-color:#0074D9;",
      "imageListing": "/sites/globe.com.ph/files/content/dam/globe/brie/AboutUs/newsroom/common/Corporate_Globe_Listing.jpg",
      "articleUrl": "https://www.globe.com.ph/about-us/newsroom/consumer/globe-pldt-sign-agreement-to.html",
      "columnType": "articles--type-3",
      "typeListing": "article",
      "imageMobile": "/sites/globe.com.ph/files/content/dam/globe/brie/AboutUs/newsroom/common/Corporate_Globe_Hero-Banner-Mobile.jpg",
      "imageDesktop": "/sites/globe.com.ph/files/content/dam/globe/brie/AboutUs/newsroom/common/Corporate_Globe_Primary-Desktop-Thumbnail.jpg",
      "description": "The price of domestic mobile and fixed line calls between Globe and PLDT-Smart will be reduced, effectively benefitting consumers. Visit the Globe Newsroom for the latest news on Globe Telecom.",
      "datePosted": "Nov 28, 2016 | 01:45 PM",
      "titleFromTag": "Consumer"
    },
    {
      "title": "Globe, PLDT sign agreement to cut interconnection rate for voice calls",
      "nonclickable": false,
      "openNewTab": false,
      "borderArticle": "border-color:#0074D9;",
      "borderTopArticle": "border-top-color:#0074D9;",
      "imageListing": "/sites/globe.com.ph/files/content/dam/globe/brie/AboutUs/newsroom/corporate/Globe--PLDT-sign-agreement-to-cut-interconnection-rate-for-voice-calls/corporate-globe-pldt-agreement-thumbnail-listing.png",
      "articleUrl": "https://www.globe.com.ph/about-us/newsroom/corporate/globe-pldt-sign-agreement-to.html",
      "columnType": "articles--type-3",
      "typeListing": "article",
      "imageMobile": "/sites/globe.com.ph/files/content/dam/globe/brie/AboutUs/newsroom/corporate/Globe--PLDT-sign-agreement-to-cut-interconnection-rate-for-voice-calls/corporate-globe-pldt-agreement-banner-m.png",
      "imageDesktop": "/sites/globe.com.ph/files/content/dam/globe/brie/AboutUs/newsroom/corporate/Globe--PLDT-sign-agreement-to-cut-interconnection-rate-for-voice-calls/corporate-globe-pldt-agreement-primary-thumbnail.png",
      "description": "Globe Telecom signed a memorandum of understanding with PLDT to reduce the interconnection rate for voice calls between the two operators. Learn more here.",
      "datePosted": "Nov 28, 2016 | 12:56 PM",
      "titleFromTag": "Corporate"
    },
    {
      "title": "5th Globe Media Excellence Awards – Mindanao Winners Announced",
      "nonclickable": false,
      "openNewTab": false,
      "borderArticle": "border-color:#0074D9;",
      "borderTopArticle": "border-top-color:#0074D9;",
      "imageListing": "/sites/globe.com.ph/files/content/dam/globe/brie/AboutUs/newsroom/corporate/5th-Globe-Media-Excellence-Awards---Mindanao-Winners-Announced/corporate-5th-excellence-awards-thumbnail-listing.png",
      "articleUrl": "https://www.globe.com.ph/about-us/newsroom/corporate/5th-globe-media-excellence-awards.html",
      "columnType": "articles--type-3",
      "typeListing": "article",
      "imageMobile": "/sites/globe.com.ph/files/content/dam/globe/brie/AboutUs/newsroom/corporate/5th-Globe-Media-Excellence-Awards---Mindanao-Winners-Announced/corporate-5th-excellence-awards-banner-m.png",
      "imageDesktop": "/sites/globe.com.ph/files/content/dam/globe/brie/AboutUs/newsroom/corporate/5th-Globe-Media-Excellence-Awards---Mindanao-Winners-Announced/corporate-5th-excellence-awards-primary-thumbnail.png",
      "description": "Globe Telecom announced the winners of the 5th Globe Media Excellence Awards - Mindanao. Visit the Globe Newsroom for the latest news on Globe Telecom.",
      "datePosted": "Nov 26, 2016 | 12:56 PM",
      "titleFromTag": "Corporate"
    },
    {
      "title": "Experience best online bargains from November 25 to 28, plus 20% rebate from GCash American Express Virtual Card",
      "nonclickable": false,
      "openNewTab": false,
      "borderArticle": "border-color:#0074D9;",
      "borderTopArticle": "border-top-color:#0074D9;",
      "imageListing": "/sites/globe.com.ph/files/content/dam/globe/brie/AboutUs/newsroom/consumer/Experience-best-online-bargains-from-November-25-to-28--plus-20--rebate-from-GCash-American-Express-Virtual-Card/consumer-gcash-amex-card-thumbnail-listing.png",
      "articleUrl": "https://www.globe.com.ph/about-us/newsroom/consumer/experience-best-online-bargains-from.html",
      "columnType": "articles--type-3",
      "typeListing": "article",
      "imageMobile": "/sites/globe.com.ph/files/content/dam/globe/brie/AboutUs/newsroom/consumer/Experience-best-online-bargains-from-November-25-to-28--plus-20--rebate-from-GCash-American-Express-Virtual-Card/consumer-gcash-amex-card-banner-m.png",
      "imageDesktop": "/sites/globe.com.ph/files/content/dam/globe/brie/AboutUs/newsroom/consumer/Experience-best-online-bargains-from-November-25-to-28--plus-20--rebate-from-GCash-American-Express-Virtual-Card/consumer-gcash-amex-card-primary-thumbnail.png",
      "description": "Gear up for the year's online shopping extravaganzas! Join Globe GCash in Black Friday, Cyber Monday, and the Philippine Cyber Sale. Shop now, save big!",
      "datePosted": "Nov 25, 2016 | 01:44 PM",
      "titleFromTag": "Consumer"
    },
    {
      "title": "On-Demand Entertainment and Up-to-date Devices now available with Globe Broadband",
      "nonclickable": false,
      "openNewTab": false,
      "borderArticle": "border-color:#0074D9;",
      "borderTopArticle": "border-top-color:#0074D9;",
      "imageListing": "/sites/globe.com.ph/files/content/dam/globe/brie/AboutUs/newsroom/consumer/On-Demand-Entertainment-and-Up-to-date-Devices-now-available-with-Globe-Broadband/consumer-on-demand-entertainment-thumbnail-listing.png",
      "articleUrl": "https://www.globe.com.ph/about-us/newsroom/consumer/on-demand-entertainment-and-up.html",
      "columnType": "articles--type-3",
      "typeListing": "article",
      "imageMobile": "/sites/globe.com.ph/files/content/dam/globe/brie/AboutUs/newsroom/consumer/On-Demand-Entertainment-and-Up-to-date-Devices-now-available-with-Globe-Broadband/consumer-on-demand-entertainment-banner-m.png",
      "imageDesktop": "/sites/globe.com.ph/files/content/dam/globe/brie/AboutUs/newsroom/consumer/On-Demand-Entertainment-and-Up-to-date-Devices-now-available-with-Globe-Broadband/consumer-on-demand-entertainment-primary-thumbnail.png",
      "description": "Strong, steadfast connections with Globe Broadband turns every home into the ultimate hub for groundbreaking entertainment. Visit the Newsroom for more.",
      "datePosted": "Nov 24, 2016 | 01:44 PM",
      "titleFromTag": "Consumer"
    },
    {
      "title": "Globe seeks rationalization of permitting process for cell sites as data traffic rises dramatically",
      "nonclickable": false,
      "openNewTab": false,
      "borderArticle": "border-color:#0074D9;",
      "borderTopArticle": "border-top-color:#0074D9;",
      "imageListing": "/sites/globe.com.ph/files/content/dam/globe/brie/AboutUs/newsroom/corporate/Globe-seeks-rationalization-of-permitting-process-for-cell-sites-as-data-traffic-rises-dramatically/corporate-globe-seeks-rationalization-thumbnail-listing.png",
      "articleUrl": "https://www.globe.com.ph/about-us/newsroom/corporate/globe-seeks-rationalization-of-permitting.html",
      "columnType": "articles--type-3",
      "typeListing": "article",
      "imageMobile": "/sites/globe.com.ph/files/content/dam/globe/brie/AboutUs/newsroom/corporate/Globe-seeks-rationalization-of-permitting-process-for-cell-sites-as-data-traffic-rises-dramatically/corporate-globe-seeks-rationalization-banner-m.png",
      "imageDesktop": "/sites/globe.com.ph/files/content/dam/globe/brie/AboutUs/newsroom/corporate/Globe-seeks-rationalization-of-permitting-process-for-cell-sites-as-data-traffic-rises-dramatically/corporate-globe-seeks-rationalization-primary-thumbnail.png",
      "description": "Gil Genio, Globe's Chief Information & Technology Officer, emphasized the need for more cell sites in the country at the DICT Summit.",
      "datePosted": "Nov 24, 2016 | 12:55 PM",
      "titleFromTag": "Corporate"
    },
    {
      "title": "The Gift that Keeps on Giving: Globe partners with Kiva for a Globe of Good",
      "nonclickable": false,
      "openNewTab": false,
      "borderArticle": "border-color:#0074D9;",
      "borderTopArticle": "border-top-color:#0074D9;",
      "imageListing": "/sites/globe.com.ph/files/content/dam/globe/brie/AboutUs/newsroom/common/Corporate_Globe_Listing.jpg",
      "articleUrl": "https://www.globe.com.ph/about-us/newsroom/sustainability/the-gift-that-keeps-on.html",
      "columnType": "articles--type-3",
      "typeListing": "article",
      "imageMobile": "/sites/globe.com.ph/files/content/dam/globe/brie/AboutUs/newsroom/common/Corporate_Globe_Hero-Banner-Mobile.jpg",
      "imageDesktop": "/sites/globe.com.ph/files/content/dam/globe/brie/AboutUs/newsroom/common/Corporate_Globe_Primary-Desktop-Thumbnail.jpg",
      "description": "The Globe, Kiva partnership brings a gift that keeps on giving to 917 micro-enterprises across several industries. Visit the Globe Newsroom for more.",
      "datePosted": "Nov 21, 2016 | 03:24 PM",
      "titleFromTag": "Sustainability"
    },
    {
      "title": "Globe pre-registration for Coldplay concert tickets closed in 6 minutes",
      "nonclickable": false,
      "openNewTab": false,
      "borderArticle": "border-color:#0074D9;",
      "borderTopArticle": "border-top-color:#0074D9;",
      "imageListing": "/sites/globe.com.ph/files/content/dam/globe/brie/AboutUs/newsroom/common/Corporate_Globe_Listing.jpg",
      "articleUrl": "https://www.globe.com.ph/about-us/newsroom/corporate/globe-pre-registration-for-coldplay.html",
      "columnType": "articles--type-3",
      "typeListing": "article",
      "imageMobile": "/sites/globe.com.ph/files/content/dam/globe/brie/AboutUs/newsroom/common/Corporate_Globe_Hero-Banner-Mobile.jpg",
      "imageDesktop": "/sites/globe.com.ph/files/content/dam/globe/brie/AboutUs/newsroom/common/Corporate_Globe_Primary-Desktop-Thumbnail.jpg",
      "description": "Globe Telecom thanks its customers for their phenomenal reception of the Coldplay concert happening on April 4, 2017 at the SM MOA Concert Grounds.",
      "datePosted": "Nov 18, 2016 | 12:55 PM",
      "titleFromTag": "Corporate"
    }
  ]
}
