{
  "status": 200,
  "page": 273,
  "totalPage": 298,
  "range": "3265-3276",
  "total": 3573,
  "result": [
    {
      "title": "Globe Telecom: PH user per cellsite density highest in Asia",
      "nonclickable": false,
      "openNewTab": false,
      "borderArticle": "border-color:#0074D9;",
      "borderTopArticle": "border-top-color:#0074D9;",
      "imageListing": "/sites/globe.com.ph/files/content/dam/globe/brie/AboutUs/newsroom/common/Corporate_Globe_Listing.jpg",
      "articleUrl": "https://www.globe.com.ph/about-us/newsroom/corporate/globe-telecom-ph-user-per.html",
      "columnType": "articles--type-3",
      "typeListing": "article",
      "imageMobile": "/sites/globe.com.ph/files/content/dam/globe/brie/AboutUs/newsroom/common/Corporate_Globe_Hero-Banner-Mobile.jpg",
      "imageDesktop": "/sites/globe.com.ph/files/content/dam/globe/brie/AboutUs/newsroom/common/Corporate_Globe_Primary-Desktop-Thumbnail.jpg",
      "description": "Philippine telecom providers face permit challenges in building new facilities, leading to more customers per site compared to other operators in Asia.",
      "datePosted": "Nov 18, 2016 | 12:54 PM",
      "titleFromTag": "Corporate"
    },
    {
      "title": "Globe customers give back to the community with the iPhone 7 Globe of Good bundle",
      "nonclickable": false,
      "openNewTab": false,
      "borderArticle": "border-color:#0074D9;",
      "borderTopArticle": "border-top-color:#0074D9;",
      "imageListing": "/sites/globe.com.ph/files/content/dam/globe/brie/AboutUs/newsroom/common/Corporate_Globe_Listing.jpg",
      "articleUrl": "https://www.globe.com.ph/about-us/newsroom/sustainability/globe-customers-give-back-to.html",
      "columnType": "articles--type-3",
      "typeListing": "article",
      "imageMobile": "/sites/globe.com.ph/files/content/dam/globe/brie/AboutUs/newsroom/common/Corporate_Globe_Hero-Banner-Mobile.jpg",
      "imageDesktop": "/sites/globe.com.ph/files/content/dam/globe/brie/AboutUs/newsroom/common/Corporate_Globe_Primary-Desktop-Thumbnail.jpg",
      "description": "Through the Globe of Good packaged with iPhone 7, Globe customers supported the causes of KIVA, Global Filipino Schools program, and Hineleban Foundation.",
      "datePosted": "Nov 17, 2016 | 03:23 PM",
      "titleFromTag": "Sustainability"
    },
    {
      "title": "Globe myBusiness Revolutionizes Philippine eCommerce with the Right Tools of the Trade",
      "nonclickable": false,
      "openNewTab": false,
      "borderArticle": "border-color:#0074D9;",
      "borderTopArticle": "border-top-color:#0074D9;",
      "imageListing": "/sites/globe.com.ph/files/content/dam/globe/brie/AboutUs/newsroom/common/Corporate_Globe_Listing.jpg",
      "articleUrl": "https://www.globe.com.ph/about-us/newsroom/business/globe-mybusiness-revolutionizes-philippine-ecommerce.html",
      "columnType": "articles--type-3",
      "typeListing": "article",
      "imageMobile": "/sites/globe.com.ph/files/content/dam/globe/brie/AboutUs/newsroom/common/Corporate_Globe_Hero-Banner-Mobile.jpg",
      "imageDesktop": "/sites/globe.com.ph/files/content/dam/globe/brie/AboutUs/newsroom/common/Corporate_Globe_Primary-Desktop-Thumbnail.jpg",
      "description": "Globe myBusiness championed at the eCommerce Show Philippines 2016 with the right tools for today’s trade. Visit the Newsroom for more news on Globe Telecom.",
      "datePosted": "Nov 16, 2016 | 02:18 PM",
      "titleFromTag": "Business"
    },
    {
      "title": "Coldplay Announces Asian Tour for April 2017",
      "nonclickable": false,
      "openNewTab": false,
      "borderArticle": "border-color:#0074D9;",
      "borderTopArticle": "border-top-color:#0074D9;",
      "imageListing": "/sites/globe.com.ph/files/content/dam/globe/brie/AboutUs/newsroom/common/Corporate_Globe_Listing.jpg",
      "articleUrl": "https://www.globe.com.ph/about-us/newsroom/corporate/coldplay-announce-asian-tour-for.html",
      "columnType": "articles--type-3",
      "typeListing": "article",
      "imageMobile": "/sites/globe.com.ph/files/content/dam/globe/brie/AboutUs/newsroom/common/Corporate_Globe_Hero-Banner-Mobile.jpg",
      "imageDesktop": "/sites/globe.com.ph/files/content/dam/globe/brie/AboutUs/newsroom/common/Corporate_Globe_Primary-Desktop-Thumbnail.jpg",
      "description": "Coldplay announced today a run of Asian stadium shows for the acclaimed A Head Full Of Dreams Tour. Visit the Globe Newsroom for the latest news.",
      "datePosted": "Nov 16, 2016 | 12:53 PM",
      "titleFromTag": "Corporate"
    },
    {
      "title": "Globe supports Mano Amiga in easing unemployment and providing scholarships to the underprivileged",
      "nonclickable": false,
      "openNewTab": false,
      "borderArticle": "border-color:#0074D9;",
      "borderTopArticle": "border-top-color:#0074D9;",
      "imageListing": "/sites/globe.com.ph/files/content/dam/globe/brie/AboutUs/newsroom/common/Corporate_Globe_Listing.jpg",
      "articleUrl": "https://www.globe.com.ph/about-us/newsroom/sustainability/globe-supports-mano-amiga-in.html",
      "columnType": "articles--type-3",
      "typeListing": "article",
      "imageMobile": "/sites/globe.com.ph/files/content/dam/globe/brie/AboutUs/newsroom/common/Corporate_Globe_Hero-Banner-Mobile.jpg",
      "imageDesktop": "/sites/globe.com.ph/files/content/dam/globe/brie/AboutUs/newsroom/common/Corporate_Globe_Primary-Desktop-Thumbnail.jpg",
      "description": "Globe supports Mano Amiga by providing scholarships for underprivileged children and hosting their social enterprise and livelihood program, Bistro Café.",
      "datePosted": "Nov 15, 2016 | 03:24 PM",
      "titleFromTag": "Sustainability"
    },
    {
      "title": "Globe, PHIVOLCS team up in developing hazard and risk information maps",
      "nonclickable": false,
      "openNewTab": false,
      "borderArticle": "border-color:#0074D9;",
      "borderTopArticle": "border-top-color:#0074D9;",
      "imageListing": "/sites/globe.com.ph/files/content/dam/globe/brie/AboutUs/newsroom/common/Corporate_Globe_Listing.jpg",
      "articleUrl": "https://www.globe.com.ph/about-us/newsroom/sustainability/globe-phivolcs-team-up-in-developing.html",
      "columnType": "articles--type-3",
      "typeListing": "article",
      "imageMobile": "/sites/globe.com.ph/files/content/dam/globe/brie/AboutUs/newsroom/common/Corporate_Globe_Hero-Banner-Mobile.jpg",
      "imageDesktop": "/sites/globe.com.ph/files/content/dam/globe/brie/AboutUs/newsroom/common/Corporate_Globe_Primary-Desktop-Thumbnail.jpg",
      "description": "Globe Telecom teams up with PHIVOLCS for the development of a hazard database for 56 provinces with maps and census from government institutions. Visit the Globe Newsroom for the latest news on Globe Telecom.",
      "datePosted": "Nov 15, 2016 | 03:23 PM",
      "titleFromTag": "Sustainability"
    },
    {
      "title": "Globe, PHIVOLCS Team Up in Developing Hazard and Risk Info Maps",
      "nonclickable": false,
      "openNewTab": false,
      "borderArticle": "border-color:#0074D9;",
      "borderTopArticle": "border-top-color:#0074D9;",
      "imageListing": "/sites/globe.com.ph/files/content/dam/globe/brie/AboutUs/newsroom/common/updated/Corporate-globe-thumbnail-listing.jpg",
      "articleUrl": "https://www.globe.com.ph/about-us/newsroom/corporate/globe-phivolcs-team-up-in-developing.html",
      "columnType": "articles--type-3",
      "typeListing": "article",
      "imageMobile": "/sites/globe.com.ph/files/content/dam/globe/brie/AboutUs/newsroom/common/updated/Corporate-globe-primary-thumbnail-m.jpg",
      "imageDesktop": "/sites/globe.com.ph/files/content/dam/globe/brie/AboutUs/newsroom/common/updated/Corporate-globe-primary-thumbnail-d.jpg",
      "description": "Globe Telecom has teamed up with the Philippine Institute of Volcanology and Seismology in developing a database for 56 provinces. Learn more here.",
      "datePosted": "Nov 15, 2016 | 03:23 PM",
      "titleFromTag": "Corporate"
    },
    {
      "title": "Globe Telecom Acquires New Way to Market Your Brand via Video Push Notifications",
      "nonclickable": false,
      "openNewTab": false,
      "borderArticle": "border-color:#0074D9;",
      "borderTopArticle": "border-top-color:#0074D9;",
      "imageListing": "/sites/globe.com.ph/files/content/dam/globe/brie/AboutUs/newsroom/common/Corporate_Globe_Listing.jpg",
      "articleUrl": "https://www.globe.com.ph/about-us/newsroom/partners/globe-telecom-acquires-new-way.html",
      "columnType": "articles--type-3",
      "typeListing": "article",
      "imageMobile": "/sites/globe.com.ph/files/content/dam/globe/brie/AboutUs/newsroom/common/Corporate_Globe_Hero-Banner-Mobile.jpg",
      "imageDesktop": "/sites/globe.com.ph/files/content/dam/globe/brie/AboutUs/newsroom/common/Corporate_Globe_Primary-Desktop-Thumbnail.jpg",
      "description": "Globe and Incoming Media partners to bring quality user experience and increased engagement and monetization opportunities. Visit the Newsroom for more.",
      "datePosted": "Nov 14, 2016 | 03:04 PM",
      "titleFromTag": "Partners"
    },
    {
      "title": "Globe Business Surprises Enterprise Customers with a Special Viewing of Annie",
      "nonclickable": false,
      "openNewTab": false,
      "borderArticle": "border-color:#0074D9;",
      "borderTopArticle": "border-top-color:#0074D9;",
      "imageListing": "/sites/globe.com.ph/files/content/dam/globe/brie/AboutUs/newsroom/common/Corporate_Globe_Listing.jpg",
      "articleUrl": "https://www.globe.com.ph/about-us/newsroom/business/globe-business-surprises-enterprise-customers.html",
      "columnType": "articles--type-3",
      "typeListing": "article",
      "imageMobile": "/sites/globe.com.ph/files/content/dam/globe/brie/AboutUs/newsroom/common/Corporate_Globe_Hero-Banner-Mobile.jpg",
      "imageDesktop": "/sites/globe.com.ph/files/content/dam/globe/brie/AboutUs/newsroom/common/Corporate_Globe_Primary-Desktop-Thumbnail.jpg",
      "description": "Globe Business treated its valued enterprise customers to one of the world’s best-loved Broadway musicals. Visit the Newsroom for the latest news on Globe.",
      "datePosted": "Nov 14, 2016 | 02:18 PM",
      "titleFromTag": "Business"
    },
    {
      "title": "Globe, Cebuana Lhuillier, Mynt Sign Strategic Partnership for PH Financial Inclusion",
      "nonclickable": false,
      "openNewTab": false,
      "borderArticle": "border-color:#0074D9;",
      "borderTopArticle": "border-top-color:#0074D9;",
      "imageListing": "/sites/globe.com.ph/files/content/dam/globe/brie/AboutUs/newsroom/partners/Globe--Cebuana-Lhuillier--Mynt-sign-strategic-partnership-for-PH-financial-inclusion/partners-cebuana-mynt-partnershipthumbnail-listing.png",
      "articleUrl": "https://www.globe.com.ph/about-us/newsroom/partners/globe-cebuana-lhuillier-mynt-sign.html",
      "columnType": "articles--type-3",
      "typeListing": "article",
      "imageMobile": "/sites/globe.com.ph/files/content/dam/globe/brie/AboutUs/newsroom/partners/Globe--Cebuana-Lhuillier--Mynt-sign-strategic-partnership-for-PH-financial-inclusion/partners-cebuana-mynt-partnership-banner-m.png",
      "imageDesktop": "/sites/globe.com.ph/files/content/dam/globe/brie/AboutUs/newsroom/partners/Globe--Cebuana-Lhuillier--Mynt-sign-strategic-partnership-for-PH-financial-inclusion/partners-cebuana-mynt-partnership-primary-thumbnail.png",
      "description": "The partnership will provide convenient financial services to Filipinos, especially those in unbanked and underbanked communities. Learn more here.",
      "datePosted": "Nov 11, 2016 | 03:03 PM",
      "titleFromTag": "Partners"
    },
    {
      "title": "Hassle-free connectivity around the world with new Globe Easy Roam 149",
      "nonclickable": false,
      "openNewTab": false,
      "borderArticle": "border-color:#0074D9;",
      "borderTopArticle": "border-top-color:#0074D9;",
      "imageListing": "/sites/globe.com.ph/files/content/dam/globe/brie/AboutUs/newsroom/common/Corporate_Globe_Listing.jpg",
      "articleUrl": "https://www.globe.com.ph/about-us/newsroom/consumer/hassle-free-connectivity-around-the.html",
      "columnType": "articles--type-3",
      "typeListing": "article",
      "imageMobile": "/sites/globe.com.ph/files/content/dam/globe/brie/AboutUs/newsroom/common/Corporate_Globe_Hero-Banner-Mobile.jpg",
      "imageDesktop": "/sites/globe.com.ph/files/content/dam/globe/brie/AboutUs/newsroom/common/Corporate_Globe_Primary-Desktop-Thumbnail.jpg",
      "description": "Travellers now have a more affordable roaming service option with Globe Telecom’s new Easy Roam 149. Visit the Newsroom for the latest news on Globe Telecom.",
      "datePosted": "Nov 10, 2016 | 01:43 PM",
      "titleFromTag": "Consumer"
    },
    {
      "title": "Global Filipino School Program Reaches Aklan",
      "nonclickable": false,
      "openNewTab": false,
      "borderArticle": "border-color:#0074D9;",
      "borderTopArticle": "border-top-color:#0074D9;",
      "imageListing": "/sites/globe.com.ph/files/content/dam/globe/brie/AboutUs/newsroom/citizenship/Global-Filipino-School-program-reaches-Aklan/community-filipino-school-aklan-thumbnail-listing.png",
      "articleUrl": "https://www.globe.com.ph/about-us/newsroom/citizenship/global-filipino-school-program-reaches.html",
      "columnType": "articles--type-3",
      "typeListing": "article",
      "imageMobile": "/sites/globe.com.ph/files/content/dam/globe/brie/AboutUs/newsroom/citizenship/Global-Filipino-School-program-reaches-Aklan/community-filipino-school-aklan-banner-m.png",
      "imageDesktop": "/sites/globe.com.ph/files/content/dam/globe/brie/AboutUs/newsroom/citizenship/Global-Filipino-School-program-reaches-Aklan/community-filipino-school-aklan-primary-thumbnail.png",
      "description": "Aklan can now experience what it is like to be a “Global Filipino School” with its new Internet-connected computer laboratory. Visit Globe Newsroom for more.",
      "datePosted": "Nov 08, 2016 | 02:47 PM",
      "titleFromTag": "Citizenship"
    }
  ]
}
