{
  "status": 200,
  "page": 274,
  "totalPage": 298,
  "range": "3277-3288",
  "total": 3573,
  "result": [
    {
      "title": "Globe network investments to amplify benefits of new spectrum assets",
      "nonclickable": false,
      "openNewTab": false,
      "borderArticle": "border-color:#0074D9;",
      "borderTopArticle": "border-top-color:#0074D9;",
      "imageListing": "/sites/globe.com.ph/files/content/dam/globe/brie/AboutUs/newsroom/corporate/Globe-network-investments-to-amplify-benefits-of-new-spectrum-assets--continuously-enhance-mobile-network/corporate-enchance-mobile-network-thumbnail-listing.png",
      "articleUrl": "https://www.globe.com.ph/about-us/newsroom/corporate/globe-network-investments-to-amplify.html",
      "columnType": "articles--type-3",
      "typeListing": "article",
      "imageMobile": "/sites/globe.com.ph/files/content/dam/globe/brie/AboutUs/newsroom/corporate/Globe-network-investments-to-amplify-benefits-of-new-spectrum-assets--continuously-enhance-mobile-network/corporate-enchance-mobile-network-banner-m.png",
      "imageDesktop": "/sites/globe.com.ph/files/content/dam/globe/brie/AboutUs/newsroom/corporate/Globe-network-investments-to-amplify-benefits-of-new-spectrum-assets--continuously-enhance-mobile-network/corporate-enchance-mobile-network-primary-thumbnail.png",
      "description": "Globe Telecom's additional network investments will further enhance its mobile services, particularly for data, utilizing new spectrum assets.",
      "datePosted": "Nov 08, 2016 | 12:52 PM",
      "titleFromTag": "Corporate"
    },
    {
      "title": "Globe Telecom board approves 4Q P22/share cash dividend",
      "nonclickable": false,
      "openNewTab": false,
      "borderArticle": "border-color:#0074D9;",
      "borderTopArticle": "border-top-color:#0074D9;",
      "imageListing": "/sites/globe.com.ph/files/content/dam/globe/brie/AboutUs/newsroom/common/Corporate_Globe_Listing.jpg",
      "articleUrl": "https://www.globe.com.ph/about-us/newsroom/corporate/globe-telecom-board-approves-4q.html",
      "columnType": "articles--type-3",
      "typeListing": "article",
      "imageMobile": "/sites/globe.com.ph/files/content/dam/globe/brie/AboutUs/newsroom/common/Corporate_Globe_Hero-Banner-Mobile.jpg",
      "imageDesktop": "/sites/globe.com.ph/files/content/dam/globe/brie/AboutUs/newsroom/common/Corporate_Globe_Primary-Desktop-Thumbnail.jpg",
      "description": "Globe’s latest cash dividend payout brings the total dividends for 2016 to P88 per common share. Visit the Globe Newsroom for the latest news on Globe Telecom.",
      "datePosted": "Nov 08, 2016 | 12:52 PM",
      "titleFromTag": "Corporate"
    },
    {
      "title": "Globe 9-month revenues sustain growth momentum; up 7% at P89.1 Bln",
      "nonclickable": false,
      "openNewTab": false,
      "borderArticle": "border-color:#0074D9;",
      "borderTopArticle": "border-top-color:#0074D9;",
      "imageListing": "/sites/globe.com.ph/files/content/dam/globe/brie/AboutUs/newsroom/common/Corporate_Globe_Listing.jpg",
      "articleUrl": "https://www.globe.com.ph/about-us/newsroom/corporate/globe-9-month-revenues-sustain.html",
      "columnType": "articles--type-3",
      "typeListing": "article",
      "imageMobile": "/sites/globe.com.ph/files/content/dam/globe/brie/AboutUs/newsroom/common/Corporate_Globe_Hero-Banner-Mobile.jpg",
      "imageDesktop": "/sites/globe.com.ph/files/content/dam/globe/brie/AboutUs/newsroom/common/Corporate_Globe_Primary-Desktop-Thumbnail.jpg",
      "description": "Globe Telecom’s consolidated service revenues at Php89.1 billion, up by 7% versus 2015, for first 9 months of 2016. Visit the Globe Newsroom for more.",
      "datePosted": "Nov 07, 2016 | 12:51 PM",
      "titleFromTag": "Corporate"
    },
    {
      "title": "Menken & Ahrens’ A Christmas Carol Takes Center Stage at the Globe ICONIC Store this December",
      "nonclickable": false,
      "openNewTab": false,
      "borderArticle": "border-color:#0074D9;",
      "borderTopArticle": "border-top-color:#0074D9;",
      "imageListing": "/sites/globe.com.ph/files/content/dam/globe/brie/AboutUs/newsroom/partners/Menken---Ahrens--A-Christmas-Carol-takes-center-stage-at-the-Globe-ICONIC-Store-this-December/partners-a-christmas-carol-thumbnail-listing.png",
      "articleUrl": "https://www.globe.com.ph/about-us/newsroom/partners/menken-ahrens-a-christmas-carol.html",
      "columnType": "articles--type-3",
      "typeListing": "article",
      "imageMobile": "/sites/globe.com.ph/files/content/dam/globe/brie/AboutUs/newsroom/partners/Menken---Ahrens--A-Christmas-Carol-takes-center-stage-at-the-Globe-ICONIC-Store-this-December/partners-a-christmas-carol-banner-m.png",
      "imageDesktop": "/sites/globe.com.ph/files/content/dam/globe/brie/AboutUs/newsroom/partners/Menken---Ahrens--A-Christmas-Carol-takes-center-stage-at-the-Globe-ICONIC-Store-this-December/partners-a-christmas-carol-primary-thumbnail.png",
      "description": "Globe LIVE brings the world famous Menken & Ahrens’ play for Filipinos this Christmas. Visit the Globe Newsroom for the latest news on Globe Telecom.",
      "datePosted": "Nov 03, 2016 | 03:04 PM",
      "titleFromTag": "Partners"
    },
    {
      "title": "Globe Telecom, The Pokémon Company and Niantic, Inc. Enhance The Pokémon GO Experience for Filipino Gamers",
      "nonclickable": false,
      "openNewTab": false,
      "borderArticle": "border-color:#0074D9;",
      "borderTopArticle": "border-top-color:#0074D9;",
      "imageListing": "/sites/globe.com.ph/files/content/dam/globe/brie/AboutUs/newsroom/common/Corporate_Globe_Listing.jpg",
      "articleUrl": "https://www.globe.com.ph/about-us/newsroom/consumer/globe-telecom-the-pokemon-company.html",
      "columnType": "articles--type-3",
      "typeListing": "article",
      "imageMobile": "/sites/globe.com.ph/files/content/dam/globe/brie/AboutUs/newsroom/common/Corporate_Globe_Hero-Banner-Mobile.jpg",
      "imageDesktop": "/sites/globe.com.ph/files/content/dam/globe/brie/AboutUs/newsroom/common/Corporate_Globe_Primary-Desktop-Thumbnail.jpg",
      "description": "The collaboration brings new PokéStops and Gyms along with more Globe venue partners. Visit the Globe Newsroom for the latest news on Globe Telecom.",
      "datePosted": "Oct 28, 2016 | 01:42 PM",
      "titleFromTag": "Consumer"
    },
    {
      "title": "Globe Telecom to start accepting reservations for iPhone 7 and iPhone 7 Plus starting October 28, 2016",
      "nonclickable": false,
      "openNewTab": false,
      "borderArticle": "border-color:#0074D9;",
      "borderTopArticle": "border-top-color:#0074D9;",
      "imageListing": "/sites/globe.com.ph/files/content/dam/globe/brie/AboutUs/newsroom/common/Corporate_Globe_Listing.jpg",
      "articleUrl": "https://www.globe.com.ph/about-us/newsroom/consumer/globe-telecom-to-start-accepting.html",
      "columnType": "articles--type-3",
      "typeListing": "article",
      "imageMobile": "/sites/globe.com.ph/files/content/dam/globe/brie/AboutUs/newsroom/common/Corporate_Globe_Hero-Banner-Mobile.jpg",
      "imageDesktop": "/sites/globe.com.ph/files/content/dam/globe/brie/AboutUs/newsroom/common/Corporate_Globe_Primary-Desktop-Thumbnail.jpg",
      "description": "The new Apple smartphones will be available through the Globe myLifestyle Plans. Visit the Globe Newsroom for the latest news on Globe Telecom.",
      "datePosted": "Oct 28, 2016 | 01:42 PM",
      "titleFromTag": "Consumer"
    },
    {
      "title": "Globe underscores need for government support in building telco infrastructure",
      "nonclickable": false,
      "openNewTab": false,
      "borderArticle": "border-color:#0074D9;",
      "borderTopArticle": "border-top-color:#0074D9;",
      "imageListing": "/sites/globe.com.ph/files/content/dam/globe/brie/AboutUs/newsroom/corporate/Globe-underscores-need-for-government-support-in-building-telco-infrastructure/corporate-globe-support-infrastracture-thumbnail-listing.png",
      "articleUrl": "https://www.globe.com.ph/about-us/newsroom/corporate/globe-underscores-need-for-government.html",
      "columnType": "articles--type-3",
      "typeListing": "article",
      "imageMobile": "/sites/globe.com.ph/files/content/dam/globe/brie/AboutUs/newsroom/corporate/Globe-underscores-need-for-government-support-in-building-telco-infrastructure/corporate-globe-support-infrastracture-banner-m.png",
      "imageDesktop": "/sites/globe.com.ph/files/content/dam/globe/brie/AboutUs/newsroom/corporate/corporate-RD/Corporate_RD_Primary-Thumbnail.jpg",
      "description": "Globe is part of the Philippine Trade Summit panel discussion organized by the British Chamber of Commerce Philippines. Visit the Globe Newsroom for details.",
      "datePosted": "Oct 28, 2016 | 12:51 PM",
      "titleFromTag": "Corporate"
    },
    {
      "title": "Globe, Molave App Challenge Cebu 2016: Helping Children Read and Write in Cebuano",
      "nonclickable": false,
      "openNewTab": false,
      "borderArticle": "border-color:#0074D9;",
      "borderTopArticle": "border-top-color:#0074D9;",
      "imageListing": "/sites/globe.com.ph/files/content/dam/globe/brie/AboutUs/newsroom/common/Corporate_Globe_Listing.jpg",
      "articleUrl": "https://www.globe.com.ph/about-us/newsroom/partners/globe-molave-app-challenge-cebu.html",
      "columnType": "articles--type-3",
      "typeListing": "article",
      "imageMobile": "/sites/globe.com.ph/files/content/dam/globe/brie/AboutUs/newsroom/common/Corporate_Globe_Hero-Banner-Mobile.jpg",
      "imageDesktop": "/sites/globe.com.ph/files/content/dam/globe/brie/AboutUs/newsroom/common/Corporate_Globe_Primary-Desktop-Thumbnail.jpg",
      "description": "Globe Telecom, with Molave Development Foundation, aims to address a challenge faced by students and teachers nationwide. Visit the Globe Newsroom for details.",
      "datePosted": "Oct 27, 2016 | 03:01 PM",
      "titleFromTag": "Partners"
    },
    {
      "title": "Globe and NBA Provide Enhanced NBA App User Experience Ahead of 2016-17 Season",
      "nonclickable": false,
      "openNewTab": false,
      "borderArticle": "border-color:#0074D9;",
      "borderTopArticle": "border-top-color:#0074D9;",
      "imageListing": "/sites/globe.com.ph/files/content/dam/globe/brie/AboutUs/newsroom/common/Corporate_Globe_Listing.jpg",
      "articleUrl": "https://www.globe.com.ph/about-us/newsroom/consumer/globe-and-nba-provide-enhanced.html",
      "columnType": "articles--type-3",
      "typeListing": "article",
      "imageMobile": "/sites/globe.com.ph/files/content/dam/globe/brie/AboutUs/newsroom/common/Corporate_Globe_Hero-Banner-Mobile.jpg",
      "imageDesktop": "/sites/globe.com.ph/files/content/dam/globe/brie/AboutUs/newsroom/common/Corporate_Globe_Primary-Desktop-Thumbnail.jpg",
      "description": "The NBA and Globe Telecom, the League’s official wireless/broadband services partner, has updated the NBA app experience for sports fans watching the NBA live.",
      "datePosted": "Oct 27, 2016 | 01:41 PM",
      "titleFromTag": "Consumer"
    },
    {
      "title": "The Pokémon Company and Niantic, Inc. Announce Pokémon GO Partnership With Globe Telecom",
      "nonclickable": false,
      "openNewTab": false,
      "borderArticle": "border-color:#0074D9;",
      "borderTopArticle": "border-top-color:#0074D9;",
      "imageListing": "/sites/globe.com.ph/files/content/dam/globe/brie/AboutUs/newsroom/common/Corporate_Globe_Listing.jpg",
      "articleUrl": "https://www.globe.com.ph/about-us/newsroom/consumer/the-pokemon-company-and-niantic.html",
      "columnType": "articles--type-3",
      "typeListing": "article",
      "imageMobile": "/sites/globe.com.ph/files/content/dam/globe/brie/AboutUs/newsroom/common/Corporate_Globe_Hero-Banner-Mobile.jpg",
      "imageDesktop": "/sites/globe.com.ph/files/content/dam/globe/brie/AboutUs/newsroom/common/Corporate_Globe_Primary-Desktop-Thumbnail.jpg",
      "description": "Globe’s Pokemon GO partnership kicks-off with first Pokémon Festival on October 28, 2016. Visit the Globe Newsroom for the latest updates on Globe Telecom.",
      "datePosted": "Oct 27, 2016 | 01:41 PM",
      "titleFromTag": "Consumer"
    },
    {
      "title": "Globe Lifestyle Launches 1st Apparel Lineup with 0917 & Pop Art Collections",
      "nonclickable": false,
      "openNewTab": false,
      "borderArticle": "border-color:#0074D9;",
      "borderTopArticle": "border-top-color:#0074D9;",
      "imageListing": "/sites/globe.com.ph/files/content/dam/globe/brie/AboutUs/newsroom/common/Corporate_Globe_Listing.jpg",
      "articleUrl": "https://www.globe.com.ph/about-us/newsroom/partners/globe-lifestyle-launches-1.html",
      "columnType": "articles--type-3",
      "typeListing": "article",
      "imageMobile": "/sites/globe.com.ph/files/content/dam/globe/brie/AboutUs/newsroom/common/Corporate_Globe_Hero-Banner-Mobile.jpg",
      "imageDesktop": "/sites/globe.com.ph/files/content/dam/globe/brie/AboutUs/newsroom/common/Corporate_Globe_Primary-Desktop-Thumbnail.jpg",
      "description": "In celebration of the annual 0917 fest, Globe launches its new collections of lifestyle apparel and accessories. Visit the Globe Newsroom for details.",
      "datePosted": "Oct 26, 2016 | 03:01 PM",
      "titleFromTag": "Partners"
    },
    {
      "title": "Globe rolls out fiber broadband internet connection in public schools",
      "nonclickable": false,
      "openNewTab": false,
      "borderArticle": "border-color:#0074D9;",
      "borderTopArticle": "border-top-color:#0074D9;",
      "imageListing": "/sites/globe.com.ph/files/content/dam/globe/brie/AboutUs/newsroom/common/Corporate_Globe_Listing.jpg",
      "articleUrl": "https://www.globe.com.ph/about-us/newsroom/sustainability/globe-rolls-out-fiber-broadband.html",
      "columnType": "articles--type-3",
      "typeListing": "article",
      "imageMobile": "/sites/globe.com.ph/files/content/dam/globe/brie/AboutUs/newsroom/common/Corporate_Globe_Hero-Banner-Mobile.jpg",
      "imageDesktop": "/sites/globe.com.ph/files/content/dam/globe/brie/AboutUs/newsroom/common/Corporate_Globe_Primary-Desktop-Thumbnail.jpg",
      "description": "In line with its vision of the Philippines becoming a digital nation by 2020, Globe Telecom encourages the adoption and application of technology in classrooms.",
      "datePosted": "Oct 24, 2016 | 03:22 PM",
      "titleFromTag": "Sustainability"
    }
  ]
}
