{
  "status": 200,
  "page": 277,
  "totalPage": 298,
  "range": "3313-3324",
  "total": 3573,
  "result": [
    {
      "title": "500 public areas now with FREE high speed WiFi",
      "nonclickable": false,
      "openNewTab": false,
      "borderArticle": "border-color:#0074D9;",
      "borderTopArticle": "border-top-color:#0074D9;",
      "imageListing": "/sites/globe.com.ph/files/content/dam/globe/brie/AboutUs/newsroom/common/Corporate_Globe_Listing.jpg",
      "articleUrl": "https://www.globe.com.ph/about-us/newsroom/sustainability/500-public-areas-now-with.html",
      "columnType": "articles--type-3",
      "typeListing": "article",
      "imageMobile": "/sites/globe.com.ph/files/content/dam/globe/brie/AboutUs/newsroom/common/Corporate_Globe_Hero-Banner-Mobile.jpg",
      "imageDesktop": "/sites/globe.com.ph/files/content/dam/globe/brie/AboutUs/newsroom/common/Corporate_Globe_Primary-Desktop-Thumbnail.jpg",
      "description": "Globe Telecom’s premium open national WiFi network is now serving speeds of up to 100Mbp. Read the full story on the Globe Newsroom.",
      "datePosted": "Sep 28, 2016 | 03:25 PM",
      "titleFromTag": "Sustainability"
    },
    {
      "title": "500 public areas now with FREE high speed WiFi",
      "nonclickable": false,
      "openNewTab": false,
      "borderArticle": "border-color:#0074D9;",
      "borderTopArticle": "border-top-color:#0074D9;",
      "imageListing": "/sites/globe.com.ph/files/content/dam/globe/brie/AboutUs/newsroom/common/Corporate_Globe_Listing.jpg",
      "articleUrl": "https://www.globe.com.ph/about-us/newsroom/consumer/500-public-areas-now-with.html",
      "columnType": "articles--type-3",
      "typeListing": "article",
      "imageMobile": "/sites/globe.com.ph/files/content/dam/globe/brie/AboutUs/newsroom/common/Corporate_Globe_Hero-Banner-Mobile.jpg",
      "imageDesktop": "/sites/globe.com.ph/files/content/dam/globe/brie/AboutUs/newsroom/common/Corporate_Globe_Primary-Desktop-Thumbnail.jpg",
      "description": "Globe Telecom has been continuously helping Filipinos expand their digital lifestyle needs. Visit the Globe Newsroom for the latest news on Globe Telecom.",
      "datePosted": "Sep 28, 2016 | 01:06 PM",
      "titleFromTag": "Consumer"
    },
    {
      "title": "Globe Broadband lets you relive your favorite Netflix Originals at Flick Street",
      "nonclickable": false,
      "openNewTab": false,
      "borderArticle": "border-color:#0074D9;",
      "borderTopArticle": "border-top-color:#0074D9;",
      "imageListing": "/sites/globe.com.ph/files/content/dam/globe/brie/AboutUs/newsroom/common/Corporate_Globe_Listing.jpg",
      "articleUrl": "https://www.globe.com.ph/about-us/newsroom/consumer/globe-broadband-lets-you-relive.html",
      "columnType": "articles--type-3",
      "typeListing": "article",
      "imageMobile": "/sites/globe.com.ph/files/content/dam/globe/brie/AboutUs/newsroom/common/Corporate_Globe_Hero-Banner-Mobile.jpg",
      "imageDesktop": "/sites/globe.com.ph/files/content/dam/globe/brie/AboutUs/newsroom/common/Corporate_Globe_Primary-Desktop-Thumbnail.jpg",
      "description": "Globe Broadband announced one of its biggest content partners to date, Netflix. Visit the Globe Newsroom for the latest news on Globe Telecom.",
      "datePosted": "Sep 28, 2016 | 01:06 PM",
      "titleFromTag": "Consumer"
    },
    {
      "title": "Globe drive versus unauthorized signal boosters yields arrest of illegal seller",
      "nonclickable": false,
      "openNewTab": false,
      "borderArticle": "border-color:#0074D9;",
      "borderTopArticle": "border-top-color:#0074D9;",
      "imageListing": "/sites/globe.com.ph/files/content/dam/globe/brie/AboutUs/newsroom/common/Corporate_Globe_Listing.jpg",
      "articleUrl": "https://www.globe.com.ph/about-us/newsroom/corporate/globe-drive-versus-unauthorized-signal.html",
      "columnType": "articles--type-3",
      "typeListing": "article",
      "imageMobile": "/sites/globe.com.ph/files/content/dam/globe/brie/AboutUs/newsroom/common/Corporate_Globe_Hero-Banner-Mobile.jpg",
      "imageDesktop": "/sites/globe.com.ph/files/content/dam/globe/brie/AboutUs/newsroom/common/Corporate_Globe_Primary-Desktop-Thumbnail.jpg",
      "description": "A campaign against the use of illegal repeater leads to arrest. Visit the Globe Newsroom for the latest news on Globe Telecom.",
      "datePosted": "Sep 28, 2016 | 11:55 AM",
      "titleFromTag": "Corporate"
    },
    {
      "title": "Globe myBusiness launches all-in-one online shopping experience with Shopify",
      "nonclickable": false,
      "openNewTab": false,
      "borderArticle": "border-color:#0074D9;",
      "borderTopArticle": "border-top-color:#0074D9;",
      "imageListing": "/sites/globe.com.ph/files/content/dam/globe/brie/AboutUs/newsroom/common/Corporate_Globe_Hero-Banner-Mobile.jpg",
      "articleUrl": "https://www.globe.com.ph/about-us/newsroom/business/globe-mybusiness-launches-more-complete.html",
      "columnType": "articles--type-3",
      "typeListing": "article",
      "imageMobile": "/sites/globe.com.ph/files/content/dam/globe/brie/AboutUs/newsroom/common/Corporate_Globe_Hero-Banner-Mobile.jpg",
      "imageDesktop": "/sites/globe.com.ph/files/content/dam/globe/brie/AboutUs/newsroom/common/Corporate_Globe_Primary-Desktop-Thumbnail.jpg",
      "description": "Globe myBusiness launches more complete online shopping experience with new Shopify partners. Visit the Globe Newsroom for the latest news on Globe Telecom.",
      "datePosted": "Sep 26, 2016 | 01:54 PM",
      "titleFromTag": "Business"
    },
    {
      "title": "Globe Telecom completes TV white space trials to improve internet connectivity",
      "nonclickable": false,
      "openNewTab": false,
      "borderArticle": "border-color:#0074D9;",
      "borderTopArticle": "border-top-color:#0074D9;",
      "imageListing": "/sites/globe.com.ph/files/content/dam/globe/brie/AboutUs/newsroom/common/Corporate_Globe_Listing.jpg",
      "articleUrl": "https://www.globe.com.ph/about-us/newsroom/sustainability/globe-telecom-completes-tv-white.html",
      "columnType": "articles--type-3",
      "typeListing": "article",
      "imageMobile": "/sites/globe.com.ph/files/content/dam/globe/brie/AboutUs/newsroom/common/Corporate_Globe_Hero-Banner-Mobile.jpg",
      "imageDesktop": "/sites/globe.com.ph/files/content/dam/globe/brie/AboutUs/newsroom/common/Corporate_Globe_Primary-Desktop-Thumbnail.jpg",
      "description": "Trials were successfully completed by Globe, the first telecom company to adopt the TV white space frequency for broadband use. Read the full story here",
      "datePosted": "Sep 24, 2016 | 03:28 PM",
      "titleFromTag": "Sustainability"
    },
    {
      "title": "Globe Telecom joins sustainable global companies with its new purpose",
      "nonclickable": false,
      "openNewTab": false,
      "borderArticle": "border-color:#0074D9;",
      "borderTopArticle": "border-top-color:#0074D9;",
      "imageListing": "/sites/globe.com.ph/files/content/dam/globe/brie/AboutUs/newsroom/common/Corporate_Globe_Listing.jpg",
      "articleUrl": "https://www.globe.com.ph/about-us/newsroom/sustainability/globe-telecom-joins-sustainable-global.html",
      "columnType": "articles--type-3",
      "typeListing": "article",
      "imageMobile": "/sites/globe.com.ph/files/content/dam/globe/brie/AboutUs/newsroom/common/Corporate_Globe_Hero-Banner-Mobile.jpg",
      "imageDesktop": "/sites/globe.com.ph/files/content/dam/globe/brie/AboutUs/newsroom/common/Corporate_Globe_Primary-Desktop-Thumbnail.jpg",
      "description": "Globe hopes to fulfill its vision by creating wonderful experiences to help its customers overcome challenges and discover new ways to enjoy life.",
      "datePosted": "Sep 24, 2016 | 03:08 PM",
      "titleFromTag": "Sustainability"
    },
    {
      "title": "Globe Platinum unveils exclusive pieces at PH’s largest auction event",
      "nonclickable": false,
      "openNewTab": false,
      "borderArticle": "border-color:#0074D9;",
      "borderTopArticle": "border-top-color:#0074D9;",
      "imageListing": "/sites/globe.com.ph/files/content/dam/globe/brie/AboutUs/newsroom/common/Corporate_Globe_Listing.jpg",
      "articleUrl": "https://www.globe.com.ph/about-us/newsroom/consumer/globe-platinum-unveils-exclusive.html",
      "columnType": "articles--type-3",
      "typeListing": "article",
      "imageMobile": "/sites/globe.com.ph/files/content/dam/globe/brie/AboutUs/newsroom/common/Corporate_Globe_Hero-Banner-Mobile.jpg",
      "imageDesktop": "/sites/globe.com.ph/files/content/dam/globe/brie/AboutUs/newsroom/common/Corporate_Globe_Primary-Desktop-Thumbnail.jpg",
      "description": "Globe Platinum gave its customers another exclusive experience as it participated in the country’s largest auction event. Visit the Globe Newsroom for more.",
      "datePosted": "Sep 20, 2016 | 01:08 PM",
      "titleFromTag": "Consumer"
    },
    {
      "title": "Green Day’s American Idiot garners 10 citations from esteemed 2016 Philstage Gawad Buhay",
      "nonclickable": false,
      "openNewTab": false,
      "borderArticle": "border-color:#0074D9;",
      "borderTopArticle": "border-top-color:#0074D9;",
      "imageListing": "/sites/globe.com.ph/files/content/dam/globe/brie/AboutUs/newsroom/common/Corporate_Globe_Listing.jpg",
      "articleUrl": "https://www.globe.com.ph/about-us/newsroom/corporate/green-days-american-idiot-garners.html",
      "columnType": "articles--type-3",
      "typeListing": "article",
      "imageMobile": "/sites/globe.com.ph/files/content/dam/globe/brie/AboutUs/newsroom/common/Corporate_Globe_Hero-Banner-Mobile.jpg",
      "imageDesktop": "/sites/globe.com.ph/files/content/dam/globe/brie/AboutUs/newsroom/common/Corporate_Globe_Primary-Desktop-Thumbnail.jpg",
      "description": "The Philippine production is nominated for the midyear citations of Gawad Buhay, an award giving body for the performing arts. Visit Globe Newsroom for details.",
      "datePosted": "Sep 20, 2016 | 11:56 AM",
      "titleFromTag": "Corporate"
    },
    {
      "title": "Globe expansion of network infrastructure, capacity at full throttle",
      "nonclickable": false,
      "openNewTab": false,
      "borderArticle": "border-color:#0074D9;",
      "borderTopArticle": "border-top-color:#0074D9;",
      "imageListing": "/sites/globe.com.ph/files/content/dam/globe/brie/AboutUs/newsroom/common/Corporate_Globe_Listing.jpg",
      "articleUrl": "https://www.globe.com.ph/about-us/newsroom/corporate/globe-expansion-of-network-infrastructure.html",
      "columnType": "articles--type-3",
      "typeListing": "article",
      "imageMobile": "/sites/globe.com.ph/files/content/dam/globe/brie/AboutUs/newsroom/common/Corporate_Globe_Hero-Banner-Mobile.jpg",
      "imageDesktop": "/sites/globe.com.ph/files/content/dam/globe/brie/AboutUs/newsroom/common/Corporate_Globe_Primary-Desktop-Thumbnail.jpg",
      "description": "In line with the company’s new vision of the Philippines having 1st world internet connectivity. Visit the Globe Newsroom for the latest news on Globe Telecom.",
      "datePosted": "Sep 19, 2016 | 11:57 AM",
      "titleFromTag": "Corporate"
    },
    {
      "title": "Globe seeks to step up DPWH collaboration to minimize fiber cut incidents",
      "nonclickable": false,
      "openNewTab": false,
      "borderArticle": "border-color:#0074D9;",
      "borderTopArticle": "border-top-color:#0074D9;",
      "imageListing": "/sites/globe.com.ph/files/content/dam/globe/brie/AboutUs/newsroom/common/Corporate_Globe_Listing.jpg",
      "articleUrl": "https://www.globe.com.ph/about-us/newsroom/corporate/globe-seeks-to-step-up.html",
      "columnType": "articles--type-3",
      "typeListing": "article",
      "imageMobile": "/sites/globe.com.ph/files/content/dam/globe/brie/AboutUs/newsroom/common/Corporate_Globe_Hero-Banner-Mobile.jpg",
      "imageDesktop": "/sites/globe.com.ph/files/content/dam/globe/brie/AboutUs/newsroom/common/Corporate_Globe_Primary-Desktop-Thumbnail.jpg",
      "description": "The company aims to avoid cable incidents leading to major network disruption affecting call, text, and internet services. Read more on the Globe Newsroom.",
      "datePosted": "Sep 18, 2016 | 11:57 AM",
      "titleFromTag": "Corporate"
    },
    {
      "title": "Globe and Kiva create sustainable livelihood opportunities for underserved PH population",
      "nonclickable": false,
      "openNewTab": false,
      "borderArticle": "border-color:#0074D9;",
      "borderTopArticle": "border-top-color:#0074D9;",
      "imageListing": "/sites/globe.com.ph/files/content/dam/globe/brie/AboutUs/newsroom/sustainability/Globe-and-Kiva-create-sustainable-livelihood-opportunities-for-underserved-PH-population/partners-globe-partners-kiva-thumbnail-listing.png",
      "articleUrl": "https://www.globe.com.ph/about-us/newsroom/sustainability/globe-and-kiva-create-sustainable.html",
      "columnType": "articles--type-3",
      "typeListing": "article",
      "imageMobile": "/sites/globe.com.ph/files/content/dam/globe/brie/AboutUs/newsroom/sustainability/Globe-and-Kiva-create-sustainable-livelihood-opportunities-for-underserved-PH-population/partners-globe-partners-kiva-banner-m.png",
      "imageDesktop": "/sites/globe.com.ph/files/content/dam/globe/brie/AboutUs/newsroom/sustainability/Globe-and-Kiva-create-sustainable-livelihood-opportunities-for-underserved-PH-population/partners-globe-partners-kiva-primary-thumbnail.png",
      "description": "The partnership enables Filipinos to support their marginalized micro-entrepreneur fellowmen. Visit the Globe Newsroom for the latest news on Globe Telecom.",
      "datePosted": "Sep 14, 2016 | 03:21 PM",
      "titleFromTag": "Sustainability"
    }
  ]
}
