{
  "status": 200,
  "page": 278,
  "totalPage": 298,
  "range": "3325-3336",
  "total": 3573,
  "result": [
    {
      "title": "One-of-a-kind venue experience at Globe ICONIC entertainment zone",
      "nonclickable": false,
      "openNewTab": false,
      "borderArticle": "border-color:#0074D9;",
      "borderTopArticle": "border-top-color:#0074D9;",
      "imageListing": "/sites/globe.com.ph/files/content/dam/globe/brie/AboutUs/newsroom/common/Corporate_Globe_Listing.jpg",
      "articleUrl": "https://www.globe.com.ph/about-us/newsroom/consumer/one-of-a-kind-venue.html",
      "columnType": "articles--type-3",
      "typeListing": "article",
      "imageMobile": "/sites/globe.com.ph/files/content/dam/globe/brie/AboutUs/newsroom/common/Corporate_Globe_Hero-Banner-Mobile.jpg",
      "imageDesktop": "/sites/globe.com.ph/files/content/dam/globe/brie/AboutUs/newsroom/common/Corporate_Globe_Primary-Desktop-Thumbnail.jpg",
      "description": "The ICONIC store is revolutionizing the Philippine retail and entertainment industry. Visit the Globe Newsroom for the latest news on Globe Telecom.",
      "datePosted": "Sep 14, 2016 | 01:07 PM",
      "titleFromTag": "Consumer"
    },
    {
      "title": "Globe Business hosts the first Ayala Land-Globe Golf Dual Meet Tournament",
      "nonclickable": false,
      "openNewTab": false,
      "borderArticle": "border-color:#0074D9;",
      "borderTopArticle": "border-top-color:#0074D9;",
      "imageListing": "/sites/globe.com.ph/files/content/dam/globe/brie/AboutUs/newsroom/common/Corporate_Globe_Listing.jpg",
      "articleUrl": "https://www.globe.com.ph/about-us/newsroom/business/globe-business-hosts-the-first-ayala-land-globe-golf-dual-meet-t.html",
      "columnType": "articles--type-3",
      "typeListing": "article",
      "imageMobile": "/sites/globe.com.ph/files/content/dam/globe/brie/AboutUs/newsroom/common/Corporate_Globe_Hero-Banner-Mobile.jpg",
      "imageDesktop": "/sites/globe.com.ph/files/content/dam/globe/brie/AboutUs/newsroom/common/Corporate_Globe_Primary-Desktop-Thumbnail.jpg",
      "description": "Globe Chief Technology Officer and Information Officer Gil Genio delivering a special message",
      "datePosted": "Sep 13, 2016 | 01:53 PM",
      "titleFromTag": "Business"
    },
    {
      "title": "Globe pioneers first online film festival in the Philippines with GIFF",
      "nonclickable": false,
      "openNewTab": false,
      "borderArticle": "border-color:#0074D9;",
      "borderTopArticle": "border-top-color:#0074D9;",
      "imageListing": "/sites/globe.com.ph/files/content/dam/globe/brie/AboutUs/newsroom/common/Corporate_Globe_Listing.jpg",
      "articleUrl": "https://www.globe.com.ph/about-us/newsroom/consumer/globe-pioneers-first-online-film-festival-in-the-philippines-wit.html",
      "columnType": "articles--type-3",
      "typeListing": "article",
      "imageMobile": "/sites/globe.com.ph/files/content/dam/globe/brie/AboutUs/newsroom/common/Corporate_Globe_Hero-Banner-Mobile.jpg",
      "imageDesktop": "/sites/globe.com.ph/files/content/dam/globe/brie/AboutUs/newsroom/common/Corporate_Globe_Primary-Desktop-Thumbnail.jpg",
      "description": "Globe launched the Globe Independent Film Festival. Visit the Globe Newsroom for the latest news on Globe Telecom.",
      "datePosted": "Sep 13, 2016 | 01:04 PM",
      "titleFromTag": "Consumer"
    },
    {
      "title": "Double the fun with more rewards points for Globe customers this September",
      "nonclickable": false,
      "openNewTab": false,
      "borderArticle": "border-color:#0074D9;",
      "borderTopArticle": "border-top-color:#0074D9;",
      "imageListing": "/sites/globe.com.ph/files/content/dam/globe/brie/AboutUs/newsroom/common/Corporate_Globe_Listing.jpg",
      "articleUrl": "https://www.globe.com.ph/about-us/newsroom/consumer/double-the-fun-with-more-rewards-points-for-globe-customers-this.html",
      "columnType": "articles--type-3",
      "typeListing": "article",
      "imageMobile": "/sites/globe.com.ph/files/content/dam/globe/brie/AboutUs/newsroom/common/Corporate_Globe_Hero-Banner-Mobile.jpg",
      "imageDesktop": "/sites/globe.com.ph/files/content/dam/globe/brie/AboutUs/newsroom/common/Corporate_Globe_Primary-Desktop-Thumbnail.jpg",
      "description": "Globe customers are in for a lot of special treats. Visit the Globe Newsroom for the latest news on Globe Telecom.",
      "datePosted": "Sep 13, 2016 | 01:03 PM",
      "titleFromTag": "Consumer"
    },
    {
      "title": "Globe, Davao City collaborate to address peace and order concerns",
      "nonclickable": false,
      "openNewTab": false,
      "borderArticle": "border-color:#0074D9;",
      "borderTopArticle": "border-top-color:#0074D9;",
      "imageListing": "/sites/globe.com.ph/files/content/dam/globe/brie/AboutUs/newsroom/common/Corporate_Globe_Listing.jpg",
      "articleUrl": "https://www.globe.com.ph/about-us/newsroom/corporate/globe-davao-city-collaborate-address-peace-and-order-concerns.html",
      "columnType": "articles--type-3",
      "typeListing": "article",
      "imageMobile": "/sites/globe.com.ph/files/content/dam/globe/brie/AboutUs/newsroom/common/Corporate_Globe_Hero-Banner-Mobile.jpg",
      "imageDesktop": "/sites/globe.com.ph/files/content/dam/globe/brie/AboutUs/newsroom/common/Corporate_Globe_Primary-Desktop-Thumbnail.jpg",
      "description": "Globe Telecom and the Davao City government are collaborating to help improve the peace and order situation in the city by putting in a place a hotline, 0917-Duterte (0917-3883783), to receive calls",
      "datePosted": "Sep 13, 2016 | 11:53 AM",
      "titleFromTag": "Corporate"
    },
    {
      "title": "Globe Telecom promo registration number changed to 8080",
      "nonclickable": false,
      "openNewTab": false,
      "borderArticle": "border-color:#0074D9;",
      "borderTopArticle": "border-top-color:#0074D9;",
      "imageListing": "/sites/globe.com.ph/files/content/dam/globe/brie/AboutUs/newsroom/common/Corporate_Globe_Listing.jpg",
      "articleUrl": "https://www.globe.com.ph/about-us/newsroom/consumer/globe-telecom-promo-registration-number-changed-to-8080.html",
      "columnType": "articles--type-3",
      "typeListing": "article",
      "imageMobile": "/sites/globe.com.ph/files/content/dam/globe/brie/AboutUs/newsroom/common/Corporate_Globe_Hero-Banner-Mobile.jpg",
      "imageDesktop": "/sites/globe.com.ph/files/content/dam/globe/brie/AboutUs/newsroom/common/Corporate_Globe_Primary-Desktop-Thumbnail.jpg",
      "description": "Globe postpaid and prepaid mobile customers may use 8080 in sending promo registrations. Visit the Globe Newsroom for the latest news on Globe Telecom.",
      "datePosted": "Sep 08, 2016 | 01:03 PM",
      "titleFromTag": "Consumer"
    },
    {
      "title": "Basilan Kid, 11 Other Young Football Aspirants to Represent PH in Astro Kem Bola Training Camp in Kuala Lumpur, Malaysia",
      "nonclickable": false,
      "openNewTab": false,
      "borderArticle": "border-color:#0074D9;",
      "borderTopArticle": "border-top-color:#0074D9;",
      "imageListing": "/sites/globe.com.ph/files/content/dam/globe/brie/AboutUs/newsroom/common/Corporate_Globe_Listing.jpg",
      "articleUrl": "https://www.globe.com.ph/about-us/newsroom/sustainability/basilan-kid--11-other-young-football-aspirants-to-represent-ph-i.html",
      "columnType": "articles--type-3",
      "typeListing": "article",
      "imageMobile": "/sites/globe.com.ph/files/content/dam/globe/brie/AboutUs/newsroom/common/Corporate_Globe_Hero-Banner-Mobile.jpg",
      "imageDesktop": "/sites/globe.com.ph/files/content/dam/globe/brie/AboutUs/newsroom/common/Corporate_Globe_Primary-Desktop-Thumbnail.jpg",
      "description": "Globe picked 12 young football aspirants to represent the PH in the Astro Kem Bola Advanced Training Programme in Kuala Lumpur, Malaysia from Sept. 13-17, 2016.",
      "datePosted": "Sep 07, 2016 | 03:20 PM",
      "titleFromTag": "Sustainability"
    },
    {
      "title": "Würth Philippines Switches Services to Globe Telecom",
      "nonclickable": false,
      "openNewTab": false,
      "borderArticle": "border-color:#0074D9;",
      "borderTopArticle": "border-top-color:#0074D9;",
      "imageListing": "/sites/globe.com.ph/files/content/dam/globe/brie/AboutUs/newsroom/common/Corporate_Globe_Listing.jpg",
      "articleUrl": "https://www.globe.com.ph/about-us/newsroom/business/wuerth-philippines-switches-services-to-globe-telecom.html",
      "columnType": "articles--type-3",
      "typeListing": "article",
      "imageMobile": "/sites/globe.com.ph/files/content/dam/globe/brie/AboutUs/newsroom/common/Corporate_Globe_Hero-Banner-Mobile.jpg",
      "imageDesktop": "/sites/globe.com.ph/files/content/dam/globe/brie/AboutUs/newsroom/common/Corporate_Globe_Primary-Desktop-Thumbnail.jpg",
      "description": "Würth Philippines has chosen Globe Telecom as the new provider for Würth’s communication needs.",
      "datePosted": "Sep 07, 2016 | 01:53 PM",
      "titleFromTag": "Business"
    },
    {
      "title": "Globe Telecom signs P20 Billion Term Loan Facility",
      "nonclickable": false,
      "openNewTab": false,
      "borderArticle": "border-color:#0074D9;",
      "borderTopArticle": "border-top-color:#0074D9;",
      "imageListing": "/sites/globe.com.ph/files/content/dam/globe/brie/AboutUs/newsroom/corporate/Globe-Telecom-signs-P20-Billion-Term-Loan-Facility/corporate-metrobank-term-loan-thumbnail-listing.png",
      "articleUrl": "https://www.globe.com.ph/about-us/newsroom/corporate/globe-telecom-signs-p20-billion-term-loan-facility.html",
      "columnType": "articles--type-3",
      "typeListing": "article",
      "imageMobile": "/sites/globe.com.ph/files/content/dam/globe/brie/AboutUs/newsroom/corporate/Globe-Telecom-signs-P20-Billion-Term-Loan-Facility/corporate-metrobank-term-loan-banner-m.png",
      "imageDesktop": "/sites/globe.com.ph/files/content/dam/globe/brie/AboutUs/newsroom/corporate/Globe-Telecom-signs-P20-Billion-Term-Loan-Facility/corporate-metrobank-term-loan-primary-thumbnail.png",
      "description": "Globe signed a ₱20 billion term loan facility arranged by First Metro Investment Corporation with Metropolitan Bank and Trust Company as the lender.",
      "datePosted": "Sep 07, 2016 | 11:52 AM",
      "titleFromTag": "Corporate"
    },
    {
      "title": "Globe, PNP sign MOU to operate Text Bato hotline for crime prevention",
      "nonclickable": false,
      "openNewTab": false,
      "borderArticle": "border-color:#0074D9;",
      "borderTopArticle": "border-top-color:#0074D9;",
      "imageListing": "/sites/globe.com.ph/files/content/dam/globe/brie/AboutUs/newsroom/common/Corporate_Globe_Listing.jpg",
      "articleUrl": "https://www.globe.com.ph/about-us/newsroom/corporate/globe-pnp-sign-mou-operate-text-bato-hotline-crime-prevention.html",
      "columnType": "articles--type-3",
      "typeListing": "article",
      "imageMobile": "/sites/globe.com.ph/files/content/dam/globe/brie/AboutUs/newsroom/common/Corporate_Globe_Hero-Banner-Mobile.jpg",
      "imageDesktop": "/sites/globe.com.ph/files/content/dam/globe/brie/AboutUs/newsroom/common/Corporate_Globe_Primary-Desktop-Thumbnail.jpg",
      "description": "Globe Telecom signed a memorandum of understanding with the Philippine National Police to operate Text 2286 (Bato). Visit the Globe Newsroom for more.",
      "datePosted": "Sep 05, 2016 | 11:53 AM",
      "titleFromTag": "Corporate"
    },
    {
      "title": "TE SubCom Announces Completion of Third Network Upgrade to South-East Asia Japan Cable System",
      "nonclickable": false,
      "openNewTab": false,
      "borderArticle": "border-color:#0074D9;",
      "borderTopArticle": "border-top-color:#0074D9;",
      "imageListing": "/sites/globe.com.ph/files/content/dam/globe/brie/AboutUs/newsroom/common/Corporate_Globe_Listing.jpg",
      "articleUrl": "https://www.globe.com.ph/about-us/newsroom/sustainability/te-subcom-announces-completion-third-network-upgrade-sou.html",
      "columnType": "articles--type-3",
      "typeListing": "article",
      "imageMobile": "/sites/globe.com.ph/files/content/dam/globe/brie/AboutUs/newsroom/common/Corporate_Globe_Hero-Banner-Mobile.jpg",
      "imageDesktop": "/sites/globe.com.ph/files/content/dam/globe/brie/AboutUs/newsroom/common/Corporate_Globe_Primary-Desktop-Thumbnail.jpg",
      "description": "Get the latest news on Globe Telecom. Visit the Globe Press Room now.\r\n",
      "datePosted": "Sep 03, 2016 | 03:29 PM",
      "titleFromTag": "Sustainability"
    },
    {
      "title": "TE SubCom Announces Completion of Third Network Upgrade",
      "nonclickable": false,
      "openNewTab": false,
      "borderArticle": "border-color:#0074D9;",
      "borderTopArticle": "border-top-color:#0074D9;",
      "imageListing": "/sites/globe.com.ph/files/content/dam/globe/brie/AboutUs/newsroom/common/updated/Corporate-globe-thumbnail-listing.jpg",
      "articleUrl": "https://www.globe.com.ph/about-us/newsroom/corporate/te-subcom-announces-completion-third-network-upgrade-sou.html",
      "columnType": "articles--type-3",
      "typeListing": "article",
      "imageMobile": "/sites/globe.com.ph/files/content/dam/globe/brie/AboutUs/newsroom/common/updated/Corporate-globe-primary-thumbnail-m.jpg",
      "imageDesktop": "/sites/globe.com.ph/files/content/dam/globe/brie/AboutUs/newsroom/common/updated/Corporate-globe-primary-thumbnail-d.jpg",
      "description": "TE SubCom announced the on-schedule completion of its thirdnetwork upgrade to the South-East Asia Japan Cable (SJC) System. Visit the Newsroom for more.",
      "datePosted": "Sep 03, 2016 | 03:29 PM",
      "titleFromTag": "Corporate"
    }
  ]
}
