{
  "status": 200,
  "page": 279,
  "totalPage": 298,
  "range": "3337-3348",
  "total": 3573,
  "result": [
    {
      "title": "TE SubCom Announces Completion of Third Network Upgrade to South-East Asia Japan Cable System",
      "nonclickable": false,
      "openNewTab": false,
      "borderArticle": "border-color:#0074D9;",
      "borderTopArticle": "border-top-color:#0074D9;",
      "imageListing": "/sites/globe.com.ph/files/content/dam/globe/brie/AboutUs/newsroom/common/Corporate_Globe_Listing.jpg",
      "articleUrl": "https://www.globe.com.ph/about-us/newsroom/corporate/te-subcom-announces-completion-third-network-upgrade.html",
      "columnType": "articles--type-3",
      "typeListing": "article",
      "imageMobile": "/sites/globe.com.ph/files/content/dam/globe/brie/AboutUs/newsroom/common/Corporate_Globe_Hero-Banner-Mobile.jpg",
      "imageDesktop": "/sites/globe.com.ph/files/content/dam/globe/brie/AboutUs/newsroom/common/Corporate_Globe_Primary-Desktop-Thumbnail.jpg",
      "description": "TE SubCom, an industry pioneer in undersea communications technology, completed its 3rd network upgrade to the South-East Asia Japan Cable (SJC) System.",
      "datePosted": "Sep 03, 2016 | 11:54 AM",
      "titleFromTag": "Corporate"
    },
    {
      "title": "A celebration of wonderful this September for all Globe customers nationwide",
      "nonclickable": false,
      "openNewTab": false,
      "borderArticle": "border-color:#0074D9;",
      "borderTopArticle": "border-top-color:#0074D9;",
      "imageListing": "/sites/globe.com.ph/files/content/dam/globe/brie/AboutUs/newsroom/common/Corporate_Globe_Listing.jpg",
      "articleUrl": "https://www.globe.com.ph/about-us/newsroom/consumer/a-celebration-of-wonderful-this-september-for-all-globe-customer.html",
      "columnType": "articles--type-3",
      "typeListing": "article",
      "imageMobile": "/sites/globe.com.ph/files/content/dam/globe/brie/AboutUs/newsroom/common/Corporate_Globe_Hero-Banner-Mobile.jpg",
      "imageDesktop": "/sites/globe.com.ph/files/content/dam/globe/brie/AboutUs/newsroom/common/Corporate_Globe_Primary-Desktop-Thumbnail.jpg",
      "description": "Globe customers nationwide are in for an exciting line-up of events this month. Visit the Globe Newsroom for the latest news on Globe Telecom.",
      "datePosted": "Sep 01, 2016 | 01:05 PM",
      "titleFromTag": "Consumer"
    },
    {
      "title": "Experience top notch mobile camera technology with the new Huawei P9",
      "nonclickable": false,
      "openNewTab": false,
      "borderArticle": "border-color:#0074D9;",
      "borderTopArticle": "border-top-color:#0074D9;",
      "imageListing": "/sites/globe.com.ph/files/content/dam/globe/brie/AboutUs/newsroom/common/Corporate_Globe_Listing.jpg",
      "articleUrl": "https://www.globe.com.ph/about-us/newsroom/consumer/experience-top-notch-mobile-camera-technology-with-the-new-huawe.html",
      "columnType": "articles--type-3",
      "typeListing": "article",
      "imageMobile": "/sites/globe.com.ph/files/content/dam/globe/brie/AboutUs/newsroom/common/Corporate_Globe_Hero-Banner-Mobile.jpg",
      "imageDesktop": "/sites/globe.com.ph/files/content/dam/globe/brie/AboutUs/newsroom/common/Corporate_Globe_Primary-Desktop-Thumbnail.jpg",
      "description": "Smartphone photography takes on a whole new level as Huawei introduces one of the most impressive camera phones to date - Huawei P9. Visit the Globe Newsroom for the latest news on Globe Telecom.",
      "datePosted": "Sep 01, 2016 | 01:04 PM",
      "titleFromTag": "Consumer"
    },
    {
      "title": "PH scores high among Starters category of Global Connectivity Index",
      "nonclickable": false,
      "openNewTab": false,
      "borderArticle": "border-color:#0074D9;",
      "borderTopArticle": "border-top-color:#0074D9;",
      "imageListing": "/sites/globe.com.ph/files/content/dam/globe/brie/AboutUs/newsroom/common/Corporate_Globe_Listing.jpg",
      "articleUrl": "https://www.globe.com.ph/about-us/newsroom/corporate/ph-scores-high-among-starters-category-global.html",
      "columnType": "articles--type-3",
      "typeListing": "article",
      "imageMobile": "/sites/globe.com.ph/files/content/dam/globe/brie/AboutUs/newsroom/common/Corporate_Globe_Hero-Banner-Mobile.jpg",
      "imageDesktop": "/sites/globe.com.ph/files/content/dam/globe/brie/AboutUs/newsroom/common/Corporate_Globe_Primary-Desktop-Thumbnail.jpg",
      "description": "Even without public investments for enhancing broadband access and speed, the Philippines scored high in the GlobalConnectivity Index (GCI) Starters category.",
      "datePosted": "Sep 01, 2016 | 11:52 AM",
      "titleFromTag": "Corporate"
    },
    {
      "title": "Globe now blocks 100,000 per day spam/scam messages from other networks",
      "nonclickable": false,
      "openNewTab": false,
      "borderArticle": "border-color:#0074D9;",
      "borderTopArticle": "border-top-color:#0074D9;",
      "imageListing": "/sites/globe.com.ph/files/content/dam/globe/brie/AboutUs/newsroom/common/Corporate_Globe_Listing.jpg",
      "articleUrl": "https://www.globe.com.ph/about-us/newsroom/sustainability/globe-now-blocks-100000-day-spamscam-messages-other-networks.html",
      "columnType": "articles--type-3",
      "typeListing": "article",
      "imageMobile": "/sites/globe.com.ph/files/content/dam/globe/brie/AboutUs/newsroom/common/Corporate_Globe_Hero-Banner-Mobile.jpg",
      "imageDesktop": "/sites/globe.com.ph/files/content/dam/globe/brie/AboutUs/newsroom/common/Corporate_Globe_Primary-Desktop-Thumbnail.jpg",
      "description": "Aimed at further reducing, if not eliminating, spam/scam messages that goes through its network, Globe Telecom further stepped up its anti-spam/scam campaign and is now able to block annoying unsolic",
      "datePosted": "Aug 30, 2016 | 03:32 PM",
      "titleFromTag": "Sustainability"
    },
    {
      "title": "Real Estate Matching Firm Zipmatch Closes New Funding Round Led by Kickstart",
      "nonclickable": false,
      "openNewTab": false,
      "borderArticle": "border-color:#0074D9;",
      "borderTopArticle": "border-top-color:#0074D9;",
      "imageListing": "/sites/globe.com.ph/files/content/dam/globe/brie/AboutUs/newsroom/common/Corporate_Globe_Listing.jpg",
      "articleUrl": "https://www.globe.com.ph/about-us/newsroom/partners/real-estate-matching-firm-zipmatch-closes-new-funding-round-led-.html",
      "columnType": "articles--type-3",
      "typeListing": "article",
      "imageMobile": "/sites/globe.com.ph/files/content/dam/globe/brie/AboutUs/newsroom/common/Corporate_Globe_Hero-Banner-Mobile.jpg",
      "imageDesktop": "/sites/globe.com.ph/files/content/dam/globe/brie/AboutUs/newsroom/common/Corporate_Globe_Primary-Desktop-Thumbnail.jpg",
      "description": "Zipmatch can match industry experts with customers in need of professional advice for their home search. Visit Globe Newsroom for more.",
      "datePosted": "Aug 30, 2016 | 02:52 PM",
      "titleFromTag": "Partners"
    },
    {
      "title": "Globe now blocks 100,000 per day spam/scam messages from other networks",
      "nonclickable": false,
      "openNewTab": false,
      "borderArticle": "border-color:#0074D9;",
      "borderTopArticle": "border-top-color:#0074D9;",
      "imageListing": "/sites/globe.com.ph/files/content/dam/globe/brie/AboutUs/newsroom/common/Corporate_Globe_Listing.jpg",
      "articleUrl": "https://www.globe.com.ph/about-us/newsroom/corporate/globe-now-blocks-100000-day-spamscam-messages-other-netw.html",
      "columnType": "articles--type-3",
      "typeListing": "article",
      "imageMobile": "/sites/globe.com.ph/files/content/dam/globe/brie/AboutUs/newsroom/common/Corporate_Globe_Hero-Banner-Mobile.jpg",
      "imageDesktop": "/sites/globe.com.ph/files/content/dam/globe/brie/AboutUs/newsroom/common/Corporate_Globe_Primary-Desktop-Thumbnail.jpg",
      "description": "\"Globe Telecom has increased its anti-spam/scam program and can now prevent unwanted unsolicited texts from other telco providers.\"",
      "datePosted": "Aug 30, 2016 | 12:03 PM",
      "titleFromTag": "Corporate"
    },
    {
      "title": "Globe Holds Volunteer Clean-Up Drive after Kadayawan Festivities",
      "nonclickable": false,
      "openNewTab": false,
      "borderArticle": "border-color:#0074D9;",
      "borderTopArticle": "border-top-color:#0074D9;",
      "imageListing": "/sites/globe.com.ph/files/content/dam/globe/brie/About-us/Newsroom/image/Corporate/08292018/sustainability-clean-up-drive-kadayawan-thumbnail-listing.png",
      "articleUrl": "https://www.globe.com.ph/about-us/newsroom/sustainability/globe-holds-volunteer-clean-up-drive-after-kadayawan-festivities.html",
      "columnType": "articles--type-3",
      "typeListing": "article",
      "imageMobile": "/sites/globe.com.ph/files/content/dam/globe/brie/AboutUs/newsroom/sustainability/globe-holds-volunteer-clean-up-drive-after-kadayawan-festivities/sustainability-clean-up-drive-kadayawan-banner-m.png",
      "imageDesktop": "/sites/globe.com.ph/files/content/dam/globe/brie/About-us/Newsroom/image/Corporate/08292018/sustainability-clean-up-drive-kadayawan-primary-thumbnail.png",
      "description": "Globe Holds Volunteer Clean-Up Drive after Kadayawan Festivities. Visit the Globe Newsroom for the latest news on Globe Telecom.",
      "datePosted": "Aug 28, 2016 | 09:24 AM",
      "titleFromTag": "Sustainability"
    },
    {
      "title": "Globe goes full steam ahead on LTE 700 MHz deployment",
      "nonclickable": false,
      "openNewTab": false,
      "borderArticle": "border-color:#0074D9;",
      "borderTopArticle": "border-top-color:#0074D9;",
      "imageListing": "/sites/globe.com.ph/files/content/dam/globe/brie/AboutUs/newsroom/common/Corporate_Globe_Listing.jpg",
      "articleUrl": "https://www.globe.com.ph/about-us/newsroom/corporate/globe-goes-full-steam-ahead-lte-700-mhz-deployment.html",
      "columnType": "articles--type-3",
      "typeListing": "article",
      "imageMobile": "/sites/globe.com.ph/files/content/dam/globe/brie/AboutUs/newsroom/common/Corporate_Globe_Hero-Banner-Mobile.jpg",
      "imageDesktop": "/sites/globe.com.ph/files/content/dam/globe/brie/AboutUs/newsroom/common/Corporate_Globe_Primary-Desktop-Thumbnail.jpg",
      "description": "Map shows current Globe Telecom coverage area of LTE 700 MHz (in green) in Metro Manila",
      "datePosted": "Aug 27, 2016 | 12:03 PM",
      "titleFromTag": "Corporate"
    },
    {
      "title": "Globe enhances innovation drive to further boost business growth",
      "nonclickable": false,
      "openNewTab": false,
      "borderArticle": "border-color:#0074D9;",
      "borderTopArticle": "border-top-color:#0074D9;",
      "imageListing": "/sites/globe.com.ph/files/content/dam/globe/brie/AboutUs/newsroom/common/Corporate_Globe_Listing.jpg",
      "articleUrl": "https://www.globe.com.ph/about-us/newsroom/sustainability/globe-enhances-innovation-drive-further-boost-business-g.html",
      "columnType": "articles--type-3",
      "typeListing": "article",
      "imageMobile": "/sites/globe.com.ph/files/content/dam/globe/brie/AboutUs/newsroom/common/Corporate_Globe_Hero-Banner-Mobile.jpg",
      "imageDesktop": "/sites/globe.com.ph/files/content/dam/globe/brie/AboutUs/newsroom/common/Corporate_Globe_Primary-Desktop-Thumbnail.jpg",
      "description": "Globe Telecom is taking its innovation drive to the next level by providing its employees an avenue to explore and harness concepts, ideas as well as technological advances that could prove relevant amid customers’ growing penchant for a digital lifestyle. Visit the Globe Newsroom for the latest news on Globe Telecom.",
      "datePosted": "Aug 26, 2016 | 03:30 PM",
      "titleFromTag": "Sustainability"
    },
    {
      "title": "Globe Enhances Innovation Drive to Further Boost Business Growth",
      "nonclickable": false,
      "openNewTab": false,
      "borderArticle": "border-color:#0074D9;",
      "borderTopArticle": "border-top-color:#0074D9;",
      "imageListing": "/sites/globe.com.ph/files/content/dam/globe/brie/AboutUs/newsroom/common/Corporate_Globe_Listing.jpg",
      "articleUrl": "https://www.globe.com.ph/about-us/newsroom/corporate/globe-enhances-innovation-drive-further-boost-business-g.html",
      "columnType": "articles--type-3",
      "typeListing": "article",
      "imageMobile": "/sites/globe.com.ph/files/content/dam/globe/brie/AboutUs/newsroom/common/Corporate_Globe_Hero-Banner-Mobile.jpg",
      "imageDesktop": "/sites/globe.com.ph/files/content/dam/globe/brie/AboutUs/newsroom/common/Corporate_Globe_Primary-Desktop-Thumbnail.jpg",
      "description": "Globe Telecom boosts business growth by encouraging employees to develop and implement innovative concepts and technology.",
      "datePosted": "Aug 26, 2016 | 12:05 PM",
      "titleFromTag": "Corporate"
    },
    {
      "title": "Globe Telecom, The Mind Museum make teaching science more fun",
      "nonclickable": false,
      "openNewTab": false,
      "borderArticle": "border-color:#0074D9;",
      "borderTopArticle": "border-top-color:#0074D9;",
      "imageListing": "/sites/globe.com.ph/files/content/dam/globe/brie/AboutUs/newsroom/common/Corporate_Globe_Listing.jpg",
      "articleUrl": "https://www.globe.com.ph/about-us/newsroom/sustainability/globe-telecom--the-mind-museum-make-teaching-science-more-fun.html",
      "columnType": "articles--type-3",
      "typeListing": "article",
      "imageMobile": "/sites/globe.com.ph/files/content/dam/globe/brie/AboutUs/newsroom/common/Corporate_Globe_Hero-Banner-Mobile.jpg",
      "imageDesktop": "/sites/globe.com.ph/files/content/dam/globe/brie/AboutUs/newsroom/common/Corporate_Globe_Primary-Desktop-Thumbnail.jpg",
      "description": "Globe Telecom and The Mind Museum have joined hands to bring the wonder of science to select public schools across the country through Science Wonder Workshops that are guaranteed to make classroom learning more fun, interactive, and interesting.",
      "datePosted": "Aug 25, 2016 | 03:20 PM",
      "titleFromTag": "Sustainability"
    }
  ]
}
