{
  "status": 200,
  "page": 28,
  "totalPage": 298,
  "range": "325-336",
  "total": 3573,
  "result": [
    {
      "title": "Premier Medical Services App AIDE Brings Back Nursing Care Service",
      "nonclickable": false,
      "openNewTab": false,
      "borderArticle": "border-color:#0074D9;",
      "borderTopArticle": "border-top-color:#0074D9;",
      "imageListing": "/sites/globe.com.ph/files/content/dam/globe/brie/About-us/Newsroom/image/Consumer/042023/aide-brings-back-nursing-care-services-thumbnail-listing.jpg",
      "articleUrl": "https://www.globe.com.ph/about-us/newsroom/consumer/aide-brings-back-nursing-care-services.html",
      "columnType": "articles--type-3",
      "typeListing": "article",
      "imageMobile": "/sites/globe.com.ph/files/content/dam/globe/brie/About-us/Newsroom/image/Consumer/042023/aide-brings-back-nursing-care-services-service-primary-thumbnail-m.jpg",
      "imageDesktop": "/sites/globe.com.ph/files/content/dam/globe/brie/About-us/Newsroom/image/Consumer/042023/aide-brings-back-nursing-care-services-primary-thumbnail-d.jpg",
      "description": "Premier medical services app AIDE has brought back its nursing care service.",
      "datePosted": "Apr 20, 2023 | 03:30 PM",
      "titleFromTag": "Consumer"
    },
    {
      "title": "Globe Named Most Reliable Mobile Network in PH for Four Straight Quarters",
      "nonclickable": false,
      "openNewTab": false,
      "borderArticle": "border-color:#0074D9;",
      "borderTopArticle": "border-top-color:#0074D9;",
      "imageListing": "/sites/globe.com.ph/files/content/dam/globe/brie/AboutUs/newsroom/common/default-corporate-5/corp-thumbnail-listing.jpg",
      "articleUrl": "https://www.globe.com.ph/about-us/newsroom/corporate/most-reliable-mobile-network-ph-four-straight-quarters.html",
      "columnType": "articles--type-3",
      "typeListing": "article",
      "imageMobile": "/sites/globe.com.ph/files/content/dam/globe/brie/AboutUs/newsroom/common/default-corporate-5/corp-primary-thumbnail-m.jpg",
      "imageDesktop": "/sites/globe.com.ph/files/content/dam/globe/brie/AboutUs/newsroom/common/default-corporate-5/corp-primary-thumbnail-d.jpg",
      "description": "Ookla recognizes Globe as the Most Reliable Network in the Philippines for the fourth straight quarter. ",
      "datePosted": "Apr 19, 2023 | 05:00 PM",
      "titleFromTag": "Corporate"
    },
    {
      "title": "Globe Group Earns Spot on LinkedIn's 2023 Top Companies List in PH for Employee-Centered Approach",
      "nonclickable": false,
      "openNewTab": false,
      "borderArticle": "border-color:#0074D9;",
      "borderTopArticle": "border-top-color:#0074D9;",
      "imageListing": "/sites/globe.com.ph/files/content/dam/globe/brie/AboutUs/newsroom/corporate/globe-group-earns-spot-linkedin-2023-top-companies/eg-default-images-thumbnail-listing.jpg",
      "articleUrl": "https://www.globe.com.ph/about-us/newsroom/corporate/globe-group-earns-spot-linkedin-2023-top-companies.html",
      "columnType": "articles--type-3",
      "typeListing": "article",
      "imageMobile": "/sites/globe.com.ph/files/content/dam/globe/brie/AboutUs/newsroom/corporate/globe-group-earns-spot-linkedin-2023-top-companies/eg-default-images-primary-thumbnail-m.jpg",
      "imageDesktop": "/sites/globe.com.ph/files/content/dam/globe/brie/AboutUs/newsroom/corporate/globe-group-earns-spot-linkedin-2023-top-companies/eg-default-images-primary-thumbnail-d.jpg",
      "description": "The Globe Group broke into the exclusive LinkedIn 2023 Top Companies List in the Philippines, placing 6th as one of the country's top employers.",
      "datePosted": "Apr 19, 2023 | 02:26 PM",
      "titleFromTag": "Corporate"
    },
    {
      "title": "Globe Group Hauls 11 Accolades at The 2023 Asia-Pacific Stevie® Awards",
      "nonclickable": false,
      "openNewTab": false,
      "borderArticle": "border-color:#0074D9;",
      "borderTopArticle": "border-top-color:#0074D9;",
      "imageListing": "/sites/globe.com.ph/files/content/dam/globe/brie/AboutUs/newsroom/common/default-awards-1/corp-default-images-thumbnail-listing.jpg",
      "articleUrl": "https://www.globe.com.ph/about-us/newsroom/corporate/eleven-accolades-2023-asia-pacific-stevie-awards.html",
      "columnType": "articles--type-3",
      "typeListing": "article",
      "imageMobile": "/sites/globe.com.ph/files/content/dam/globe/brie/AboutUs/newsroom/common/default-awards-1/corp-default-images-primary-thumbnail-m.jpg",
      "imageDesktop": "/sites/globe.com.ph/files/content/dam/globe/brie/AboutUs/newsroom/common/default-awards-1/corp-default-images-primary-thumbnail-d.jpg",
      "description": "Globe and its portfolio companies won an impressive 11 awards across various categories at the prestigious 2023 Asia-Pacific Stevie® Awards.",
      "datePosted": "Apr 18, 2023 | 02:30 PM",
      "titleFromTag": "Corporate"
    },
    {
      "title": "Acquiro Expands Reach, Ramps Up Hiring Efforts In PH",
      "nonclickable": false,
      "openNewTab": false,
      "borderArticle": "border-color:#0074D9;",
      "borderTopArticle": "border-top-color:#0074D9;",
      "imageListing": "/sites/globe.com.ph/files/content/dam/globe/brie/AboutUs/newsroom/common/default-partners-4/default-partners-4-primary-thumbnail-listing.jpg",
      "articleUrl": "https://www.globe.com.ph/about-us/newsroom/partners/acquiro-expands-reach-ramps-up-hiring-efforts.html",
      "columnType": "articles--type-3",
      "typeListing": "article",
      "imageMobile": "/sites/globe.com.ph/files/content/dam/globe/brie/AboutUs/newsroom/common/default-partners-4/default-partners-4-primary-primary-thumbnail-m.jpg",
      "imageDesktop": "/sites/globe.com.ph/files/content/dam/globe/brie/AboutUs/newsroom/common/default-partners-4/default-partners-4-primary-primary-thumbnail-d.jpg",
      "description": "Acquiro makes waves in the workforce and talent platform solutions industry as it ramps up its operations and expands its reach nationwide.\r\n",
      "datePosted": "Apr 17, 2023 | 03:33 PM",
      "titleFromTag": "Partners"
    },
    {
      "title": "Globe Deploys G-Climate Solution to Improve Business Resilience during Disasters",
      "nonclickable": false,
      "openNewTab": false,
      "borderArticle": "border-color:#0074D9;",
      "borderTopArticle": "border-top-color:#0074D9;",
      "imageListing": "/sites/globe.com.ph/files/content/dam/globe/brie/AboutUs/newsroom/common/default-sustainability-4/sustainability-listing-thumbnail.jpg",
      "articleUrl": "https://www.globe.com.ph/about-us/newsroom/sustainability/g-climate-solution-improve-business-resilience.html",
      "columnType": "articles--type-3",
      "typeListing": "article",
      "imageMobile": "/sites/globe.com.ph/files/content/dam/globe/brie/AboutUs/newsroom/common/default-sustainability-4/sustainability-primary-banner-m.jpg",
      "imageDesktop": "/sites/globe.com.ph/files/content/dam/globe/brie/AboutUs/newsroom/common/default-sustainability-4/sustainability-primary-thumbnail.jpg",
      "description": "G-Climate aims to improve restoration time by 30 percent to benefit subscribers impacted by typhoons.",
      "datePosted": "Apr 17, 2023 | 01:56 PM",
      "titleFromTag": "Sustainability"
    },
    {
      "title": "Globe Promotes Device Circularity, Paperless Business Cards",
      "nonclickable": false,
      "openNewTab": false,
      "borderArticle": "border-color:#0074D9;",
      "borderTopArticle": "border-top-color:#0074D9;",
      "imageListing": "/sites/globe.com.ph/files/content/dam/globe/brie/AboutUs/newsroom/common/default-corporate-14/corp-default-images-thumbnail-listing.jpg",
      "articleUrl": "https://www.globe.com.ph/about-us/newsroom/sustainability/device-circularity-paperless-business-cards.html",
      "columnType": "articles--type-3",
      "typeListing": "article",
      "imageMobile": "/sites/globe.com.ph/files/content/dam/globe/brie/AboutUs/newsroom/common/default-corporate-14/corp-default-images-primary-thumbnail-m.jpg",
      "imageDesktop": "/sites/globe.com.ph/files/content/dam/globe/brie/AboutUs/newsroom/common/default-corporate-14/corp-default-images-primary-thumbnail-d.jpg",
      "description": "Globe is standardizing its employee work tools to the latest MacBook Air lineup, and introducing the use of E-Business Cards (EBCs).",
      "datePosted": "Apr 17, 2023 | 01:53 PM",
      "titleFromTag": "Sustainability"
    },
    {
      "title": "KonsultaMD Launches SuperApp at #IWantToBeHere ColorFest Run",
      "nonclickable": false,
      "openNewTab": false,
      "borderArticle": "border-color:#0074D9;",
      "borderTopArticle": "border-top-color:#0074D9;",
      "imageListing": "/sites/globe.com.ph/files/content/dam/globe/brie/AboutUs/newsroom/common/default-total-globe-1/default-1-total-globe-thumbnail-listing.jpg",
      "articleUrl": "https://www.globe.com.ph/about-us/newsroom/consumer/konsultamd-superapp-colorfest-run.html",
      "columnType": "articles--type-3",
      "typeListing": "article",
      "imageMobile": "/sites/globe.com.ph/files/content/dam/globe/brie/AboutUs/newsroom/common/default-total-globe-1/default-1-total-globe-primary-thumbnail-m.jpg",
      "imageDesktop": "/sites/globe.com.ph/files/content/dam/globe/brie/AboutUs/newsroom/common/default-total-globe-1/default-1-total-globe-primary-thumbnail-d.jpg",
      "description": "KonsultaMD launches its SuperApp, which brings together the country’s top health brands to deliver a full suite of medical services in one easy-to-use platform. ",
      "datePosted": "Apr 17, 2023 | 12:00 PM",
      "titleFromTag": "Consumer"
    },
    {
      "title": "PetPal Revolutionizes Pet Care in PH with Innovative All-In-One Digital Solution",
      "nonclickable": false,
      "openNewTab": false,
      "borderArticle": "border-color:#0074D9;",
      "borderTopArticle": "border-top-color:#0074D9;",
      "imageListing": "/sites/globe.com.ph/files/content/dam/globe/brie/AboutUs/newsroom/common/default-mobile-3/Newsroom-Total-Globe-Default-Images-Mobile-3-thumbnail-listing.jpg",
      "articleUrl": "https://www.globe.com.ph/about-us/newsroom/consumer/petpal-revolutionizes-pet-care-ph.html",
      "columnType": "articles--type-3",
      "typeListing": "article",
      "imageMobile": "/sites/globe.com.ph/files/content/dam/globe/brie/AboutUs/newsroom/common/default-mobile-3/Newsroom-Total-Globe-Default-Images-Mobile-3-primary-thumbnail-m.jpg",
      "imageDesktop": "/sites/globe.com.ph/files/content/dam/globe/brie/AboutUs/newsroom/common/default-mobile-3/Newsroom-Total-Globe-Default-Images-Mobile-3-primary-thumbnail-d.jpg",
      "description": "PetPal, the newest tech start-up from 917Ventures, is a digital service that provides easy and convenient access to healthcare from accredited veterinarians.",
      "datePosted": "Apr 13, 2023 | 09:14 AM",
      "titleFromTag": "Consumer"
    },
    {
      "title": "Globe’s New ONEPlan: The Power of Mobile and Fiber in One",
      "nonclickable": false,
      "openNewTab": false,
      "borderArticle": "border-color:#0074D9;",
      "borderTopArticle": "border-top-color:#0074D9;",
      "imageListing": "/sites/globe.com.ph/files/content/dam/globe/brie/AboutUs/newsroom/common/default-prepaid-gen-z-mobile-2/Newsroom-Prepaid-Default-Images-Gen-Z-Mobile-2-thumbnail-listing.jpg",
      "articleUrl": "https://www.globe.com.ph/about-us/newsroom/consumer/oneplan-power-of-mobile-and-fiber-in-one.html",
      "columnType": "articles--type-3",
      "typeListing": "article",
      "imageMobile": "/sites/globe.com.ph/files/content/dam/globe/brie/AboutUs/newsroom/common/default-prepaid-gen-z-mobile-2/Newsroom-Prepaid-Default-Images-Gen-Z-Mobile-2-primary-thumbnail-m.jpg",
      "imageDesktop": "/sites/globe.com.ph/files/content/dam/globe/brie/AboutUs/newsroom/common/default-prepaid-gen-z-mobile-2/Newsroom-Prepaid-Default-Images-Gen-Z-Mobile-2-primary-thumbnail-d.jpg",
      "description": "Globe’s new ONEPlan provides all the means to stay connected at home and on the go.",
      "datePosted": "Apr 12, 2023 | 12:00 PM",
      "titleFromTag": "Consumer"
    },
    {
      "title": "Seasoned Tech Expert Froilan Rabatan Named Managing Director of HCX Technology Partners",
      "nonclickable": false,
      "openNewTab": false,
      "borderArticle": "border-color:#0074D9;",
      "borderTopArticle": "border-top-color:#0074D9;",
      "imageListing": "/sites/globe.com.ph/files/content/dam/globe/brie/AboutUs/newsroom/common/default-partners-4/default-partners-4-primary-thumbnail-listing.jpg",
      "articleUrl": "https://www.globe.com.ph/about-us/newsroom/partners/froilan-rabatan-named-managing-partner-hcx.html",
      "columnType": "articles--type-3",
      "typeListing": "article",
      "imageMobile": "/sites/globe.com.ph/files/content/dam/globe/brie/AboutUs/newsroom/common/default-partners-4/default-partners-4-primary-primary-thumbnail-m.jpg",
      "imageDesktop": "/sites/globe.com.ph/files/content/dam/globe/brie/AboutUs/newsroom/common/default-partners-4/default-partners-4-primary-primary-thumbnail-d.jpg",
      "description": "Asticom named seasoned technology expert Froilan Rabatan as the new Managing Director of its digital business solutions arm HCX Technology Partners.",
      "datePosted": "Apr 11, 2023 | 03:33 PM",
      "titleFromTag": "Partners"
    },
    {
      "title": "917Ventures Launches New Revolutionary Real Estate Marketplace Housify",
      "nonclickable": false,
      "openNewTab": false,
      "borderArticle": "border-color:#0074D9;",
      "borderTopArticle": "border-top-color:#0074D9;",
      "imageListing": "/sites/globe.com.ph/files/content/dam/globe/brie/AboutUs/newsroom/common/default-13/default-partners-1-thumbnail-listing.jpg",
      "articleUrl": "https://www.globe.com.ph/about-us/newsroom/917ventures/new-revolutionary-real-estate-marketplace-housify.html",
      "columnType": "articles--type-3",
      "typeListing": "article",
      "imageMobile": "/sites/globe.com.ph/files/content/dam/globe/brie/AboutUs/newsroom/common/default-13/default-partners-1-primary-thumbnail-m.jpg",
      "imageDesktop": "/sites/globe.com.ph/files/content/dam/globe/brie/AboutUs/newsroom/common/default-13/default-partners-1-primary-thumbnail-d.jpg",
      "description": "917Ventures launches Housify, a digital real estate marketplace that instantly matches property buyers with trusted listings through verified sellers.",
      "datePosted": "Apr 11, 2023 | 03:04 PM",
      "titleFromTag": "917Ventures"
    }
  ]
}
