{
  "status": 200,
  "page": 280,
  "totalPage": 298,
  "range": "3349-3360",
  "total": 3573,
  "result": [
    {
      "title": "Globe Telecom, The Mind Museum Make Teaching Science More Fun",
      "nonclickable": false,
      "openNewTab": false,
      "borderArticle": "border-color:#0074D9;",
      "borderTopArticle": "border-top-color:#0074D9;",
      "imageListing": "/sites/globe.com.ph/files/content/dam/globe/brie/AboutUs/newsroom/common/Corporate_Globe_Listing.jpg",
      "articleUrl": "https://www.globe.com.ph/about-us/newsroom/citizenship/globe-telecom--the-mind-museum-make-teaching-science-more-fun.html",
      "columnType": "articles--type-3",
      "typeListing": "article",
      "imageMobile": "/sites/globe.com.ph/files/content/dam/globe/brie/AboutUs/newsroom/citizenship/Promote-wellness-by-feeling-good-and-looking-great/Corporate_Globe_Hero-Banner-Mobile.jpg",
      "imageDesktop": "/sites/globe.com.ph/files/content/dam/globe/brie/AboutUs/newsroom/common/Corporate_Globe_Primary-Desktop-Thumbnail.jpg",
      "description": "Globe Telecom and The Mind Museum have joined hands to bring the wonder of science to select public schools across the country through Science Wonder Workshops.",
      "datePosted": "Aug 25, 2016 | 02:25 PM",
      "titleFromTag": "Citizenship"
    },
    {
      "title": "DepEd Region II Calls on Division Heads to Support Global Filipino Schools Program of Globe Telecom",
      "nonclickable": false,
      "openNewTab": false,
      "borderArticle": "border-color:#0074D9;",
      "borderTopArticle": "border-top-color:#0074D9;",
      "imageListing": "/sites/globe.com.ph/files/content/dam/globe/brie/AboutUs/newsroom/common/Corporate_Globe_Listing.jpg",
      "articleUrl": "https://www.globe.com.ph/about-us/newsroom/citizenship/deped-region-ii-calls-on-division-heads-to-support-global-filipi.html",
      "columnType": "articles--type-3",
      "typeListing": "article",
      "imageMobile": "/sites/globe.com.ph/files/content/dam/globe/brie/AboutUs/newsroom/common/Corporate_Globe_Hero-Banner-Mobile.jpg",
      "imageDesktop": "/sites/globe.com.ph/files/content/dam/globe/brie/AboutUs/newsroom/common/Corporate_Globe_Primary-Desktop-Thumbnail.jpg",
      "description": "Department of Education (DepEd)'s Cagayan Valley regional office has called on its division heads to support the Globe's Global Filipino Schools (GFS) program",
      "datePosted": "Aug 24, 2016 | 02:24 PM",
      "titleFromTag": "Citizenship"
    },
    {
      "title": "Globe presents BLUE MAN Group live in Manila",
      "nonclickable": false,
      "openNewTab": false,
      "borderArticle": "border-color:#0074D9;",
      "borderTopArticle": "border-top-color:#0074D9;",
      "imageListing": "/sites/globe.com.ph/files/content/dam/globe/brie/AboutUs/newsroom/common/Corporate_Globe_Listing.jpg",
      "articleUrl": "https://www.globe.com.ph/about-us/newsroom/consumer/globe-presents-blue-man-group-live-in-manila.html",
      "columnType": "articles--type-3",
      "typeListing": "article",
      "imageMobile": "/sites/globe.com.ph/files/content/dam/globe/brie/AboutUs/newsroom/common/Corporate_Globe_Hero-Banner-Mobile.jpg",
      "imageDesktop": "/sites/globe.com.ph/files/content/dam/globe/brie/AboutUs/newsroom/common/Corporate_Globe_Primary-Desktop-Thumbnail.jpg",
      "description": "Blue Man Group 2016 World Tour brings iconic show to Manila. Visit the Globe Newsroom for the latest news on Globe Telecom.",
      "datePosted": "Aug 23, 2016 | 01:11 PM",
      "titleFromTag": "Consumer"
    },
    {
      "title": "Pokémon GO: Safety tips to catch 'em right",
      "nonclickable": false,
      "openNewTab": false,
      "borderArticle": "border-color:#0074D9;",
      "borderTopArticle": "border-top-color:#0074D9;",
      "imageListing": "/sites/globe.com.ph/files/content/dam/globe/brie/AboutUs/newsroom/common/Corporate_Globe_Listing.jpg",
      "articleUrl": "https://www.globe.com.ph/about-us/newsroom/consumer/pokemon-go--safety-tips-to-catch--em-right.html",
      "columnType": "articles--type-3",
      "typeListing": "article",
      "imageMobile": "/sites/globe.com.ph/files/content/dam/globe/brie/AboutUs/newsroom/common/Corporate_Globe_Hero-Banner-Mobile.jpg",
      "imageDesktop": "/sites/globe.com.ph/files/content/dam/globe/brie/AboutUs/newsroom/common/Corporate_Globe_Hero-Banner-Desktop.jpg",
      "description": "Pokemon fans are all over the place just to catch their next Pokémon to level up!",
      "datePosted": "Aug 23, 2016 | 01:10 PM",
      "titleFromTag": "Consumer"
    },
    {
      "title": "Globe: High cost of network and difficult deployment are the real industry barriers not telco players' doing",
      "nonclickable": false,
      "openNewTab": false,
      "borderArticle": "border-color:#0074D9;",
      "borderTopArticle": "border-top-color:#0074D9;",
      "imageListing": "/sites/globe.com.ph/files/content/dam/globe/brie/AboutUs/newsroom/common/Corporate_Globe_Listing.jpg",
      "articleUrl": "https://www.globe.com.ph/about-us/newsroom/sustainability/globe-high-cost-network-and-difficult-deployment-are-rea.html",
      "columnType": "articles--type-3",
      "typeListing": "article",
      "imageMobile": "/sites/globe.com.ph/files/content/dam/globe/brie/AboutUs/newsroom/common/Corporate_Globe_Hero-Banner-Mobile.jpg",
      "imageDesktop": "/sites/globe.com.ph/files/content/dam/globe/brie/AboutUs/newsroom/common/Corporate_Globe_Primary-Desktop-Thumbnail.jpg",
      "description": "Globe President and CEO Ernest Cu took to task industry critics who have asserted that the country needs more industry players to improve telco services. Visit the Globe Newsroom for the latest news on Globe Telecom.",
      "datePosted": "Aug 18, 2016 | 03:29 PM",
      "titleFromTag": "Sustainability"
    },
    {
      "title": "Globe reaches out to flood victims in Pampanga and Pangasinan through Libreng Tawag",
      "nonclickable": false,
      "openNewTab": false,
      "borderArticle": "border-color:#0074D9;",
      "borderTopArticle": "border-top-color:#0074D9;",
      "imageListing": "/sites/globe.com.ph/files/content/dam/globe/brie/AboutUs/newsroom/common/Corporate_Globe_Listing.jpg",
      "articleUrl": "https://www.globe.com.ph/about-us/newsroom/sustainability/globe-reaches-out-to-flood-victims-in-pampanga-and-pangasinan-th.html",
      "columnType": "articles--type-3",
      "typeListing": "article",
      "imageMobile": "/sites/globe.com.ph/files/content/dam/globe/brie/AboutUs/newsroom/common/Corporate_Globe_Hero-Banner-Mobile.jpg",
      "imageDesktop": "/sites/globe.com.ph/files/content/dam/globe/brie/AboutUs/newsroom/common/Corporate_Globe_Primary-Desktop-Thumbnail.jpg",
      "description": "Stay connected during tough times with Globe Telecom's Libreng Tawag stations in disaster-affected areas. Supporting communities in need.",
      "datePosted": "Aug 18, 2016 | 03:19 PM",
      "titleFromTag": "Sustainability"
    },
    {
      "title": "Best Young Athletes from TM Basketball Para sa Bayan Clinics in Cavite, Bulacan, Cebu, and Davao to Compete in NBA 3X 2016",
      "nonclickable": false,
      "openNewTab": false,
      "borderArticle": "border-color:#0074D9;",
      "borderTopArticle": "border-top-color:#0074D9;",
      "imageListing": "/sites/globe.com.ph/files/content/dam/globe/brie/AboutUs/newsroom/common/Corporate_Globe_Listing.jpg",
      "articleUrl": "https://www.globe.com.ph/about-us/newsroom/sustainability/best-young-athletes-from-tm-basketball-para-sa-bayan-clinics.html",
      "columnType": "articles--type-3",
      "typeListing": "article",
      "imageMobile": "/sites/globe.com.ph/files/content/dam/globe/brie/AboutUs/newsroom/common/Corporate_Globe_Hero-Banner-Mobile.jpg",
      "imageDesktop": "/sites/globe.com.ph/files/content/dam/globe/brie/AboutUs/newsroom/common/Corporate_Globe_Primary-Desktop-Thumbnail.jpg",
      "description": "The best young athletes from the TM Basketball Para sa Bayan clinics are set to participate in the NBA’s 3-on-3 competition. Visit the Newsroom for more.",
      "datePosted": "Aug 18, 2016 | 03:18 PM",
      "titleFromTag": "Sustainability"
    },
    {
      "title": "How Globe myBusiness is making SMEs more marketable",
      "nonclickable": false,
      "openNewTab": false,
      "borderArticle": "border-color:#0074D9;",
      "borderTopArticle": "border-top-color:#0074D9;",
      "imageListing": "/sites/globe.com.ph/files/content/dam/globe/brie/AboutUs/newsroom/common/Corporate_Globe_Listing.jpg",
      "articleUrl": "https://www.globe.com.ph/about-us/newsroom/business/how-globe-mybusiness-is-making-smes-more-marketable.html",
      "columnType": "articles--type-3",
      "typeListing": "article",
      "imageMobile": "/sites/globe.com.ph/files/content/dam/globe/brie/AboutUs/newsroom/common/Corporate_Globe_Hero-Banner-Mobile.jpg",
      "imageDesktop": "/sites/globe.com.ph/files/content/dam/globe/brie/AboutUs/newsroom/common/Corporate_Globe_Primary-Desktop-Thumbnail.jpg",
      "description": "Every SME is always on the lookout for the most effective, efficient and smartest way to market their own brand.",
      "datePosted": "Aug 18, 2016 | 01:55 PM",
      "titleFromTag": "Business"
    },
    {
      "title": "Globe: High cost of network and difficult deployment are the real industry barriers not telco players' doing",
      "nonclickable": false,
      "openNewTab": false,
      "borderArticle": "border-color:#0074D9;",
      "borderTopArticle": "border-top-color:#0074D9;",
      "imageListing": "/sites/globe.com.ph/files/content/dam/globe/brie/AboutUs/newsroom/common/Corporate_Globe_Listing.jpg",
      "articleUrl": "https://www.globe.com.ph/about-us/newsroom/corporate/globe-high-cost-network-and-difficult-deployment-are-rea.html",
      "columnType": "articles--type-3",
      "typeListing": "article",
      "imageMobile": "/sites/globe.com.ph/files/content/dam/globe/brie/AboutUs/newsroom/common/Corporate_Globe_Hero-Banner-Mobile.jpg",
      "imageDesktop": "/sites/globe.com.ph/files/content/dam/globe/brie/AboutUs/newsroom/common/Corporate_Globe_Primary-Desktop-Thumbnail.jpg",
      "description": "Ernest Cu, President and CEO of Globe, criticised industry opponents who claimed that the country needs additional industry players to improve telco services.",
      "datePosted": "Aug 18, 2016 | 12:04 PM",
      "titleFromTag": "Corporate"
    },
    {
      "title": "Unlimited Roaming and supersized 40 GB of mobile data all on the new Platinum Lifestyle No Lock-up Plans",
      "nonclickable": false,
      "openNewTab": false,
      "borderArticle": "border-color:#0074D9;",
      "borderTopArticle": "border-top-color:#0074D9;",
      "imageListing": "/sites/globe.com.ph/files/content/dam/globe/brie/AboutUs/newsroom/common/Corporate_Globe_Listing.jpg",
      "articleUrl": "https://www.globe.com.ph/about-us/newsroom/consumer/unlimited-roaming-and-supersized-40-gb-of-mobile-data-all-on-the.html",
      "columnType": "articles--type-3",
      "typeListing": "article",
      "imageMobile": "/sites/globe.com.ph/files/content/dam/globe/brie/AboutUs/newsroom/common/Corporate_Globe_Hero-Banner-Mobile.jpg",
      "imageDesktop": "/sites/globe.com.ph/files/content/dam/globe/brie/AboutUs/newsroom/common/Corporate_Globe_Primary-Desktop-Thumbnail.jpg",
      "description": "Giving customers the power to pursue passions and stay connected wherever they go, Globe Platinum launches the Platinum Lifestyle No Lock-up Plans that have do",
      "datePosted": "Aug 16, 2016 | 01:09 PM",
      "titleFromTag": "Consumer"
    },
    {
      "title": "PH telcos battle head-to-head on mobile data",
      "nonclickable": false,
      "openNewTab": false,
      "borderArticle": "border-color:#0074D9;",
      "borderTopArticle": "border-top-color:#0074D9;",
      "imageListing": "/sites/globe.com.ph/files/content/dam/globe/brie/AboutUs/newsroom/common/Corporate_Globe_Listing.jpg",
      "articleUrl": "https://www.globe.com.ph/about-us/newsroom/corporate/ph-telcos-battle-head-head-mobile-data.html",
      "columnType": "articles--type-3",
      "typeListing": "article",
      "imageMobile": "/sites/globe.com.ph/files/content/dam/globe/brie/AboutUs/newsroom/common/Corporate_Globe_Hero-Banner-Mobile.jpg",
      "imageDesktop": "/sites/globe.com.ph/files/content/dam/globe/brie/AboutUs/newsroom/common/Corporate_Globe_Primary-Desktop-Thumbnail.jpg",
      "description": "As smartphone manufacturers take a serious turn on competition, upping their game each time with a smarter device, so do telco operators beat each other up to meet consumers' demand for more data.",
      "datePosted": "Aug 15, 2016 | 12:04 PM",
      "titleFromTag": "Corporate"
    },
    {
      "title": "The Best Pokémon GO Experience with Globe and Ayala Malls",
      "nonclickable": false,
      "openNewTab": false,
      "borderArticle": "border-color:#0074D9;",
      "borderTopArticle": "border-top-color:#0074D9;",
      "imageListing": "/sites/globe.com.ph/files/content/dam/globe/brie/AboutUs/newsroom/common/Corporate_Globe_Listing.jpg",
      "articleUrl": "https://www.globe.com.ph/about-us/newsroom/consumer/the-best-pokemon-go-experience-with-globe-and-ayala-malls.html",
      "columnType": "articles--type-3",
      "typeListing": "article",
      "imageMobile": "/sites/globe.com.ph/files/content/dam/globe/brie/AboutUs/newsroom/common/Corporate_Globe_Hero-Banner-Mobile.jpg",
      "imageDesktop": "/sites/globe.com.ph/files/content/dam/globe/brie/AboutUs/newsroom/common/Corporate_Globe_Primary-Desktop-Thumbnail.jpg",
      "description": "Globe and Ayala Malls will host the most enjoyable Lure Drop Party in the city. Visit the Globe Newsroom for the latest news on Globe Telecom.",
      "datePosted": "Aug 12, 2016 | 01:11 PM",
      "titleFromTag": "Consumer"
    }
  ]
}
