{
  "status": 200,
  "page": 281,
  "totalPage": 298,
  "range": "3361-3372",
  "total": 3573,
  "result": [
    {
      "title": "Taal Volcano Protected Landscape's Ecotourism Receives Big Boost from Globe-Pusod Collaboration",
      "nonclickable": false,
      "openNewTab": false,
      "borderArticle": "border-color:#0074D9;",
      "borderTopArticle": "border-top-color:#0074D9;",
      "imageListing": "/sites/globe.com.ph/files/content/dam/globe/brie/AboutUs/newsroom/common/Corporate_Globe_Listing.jpg",
      "articleUrl": "https://www.globe.com.ph/about-us/newsroom/citizenship/taal-volcano-protected-landscape-s-ecotourism-receives-big-boost.html",
      "columnType": "articles--type-3",
      "typeListing": "article",
      "imageMobile": "/sites/globe.com.ph/files/content/dam/globe/brie/AboutUs/newsroom/citizenship/Promote-wellness-by-feeling-good-and-looking-great/Corporate_Globe_Hero-Banner-Mobile.jpg",
      "imageDesktop": "/sites/globe.com.ph/files/content/dam/globe/brie/AboutUs/newsroom/common/Corporate_Globe_Primary-Desktop-Thumbnail.jpg",
      "description": "A scenic photo of the volcano crater taken by Globe employee volunteer Rock Gonzales",
      "datePosted": "Aug 11, 2016 | 02:26 PM",
      "titleFromTag": "Citizenship"
    },
    {
      "title": "Filipino SMEs now have access to free business consultancy services from certified experts through Globe myBusiness",
      "nonclickable": false,
      "openNewTab": false,
      "borderArticle": "border-color:#0074D9;",
      "borderTopArticle": "border-top-color:#0074D9;",
      "imageListing": "/sites/globe.com.ph/files/content/dam/globe/brie/AboutUs/newsroom/common/Corporate_Globe_Listing.jpg",
      "articleUrl": "https://www.globe.com.ph/about-us/newsroom/business/filipino-smes-now-have-access-free-business-consultancy-services.html",
      "columnType": "articles--type-3",
      "typeListing": "article",
      "imageMobile": "/sites/globe.com.ph/files/content/dam/globe/brie/AboutUs/newsroom/common/Corporate_Globe_Hero-Banner-Mobile.jpg",
      "imageDesktop": "/sites/globe.com.ph/files/content/dam/globe/brie/AboutUs/newsroom/common/Corporate_Globe_Primary-Desktop-Thumbnail.jpg",
      "description": "Globe myBusiness now offers free, exclusive business consultancy services to help entrepreneurs improve their business processes and operations' efficiency.",
      "datePosted": "Aug 11, 2016 | 01:54 PM",
      "titleFromTag": "Business"
    },
    {
      "title": "Getting the Best of Your Pokémon GO Journey",
      "nonclickable": false,
      "openNewTab": false,
      "borderArticle": "border-color:#0074D9;",
      "borderTopArticle": "border-top-color:#0074D9;",
      "imageListing": "/sites/globe.com.ph/files/content/dam/globe/brie/AboutUs/newsroom/common/Corporate_Globe_Listing.jpg",
      "articleUrl": "https://www.globe.com.ph/about-us/newsroom/consumer/getting-best-your-pokemon-go-journey.html",
      "columnType": "articles--type-3",
      "typeListing": "article",
      "imageMobile": "/sites/globe.com.ph/files/content/dam/globe/brie/AboutUs/newsroom/common/Corporate_Globe_Hero-Banner-Mobile.jpg",
      "imageDesktop": "/sites/globe.com.ph/files/content/dam/globe/brie/AboutUs/newsroom/common/Corporate_Globe_Primary-Desktop-Thumbnail.jpg",
      "description": "Gear up trainers! Pokémon GO is finally available in the Philippines, and it’s time to fulfill your dreams of becoming a Pokémon master!",
      "datePosted": "Aug 11, 2016 | 01:08 PM",
      "titleFromTag": "Consumer"
    },
    {
      "title": "Globe Telecom positions Davao in global connectivity map",
      "nonclickable": false,
      "openNewTab": false,
      "borderArticle": "border-color:#0074D9;",
      "borderTopArticle": "border-top-color:#0074D9;",
      "imageListing": "/sites/globe.com.ph/files/content/dam/globe/brie/AboutUs/newsroom/common/Corporate_Globe_Listing.jpg",
      "articleUrl": "https://www.globe.com.ph/about-us/newsroom/corporate/globe-telecom-positions-davao-global-connectivity-map.html",
      "columnType": "articles--type-3",
      "typeListing": "article",
      "imageMobile": "/sites/globe.com.ph/files/content/dam/globe/brie/AboutUs/newsroom/common/Corporate_Globe_Hero-Banner-Mobile.jpg",
      "imageDesktop": "/sites/globe.com.ph/files/content/dam/globe/brie/AboutUs/newsroom/common/Corporate_Globe_Primary-Desktop-Thumbnail.jpg",
      "description": "Globe Telecom is positioning Davao in the global connectivity map by aggressively building on its network infrastructure. Visit Globe Newsroom for more.",
      "datePosted": "Aug 11, 2016 | 12:06 PM",
      "titleFromTag": "Corporate"
    },
    {
      "title": "Globe partners with MMDA to enhance network coverage, capacities",
      "nonclickable": false,
      "openNewTab": false,
      "borderArticle": "border-color:#0074D9;",
      "borderTopArticle": "border-top-color:#0074D9;",
      "imageListing": "/sites/globe.com.ph/files/content/dam/globe/brie/AboutUs/newsroom/common/Corporate_Globe_Listing.jpg",
      "articleUrl": "https://www.globe.com.ph/about-us/newsroom/sustainability/globe-partners-mmda-enhance-network-coverage-capacities.html",
      "columnType": "articles--type-3",
      "typeListing": "article",
      "imageMobile": "/sites/globe.com.ph/files/content/dam/globe/brie/AboutUs/newsroom/common/Corporate_Globe_Hero-Banner-Mobile.jpg",
      "imageDesktop": "/sites/globe.com.ph/files/content/dam/globe/brie/AboutUs/newsroom/common/Corporate_Globe_Primary-Desktop-Thumbnail.jpg",
      "description": "Get the latest news on Globe Telecom. Visit the Globe Press Room now.",
      "datePosted": "Aug 08, 2016 | 03:32 PM",
      "titleFromTag": "Sustainability"
    },
    {
      "title": "Globe Partners with MMDA to Enhance Network Coverage, Capacities",
      "nonclickable": false,
      "openNewTab": false,
      "borderArticle": "border-color:#0074D9;",
      "borderTopArticle": "border-top-color:#0074D9;",
      "imageListing": "/sites/globe.com.ph/files/content/dam/globe/brie/AboutUs/newsroom/common/updated/Corporate-globe-thumbnail-listing.jpg",
      "articleUrl": "https://www.globe.com.ph/about-us/newsroom/corporate/globe-partners-mmda-enhance-network-coverage-capacities.html",
      "columnType": "articles--type-3",
      "typeListing": "article",
      "imageMobile": "/sites/globe.com.ph/files/content/dam/globe/brie/AboutUs/newsroom/common/updated/Corporate-globe-primary-thumbnail-m.jpg",
      "imageDesktop": "/sites/globe.com.ph/files/content/dam/globe/brie/AboutUs/newsroom/common/updated/Corporate-globe-primary-thumbnail-d.jpg",
      "description": "Globe and MMDA signed a deal allowing the telecommuncations company to deploy wireless infrastructure in MMDA controlled areas to enhance network coverage.",
      "datePosted": "Aug 08, 2016 | 03:32 PM",
      "titleFromTag": "Corporate"
    },
    {
      "title": "Globe 1st telco to provide free Wi-Fi services in LRT stations",
      "nonclickable": false,
      "openNewTab": false,
      "borderArticle": "border-color:#0074D9;",
      "borderTopArticle": "border-top-color:#0074D9;",
      "imageListing": "/sites/globe.com.ph/files/content/dam/globe/brie/AboutUs/newsroom/common/Corporate_Globe_Listing.jpg",
      "articleUrl": "https://www.globe.com.ph/about-us/newsroom/sustainability/globe-1st-telco-provide-free-wi-fi-services-lrt-stations.html",
      "columnType": "articles--type-3",
      "typeListing": "article",
      "imageMobile": "/sites/globe.com.ph/files/content/dam/globe/brie/AboutUs/newsroom/common/Corporate_Globe_Hero-Banner-Mobile.jpg",
      "imageDesktop": "/sites/globe.com.ph/files/content/dam/globe/brie/AboutUs/newsroom/common/Corporate_Globe_Primary-Desktop-Thumbnail.jpg",
      "description": "Globe Telecom is the country’s first telecommunications company to provide free Wi-Fi services in all 20 LRT stations as part of its commitment to address growing customer demand for constant connect\r\n",
      "datePosted": "Aug 08, 2016 | 03:30 PM",
      "titleFromTag": "Sustainability"
    },
    {
      "title": "Globe 1st telco to provide free Wi-Fi services in LRT stations",
      "nonclickable": false,
      "openNewTab": false,
      "borderArticle": "border-color:#0074D9;",
      "borderTopArticle": "border-top-color:#0074D9;",
      "imageListing": "/sites/globe.com.ph/files/content/dam/globe/brie/AboutUs/newsroom/common/Corporate_Globe_Listing.jpg",
      "articleUrl": "https://www.globe.com.ph/about-us/newsroom/corporate/globe-1st-telco-provide-free-wi-fi-services-lrt-stations.html",
      "columnType": "articles--type-3",
      "typeListing": "article",
      "imageMobile": "/sites/globe.com.ph/files/content/dam/globe/brie/AboutUs/newsroom/common/Corporate_Globe_Hero-Banner-Mobile.jpg",
      "imageDesktop": "/sites/globe.com.ph/files/content/dam/globe/brie/AboutUs/newsroom/common/Corporate_Globe_Primary-Desktop-Thumbnail.jpg",
      "description": "Globe Telecom is the country’s first telecommunications company to provide free Wi-Fi services in all 20 LRT stations as part of its commitment to address growing customer demand for constant connect2",
      "datePosted": "Aug 08, 2016 | 11:59 AM",
      "titleFromTag": "Corporate"
    },
    {
      "title": "Globe 1H Data Traffic Rises 35% On Year to 151 Petabytes; Drives Mobile Data Growth",
      "nonclickable": false,
      "openNewTab": false,
      "borderArticle": "border-color:#0074D9;",
      "borderTopArticle": "border-top-color:#0074D9;",
      "imageListing": "/sites/globe.com.ph/files/content/dam/globe/brie/AboutUs/newsroom/common/Corporate_Globe_Listing.jpg",
      "articleUrl": "https://www.globe.com.ph/about-us/newsroom/corporate/globe-1h-data-traffic-rises-35-year-151-petabytes-drives-mobile-.html",
      "columnType": "articles--type-3",
      "typeListing": "article",
      "imageMobile": "/sites/globe.com.ph/files/content/dam/globe/brie/AboutUs/newsroom/common/Corporate_Globe_Hero-Banner-Mobile.jpg",
      "imageDesktop": "/sites/globe.com.ph/files/content/dam/globe/brie/AboutUs/newsroom/common/Corporate_Globe_Primary-Desktop-Thumbnail.jpg",
      "description": "Globe Telecom's network saw a 35% YoY rise in data traffic to 151PB by June-end, up from 112PB last year, due to sustained growth.",
      "datePosted": "Aug 08, 2016 | 11:58 AM",
      "titleFromTag": "Corporate"
    },
    {
      "title": "GoSURF50 Changes PH Index as 2nd Most Affordable Mobile Data Service in Asia Pacific",
      "nonclickable": false,
      "openNewTab": false,
      "borderArticle": "border-color:#0074D9;",
      "borderTopArticle": "border-top-color:#0074D9;",
      "imageListing": "/sites/globe.com.ph/files/content/dam/globe/brie/AboutUs/newsroom/common/Corporate_Globe_Listing.jpg",
      "articleUrl": "https://www.globe.com.ph/about-us/newsroom/consumer/gosurf50-changes-ph-index-as-2nd-most-affordable-mobile-data-ser.html",
      "columnType": "articles--type-3",
      "typeListing": "article",
      "imageMobile": "/sites/globe.com.ph/files/content/dam/globe/brie/AboutUs/newsroom/common/Corporate_Globe_Hero-Banner-Mobile.jpg",
      "imageDesktop": "/sites/globe.com.ph/files/content/dam/globe/brie/AboutUs/newsroom/common/Corporate_Globe_Primary-Desktop-Thumbnail.jpg",
      "description": "GoSURF50 was upgraded with 1GB of mobile data allocation to further support customers’ digital lifestyle. Visit the Globe Newsroom for the latest news ",
      "datePosted": "Aug 05, 2016 | 01:12 PM",
      "titleFromTag": "Consumer"
    },
    {
      "title": "SM Cinemas now Accepts GCash for Online Movie Ticket Purchase",
      "nonclickable": false,
      "openNewTab": false,
      "borderArticle": "border-color:#0074D9;",
      "borderTopArticle": "border-top-color:#0074D9;",
      "imageListing": "/sites/globe.com.ph/files/content/dam/globe/brie/AboutUs/newsroom/common/Corporate_Globe_Listing.jpg",
      "articleUrl": "https://www.globe.com.ph/about-us/newsroom/partners/sm-cinemas-now-accepts-gcash-online-movie-ticket-purchase.html",
      "columnType": "articles--type-3",
      "typeListing": "article",
      "imageMobile": "/sites/globe.com.ph/files/content/dam/globe/brie/AboutUs/newsroom/common/Corporate_Globe_Hero-Banner-Mobile.jpg",
      "imageDesktop": "/sites/globe.com.ph/files/content/dam/globe/brie/AboutUs/newsroom/common/Corporate_Globe_Primary-Desktop-Thumbnail.jpg",
      "description": "GCash is now accepted for online movie ticket purchase at all SM Cinemas nationwide via GMovies. Visit Globe Newsroom for more.",
      "datePosted": "Aug 04, 2016 | 02:52 PM",
      "titleFromTag": "Partners"
    },
    {
      "title": "Concentrix strengthens PH presence with Tera Tower opening Taps Globe Business to provide data and connectivity requirements",
      "nonclickable": false,
      "openNewTab": false,
      "borderArticle": "border-color:#0074D9;",
      "borderTopArticle": "border-top-color:#0074D9;",
      "imageListing": "/sites/globe.com.ph/files/content/dam/globe/brie/AboutUs/newsroom/common/Corporate_Globe_Listing.jpg",
      "articleUrl": "https://www.globe.com.ph/about-us/newsroom/business/concentrix-strengthens-ph-presence-with-tera-tower-opening.html",
      "columnType": "articles--type-3",
      "typeListing": "article",
      "imageMobile": "/sites/globe.com.ph/files/content/dam/globe/brie/AboutUs/newsroom/common/Corporate_Globe_Hero-Banner-Mobile.jpg",
      "imageDesktop": "/sites/globe.com.ph/files/content/dam/globe/brie/AboutUs/newsroom/common/Corporate_Globe_Primary-Desktop-Thumbnail.jpg",
      "description": "Globe Telecom was tapped by Concentrix to provide data and connectivity services for its new, state-of-the-art facility, the Tera Tower. Learn more here.",
      "datePosted": "Aug 04, 2016 | 01:56 PM",
      "titleFromTag": "Business"
    }
  ]
}
