{
  "status": 200,
  "page": 282,
  "totalPage": 298,
  "range": "3373-3384",
  "total": 3573,
  "result": [
    {
      "title": "Court of Appeals approves consolidation of Globe, PLDT cases vs PCC; Action of anti-trust body implies \"selective justice\"",
      "nonclickable": false,
      "openNewTab": false,
      "borderArticle": "border-color:#0074D9;",
      "borderTopArticle": "border-top-color:#0074D9;",
      "imageListing": "/sites/globe.com.ph/files/content/dam/globe/brie/AboutUs/newsroom/common/Corporate_Globe_Listing.jpg",
      "articleUrl": "https://www.globe.com.ph/about-us/newsroom/corporate/court-appeals-approves-consolidation-globe-pldt-cases-vs-pcc-acti.html",
      "columnType": "articles--type-3",
      "typeListing": "article",
      "imageMobile": "/sites/globe.com.ph/files/content/dam/globe/brie/AboutUs/newsroom/common/Corporate_Globe_Hero-Banner-Mobile.jpg",
      "imageDesktop": "/sites/globe.com.ph/files/content/dam/globe/brie/AboutUs/newsroom/common/Corporate_Globe_Primary-Desktop-Thumbnail.jpg",
      "description": "The Court of Appeals (CA) has approved Globe Telecom’s urgent motion to consolidate its petition with PLDT. Read more",
      "datePosted": "Aug 04, 2016 | 12:00 PM",
      "titleFromTag": "Corporate"
    },
    {
      "title": "Globe Maintains Dividend Covenant; OKs ₱22/Share Cash Dividend",
      "nonclickable": false,
      "openNewTab": false,
      "borderArticle": "border-color:#0074D9;",
      "borderTopArticle": "border-top-color:#0074D9;",
      "imageListing": "/sites/globe.com.ph/files/content/dam/globe/brie/AboutUs/newsroom/common/Corporate_Globe_Listing.jpg",
      "articleUrl": "https://www.globe.com.ph/about-us/newsroom/corporate/globe-maintains-dividend-covenant-oks-p22share-cash-dividend.html",
      "columnType": "articles--type-3",
      "typeListing": "article",
      "imageMobile": "/sites/globe.com.ph/files/content/dam/globe/brie/AboutUs/newsroom/common/Corporate_Globe_Hero-Banner-Mobile.jpg",
      "imageDesktop": "/sites/globe.com.ph/files/content/dam/globe/brie/AboutUs/newsroom/common/Corporate_Globe_Primary-Desktop-Thumbnail.jpg",
      "description": "Globe reported that its Board of Directors has approved the payment of the third quarterly cash dividend of P22 per share to common shareholders.",
      "datePosted": "Aug 04, 2016 | 12:00 PM",
      "titleFromTag": "Corporate"
    },
    {
      "title": "Globe Telecom submits 3-year coverage rollout plan to NTC",
      "nonclickable": false,
      "openNewTab": false,
      "borderArticle": "border-color:#0074D9;",
      "borderTopArticle": "border-top-color:#0074D9;",
      "imageListing": "/sites/globe.com.ph/files/content/dam/globe/brie/AboutUs/newsroom/common/Corporate_Globe_Listing.jpg",
      "articleUrl": "https://www.globe.com.ph/about-us/newsroom/sustainability/globe-telecom-submits-3-year-coverage-rollout-plan-ntc.html",
      "columnType": "articles--type-3",
      "typeListing": "article",
      "imageMobile": "/sites/globe.com.ph/files/content/dam/globe/brie/AboutUs/newsroom/common/Corporate_Globe_Hero-Banner-Mobile.jpg",
      "imageDesktop": "/sites/globe.com.ph/files/content/dam/globe/brie/AboutUs/newsroom/common/Corporate_Globe_Primary-Desktop-Thumbnail.jpg",
      "description": "Globe Telecom submitted its 3-year coverage rollout plan to the National Telecommunications Commission (NTC) and committed to provide mobile services, including voice, SMS and data, to 95% of municip",
      "datePosted": "Aug 03, 2016 | 03:33 PM",
      "titleFromTag": "Sustainability"
    },
    {
      "title": "Samsung releases all-new Galaxy Note 7",
      "nonclickable": false,
      "openNewTab": false,
      "borderArticle": "border-color:#0074D9;",
      "borderTopArticle": "border-top-color:#0074D9;",
      "imageListing": "/sites/globe.com.ph/files/content/dam/globe/brie/AboutUs/newsroom/common/Corporate_Globe_Listing.jpg",
      "articleUrl": "https://www.globe.com.ph/about-us/newsroom/consumer/samsung-releases-all-new-galaxy-note-7.html",
      "columnType": "articles--type-3",
      "typeListing": "article",
      "imageMobile": "/sites/globe.com.ph/files/content/dam/globe/brie/AboutUs/newsroom/common/Corporate_Globe_Hero-Banner-Mobile.jpg",
      "imageDesktop": "/sites/globe.com.ph/files/content/dam/globe/brie/AboutUs/newsroom/common/Corporate_Globe_Primary-Desktop-Thumbnail.jpg",
      "description": "Samsung finally unveiled its all-new Galaxy Note 7. Visit the Globe Newsroom for the latest news on Globe Telecom.",
      "datePosted": "Aug 03, 2016 | 01:09 PM",
      "titleFromTag": "Consumer"
    },
    {
      "title": "2016 Global High Performance Companies Norm now includes Globe Telecom",
      "nonclickable": false,
      "openNewTab": false,
      "borderArticle": "border-color:#0074D9;",
      "borderTopArticle": "border-top-color:#0074D9;",
      "imageListing": "/sites/globe.com.ph/files/content/dam/globe/brie/AboutUs/newsroom/common/Corporate_Globe_Listing.jpg",
      "articleUrl": "https://www.globe.com.ph/about-us/newsroom/corporate/2016-global-high-performance-companies-norm-now-includes-globe-telecom.html",
      "columnType": "articles--type-3",
      "typeListing": "article",
      "imageMobile": "/sites/globe.com.ph/files/content/dam/globe/brie/AboutUs/newsroom/common/Corporate_Globe_Hero-Banner-Mobile.jpg",
      "imageDesktop": "/sites/globe.com.ph/files/content/dam/globe/brie/AboutUs/newsroom/common/Corporate_Globe_Primary-Desktop-Thumbnail.jpg",
      "description": "Globe Telecom is the first telecommunications company in the Philippines to be included in the 2016 Global High Performance Companies Norm.",
      "datePosted": "Aug 03, 2016 | 12:02 PM",
      "titleFromTag": "Corporate"
    },
    {
      "title": "Globe Telecom submits 3-year coverage rollout plan to NTC",
      "nonclickable": false,
      "openNewTab": false,
      "borderArticle": "border-color:#0074D9;",
      "borderTopArticle": "border-top-color:#0074D9;",
      "imageListing": "/sites/globe.com.ph/files/content/dam/globe/brie/AboutUs/newsroom/common/Corporate_Globe_Listing.jpg",
      "articleUrl": "https://www.globe.com.ph/about-us/newsroom/corporate/globe-telecom-submits-3-year-coverage-rollout-plan-ntc.html",
      "columnType": "articles--type-3",
      "typeListing": "article",
      "imageMobile": "/sites/globe.com.ph/files/content/dam/globe/brie/AboutUs/newsroom/common/Corporate_Globe_Hero-Banner-Mobile.jpg",
      "imageDesktop": "/sites/globe.com.ph/files/content/dam/globe/brie/AboutUs/newsroom/common/Corporate_Globe_Primary-Desktop-Thumbnail.jpg",
      "description": "Globe Telecom submitted its 3-year coverage rollout plan to the National Telecommunications Commission (NTC) and committed to provide mobile services, including voice, SMS and data, to 95% of municip",
      "datePosted": "Aug 03, 2016 | 12:01 PM",
      "titleFromTag": "Corporate"
    },
    {
      "title": "Globe Keeps Growth Momentum in 1H; Posts Double-Digit Growth in Revenues",
      "nonclickable": false,
      "openNewTab": false,
      "borderArticle": "border-color:#0074D9;",
      "borderTopArticle": "border-top-color:#0074D9;",
      "imageListing": "/sites/globe.com.ph/files/content/dam/globe/brie/AboutUs/newsroom/common/Corporate_Globe_Listing.jpg",
      "articleUrl": "https://www.globe.com.ph/about-us/newsroom/corporate/globe-keeps-growth-momentum-1h-posts-double-digit-growth-revenue.html",
      "columnType": "articles--type-3",
      "typeListing": "article",
      "imageMobile": "/sites/globe.com.ph/files/content/dam/globe/brie/AboutUs/newsroom/common/Corporate_Globe_Hero-Banner-Mobile.jpg",
      "imageDesktop": "/sites/globe.com.ph/files/content/dam/globe/brie/AboutUs/newsroom/common/Corporate_Globe_Primary-Desktop-Thumbnail.jpg",
      "description": "Globe Telecom sustained its growth momentum in the first half of the year, delivering a double-digit hike in revenues with a total of P59.6 billion",
      "datePosted": "Aug 03, 2016 | 12:01 PM",
      "titleFromTag": "Corporate"
    },
    {
      "title": "On government policy for 911 and 8888: Globe will comply",
      "nonclickable": false,
      "openNewTab": false,
      "borderArticle": "border-color:#0074D9;",
      "borderTopArticle": "border-top-color:#0074D9;",
      "imageListing": "/sites/globe.com.ph/files/content/dam/globe/brie/AboutUs/newsroom/common/Corporate_Globe_Listing.jpg",
      "articleUrl": "https://www.globe.com.ph/about-us/newsroom/corporate/government-policy-911-and-8888-globe-will-comply.html",
      "columnType": "articles--type-3",
      "typeListing": "article",
      "imageMobile": "/sites/globe.com.ph/files/content/dam/globe/brie/AboutUs/newsroom/common/Corporate_Globe_Hero-Banner-Mobile.jpg",
      "imageDesktop": "/sites/globe.com.ph/files/content/dam/globe/brie/AboutUs/newsroom/common/Corporate_Globe_Primary-Desktop-Thumbnail.jpg",
      "description": "Globe Telecom is ready to comply with the government directive to provide access to 911 and 8888 numbers for government emergency hotline and complaint hotline.  All services will be for voice s",
      "datePosted": "Jul 28, 2016 | 12:06 PM",
      "titleFromTag": "Corporate"
    },
    {
      "title": "Globe Telecom ready to transmit voice calls for emergency hotline 911 and complaint hotline 8888 by August 1",
      "nonclickable": false,
      "openNewTab": false,
      "borderArticle": "border-color:#0074D9;",
      "borderTopArticle": "border-top-color:#0074D9;",
      "imageListing": "/sites/globe.com.ph/files/content/dam/globe/brie/AboutUs/newsroom/common/Corporate_Globe_Listing.jpg",
      "articleUrl": "https://www.globe.com.ph/about-us/newsroom/corporate/globe-telecom-ready-transmit-voice-calls-emergency-hotline.html",
      "columnType": "articles--type-3",
      "typeListing": "article",
      "imageMobile": "/sites/globe.com.ph/files/content/dam/globe/brie/AboutUs/newsroom/common/Corporate_Globe_Hero-Banner-Mobile.jpg",
      "imageDesktop": "/sites/globe.com.ph/files/content/dam/globe/brie/AboutUs/newsroom/common/Corporate_Globe_Primary-Desktop-Thumbnail.jpg",
      "description": "Globe Telecom is ready to transmit voice calls for emergency hotline 911 and complaint hotline 8888 on August 1, as directed by the government.",
      "datePosted": "Jul 27, 2016 | 12:09 PM",
      "titleFromTag": "Corporate"
    },
    {
      "title": "Globe Telecom most awarded PH telco operator in 1H of 2016",
      "nonclickable": false,
      "openNewTab": false,
      "borderArticle": "border-color:#0074D9;",
      "borderTopArticle": "border-top-color:#0074D9;",
      "imageListing": "/sites/globe.com.ph/files/content/dam/globe/brie/AboutUs/newsroom/common/Corporate_Globe_Listing.jpg",
      "articleUrl": "https://www.globe.com.ph/about-us/newsroom/corporate/globe-telecom-most-awarded-ph-telco-operator-1h-2016.html",
      "columnType": "articles--type-3",
      "typeListing": "article",
      "imageMobile": "/sites/globe.com.ph/files/content/dam/globe/brie/AboutUs/newsroom/common/Corporate_Globe_Hero-Banner-Mobile.jpg",
      "imageDesktop": "/sites/globe.com.ph/files/content/dam/globe/brie/AboutUs/newsroom/common/Corporate_Globe_Primary-Desktop-Thumbnail.jpg",
      "description": "Globe Telecom is the Philippines’ most awarded telecommunications operator in the first half of 2016. Visit Globe Newsroom for more.",
      "datePosted": "Jul 26, 2016 | 12:07 PM",
      "titleFromTag": "Corporate"
    },
    {
      "title": "Globe maintains position within the bounds of law the joint buyout transaction is deemed approved",
      "nonclickable": false,
      "openNewTab": false,
      "borderArticle": "border-color:#0074D9;",
      "borderTopArticle": "border-top-color:#0074D9;",
      "imageListing": "/sites/globe.com.ph/files/content/dam/globe/brie/AboutUs/newsroom/common/Corporate_Globe_Listing.jpg",
      "articleUrl": "https://www.globe.com.ph/about-us/newsroom/corporate/globe-maintains-position-within-bounds-law-joint-buyout-transact.html",
      "columnType": "articles--type-3",
      "typeListing": "article",
      "imageMobile": "/sites/globe.com.ph/files/content/dam/globe/brie/AboutUs/newsroom/common/Corporate_Globe_Hero-Banner-Mobile.jpg",
      "imageDesktop": "/sites/globe.com.ph/files/content/dam/globe/brie/AboutUs/newsroom/common/Corporate_Globe_Primary-Desktop-Thumbnail.jpg",
      "description": "Globe maintains its legal position as it strictly followed the provisions of Sections 4 and 5 of PCC's Memorandum Circular No. 16-002",
      "datePosted": "Jul 26, 2016 | 12:07 PM",
      "titleFromTag": "Corporate"
    },
    {
      "title": "All the hottest apps and mobile internet deals at the flick of a switch with the all-new Globe Switch app",
      "nonclickable": false,
      "openNewTab": false,
      "borderArticle": "border-color:#0074D9;",
      "borderTopArticle": "border-top-color:#0074D9;",
      "imageListing": "/sites/globe.com.ph/files/content/dam/globe/brie/AboutUs/newsroom/common/Corporate_Globe_Listing.jpg",
      "articleUrl": "https://www.globe.com.ph/about-us/newsroom/consumer/all-hottest-apps-and-mobile-internet-deals-flick-switch-all-new-.html",
      "columnType": "articles--type-3",
      "typeListing": "article",
      "imageMobile": "/sites/globe.com.ph/files/content/dam/globe/brie/AboutUs/newsroom/common/Corporate_Globe_Hero-Banner-Mobile.jpg",
      "imageDesktop": "/sites/globe.com.ph/files/content/dam/globe/brie/AboutUs/newsroom/common/Corporate_Globe_Primary-Desktop-Thumbnail.jpg",
      "description": "Brand Manager for Business Development for Consumer Prepaid Jaime Alfonso Zobel navigates through the Globe Switch app to demonstrate how its features work",
      "datePosted": "Jul 25, 2016 | 01:13 PM",
      "titleFromTag": "Consumer"
    }
  ]
}
