{
  "status": 200,
  "page": 283,
  "totalPage": 298,
  "range": "3385-3396",
  "total": 3573,
  "result": [
    {
      "title": "Globe dares PCC to be transparent",
      "nonclickable": false,
      "openNewTab": false,
      "borderArticle": "border-color:#0074D9;",
      "borderTopArticle": "border-top-color:#0074D9;",
      "imageListing": "/sites/globe.com.ph/files/content/dam/globe/brie/AboutUs/newsroom/common/Corporate_Globe_Listing.jpg",
      "articleUrl": "https://www.globe.com.ph/about-us/newsroom/corporate/globe-dares-pcc-be-transparent.html",
      "columnType": "articles--type-3",
      "typeListing": "article",
      "imageMobile": "/sites/globe.com.ph/files/content/dam/globe/brie/AboutUs/newsroom/common/Corporate_Globe_Hero-Banner-Mobile.jpg",
      "imageDesktop": "/sites/globe.com.ph/files/content/dam/globe/brie/AboutUs/newsroom/common/Corporate_Globe_Primary-Desktop-Thumbnail.jpg",
      "description": "Globe Telecom  has asked the Philippine Competition Commission to be transparent to the public by stating their prevailing transitory rules",
      "datePosted": "Jul 25, 2016 | 12:08 PM",
      "titleFromTag": "Corporate"
    },
    {
      "title": "Globe will exercise its right to improve services despite PCC’s effort to block telco deal",
      "nonclickable": false,
      "openNewTab": false,
      "borderArticle": "border-color:#0074D9;",
      "borderTopArticle": "border-top-color:#0074D9;",
      "imageListing": "/sites/globe.com.ph/files/content/dam/globe/brie/AboutUs/newsroom/common/Corporate_Globe_Listing.jpg",
      "articleUrl": "https://www.globe.com.ph/about-us/newsroom/corporate/globe-will-exercise-its-right-improve-services-despite-pccs-effo.html",
      "columnType": "articles--type-3",
      "typeListing": "article",
      "imageMobile": "/sites/globe.com.ph/files/content/dam/globe/brie/AboutUs/newsroom/common/Corporate_Globe_Hero-Banner-Mobile.jpg",
      "imageDesktop": "/sites/globe.com.ph/files/content/dam/globe/brie/AboutUs/newsroom/common/Corporate_Globe_Primary-Desktop-Thumbnail.jpg",
      "description": "Globe to provide customers better mobile internet services using various frequencies it can now access through its joint buyout of the SMC telco assets.",
      "datePosted": "Jul 25, 2016 | 12:08 PM",
      "titleFromTag": "Corporate"
    },
    {
      "title": "Globe Platinum and The Gourmand Market Brings a Gastronomic Weekend Foodventure",
      "nonclickable": false,
      "openNewTab": false,
      "borderArticle": "border-color:#0074D9;",
      "borderTopArticle": "border-top-color:#0074D9;",
      "imageListing": "/sites/globe.com.ph/files/content/dam/globe/brie/AboutUs/newsroom/common/Corporate_Globe_Listing.jpg",
      "articleUrl": "https://www.globe.com.ph/about-us/newsroom/consumer/globe-platinum-and-gourmand-market-brings-gastronomic-weekend--0.html",
      "columnType": "articles--type-3",
      "typeListing": "article",
      "imageMobile": "/sites/globe.com.ph/files/content/dam/globe/brie/AboutUs/newsroom/common/Corporate_Globe_Hero-Banner-Mobile.jpg",
      "imageDesktop": "/sites/globe.com.ph/files/content/dam/globe/brie/AboutUs/newsroom/common/Corporate_Globe_Primary-Desktop-Thumbnail.jpg",
      "description": "The Gourmand Market is back and ready to satisfy all the foodies out there. Visit the Globe Newsroom for the latest news on Globe Telecom.",
      "datePosted": "Jul 22, 2016 | 01:14 PM",
      "titleFromTag": "Consumer"
    },
    {
      "title": "Globe scores PCC for inconsistency of applying rules",
      "nonclickable": false,
      "openNewTab": false,
      "borderArticle": "border-color:#0074D9;",
      "borderTopArticle": "border-top-color:#0074D9;",
      "imageListing": "/sites/globe.com.ph/files/content/dam/globe/brie/AboutUs/newsroom/common/Corporate_Globe_Listing.jpg",
      "articleUrl": "https://www.globe.com.ph/about-us/newsroom/corporate/globe-scores-pcc-inconsistency-applying-rules.html",
      "columnType": "articles--type-3",
      "typeListing": "article",
      "imageMobile": "/sites/globe.com.ph/files/content/dam/globe/brie/AboutUs/newsroom/common/Corporate_Globe_Hero-Banner-Mobile.jpg",
      "imageDesktop": "/sites/globe.com.ph/files/content/dam/globe/brie/AboutUs/newsroom/common/Corporate_Globe_Primary-Desktop-Thumbnail.jpg",
      "description": "Globe Telecom decries the decision of the Philippine Competition Commission (PCC) to treat the P70B deal it entered with PLDT and San Miguel differently from the others when the said transaction was",
      "datePosted": "Jul 20, 2016 | 12:10 PM",
      "titleFromTag": "Corporate"
    },
    {
      "title": "Globe calls on DICT to enable the sector by getting rid of bureaucratic red tape",
      "nonclickable": false,
      "openNewTab": false,
      "imageListing": "/sites/globe.com.ph/files/content/dam/globe/brie/AboutUs/newsroom/common/Corporate_Globe_Listing.jpg",
      "articleUrl": "https://www.globe.com.ph/about-us/newsroom/corporate/globe-calls-dict-enable-sector-getting-rid-bureaucratic-red-tape.html",
      "columnType": "articles--type-3",
      "typeListing": "article",
      "imageMobile": "/sites/globe.com.ph/files/content/dam/globe/brie/AboutUs/newsroom/common/Corporate_Globe_Hero-Banner-Mobile.jpg",
      "imageDesktop": "/sites/globe.com.ph/files/content/dam/globe/brie/AboutUs/newsroom/common/Corporate_Globe_Primary-Desktop-Thumbnail.jpg",
      "description": "Globe Telecom welcomes DICT Secretary Rodolfo Salalima’s call for “good public service” from telco operators in the country.",
      "datePosted": "Jul 19, 2016 | 12:10 PM",
      "titleFromTag": "Corporate"
    },
    {
      "title": "Globe myBusiness Empowers SMEs with the Latest Digital Solutions at DigPH 2016",
      "nonclickable": false,
      "openNewTab": false,
      "borderArticle": "border-color:#0074D9;",
      "borderTopArticle": "border-top-color:#0074D9;",
      "imageListing": "/sites/globe.com.ph/files/content/dam/globe/brie/AboutUs/newsroom/common/Corporate_Globe_Listing.jpg",
      "articleUrl": "https://www.globe.com.ph/about-us/newsroom/business/globe-mybusiness-empowers-smes-latest-digital-solutions-.html",
      "columnType": "articles--type-3",
      "typeListing": "article",
      "imageMobile": "/sites/globe.com.ph/files/content/dam/globe/brie/AboutUs/newsroom/common/Corporate_Globe_Hero-Banner-Mobile.jpg",
      "imageDesktop": "/sites/globe.com.ph/files/content/dam/globe/brie/AboutUs/newsroom/common/Corporate_Globe_Primary-Desktop-Thumbnail.jpg",
      "description": "Craft Carrot owner Andrea Arancon discusses her triumphs in the business using Shopify as her e-commerce platform",
      "datePosted": "Jul 18, 2016 | 01:56 PM",
      "titleFromTag": "Business"
    },
    {
      "title": "Globe unveils game-changing home broadband plans",
      "nonclickable": false,
      "openNewTab": false,
      "borderArticle": "border-color:#0074D9;",
      "borderTopArticle": "border-top-color:#0074D9;",
      "imageListing": "/sites/globe.com.ph/files/content/dam/globe/brie/AboutUs/newsroom/common/Corporate_Globe_Listing.jpg",
      "articleUrl": "https://www.globe.com.ph/about-us/newsroom/consumer/globe-unveils-game-changing-home-broadband-plans.html",
      "columnType": "articles--type-3",
      "typeListing": "article",
      "imageMobile": "/sites/globe.com.ph/files/content/dam/globe/brie/AboutUs/newsroom/common/Corporate_Globe_Hero-Banner-Mobile.jpg",
      "imageDesktop": "/sites/globe.com.ph/files/content/dam/globe/brie/AboutUs/newsroom/common/Corporate_Globe_Primary-Desktop-Thumbnail.jpg",
      "description": "Globe Telecom launched new home broadband plans which can now be customized. Visit the Globe Newsroom for the latest news on Globe Telecom.",
      "datePosted": "Jul 18, 2016 | 01:15 PM",
      "titleFromTag": "Consumer"
    },
    {
      "title": "Turner seals partnership with Globe to launch Cartoon Network on mobile",
      "nonclickable": false,
      "openNewTab": false,
      "borderArticle": "border-color:#0074D9;",
      "borderTopArticle": "border-top-color:#0074D9;",
      "imageListing": "/sites/globe.com.ph/files/content/dam/globe/brie/AboutUs/newsroom/common/Corporate_Globe_Listing.jpg",
      "articleUrl": "https://www.globe.com.ph/about-us/newsroom/consumer/turner-seals-partnership-globe-launch-cartoon-network-mobile-0.html",
      "columnType": "articles--type-3",
      "typeListing": "article",
      "imageMobile": "/sites/globe.com.ph/files/content/dam/globe/brie/AboutUs/newsroom/common/Corporate_Globe_Hero-Banner-Mobile.jpg",
      "imageDesktop": "/sites/globe.com.ph/files/content/dam/globe/brie/AboutUs/newsroom/common/Corporate_Globe_Primary-Desktop-Thumbnail.jpg",
      "description": "Turner Asia Pacific and Globe Telecom announced that two upgraded Cartoon Network apps will soon be made available to Globe customers.",
      "datePosted": "Jul 18, 2016 | 01:15 PM",
      "titleFromTag": "Consumer"
    },
    {
      "title": "Globe seeks LGU collaboration in building telco infrastructure",
      "nonclickable": false,
      "openNewTab": false,
      "borderArticle": "border-color:#0074D9;",
      "borderTopArticle": "border-top-color:#0074D9;",
      "imageListing": "/sites/globe.com.ph/files/content/dam/globe/brie/AboutUs/newsroom/common/Corporate_Globe_Listing.jpg",
      "articleUrl": "https://www.globe.com.ph/about-us/newsroom/corporate/globe-seeks-lgu-collaboration-building-telco-infrastructure.html",
      "columnType": "articles--type-3",
      "typeListing": "article",
      "imageMobile": "/sites/globe.com.ph/files/content/dam/globe/brie/AboutUs/newsroom/common/Corporate_Globe_Hero-Banner-Mobile.jpg",
      "imageDesktop": "/sites/globe.com.ph/files/content/dam/globe/brie/AboutUs/newsroom/common/Corporate_Globe_Primary-Desktop-Thumbnail.jpg",
      "description": "Globe Telecom is seeking collaboration with local government units in developing telco infrastructure in the country in line with its vision of ushering the Philippines to become a digital nation by",
      "datePosted": "Jul 18, 2016 | 12:12 PM",
      "titleFromTag": "Corporate"
    },
    {
      "title": "Globe Customers in Vismin Now Enjoy Additional Data Capacity for Faster Mobile Internet",
      "nonclickable": false,
      "openNewTab": false,
      "borderArticle": "border-color:#0074D9;",
      "borderTopArticle": "border-top-color:#0074D9;",
      "imageListing": "/sites/globe.com.ph/files/content/dam/globe/brie/AboutUs/newsroom/common/Corporate_Globe_Listing.jpg",
      "articleUrl": "https://www.globe.com.ph/about-us/newsroom/corporate/globe-customers-vismin-now-enjoy-additional-data.html",
      "columnType": "articles--type-3",
      "typeListing": "article",
      "imageMobile": "/sites/globe.com.ph/files/content/dam/globe/brie/AboutUs/newsroom/common/Corporate_Globe_Hero-Banner-Mobile.jpg",
      "imageDesktop": "/sites/globe.com.ph/files/content/dam/globe/brie/AboutUs/newsroom/common/Corporate_Globe_Primary-Desktop-Thumbnail.jpg",
      "description": "Globe Telecom speeds up deployment of 2600 MHz band to benefit Visayas and Mindanao customers.",
      "datePosted": "Jul 18, 2016 | 12:11 PM",
      "titleFromTag": "Corporate"
    },
    {
      "title": "Globe not blocking PCC to do job",
      "nonclickable": false,
      "openNewTab": false,
      "borderArticle": "border-color:#0074D9;",
      "borderTopArticle": "border-top-color:#0074D9;",
      "imageListing": "/sites/globe.com.ph/files/content/dam/globe/brie/AboutUs/newsroom/common/Corporate_Globe_Listing.jpg",
      "articleUrl": "https://www.globe.com.ph/about-us/newsroom/corporate/globe-not-blocking-pcc-do-job.html",
      "columnType": "articles--type-3",
      "typeListing": "article",
      "imageMobile": "/sites/globe.com.ph/files/content/dam/globe/brie/AboutUs/newsroom/common/Corporate_Globe_Hero-Banner-Mobile.jpg",
      "imageDesktop": "/sites/globe.com.ph/files/content/dam/globe/brie/AboutUs/newsroom/common/Corporate_Globe_Primary-Desktop-Thumbnail.jpg",
      "description": "Globe Telecom objected to the ISOC's declaration that Globe is hindering the PCC's ability to carry out its role of encouraging fair market competition.",
      "datePosted": "Jul 18, 2016 | 12:11 PM",
      "titleFromTag": "Corporate"
    },
    {
      "title": "Huawei turns over 100 laptops to Ayala Foundation for Globe Telecom’s Global Filipino Schools program",
      "nonclickable": false,
      "openNewTab": false,
      "borderArticle": "border-color:#0074D9;",
      "borderTopArticle": "border-top-color:#0074D9;",
      "imageListing": "/sites/globe.com.ph/files/content/dam/globe/brie/AboutUs/newsroom/common/Corporate_Globe_Listing.jpg",
      "articleUrl": "https://www.globe.com.ph/about-us/newsroom/citizenship/huawei-turns-over-100-laptops-ayala-foundation-globe-tel.html",
      "columnType": "articles--type-3",
      "typeListing": "article",
      "imageMobile": "/sites/globe.com.ph/files/content/dam/globe/brie/AboutUs/newsroom/citizenship/Promote-wellness-by-feeling-good-and-looking-great/Corporate_Globe_Hero-Banner-Mobile.jpg",
      "imageDesktop": "/sites/globe.com.ph/files/content/dam/globe/brie/AboutUs/newsroom/common/Corporate_Globe_Primary-Desktop-Thumbnail.jpg",
      "description": "Huawei Technologies Philippines, Inc. supports the Global Filipino Schools Program of Globe Telecom, Inc. and Ayala Foundation, Inc. Learn more here.",
      "datePosted": "Jul 12, 2016 | 02:28 PM",
      "titleFromTag": "Citizenship"
    }
  ]
}
