{
  "status": 200,
  "page": 284,
  "totalPage": 298,
  "range": "3397-3408",
  "total": 3573,
  "result": [
    {
      "title": "Globe Telecom files case before Court of Appeals; says it will continue network improvements despite PCC stance",
      "nonclickable": false,
      "openNewTab": false,
      "borderArticle": "border-color:#0074D9;",
      "borderTopArticle": "border-top-color:#0074D9;",
      "imageListing": "/sites/globe.com.ph/files/content/dam/globe/brie/AboutUs/newsroom/common/Corporate_Globe_Listing.jpg",
      "articleUrl": "https://www.globe.com.ph/about-us/newsroom/corporate/globe-telecom-files-case-court-appeals-says-it-will-continue-net.html",
      "columnType": "articles--type-3",
      "typeListing": "article",
      "imageMobile": "/sites/globe.com.ph/files/content/dam/globe/brie/AboutUs/newsroom/common/Corporate_Globe_Hero-Banner-Mobile.jpg",
      "imageDesktop": "/sites/globe.com.ph/files/content/dam/globe/brie/AboutUs/newsroom/common/Corporate_Globe_Primary-Desktop-Thumbnail.jpg",
      "description": "Globe Telecom filed a case before the Court of Appeals to preserve the multi-billion peso deal with SMC.",
      "datePosted": "Jul 12, 2016 | 12:12 PM",
      "titleFromTag": "Corporate"
    },
    {
      "title": "Globe taps LA Tenorio to coach youth basketball program",
      "nonclickable": false,
      "openNewTab": false,
      "borderArticle": "border-color:#0074D9;",
      "borderTopArticle": "border-top-color:#0074D9;",
      "imageListing": "/sites/globe.com.ph/files/content/dam/globe/brie/AboutUs/newsroom/common/Corporate_Globe_Listing.jpg",
      "articleUrl": "https://www.globe.com.ph/about-us/newsroom/sustainability/globe-taps-la-tenorio-coach-youth-basketball-program.html",
      "columnType": "articles--type-3",
      "typeListing": "article",
      "imageMobile": "/sites/globe.com.ph/files/content/dam/globe/brie/AboutUs/newsroom/common/Corporate_Globe_Hero-Banner-Mobile.jpg",
      "imageDesktop": "/sites/globe.com.ph/files/content/dam/globe/brie/AboutUs/newsroom/common/Corporate_Globe_Primary-Desktop-Thumbnail.jpg",
      "description": "LA Tenorio teaches shooting techniques at one of TM Basketball Para sa Bayan clinics",
      "datePosted": "Jul 07, 2016 | 03:09 PM",
      "titleFromTag": "Sustainability"
    },
    {
      "title": "A Bigger and Better DigPH Digital Market Summit for SMEs Returns this July",
      "nonclickable": false,
      "openNewTab": false,
      "borderArticle": "border-color:#0074D9;",
      "borderTopArticle": "border-top-color:#0074D9;",
      "imageListing": "/sites/globe.com.ph/files/content/dam/globe/brie/AboutUs/newsroom/common/Corporate_Globe_Listing.jpg",
      "articleUrl": "https://www.globe.com.ph/about-us/newsroom/business/bigger-and-better-digph-digital-market-summit-smes-retur.html",
      "columnType": "articles--type-3",
      "typeListing": "article",
      "imageMobile": "/sites/globe.com.ph/files/content/dam/globe/brie/AboutUs/newsroom/common/Corporate_Globe_Hero-Banner-Mobile.jpg",
      "imageDesktop": "/sites/globe.com.ph/files/content/dam/globe/brie/AboutUs/newsroom/common/Corporate_Globe_Primary-Desktop-Thumbnail.jpg",
      "description": "DigPH returns at Crowne Plaza with bigger and better ideas to help business owners adapt to where their market has shifted. Visit Globe Newsroom for more.",
      "datePosted": "Jul 07, 2016 | 01:57 PM",
      "titleFromTag": "Business"
    },
    {
      "title": "Globe partners with Netflix in the Philippines",
      "nonclickable": false,
      "openNewTab": false,
      "borderArticle": "border-color:#0074D9;",
      "borderTopArticle": "border-top-color:#0074D9;",
      "imageListing": "/sites/globe.com.ph/files/content/dam/globe/brie/AboutUs/newsroom/common/Corporate_Globe_Listing.jpg",
      "articleUrl": "https://www.globe.com.ph/about-us/newsroom/consumer/globe-partners-netflix-philippines.html",
      "columnType": "articles--type-3",
      "typeListing": "article",
      "imageMobile": "/sites/globe.com.ph/files/content/dam/globe/brie/AboutUs/newsroom/common/Corporate_Globe_Hero-Banner-Mobile.jpg",
      "imageDesktop": "/sites/globe.com.ph/files/content/dam/globe/brie/AboutUs/newsroom/common/Corporate_Globe_Primary-Desktop-Thumbnail.jpg",
      "description": "Netflix VP Business Development for Asia, TONY ZAMECZKOWSKI discusses the new partnership of the streaming service company with Globe Telecom\"",
      "datePosted": "Jul 07, 2016 | 01:16 PM",
      "titleFromTag": "Consumer"
    },
    {
      "title": "Globe urges Akamai to include PH mobile internet performance in report",
      "nonclickable": false,
      "openNewTab": false,
      "borderArticle": "border-color:#0074D9;",
      "borderTopArticle": "border-top-color:#0074D9;",
      "imageListing": "/sites/globe.com.ph/files/content/dam/globe/brie/AboutUs/newsroom/common/Corporate_Globe_Listing.jpg",
      "articleUrl": "https://www.globe.com.ph/about-us/newsroom/corporate/globe-urges-akamai-include-ph-mobile-internet-performance-report.html",
      "columnType": "articles--type-3",
      "typeListing": "article",
      "imageMobile": "/sites/globe.com.ph/files/content/dam/globe/brie/AboutUs/newsroom/common/Corporate_Globe_Hero-Banner-Mobile.jpg",
      "imageDesktop": "/sites/globe.com.ph/files/content/dam/globe/brie/AboutUs/newsroom/common/Corporate_Globe_Primary-Desktop-Thumbnail.jpg",
      "description": "Globe Telecom calls on Akamai to include the mobile internet results for the Philippines in its quarterly State of the Internet (SOI) report in reaction to the 1st Quarter results released recently w",
      "datePosted": "Jul 07, 2016 | 12:14 PM",
      "titleFromTag": "Corporate"
    },
    {
      "title": "Globe to ISOC: 700 MHz needed to improve mobile internet services",
      "nonclickable": false,
      "openNewTab": false,
      "borderArticle": "border-color:#0074D9;",
      "borderTopArticle": "border-top-color:#0074D9;",
      "imageListing": "/sites/globe.com.ph/files/content/dam/globe/brie/AboutUs/newsroom/common/Corporate_Globe_Listing.jpg",
      "articleUrl": "https://www.globe.com.ph/about-us/newsroom/corporate/globe-isoc-700-mhz-needed-improve-mobile-internet-services.html",
      "columnType": "articles--type-3",
      "typeListing": "article",
      "imageMobile": "/sites/globe.com.ph/files/content/dam/globe/brie/AboutUs/newsroom/common/Corporate_Globe_Hero-Banner-Mobile.jpg",
      "imageDesktop": "/sites/globe.com.ph/files/content/dam/globe/brie/AboutUs/newsroom/common/Corporate_Globe_Primary-Desktop-Thumbnail.jpg",
      "description": "Globe addressed several incorrect facts about the 700MHz spectrum supplied by the Internet Society-Philippines Chapter (ISOC) in their letter to the PCC.",
      "datePosted": "Jul 07, 2016 | 11:21 AM",
      "titleFromTag": "Corporate"
    },
    {
      "title": "Mynt to Serve as One-Stop Shop for Financial Services Using Every Pinoy’s Mobile Phone",
      "nonclickable": false,
      "openNewTab": false,
      "borderArticle": "border-color:#0074D9;",
      "borderTopArticle": "border-top-color:#0074D9;",
      "imageListing": "/sites/globe.com.ph/files/content/dam/globe/brie/AboutUs/newsroom/common/Corporate_Globe_Listing.jpg",
      "articleUrl": "https://www.globe.com.ph/about-us/newsroom/partners/mynt-serve-one-stop-shop-financial-services-using-every-pinoys.html",
      "columnType": "articles--type-3",
      "typeListing": "article",
      "imageMobile": "/sites/globe.com.ph/files/content/dam/globe/brie/AboutUs/newsroom/common/Corporate_Globe_Hero-Banner-Mobile.jpg",
      "imageDesktop": "/sites/globe.com.ph/files/content/dam/globe/brie/AboutUs/newsroom/common/Corporate_Globe_Primary-Desktop-Thumbnail.jpg",
      "description": "Mynt President and CEO John Rubio speaks before the Digital Transformation Summit",
      "datePosted": "Jul 04, 2016 | 02:53 PM",
      "titleFromTag": "Partners"
    },
    {
      "title": "All DepEd School Divisions Nationwide to Benefit from Expanded Global Filipino School (GFS) Program of Globe Telecom",
      "nonclickable": false,
      "openNewTab": false,
      "borderArticle": "border-color:#0074D9;",
      "borderTopArticle": "border-top-color:#0074D9;",
      "imageListing": "/sites/globe.com.ph/files/content/dam/globe/brie/AboutUs/newsroom/common/Corporate_Globe_Listing.jpg",
      "articleUrl": "https://www.globe.com.ph/about-us/newsroom/citizenship/all-deped-school-divisions-nationwide-benefit-expanded-global.html",
      "columnType": "articles--type-3",
      "typeListing": "article",
      "imageMobile": "/sites/globe.com.ph/files/content/dam/globe/brie/AboutUs/newsroom/citizenship/Promote-wellness-by-feeling-good-and-looking-great/Corporate_Globe_Hero-Banner-Mobile.jpg",
      "imageDesktop": "/sites/globe.com.ph/files/content/dam/globe/brie/AboutUs/newsroom/common/Corporate_Globe_Primary-Desktop-Thumbnail.jpg",
      "description": "All 221 DepEd school divisions nationwide are expected to benefit from Globe's five-year expanded Global Filipino School (GFS) program. Learn more here.",
      "datePosted": "Jul 04, 2016 | 02:26 PM",
      "titleFromTag": "Citizenship"
    },
    {
      "title": "Globe Business Takes Lead in Shielding Enterprises from Cyber-Attacks",
      "nonclickable": false,
      "openNewTab": false,
      "borderArticle": "border-color:#0074D9;",
      "borderTopArticle": "border-top-color:#0074D9;",
      "imageListing": "/sites/globe.com.ph/files/content/dam/globe/brie/AboutUs/newsroom/common/Corporate_Globe_Listing.jpg",
      "articleUrl": "https://www.globe.com.ph/about-us/newsroom/business/globe-business-takes-lead-shielding-enterprises-cyber-at.html",
      "columnType": "articles--type-3",
      "typeListing": "article",
      "imageMobile": "/sites/globe.com.ph/files/content/dam/globe/brie/AboutUs/newsroom/common/Corporate_Globe_Hero-Banner-Mobile.jpg",
      "imageDesktop": "/sites/globe.com.ph/files/content/dam/globe/brie/AboutUs/newsroom/common/Corporate_Globe_Primary-Desktop-Thumbnail.jpg",
      "description": "Globe Business takes the lead in accelerating the adoption of managed security services across Philippine industries. Visit the Globe Newsroom for more.",
      "datePosted": "Jul 04, 2016 | 01:58 PM",
      "titleFromTag": "Business"
    },
    {
      "title": "Globe Business pushes for stronger IoT adoption in PH",
      "nonclickable": false,
      "openNewTab": false,
      "borderArticle": "border-color:#0074D9;",
      "borderTopArticle": "border-top-color:#0074D9;",
      "imageListing": "/sites/globe.com.ph/files/content/dam/globe/brie/AboutUs/newsroom/common/Corporate_Globe_Listing.jpg",
      "articleUrl": "https://www.globe.com.ph/about-us/newsroom/business/globe-business-pushes-stronger-iot-adoption-ph-0.html",
      "columnType": "articles--type-3",
      "typeListing": "article",
      "imageMobile": "/sites/globe.com.ph/files/content/dam/globe/brie/AboutUs/newsroom/common/Corporate_Globe_Hero-Banner-Mobile.jpg",
      "imageDesktop": "/sites/globe.com.ph/files/content/dam/globe/brie/AboutUs/newsroom/common/Corporate_Globe_Primary-Desktop-Thumbnail.jpg",
      "description": "Globe Senior Advisor for Enterprise and IT-Enables Services Group Mike Frausing served as keynote speaker in the  recently concluded Asia IoT Business Platform",
      "datePosted": "Jul 04, 2016 | 01:57 PM",
      "titleFromTag": "Business"
    },
    {
      "title": "Globe expands operations in Japan; refocuses retail operations in Europe",
      "nonclickable": false,
      "openNewTab": false,
      "borderArticle": "border-color:#0074D9;",
      "borderTopArticle": "border-top-color:#0074D9;",
      "imageListing": "/sites/globe.com.ph/files/content/dam/globe/brie/AboutUs/newsroom/common/Corporate_Globe_Listing.jpg",
      "articleUrl": "https://www.globe.com.ph/about-us/newsroom/consumer/globe-expands-operations-japan-refocuses-retail-operations-europ.html",
      "columnType": "articles--type-3",
      "typeListing": "article",
      "imageMobile": "/sites/globe.com.ph/files/content/dam/globe/brie/AboutUs/newsroom/common/Corporate_Globe_Hero-Banner-Mobile.jpg",
      "imageDesktop": "/sites/globe.com.ph/files/content/dam/globe/brie/AboutUs/newsroom/common/Corporate_Globe_Primary-Desktop-Thumbnail.jpg",
      "description": "Globe Telecom announced that it has expanded its operations in Asia with the establishment of GlobeTel Japan Inc. and its office based in Tokyo.",
      "datePosted": "Jul 04, 2016 | 01:18 PM",
      "titleFromTag": "Consumer"
    },
    {
      "title": "New fitness app KFIT designed to discover and plan wellness goals",
      "nonclickable": false,
      "openNewTab": false,
      "borderArticle": "border-color:#0074D9;",
      "borderTopArticle": "border-top-color:#0074D9;",
      "imageListing": "/sites/globe.com.ph/files/content/dam/globe/brie/AboutUs/newsroom/common/Corporate_Globe_Listing.jpg",
      "articleUrl": "https://www.globe.com.ph/about-us/newsroom/consumer/new-fitness-app-kfit-designed-discover-and-plan-wellness-goals.html",
      "columnType": "articles--type-3",
      "typeListing": "article",
      "imageMobile": "/sites/globe.com.ph/files/content/dam/globe/brie/AboutUs/newsroom/common/Corporate_Globe_Hero-Banner-Mobile.jpg",
      "imageDesktop": "/sites/globe.com.ph/files/content/dam/globe/brie/AboutUs/newsroom/common/Corporate_Globe_Primary-Desktop-Thumbnail.jpg",
      "description": "With KFIT, plan ahead and even discover new work outs around your area. One KFIT’s partners is  L!FE YOGA at Bonifacio Global City, Taguig",
      "datePosted": "Jul 04, 2016 | 01:17 PM",
      "titleFromTag": "Consumer"
    }
  ]
}
