{
  "status": 200,
  "page": 285,
  "totalPage": 298,
  "range": "3409-3420",
  "total": 3573,
  "result": [
    {
      "title": "Get on the bigger and better GoSURF50",
      "nonclickable": false,
      "openNewTab": false,
      "borderArticle": "border-color:#0074D9;",
      "borderTopArticle": "border-top-color:#0074D9;",
      "imageListing": "/sites/globe.com.ph/files/content/dam/globe/brie/AboutUs/newsroom/common/Corporate_Globe_Listing.jpg",
      "articleUrl": "https://www.globe.com.ph/about-us/newsroom/consumer/get-bigger-and-better-gosurf50-0.html",
      "columnType": "articles--type-3",
      "typeListing": "article",
      "imageMobile": "/sites/globe.com.ph/files/content/dam/globe/brie/AboutUs/newsroom/common/Corporate_Globe_Hero-Banner-Mobile.jpg",
      "imageDesktop": "/sites/globe.com.ph/files/content/dam/globe/brie/AboutUs/newsroom/common/Corporate_Globe_Primary-Desktop-Thumbnail.jpg",
      "description": "Globe Prepaid’s GoSURF50 Promo is now with 1 GB mobile data for surfing alongside unli all-net texts and free Facebook. Visit Globe Newsroom for more.",
      "datePosted": "Jul 03, 2016 | 01:17 PM",
      "titleFromTag": "Consumer"
    },
    {
      "title": "Promote wellness by feeling good and looking great",
      "nonclickable": false,
      "openNewTab": false,
      "borderArticle": "border-color:#0074D9;",
      "borderTopArticle": "border-top-color:#0074D9;",
      "imageListing": "/sites/globe.com.ph/files/content/dam/globe/brie/AboutUs/newsroom/common/Corporate_Globe_Listing.jpg",
      "articleUrl": "https://www.globe.com.ph/about-us/newsroom/sustainability/promote-wellness-feeling-good-and-looking-great.html",
      "columnType": "articles--type-3",
      "typeListing": "article",
      "imageMobile": "/sites/globe.com.ph/files/content/dam/globe/brie/AboutUs/newsroom/common/Corporate_Globe_Hero-Banner-Mobile.jpg",
      "imageDesktop": "/sites/globe.com.ph/files/content/dam/globe/brie/AboutUs/newsroom/common/Corporate_Globe_Primary-Desktop-Thumbnail.jpg",
      "description": "NGF President Jean Goulbourn sharing uplifting exercises with Globe employees",
      "datePosted": "Jul 01, 2016 | 03:07 PM",
      "titleFromTag": "Sustainability"
    },
    {
      "title": "Singtel Group Volunteers Give Hope to Gawad Kalinga Families",
      "nonclickable": false,
      "openNewTab": false,
      "borderArticle": "border-color:#0074D9;",
      "borderTopArticle": "border-top-color:#0074D9;",
      "imageListing": "/sites/globe.com.ph/files/content/dam/globe/brie/AboutUs/newsroom/common/Corporate_Globe_Listing.jpg",
      "articleUrl": "https://www.globe.com.ph/about-us/newsroom/citizenship/singtel-group-volunteers-give-hope-gawad-kalinga-families.html",
      "columnType": "articles--type-3",
      "typeListing": "article",
      "imageMobile": "/sites/globe.com.ph/files/content/dam/globe/brie/AboutUs/newsroom/common/Corporate_Globe_Hero-Banner-Mobile.jpg",
      "imageDesktop": "/sites/globe.com.ph/files/content/dam/globe/brie/AboutUs/newsroom/common/Corporate_Globe_Primary-Desktop-Thumbnail.jpg",
      "description": "Volunteers from Singtel - Mak Wee Keat Adrian and Michelle Torregoza, brave the heat to build a home for theless fortunate",
      "datePosted": "Jul 01, 2016 | 02:29 PM",
      "titleFromTag": "Citizenship"
    },
    {
      "title": "Globe Telecom brings better mobile internet speed to Davao by extending 700 MHz coverage",
      "nonclickable": false,
      "openNewTab": false,
      "borderArticle": "border-color:#0074D9;",
      "borderTopArticle": "border-top-color:#0074D9;",
      "imageListing": "/sites/globe.com.ph/files/content/dam/globe/brie/AboutUs/newsroom/common/Corporate_Globe_Listing.jpg",
      "articleUrl": "https://www.globe.com.ph/about-us/newsroom/corporate/globe-telecom-brings-better-mobile-internet-speed-davao.html",
      "columnType": "articles--type-3",
      "typeListing": "article",
      "imageMobile": "/sites/globe.com.ph/files/content/dam/globe/brie/AboutUs/newsroom/common/Corporate_Globe_Hero-Banner-Mobile.jpg",
      "imageDesktop": "/sites/globe.com.ph/files/content/dam/globe/brie/AboutUs/newsroom/common/Corporate_Globe_Primary-Desktop-Thumbnail.jpg",
      "description": "Globe Telecom recently improved the mobile internet speed in Davao by extending its coverage of the 700 Mhz frequency. Visit Globe Newsroom for more.",
      "datePosted": "Jul 01, 2016 | 12:15 PM",
      "titleFromTag": "Corporate"
    },
    {
      "title": "Globe welcomes President Duterte’s commitment to cut red tape",
      "nonclickable": false,
      "openNewTab": false,
      "borderArticle": "border-color:#0074D9;",
      "borderTopArticle": "border-top-color:#0074D9;",
      "imageListing": "/sites/globe.com.ph/files/content/dam/globe/brie/AboutUs/newsroom/common/Corporate_Globe_Listing.jpg",
      "articleUrl": "https://www.globe.com.ph/about-us/newsroom/corporate/globe-welcomes-president-dutertes-commitment-cut-red-tape.html",
      "columnType": "articles--type-3",
      "typeListing": "article",
      "imageMobile": "/sites/globe.com.ph/files/content/dam/globe/brie/AboutUs/newsroom/common/Corporate_Globe_Hero-Banner-Mobile.jpg",
      "imageDesktop": "/sites/globe.com.ph/files/content/dam/globe/brie/AboutUs/newsroom/common/Corporate_Globe_Primary-Desktop-Thumbnail.jpg",
      "description": "Leading telco provider Globe Telecom welcomed President Duterte’s commitment to improve government services by reducing bureaucratic red tape, expressing hope this will lead to the standardization of",
      "datePosted": "Jul 01, 2016 | 12:14 PM",
      "titleFromTag": "Corporate"
    },
    {
      "title": "Globe gives free calls to Turkey following Istanbul attack",
      "nonclickable": false,
      "openNewTab": false,
      "borderArticle": "border-color:#0074D9;",
      "borderTopArticle": "border-top-color:#0074D9;",
      "imageListing": "/sites/globe.com.ph/files/content/dam/globe/brie/AboutUs/newsroom/common/Corporate_Globe_Listing.jpg",
      "articleUrl": "https://www.globe.com.ph/about-us/newsroom/sustainability/globe-gives-free-calls-turkey-following-istanbul-attack.html",
      "columnType": "articles--type-3",
      "typeListing": "article",
      "imageMobile": "/sites/globe.com.ph/files/content/dam/globe/brie/AboutUs/newsroom/common/Corporate_Globe_Hero-Banner-Mobile.jpg",
      "imageDesktop": "/sites/globe.com.ph/files/content/dam/globe/brie/AboutUs/newsroom/common/Corporate_Globe_Primary-Desktop-Thumbnail.jpg",
      "description": "In light of the recent bombing at Istanbul’s Ataturk Airport, Globe offered Libreng Tawag service so customers may communicate with loved ones in Turkey.",
      "datePosted": "Jun 29, 2016 | 03:10 PM",
      "titleFromTag": "Sustainability"
    },
    {
      "title": "Globe Business, Kickstart, bolster national startup and innovation summit",
      "nonclickable": false,
      "openNewTab": false,
      "borderArticle": "border-color:#0074D9;",
      "borderTopArticle": "border-top-color:#0074D9;",
      "imageListing": "/sites/globe.com.ph/files/content/dam/globe/brie/AboutUs/newsroom/common/Corporate_Globe_Listing.jpg",
      "articleUrl": "https://www.globe.com.ph/about-us/newsroom/business/globe-business-kickstart-bolster-national-startup-and-innovate.html",
      "columnType": "articles--type-3",
      "typeListing": "article",
      "imageMobile": "/sites/globe.com.ph/files/content/dam/globe/brie/AboutUs/newsroom/common/Corporate_Globe_Hero-Banner-Mobile.jpg",
      "imageDesktop": "/sites/globe.com.ph/files/content/dam/globe/brie/AboutUs/newsroom/common/Corporate_Globe_Primary-Desktop-Thumbnail.jpg",
      "description": "Globe Telecom and Kickstart Ventures, Inc. bolstered the second staging of Slingshot Philippines 2016. Visit the Newsroom for the latest on Globe.",
      "datePosted": "Jun 29, 2016 | 02:00 PM",
      "titleFromTag": "Business"
    },
    {
      "title": "Globe Business urges VisMin execs to maximize innovation and new technologies to stay ahead of competition.",
      "nonclickable": false,
      "openNewTab": false,
      "borderArticle": "border-color:#0074D9;",
      "borderTopArticle": "border-top-color:#0074D9;",
      "imageListing": "/sites/globe.com.ph/files/content/dam/globe/brie/AboutUs/newsroom/common/Corporate_Globe_Listing.jpg",
      "articleUrl": "https://www.globe.com.ph/about-us/newsroom/business/globe-business-urges-vismin-execs-maximize-innovation-an.html",
      "columnType": "articles--type-3",
      "typeListing": "article",
      "imageMobile": "/sites/globe.com.ph/files/content/dam/globe/brie/AboutUs/newsroom/common/Corporate_Globe_Hero-Banner-Mobile.jpg",
      "imageDesktop": "/sites/globe.com.ph/files/content/dam/globe/brie/AboutUs/newsroom/common/Corporate_Globe_Primary-Desktop-Thumbnail.jpg",
      "description": "Globe Business urged Visayas and Mindanao-based execs to maximize innovation and technology to stay ahead of competition. Visit Globe Newsroom for more.",
      "datePosted": "Jun 29, 2016 | 02:00 PM",
      "titleFromTag": "Business"
    },
    {
      "title": "Globe Telecom changes landscape of PH entertainment with Globe Studios, Globe Live, new content partnerships and broadband plans",
      "nonclickable": false,
      "openNewTab": false,
      "borderArticle": "border-color:#0074D9;",
      "borderTopArticle": "border-top-color:#0074D9;",
      "imageListing": "/sites/globe.com.ph/files/content/dam/globe/brie/AboutUs/newsroom/common/Corporate_Globe_Listing.jpg",
      "articleUrl": "https://www.globe.com.ph/about-us/newsroom/consumer/globe-telecom-changes-landscape-ph-entertainment-globe-studios.html",
      "columnType": "articles--type-3",
      "typeListing": "article",
      "imageMobile": "/sites/globe.com.ph/files/content/dam/globe/brie/AboutUs/newsroom/common/Corporate_Globe_Hero-Banner-Mobile.jpg",
      "imageDesktop": "/sites/globe.com.ph/files/content/dam/globe/brie/AboutUs/newsroom/common/Corporate_Globe_Primary-Desktop-Thumbnail.jpg",
      "description": "Globe Telecom is changing the landscape of Philippine entertainment. Visit the Globe Newsroom for the latest news on Globe Telecom.",
      "datePosted": "Jun 27, 2016 | 01:18 PM",
      "titleFromTag": "Consumer"
    },
    {
      "title": "Globe, UNICEF Philippines, AHRC sign MoU on online child protection",
      "nonclickable": false,
      "openNewTab": false,
      "borderArticle": "border-color:#0074D9;",
      "borderTopArticle": "border-top-color:#0074D9;",
      "imageListing": "/sites/globe.com.ph/files/content/dam/globe/brie/AboutUs/newsroom/common/Corporate_Globe_Listing.jpg",
      "articleUrl": "https://www.globe.com.ph/about-us/newsroom/sustainability/globe-unicef-philippines-ahrc-sign-mou-online-child-protection.html",
      "columnType": "articles--type-3",
      "typeListing": "article",
      "imageMobile": "/sites/globe.com.ph/files/content/dam/globe/brie/AboutUs/newsroom/common/Corporate_Globe_Hero-Banner-Mobile.jpg",
      "imageDesktop": "/sites/globe.com.ph/files/content/dam/globe/brie/AboutUs/newsroom/common/Corporate_Globe_Primary-Desktop-Thumbnail.jpg",
      "description": "Globe signed a MoU with United Nations Children’s Fund Philippines and Ateneo Human Rights Center to protect children against exploitation online.",
      "datePosted": "Jun 24, 2016 | 03:36 PM",
      "titleFromTag": "Sustainability"
    },
    {
      "title": "Globe cautions postpaid customers vs fraudsters offering account removal via Facebook",
      "nonclickable": false,
      "openNewTab": false,
      "borderArticle": "border-color:#0074D9;",
      "borderTopArticle": "border-top-color:#0074D9;",
      "imageListing": "/sites/globe.com.ph/files/content/dam/globe/brie/AboutUs/newsroom/common/Corporate_Globe_Listing.jpg",
      "articleUrl": "https://www.globe.com.ph/about-us/newsroom/corporate/globe-cautions-postpaid-customers-vs-fraudsters-offering-account.html",
      "columnType": "articles--type-3",
      "typeListing": "article",
      "imageMobile": "/sites/globe.com.ph/files/content/dam/globe/brie/AboutUs/newsroom/common/Corporate_Globe_Hero-Banner-Mobile.jpg",
      "imageDesktop": "/sites/globe.com.ph/files/content/dam/globe/brie/AboutUs/newsroom/common/Corporate_Globe_Primary-Desktop-Thumbnail.jpg",
      "description": "Globe Telecom strongly cautions its mobile postpaid customers against fraudsters offering via Facebook removal of current Globe account. Learn more here.",
      "datePosted": "Jun 24, 2016 | 12:21 PM",
      "titleFromTag": "Corporate"
    },
    {
      "title": "Why You Should Watch American Idiot",
      "nonclickable": false,
      "openNewTab": false,
      "borderArticle": "border-color:#0074D9;",
      "borderTopArticle": "border-top-color:#0074D9;",
      "imageListing": "/sites/globe.com.ph/files/content/dam/globe/brie/AboutUs/newsroom/common/updated/Corporate-globe-thumbnail-listing.jpg",
      "articleUrl": "https://www.globe.com.ph/about-us/newsroom/consumer/why-you-should-watch-green-days-american-idiot.html",
      "columnType": "articles--type-3",
      "typeListing": "article",
      "imageMobile": "/sites/globe.com.ph/files/content/dam/globe/brie/AboutUs/newsroom/common/updated/Corporate-globe-primary-thumbnail-m.jpg",
      "imageDesktop": "/sites/globe.com.ph/files/content/dam/globe/brie/AboutUs/newsroom/common/updated/Corporate-globe-primary-thumbnail-d.jpg",
      "description": "Here are reasons why you should watch Green Day's American Idiot. Visit the Globe Newsroom for the latest news on Globe Telecom.",
      "datePosted": "Jun 24, 2016 | 10:52 AM",
      "titleFromTag": "Consumer"
    }
  ]
}
