{
  "status": 200,
  "page": 286,
  "totalPage": 298,
  "range": "3421-3432",
  "total": 3573,
  "result": [
    {
      "title": "Globe clinches Frost & Sullivan’s Telecom Service Provider of the Year Award",
      "nonclickable": false,
      "openNewTab": false,
      "borderArticle": "border-color:#0074D9;",
      "borderTopArticle": "border-top-color:#0074D9;",
      "imageListing": "/sites/globe.com.ph/files/content/dam/globe/brie/AboutUs/newsroom/common/Corporate_Globe_Listing.jpg",
      "articleUrl": "https://www.globe.com.ph/about-us/newsroom/corporate/globe-clinches-frost-sullivans-telecom-service-provider-year.html",
      "columnType": "articles--type-3",
      "typeListing": "article",
      "imageMobile": "/sites/globe.com.ph/files/content/dam/globe/brie/AboutUs/newsroom/common/Corporate_Globe_Hero-Banner-Mobile.jpg",
      "imageDesktop": "/sites/globe.com.ph/files/content/dam/globe/brie/AboutUs/newsroom/common/Corporate_Globe_Primary-Desktop-Thumbnail.jpg",
      "description": "Globe was named as Telecom Service Provider of the Year for 2016 by Frost & Sullivan Philippines following impressive business performance last year.",
      "datePosted": "Jun 23, 2016 | 12:23 PM",
      "titleFromTag": "Corporate"
    },
    {
      "title": "Globe, MMDA join forces to promote disaster preparedness",
      "nonclickable": false,
      "openNewTab": false,
      "borderArticle": "border-color:#0074D9;",
      "borderTopArticle": "border-top-color:#0074D9;",
      "imageListing": "/sites/globe.com.ph/files/content/dam/globe/brie/AboutUs/newsroom/common/Corporate_Globe_Listing.jpg",
      "articleUrl": "https://www.globe.com.ph/about-us/newsroom/sustainability/globe-mmda-join-forces-promote-disaster-preparedness.html",
      "columnType": "articles--type-3",
      "typeListing": "article",
      "imageMobile": "/sites/globe.com.ph/files/content/dam/globe/brie/AboutUs/newsroom/common/Corporate_Globe_Hero-Banner-Mobile.jpg",
      "imageDesktop": "/sites/globe.com.ph/files/content/dam/globe/brie/AboutUs/newsroom/common/Corporate_Globe_Primary-Desktop-Thumbnail.jpg",
      "description": "Globe Senior Vice President for Corporate Communications Yoly Crisanto joined volunteers who participated in the MMDA Shake Drill held June 22. Visit the Globe Newsroom for the latest news on Globe Telecom.",
      "datePosted": "Jun 22, 2016 | 03:35 PM",
      "titleFromTag": "Sustainability"
    },
    {
      "title": "Globe, MMDA Join Forces to Promote Disaster Preparedness",
      "nonclickable": false,
      "openNewTab": false,
      "borderArticle": "border-color:#0074D9;",
      "borderTopArticle": "border-top-color:#0074D9;",
      "imageListing": "/sites/globe.com.ph/files/content/dam/globe/brie/AboutUs/newsroom/common/updated/Corporate-globe-thumbnail-listing.jpg",
      "articleUrl": "https://www.globe.com.ph/about-us/newsroom/corporate/globe-mmda-join-forces-promote-disaster-preparedness.html",
      "columnType": "articles--type-3",
      "typeListing": "article",
      "imageMobile": "/sites/globe.com.ph/files/content/dam/globe/brie/AboutUs/newsroom/common/updated/Corporate-globe-primary-thumbnail-m.jpg",
      "imageDesktop": "/sites/globe.com.ph/files/content/dam/globe/brie/AboutUs/newsroom/common/updated/Corporate-globe-primary-thumbnail-d.jpg",
      "description": "Globe partnered with the MMDA last June 16, 2022 for the Shake Drill, which aims to cultivate residents' preparedness for a 7.2 magnitude earthquake.",
      "datePosted": "Jun 22, 2016 | 03:35 PM",
      "titleFromTag": "Corporate"
    },
    {
      "title": "Telcos urge PCC to open channels for dialogue",
      "nonclickable": false,
      "openNewTab": false,
      "borderArticle": "border-color:#0074D9;",
      "borderTopArticle": "border-top-color:#0074D9;",
      "imageListing": "/sites/globe.com.ph/files/content/dam/globe/brie/AboutUs/newsroom/common/Corporate_Globe_Listing.jpg",
      "articleUrl": "https://www.globe.com.ph/about-us/newsroom/corporate/telcos-urge-pcc-open-channels-dialogue.html",
      "columnType": "articles--type-3",
      "typeListing": "article",
      "imageMobile": "/sites/globe.com.ph/files/content/dam/globe/brie/AboutUs/newsroom/common/Corporate_Globe_Hero-Banner-Mobile.jpg",
      "imageDesktop": "/sites/globe.com.ph/files/content/dam/globe/brie/AboutUs/newsroom/common/Corporate_Globe_Primary-Desktop-Thumbnail.jpg",
      "description": "Philippines leading telcos Globe Telecom and PLDT called on the Philippine Competition Commission to open channels for dialogue in order to resolve uncertainties concerning the joint buy out of San M",
      "datePosted": "Jun 22, 2016 | 12:22 PM",
      "titleFromTag": "Corporate"
    },
    {
      "title": "Globe improves mobile internet in Quezon City; expands 700 MHz coverage",
      "nonclickable": false,
      "openNewTab": false,
      "borderArticle": "border-color:#0074D9;",
      "borderTopArticle": "border-top-color:#0074D9;",
      "imageListing": "/sites/globe.com.ph/files/content/dam/globe/brie/AboutUs/newsroom/common/Corporate_Globe_Listing.jpg",
      "articleUrl": "https://www.globe.com.ph/about-us/newsroom/sustainability/globe-improves-mobile-internet-quezon-city-expands-700-m.html",
      "columnType": "articles--type-3",
      "typeListing": "article",
      "imageMobile": "/sites/globe.com.ph/files/content/dam/globe/brie/AboutUs/newsroom/common/Corporate_Globe_Hero-Banner-Mobile.jpg",
      "imageDesktop": "/sites/globe.com.ph/files/content/dam/globe/brie/AboutUs/newsroom/common/Corporate_Globe_Primary-Desktop-Thumbnail.jpg",
      "description": "Get the latest news on Globe Telecom. Visit the Globe Press Room now.",
      "datePosted": "Jun 21, 2016 | 03:37 PM",
      "titleFromTag": "Sustainability"
    },
    {
      "title": "Globe Improves Mobile Internet in Quezon City; Expands 700 MHz Coverage",
      "nonclickable": false,
      "openNewTab": false,
      "borderArticle": "border-color:#0074D9;",
      "borderTopArticle": "border-top-color:#0074D9;",
      "imageListing": "/sites/globe.com.ph/files/content/dam/globe/brie/AboutUs/newsroom/common/updated/Corporate-globe-thumbnail-listing.jpg",
      "articleUrl": "https://www.globe.com.ph/about-us/newsroom/corporate/globe-improves-mobile-internet-quezon-city-expands-700-m.html",
      "columnType": "articles--type-3",
      "typeListing": "article",
      "imageMobile": "/sites/globe.com.ph/files/content/dam/globe/brie/AboutUs/newsroom/common/updated/Corporate-globe-primary-thumbnail-m.jpg",
      "imageDesktop": "/sites/globe.com.ph/files/content/dam/globe/brie/AboutUs/newsroom/common/updated/Corporate-globe-primary-thumbnail-d.jpg",
      "description": "Globe Telecom activates 10 more cell sites using 700MHz spectrum as part of their commitment to improving the mobile internet experience of its customers.",
      "datePosted": "Jun 21, 2016 | 03:37 PM",
      "titleFromTag": "Corporate"
    },
    {
      "title": "SM Cinema Joins GMovies Roster of Theater Partners",
      "nonclickable": false,
      "openNewTab": false,
      "borderArticle": "border-color:#0074D9;",
      "borderTopArticle": "border-top-color:#0074D9;",
      "imageListing": "/sites/globe.com.ph/files/content/dam/globe/brie/AboutUs/newsroom/common/Corporate_Globe_Listing.jpg",
      "articleUrl": "https://www.globe.com.ph/about-us/newsroom/partners/sm-cinema-joins-gmovies-roster-theater-partners.html",
      "columnType": "articles--type-3",
      "typeListing": "article",
      "imageMobile": "/sites/globe.com.ph/files/content/dam/globe/brie/AboutUs/newsroom/common/Corporate_Globe_Hero-Banner-Mobile.jpg",
      "imageDesktop": "/sites/globe.com.ph/files/content/dam/globe/brie/AboutUs/newsroom/common/Corporate_Globe_Primary-Desktop-Thumbnail.jpg",
      "description": "SM Cinema, the country’s largest chain of movie houses, has joined GMovies' roster of theater partners. Visit Globe Newsroom for more.",
      "datePosted": "Jun 21, 2016 | 02:54 PM",
      "titleFromTag": "Partners"
    },
    {
      "title": "Globe teams up with MMDA for Metro Manila Shakedrill 2016",
      "nonclickable": false,
      "openNewTab": false,
      "borderArticle": "border-color:#0074D9;",
      "borderTopArticle": "border-top-color:#0074D9;",
      "imageListing": "/sites/globe.com.ph/files/content/dam/globe/brie/AboutUs/newsroom/common/Corporate_Globe_Listing.jpg",
      "articleUrl": "https://www.globe.com.ph/about-us/newsroom/corporate/globe-teams-mmda-metro-manila-shakedrill-2016.html",
      "columnType": "articles--type-3",
      "typeListing": "article",
      "imageMobile": "/sites/globe.com.ph/files/content/dam/globe/brie/AboutUs/newsroom/common/Corporate_Globe_Hero-Banner-Mobile.jpg",
      "imageDesktop": "/sites/globe.com.ph/files/content/dam/globe/brie/AboutUs/newsroom/common/Corporate_Globe_Primary-Desktop-Thumbnail.jpg",
      "description": "Globe collaborated with the MMDA in the Metro Manila Shakedrill 2016 to create a culture of preparedness among residents for a 7.2 magnitude earthquake.",
      "datePosted": "Jun 17, 2016 | 12:25 PM",
      "titleFromTag": "Corporate"
    },
    {
      "title": "Globe to Gov’t: Develop Broadband Infrastructure in Rural Areas",
      "nonclickable": false,
      "openNewTab": false,
      "borderArticle": "border-color:#0074D9;",
      "borderTopArticle": "border-top-color:#0074D9;",
      "imageListing": "/sites/globe.com.ph/files/content/dam/globe/brie/AboutUs/newsroom/common/Corporate_Globe_Listing.jpg",
      "articleUrl": "https://www.globe.com.ph/about-us/newsroom/corporate/globe-govt-develop-broadband-infrastructure-rural-areas.html",
      "columnType": "articles--type-3",
      "typeListing": "article",
      "imageMobile": "/sites/globe.com.ph/files/content/dam/globe/brie/AboutUs/newsroom/common/Corporate_Globe_Hero-Banner-Mobile.jpg",
      "imageDesktop": "/sites/globe.com.ph/files/content/dam/globe/brie/AboutUs/newsroom/common/Corporate_Globe_Primary-Desktop-Thumbnail.jpg",
      "description": "Globe Telecom urges gov't to invest in rural internet infrastructure to achieve Philippines' broadband access goals.",
      "datePosted": "Jun 17, 2016 | 12:24 PM",
      "titleFromTag": "Corporate"
    },
    {
      "title": "Globe Fires up 130 Sites Using the 2600 MHz spectrum in Visayas, Mindanao",
      "nonclickable": false,
      "openNewTab": false,
      "borderArticle": "border-color:#0074D9;",
      "borderTopArticle": "border-top-color:#0074D9;",
      "imageListing": "/sites/globe.com.ph/files/content/dam/globe/brie/AboutUs/newsroom/common/Corporate_Globe_Listing.jpg",
      "articleUrl": "https://www.globe.com.ph/about-us/newsroom/corporate/globe-fires-130-sites-using-2600-mhz-spectrum-visayas-mindanao.html",
      "columnType": "articles--type-3",
      "typeListing": "article",
      "imageMobile": "/sites/globe.com.ph/files/content/dam/globe/brie/AboutUs/newsroom/common/Corporate_Globe_Hero-Banner-Mobile.jpg",
      "imageDesktop": "/sites/globe.com.ph/files/content/dam/globe/brie/AboutUs/newsroom/common/Corporate_Globe_Primary-Desktop-Thumbnail.jpg",
      "description": "Globe Telecom utilizes extra 2600 MHz spectrum allocation for 130 sites in Visayas and Mindanao to offer more services to customers in those areas.",
      "datePosted": "Jun 15, 2016 | 12:25 PM",
      "titleFromTag": "Corporate"
    },
    {
      "title": "Globe interconnection with competition extends to Camarines Norte",
      "nonclickable": false,
      "openNewTab": false,
      "borderArticle": "border-color:#0074D9;",
      "borderTopArticle": "border-top-color:#0074D9;",
      "imageListing": "/sites/globe.com.ph/files/content/dam/globe/brie/AboutUs/newsroom/common/Corporate_Globe_Listing.jpg",
      "articleUrl": "https://www.globe.com.ph/about-us/newsroom/sustainability/globe-interconnection-competition-extends-camarines-norte.html",
      "columnType": "articles--type-3",
      "typeListing": "article",
      "imageMobile": "/sites/globe.com.ph/files/content/dam/globe/brie/AboutUs/newsroom/common/Corporate_Globe_Hero-Banner-Mobile.jpg",
      "imageDesktop": "/sites/globe.com.ph/files/content/dam/globe/brie/AboutUs/newsroom/common/Corporate_Globe_Primary-Desktop-Thumbnail.jpg",
      "description": "Globe Telecom said interconnection of its landline service,Globelines, with its main competitor has been expanded further and is now covering the province of Camarines Norte.",
      "datePosted": "Jun 14, 2016 | 03:38 PM",
      "titleFromTag": "Sustainability"
    },
    {
      "title": "Globe Interconnection with Competition Extends to Camarines Norte",
      "nonclickable": false,
      "openNewTab": false,
      "borderArticle": "border-color:#0074D9;",
      "borderTopArticle": "border-top-color:#0074D9;",
      "imageListing": "/sites/globe.com.ph/files/content/dam/globe/brie/AboutUs/newsroom/common/updated/Corporate-globe-thumbnail-listing.jpg",
      "articleUrl": "https://www.globe.com.ph/about-us/newsroom/corporate/globe-interconnection-competition-extends-camarines-norte.html",
      "columnType": "articles--type-3",
      "typeListing": "article",
      "imageMobile": "/sites/globe.com.ph/files/content/dam/globe/brie/AboutUs/newsroom/common/updated/Corporate-globe-primary-banner-m.jpg",
      "imageDesktop": "/sites/globe.com.ph/files/content/dam/globe/brie/AboutUs/newsroom/common/updated/Corporate-globe-primary-thumbnail-d.jpg",
      "description": "Globe Telecom said interconnection of its landline service, Globelines, with its main competitor has been expanded further and now covers Camarines Norte.",
      "datePosted": "Jun 14, 2016 | 03:38 PM",
      "titleFromTag": "Corporate"
    }
  ]
}
