{
  "status": 200,
  "page": 287,
  "totalPage": 298,
  "range": "3433-3444",
  "total": 3573,
  "result": [
    {
      "title": "Response of Globe to PCC",
      "nonclickable": false,
      "openNewTab": false,
      "borderArticle": "border-color:#0074D9;",
      "borderTopArticle": "border-top-color:#0074D9;",
      "imageListing": "/sites/globe.com.ph/files/content/dam/globe/brie/AboutUs/newsroom/common/Corporate_Globe_Listing.jpg",
      "articleUrl": "https://www.globe.com.ph/about-us/newsroom/corporate/response-of-globe-to-pcc.html",
      "columnType": "articles--type-3",
      "typeListing": "article",
      "imageMobile": "/sites/globe.com.ph/files/content/dam/globe/brie/AboutUs/newsroom/common/Corporate_Globe_Hero-Banner-Mobile.jpg",
      "imageDesktop": "/sites/globe.com.ph/files/content/dam/globe/brie/AboutUs/newsroom/common/Corporate_Globe_Primary-Desktop-Thumbnail.jpg",
      "description": "Globe reiterates its 50% purchase of SMC telco businesses complies with all relevant laws. Visit the Globe Newsroom for the latest news on Globe Telecom.",
      "datePosted": "Jun 14, 2016 | 12:28 PM",
      "titleFromTag": "Corporate"
    },
    {
      "title": "Globe secures support of DOTC in bid to make mobile connectivity more pervasive",
      "nonclickable": false,
      "openNewTab": false,
      "borderArticle": "border-color:#0074D9;",
      "borderTopArticle": "border-top-color:#0074D9;",
      "imageListing": "/sites/globe.com.ph/files/content/dam/globe/brie/AboutUs/newsroom/common/Corporate_Globe_Listing.jpg",
      "articleUrl": "https://www.globe.com.ph/about-us/newsroom/sustainability/globe-secures-support-dotc-bid-make-mobile-connectivity-more-per.html",
      "columnType": "articles--type-3",
      "typeListing": "article",
      "imageMobile": "/sites/globe.com.ph/files/content/dam/globe/brie/AboutUs/newsroom/common/Corporate_Globe_Hero-Banner-Mobile.jpg",
      "imageDesktop": "/sites/globe.com.ph/files/content/dam/globe/brie/AboutUs/newsroom/common/Corporate_Globe_Primary-Desktop-Thumbnail.jpg",
      "description": "Globe Telecom secured the support of the DOTC to use train stations around the metropolis to host network infrastructure that would significantly improve the mobile internet experience and connectivi",
      "datePosted": "Jun 09, 2016 | 03:39 PM",
      "titleFromTag": "Sustainability"
    },
    {
      "title": "Globe Secures Support of DOTC in Bid to Make Mobile Connectivity More Pervasive",
      "nonclickable": false,
      "openNewTab": false,
      "borderArticle": "border-color:#0074D9;",
      "borderTopArticle": "border-top-color:#0074D9;",
      "imageListing": "/sites/globe.com.ph/files/content/dam/globe/brie/AboutUs/newsroom/common/updated/Corporate-globe-thumbnail-listing.jpg",
      "articleUrl": "https://www.globe.com.ph/about-us/newsroom/corporate/globe-secures-support-dotc-bid-make-mobile-connectivity-more-per.html",
      "columnType": "articles--type-3",
      "typeListing": "article",
      "imageMobile": "/sites/globe.com.ph/files/content/dam/globe/brie/AboutUs/newsroom/common/updated/Corporate-globe-primary-thumbnail-m.jpg",
      "imageDesktop": "/sites/globe.com.ph/files/content/dam/globe/brie/AboutUs/newsroom/common/updated/Corporate-globe-primary-thumbnail-d.jpg",
      "description": "Globe Telecom secured the support of the DOTC to use train stations around the metropolis to host network infrastructure that would significantly improve the mobile internet experience and connectivity of the commuting public. Visit the Globe Newsroom for the latest news on Globe Telecom.",
      "datePosted": "Jun 09, 2016 | 03:39 PM",
      "titleFromTag": "Corporate"
    },
    {
      "title": "Globe fires up PH 1st 700 MHz cell site; generates speeds ranging 60-100 Mbps",
      "nonclickable": false,
      "openNewTab": false,
      "borderArticle": "border-color:#0074D9;",
      "borderTopArticle": "border-top-color:#0074D9;",
      "imageListing": "/sites/globe.com.ph/files/content/dam/globe/brie/AboutUs/newsroom/common/Corporate_Globe_Listing.jpg",
      "articleUrl": "https://www.globe.com.ph/about-us/newsroom/sustainability/globe-fires-ph-1st-700-mhz-cell-site-generates-speeds-ranging-60.html",
      "columnType": "articles--type-3",
      "typeListing": "article",
      "imageMobile": "/sites/globe.com.ph/files/content/dam/globe/brie/AboutUs/newsroom/common/Corporate_Globe_Hero-Banner-Mobile.jpg",
      "imageDesktop": "/sites/globe.com.ph/files/content/dam/globe/brie/AboutUs/newsroom/common/Corporate_Globe_Primary-Desktop-Thumbnail.jpg",
      "description": "Globe Telecom fired up over the weekend the country’s first cell site that utilized the 700 megahertz spectrum, generating speeds that ranged between 60-100 Mbps.",
      "datePosted": "Jun 09, 2016 | 03:37 PM",
      "titleFromTag": "Sustainability"
    },
    {
      "title": "Globe Fires up PH 1st 700 MHz Cell Site; Generates Speeds Ranging 60-100 Mbps",
      "nonclickable": false,
      "openNewTab": false,
      "borderArticle": "border-color:#0074D9;",
      "borderTopArticle": "border-top-color:#0074D9;",
      "imageListing": "/sites/globe.com.ph/files/content/dam/globe/brie/AboutUs/newsroom/common/Corporate_Globe_Listing.jpg",
      "articleUrl": "https://www.globe.com.ph/about-us/newsroom/corporate/globe-fires-ph-1st-700-mhz-cell-site-generates-speeds-ranging-60.html",
      "columnType": "articles--type-3",
      "typeListing": "article",
      "imageMobile": "/sites/globe.com.ph/files/content/dam/globe/brie/AboutUs/newsroom/common/Corporate_Globe_Hero-Banner-Mobile.jpg",
      "imageDesktop": "/sites/globe.com.ph/files/content/dam/globe/brie/AboutUs/newsroom/common/Corporate_Globe_Primary-Desktop-Thumbnail.jpg",
      "description": "Globe Telecom fired up the country’s first cell site that utilized the 700 megahertz spectrum, generating speeds that ranged between 60-100 Mbps.",
      "datePosted": "Jun 09, 2016 | 03:37 PM",
      "titleFromTag": "Corporate"
    },
    {
      "title": "LeadSurf Joins Globe Telecom’s Project 1 Phone E-Waste Recycling Program",
      "nonclickable": false,
      "openNewTab": false,
      "borderArticle": "border-color:#0074D9;",
      "borderTopArticle": "border-top-color:#0074D9;",
      "imageListing": "/sites/globe.com.ph/files/content/dam/globe/brie/AboutUs/newsroom/common/Corporate_Globe_Listing.jpg",
      "articleUrl": "https://www.globe.com.ph/about-us/newsroom/citizenship/leadsurf-joins-globe-telecoms-project-1-phone-e-waste-recycling-.html",
      "columnType": "articles--type-3",
      "typeListing": "article",
      "imageMobile": "/sites/globe.com.ph/files/content/dam/globe/brie/AboutUs/newsroom/common/Corporate_Globe_Hero-Banner-Mobile.jpg",
      "imageDesktop": "/sites/globe.com.ph/files/content/dam/globe/brie/AboutUs/newsroom/common/Corporate_Globe_Primary-Desktop-Thumbnail.jpg",
      "description": "LeadSurf Data Marketing, Inc. supports Globe Telecom's responsible e-waste disposal by donating defective devices to P1P. Get more updates at Globe Newsroom.",
      "datePosted": "Jun 09, 2016 | 02:31 PM",
      "titleFromTag": "Citizenship"
    },
    {
      "title": "Globe Business, [24]7 celebrate 10 years of partnership in providing best customer experience solutions",
      "nonclickable": false,
      "openNewTab": false,
      "borderArticle": "border-color:#0074D9;",
      "borderTopArticle": "border-top-color:#0074D9;",
      "imageListing": "/sites/globe.com.ph/files/content/dam/globe/brie/AboutUs/newsroom/common/Corporate_Globe_Listing.jpg",
      "articleUrl": "https://www.globe.com.ph/about-us/newsroom/business/globe-business-247-celebrate-10-years-partnership-providing-best.html",
      "columnType": "articles--type-3",
      "typeListing": "article",
      "imageMobile": "/sites/globe.com.ph/files/content/dam/globe/brie/AboutUs/newsroom/common/Corporate_Globe_Hero-Banner-Mobile.jpg",
      "imageDesktop": "/sites/globe.com.ph/files/content/dam/globe/brie/AboutUs/newsroom/common/Corporate_Globe_Primary-Desktop-Thumbnail.jpg",
      "description": "A decade of excellence! Globe Business celebrates 10 years of partnership with California's 24/7 customer experience solution. Join us in the journey!",
      "datePosted": "Jun 09, 2016 | 01:59 PM",
      "titleFromTag": "Business"
    },
    {
      "title": "Globe, Astrata to provide corporations with advanced M2M solutions",
      "nonclickable": false,
      "openNewTab": false,
      "borderArticle": "border-color:#0074D9;",
      "borderTopArticle": "border-top-color:#0074D9;",
      "imageListing": "/sites/globe.com.ph/files/content/dam/globe/brie/AboutUs/newsroom/common/Corporate_Globe_Listing.jpg",
      "articleUrl": "https://www.globe.com.ph/about-us/newsroom/business/globe-astrata-provide-corps-advanced-m2m-solutions.html",
      "columnType": "articles--type-3",
      "typeListing": "article",
      "imageMobile": "/sites/globe.com.ph/files/content/dam/globe/brie/AboutUs/newsroom/common/Corporate_Globe_Hero-Banner-Mobile.jpg",
      "imageDesktop": "/sites/globe.com.ph/files/content/dam/globe/brie/AboutUs/newsroom/common/Corporate_Globe_Primary-Desktop-Thumbnail.jpg",
      "description": "Enterprise clients of Globe Telecom are set to benefit from advanced Machine-to-Machine solutions that are faster, more efficient, and quicker to deploy.",
      "datePosted": "Jun 09, 2016 | 01:58 PM",
      "titleFromTag": "Business"
    },
    {
      "title": "Catch the 2016 NBA Finals and watch the games live on NBA Leagues Pass",
      "nonclickable": false,
      "openNewTab": false,
      "borderArticle": "border-color:#0074D9;",
      "borderTopArticle": "border-top-color:#0074D9;",
      "imageListing": "/sites/globe.com.ph/files/content/dam/globe/brie/AboutUs/newsroom/common/Corporate_Globe_Listing.jpg",
      "articleUrl": "https://www.globe.com.ph/about-us/newsroom/consumer/catch-2016-nba-finals-and-watch-games-live-nba-leagues-pass.html",
      "columnType": "articles--type-3",
      "typeListing": "article",
      "imageMobile": "/sites/globe.com.ph/files/content/dam/globe/brie/AboutUs/newsroom/common/Corporate_Globe_Hero-Banner-Mobile.jpg",
      "imageDesktop": "/sites/globe.com.ph/files/content/dam/globe/brie/AboutUs/newsroom/common/Corporate_Globe_Primary-Desktop-Thumbnail.jpg",
      "description": "Globe Telecom introduces a streamlined registration process that enables sports fans to watch the NBA. Learn more about the NBA League Pass here.",
      "datePosted": "Jun 09, 2016 | 01:20 PM",
      "titleFromTag": "Consumer"
    },
    {
      "title": "Globe secures support of DOTC in bid to make mobile connectivity more pervasive",
      "nonclickable": false,
      "openNewTab": false,
      "borderArticle": "border-color:#0074D9;",
      "borderTopArticle": "border-top-color:#0074D9;",
      "imageListing": "/sites/globe.com.ph/files/content/dam/globe/brie/AboutUs/newsroom/common/Corporate_Globe_Listing.jpg",
      "articleUrl": "https://www.globe.com.ph/about-us/newsroom/corporate/globe-secures-support-dotc-bid-make-mobile-connectivity-more-per0.html",
      "columnType": "articles--type-3",
      "typeListing": "article",
      "imageMobile": "/sites/globe.com.ph/files/content/dam/globe/brie/AboutUs/newsroom/common/Corporate_Globe_Hero-Banner-Mobile.jpg",
      "imageDesktop": "/sites/globe.com.ph/files/content/dam/globe/brie/AboutUs/newsroom/common/Corporate_Globe_Primary-Desktop-Thumbnail.jpg",
      "description": "Globe, with the assistance of DOTC, improves the commuting public's mobile internet experience and connectivity.",
      "datePosted": "Jun 09, 2016 | 12:27 PM",
      "titleFromTag": "Corporate"
    },
    {
      "title": "KonsultaMD Partners with MedGrocer on Door-to-Door Medicine Delivery",
      "nonclickable": false,
      "openNewTab": false,
      "borderArticle": "border-color:#0074D9;",
      "borderTopArticle": "border-top-color:#0074D9;",
      "imageListing": "/sites/globe.com.ph/files/content/dam/globe/brie/AboutUs/newsroom/common/Corporate_Globe_Listing.jpg",
      "articleUrl": "https://www.globe.com.ph/about-us/newsroom/partners/konsultamd-partners-medgrocer-door-door-medicine-delivery.html",
      "columnType": "articles--type-3",
      "typeListing": "article",
      "imageMobile": "/sites/globe.com.ph/files/content/dam/globe/brie/AboutUs/newsroom/common/Corporate_Globe_Hero-Banner-Mobile.jpg",
      "imageDesktop": "/sites/globe.com.ph/files/content/dam/globe/brie/AboutUs/newsroom/common/Corporate_Globe_Primary-Desktop-Thumbnail.jpg",
      "description": "Healthcare hotline KonsultaMD has partnered with MedGrocer online pharmacy for door-to-door delivery of medicine and health supplements",
      "datePosted": "Jun 02, 2016 | 02:53 PM",
      "titleFromTag": "Partners"
    },
    {
      "title": "Disney and Globe Telecom launch Disney Channels Apps in the Philippines on May 27",
      "nonclickable": false,
      "openNewTab": false,
      "borderArticle": "border-color:#0074D9;",
      "borderTopArticle": "border-top-color:#0074D9;",
      "imageListing": "/sites/globe.com.ph/files/content/dam/globe/brie/AboutUs/newsroom/common/Corporate_Globe_Listing.jpg",
      "articleUrl": "https://www.globe.com.ph/about-us/newsroom/consumer/disney-and-globe-telecom-launch-disney-channels-apps-philippines.html",
      "columnType": "articles--type-3",
      "typeListing": "article",
      "imageMobile": "/sites/globe.com.ph/files/content/dam/globe/brie/AboutUs/newsroom/common/Corporate_Globe_Hero-Banner-Mobile.jpg",
      "imageDesktop": "/sites/globe.com.ph/files/content/dam/globe/brie/AboutUs/newsroom/common/Corporate_Globe_Primary-Desktop-Thumbnail.jpg",
      "description": "Globe Telecom and Disney offers Disney fans in the Philippines an app to watch all their favorite Disney programs, whenever and wherever they want",
      "datePosted": "Jun 02, 2016 | 01:21 PM",
      "titleFromTag": "Consumer"
    }
  ]
}
