{
  "status": 200,
  "page": 288,
  "totalPage": 298,
  "range": "3445-3456",
  "total": 3573,
  "result": [
    {
      "title": "Green Day’s American Idiot to set stage at Globe Iconic Store on June 24, 2016",
      "nonclickable": false,
      "openNewTab": false,
      "borderArticle": "border-color:#0074D9;",
      "borderTopArticle": "border-top-color:#0074D9;",
      "imageListing": "/sites/globe.com.ph/files/content/dam/globe/brie/AboutUs/newsroom/common/Corporate_Globe_Listing.jpg",
      "articleUrl": "https://www.globe.com.ph/about-us/newsroom/consumer/green-days-american-idiot-set-stage-globe-iconic-store-june-24-2.html",
      "columnType": "articles--type-3",
      "typeListing": "article",
      "imageMobile": "/sites/globe.com.ph/files/content/dam/globe/brie/AboutUs/newsroom/common/Corporate_Globe_Hero-Banner-Mobile.jpg",
      "imageDesktop": "/sites/globe.com.ph/files/content/dam/globe/brie/AboutUs/newsroom/common/Corporate_Globe_Primary-Desktop-Thumbnail.jpg",
      "description": "Globe Telecom is set to open its world-class Iconic Store at the Bonifacio High Street Amphitheater in Bonifacio Global City on June 24, 2016.",
      "datePosted": "Jun 02, 2016 | 01:21 PM",
      "titleFromTag": "Consumer"
    },
    {
      "title": "Huge demand for connectivity, data-related services results in 51% hike in Globe Telecom’s corporate data revenue",
      "nonclickable": false,
      "openNewTab": false,
      "borderArticle": "border-color:#0074D9;",
      "borderTopArticle": "border-top-color:#0074D9;",
      "imageListing": "/sites/globe.com.ph/files/content/dam/globe/brie/AboutUs/newsroom/common/Corporate_Globe_Listing.jpg",
      "articleUrl": "https://www.globe.com.ph/about-us/newsroom/corporate/huge-demand-connectivity-data-related-services-results-51-hike-g.html",
      "columnType": "articles--type-3",
      "typeListing": "article",
      "imageMobile": "/sites/globe.com.ph/files/content/dam/globe/brie/AboutUs/newsroom/common/Corporate_Globe_Hero-Banner-Mobile.jpg",
      "imageDesktop": "/sites/globe.com.ph/files/content/dam/globe/brie/AboutUs/newsroom/common/Corporate_Globe_Primary-Desktop-Thumbnail.jpg",
      "description": "With the massive requirement for bandwidth and other data-related services from its enterprise and corporate clients, Globe Telecom’s corporate data business was able to realize revenues of P2.3 bill",
      "datePosted": "Jun 02, 2016 | 12:28 PM",
      "titleFromTag": "Corporate"
    },
    {
      "title": "Globe announces the partial acquisition of San Miguel Corporation's Telecommunications Business",
      "nonclickable": false,
      "openNewTab": false,
      "borderArticle": "border-color:#0074D9;",
      "borderTopArticle": "border-top-color:#0074D9;",
      "imageListing": "/sites/globe.com.ph/files/content/dam/globe/brie/AboutUs/newsroom/common/Corporate_Globe_Listing.jpg",
      "articleUrl": "https://www.globe.com.ph/about-us/newsroom/corporate/globe-announces-partial-acquisition-san-miguel-corporations-telecommunication.html",
      "columnType": "articles--type-3",
      "typeListing": "article",
      "imageMobile": "/sites/globe.com.ph/files/content/dam/globe/brie/AboutUs/newsroom/common/Corporate_Globe_Hero-Banner-Mobile.jpg",
      "imageDesktop": "/sites/globe.com.ph/files/content/dam/globe/brie/AboutUs/newsroom/common/Corporate_Globe_Primary-Desktop-Thumbnail.jpg",
      "description": "In a meeting held earlier today, the Board of Directors of Globe Telecom, Inc.",
      "datePosted": "May 30, 2016 | 12:15 PM",
      "titleFromTag": "Corporate"
    },
    {
      "title": "Mynt Reaches Out to the Unbanked via FinTech",
      "nonclickable": false,
      "openNewTab": false,
      "borderArticle": "border-color:#0074D9;",
      "borderTopArticle": "border-top-color:#0074D9;",
      "imageListing": "/sites/globe.com.ph/files/content/dam/globe/brie/AboutUs/newsroom/common/Corporate_Globe_Listing.jpg",
      "articleUrl": "https://www.globe.com.ph/about-us/newsroom/partners/mynt-reaches-out-unbanked-fintech.html",
      "columnType": "articles--type-3",
      "typeListing": "article",
      "imageMobile": "/sites/globe.com.ph/files/content/dam/globe/brie/AboutUs/newsroom/common/Corporate_Globe_Hero-Banner-Mobile.jpg",
      "imageDesktop": "/sites/globe.com.ph/files/content/dam/globe/brie/AboutUs/newsroom/common/Corporate_Globe_Primary-Desktop-Thumbnail.jpg",
      "description": "There is an urgent call for financial inclusion among a significant portion of the population as the country builds a healthy cash flow in the communities, prompting Mynt, a wholly-owned financial se",
      "datePosted": "May 26, 2016 | 02:55 PM",
      "titleFromTag": "Partners"
    },
    {
      "title": "Metro Manila most problematic in deployment of new cell sites",
      "nonclickable": false,
      "openNewTab": false,
      "borderArticle": "border-color:#0074D9;",
      "borderTopArticle": "border-top-color:#0074D9;",
      "imageListing": "/sites/globe.com.ph/files/content/dam/globe/brie/AboutUs/newsroom/common/Corporate_Globe_Listing.jpg",
      "articleUrl": "https://www.globe.com.ph/about-us/newsroom/corporate/metro-manila-most-problematic-deployment-new-cell-sites.html",
      "columnType": "articles--type-3",
      "typeListing": "article",
      "imageMobile": "/sites/globe.com.ph/files/content/dam/globe/brie/AboutUs/newsroom/common/Corporate_Globe_Hero-Banner-Mobile.jpg",
      "imageDesktop": "/sites/globe.com.ph/files/content/dam/globe/brie/AboutUs/newsroom/common/Corporate_Globe_Primary-Desktop-Thumbnail.jpg",
      "description": "Metro Manila is most problematic in the deployment of new cell sites with main issues ranging from social acceptability, neighbors’ opposition and homeowners associations’ restrictions due to aesthet",
      "datePosted": "May 26, 2016 | 12:17 PM",
      "titleFromTag": "Corporate"
    },
    {
      "title": "Globe puts up additional investments to improve internet experience",
      "nonclickable": false,
      "openNewTab": false,
      "borderArticle": "border-color:#0074D9;",
      "borderTopArticle": "border-top-color:#0074D9;",
      "imageListing": "/sites/globe.com.ph/files/content/dam/globe/brie/AboutUs/newsroom/common/Corporate_Globe_Listing.jpg",
      "articleUrl": "https://www.globe.com.ph/about-us/newsroom/corporate/globe-puts-additional-investments-improve-internet-experience.html",
      "columnType": "articles--type-3",
      "typeListing": "article",
      "imageMobile": "/sites/globe.com.ph/files/content/dam/globe/brie/AboutUs/newsroom/common/Corporate_Globe_Hero-Banner-Mobile.jpg",
      "imageDesktop": "/sites/globe.com.ph/files/content/dam/globe/brie/AboutUs/newsroom/common/Corporate_Globe_Primary-Desktop-Thumbnail.jpg",
      "description": "Globe's capital investment is up 45% year over year as the company expands data capacity and network reach to meet rising demand for high-speed data access.",
      "datePosted": "May 24, 2016 | 12:18 PM",
      "titleFromTag": "Corporate"
    },
    {
      "title": "Globe 1st PH telco to tap TV white space frequency for broadband use",
      "nonclickable": false,
      "openNewTab": false,
      "borderArticle": "border-color:#0074D9;",
      "borderTopArticle": "border-top-color:#0074D9;",
      "imageListing": "/sites/globe.com.ph/files/content/dam/globe/brie/AboutUs/newsroom/common/Corporate_Globe_Listing.jpg",
      "articleUrl": "https://www.globe.com.ph/about-us/newsroom/corporate/globe-1st-ph-telco-tap-tv-white-space-frequency-broadband-use.html",
      "columnType": "articles--type-3",
      "typeListing": "article",
      "imageMobile": "/sites/globe.com.ph/files/content/dam/globe/brie/AboutUs/newsroom/common/Corporate_Globe_Hero-Banner-Mobile.jpg",
      "imageDesktop": "/sites/globe.com.ph/files/content/dam/globe/brie/AboutUs/newsroom/common/Corporate_Globe_Primary-Desktop-Thumbnail.jpg",
      "description": "Globe Telecom is the first Philippine telecom to adopt the TV white space frequency for broadband use in line with its mission of improved connectivity.",
      "datePosted": "May 24, 2016 | 12:17 PM",
      "titleFromTag": "Corporate"
    },
    {
      "title": "Huawei adopts Globe Telecom’s Project 1 Phone Recycling and Recovery Program",
      "nonclickable": false,
      "openNewTab": false,
      "borderArticle": "border-color:#0074D9;",
      "borderTopArticle": "border-top-color:#0074D9;",
      "imageListing": "/sites/globe.com.ph/files/content/dam/globe/brie/AboutUs/newsroom/common/Corporate_Globe_Listing.jpg",
      "articleUrl": "https://www.globe.com.ph/about-us/newsroom/citizenship/huawei-adopts-globe-telecoms-project-1-phone-recycling-and-recov.html",
      "columnType": "articles--type-3",
      "typeListing": "article",
      "imageMobile": "/sites/globe.com.ph/files/content/dam/globe/brie/AboutUs/newsroom/common/Corporate_Globe_Hero-Banner-Mobile.jpg",
      "imageDesktop": "/sites/globe.com.ph/files/content/dam/globe/brie/AboutUs/newsroom/common/Corporate_Globe_Primary-Desktop-Thumbnail.jpg",
      "description": "Leading global ICT solutions provider Huawei Technologies Philippines, Inc.",
      "datePosted": "May 20, 2016 | 02:36 PM",
      "titleFromTag": "Citizenship"
    },
    {
      "title": "Globe Telecom, the Mind Museum Bring the Wonder of Science to People Everywhere",
      "nonclickable": false,
      "openNewTab": false,
      "borderArticle": "border-color:#0074D9;",
      "borderTopArticle": "border-top-color:#0074D9;",
      "imageListing": "/sites/globe.com.ph/files/content/dam/globe/brie/AboutUs/newsroom/common/Corporate_Globe_Listing.jpg",
      "articleUrl": "https://www.globe.com.ph/about-us/newsroom/citizenship/globe-telecom-mind-museum-bring-wonder-science-people-ev.html",
      "columnType": "articles--type-3",
      "typeListing": "article",
      "imageMobile": "/sites/globe.com.ph/files/content/dam/globe/brie/AboutUs/newsroom/common/Corporate_Globe_Hero-Banner-Mobile.jpg",
      "imageDesktop": "/sites/globe.com.ph/files/content/dam/globe/brie/AboutUs/newsroom/common/Corporate_Globe_Primary-Desktop-Thumbnail.jpg",
      "description": "Globe and The Mind Museum collaborate on a mobile app providing access to mutliple interactive exhibits for science enthusiasts, students, and teachers.",
      "datePosted": "May 20, 2016 | 02:35 PM",
      "titleFromTag": "Citizenship"
    },
    {
      "title": "Globe Business powers PH supply chain industry",
      "nonclickable": false,
      "openNewTab": false,
      "borderArticle": "border-color:#0074D9;",
      "borderTopArticle": "border-top-color:#0074D9;",
      "imageListing": "/sites/globe.com.ph/files/content/dam/globe/brie/AboutUs/newsroom/common/Corporate_Globe_Listing.jpg",
      "articleUrl": "https://www.globe.com.ph/about-us/newsroom/business/globe-business-powers-ph-supply-chain-industry.html",
      "columnType": "articles--type-3",
      "typeListing": "article",
      "imageMobile": "/sites/globe.com.ph/files/content/dam/globe/brie/AboutUs/newsroom/common/Corporate_Globe_Hero-Banner-Mobile.jpg",
      "imageDesktop": "/sites/globe.com.ph/files/content/dam/globe/brie/AboutUs/newsroom/common/Corporate_Globe_Primary-Desktop-Thumbnail.jpg",
      "description": "Globe Business collaborates with the Philippine supply chain industry to address manufacturing, retail, and logistics challenges in a connected global economy.",
      "datePosted": "May 20, 2016 | 02:01 PM",
      "titleFromTag": "Business"
    },
    {
      "title": "Globe hails best Clash Royale troupes at PGF Summer Assembly",
      "nonclickable": false,
      "openNewTab": false,
      "borderArticle": "border-color:#0074D9;",
      "borderTopArticle": "border-top-color:#0074D9;",
      "imageListing": "/sites/globe.com.ph/files/content/dam/globe/brie/AboutUs/newsroom/common/Corporate_Globe_Listing.jpg",
      "articleUrl": "https://www.globe.com.ph/about-us/newsroom/consumer/globe-hails-best-clash-royale-troupes-pgf-summer-assembly.html",
      "columnType": "articles--type-3",
      "typeListing": "article",
      "imageMobile": "/sites/globe.com.ph/files/content/dam/globe/brie/AboutUs/newsroom/common/Corporate_Globe_Hero-Banner-Mobile.jpg",
      "imageDesktop": "/sites/globe.com.ph/files/content/dam/globe/brie/AboutUs/newsroom/common/Corporate_Globe_Primary-Desktop-Thumbnail.jpg",
      "description": "The most competitive gamers all over the country gathered at the recently held Pinoy Gaming Festival (PGF) Summer Assembly last May 6 to May 8, 2016 at SM North Edsa.",
      "datePosted": "May 20, 2016 | 01:23 PM",
      "titleFromTag": "Consumer"
    },
    {
      "title": "Your Summer survival guide, all on your mobile",
      "nonclickable": false,
      "openNewTab": false,
      "borderArticle": "border-color:#0074D9;",
      "borderTopArticle": "border-top-color:#0074D9;",
      "imageListing": "/sites/globe.com.ph/files/content/dam/globe/brie/AboutUs/newsroom/common/Corporate_Globe_Listing.jpg",
      "articleUrl": "https://www.globe.com.ph/about-us/newsroom/consumer/globe-business-powers-ph-supply-chain-industry-1.html",
      "columnType": "articles--type-3",
      "typeListing": "article",
      "imageMobile": "/sites/globe.com.ph/files/content/dam/globe/brie/AboutUs/newsroom/common/Corporate_Globe_Hero-Banner-Mobile.jpg",
      "imageDesktop": "/sites/globe.com.ph/files/content/dam/globe/brie/AboutUs/newsroom/common/Corporate_Globe_Primary-Desktop-Thumbnail.jpg",
      "description": "The summer season is in full swing, and getting ready for it should be a whole lot of fun. Here are the apps that would make for another remarkable summer!",
      "datePosted": "May 20, 2016 | 01:23 PM",
      "titleFromTag": "Consumer"
    }
  ]
}
