{
  "status": 200,
  "page": 289,
  "totalPage": 298,
  "range": "3457-3468",
  "total": 3573,
  "result": [
    {
      "title": "Globe Telecom to Offer iPhone SE in the Philippines starting May 16, 2016",
      "nonclickable": false,
      "openNewTab": false,
      "borderArticle": "border-color:#0074D9;",
      "borderTopArticle": "border-top-color:#0074D9;",
      "imageListing": "/sites/globe.com.ph/files/content/dam/globe/brie/AboutUs/newsroom/common/Corporate_Globe_Listing.jpg",
      "articleUrl": "https://www.globe.com.ph/about-us/newsroom/consumer/globe-telecom-offer-iphone-se-philippines-starting-may-0.html",
      "columnType": "articles--type-3",
      "typeListing": "article",
      "imageMobile": "/sites/globe.com.ph/files/content/dam/globe/brie/AboutUs/newsroom/common/Corporate_Globe_Hero-Banner-Mobile.jpg",
      "imageDesktop": "/sites/globe.com.ph/files/content/dam/globe/brie/AboutUs/newsroom/common/Corporate_Globe_Primary-Desktop-Thumbnail.jpg",
      "description": "Number 1 mobile brand, Globe Telecom, today announced it will offer iPhone SE, the most powerful phone with a four-inch display, beginning May 16, 2016.",
      "datePosted": "May 20, 2016 | 01:22 PM",
      "titleFromTag": "Consumer"
    },
    {
      "title": "Globe mobile data sustains growth momentum; mentions need for more cell sites, spectrum to improve internet services",
      "nonclickable": false,
      "openNewTab": false,
      "borderArticle": "border-color:#0074D9;",
      "borderTopArticle": "border-top-color:#0074D9;",
      "imageListing": "/sites/globe.com.ph/files/content/dam/globe/brie/AboutUs/newsroom/common/Corporate_Globe_Listing.jpg",
      "articleUrl": "https://www.globe.com.ph/about-us/newsroom/corporate/globe-mobile-data-sustains-growth-momentum-mentions-need.html",
      "columnType": "articles--type-3",
      "typeListing": "article",
      "imageMobile": "/sites/globe.com.ph/files/content/dam/globe/brie/AboutUs/newsroom/common/Corporate_Globe_Hero-Banner-Mobile.jpg",
      "imageDesktop": "/sites/globe.com.ph/files/content/dam/globe/brie/AboutUs/newsroom/common/Corporate_Globe_Primary-Desktop-Thumbnail.jpg",
      "description": "Globe Telecom's mobile data sales increased as demand for data services and applications grew and more consumers adopted a digital lifestyle.",
      "datePosted": "May 20, 2016 | 12:20 PM",
      "titleFromTag": "Corporate"
    },
    {
      "title": "Cycling app We are here wins Globe-backed Mobile App Design for Social Good category at adobo Design Awards",
      "nonclickable": false,
      "openNewTab": false,
      "borderArticle": "border-color:#0074D9;",
      "borderTopArticle": "border-top-color:#0074D9;",
      "imageListing": "/sites/globe.com.ph/files/content/dam/globe/brie/AboutUs/newsroom/common/Corporate_Globe_Listing.jpg",
      "articleUrl": "https://www.globe.com.ph/about-us/newsroom/corporate/cycling-app-we-are-here-wins-globe-backed-mobile-app-design-soci.html",
      "columnType": "articles--type-3",
      "typeListing": "article",
      "imageMobile": "/sites/globe.com.ph/files/content/dam/globe/brie/AboutUs/newsroom/common/Corporate_Globe_Hero-Banner-Mobile.jpg",
      "imageDesktop": "/sites/globe.com.ph/files/content/dam/globe/brie/AboutUs/newsroom/common/Corporate_Globe_Primary-Desktop-Thumbnail.jpg",
      "description": "In a country where traffic congestion is a perennial problem, a cycling app that aims to connect biking enthusiasts and provide bicycle-friendly neighborhoods caught the designing community’s fancy.",
      "datePosted": "May 20, 2016 | 12:19 PM",
      "titleFromTag": "Corporate"
    },
    {
      "title": "Creating wonderful moments with your kids in the digital world",
      "nonclickable": false,
      "openNewTab": false,
      "borderArticle": "border-color:#0074D9;",
      "borderTopArticle": "border-top-color:#0074D9;",
      "imageListing": "/sites/globe.com.ph/files/content/dam/globe/brie/AboutUs/newsroom/common/Corporate_Globe_Listing.jpg",
      "articleUrl": "https://www.globe.com.ph/about-us/newsroom/sustainability/creating-wonderful-moments-your-kids-digital-world.html",
      "columnType": "articles--type-3",
      "typeListing": "article",
      "imageMobile": "/sites/globe.com.ph/files/content/dam/globe/brie/AboutUs/newsroom/common/Corporate_Globe_Hero-Banner-Mobile.jpg",
      "imageDesktop": "/sites/globe.com.ph/files/content/dam/globe/brie/AboutUs/newsroom/common/Corporate_Globe_Primary-Desktop-Thumbnail.jpg",
      "description": "Being a mom in today’s digital world is a big challenge.  With the kids usually glued to their computer screens, tablets or smartphones playing Clash Royale, chatting with friends on Viber, post",
      "datePosted": "May 11, 2016 | 03:40 PM",
      "titleFromTag": "Sustainability"
    },
    {
      "title": "Globe Telecom board approves P22/share cash dividend",
      "nonclickable": false,
      "openNewTab": false,
      "borderArticle": "border-color:#0074D9;",
      "borderTopArticle": "border-top-color:#0074D9;",
      "imageListing": "/sites/globe.com.ph/files/content/dam/globe/brie/AboutUs/newsroom/common/Corporate_Globe_Listing.jpg",
      "articleUrl": "https://www.globe.com.ph/about-us/newsroom/corporate/globe-telecom-board-approves-p22share-cash-dividend.html",
      "columnType": "articles--type-3",
      "typeListing": "article",
      "imageMobile": "/sites/globe.com.ph/files/content/dam/globe/brie/AboutUs/newsroom/common/Corporate_Globe_Hero-Banner-Mobile.jpg",
      "imageDesktop": "/sites/globe.com.ph/files/content/dam/globe/brie/AboutUs/newsroom/common/Corporate_Globe_Primary-Desktop-Thumbnail.jpg",
      "description": "Globe Telecom said its board approved the declaration of second quarter cash dividend of P22 per share for holders of its common shares. ",
      "datePosted": "May 11, 2016 | 12:20 PM",
      "titleFromTag": "Corporate"
    },
    {
      "title": "Doing a Globe of Good towards a wonderful METamorphosis",
      "nonclickable": false,
      "openNewTab": false,
      "borderArticle": "border-color:#0074D9;",
      "borderTopArticle": "border-top-color:#0074D9;",
      "imageListing": "/sites/globe.com.ph/files/content/dam/globe/brie/AboutUs/newsroom/common/Corporate_Globe_Listing.jpg",
      "articleUrl": "https://www.globe.com.ph/about-us/newsroom/sustainability/doing-globe-good-towards-wonderful-metamorphosis.html",
      "columnType": "articles--type-3",
      "typeListing": "article",
      "imageMobile": "/sites/globe.com.ph/files/content/dam/globe/brie/AboutUs/newsroom/common/Corporate_Globe_Hero-Banner-Mobile.jpg",
      "imageDesktop": "/sites/globe.com.ph/files/content/dam/globe/brie/AboutUs/newsroom/common/Corporate_Globe_Primary-Desktop-Thumbnail.jpg",
      "description": "Like a lowly caterpillar wrapping itself in a cocoon with the hope of one day emerging into a beautiful butterfly, so is the vision for the long-abandoned Metropolitan Theater which fell into disrepa",
      "datePosted": "May 05, 2016 | 03:08 PM",
      "titleFromTag": "Sustainability"
    },
    {
      "title": "Globe champions environmental sustainability among private corporations through Project 1 Phone",
      "nonclickable": false,
      "openNewTab": false,
      "borderArticle": "border-color:#0074D9;",
      "borderTopArticle": "border-top-color:#0074D9;",
      "imageListing": "/sites/globe.com.ph/files/content/dam/globe/brie/AboutUs/newsroom/common/Corporate_Globe_Listing.jpg",
      "articleUrl": "https://www.globe.com.ph/about-us/newsroom/sustainability/globe-champions-environmental-sustainability-among-private-corpo-backup.html",
      "columnType": "articles--type-3",
      "typeListing": "article",
      "imageMobile": "/sites/globe.com.ph/files/content/dam/globe/brie/AboutUs/newsroom/common/Corporate_Globe_Hero-Banner-Mobile.jpg",
      "imageDesktop": "/sites/globe.com.ph/files/content/dam/globe/brie/AboutUs/newsroom/common/Corporate_Globe_Primary-Desktop-Thumbnail.jpg",
      "description": "Globe Telecom is leading the way in helping businesses do their share in minimizing environmental impact of electronic waste and countering its harmful effects on health through close collaborat",
      "datePosted": "May 05, 2016 | 03:05 PM",
      "titleFromTag": "Sustainability"
    },
    {
      "title": "Globe champions environmental sustainability among private corporations through Project 1 Phone",
      "nonclickable": false,
      "openNewTab": false,
      "borderArticle": "border-color:#0074D9;",
      "borderTopArticle": "border-top-color:#0074D9;",
      "imageListing": "/sites/globe.com.ph/files/content/dam/globe/brie/AboutUs/newsroom/common/Corporate_Globe_Listing.jpg",
      "articleUrl": "https://www.globe.com.ph/about-us/newsroom/sustainability/globe-champions-environmental-sustainability-among-private-corpo.html",
      "columnType": "articles--type-3",
      "typeListing": "article",
      "imageMobile": "/sites/globe.com.ph/files/content/dam/globe/brie/AboutUs/newsroom/common/Corporate_Globe_Hero-Banner-Mobile.jpg",
      "imageDesktop": "/sites/globe.com.ph/files/content/dam/globe/brie/AboutUs/newsroom/common/Corporate_Globe_Primary-Desktop-Thumbnail.jpg",
      "description": "Globe Telecom is leading the way in helping businesses do their share in minimizing environmental impact of electronic waste and countering its harmful effects on health through close collaborat",
      "datePosted": "May 05, 2016 | 03:05 PM",
      "titleFromTag": "Sustainability"
    },
    {
      "title": "TM Basketball Para Sa Bayan Holds Successful Tip-Off",
      "nonclickable": false,
      "openNewTab": false,
      "borderArticle": "border-color:#0074D9;",
      "borderTopArticle": "border-top-color:#0074D9;",
      "imageListing": "/sites/globe.com.ph/files/content/dam/globe/brie/AboutUs/newsroom/common/Corporate_Globe_Listing.jpg",
      "articleUrl": "https://www.globe.com.ph/about-us/newsroom/citizenship/tm-basketball-para-sa-bayan-holds-successful-tip.html",
      "columnType": "articles--type-3",
      "typeListing": "article",
      "imageMobile": "/sites/globe.com.ph/files/content/dam/globe/brie/AboutUs/newsroom/common/Corporate_Globe_Hero-Banner-Mobile.jpg",
      "imageDesktop": "/sites/globe.com.ph/files/content/dam/globe/brie/AboutUs/newsroom/common/Corporate_Globe_Primary-Desktop-Thumbnail.jpg",
      "description": "Globe Telecom has successfully launched Republika ng TM Basketball Para Sa Bayan (TM BPSB), a project promoting grassroots sports development in the country.",
      "datePosted": "May 05, 2016 | 02:38 PM",
      "titleFromTag": "Citizenship"
    },
    {
      "title": "Singtel Group’s Go Ignite Opens Doors to Local Startups",
      "nonclickable": false,
      "openNewTab": false,
      "borderArticle": "border-color:#0074D9;",
      "borderTopArticle": "border-top-color:#0074D9;",
      "imageListing": "/sites/globe.com.ph/files/content/dam/globe/brie/AboutUs/newsroom/common/Corporate_Globe_Listing.jpg",
      "articleUrl": "https://www.globe.com.ph/about-us/newsroom/citizenship/singtel-groups-go-ignite-opens-doors-local-startups.html",
      "columnType": "articles--type-3",
      "typeListing": "article",
      "imageMobile": "/sites/globe.com.ph/files/content/dam/globe/brie/AboutUs/newsroom/common/Corporate_Globe_Hero-Banner-Mobile.jpg",
      "imageDesktop": "/sites/globe.com.ph/files/content/dam/globe/brie/AboutUs/newsroom/common/Corporate_Globe_Primary-Desktop-Thumbnail.jpg",
      "description": "Top local startups in IoT, big data analytics, content delivery, cybersecurity or customer experience can join Globe's startup accelerator program.",
      "datePosted": "May 05, 2016 | 02:37 PM",
      "titleFromTag": "Citizenship"
    },
    {
      "title": "Globe-Singtel Scholarships Granted to Students from Top Universities",
      "nonclickable": false,
      "openNewTab": false,
      "borderArticle": "border-color:#0074D9;",
      "borderTopArticle": "border-top-color:#0074D9;",
      "imageListing": "/sites/globe.com.ph/files/content/dam/globe/brie/AboutUs/newsroom/common/Corporate_Globe_Listing.jpg",
      "articleUrl": "https://www.globe.com.ph/about-us/newsroom/citizenship/globe-singtel-scholarships-granted-students-top-universities.html",
      "columnType": "articles--type-3",
      "typeListing": "article",
      "imageMobile": "/sites/globe.com.ph/files/content/dam/globe/brie/AboutUs/newsroom/common/Corporate_Globe_Hero-Banner-Mobile.jpg",
      "imageDesktop": "/sites/globe.com.ph/files/content/dam/globe/brie/AboutUs/newsroom/common/Corporate_Globe_Primary-Desktop-Thumbnail.jpg",
      "description": "Five outstanding students from the country’s top universities were chosen as recipients of this year's Globe-SingTel Undergraduate Scholarship Program following a rigorous selection process.",
      "datePosted": "May 05, 2016 | 02:35 PM",
      "titleFromTag": "Citizenship"
    },
    {
      "title": "Globe champions environmental sustainability among private corporations through Project 1 Phone",
      "nonclickable": false,
      "openNewTab": false,
      "borderArticle": "border-color:#0074D9;",
      "borderTopArticle": "border-top-color:#0074D9;",
      "imageListing": "/sites/globe.com.ph/files/content/dam/globe/brie/AboutUs/newsroom/common/Corporate_Globe_Listing.jpg",
      "articleUrl": "https://www.globe.com.ph/about-us/newsroom/citizenship/globe-champions-environmental-sustainability-among-private-corpo.html",
      "columnType": "articles--type-3",
      "typeListing": "article",
      "imageMobile": "/sites/globe.com.ph/files/content/dam/globe/brie/AboutUs/newsroom/common/Corporate_Globe_Hero-Banner-Mobile.jpg",
      "imageDesktop": "/sites/globe.com.ph/files/content/dam/globe/brie/AboutUs/newsroom/common/Corporate_Globe_Primary-Desktop-Thumbnail.jpg",
      "description": "Globe Telecom leads the way in helping businesses do their share in minimizing environmental impact of electronic waste and reversing its effects on health",
      "datePosted": "May 05, 2016 | 02:34 PM",
      "titleFromTag": "Citizenship"
    }
  ]
}
