{
  "status": 200,
  "page": 29,
  "totalPage": 298,
  "range": "337-348",
  "total": 3573,
  "result": [
    {
      "title": "Globe Implements Intelligent Monitoring Systems for Energy Efficiency and Climate Action",
      "nonclickable": false,
      "openNewTab": false,
      "borderArticle": "border-color:#0074D9;",
      "borderTopArticle": "border-top-color:#0074D9;",
      "imageListing": "/sites/globe.com.ph/files/content/dam/globe/brie/AboutUs/newsroom/common/default-sustainability-3/corp-default-images-thumbnail-listing.jpg",
      "articleUrl": "https://www.globe.com.ph/about-us/newsroom/sustainability/intelligent-monitoring-systems-energy-efficiency-climate-action.html",
      "columnType": "articles--type-3",
      "typeListing": "article",
      "imageMobile": "/sites/globe.com.ph/files/content/dam/globe/brie/AboutUs/newsroom/common/default-sustainability-3/corp-default-images-primary-thumbnail-m.jpg",
      "imageDesktop": "/sites/globe.com.ph/files/content/dam/globe/brie/AboutUs/newsroom/common/default-sustainability-3/corp-default-images-primary-thumbnail-d.jpg",
      "description": "Globe implements intelligent monitoring systems to reduce carbon emissions from electricity consumption.",
      "datePosted": "Apr 05, 2023 | 01:56 PM",
      "titleFromTag": "Sustainability"
    },
    {
      "title": "Elevate Your Family's Easter Celebration with Globe At Home",
      "nonclickable": false,
      "openNewTab": false,
      "borderArticle": "border-color:#0074D9;",
      "borderTopArticle": "border-top-color:#0074D9;",
      "imageListing": "/sites/globe.com.ph/files/content/dam/globe/brie/AboutUs/newsroom/common/default-4/default-consumer-3-thumbnail-listing.jpg",
      "articleUrl": "https://www.globe.com.ph/about-us/newsroom/consumer/elevate-familys-easter-celebration-globe-at-home.html",
      "columnType": "articles--type-3",
      "typeListing": "article",
      "imageMobile": "/sites/globe.com.ph/files/content/dam/globe/brie/AboutUs/newsroom/common/default-4/default-consumer-3-primary-thumbnail-m.jpg",
      "imageDesktop": "/sites/globe.com.ph/files/content/dam/globe/brie/AboutUs/newsroom/common/default-4/default-consumer-3-primary-thumbnail-d.jpg",
      "description": "Elevate your Holy Week celebration with Globe At Home’s new offers,  so you can bond and reunite with your family  at home.",
      "datePosted": "Apr 05, 2023 | 12:00 PM",
      "titleFromTag": "Consumer"
    },
    {
      "title": "KonsultaMD Wins Fearless Social Media Account at Nylon's Big, Bold, Brave Awards 2023",
      "nonclickable": false,
      "openNewTab": false,
      "borderArticle": "border-color:#0074D9;",
      "borderTopArticle": "border-top-color:#0074D9;",
      "imageListing": "/sites/globe.com.ph/files/content/dam/globe/brie/About-us/Newsroom/image/Partners/040423/KonsultaMD-wins-Fearless-Social-Media-Account-at-Nylons-Big-Bold-Brave-Awards-2023-thumbnail-listing.jpg",
      "articleUrl": "https://www.globe.com.ph/about-us/newsroom/partners/konsultamd-wins-fearless-social-media-account.html",
      "columnType": "articles--type-3",
      "typeListing": "article",
      "imageMobile": "/sites/globe.com.ph/files/content/dam/globe/brie/About-us/Newsroom/image/Partners/040423/KonsultaMD-wins-Fearless-Social-Media-Account-at-Nylons-Big-Bold-Brave-Awards-2023-primary-thumbnail-m.jpg",
      "imageDesktop": "/sites/globe.com.ph/files/content/dam/globe/brie/About-us/Newsroom/image/Partners/040423/KonsultaMD-wins-Fearless-Social-Media-Account-at-Nylons-Big-Bold-Brave-Awards-2023-primary-thumbnail-d.jpg",
      "description": "Telehealth service KonsultaMD was recently recognized with the Fearless Social Media Account Award at Nylon's Big, Bold, Brave Awards 2023.",
      "datePosted": "Apr 04, 2023 | 03:33 PM",
      "titleFromTag": "Partners"
    },
    {
      "title": "Globe Honors Exceptional Storytelling in GMEA@10, Announces Expansion of Annual Awards to Luzon",
      "nonclickable": false,
      "openNewTab": false,
      "borderArticle": "border-color:#0074D9;",
      "borderTopArticle": "border-top-color:#0074D9;",
      "imageListing": "/sites/globe.com.ph/files/content/dam/globe/brie/AboutUs/newsroom/common/default-corporate-15/corp-default-images-thumbnail-listing.jpg",
      "articleUrl": "https://www.globe.com.ph/about-us/newsroom/corporate/globe-honors-exceptional-storytelling-gmea-10.html",
      "columnType": "articles--type-3",
      "typeListing": "article",
      "imageMobile": "/sites/globe.com.ph/files/content/dam/globe/brie/AboutUs/newsroom/common/default-corporate-15/corp-default-images-primary-thumbnail-m.jpg",
      "imageDesktop": "/sites/globe.com.ph/files/content/dam/globe/brie/AboutUs/newsroom/common/default-corporate-15/corp-default-images-primary-thumbnail-d.jpg",
      "description": "The Globe Group named the winners of GMEA@10, honoring various media platforms for stories on a wide range of topics.",
      "datePosted": "Apr 04, 2023 | 03:30 PM",
      "titleFromTag": "Corporate"
    },
    {
      "title": "Travel The World This Summer with Budget-Friendly Roaming Promos from Globe",
      "nonclickable": false,
      "openNewTab": false,
      "borderArticle": "border-color:#0074D9;",
      "borderTopArticle": "border-top-color:#0074D9;",
      "imageListing": "/sites/globe.com.ph/files/content/dam/globe/brie/AboutUs/newsroom/common/default-international-1/international-default-images-thumbnail-listing.jpg",
      "articleUrl": "https://www.globe.com.ph/about-us/newsroom/consumer/travel-the-world-budget-friendly-roaming-promos.html",
      "columnType": "articles--type-3",
      "typeListing": "article",
      "imageMobile": "/sites/globe.com.ph/files/content/dam/globe/brie/AboutUs/newsroom/common/default-international-1/international-default-images-primary-thumbnail-m.jpg",
      "imageDesktop": "/sites/globe.com.ph/files/content/dam/globe/brie/AboutUs/newsroom/common/default-international-1/international-default-images-primary-thumbnail-d.jpg",
      "description": "Travel the world this summer with budget-friendly GoRoam promos from Globe Roaming.",
      "datePosted": "Apr 04, 2023 | 02:11 PM",
      "titleFromTag": "Consumer"
    },
    {
      "title": "Great to Be 8! Asticom Celebrates 8 Years of Helping Businesses and Improving Lives",
      "nonclickable": false,
      "openNewTab": false,
      "borderArticle": "border-color:#0074D9;",
      "borderTopArticle": "border-top-color:#0074D9;",
      "imageListing": "/sites/globe.com.ph/files/content/dam/globe/brie/AboutUs/newsroom/common/default-partners-4/default-partners-4-primary-thumbnail-listing.jpg",
      "articleUrl": "https://www.globe.com.ph/about-us/newsroom/partners/asticom-celebrates-eight-years.html",
      "columnType": "articles--type-3",
      "typeListing": "article",
      "imageMobile": "/sites/globe.com.ph/files/content/dam/globe/brie/AboutUs/newsroom/common/default-partners-4/default-partners-4-primary-primary-thumbnail-m.jpg",
      "imageDesktop": "/sites/globe.com.ph/files/content/dam/globe/brie/AboutUs/newsroom/common/default-partners-4/default-partners-4-primary-primary-thumbnail-d.jpg",
      "description": "Asticom Group of Companies commemorates its 8th anniversary with numerous achievements and commitment to innovation and excellence. ",
      "datePosted": "Apr 03, 2023 | 03:33 PM",
      "titleFromTag": "Partners"
    },
    {
      "title": "Boosting PH’s Anti-Piracy Law Critical in Protecting ₱1.60-T Creatives Sector, Future-Proofing Economy",
      "nonclickable": false,
      "openNewTab": false,
      "borderArticle": "border-color:#0074D9;",
      "borderTopArticle": "border-top-color:#0074D9;",
      "imageListing": "/sites/globe.com.ph/files/content/dam/globe/brie/AboutUs/newsroom/common/default-corporate-main/newsroom-default-corporate-thumbnail-listing.jpg",
      "articleUrl": "https://www.globe.com.ph/about-us/newsroom/corporate/boosting-ph-anti-piracy-law.html",
      "columnType": "articles--type-3",
      "typeListing": "article",
      "imageMobile": "/sites/globe.com.ph/files/content/dam/globe/brie/AboutUs/newsroom/common/default-corporate-main/newsroom-default-corporate-primary-thumbnail-m.jpg",
      "imageDesktop": "/sites/globe.com.ph/files/content/dam/globe/brie/AboutUs/newsroom/common/default-corporate-main/newsroom-default-corporate-primary-thumbnail-d.jpg",
      "description": "Joey Salceda underscored the urgency of amending the country’s 26-year old IP Code to protect some 6.89M Filipinos in the ₱1.60-trillion creatives industry.",
      "datePosted": "Mar 31, 2023 | 03:53 PM",
      "titleFromTag": "Corporate"
    },
    {
      "title": "PTTC, Proxtera, Globe Equip Filipino MSMEs with Financial Skills Through Online Courses",
      "nonclickable": false,
      "openNewTab": false,
      "borderArticle": "border-color:#0074D9;",
      "borderTopArticle": "border-top-color:#0074D9;",
      "imageListing": "/sites/globe.com.ph/files/content/dam/globe/brie/AboutUs/newsroom/common/default-business-5/sg-default-images-thumbnail-listing.jpg",
      "articleUrl": "https://www.globe.com.ph/about-us/newsroom/business/pttc-proxtera-globe-online-courses-msmes.html",
      "columnType": "articles--type-3",
      "typeListing": "article",
      "imageMobile": "/sites/globe.com.ph/files/content/dam/globe/brie/AboutUs/newsroom/common/default-business-5/sg-default-images-primary-thumbnail-m.jpg",
      "imageDesktop": "/sites/globe.com.ph/files/content/dam/globe/brie/AboutUs/newsroom/common/default-business-5/sg-default-images-primary-thumbnail-d.jpg",
      "description": "Globe partners with Proxtera and PTTC to provide MSMEs with online courses on financial literacy.",
      "datePosted": "Mar 31, 2023 | 02:15 PM",
      "titleFromTag": "Business"
    },
    {
      "title": "Globe At Home Delivers New Level of Care and Innovation with Globe Home Squad",
      "nonclickable": false,
      "openNewTab": false,
      "borderArticle": "border-color:#0074D9;",
      "borderTopArticle": "border-top-color:#0074D9;",
      "imageListing": "/sites/globe.com.ph/files/content/dam/globe/brie/AboutUs/newsroom/common/default-4/default-consumer-3-thumbnail-listing.jpg",
      "articleUrl": "https://www.globe.com.ph/about-us/newsroom/consumer/new-level-care-innovation-globe-home-squad.html",
      "columnType": "articles--type-3",
      "typeListing": "article",
      "imageMobile": "/sites/globe.com.ph/files/content/dam/globe/brie/AboutUs/newsroom/common/default-4/default-consumer-3-primary-thumbnail-m.jpg",
      "imageDesktop": "/sites/globe.com.ph/files/content/dam/globe/brie/AboutUs/newsroom/common/default-4/default-consumer-3-primary-thumbnail-d.jpg",
      "description": "Globe At Home deploys Globe Home Squad to improve the overall digital experience at home.  ",
      "datePosted": "Mar 31, 2023 | 02:00 PM",
      "titleFromTag": "Consumer"
    },
    {
      "title": "‘I Want to Be Here’ of KonsultaMD and Kiana V is New Mental Health Anthem for the Youth",
      "nonclickable": false,
      "openNewTab": false,
      "borderArticle": "border-color:#0074D9;",
      "borderTopArticle": "border-top-color:#0074D9;",
      "imageListing": "/sites/globe.com.ph/files/content/dam/globe/brie/About-us/Newsroom/image/Consumer/033123/i-want-to-be-here-konsultamd-kiana-v-thumbnail-listing.jpg",
      "articleUrl": "https://www.globe.com.ph/about-us/newsroom/consumer/i-want-to-be-here-konsultamd-kiana-v.html",
      "columnType": "articles--type-3",
      "typeListing": "article",
      "imageMobile": "/sites/globe.com.ph/files/content/dam/globe/brie/About-us/Newsroom/image/Consumer/033123/i-want-to-be-here-konsultamd-kiana-v-primary-thumbnail-m.jpg",
      "imageDesktop": "/sites/globe.com.ph/files/content/dam/globe/brie/About-us/Newsroom/image/Consumer/033123/i-want-to-be-here-konsultamd-kiana-v-primary-thumbnail-d.jpg",
      "description": "The song ‘I Want to Be Here’ made through a collaboration between KonsultaMD and Kiana V is fast gaining popularity as a mental health anthem.",
      "datePosted": "Mar 31, 2023 | 02:00 PM",
      "titleFromTag": "Consumer"
    },
    {
      "title": "Globe Creates Meaningful Experiences with Filipino BLINKs at Two-Day Concert",
      "nonclickable": false,
      "openNewTab": false,
      "borderArticle": "border-color:#0074D9;",
      "borderTopArticle": "border-top-color:#0074D9;",
      "imageListing": "/sites/globe.com.ph/files/content/dam/globe/brie/AboutUs/newsroom/common/default-events-2/default-event-2-thumbnail-listing.jpg",
      "articleUrl": "https://www.globe.com.ph/about-us/newsroom/consumer/meaningful-experiences-filipino-blinks-two-day-concert.html",
      "columnType": "articles--type-3",
      "typeListing": "article",
      "imageMobile": "/sites/globe.com.ph/files/content/dam/globe/brie/AboutUs/newsroom/common/default-events-2/default-event-2-primary-thumbnail-m.jpg",
      "imageDesktop": "/sites/globe.com.ph/files/content/dam/globe/brie/AboutUs/newsroom/common/default-events-2/default-event-2-primary-thumbnail-d.jpg",
      "description": "Globe creates memorable fan experiences while promoting sustainable practices at BLACKPINK WORLD TOUR [BORN PINK] MANILA.",
      "datePosted": "Mar 31, 2023 | 01:00 PM",
      "titleFromTag": "Consumer"
    },
    {
      "title": "Globe Group's Women Leaders Underscore Value of Rest, Family Time in Achieving Success",
      "nonclickable": false,
      "openNewTab": false,
      "borderArticle": "border-color:#0074D9;",
      "borderTopArticle": "border-top-color:#0074D9;",
      "imageListing": "/sites/globe.com.ph/files/content/dam/globe/brie/AboutUs/newsroom/common/default-advisory-2/corp-default-images-thumbnail-listing.jpg",
      "articleUrl": "https://www.globe.com.ph/about-us/newsroom/corporate/women-leaders-value-of-rest-family-time.html",
      "columnType": "articles--type-3",
      "typeListing": "article",
      "imageMobile": "/sites/globe.com.ph/files/content/dam/globe/brie/AboutUs/newsroom/common/default-advisory-2/corp-default-images-primary-thumbnail-m.jpg",
      "imageDesktop": "/sites/globe.com.ph/files/content/dam/globe/brie/AboutUs/newsroom/common/default-advisory-2/corp-default-images-primary-thumbnail-d.jpg",
      "description": "The six high-performing female executives of the Globe Group may be powerhouses in the workplace, but at home, they embrace their roles as loving moms & wives.",
      "datePosted": "Mar 31, 2023 | 12:45 PM",
      "titleFromTag": "Corporate"
    }
  ]
}
