{
  "status": 200,
  "page": 291,
  "totalPage": 298,
  "range": "3481-3492",
  "total": 3573,
  "result": [
    {
      "title": "Globe Cautions Customers Versus Fraud Following Comelec Data Leak",
      "nonclickable": false,
      "openNewTab": false,
      "borderArticle": "border-color:#0074D9;",
      "borderTopArticle": "border-top-color:#0074D9;",
      "imageListing": "/sites/globe.com.ph/files/content/dam/globe/brie/AboutUs/newsroom/corporate/Globe-cautions-customers-versus-fraud-following-Comelec-data-leak/corporate-comeleak-advisory-thumbnail-listing.png",
      "articleUrl": "https://www.globe.com.ph/about-us/newsroom/corporate/globe-cautions-customers-versus-fraud-following-comelec-.html",
      "columnType": "articles--type-3",
      "typeListing": "article",
      "imageMobile": "/sites/globe.com.ph/files/content/dam/globe/brie/AboutUs/newsroom/corporate/Globe-cautions-customers-versus-fraud-following-Comelec-data-leak/corporate-comeleak-advisory-banner-m.png",
      "imageDesktop": "/sites/globe.com.ph/files/content/dam/globe/brie/AboutUs/newsroom/corporate/Globe-cautions-customers-versus-fraud-following-Comelec-data-leak/corporate-comeleak-advisory-banner-d.png",
      "description": "Globe Telecom warns customers to guard against online fraud after Comelec data leak exposes voter info in the country.",
      "datePosted": "Apr 22, 2016 | 12:31 PM",
      "titleFromTag": "Corporate"
    },
    {
      "title": "Globe-Singtel scholarships granted to students from top universities",
      "nonclickable": false,
      "openNewTab": false,
      "borderArticle": "border-color:#0074D9;",
      "borderTopArticle": "border-top-color:#0074D9;",
      "imageListing": "/sites/globe.com.ph/files/content/dam/globe/brie/AboutUs/newsroom/common/Corporate_Globe_Listing.jpg",
      "articleUrl": "https://www.globe.com.ph/about-us/newsroom/corporate/globe-singtel-scholarships-granted-students-top-universities.html",
      "columnType": "articles--type-3",
      "typeListing": "article",
      "imageMobile": "/sites/globe.com.ph/files/content/dam/globe/brie/AboutUs/newsroom/common/Corporate_Globe_Hero-Banner-Mobile.jpg",
      "imageDesktop": "/sites/globe.com.ph/files/content/dam/globe/brie/AboutUs/newsroom/common/Corporate_Globe_Primary-Desktop-Thumbnail.jpg",
      "description": "Five outstanding students from top PH universities were selected as recipients of this year's Globe-SingTel Undergraduate Scholarship Program.",
      "datePosted": "Apr 22, 2016 | 12:29 PM",
      "titleFromTag": "Corporate"
    },
    {
      "title": "Globe expands network coverage, capacity in Cebu province",
      "nonclickable": false,
      "openNewTab": false,
      "borderArticle": "border-color:#0074D9;",
      "borderTopArticle": "border-top-color:#0074D9;",
      "imageListing": "/sites/globe.com.ph/files/content/dam/globe/brie/AboutUs/newsroom/common/Corporate_Globe_Listing.jpg",
      "articleUrl": "https://www.globe.com.ph/about-us/newsroom/sustainability/globe-expands-network-coverage-capacity-cebu-province.html",
      "columnType": "articles--type-3",
      "typeListing": "article",
      "imageMobile": "/sites/globe.com.ph/files/content/dam/globe/brie/AboutUs/newsroom/common/Corporate_Globe_Hero-Banner-Mobile.jpg",
      "imageDesktop": "/sites/globe.com.ph/files/content/dam/globe/brie/AboutUs/newsroom/common/Corporate_Globe_Primary-Desktop-Thumbnail.jpg",
      "description": "Globe Telecom is currently expanding its network coverage and capacity in Cebu province across all technologies, including 3G &amp;amp; LTE,  as part of its commitment to continue building on its ne",
      "datePosted": "Apr 20, 2016 | 03:44 PM",
      "titleFromTag": "Sustainability"
    },
    {
      "title": "Globe expands network coverage, capacity in Cebu province",
      "nonclickable": false,
      "openNewTab": false,
      "borderArticle": "border-color:#0074D9;",
      "borderTopArticle": "border-top-color:#0074D9;",
      "imageListing": "/sites/globe.com.ph/files/content/dam/globe/brie/AboutUs/newsroom/common/Corporate_Globe_Listing.jpg",
      "articleUrl": "https://www.globe.com.ph/about-us/newsroom/corporate/globe-expands-network-coverage-capacity-cebu-province.html",
      "columnType": "articles--type-3",
      "typeListing": "article",
      "imageMobile": "/sites/globe.com.ph/files/content/dam/globe/brie/AboutUs/newsroom/common/Corporate_Globe_Hero-Banner-Mobile.jpg",
      "imageDesktop": "/sites/globe.com.ph/files/content/dam/globe/brie/AboutUs/newsroom/common/Corporate_Globe_Primary-Desktop-Thumbnail.jpg",
      "description": "Globe is expanding its network coverage and capacity in Cebu province across all technologies, including 3G & LTE, as it is committed to improve connectivity.",
      "datePosted": "Apr 20, 2016 | 12:30 PM",
      "titleFromTag": "Corporate"
    },
    {
      "title": "Creating a wonderful Sunday for kids with special needs",
      "nonclickable": false,
      "openNewTab": false,
      "borderArticle": "border-color:#0074D9;",
      "borderTopArticle": "border-top-color:#0074D9;",
      "imageListing": "/sites/globe.com.ph/files/content/dam/globe/brie/AboutUs/newsroom/common/Corporate_Globe_Listing.jpg",
      "articleUrl": "https://www.globe.com.ph/about-us/newsroom/sustainability/creating-wonderful-sunday-kids-special-needs.html",
      "columnType": "articles--type-3",
      "typeListing": "article",
      "imageMobile": "/sites/globe.com.ph/files/content/dam/globe/brie/AboutUs/newsroom/common/Corporate_Globe_Hero-Banner-Mobile.jpg",
      "imageDesktop": "/sites/globe.com.ph/files/content/dam/globe/brie/AboutUs/newsroom/common/Corporate_Globe_Primary-Desktop-Thumbnail.jpg",
      "description": "“Feels like we’re kids all over again!,” exclaimed Chris Castillo after being a “kuya” to his adopted sibling during the For The Kids Festival: La Viva Nino- A Carnival of Wonders held one Sunday at",
      "datePosted": "Apr 18, 2016 | 03:12 PM",
      "titleFromTag": "Sustainability"
    },
    {
      "title": "Ecotourism as key to sustainable development in the Cordilleras",
      "nonclickable": false,
      "openNewTab": false,
      "borderArticle": "border-color:#0074D9;",
      "borderTopArticle": "border-top-color:#0074D9;",
      "imageListing": "/sites/globe.com.ph/files/content/dam/globe/brie/AboutUs/newsroom/common/Corporate_Globe_Listing.jpg",
      "articleUrl": "https://www.globe.com.ph/about-us/newsroom/sustainability/ecotourism-key-sustainable-development-cordilleras.html",
      "columnType": "articles--type-3",
      "typeListing": "article",
      "imageMobile": "/sites/globe.com.ph/files/content/dam/globe/brie/AboutUs/newsroom/common/Corporate_Globe_Hero-Banner-Mobile.jpg",
      "imageDesktop": "/sites/globe.com.ph/files/content/dam/globe/brie/AboutUs/newsroom/common/Corporate_Globe_Primary-Desktop-Thumbnail.jpg",
      "description": "Trekkers have this to say: the day you watch the sun rise above the clouds atop Mt. Pulag, Luzon’s highest peak, is the day you fall in love with the rest of the world.\r\n",
      "datePosted": "Apr 18, 2016 | 03:12 PM",
      "titleFromTag": "Sustainability"
    },
    {
      "title": "Ecotourism as Key to Sustainable Development in the Cordilleras",
      "nonclickable": false,
      "openNewTab": false,
      "borderArticle": "border-color:#0074D9;",
      "borderTopArticle": "border-top-color:#0074D9;",
      "imageListing": "/sites/globe.com.ph/files/content/dam/globe/brie/AboutUs/newsroom/common/Corporate_Globe_Listing.jpg",
      "articleUrl": "https://www.globe.com.ph/about-us/newsroom/citizenship/ecotourism-key-sustainable-development-cordilleras.html",
      "columnType": "articles--type-3",
      "typeListing": "article",
      "imageMobile": "/sites/globe.com.ph/files/content/dam/globe/brie/AboutUs/newsroom/common/Corporate_Globe_Hero-Banner-Mobile.jpg",
      "imageDesktop": "/sites/globe.com.ph/files/content/dam/globe/brie/AboutUs/newsroom/common/Corporate_Globe_Primary-Desktop-Thumbnail.jpg",
      "description": "Trekkers have this to say: the day you watch the sunrise atop Mt. Pulag, Luzon’s highest peak, is the day you fall in love with the rest of the world.",
      "datePosted": "Apr 18, 2016 | 02:39 PM",
      "titleFromTag": "Citizenship"
    },
    {
      "title": "Globe Telecom launches country’s first mobile app for enterprises, SMEs",
      "nonclickable": false,
      "openNewTab": false,
      "borderArticle": "border-color:#0074D9;",
      "borderTopArticle": "border-top-color:#0074D9;",
      "imageListing": "/sites/globe.com.ph/files/content/dam/globe/brie/AboutUs/newsroom/common/Corporate_Globe_Listing.jpg",
      "articleUrl": "https://www.globe.com.ph/about-us/newsroom/business/globe-telecom-launches-countrys-first-mobile-app-for-enterprises.html",
      "columnType": "articles--type-3",
      "typeListing": "article",
      "imageMobile": "/sites/globe.com.ph/files/content/dam/globe/brie/AboutUs/newsroom/common/Corporate_Globe_Hero-Banner-Mobile.jpg",
      "imageDesktop": "/sites/globe.com.ph/files/content/dam/globe/brie/AboutUs/newsroom/common/Corporate_Globe_Primary-Desktop-Thumbnail.jpg",
      "description": "Globe Telecom unveiled the country’s first mobile app designed for enterprises and SMEs. Visit the Globe Newsroom for the latest news on Globe Telecom.",
      "datePosted": "Apr 18, 2016 | 02:04 PM",
      "titleFromTag": "Business"
    },
    {
      "title": "IT-BPO Industry Drives Growth of PH Economy as Second Largest Source of Income",
      "nonclickable": false,
      "openNewTab": false,
      "borderArticle": "border-color:#0074D9;",
      "borderTopArticle": "border-top-color:#0074D9;",
      "imageListing": "/sites/globe.com.ph/files/content/dam/globe/brie/AboutUs/newsroom/common/Corporate_Globe_Listing.jpg",
      "articleUrl": "https://www.globe.com.ph/about-us/newsroom/business/it-bpo-industry-drives-growth-ph-economy-second-largest.html",
      "columnType": "articles--type-3",
      "typeListing": "article",
      "imageMobile": "/sites/globe.com.ph/files/content/dam/globe/brie/AboutUs/newsroom/common/Corporate_Globe_Hero-Banner-Mobile.jpg",
      "imageDesktop": "/sites/globe.com.ph/files/content/dam/globe/brie/AboutUs/newsroom/common/Corporate_Globe_Primary-Desktop-Thumbnail.jpg",
      "description": "The IT-BPM industry is now the Philippines' second-largest source of dollar income, says the Information Technology and Business Process Association.",
      "datePosted": "Apr 18, 2016 | 02:03 PM",
      "titleFromTag": "Business"
    },
    {
      "title": "2Go Travel makes travel easier with expanded payment options",
      "nonclickable": false,
      "openNewTab": false,
      "borderArticle": "border-color:#0074D9;",
      "borderTopArticle": "border-top-color:#0074D9;",
      "imageListing": "/sites/globe.com.ph/files/content/dam/globe/brie/AboutUs/newsroom/common/Corporate_Globe_Listing.jpg",
      "articleUrl": "https://www.globe.com.ph/about-us/newsroom/business/2go-travel-makes-travel-easier-expanded-payment-options.html",
      "columnType": "articles--type-3",
      "typeListing": "article",
      "imageMobile": "/sites/globe.com.ph/files/content/dam/globe/brie/AboutUs/newsroom/common/Corporate_Globe_Hero-Banner-Mobile.jpg",
      "imageDesktop": "/sites/globe.com.ph/files/content/dam/globe/brie/AboutUs/newsroom/common/Corporate_Globe_Primary-Desktop-Thumbnail.jpg",
      "description": "In Dec 2010, 2Go Travel emerged from the merger of two leading Philippine shipping companies. Sail with us for a seamless journey!",
      "datePosted": "Apr 18, 2016 | 02:03 PM",
      "titleFromTag": "Business"
    },
    {
      "title": "Turn Your Prepaid Number Into a Globe myStarter Postpaid Plan",
      "nonclickable": false,
      "openNewTab": false,
      "borderArticle": "border-color:#0074D9;",
      "borderTopArticle": "border-top-color:#0074D9;",
      "imageListing": "/sites/globe.com.ph/files/content/dam/globe/brie/AboutUs/newsroom/common/Corporate_Globe_Listing.jpg",
      "articleUrl": "https://www.globe.com.ph/about-us/newsroom/consumer/turn-your-prepaid-number-globe-mystarter-postpaid-plan.html",
      "columnType": "articles--type-3",
      "typeListing": "article",
      "imageMobile": "/sites/globe.com.ph/files/content/dam/globe/brie/AboutUs/newsroom/common/Corporate_Globe_Hero-Banner-Mobile.jpg",
      "imageDesktop": "/sites/globe.com.ph/files/content/dam/globe/brie/AboutUs/newsroom/common/Corporate_Globe_Primary-Desktop-Thumbnail.jpg",
      "description": "Globe Prepaid customers can now keep their mobile number while experience a simple, seamless transition to the Globe Postpaid myStarter Plan.",
      "datePosted": "Apr 18, 2016 | 01:26 PM",
      "titleFromTag": "Consumer"
    },
    {
      "title": "Globe Joins Forces with UNICEF Philippines and Ateneo Human Rights Center in Building Child-Friendly Cyberspace",
      "nonclickable": false,
      "openNewTab": false,
      "borderArticle": "border-color:#0074D9;",
      "borderTopArticle": "border-top-color:#0074D9;",
      "imageListing": "/sites/globe.com.ph/files/content/dam/globe/brie/AboutUs/newsroom/common/Corporate_Globe_Listing.jpg",
      "articleUrl": "https://www.globe.com.ph/about-us/newsroom/citizenship/globe-joins-forces-unicef-philippines-and-ateneo-human-r.html",
      "columnType": "articles--type-3",
      "typeListing": "article",
      "imageMobile": "/sites/globe.com.ph/files/content/dam/globe/brie/AboutUs/newsroom/common/Corporate_Globe_Hero-Banner-Mobile.jpg",
      "imageDesktop": "/sites/globe.com.ph/files/content/dam/globe/brie/AboutUs/newsroom/common/Corporate_Globe_Primary-Desktop-Thumbnail.jpg",
      "description": "As a strong advocate of cyberwellness, Globe Telecom  joins forces with the United Nations Children’s Fund (UNICEF) Philippines and Ateneo Human Rights Center",
      "datePosted": "Apr 14, 2016 | 02:40 PM",
      "titleFromTag": "Citizenship"
    }
  ]
}
