{
  "status": 200,
  "page": 293,
  "totalPage": 298,
  "range": "3505-3516",
  "total": 3573,
  "result": [
    {
      "title": "Free Faster Internet with Globe GoWiFi, now in Ayala Malls",
      "nonclickable": false,
      "openNewTab": false,
      "borderArticle": "border-color:#0074D9;",
      "borderTopArticle": "border-top-color:#0074D9;",
      "imageListing": "/sites/globe.com.ph/files/content/dam/globe/brie/AboutUs/newsroom/common/Corporate_Globe_Listing.jpg",
      "articleUrl": "https://www.globe.com.ph/about-us/newsroom/consumer/free-faster-internet-less-buffering-globe-gowifi-now-aya.html",
      "columnType": "articles--type-3",
      "typeListing": "article",
      "imageMobile": "/sites/globe.com.ph/files/content/dam/globe/brie/AboutUs/newsroom/common/Corporate_Globe_Hero-Banner-Mobile.jpg",
      "imageDesktop": "/sites/globe.com.ph/files/content/dam/globe/brie/AboutUs/newsroom/common/Corporate_Globe_Primary-Desktop-Thumbnail.jpg",
      "description": "Globe aims to enhance internet connectivity in the country by upgrading its customer experience with the free premium public WiFi service, GoWiFi.",
      "datePosted": "Apr 06, 2016 | 01:28 PM",
      "titleFromTag": "Consumer"
    },
    {
      "title": "TE SubCom to Perform Third Network Upgrade to Southeast Asia Japan Cable System",
      "nonclickable": false,
      "openNewTab": false,
      "borderArticle": "border-color:#0074D9;",
      "borderTopArticle": "border-top-color:#0074D9;",
      "imageListing": "/sites/globe.com.ph/files/content/dam/globe/brie/AboutUs/newsroom/common/Corporate_Globe_Listing.jpg",
      "articleUrl": "https://www.globe.com.ph/about-us/newsroom/corporate/te-subcom-perform-third-network-upgrade-south-east-asia-japan-ca.html",
      "columnType": "articles--type-3",
      "typeListing": "article",
      "imageMobile": "/sites/globe.com.ph/files/content/dam/globe/brie/AboutUs/newsroom/common/Corporate_Globe_Hero-Banner-Mobile.jpg",
      "imageDesktop": "/sites/globe.com.ph/files/content/dam/globe/brie/AboutUs/newsroom/common/Corporate_Globe_Primary-Desktop-Thumbnail.jpg",
      "description": "Eatontown, N.J., USA – March 30, 2016 – TE SubCom, a TE Connectivity Ltd.",
      "datePosted": "Apr 06, 2016 | 12:32 PM",
      "titleFromTag": "Corporate"
    },
    {
      "title": "Globe rolls out investments for PH to become a digital nation",
      "nonclickable": false,
      "openNewTab": false,
      "borderArticle": "border-color:#0074D9;",
      "borderTopArticle": "border-top-color:#0074D9;",
      "imageListing": "/sites/globe.com.ph/files/content/dam/globe/brie/AboutUs/newsroom/common/Corporate_Globe_Listing.jpg",
      "articleUrl": "https://www.globe.com.ph/about-us/newsroom/corporate/globe-rolls-out-investments-ph-become-digital-nation.html",
      "columnType": "articles--type-3",
      "typeListing": "article",
      "imageMobile": "/sites/globe.com.ph/files/content/dam/globe/brie/AboutUs/newsroom/common/Corporate_Globe_Hero-Banner-Mobile.jpg",
      "imageDesktop": "/sites/globe.com.ph/files/content/dam/globe/brie/AboutUs/newsroom/common/Corporate_Globe_Primary-Desktop-Thumbnail.jpg",
      "description": "Globe Telecom embarks on another nationwide infrastructure program that would enhance the country's Internet experience within homes and across businesses.",
      "datePosted": "Apr 06, 2016 | 12:31 PM",
      "titleFromTag": "Corporate"
    },
    {
      "title": "Globe Telecom shortlisted in 3 categories in Telecom Asia Awards",
      "nonclickable": false,
      "openNewTab": false,
      "borderArticle": "border-color:#0074D9;",
      "borderTopArticle": "border-top-color:#0074D9;",
      "imageListing": "/sites/globe.com.ph/files/content/dam/globe/brie/AboutUs/newsroom/common/Corporate_Globe_Listing.jpg",
      "articleUrl": "https://www.globe.com.ph/about-us/newsroom/corporate/globe-telecom-shortlisted-3-categories-telecom-asia.html",
      "columnType": "articles--type-3",
      "typeListing": "article",
      "imageMobile": "/sites/globe.com.ph/files/content/dam/globe/brie/AboutUs/newsroom/common/Corporate_Globe_Hero-Banner-Mobile.jpg",
      "imageDesktop": "/sites/globe.com.ph/files/content/dam/globe/brie/AboutUs/newsroom/common/Corporate_Globe_Primary-Desktop-Thumbnail.jpg",
      "description": "Globe Telecom bagged a total of 3 nominations in the 19th Telecom Asia Awards, as the Philippine telecommunications provider continues to offer game-changing products and services and differentiated",
      "datePosted": "Apr 06, 2016 | 12:30 PM",
      "titleFromTag": "Corporate"
    },
    {
      "title": "Common Ailments to Watch Out for as Summer Kicks In",
      "nonclickable": false,
      "openNewTab": false,
      "borderArticle": "border-color:#0074D9;",
      "borderTopArticle": "border-top-color:#0074D9;",
      "imageListing": "/sites/globe.com.ph/files/content/dam/globe/brie/AboutUs/newsroom/common/Corporate_Globe_Listing.jpg",
      "articleUrl": "https://www.globe.com.ph/about-us/newsroom/partners/common-ailments-watch-out-summer-kicks.html",
      "columnType": "articles--type-3",
      "typeListing": "article",
      "imageMobile": "/sites/globe.com.ph/files/content/dam/globe/brie/AboutUs/newsroom/common/Corporate_Globe_Hero-Banner-Mobile.jpg",
      "imageDesktop": "/sites/globe.com.ph/files/content/dam/globe/brie/AboutUs/newsroom/common/Corporate_Globe_Primary-Desktop-Thumbnail.jpg",
      "description": "As the weather temperature continues to rise, the 6S or six illnesses of summer are not far behind.",
      "datePosted": "Mar 21, 2016 | 02:57 PM",
      "titleFromTag": "Partners"
    },
    {
      "title": "Shell Lauds Globe Business for Championing Environmental Sustainability",
      "nonclickable": false,
      "openNewTab": false,
      "borderArticle": "border-color:#0074D9;",
      "borderTopArticle": "border-top-color:#0074D9;",
      "imageListing": "/sites/globe.com.ph/files/content/dam/globe/brie/AboutUs/newsroom/common/Corporate_Globe_Listing.jpg",
      "articleUrl": "https://www.globe.com.ph/about-us/newsroom/business/shell-lauds-globe-business-championing-environmental-sustainabil.html",
      "columnType": "articles--type-3",
      "typeListing": "article",
      "imageMobile": "/sites/globe.com.ph/files/content/dam/globe/brie/AboutUs/newsroom/common/Corporate_Globe_Hero-Banner-Mobile.jpg",
      "imageDesktop": "/sites/globe.com.ph/files/content/dam/globe/brie/AboutUs/newsroom/common/Corporate_Globe_Primary-Desktop-Thumbnail.jpg",
      "description": "Shell Eco-Marathon Asia 2016 saw 100+ student engineers globally compete in building fuel-efficient vehicles.",
      "datePosted": "Mar 21, 2016 | 02:09 PM",
      "titleFromTag": "Business"
    },
    {
      "title": "Globe Business Earns Certification for Excellence in IT Service Management",
      "nonclickable": false,
      "openNewTab": false,
      "borderArticle": "border-color:#0074D9;",
      "borderTopArticle": "border-top-color:#0074D9;",
      "imageListing": "/sites/globe.com.ph/files/content/dam/globe/brie/AboutUs/newsroom/common/Corporate_Globe_Listing.jpg",
      "articleUrl": "https://www.globe.com.ph/about-us/newsroom/business/globe-business-earns-certification-excellence-it-service.html",
      "columnType": "articles--type-3",
      "typeListing": "article",
      "imageMobile": "/sites/globe.com.ph/files/content/dam/globe/brie/AboutUs/newsroom/common/Corporate_Globe_Hero-Banner-Mobile.jpg",
      "imageDesktop": "/sites/globe.com.ph/files/content/dam/globe/brie/AboutUs/newsroom/common/Corporate_Globe_Primary-Desktop-Thumbnail.jpg",
      "description": "Globe Business attains ISO 20000 certification, demonstrating excellence in IT Service Management through its TSSM group.",
      "datePosted": "Mar 21, 2016 | 02:08 PM",
      "titleFromTag": "Business"
    },
    {
      "title": "Globe takes over summer with the best line-up of events all throughout the season",
      "nonclickable": false,
      "openNewTab": false,
      "borderArticle": "border-color:#0074D9;",
      "borderTopArticle": "border-top-color:#0074D9;",
      "imageListing": "/sites/globe.com.ph/files/content/dam/globe/brie/AboutUs/newsroom/common/Corporate_Globe_Listing.jpg",
      "articleUrl": "https://www.globe.com.ph/about-us/newsroom/consumer/globe-takes-over-summer-best-line-events-all-throughout-season.html",
      "columnType": "articles--type-3",
      "typeListing": "article",
      "imageMobile": "/sites/globe.com.ph/files/content/dam/globe/brie/AboutUs/newsroom/common/Corporate_Globe_Hero-Banner-Mobile.jpg",
      "imageDesktop": "/sites/globe.com.ph/files/content/dam/globe/brie/AboutUs/newsroom/common/Corporate_Globe_Primary-Desktop-Thumbnail.jpg",
      "description": "The hottest and most exciting season is finally here and everyone is getting ready to top last year’s summer trips with new adventures!",
      "datePosted": "Mar 21, 2016 | 01:33 PM",
      "titleFromTag": "Consumer"
    },
    {
      "title": "Making (basketball) dreams come true: How NBA fan Dan Nuguid ticked an item off his bucket list",
      "nonclickable": false,
      "openNewTab": false,
      "borderArticle": "border-color:#0074D9;",
      "borderTopArticle": "border-top-color:#0074D9;",
      "imageListing": "/sites/globe.com.ph/files/content/dam/globe/brie/AboutUs/newsroom/common/Corporate_Globe_Listing.jpg",
      "articleUrl": "https://www.globe.com.ph/about-us/newsroom/consumer/making-basketball-dreams-come-true-how-nba-fan-dan-nuguid-ticked.html",
      "columnType": "articles--type-3",
      "typeListing": "article",
      "imageMobile": "/sites/globe.com.ph/files/content/dam/globe/brie/AboutUs/newsroom/common/Corporate_Globe_Hero-Banner-Mobile.jpg",
      "imageDesktop": "/sites/globe.com.ph/files/content/dam/globe/brie/AboutUs/newsroom/common/Corporate_Globe_Primary-Desktop-Thumbnail.jpg",
      "description": "The Air Canada Centre brimmed with energy and athleticism, as thousands of sports fans cheered for their favorite NBA superstars as they entered the stadium.",
      "datePosted": "Mar 21, 2016 | 01:30 PM",
      "titleFromTag": "Consumer"
    },
    {
      "title": "Get the new Samsung Gear VR FREE with a Globe Platinum Lifestyle Plan",
      "nonclickable": false,
      "openNewTab": false,
      "borderArticle": "border-color:#0074D9;",
      "borderTopArticle": "border-top-color:#0074D9;",
      "imageListing": "/sites/globe.com.ph/files/content/dam/globe/brie/AboutUs/newsroom/common/Corporate_Globe_Listing.jpg",
      "articleUrl": "https://www.globe.com.ph/about-us/newsroom/consumer/get-new-samsung-gear-vr-free-globe-platinum-lifestyle-pl.html",
      "columnType": "articles--type-3",
      "typeListing": "article",
      "imageMobile": "/sites/globe.com.ph/files/content/dam/globe/brie/AboutUs/newsroom/common/Corporate_Globe_Hero-Banner-Mobile.jpg",
      "imageDesktop": "/sites/globe.com.ph/files/content/dam/globe/brie/AboutUs/newsroom/common/Corporate_Globe_Primary-Desktop-Thumbnail.jpg",
      "description": "The launch of the latest Samsung Galaxy models, S7 and S7 edge showed todays digital generation how a smartphone can truly be part of life’s daily adventures.",
      "datePosted": "Mar 21, 2016 | 01:29 PM",
      "titleFromTag": "Consumer"
    },
    {
      "title": "Globe Telecom, Bharti Airtel launch affordable calling plan to PH",
      "nonclickable": false,
      "openNewTab": false,
      "borderArticle": "border-color:#0074D9;",
      "borderTopArticle": "border-top-color:#0074D9;",
      "imageListing": "/sites/globe.com.ph/files/content/dam/globe/brie/AboutUs/newsroom/common//Corporate_Globe_Listing.jpg",
      "articleUrl": "https://www.globe.com.ph/about-us/newsroom/consumer/globe-telecom-bharti-airtel-launch-affordable-calling-pl.html",
      "columnType": "articles--type-3",
      "typeListing": "article",
      "imageMobile": "/sites/globe.com.ph/files/content/dam/globe/brie/AboutUs/newsroom/common/Corporate_Globe_Hero-Banner-Mobile.jpg",
      "imageDesktop": "/sites/globe.com.ph/files/content/dam/globe/brie/AboutUs/newsroom/common/Corporate_Globe_Primary-Desktop-Thumbnail.jpg",
      "description": "Globe Telecom has forged a partnership with Bharti Airtel to give Airtel customers from around the world access to an affordable calling plan to the Philippines via Airtel’s voice calling app airtel",
      "datePosted": "Mar 21, 2016 | 01:29 PM",
      "titleFromTag": "Consumer"
    },
    {
      "title": "Globe Media Excellence Awards now in its 5th year",
      "nonclickable": false,
      "openNewTab": false,
      "borderArticle": "border-color:#0074D9;",
      "borderTopArticle": "border-top-color:#0074D9;",
      "imageListing": "/sites/globe.com.ph/files/content/dam/globe/brie/AboutUs/newsroom/common/Corporate_Globe_Listing.jpg",
      "articleUrl": "https://www.globe.com.ph/about-us/newsroom/corporate/globe-media-excellence-awards-now-its-5th-year.html",
      "columnType": "articles--type-3",
      "typeListing": "article",
      "imageMobile": "/sites/globe.com.ph/files/content/dam/globe/brie/AboutUs/newsroom/common/Corporate_Globe_Hero-Banner-Mobile.jpg",
      "imageDesktop": "/sites/globe.com.ph/files/content/dam/globe/brie/AboutUs/newsroom/common/Corporate_Globe_Primary-Desktop-Thumbnail.jpg",
      "description": "Globe will hold its 5th GMEA to reward excellence in journalism demonstrated by print and online media, as well as bloggers and social media influencers.",
      "datePosted": "Mar 21, 2016 | 12:34 PM",
      "titleFromTag": "Corporate"
    }
  ]
}
