{
  "status": 200,
  "page": 294,
  "totalPage": 298,
  "range": "3517-3528",
  "total": 3573,
  "result": [
    {
      "title": "Official Statement: Sta. Rosa, Laguna Incident",
      "nonclickable": false,
      "openNewTab": false,
      "borderArticle": "border-color:#0074D9;",
      "borderTopArticle": "border-top-color:#0074D9;",
      "imageListing": "/sites/globe.com.ph/files/content/dam/globe/brie/AboutUs/newsroom/corporate/Official-Statement--Sta--Rosa--Laguna-Incident/corporate-globe-laguna-incident-thumbnail-listing.png",
      "articleUrl": "https://www.globe.com.ph/about-us/newsroom/corporate/official-statement-sta-rosa-laguna.html",
      "columnType": "articles--type-3",
      "typeListing": "article",
      "imageMobile": "/sites/globe.com.ph/files/content/dam/globe/brie/AboutUs/newsroom/corporate/Official-Statement--Sta--Rosa--Laguna-Incident/corporate-globe-laguna-incident-banner-m.png",
      "imageDesktop": "/sites/globe.com.ph/files/content/dam/globe/brie/AboutUs/newsroom/corporate/Official-Statement--Sta--Rosa--Laguna-Incident/corporate-globe-laguna-incident-primary-thumbnail.png",
      "description": "We are currently in close coordination with the Sta. Rosa, Laguna police as part of our commitment to support the investigation of this unfortunate incident.",
      "datePosted": "Mar 07, 2016 | 12:35 PM",
      "titleFromTag": "Corporate"
    },
    {
      "title": "Police, Globe security team arrest broadband fraudsters in Taguig & QC",
      "nonclickable": false,
      "openNewTab": false,
      "borderArticle": "border-color:#0074D9;",
      "borderTopArticle": "border-top-color:#0074D9;",
      "imageListing": "/sites/globe.com.ph/files/content/dam/globe/brie/AboutUs/newsroom/common/Corporate_Globe_Listing.jpg",
      "articleUrl": "https://www.globe.com.ph/about-us/newsroom/corporate/police-globe-security-team-arrests-broadband-fraudsters-taguig-q.html",
      "columnType": "articles--type-3",
      "typeListing": "article",
      "imageMobile": "/sites/globe.com.ph/files/content/dam/globe/brie/AboutUs/newsroom/common/Corporate_Globe_Hero-Banner-Mobile.jpg",
      "imageDesktop": "/sites/globe.com.ph/files/content/dam/globe/brie/AboutUs/newsroom/common/Corporate_Globe_Primary-Desktop-Thumbnail.jpg",
      "description": "Globe’s intensified campaign against fraudsters helped with the arrest of three suspects involved in the illegal sale of the company’s LTE Tattoo modems.",
      "datePosted": "Mar 21, 2016 | 12:33 PM",
      "titleFromTag": "Corporate"
    },
    {
      "title": "Providing Internet to public education makes PH youth competitive with the rest of the world",
      "nonclickable": false,
      "openNewTab": false,
      "borderArticle": "border-color:#0074D9;",
      "borderTopArticle": "border-top-color:#0074D9;",
      "imageListing": "/sites/globe.com.ph/files/content/dam/globe/brie/AboutUs/newsroom/common/Corporate_Globe_Listing.jpg",
      "articleUrl": "https://www.globe.com.ph/about-us/newsroom/sustainability/providing-internet-public-education-makes-ph-youth-compe.html",
      "columnType": "articles--type-3",
      "typeListing": "article",
      "imageMobile": "/sites/globe.com.ph/files/content/dam/globe/brie/AboutUs/newsroom/common/Corporate_Globe_Hero-Banner-Mobile.jpg",
      "imageDesktop": "/sites/globe.com.ph/files/content/dam/globe/brie/AboutUs/newsroom/common/Corporate_Globe_Primary-Desktop-Thumbnail.jpg",
      "description": "The Philippines isn’t likely to achieve its goal of providing digital literacy for all in the absence of a favorable government policy that would equip public elementary and secondary schools with In",
      "datePosted": "Mar 12, 2016 | 03:15 PM",
      "titleFromTag": "Sustainability"
    },
    {
      "title": "Providing Internet to Public Education Makes PH Youth Competitive with the Rest of the World",
      "nonclickable": false,
      "openNewTab": false,
      "borderArticle": "border-color:#0074D9;",
      "borderTopArticle": "border-top-color:#0074D9;",
      "imageListing": "/sites/globe.com.ph/files/content/dam/globe/brie/AboutUs/newsroom/common/Corporate_Globe_Listing.jpg",
      "articleUrl": "https://www.globe.com.ph/about-us/newsroom/citizenship/providing-internet-public-education-makes-ph-youth-compe.html",
      "columnType": "articles--type-3",
      "typeListing": "article",
      "imageMobile": "/sites/globe.com.ph/files/content/dam/globe/brie/AboutUs/newsroom/common/Corporate_Globe_Hero-Banner-Mobile.jpg",
      "imageDesktop": "/sites/globe.com.ph/files/content/dam/globe/brie/AboutUs/newsroom/common/Corporate_Globe_Primary-Desktop-Thumbnail.jpg",
      "description": "The Philippines isn’t likely to achieve its goal of providing digital literacy for all in the absence of a favorable government policy that would equip public elementary and secondary schools with In",
      "datePosted": "Mar 12, 2016 | 02:41 PM",
      "titleFromTag": "Citizenship"
    },
    {
      "title": "Pinoy Gamers can now experience newest mobile game Clash Royale with Globe",
      "nonclickable": false,
      "openNewTab": false,
      "borderArticle": "border-color:#0074D9;",
      "borderTopArticle": "border-top-color:#0074D9;",
      "imageListing": "/sites/globe.com.ph/files/content/dam/globe/brie/AboutUs/newsroom/common/Corporate_Globe_Listing.jpg",
      "articleUrl": "https://www.globe.com.ph/about-us/newsroom/consumer/pinoy-gamers-can-now-experience-newest-mobile-game-clash-royale-.html",
      "columnType": "articles--type-3",
      "typeListing": "article",
      "imageMobile": "/sites/globe.com.ph/files/content/dam/globe/brie/AboutUs/newsroom/common/Corporate_Globe_Hero-Banner-Mobile.jpg",
      "imageDesktop": "/sites/globe.com.ph/files/content/dam/globe/brie/AboutUs/newsroom/common/Corporate_Globe_Primary-Desktop-Thumbnail.jpg",
      "description": "Clash Royale is finally available on both Android and iOS. Visit the Globe Newsroom for the latest news on Globe Telecom.",
      "datePosted": "Mar 12, 2016 | 01:31 PM",
      "titleFromTag": "Consumer"
    },
    {
      "title": "PH Set to Become World’s Next Tourism Hub",
      "nonclickable": false,
      "openNewTab": false,
      "borderArticle": "border-color:#0074D9;",
      "borderTopArticle": "border-top-color:#0074D9;",
      "imageListing": "/sites/globe.com.ph/files/content/dam/globe/brie/AboutUs/newsroom/common/Corporate_Globe_Listing.jpg",
      "articleUrl": "https://www.globe.com.ph/about-us/newsroom/consumer/ph-set-become-worlds-next-tourism-hub.html",
      "columnType": "articles--type-3",
      "typeListing": "article",
      "imageMobile": "/sites/globe.com.ph/files/content/dam/globe/brie/AboutUs/newsroom/common/Corporate_Globe_Hero-Banner-Mobile.jpg",
      "imageDesktop": "/sites/globe.com.ph/files/content/dam/globe/brie/AboutUs/newsroom/common/Corporate_Globe_Primary-Desktop-Thumbnail.jpg",
      "description": "Tourism boosts the Philippine economy, with steady growth in arrivals and revenue. The country is poised to become a prime destination.",
      "datePosted": "Mar 10, 2016 | 01:31 PM",
      "titleFromTag": "Consumer"
    },
    {
      "title": "Official Statement: Sta. Rosa, Laguna Incident",
      "nonclickable": false,
      "openNewTab": false,
      "borderArticle": "border-color:#0074D9;",
      "borderTopArticle": "border-top-color:#0074D9;",
      "imageListing": "/sites/globe.com.ph/files/content/dam/globe/brie/AboutUs/newsroom/corporate/Official-Statement--Sta--Rosa--Laguna-Incident/corporate-globe-laguna-incident-thumbnail-listing.png",
      "articleUrl": "https://www.globe.com.ph/about-us/newsroom/corporate/official-statement-sta-rosa-laguna.html",
      "columnType": "articles--type-3",
      "typeListing": "article",
      "imageMobile": "/sites/globe.com.ph/files/content/dam/globe/brie/AboutUs/newsroom/corporate/Official-Statement--Sta--Rosa--Laguna-Incident/corporate-globe-laguna-incident-banner-m.png",
      "imageDesktop": "/sites/globe.com.ph/files/content/dam/globe/brie/AboutUs/newsroom/corporate/Official-Statement--Sta--Rosa--Laguna-Incident/corporate-globe-laguna-incident-primary-thumbnail.png",
      "description": "We are currently in close coordination with the Sta. Rosa, Laguna police as part of our commitment to support the investigation of this unfortunate incident.",
      "datePosted": "Mar 07, 2016 | 12:35 PM",
      "titleFromTag": "Corporate"
    },
    {
      "title": "Globe Launches Digital Thumbprint Cyber Wellness Advocacy in Partnership with Optus, Singtel",
      "nonclickable": false,
      "openNewTab": false,
      "borderArticle": "border-color:#0074D9;",
      "borderTopArticle": "border-top-color:#0074D9;",
      "imageListing": "/sites/globe.com.ph/files/content/dam/globe/brie/AboutUs/newsroom/common/Corporate_Globe_Listing.jpg",
      "articleUrl": "https://www.globe.com.ph/about-us/newsroom/sustainability/globe-launches-digital-thumbprint-cyber-wellness-advocacy.html",
      "columnType": "articles--type-3",
      "typeListing": "article",
      "imageMobile": "/sites/globe.com.ph/files/content/dam/globe/brie/AboutUs/newsroom/common/Corporate_Globe_Hero-Banner-Mobile.jpg",
      "imageDesktop": "/sites/globe.com.ph/files/content/dam/globe/brie/AboutUs/newsroom/common/Corporate_Globe_Primary-Desktop-Thumbnail.jpg",
      "description": "Globe joins forces with Optus, Singtel to launch Digital Thumbprint, a program that teaches the youth about their online behavior's impact & how to stay safe.",
      "datePosted": "Mar 05, 2016 | 03:14 PM",
      "titleFromTag": "Sustainability"
    },
    {
      "title": "Globe Business boosts Shell Eco-Marathon Asia as local connectivity partner",
      "nonclickable": false,
      "openNewTab": false,
      "borderArticle": "border-color:#0074D9;",
      "borderTopArticle": "border-top-color:#0074D9;",
      "imageListing": "/sites/globe.com.ph/files/content/dam/globe/brie/AboutUs/newsroom/common/Corporate_Globe_Listing.jpg",
      "articleUrl": "https://www.globe.com.ph/about-us/newsroom/business/globe-business-boosts-shell-eco-marathon-asia-local-connectivity.html",
      "columnType": "articles--type-3",
      "typeListing": "article",
      "imageMobile": "/sites/globe.com.ph/files/content/dam/globe/brie/AboutUs/newsroom/common/Corporate_Globe_Hero-Banner-Mobile.jpg",
      "imageDesktop": "/sites/globe.com.ph/files/content/dam/globe/brie/AboutUs/newsroom/common/Corporate_Globe_Primary-Desktop-Thumbnail.jpg",
      "description": "Globe Business is once again named as the local connectivity partner for Shell Eco-Marathon Asia. Visit the Globe Newsroom for the latest news on Globe Telecom.",
      "datePosted": "Mar 05, 2016 | 02:09 PM",
      "titleFromTag": "Business"
    },
    {
      "title": "Experience Globe Galaxy at Wanderland 2016",
      "nonclickable": false,
      "openNewTab": false,
      "borderArticle": "border-color:#0074D9;",
      "borderTopArticle": "border-top-color:#0074D9;",
      "imageListing": "/sites/globe.com.ph/files/content/dam/globe/brie/AboutUs/newsroom/common/Corporate_Globe_Listing.jpg",
      "articleUrl": "https://www.globe.com.ph/about-us/newsroom/consumer/experience-globe-galaxy-wanderland-2016.html",
      "columnType": "articles--type-3",
      "typeListing": "article",
      "imageMobile": "/sites/globe.com.ph/files/content/dam/globe/brie/AboutUs/newsroom/common/Corporate_Globe_Hero-Banner-Mobile.jpg",
      "imageDesktop": "/sites/globe.com.ph/files/content/dam/globe/brie/AboutUs/newsroom/common/Corporate_Globe_Primary-Desktop-Thumbnail.jpg",
      "description": "The annual music and arts festival, Wanderland is gearing up for another musical fete with this year’s anticipated line-up of international and local talents.",
      "datePosted": "Mar 05, 2016 | 01:34 PM",
      "titleFromTag": "Consumer"
    },
    {
      "title": "Get the best out of the new Samsung Galaxy S7 and Galaxy S7 edge with the Globe myLifestyle Plan",
      "nonclickable": false,
      "openNewTab": false,
      "borderArticle": "border-color:#0074D9;",
      "borderTopArticle": "border-top-color:#0074D9;",
      "imageListing": "/sites/globe.com.ph/files/content/dam/globe/brie/AboutUs/newsroom/common/Corporate_Globe_Listing.jpg",
      "articleUrl": "https://www.globe.com.ph/about-us/newsroom/consumer/get-best-out-new-samsung-galaxy-s7-and-galaxy-s7-edge-globe-myli.html",
      "columnType": "articles--type-3",
      "typeListing": "article",
      "imageMobile": "/sites/globe.com.ph/files/content/dam/globe/brie/AboutUs/newsroom/common/Corporate_Globe_Hero-Banner-Mobile.jpg",
      "imageDesktop": "/sites/globe.com.ph/files/content/dam/globe/brie/AboutUs/newsroom/common/Corporate_Globe_Primary-Desktop-Thumbnail.jpg",
      "description": "Globe is now gearing up to welcome the newest smartphone models. Visit the Globe Newsroom for the latest news on Globe Telecom.",
      "datePosted": "Mar 05, 2016 | 01:33 PM",
      "titleFromTag": "Consumer"
    },
    {
      "title": "Indulge in culinary delights with Globe Platinum and The Gourmand Market",
      "nonclickable": false,
      "openNewTab": false,
      "borderArticle": "border-color:#0074D9;",
      "borderTopArticle": "border-top-color:#0074D9;",
      "imageListing": "/sites/globe.com.ph/files/content/dam/globe/brie/AboutUs/newsroom/common/Corporate_Globe_Listing.jpg",
      "articleUrl": "https://www.globe.com.ph/about-us/newsroom/consumer/indulge-culinary-delights-globe-platinum-and-gourmand-market.html",
      "columnType": "articles--type-3",
      "typeListing": "article",
      "imageMobile": "/sites/globe.com.ph/files/content/dam/globe/brie/AboutUs/newsroom/common/Corporate_Globe_Hero-Banner-Mobile.jpg",
      "imageDesktop": "/sites/globe.com.ph/files/content/dam/globe/brie/AboutUs/newsroom/common/Corporate_Globe_Primary-Desktop-Thumbnail.jpg",
      "description": "Globe Platinum puts the limelight on gastronomy with The Gourmand Market being the perfect venue for this culinary adventure. Visit the Newsroom for more.",
      "datePosted": "Mar 05, 2016 | 01:32 PM",
      "titleFromTag": "Consumer"
    }
  ]
}