{
  "status": 200,
  "page": 295,
  "totalPage": 298,
  "range": "3529-3540",
  "total": 3573,
  "result": [
    {
      "title": "Telcos to Gov’t: Help improve broadband service, enable industry to build more cell sites",
      "nonclickable": false,
      "openNewTab": false,
      "borderArticle": "border-color:#0074D9;",
      "borderTopArticle": "border-top-color:#0074D9;",
      "imageListing": "/sites/globe.com.ph/files/content/dam/globe/brie/AboutUs/newsroom/common/Corporate_Globe_Listing.jpg",
      "articleUrl": "https://www.globe.com.ph/about-us/newsroom/corporate/telcos-govt-help-improve-broadband.html",
      "columnType": "articles--type-3",
      "typeListing": "article",
      "imageMobile": "/sites/globe.com.ph/files/content/dam/globe/brie/AboutUs/newsroom/common/Corporate_Globe_Hero-Banner-Mobile.jpg",
      "imageDesktop": "/sites/globe.com.ph/files/content/dam/globe/brie/AboutUs/newsroom/common/Corporate_Globe_Primary-Desktop-Thumbnail.jpg",
      "description": "Telcos demand the establishment of more cell sites for operators to deliver mobile data services especially indoors. Visit Globe Newsroom for more.",
      "datePosted": "Mar 05, 2016 | 12:34 PM",
      "titleFromTag": "Corporate"
    },
    {
      "title": "Over 300 SMEs in Batangas Learn Entrepreneurship in the Digital Age at Globe Business Day",
      "nonclickable": false,
      "openNewTab": false,
      "borderArticle": "border-color:#0074D9;",
      "borderTopArticle": "border-top-color:#0074D9;",
      "imageListing": "/sites/globe.com.ph/files/content/dam/globe/brie/AboutUs/newsroom/common/Corporate_Globe_Listing.jpg",
      "articleUrl": "https://www.globe.com.ph/about-us/newsroom/business/over-300-smes-batangas-learn-entrepreneurship-digital-ag.html",
      "columnType": "articles--type-3",
      "typeListing": "article",
      "imageMobile": "/sites/globe.com.ph/files/content/dam/globe/brie/AboutUs/newsroom/common/Corporate_Globe_Hero-Banner-Mobile.jpg",
      "imageDesktop": "/sites/globe.com.ph/files/content/dam/globe/brie/AboutUs/newsroom/common/Corporate_Globe_Primary-Desktop-Thumbnail.jpg",
      "description": "Over 300 existing and aspiring entrepreneurs are gathering at the SM City Batangas Activity Center today to attend the Globe Business Day in Batangas to learn the ropes of entrepreneurship in the digital age.",
      "datePosted": "Feb 26, 2016 | 02:12 PM",
      "titleFromTag": "Business"
    },
    {
      "title": "City of Dreams Manila boosts business continuity and disaster recovery operations",
      "nonclickable": false,
      "openNewTab": false,
      "borderArticle": "border-color:#0074D9;",
      "borderTopArticle": "border-top-color:#0074D9;",
      "imageListing": "/sites/globe.com.ph/files/content/dam/globe/brie/AboutUs/newsroom/common/Corporate_Globe_Listing.jpg",
      "articleUrl": "https://www.globe.com.ph/about-us/newsroom/business/city-dreams-manila-boosts-business-continuity-and-disaster-recov.html",
      "columnType": "articles--type-3",
      "typeListing": "article",
      "imageMobile": "/sites/globe.com.ph/files/content/dam/globe/brie/AboutUs/newsroom/common/Corporate_Globe_Hero-Banner-Mobile.jpg",
      "imageDesktop": "/sites/globe.com.ph/files/content/dam/globe/brie/AboutUs/newsroom/common/Corporate_Globe_Primary-Desktop-Thumbnail.jpg",
      "description": "City of Dreams Manila recently obtained data center colocation and internet services from Globe Business. Visit the Globe Newsroom for the latest news.",
      "datePosted": "Feb 26, 2016 | 02:11 PM",
      "titleFromTag": "Business"
    },
    {
      "title": "Globe Data Center gets ISO 27001:2013 certification",
      "nonclickable": false,
      "openNewTab": false,
      "borderArticle": "border-color:#0074D9;",
      "borderTopArticle": "border-top-color:#0074D9;",
      "imageListing": "/sites/globe.com.ph/files/content/dam/globe/brie/AboutUs/newsroom/common/Corporate_Globe_Listing.jpg",
      "articleUrl": "https://www.globe.com.ph/about-us/newsroom/business/globe-data-center-gets-iso-270012013-certification.html",
      "columnType": "articles--type-3",
      "typeListing": "article",
      "imageMobile": "/sites/globe.com.ph/files/content/dam/globe/brie/AboutUs/newsroom/common/Corporate_Globe_Hero-Banner-Mobile.jpg",
      "imageDesktop": "/sites/globe.com.ph/files/content/dam/globe/brie/AboutUs/newsroom/common/Corporate_Globe_Primary-Desktop-Thumbnail.jpg",
      "description": "Globe received an ISO 27001:2013 for Information Security Management System (ISMS) from AJA Registrars Inc. Visit the Globe Newsroom for the latest news",
      "datePosted": "Feb 26, 2016 | 02:11 PM",
      "titleFromTag": "Business"
    },
    {
      "title": "Globe Telecom lone PH telco recognized at GSMA Mobile Connect Reception in Barcelona, Spain",
      "nonclickable": false,
      "openNewTab": false,
      "borderArticle": "border-color:#0074D9;",
      "borderTopArticle": "border-top-color:#0074D9;",
      "imageListing": "/sites/globe.com.ph/files/content/dam/globe/brie/AboutUs/newsroom/common/Corporate_Globe_Listing.jpg",
      "articleUrl": "https://www.globe.com.ph/about-us/newsroom/corporate/globe-telecom-lone-ph-telco-recognized-gsma-mobile-conne.html",
      "columnType": "articles--type-3",
      "typeListing": "article",
      "imageMobile": "/sites/globe.com.ph/files/content/dam/globe/brie/AboutUs/newsroom/common/Corporate_Globe_Hero-Banner-Mobile.jpg",
      "imageDesktop": "/sites/globe.com.ph/files/content/dam/globe/brie/AboutUs/newsroom/common/Corporate_Globe_Primary-Desktop-Thumbnail.jpg",
      "description": "Globe was the only Philippine telco to be honored by the GSMA during the Mobile Connect Reception Founders Accolade and Networking at the Mobile World Congress.",
      "datePosted": "Feb 26, 2016 | 12:36 PM",
      "titleFromTag": "Corporate"
    },
    {
      "title": "Global Operators, Google, and the GSMA Align Behind Adoption of Rich Communications Services",
      "nonclickable": false,
      "openNewTab": false,
      "borderArticle": "border-color:#0074D9;",
      "borderTopArticle": "border-top-color:#0074D9;",
      "imageListing": "/sites/globe.com.ph/files/content/dam/globe/brie/AboutUs/newsroom/common/Corporate_Globe_Listing.jpg",
      "articleUrl": "https://www.globe.com.ph/about-us/newsroom/corporate/global-operators-google-and-gsma-align-behind-adoption-r.html",
      "columnType": "articles--type-3",
      "typeListing": "article",
      "imageMobile": "/sites/globe.com.ph/files/content/dam/globe/brie/AboutUs/newsroom/common/Corporate_Globe_Hero-Banner-Mobile.jpg",
      "imageDesktop": "/sites/globe.com.ph/files/content/dam/globe/brie/AboutUs/newsroom/common/Corporate_Globe_Primary-Desktop-Thumbnail.jpg",
      "description": "Global operators have agreed to transition toward a common, universal profile based on the GSMA’s RCS specifications and an Android RCS client.",
      "datePosted": "Feb 26, 2016 | 12:35 PM",
      "titleFromTag": "Corporate"
    },
    {
      "title": "Globe Telecom joins the Telecom Infra Project, works with Facebook to drive Global Connectivity",
      "nonclickable": false,
      "openNewTab": false,
      "borderArticle": "border-color:#0074D9;",
      "borderTopArticle": "border-top-color:#0074D9;",
      "imageListing": "/sites/globe.com.ph/files/content/dam/globe/brie/AboutUs/newsroom/common/Corporate_Globe_Listing.jpg",
      "articleUrl": "https://www.globe.com.ph/about-us/newsroom/sustainability/globe-telecom-joins-telecom-infra-project-works-facebook-drive-g.html",
      "columnType": "articles--type-3",
      "typeListing": "article",
      "imageMobile": "/sites/globe.com.ph/files/content/dam/globe/brie/AboutUs/newsroom/common/Corporate_Globe_Hero-Banner-Mobile.jpg",
      "imageDesktop": "/sites/globe.com.ph/files/content/dam/globe/brie/AboutUs/newsroom/common/Corporate_Globe_Primary-Desktop-Thumbnail.jpg",
      "description": "As part of its commitment to help build a digital nation and a digital world, Globe Telecom has joined a global initiative formed to create new technologies and approac",
      "datePosted": "Feb 23, 2016 | 03:47 PM",
      "titleFromTag": "Sustainability"
    },
    {
      "title": "The new Samsung Galaxy S7 and S7 edge best enjoyed with the Globe myLifestyle Plan",
      "nonclickable": false,
      "openNewTab": false,
      "borderArticle": "border-color:#0074D9;",
      "borderTopArticle": "border-top-color:#0074D9;",
      "imageListing": "/sites/globe.com.ph/files/content/dam/globe/brie/AboutUs/newsroom/common/Corporate_Globe_Listing.jpg",
      "articleUrl": "https://www.globe.com.ph/about-us/newsroom/consumer/new-samsung-galaxy-s7-and-s7-edge-best-enjoyed-globe-myl.html",
      "columnType": "articles--type-3",
      "typeListing": "article",
      "imageMobile": "/sites/globe.com.ph/files/content/dam/globe/brie/AboutUs/newsroom/common/Corporate_Globe_Hero-Banner-Mobile.jpg",
      "imageDesktop": "/sites/globe.com.ph/files/content/dam/globe/brie/AboutUs/newsroom/common/Corporate_Globe_Primary-Desktop-Thumbnail.jpg",
      "description": "As the leader in the digital lifestyle, Globe Telecom is gearing up to welcome the newest Samsung Galaxy S7 and S7 Edge to the Philippines.",
      "datePosted": "Feb 23, 2016 | 01:34 PM",
      "titleFromTag": "Consumer"
    },
    {
      "title": "Globe Telecom joins the Telecom Infra Project, works with Facebook to drive Global Connectivity",
      "nonclickable": false,
      "openNewTab": false,
      "borderArticle": "border-color:#0074D9;",
      "borderTopArticle": "border-top-color:#0074D9;",
      "imageListing": "/sites/globe.com.ph/files/content/dam/globe/brie/AboutUs/newsroom/common/Corporate_Globe_Listing.jpg",
      "articleUrl": "https://www.globe.com.ph/about-us/newsroom/corporate/globe-telecom-joins-telecom-infra-project-works-facebook-drive-g.html",
      "columnType": "articles--type-3",
      "typeListing": "article",
      "imageMobile": "/sites/globe.com.ph/files/content/dam/globe/brie/AboutUs/newsroom/common/Corporate_Globe_Hero-Banner-Mobile.jpg",
      "imageDesktop": "/sites/globe.com.ph/files/content/dam/globe/brie/AboutUs/newsroom/common/Corporate_Globe_Primary-Desktop-Thumbnail.jpg",
      "description": "As part of its commitment to help build a digital nation & world, Globe Telecom has joined a global initiative formed to create new technologies & approaches.",
      "datePosted": "Feb 23, 2016 | 12:37 PM",
      "titleFromTag": "Corporate"
    },
    {
      "title": "GXI, First Performance Global Partner to Launch Mobile App in PH for Greater User Security and Purchase Control",
      "nonclickable": false,
      "openNewTab": false,
      "borderArticle": "border-color:#0074D9;",
      "borderTopArticle": "border-top-color:#0074D9;",
      "imageListing": "/sites/globe.com.ph/files/content/dam/globe/brie/AboutUs/newsroom/common/Corporate_Globe_Listing.jpg",
      "articleUrl": "https://www.globe.com.ph/about-us/newsroom/partners/gxi-first-performance-global-partner-launch-mobile-app-ph.html",
      "columnType": "articles--type-3",
      "typeListing": "article",
      "imageMobile": "/sites/globe.com.ph/files/content/dam/globe/brie/AboutUs/newsroom/common/Corporate_Globe_Hero-Banner-Mobile.jpg",
      "imageDesktop": "/sites/globe.com.ph/files/content/dam/globe/brie/AboutUs/newsroom/common/Corporate_Globe_Primary-Desktop-Thumbnail.jpg",
      "description": "G-Xchange (GXI) has partnered with First Performance Global to launch GogoNogo—a mobile security app that lets users control their card payments.",
      "datePosted": "Feb 22, 2016 | 02:59 PM",
      "titleFromTag": "Partners"
    },
    {
      "title": "GCash, PayMaya Philippines to Collaborate on Mobile Money Interoperability",
      "nonclickable": false,
      "openNewTab": false,
      "borderArticle": "border-color:#0074D9;",
      "borderTopArticle": "border-top-color:#0074D9;",
      "imageListing": "/sites/globe.com.ph/files/content/dam/globe/brie/AboutUs/newsroom/common/Corporate_Globe_Listing.jpg",
      "articleUrl": "https://www.globe.com.ph/about-us/newsroom/partners/gcash-paymaya-philippines-collaborate-mobile-money-inter.html",
      "columnType": "articles--type-3",
      "typeListing": "article",
      "imageMobile": "/sites/globe.com.ph/files/content/dam/globe/brie/AboutUs/newsroom/common/Corporate_Globe_Hero-Banner-Mobile.jpg",
      "imageDesktop": "/sites/globe.com.ph/files/content/dam/globe/brie/AboutUs/newsroom/common/Corporate_Globe_Primary-Desktop-Thumbnail.jpg",
      "description": "GCash, Globe Telecom’s mobile money service, is currently in discussion with PayMaya Philippines reloadable prepaid Visa card on mobile money interoperability to help accelerate financial inclusion p",
      "datePosted": "Feb 22, 2016 | 02:58 PM",
      "titleFromTag": "Partners"
    },
    {
      "title": "Globe backs Mobile Design Award in adobo Design Awards Asia",
      "nonclickable": false,
      "openNewTab": false,
      "borderArticle": "border-color:#0074D9;",
      "borderTopArticle": "border-top-color:#0074D9;",
      "imageListing": "/sites/globe.com.ph/files/content/dam/globe/brie/AboutUs/newsroom/common/Corporate_Globe_Listing.jpg",
      "articleUrl": "https://www.globe.com.ph/about-us/newsroom/corporate/globe-backs-mobile-design-award-adobo-design-awards-asia.html",
      "columnType": "articles--type-3",
      "typeListing": "article",
      "imageMobile": "/sites/globe.com.ph/files/content/dam/globe/brie/AboutUs/newsroom/common/Corporate_Globe_Hero-Banner-Mobile.jpg",
      "imageDesktop": "/sites/globe.com.ph/files/content/dam/globe/brie/AboutUs/newsroom/common/Corporate_Globe_Primary-Desktop-Thumbnail.jpg",
      "description": "As the purveyor of the Filipino digital lifestyle and thought leader in digital design, Globe Telecom is partnering with adobo Design Awards Asia in recognizing the best and the brightest talents in",
      "datePosted": "Feb 19, 2016 | 12:39 PM",
      "titleFromTag": "Corporate"
    }
  ]
}
