{
  "status": 200,
  "page": 296,
  "totalPage": 298,
  "range": "3541-3552",
  "total": 3573,
  "result": [
    {
      "title": "Globe Now Uses New Comprehensive Tool to Block Unwanted Spams",
      "nonclickable": false,
      "openNewTab": false,
      "borderArticle": "border-color:#0074D9;",
      "borderTopArticle": "border-top-color:#0074D9;",
      "imageListing": "/sites/globe.com.ph/files/content/dam/globe/brie/AboutUs/newsroom/common/Corporate_Globe_Listing.jpg",
      "articleUrl": "https://www.globe.com.ph/about-us/newsroom/corporate/globe-now-uses-new-comprehensive-tool-block-unwanted-spams.html",
      "columnType": "articles--type-3",
      "typeListing": "article",
      "imageMobile": "/sites/globe.com.ph/files/content/dam/globe/brie/AboutUs/newsroom/common/Corporate_Globe_Hero-Banner-Mobile.jpg",
      "imageDesktop": "/sites/globe.com.ph/files/content/dam/globe/brie/AboutUs/newsroom/common/Corporate_Globe_Primary-Desktop-Thumbnail.jpg",
      "description": "Globe Telecom stepped up its anti-spam/scam campaign, using a comprehensive and fully automated mechanism to rid its network of unsolicited text messages.",
      "datePosted": "Feb 19, 2016 | 12:38 PM",
      "titleFromTag": "Corporate"
    },
    {
      "title": "Globe secures TRO versus deactivation of cell site in Calvary Hills, Cebu",
      "nonclickable": false,
      "openNewTab": false,
      "borderArticle": "border-color:#0074D9;",
      "borderTopArticle": "border-top-color:#0074D9;",
      "imageListing": "/sites/globe.com.ph/files/content/dam/globe/brie/AboutUs/newsroom/common/Corporate_Globe_Listing.jpg",
      "articleUrl": "https://www.globe.com.ph/about-us/newsroom/corporate/globe-secures-tro-versus-deactivation-cell-site-calvary-hills-ce.html",
      "columnType": "articles--type-3",
      "typeListing": "article",
      "imageMobile": "/sites/globe.com.ph/files/content/dam/globe/brie/AboutUs/newsroom/common/Corporate_Globe_Hero-Banner-Mobile.jpg",
      "imageDesktop": "/sites/globe.com.ph/files/content/dam/globe/brie/AboutUs/newsroom/common/Corporate_Globe_Primary-Desktop-Thumbnail.jpg",
      "description": "Globe Telecom secured a temporary restraining order from the court relating to a city resolution providing for the deactivation of a cell site located in Cebu.",
      "datePosted": "Feb 19, 2016 | 12:37 PM",
      "titleFromTag": "Corporate"
    },
    {
      "title": "Stay in touch with loved ones abroad with an all-in-one bundle, ChatPlus, starting at only P25",
      "nonclickable": false,
      "openNewTab": false,
      "borderArticle": "border-color:#0074D9;",
      "borderTopArticle": "border-top-color:#0074D9;",
      "imageListing": "/sites/globe.com.ph/files/content/dam/globe/brie/AboutUs/newsroom/common/Corporate_Globe_Listing.jpg",
      "articleUrl": "https://www.globe.com.ph/about-us/newsroom/consumer/stay-touch-loved-ones-abroad-all-one-bundle-chatplus-sta.html",
      "columnType": "articles--type-3",
      "typeListing": "article",
      "imageMobile": "/sites/globe.com.ph/files/content/dam/globe/brie/AboutUs/newsroom/common/Corporate_Globe_Hero-Banner-Mobile.jpg",
      "imageDesktop": "/sites/globe.com.ph/files/content/dam/globe/brie/AboutUs/newsroom/common/Corporate_Globe_Primary-Desktop-Thumbnail.jpg",
      "description": "Not less than a decade ago saw the sending of greeting cards as a means of expressing care and love to loved ones both near and far.",
      "datePosted": "Feb 18, 2016 | 01:35 PM",
      "titleFromTag": "Consumer"
    },
    {
      "title": "Globe Art Gallery Features Comrades in Clay as First Exhibit for 2016",
      "nonclickable": false,
      "openNewTab": false,
      "borderArticle": "border-color:#0074D9;",
      "borderTopArticle": "border-top-color:#0074D9;",
      "imageListing": "/sites/globe.com.ph/files/content/dam/globe/brie/AboutUs/newsroom/common/Corporate_Globe_Listing.jpg",
      "articleUrl": "https://www.globe.com.ph/about-us/newsroom/corporate/globe-art-gallery-features-comrades-clay-first-exhibit-2016.html",
      "columnType": "articles--type-3",
      "typeListing": "article",
      "imageMobile": "/sites/globe.com.ph/files/content/dam/globe/brie/AboutUs/newsroom/common/Corporate_Globe_Hero-Banner-Mobile.jpg",
      "imageDesktop": "/sites/globe.com.ph/files/content/dam/globe/brie/AboutUs/newsroom/common/Corporate_Globe_Primary-Desktop-Thumbnail.jpg",
      "description": "Globe Art Gallery's 2016 debut exhibit features Jon and Tessy Pettyjohn's ceramic works and their potter friends in Comrades in Clay.",
      "datePosted": "Feb 18, 2016 | 12:39 PM",
      "titleFromTag": "Corporate"
    },
    {
      "title": "PH Fastest-Growing Market in Asia for Use of Mobile Forms in Enterprises, SMEs - Canvas CEO James Quigley",
      "nonclickable": false,
      "openNewTab": false,
      "borderArticle": "border-color:#0074D9;",
      "borderTopArticle": "border-top-color:#0074D9;",
      "imageListing": "/sites/globe.com.ph/files/content/dam/globe/brie/AboutUs/newsroom/common/Corporate_Globe_Listing.jpg",
      "articleUrl": "https://www.globe.com.ph/about-us/newsroom/business/ph-fastest-growing-market-asia-use-mobile-forms.html",
      "columnType": "articles--type-3",
      "typeListing": "article",
      "imageMobile": "/sites/globe.com.ph/files/content/dam/globe/brie/AboutUs/newsroom/common/Corporate_Globe_Hero-Banner-Mobile.jpg",
      "imageDesktop": "/sites/globe.com.ph/files/content/dam/globe/brie/AboutUs/newsroom/common/Corporate_Globe_Primary-Desktop-Thumbnail.jpg",
      "description": "Canvas, the cloud-based software service that enables enterprise information sharing and integration, sees fastest growth in PH market in Asia.",
      "datePosted": "Feb 16, 2016 | 02:13 PM",
      "titleFromTag": "Business"
    },
    {
      "title": "Globe Business Brings SME Caravan to Batangas to Showcase Latest Business Solutions, Tips Amid Digital Age",
      "nonclickable": false,
      "openNewTab": false,
      "borderArticle": "border-color:#0074D9;",
      "borderTopArticle": "border-top-color:#0074D9;",
      "imageListing": "/sites/globe.com.ph/files/content/dam/globe/brie/AboutUs/newsroom/common/Corporate_Globe_Listing.jpg",
      "articleUrl": "https://www.globe.com.ph/about-us/newsroom/business/globe-mybusiness-brings-sme-caravan-batangas-showcase-la.html",
      "columnType": "articles--type-3",
      "typeListing": "article",
      "imageMobile": "/sites/globe.com.ph/files/content/dam/globe/brie/AboutUs/newsroom/common/Corporate_Globe_Hero-Banner-Mobile.jpg",
      "imageDesktop": "/sites/globe.com.ph/files/content/dam/globe/brie/AboutUs/newsroom/common/Corporate_Globe_Primary-Desktop-Thumbnail.jpg",
      "description": "Globe Business takes the SME Caravan to Batangas, showcasing cutting-edge solutions and digital business tips for SMEs in the digital age.",
      "datePosted": "Feb 16, 2016 | 02:10 PM",
      "titleFromTag": "Business"
    },
    {
      "title": "Telcos view: San Miguel’s control of 700 MHz spectrum seen as ‘anti-competitive’",
      "nonclickable": false,
      "openNewTab": false,
      "borderArticle": "border-color:#0074D9;",
      "borderTopArticle": "border-top-color:#0074D9;",
      "imageListing": "/sites/globe.com.ph/files/content/dam/globe/brie/AboutUs/newsroom/common/Corporate_Globe_Listing.jpg",
      "articleUrl": "https://www.globe.com.ph/about-us/newsroom/corporate/telcos-view-san-miguels-control-700-mhz-spectrum-seen-anti-compe.html",
      "columnType": "articles--type-3",
      "typeListing": "article",
      "imageMobile": "/sites/globe.com.ph/files/content/dam/globe/brie/AboutUs/newsroom/common/Corporate_Globe_Hero-Banner-Mobile.jpg",
      "imageDesktop": "/sites/globe.com.ph/files/content/dam/globe/brie/AboutUs/newsroom/common/Corporate_Globe_Primary-Desktop-Thumbnail.jpg",
      "description": "Local telecommunications companies have described as ‘anti-competition’ San Miguel Corporation’s hold over the entire 700 MHz band, reiterating calls for the frequency to be equitably distributed in",
      "datePosted": "Feb 16, 2016 | 12:40 PM",
      "titleFromTag": "Corporate"
    },
    {
      "title": "Digital Tech Startup Squadzip Closes Successful Seed Funding from Kickstart Ventures and Plug and Play",
      "nonclickable": false,
      "openNewTab": false,
      "borderArticle": "border-color:#0074D9;",
      "borderTopArticle": "border-top-color:#0074D9;",
      "imageListing": "/sites/globe.com.ph/files/content/dam/globe/brie/AboutUs/newsroom/common/Corporate_Globe_Listing.jpg",
      "articleUrl": "https://www.globe.com.ph/about-us/newsroom/partners/digital-tech-startup-squadzip-closes-successful-seed-fun.html",
      "columnType": "articles--type-3",
      "typeListing": "article",
      "imageMobile": "/sites/globe.com.ph/files/content/dam/globe/brie/AboutUs/newsroom/common/Corporate_Globe_Hero-Banner-Mobile.jpg",
      "imageDesktop": "/sites/globe.com.ph/files/content/dam/globe/brie/AboutUs/newsroom/common/Corporate_Globe_Primary-Desktop-Thumbnail.jpg",
      "description": "Squadzip received funding from Kickstart Ventures and Plug and Play Tech Center. Visit Globe Newsroom for more.",
      "datePosted": "Feb 15, 2016 | 02:58 PM",
      "titleFromTag": "Partners"
    },
    {
      "title": "Globe unit Innove signs deal with gov't to provide budget and treasury management system",
      "nonclickable": false,
      "openNewTab": false,
      "borderArticle": "border-color:#0074D9;",
      "borderTopArticle": "border-top-color:#0074D9;",
      "imageListing": "/sites/globe.com.ph/files/content/dam/globe/brie/AboutUs/newsroom/common/Corporate_Globe_Listing.jpg",
      "articleUrl": "https://www.globe.com.ph/about-us/newsroom/business/globe-unit-innove-signs-deal-govt-provide-budget-and-treasury-ma.html",
      "columnType": "articles--type-3",
      "typeListing": "article",
      "imageMobile": "/sites/globe.com.ph/files/content/dam/globe/brie/AboutUs/newsroom/common/Corporate_Globe_Hero-Banner-Mobile.jpg",
      "imageDesktop": "/sites/globe.com.ph/files/content/dam/globe/brie/AboutUs/newsroom/common/Corporate_Globe_Primary-Desktop-Thumbnail.jpg",
      "description": "Innove Communications recently entered into a partnership agreement with the government. Visit the Globe Newsroom for the latest news on Globe Telecom.",
      "datePosted": "Feb 15, 2016 | 02:13 PM",
      "titleFromTag": "Business"
    },
    {
      "title": "Globe Telecom Kicks Off Nationwide Campaign to Provide 21st Century Education in Public Schools",
      "nonclickable": false,
      "openNewTab": false,
      "borderArticle": "border-color:#0074D9;",
      "borderTopArticle": "border-top-color:#0074D9;",
      "imageListing": "/sites/globe.com.ph/files/content/dam/globe/brie/AboutUs/newsroom/common/Corporate_Globe_Listing.jpg",
      "articleUrl": "https://www.globe.com.ph/about-us/newsroom/citizenship/globe-telecom-kicks-nationwide-campaign-provide-21st-century-edu.html",
      "columnType": "articles--type-3",
      "typeListing": "article",
      "imageMobile": "/sites/globe.com.ph/files/content/dam/globe/brie/AboutUs/newsroom/common/Corporate_Globe_Hero-Banner-Mobile.jpg",
      "imageDesktop": "/sites/globe.com.ph/files/content/dam/globe/brie/AboutUs/newsroom/common/Corporate_Globe_Primary-Desktop-Thumbnail.jpg",
      "description": "Leading telecommunications company Globe Telecom kicks off today (Feb.",
      "datePosted": "Feb 11, 2016 | 02:43 PM",
      "titleFromTag": "Citizenship"
    },
    {
      "title": "Globe board OKs P22/share cash dividend; allots capex of up to $750M for 2016",
      "nonclickable": false,
      "openNewTab": false,
      "borderArticle": "border-color:#0074D9;",
      "borderTopArticle": "border-top-color:#0074D9;",
      "imageListing": "/sites/globe.com.ph/files/content/dam/globe/brie/AboutUs/newsroom/corporate/Globe-board-OKs-P22-share-cash-dividend--allots-capex-of-up-to--750M-for-2016/corporate-4Q-P22_share-dividend-thumbnail-listing.png",
      "articleUrl": "https://www.globe.com.ph/about-us/newsroom/corporate/globe-board-oks-p22share-cash-dividend-allots-capex-750m-2016.html",
      "columnType": "articles--type-3",
      "typeListing": "article",
      "imageMobile": "/sites/globe.com.ph/files/content/dam/globe/brie/AboutUs/newsroom/corporate/Globe-board-OKs-P22-share-cash-dividend--allots-capex-of-up-to--750M-for-2016/corporate-4Q-P22_share-dividend-banner-m.png",
      "imageDesktop": "/sites/globe.com.ph/files/content/dam/globe/brie/AboutUs/newsroom/corporate/Globe-board-OKs-P22-share-cash-dividend--allots-capex-of-up-to--750M-for-2016/corporate-4Q-P22_share-dividend-primary-thumbnail.png",
      "description": "Globe Telecom said its board approved the declaration of a first quarter cash dividend of P22 per share for common shares.",
      "datePosted": "Feb 11, 2016 | 12:41 PM",
      "titleFromTag": "Corporate"
    },
    {
      "title": "Globe Telecom participates in global move to protect netizens from online fraud, scams",
      "nonclickable": false,
      "openNewTab": false,
      "borderArticle": "border-color:#0074D9;",
      "borderTopArticle": "border-top-color:#0074D9;",
      "imageListing": "/sites/globe.com.ph/files/content/dam/globe/brie/AboutUs/newsroom/common/Corporate_Globe_Listing.jpg",
      "articleUrl": "https://www.globe.com.ph/about-us/newsroom/sustainability/globe-telecom-participates-global-move-protect-netizens.html",
      "columnType": "articles--type-3",
      "typeListing": "article",
      "imageMobile": "/sites/globe.com.ph/files/content/dam/globe/brie/AboutUs/newsroom/common/Corporate_Globe_Hero-Banner-Mobile.jpg",
      "imageDesktop": "/sites/globe.com.ph/files/content/dam/globe/brie/AboutUs/newsroom/common/Corporate_Globe_Primary-Desktop-Thumbnail.jpg",
      "description": "As part of its commitment to enable the shift to a digital nation and empower Filipinos around the world to fully embrace their digital lifestyle, Globe Telecom joins a GSMA-led global initiative to",
      "datePosted": "Feb 09, 2016 | 03:48 PM",
      "titleFromTag": "Sustainability"
    }
  ]
}
