{
  "status": 200,
  "page": 297,
  "totalPage": 298,
  "range": "3553-3564",
  "total": 3573,
  "result": [
    {
      "title": "Globe Participates in Global Move to Protect Netizens from Online Fraud",
      "nonclickable": false,
      "openNewTab": false,
      "borderArticle": "border-color:#0074D9;",
      "borderTopArticle": "border-top-color:#0074D9;",
      "imageListing": "/sites/globe.com.ph/files/content/dam/globe/brie/AboutUs/newsroom/common/updated/Corporate-globe-thumbnail-listing.jpg",
      "articleUrl": "https://www.globe.com.ph/about-us/newsroom/corporate/globe-telecom-participates-global-move-protect-netizens.html",
      "columnType": "articles--type-3",
      "typeListing": "article",
      "imageMobile": "/sites/globe.com.ph/files/content/dam/globe/brie/AboutUs/newsroom/common/updated/Corporate-globe-primary-thumbnail-m.jpg",
      "imageDesktop": "/sites/globe.com.ph/files/content/dam/globe/brie/AboutUs/newsroom/common/updated/Corporate-globe-primary-thumbnail-d.jpg",
      "description": "Globe Telecom joins a GSMA-led global initiative to protect users from the growing number of fraudulent activities and scams in the digital space.",
      "datePosted": "Feb 09, 2016 | 03:48 PM",
      "titleFromTag": "Corporate"
    },
    {
      "title": "Globe Telecom Boosts PH as Asia’s Top Tourist Destination in the World With New TBP Tie-up",
      "nonclickable": false,
      "openNewTab": false,
      "borderArticle": "border-color:#0074D9;",
      "borderTopArticle": "border-top-color:#0074D9;",
      "imageListing": "/sites/globe.com.ph/files/content/dam/globe/brie/AboutUs/newsroom/common/Corporate_Globe_Listing.jpg",
      "articleUrl": "https://www.globe.com.ph/about-us/newsroom/consumer/globe-telecom-boosts-ph-asias-top-tourist-destination-wo.html",
      "columnType": "articles--type-3",
      "typeListing": "article",
      "imageMobile": "/sites/globe.com.ph/files/content/dam/globe/brie/AboutUs/newsroom/common/Corporate_Globe_Hero-Banner-Mobile.jpg",
      "imageDesktop": "/sites/globe.com.ph/files/content/dam/globe/brie/AboutUs/newsroom/common/Corporate_Globe_Primary-Desktop-Thumbnail.jpg",
      "description": "Globe Telecom's International Business Group renews partnership with TPB to promote the Philippines as a top tourist destination in Asia.",
      "datePosted": "Feb 09, 2016 | 01:36 PM",
      "titleFromTag": "Consumer"
    },
    {
      "title": "Globe Business Brings Commitment to Revolutionize PH Enterprises Through ICT at the 10th International ICT Awards",
      "nonclickable": false,
      "openNewTab": false,
      "borderArticle": "border-color:#0074D9;",
      "borderTopArticle": "border-top-color:#0074D9;",
      "imageListing": "/sites/globe.com.ph/files/content/dam/globe/brie/AboutUs/newsroom/common/Corporate_Globe_Listing.jpg",
      "articleUrl": "https://www.globe.com.ph/about-us/newsroom/business/globe-business-brings-commitment-revolutionize-ph-enterp.html",
      "columnType": "articles--type-3",
      "typeListing": "article",
      "imageMobile": "/sites/globe.com.ph/files/content/dam/globe/brie/AboutUs/newsroom/common/Corporate_Globe_Hero-Banner-Mobile.jpg",
      "imageDesktop": "/sites/globe.com.ph/files/content/dam/globe/brie/AboutUs/newsroom/common/Corporate_Globe_Primary-Desktop-Thumbnail.jpg",
      "description": "Globe Business supports the 10th International ICT Awards, driving the transformation of Philippine enterprises with innovative ICT solutions.",
      "datePosted": "Feb 05, 2016 | 02:14 PM",
      "titleFromTag": "Business"
    },
    {
      "title": "Tagalog-Dubbed Classic Spanish Telenovela “Two Sides of Ana” to Air on BEAM Channel 31",
      "nonclickable": false,
      "openNewTab": false,
      "borderArticle": "border-color:#0074D9;",
      "borderTopArticle": "border-top-color:#0074D9;",
      "imageListing": "/sites/globe.com.ph/files/content/dam/globe/brie/AboutUs/newsroom/common/Corporate_Globe_Listing.jpg",
      "articleUrl": "https://www.globe.com.ph/about-us/newsroom/partners/tagalog-dubbed-classic-spanish-telenovela-two-sides-ana-air-beam.html",
      "columnType": "articles--type-3",
      "typeListing": "article",
      "imageMobile": "/sites/globe.com.ph/files/content/dam/globe/brie/AboutUs/newsroom/common/Corporate_Globe_Hero-Banner-Mobile.jpg",
      "imageDesktop": "/sites/globe.com.ph/files/content/dam/globe/brie/AboutUs/newsroom/common/Corporate_Globe_Primary-Desktop-Thumbnail.jpg",
      "description": "Tagalog-dubbed classic telenovela hit Two Sides of Ana (Las Dos Cara's de Ana) will air over BEAM Channel 31. Visit Globe Newsroom for more.",
      "datePosted": "Feb 01, 2016 | 03:00 PM",
      "titleFromTag": "Partners"
    },
    {
      "title": "Globe spending on network infrastructure one of highest in Asia",
      "nonclickable": false,
      "openNewTab": false,
      "borderArticle": "border-color:#0074D9;",
      "borderTopArticle": "border-top-color:#0074D9;",
      "imageListing": "/sites/globe.com.ph/files/content/dam/globe/brie/AboutUs/newsroom/common/Corporate_Globe_Listing.jpg",
      "articleUrl": "https://www.globe.com.ph/about-us/newsroom/sustainability/globe-spending-network-infrastructure-one-highest-asia.html",
      "columnType": "articles--type-3",
      "typeListing": "article",
      "imageMobile": "/sites/globe.com.ph/files/content/dam/globe/brie/AboutUs/newsroom/common/Corporate_Globe_Hero-Banner-Mobile.jpg",
      "imageDesktop": "/sites/globe.com.ph/files/content/dam/globe/brie/AboutUs/newsroom/common/Corporate_Globe_Primary-Desktop-Thumbnail.jpg",
      "description": "Join Globe Telecom in revolutionizing connectivity with top-notch network investments. Be a part of the digital transformation. Discover more!",
      "datePosted": "Jan 29, 2016 | 03:49 PM",
      "titleFromTag": "Sustainability"
    },
    {
      "title": "The Indigo Project: Reviving the Art of Traditional Dye Weaving",
      "nonclickable": false,
      "openNewTab": false,
      "borderArticle": "border-color:#0074D9;",
      "borderTopArticle": "border-top-color:#0074D9;",
      "imageListing": "/sites/globe.com.ph/files/content/dam/globe/brie/AboutUs/newsroom/common/Corporate_Globe_Listing.jpg",
      "articleUrl": "https://www.globe.com.ph/about-us/newsroom/citizenship/indigo-project-reviving-art-traditional-dye-weaving.html",
      "columnType": "articles--type-3",
      "typeListing": "article",
      "imageMobile": "/sites/globe.com.ph/files/content/dam/globe/brie/AboutUs/newsroom/common/Corporate_Globe_Hero-Banner-Mobile.jpg",
      "imageDesktop": "/sites/globe.com.ph/files/content/dam/globe/brie/AboutUs/newsroom/common/Corporate_Globe_Primary-Desktop-Thumbnail.jpg",
      "description": "Indigo was once favored by the local weaving industry as a traditional way of adding color to fabrics due to its excellent resistance from fading or running.",
      "datePosted": "Jan 29, 2016 | 02:44 PM",
      "titleFromTag": "Citizenship"
    },
    {
      "title": "Globe #StartNow Youth Summit Set to Educate and Empower Students on the Latest Digital Trends and Innovations",
      "nonclickable": false,
      "openNewTab": false,
      "borderArticle": "border-color:#0074D9;",
      "borderTopArticle": "border-top-color:#0074D9;",
      "imageListing": "/sites/globe.com.ph/files/content/dam/globe/brie/AboutUs/newsroom/common/Corporate_Globe_Listing.jpg",
      "articleUrl": "https://www.globe.com.ph/about-us/newsroom/citizenship/globe-startnow-youth-summit-set-educate-and-empower-stud.html",
      "columnType": "articles--type-3",
      "typeListing": "article",
      "imageMobile": "/sites/globe.com.ph/files/content/dam/globe/brie/AboutUs/newsroom/common/Corporate_Globe_Hero-Banner-Mobile.jpg",
      "imageDesktop": "/sites/globe.com.ph/files/content/dam/globe/brie/AboutUs/newsroom/common/Corporate_Globe_Primary-Desktop-Thumbnail.jpg",
      "description": "The continuing rise in smartphone penetration in the Philippines has allowed more individuals to get a hold of their own device and eventually learn to adapt a digital lifestyle – from social network",
      "datePosted": "Jan 29, 2016 | 02:43 PM",
      "titleFromTag": "Citizenship"
    },
    {
      "title": "Going Crazy over Madonna in Manila?",
      "nonclickable": false,
      "openNewTab": false,
      "borderArticle": "border-color:#0074D9;",
      "borderTopArticle": "border-top-color:#0074D9;",
      "imageListing": "/sites/globe.com.ph/files/content/dam/globe/brie/AboutUs/newsroom/common/Corporate_Globe_Listing.jpg",
      "articleUrl": "https://www.globe.com.ph/about-us/newsroom/consumer/going-crazy-over-madonna-manila.html",
      "columnType": "articles--type-3",
      "typeListing": "article",
      "imageMobile": "/sites/globe.com.ph/files/content/dam/globe/brie/AboutUs/newsroom/common/Corporate_Globe_Hero-Banner-Mobile.jpg",
      "imageDesktop": "/sites/globe.com.ph/files/content/dam/globe/brie/AboutUs/newsroom/common/Corporate_Globe_Primary-Desktop-Thumbnail.jpg",
      "description": "Madonna’s Rebel Heart Tour in Manila will take the Philippine music scene by storm. Visit the Globe Newsroom for the latest news on Globe Telecom.",
      "datePosted": "Jan 25, 2016 | 01:36 PM",
      "titleFromTag": "Consumer"
    },
    {
      "title": "Singtel Innov8 Launches Global Programme on Startup Collaboration",
      "nonclickable": false,
      "openNewTab": false,
      "borderArticle": "border-color:#0074D9;",
      "borderTopArticle": "border-top-color:#0074D9;",
      "imageListing": "/sites/globe.com.ph/files/content/dam/globe/brie/AboutUs/newsroom/common/Corporate_Globe_Listing.jpg",
      "articleUrl": "https://www.globe.com.ph/about-us/newsroom/partners/singtel-innov8-launches-global-programme-startup-collabo.html",
      "columnType": "articles--type-3",
      "typeListing": "article",
      "imageMobile": "/sites/globe.com.ph/files/content/dam/globe/brie/AboutUs/newsroom/common/Corporate_Globe_Hero-Banner-Mobile.jpg",
      "imageDesktop": "/sites/globe.com.ph/files/content/dam/globe/brie/AboutUs/newsroom/common/Corporate_Globe_Primary-Desktop-Thumbnail.jpg",
      "description": "Singtel Innov8 announced a new program for startups to create and collaborate on innovative solutions for business challenges faced by the Singtel Group.",
      "datePosted": "Jan 22, 2016 | 03:00 PM",
      "titleFromTag": "Partners"
    },
    {
      "title": "GSMA: Philippines is one of only 2 countries in the world that have unused 700 MHz frequency",
      "nonclickable": false,
      "openNewTab": false,
      "borderArticle": "border-color:#0074D9;",
      "borderTopArticle": "border-top-color:#0074D9;",
      "imageListing": "/sites/globe.com.ph/files/content/dam/globe/brie/AboutUs/newsroom/common/Corporate_Globe_Listing.jpg",
      "articleUrl": "https://www.globe.com.ph/about-us/newsroom/corporate/gsma-philippines-one-only-2-countries-world-have-unused-700-mhz-.html",
      "columnType": "articles--type-3",
      "typeListing": "article",
      "imageMobile": "/sites/globe.com.ph/files/content/dam/globe/brie/AboutUs/newsroom/common/Corporate_Globe_Hero-Banner-Mobile.jpg",
      "imageDesktop": "/sites/globe.com.ph/files/content/dam/globe/brie/AboutUs/newsroom/common/Corporate_Globe_Primary-Desktop-Thumbnail.jpg",
      "description": "The Philippines has yet again made a record for itself by belonging to a list of countries in the world that has not used its 700 MHz spectrum frequency.",
      "datePosted": "Jan 22, 2016 | 12:43 PM",
      "titleFromTag": "Corporate"
    },
    {
      "title": "Globe Telecom Brings Cloud Technology to PH Service Industry",
      "nonclickable": false,
      "openNewTab": false,
      "borderArticle": "border-color:#0074D9;",
      "borderTopArticle": "border-top-color:#0074D9;",
      "imageListing": "/sites/globe.com.ph/files/content/dam/globe/brie/AboutUs/newsroom/common/Corporate_Globe_Listing.jpg",
      "articleUrl": "https://www.globe.com.ph/about-us/newsroom/business/globe-telecom-brings-cloud-technology-ph-service-industry.html",
      "columnType": "articles--type-3",
      "typeListing": "article",
      "imageMobile": "/sites/globe.com.ph/files/content/dam/globe/brie/AboutUs/newsroom/common/Corporate_Globe_Hero-Banner-Mobile.jpg",
      "imageDesktop": "/sites/globe.com.ph/files/content/dam/globe/brie/AboutUs/newsroom/common/Corporate_Globe_Primary-Desktop-Thumbnail.jpg",
      "description": "Globe Business is boosting Shakey’s operations with its cloud-based solution offering Microsoft Office 365. Visit Globe Newsroom for more.",
      "datePosted": "Jan 21, 2016 | 02:14 PM",
      "titleFromTag": "Business"
    },
    {
      "title": "Globe Business strengthens ties with top PH enterprise leaders with CEO Golf Classic",
      "nonclickable": false,
      "openNewTab": false,
      "borderArticle": "border-color:#0074D9;",
      "borderTopArticle": "border-top-color:#0074D9;",
      "imageListing": "/sites/globe.com.ph/files/content/dam/globe/brie/AboutUs/newsroom/common/Corporate_Globe_Listing.jpg",
      "articleUrl": "https://www.globe.com.ph/about-us/newsroom/business/globe-business-strengthens-ties-top-ph-enterprise-leaders-ceo-go.html",
      "columnType": "articles--type-3",
      "typeListing": "article",
      "imageMobile": "/sites/globe.com.ph/files/content/dam/globe/brie/AboutUs/newsroom/common/Corporate_Globe_Hero-Banner-Mobile.jpg",
      "imageDesktop": "/sites/globe.com.ph/files/content/dam/globe/brie/AboutUs/newsroom/common/Corporate_Globe_Primary-Desktop-Thumbnail.jpg",
      "description": "Globe Business takes superior customer experience a notch higher with the staging of its CEO Golf Classic. Visit the Newsroom for the latest news on Globe.",
      "datePosted": "Jan 19, 2016 | 02:15 PM",
      "titleFromTag": "Business"
    }
  ]
}
