{
  "status": 200,
  "page": 298,
  "totalPage": 298,
  "range": "3565-3573",
  "total": 3573,
  "result": [
    {
      "title": "EntrepNegosyo & Emarket Partners with Globe myBusiness: Strengthening Businesses’ Online Presence & Growth",
      "nonclickable": false,
      "openNewTab": false,
      "borderArticle": "border-color:#0074D9;",
      "borderTopArticle": "border-top-color:#0074D9;",
      "imageListing": "/sites/globe.com.ph/files/content/dam/globe/brie/AboutUs/newsroom/business/entrepnegosyo-emarket-partners-globe-mybusiness/newsroom-business-entrepnegosyo-emarket-partners-thumbnail-listing.jpg",
      "articleUrl": "https://www.globe.com.ph/about-us/newsroom/business/entrepnegosyo-emarket-partners-globe-mybusiness.html",
      "columnType": "articles--type-3",
      "typeListing": "article",
      "imageMobile": "/sites/globe.com.ph/files/content/dam/globe/brie/AboutUs/newsroom/business/entrepnegosyo-emarket-partners-globe-mybusiness/newsroom-business-entrepnegosyo-emarket-partners-primary-thumbnail-m.jpg",
      "imageDesktop": "/sites/globe.com.ph/files/content/dam/globe/brie/AboutUs/newsroom/business/entrepnegosyo-emarket-partners-globe-mybusiness/newsroom-business-entrepnegosyo-emarket-partners-primary-thumbnail-d.jpg",
      "description": "Get the tools you need to start your own business with the help of EntrepNegosyo and Emarket.",
      "datePosted": "Oct 09, 2020 | 09:24 AM",
      "titleFromTag": "Business"
    },
    {
      "title": "Globe Telecom’s proposed Open Access Law possible priority in next Congress",
      "nonclickable": false,
      "openNewTab": false,
      "borderArticle": "border-color:#0074D9;",
      "borderTopArticle": "border-top-color:#0074D9;",
      "imageListing": "/sites/globe.com.ph/files/content/dam/globe/brie/AboutUs/newsroom/common/Corporate_Globe_Listing.jpg",
      "articleUrl": "https://www.globe.com.ph/about-us/newsroom/corporate/globe-telecoms-proposed-open-access-law-possible-priority-next-c.html",
      "columnType": "articles--type-3",
      "typeListing": "article",
      "imageMobile": "/sites/globe.com.ph/files/content/dam/globe/brie/AboutUs/newsroom/common/Corporate_Globe_Hero-Banner-Mobile.jpg",
      "imageDesktop": "/sites/globe.com.ph/files/content/dam/globe/brie/AboutUs/newsroom/common/Corporate_Globe_Primary-Desktop-Thumbnail.jpg",
      "description": "The Congressional Policy and Budget Research Department may include Globe Telecom's proposed Open Access Law for the telecom industry in its priority list.",
      "datePosted": "Jan 19, 2016 | 12:43 PM",
      "titleFromTag": "Corporate"
    },
    {
      "title": "Globe kicks off exciting festival season in PH at Cebu’s Sinulog Festival 2016",
      "nonclickable": false,
      "openNewTab": false,
      "borderArticle": "border-color:#0074D9;",
      "borderTopArticle": "border-top-color:#0074D9;",
      "imageListing": "/sites/globe.com.ph/files/content/dam/globe/brie/AboutUs/newsroom/common/Corporate_Globe_Listing.jpg",
      "articleUrl": "https://www.globe.com.ph/about-us/newsroom/consumer/globe-kicks-exciting-festival-season-ph-cebus-sinulog--0.html",
      "columnType": "articles--type-3",
      "typeListing": "article",
      "imageMobile": "/sites/globe.com.ph/files/content/dam/globe/brie/AboutUs/newsroom/common/Corporate_Globe_Hero-Banner-Mobile.jpg",
      "imageDesktop": "/sites/globe.com.ph/files/content/dam/globe/brie/AboutUs/newsroom/common/Corporate_Globe_Primary-Desktop-Thumbnail.jpg",
      "description": "It’s the season of the most colorful festivals in the Philippines, and tourists have started to visit to see what unique experience each province offers",
      "datePosted": "Jan 13, 2016 | 01:37 PM",
      "titleFromTag": "Consumer"
    },
    {
      "title": "Globe Brings Asia’s First-of-Its-Kind E-Commerce Platform in PH to Benefit Enterprises, SMEs",
      "nonclickable": false,
      "openNewTab": false,
      "borderArticle": "border-color:#0074D9;",
      "borderTopArticle": "border-top-color:#0074D9;",
      "imageListing": "/sites/globe.com.ph/files/content/dam/globe/brie/AboutUs/newsroom/common/Corporate_Globe_Listing.jpg",
      "articleUrl": "https://www.globe.com.ph/about-us/newsroom/business/globe-brings-asias-first-its-kind-e-commerce-platform-ph.html",
      "columnType": "articles--type-3",
      "typeListing": "article",
      "imageMobile": "/sites/globe.com.ph/files/content/dam/globe/brie/AboutUs/newsroom/common/Corporate_Globe_Hero-Banner-Mobile.jpg",
      "imageDesktop": "/sites/globe.com.ph/files/content/dam/globe/brie/AboutUs/newsroom/common/Corporate_Globe_Primary-Desktop-Thumbnail.jpg",
      "description": "Globe Telecom is bringing Asia’s first-of-its-kind commerce platform in the country that will enable Philippine enterprises and SMEs access to cloud-based solutions and applications.",
      "datePosted": "Jan 12, 2016 | 02:17 PM",
      "titleFromTag": "Business"
    },
    {
      "title": "Globe boosts growth of PH outbound travels with support to country’s biggest travel expo",
      "nonclickable": false,
      "openNewTab": false,
      "borderArticle": "border-color:#0074D9;",
      "borderTopArticle": "border-top-color:#0074D9;",
      "imageListing": "/sites/globe.com.ph/files/content/dam/globe/brie/AboutUs/newsroom/common/Corporate_Globe_Listing.jpg",
      "articleUrl": "https://www.globe.com.ph/about-us/newsroom/consumer/globe-boosts-growth-ph-outbound-travels-support-countrys.html",
      "columnType": "articles--type-3",
      "typeListing": "article",
      "imageMobile": "/sites/globe.com.ph/files/content/dam/globe/brie/AboutUs/newsroom/common/Corporate_Globe_Hero-Banner-Mobile.jpg",
      "imageDesktop": "/sites/globe.com.ph/files/content/dam/globe/brie/AboutUs/newsroom/common/Corporate_Globe_Primary-Desktop-Thumbnail.jpg",
      "description": "Globe Telecom is looking to support the growing number of Filipinos travelling abroad. Visit the Globe Newsroom for the latest news on Globe Telecom.",
      "datePosted": "Jan 12, 2016 | 01:38 PM",
      "titleFromTag": "Consumer"
    },
    {
      "title": "Globe Telecom urges gov’t to prioritize internet infrastructure",
      "nonclickable": false,
      "openNewTab": false,
      "borderArticle": "border-color:#0074D9;",
      "borderTopArticle": "border-top-color:#0074D9;",
      "imageListing": "/sites/globe.com.ph/files/content/dam/globe/brie/AboutUs/newsroom/common/Corporate_Globe_Listing.jpg",
      "articleUrl": "https://www.globe.com.ph/about-us/newsroom/corporate/globe-telecom-urges-govt-prioritize-internet-infrastructure.html",
      "columnType": "articles--type-3",
      "typeListing": "article",
      "imageMobile": "/sites/globe.com.ph/files/content/dam/globe/brie/AboutUs/newsroom/common/Corporate_Globe_Hero-Banner-Mobile.jpg",
      "imageDesktop": "/sites/globe.com.ph/files/content/dam/globe/brie/AboutUs/newsroom/common/Corporate_Globe_Primary-Desktop-Thumbnail.jpg",
      "description": "Globe urges the government to prioritize internet infrastructure for business growth, domestic economic growth, and industry digitization.",
      "datePosted": "Jan 12, 2016 | 12:44 PM",
      "titleFromTag": "Corporate"
    },
    {
      "title": "Globe Telecom wins anew in PSE Bell Awards; scores grand slam win for good corporate governance",
      "nonclickable": false,
      "openNewTab": false,
      "borderArticle": "border-color:#0074D9;",
      "borderTopArticle": "border-top-color:#0074D9;",
      "imageListing": "/sites/globe.com.ph/files/content/dam/globe/brie/AboutUs/newsroom/common/Corporate_Globe_Listing.jpg",
      "articleUrl": "https://www.globe.com.ph/about-us/newsroom/corporate/globe-telecom-wins-anew-pse-bell-awards-scores-grand-slam-win-go.html",
      "columnType": "articles--type-3",
      "typeListing": "article",
      "imageMobile": "/sites/globe.com.ph/files/content/dam/globe/brie/AboutUs/newsroom/common/Corporate_Globe_Hero-Banner-Mobile.jpg",
      "imageDesktop": "/sites/globe.com.ph/files/content/dam/globe/brie/AboutUs/newsroom/common/Corporate_Globe_Primary-Desktop-Thumbnail.jpg",
      "description": "Globe Telecom bagged the Bell Awards for Corporate Governance, awarded by the Philippine Stock Exchange. Visit Globe Newsroom for more.",
      "datePosted": "Jan 08, 2016 | 12:45 PM",
      "titleFromTag": "Corporate"
    },
    {
      "title": "Globe Welcomes Arrival of Netflix in PH",
      "nonclickable": false,
      "openNewTab": false,
      "borderArticle": "border-color:#0074D9;",
      "borderTopArticle": "border-top-color:#0074D9;",
      "imageListing": "/sites/globe.com.ph/files/content/dam/globe/brie/AboutUs/newsroom/common/Corporate_Globe_Listing.jpg",
      "articleUrl": "https://www.globe.com.ph/about-us/newsroom/consumer/globe-welcomes-arrival-netflix-ph.html",
      "columnType": "articles--type-3",
      "typeListing": "article",
      "imageMobile": "/sites/globe.com.ph/files/content/dam/globe/brie/AboutUs/newsroom/common/Corporate_Globe_Hero-Banner-Mobile.jpg",
      "imageDesktop": "/sites/globe.com.ph/files/content/dam/globe/brie/AboutUs/newsroom/common/Corporate_Globe_Primary-Desktop-Thumbnail.jpg",
      "description": "Globe Telecom prepares for Netflix's launch in the Philippines by offering home broadband plans with free Chromecast access to customers.",
      "datePosted": "Jan 07, 2016 | 01:38 PM",
      "titleFromTag": "Consumer"
    },
    {
      "title": "Four Arrested in Cebu for Subscription Fraud as Globe Steps Up Campaign vs. Scams",
      "nonclickable": false,
      "openNewTab": false,
      "borderArticle": "border-color:#0074D9;",
      "borderTopArticle": "border-top-color:#0074D9;",
      "imageListing": "/sites/globe.com.ph/files/content/dam/globe/brie/AboutUs/newsroom/common/Corporate_Globe_Listing.jpg",
      "articleUrl": "https://www.globe.com.ph/about-us/newsroom/corporate/four-arrested-cebu-subscription-fraud-globe-steps-campaign-vs-sc.html",
      "columnType": "articles--type-3",
      "typeListing": "article",
      "imageMobile": "/sites/globe.com.ph/files/content/dam/globe/brie/AboutUs/newsroom/common/Corporate_Globe_Hero-Banner-Mobile.jpg",
      "imageDesktop": "/sites/globe.com.ph/files/content/dam/globe/brie/AboutUs/newsroom/common/Corporate_Globe_Primary-Desktop-Thumbnail.jpg",
      "description": "Four fraudsters in Cebu City were recently arrested by a joint police and Globe Telecom security team after they submitted fake documents. Learn more here.",
      "datePosted": "Jan 07, 2016 | 12:45 PM",
      "titleFromTag": "Corporate"
    }
  ]
}
