{
  "status": 200,
  "page": 3,
  "totalPage": 298,
  "range": "25-36",
  "total": 3573,
  "result": [
    {
      "title": "Globe Amplifies Connectivity across PH with Extensive Network Builds",
      "nonclickable": false,
      "openNewTab": false,
      "borderArticle": "border-color:#0074D9;",
      "borderTopArticle": "border-top-color:#0074D9;",
      "imageListing": "/sites/globe.com.ph/files/content/dam/globe/brie/AboutUs/newsroom/common/default-corporate-5/corp-thumbnail-listing.jpg",
      "articleUrl": "https://www.globe.com.ph/about-us/newsroom/corporate/globe-amplifies-connectivity-across-ph-extensive-network-builds.html",
      "columnType": "articles--type-3",
      "typeListing": "article",
      "imageMobile": "/sites/globe.com.ph/files/content/dam/globe/brie/AboutUs/newsroom/common/default-corporate-5/corp-primary-thumbnail-m.jpg",
      "imageDesktop": "/sites/globe.com.ph/files/content/dam/globe/brie/AboutUs/newsroom/common/default-corporate-5/corp-primary-thumbnail-d.jpg",
      "description": "Globe boosts digital infrastructure with 833 new cell sites and upgrades 5,395 mobile sites to LTE for reliable nationwide connectivity.",
      "datePosted": "Nov 20, 2023 | 02:41 PM",
      "titleFromTag": "Corporate"
    },
    {
      "title": "BGC's Premier Restos Join Gourmet Giving Series to Support The Hapag Movement",
      "nonclickable": false,
      "openNewTab": false,
      "borderArticle": "border-color:#1C91C5;",
      "borderTopArticle": "border-top-color:#1C91C5;",
      "imageListing": "/sites/globe.com.ph/files/content/dam/globe/brie/AboutUs/newsroom/sustainability/bgc-premier-restos-join-gourmet-giving-series/thumbnail-listing.jpg",
      "articleUrl": "https://www.globe.com.ph/about-us/newsroom/sustainability/bgc-premier-restos-join-gourmet-giving-series-support-the-hapag-movement.html",
      "columnType": "articles--type-3",
      "typeListing": "article",
      "imageMobile": "/sites/globe.com.ph/files/content/dam/globe/brie/AboutUs/newsroom/sustainability/bgc-premier-restos-join-gourmet-giving-series/primary-thumbnail-m.jpg",
      "imageDesktop": "/sites/globe.com.ph/files/content/dam/globe/brie/AboutUs/newsroom/sustainability/bgc-premier-restos-join-gourmet-giving-series/primary-thumbnail-d.jpg",
      "description": "Alegria Manila and Gallery by Chele joins the Gourmet Giving Series to support Globe’s the Hapag Movement.",
      "datePosted": "Nov 20, 2023 | 02:40 PM",
      "titleFromTag": "Sustainability"
    },
    {
      "title": "Globe Celebrates Game Developers, Powers First PH Web3 Games Summit",
      "nonclickable": false,
      "openNewTab": false,
      "borderArticle": "border-color:#0074D9;",
      "borderTopArticle": "border-top-color:#0074D9;",
      "imageListing": "/sites/globe.com.ph/files/content/dam/globe/brie/AboutUs/newsroom/common/Newsroom-Prepaid-Default-Images-Gen-Z-Gamer-2/Newsroom-Prepaid-Default-Images-Gen-Z-Gamer-2-thumbnail-listing.jpg",
      "articleUrl": "https://www.globe.com.ph/about-us/newsroom/consumer/globe-celebrates-game-developers-powers-first-ph-web3-games-summit.html",
      "columnType": "articles--type-3",
      "typeListing": "article",
      "imageMobile": "/sites/globe.com.ph/files/content/dam/globe/brie/AboutUs/newsroom/common/Newsroom-Prepaid-Default-Images-Gen-Z-Gamer-2/Newsroom-Prepaid-Default-Images-Gen-Z-Gamer-2-primary-thumbnail-m.jpg",
      "imageDesktop": "/sites/globe.com.ph/files/content/dam/globe/brie/AboutUs/newsroom/common/Newsroom-Prepaid-Default-Images-Gen-Z-Gamer-2/Newsroom-Prepaid-Default-Images-Gen-Z-Gamer-2-primary-thumbnail-d.jpg",
      "description": "Globe celebrates the work of game developers, partners with YGG for the country’s first Web3 Games Summit.",
      "datePosted": "Nov 16, 2023 | 10:00 AM",
      "titleFromTag": "Consumer"
    },
    {
      "title": "KonsultaMD Seals Groundbreaking Partnerships with Etiqa and Lacson & Lacson for Game-Changing Health plans, Hassle-Free Healthcare",
      "nonclickable": false,
      "openNewTab": false,
      "borderArticle": "border-color:#0074D9;",
      "borderTopArticle": "border-top-color:#0074D9;",
      "imageListing": "/sites/globe.com.ph/files/content/dam/globe/brie/About-us/Newsroom/image/Corporate/konsultamd-partners-with-etiqa-and-lacson-and-lacson/thumbnail-listing.jpg",
      "articleUrl": "https://www.globe.com.ph/about-us/newsroom/corporate/konsultamd-partners-with-etiqa-and-lacson-and-lacson.html",
      "columnType": "articles--type-3",
      "typeListing": "article",
      "imageMobile": "/sites/globe.com.ph/files/content/dam/globe/brie/About-us/Newsroom/image/Corporate/konsultamd-partners-with-etiqa-and-lacson-and-lacson/primary-thumbnail-m.jpg",
      "imageDesktop": "/sites/globe.com.ph/files/content/dam/globe/brie/About-us/Newsroom/image/Corporate/konsultamd-partners-with-etiqa-and-lacson-and-lacson/primary-thumbnail-d.jpg",
      "description": "KonsultaMD introduces its game-changing Health Plans feature in the Super App to make healthcare more accessible to Filipinos.",
      "datePosted": "Nov 16, 2023 | 01:00 AM",
      "titleFromTag": "Corporate"
    },
    {
      "title": "Globe Group Talks about Raising Unicorns, Journey from Telco to Techco at 2023 Singapore Fintech Festival",
      "nonclickable": false,
      "openNewTab": false,
      "borderArticle": "border-color:#0074D9;",
      "borderTopArticle": "border-top-color:#0074D9;",
      "imageListing": "/sites/globe.com.ph/files/content/dam/globe/brie/AboutUs/newsroom/common/default-corporate-10/default-corporate-10-thumbnail-listing.jpg",
      "articleUrl": "https://www.globe.com.ph/about-us/newsroom/corporate/globe-group-raising-unicorns-journey-from-telco-to-techco.html",
      "columnType": "articles--type-3",
      "typeListing": "article",
      "imageMobile": "/sites/globe.com.ph/files/content/dam/globe/brie/AboutUs/newsroom/common/default-corporate-10/default-corporate-10-primary-thumbnail-m.jpg",
      "imageDesktop": "/sites/globe.com.ph/files/content/dam/globe/brie/AboutUs/newsroom/common/default-corporate-10/default-corporate-10-primary-thumbnail-d.jpg",
      "description": "Globe Group will highlight its transformation from telecom to tech at 2023 Singapore Fintech Festival, sharing unicorn-raising experiences.",
      "datePosted": "Nov 14, 2023 | 01:35 PM",
      "titleFromTag": "Corporate"
    },
    {
      "title": "Well-Loved Alabang Restos Join Globe’s #UniteForHapag Campaign",
      "nonclickable": false,
      "openNewTab": false,
      "borderArticle": "border-color:#1C91C5;",
      "borderTopArticle": "border-top-color:#1C91C5;",
      "imageListing": "/sites/globe.com.ph/files/content/dam/globe/brie/AboutUs/newsroom/partners/internet-watch-foundation-partner-child-protection-advocacy/default-partners-1-thumbnail-listing.jpg",
      "articleUrl": "https://www.globe.com.ph/about-us/newsroom/sustainability/well-loved-alabang-restos-join-uniteforhapag-campaign.html",
      "columnType": "articles--type-3",
      "typeListing": "article",
      "imageMobile": "/sites/globe.com.ph/files/content/dam/globe/brie/AboutUs/newsroom/partners/internet-watch-foundation-partner-child-protection-advocacy/default-partners-1-primary-thumbnail-m.jpg",
      "imageDesktop": "/sites/globe.com.ph/files/content/dam/globe/brie/AboutUs/newsroom/partners/internet-watch-foundation-partner-child-protection-advocacy/default-partners-1-primary-thumbnail-d.jpg",
      "description": "The Black Pig and Tiago’s join Globe, in collaboration with the Fine Dining Club Philippines Facebook community, in the Gourmet Giving Series ",
      "datePosted": "Nov 14, 2023 | 01:34 PM",
      "titleFromTag": "Sustainability"
    },
    {
      "title": "Globe Reiterates Warning vs Spam, Scam Messages Received via Chat Apps",
      "nonclickable": false,
      "openNewTab": false,
      "borderArticle": "border-color:#0074D9;",
      "borderTopArticle": "border-top-color:#0074D9;",
      "imageListing": "/sites/globe.com.ph/files/content/dam/globe/brie/AboutUs/newsroom/common/default-total-globe-1/default-1-total-globe-thumbnail-listing.jpg",
      "articleUrl": "https://www.globe.com.ph/about-us/newsroom/corporate/spam-scam-messages-received-via-chat-apps.html",
      "columnType": "articles--type-3",
      "typeListing": "article",
      "imageMobile": "/sites/globe.com.ph/files/content/dam/globe/brie/AboutUs/newsroom/common/default-total-globe-1/default-1-total-globe-primary-thumbnail-m.jpg",
      "imageDesktop": "/sites/globe.com.ph/files/content/dam/globe/brie/AboutUs/newsroom/common/default-total-globe-1/default-1-total-globe-primary-thumbnail-d.jpg",
      "description": "Globe reiterates to be vigilant against spam and scam messages they receive from unknown numbers via over-the-top (OTT) media services or chat apps. ",
      "datePosted": "Nov 13, 2023 | 05:50 PM",
      "titleFromTag": "Corporate"
    },
    {
      "title": "Things at the New-Generation Globe Store That Just Make Sense",
      "nonclickable": false,
      "openNewTab": false,
      "borderArticle": "border-color:#0074D9;",
      "borderTopArticle": "border-top-color:#0074D9;",
      "imageListing": "/sites/globe.com.ph/files/content/dam/globe/brie/AboutUs/newsroom/common/default-corporate-main/newsroom-default-corporate-thumbnail-listing.jpg",
      "articleUrl": "https://www.globe.com.ph/about-us/newsroom/consumer/things-at-the-new-generation-globe-store-that-just-make-sense.html",
      "columnType": "articles--type-3",
      "typeListing": "article",
      "imageMobile": "/sites/globe.com.ph/files/content/dam/globe/brie/AboutUs/newsroom/common/default-corporate-main/newsroom-default-corporate-primary-thumbnail-m.jpg",
      "imageDesktop": "/sites/globe.com.ph/files/content/dam/globe/brie/AboutUs/newsroom/common/default-corporate-main/newsroom-default-corporate-primary-thumbnail-d.jpg",
      "description": "Discover a revolutionary retail experience at Globe's Glorietta 3 store, redefining retail with immersive tech zones and world-class design.",
      "datePosted": "Nov 13, 2023 | 12:38 PM",
      "titleFromTag": "Consumer"
    },
    {
      "title": "Globe Flags Alarming Rise of Battery Theft in Network Facilities",
      "nonclickable": false,
      "openNewTab": false,
      "borderArticle": "border-color:#0074D9;",
      "borderTopArticle": "border-top-color:#0074D9;",
      "imageListing": "/sites/globe.com.ph/files/content/dam/globe/brie/AboutUs/newsroom/common/default-corp-3/Newsroom-Default-Images-Corporate-5G-connectivity-3-thumbnail-listing.jpg",
      "articleUrl": "https://www.globe.com.ph/about-us/newsroom/corporate/alarming-rise-of-battery-theft-in-network-facilities.html",
      "columnType": "articles--type-3",
      "typeListing": "article",
      "imageMobile": "/sites/globe.com.ph/files/content/dam/globe/brie/AboutUs/newsroom/common/default-corp-3/Newsroom-Default-Images-Corporate-5G-connectivity-3-primary-thumbnail-m.jpg",
      "imageDesktop": "/sites/globe.com.ph/files/content/dam/globe/brie/AboutUs/newsroom/common/default-corp-3/Newsroom-Default-Images-Corporate-5G-connectivity-3-primary-thumbnail-d.jpg",
      "description": "Globe is alarmed by the rise in battery theft cases in facilities, and warns the public on legal consequences of buying stolen property.",
      "datePosted": "Nov 13, 2023 | 11:14 AM",
      "titleFromTag": "Corporate"
    },
    {
      "title": "Experience Shopping Extravaganza at the RUSH Fast Track Bazaar",
      "nonclickable": false,
      "openNewTab": false,
      "borderArticle": "border-color:#0074D9;",
      "borderTopArticle": "border-top-color:#0074D9;",
      "imageListing": "/sites/globe.com.ph/files/content/dam/globe/brie/About-us/Newsroom/image/Consumer/experience-shopping-extravaganza-rush-fast-track-bazaar/thumbnail-listing.jpg",
      "articleUrl": "https://www.globe.com.ph/about-us/newsroom/consumer/experience-shopping-extravaganza-rush-fast-track-bazaar.html",
      "columnType": "articles--type-3",
      "typeListing": "article",
      "imageMobile": "/sites/globe.com.ph/files/content/dam/globe/brie/About-us/Newsroom/image/Consumer/experience-shopping-extravaganza-rush-fast-track-bazaar/primary-thumbnail-m.jpg",
      "imageDesktop": "/sites/globe.com.ph/files/content/dam/globe/brie/About-us/Newsroom/image/Consumer/experience-shopping-extravaganza-rush-fast-track-bazaar/primary-thumbnail-d.jpg",
      "description": "Indulge in a Shopping Extravaganza at the RUSH Fast Track Bazaar.",
      "datePosted": "Nov 13, 2023 | 11:13 AM",
      "titleFromTag": "Consumer"
    },
    {
      "title": "Globe Logs Improved Broadband Speeds in More Areas in Q3",
      "nonclickable": false,
      "openNewTab": false,
      "borderArticle": "border-color:#0074D9;",
      "borderTopArticle": "border-top-color:#0074D9;",
      "imageListing": "/sites/globe.com.ph/files/content/dam/globe/brie/AboutUs/newsroom/common/default-corporate-5/corp-thumbnail-listing.jpg",
      "articleUrl": "https://www.globe.com.ph/about-us/newsroom/corporate/improved-broadband-speeds-more-areas-q3-2023.html",
      "columnType": "articles--type-3",
      "typeListing": "article",
      "imageMobile": "/sites/globe.com.ph/files/content/dam/globe/brie/AboutUs/newsroom/common/default-corporate-5/corp-primary-thumbnail-m.jpg",
      "imageDesktop": "/sites/globe.com.ph/files/content/dam/globe/brie/AboutUs/newsroom/common/default-corporate-5/corp-primary-thumbnail-d.jpg",
      "description": "Globe continues to deliver high-speed internet connectivity across the Philippines, as download and upload speeds improve across 19 areas in Q3. ",
      "datePosted": "Nov 10, 2023 | 05:53 PM",
      "titleFromTag": "Corporate"
    },
    {
      "title": "Filipino Family’s ‘hapag,’ Pandemic Experience Inspire  Gourmet Giving Chefs to Give Back",
      "nonclickable": false,
      "openNewTab": false,
      "borderArticle": "border-color:#1C91C5;",
      "borderTopArticle": "border-top-color:#1C91C5;",
      "imageListing": "/sites/globe.com.ph/files/content/dam/globe/brie/AboutUs/newsroom/common/default-sustainability-5/default-sustainability-4-thumbnail-listing.jpg",
      "articleUrl": "https://www.globe.com.ph/about-us/newsroom/sustainability/hapag-pandemic-experience-inspire-gourmet-giving-chefs.html",
      "columnType": "articles--type-3",
      "typeListing": "article",
      "imageMobile": "/sites/globe.com.ph/files/content/dam/globe/brie/AboutUs/newsroom/common/default-sustainability-5/default-sustainability-4-primary-thumbnail-m.jpg",
      "imageDesktop": "/sites/globe.com.ph/files/content/dam/globe/brie/AboutUs/newsroom/common/default-sustainability-5/default-sustainability-4-primary-thumbnail-d.jpg",
      "description": "Globe, Gourmet Chefs to launch “Gourmet Giving Series: A Fine Dining Thanksgiving Experience for the Hapag Movement” event.",
      "datePosted": "Nov 10, 2023 | 05:52 PM",
      "titleFromTag": "Sustainability"
    }
  ]
}
