{
  "status": 200,
  "page": 30,
  "totalPage": 298,
  "range": "349-360",
  "total": 3573,
  "result": [
    {
      "title": "GSMA, IDATE Recognize Globe's Commitment to Sustainability & Climate Action",
      "nonclickable": false,
      "openNewTab": false,
      "borderArticle": "border-color:#0074D9;",
      "borderTopArticle": "border-top-color:#0074D9;",
      "imageListing": "/sites/globe.com.ph/files/content/dam/globe/brie/AboutUs/newsroom/common/default-partners-2/default-partners-2-thumbnail-listing.jpg",
      "articleUrl": "https://www.globe.com.ph/about-us/newsroom/sustainability/gsma-idate-recognize-globes-commitment-sustainability.html",
      "columnType": "articles--type-3",
      "typeListing": "article",
      "imageMobile": "/sites/globe.com.ph/files/content/dam/globe/brie/AboutUs/newsroom/common/default-partners-2/default-partners-2-primary-thumbnail-m.jpg",
      "imageDesktop": "/sites/globe.com.ph/files/content/dam/globe/brie/AboutUs/newsroom/common/default-partners-2/default-partners-2-primary-thumbnail-d.jpg",
      "description": "Globe has been recognized by GSMA and IDATE for its relentless efforts towards climate action and integrating sustainability in its network operations.",
      "datePosted": "Mar 31, 2023 | 09:00 AM",
      "titleFromTag": "Sustainability"
    },
    {
      "title": "March 2023 Updates: Globe SIM Registration Portal",
      "nonclickable": false,
      "openNewTab": false,
      "borderArticle": "border-color:#0074D9;",
      "borderTopArticle": "border-top-color:#0074D9;",
      "imageListing": "/sites/globe.com.ph/files/content/dam/globe/brie/AboutUs/newsroom/common/default-total-globe-2/newsroom-total-globe-default-2-thumbnail-listing.jpg",
      "articleUrl": "https://www.globe.com.ph/about-us/newsroom/corporate/sim-registration-march-2023.html",
      "columnType": "articles--type-3",
      "typeListing": "article",
      "imageMobile": "/sites/globe.com.ph/files/content/dam/globe/brie/AboutUs/newsroom/common/default-total-globe-2/newsroom-total-globe-default-2-primary-thumbnail-m.jpg",
      "imageDesktop": "/sites/globe.com.ph/files/content/dam/globe/brie/AboutUs/newsroom/common/default-total-globe-2/newsroom-total-globe-default-2-primary-thumbnail-d.jpg",
      "description": "Read the March 2023 updates on Globe's SIM Registration here.",
      "datePosted": "Mar 29, 2023 | 02:00 PM",
      "titleFromTag": "Corporate"
    },
    {
      "title": "Globe, RCBC Join Forces to Protect Customers Against Fraud",
      "nonclickable": false,
      "openNewTab": false,
      "borderArticle": "border-color:#0074D9;",
      "borderTopArticle": "border-top-color:#0074D9;",
      "imageListing": "/sites/globe.com.ph/files/content/dam/globe/brie/AboutUs/newsroom/common/default-corporate-14/corp-default-images-thumbnail-listing.jpg",
      "articleUrl": "https://www.globe.com.ph/about-us/newsroom/corporate/globe-rcbc-protect-customers-against-fraud.html",
      "columnType": "articles--type-3",
      "typeListing": "article",
      "imageMobile": "/sites/globe.com.ph/files/content/dam/globe/brie/AboutUs/newsroom/common/default-corporate-14/corp-default-images-primary-thumbnail-m.jpg",
      "imageDesktop": "/sites/globe.com.ph/files/content/dam/globe/brie/AboutUs/newsroom/common/default-corporate-14/corp-default-images-primary-thumbnail-d.jpg",
      "description": "Globe and one of the Philippines’ major banks, RCBC, have signed a Memorandum of Agreement signifying their commitment to work together against online fraud.",
      "datePosted": "Mar 29, 2023 | 01:53 PM",
      "titleFromTag": "Corporate"
    },
    {
      "title": "Globe Business Gives Womenpreneurs A Big Push to Break Barriers on International Women’s Month",
      "nonclickable": false,
      "openNewTab": false,
      "borderArticle": "border-color:#0074D9;",
      "borderTopArticle": "border-top-color:#0074D9;",
      "imageListing": "/sites/globe.com.ph/files/content/dam/globe/brie/AboutUs/newsroom/business/womenpreneurs-break-barriers-international-womens-month/eg-iwm-thumbnail-listing.jpg",
      "articleUrl": "https://www.globe.com.ph/about-us/newsroom/business/womenpreneurs-break-barriers-international-womens-month.html",
      "columnType": "articles--type-3",
      "typeListing": "article",
      "imageMobile": "/sites/globe.com.ph/files/content/dam/globe/brie/AboutUs/newsroom/business/womenpreneurs-break-barriers-international-womens-month/eg-iwm-primary-thumbnail-m.jpg",
      "imageDesktop": "/sites/globe.com.ph/files/content/dam/globe/brie/AboutUs/newsroom/business/womenpreneurs-break-barriers-international-womens-month/eg-iwm-primary-thumbnail-d.jpg",
      "description": "Globe Business empowers womenpreneurs to break barriers on International Women’s Month. ",
      "datePosted": "Mar 28, 2023 | 03:00 PM",
      "titleFromTag": "Business"
    },
    {
      "title": "Globe Receives Opensignal Awards For 5G Video Experience, 5G Upload Speed And Core Consistent Quality In Barcelona",
      "nonclickable": false,
      "openNewTab": false,
      "borderArticle": "border-color:#0074D9;",
      "borderTopArticle": "border-top-color:#0074D9;",
      "imageListing": "/sites/globe.com.ph/files/content/dam/globe/brie/About-us/Newsroom/image/Corporate/032823/globe-receives-opensignal-awards-in-barcelona-thumbnail-listing.jpg",
      "articleUrl": "https://www.globe.com.ph/about-us/newsroom/corporate/globe-receives-opensignal-awards-in-barcelona.html",
      "columnType": "articles--type-3",
      "typeListing": "article",
      "imageMobile": "/sites/globe.com.ph/files/content/dam/globe/brie/About-us/Newsroom/image/Corporate/032823/globe-receives-opensignal-awards-in-barcelona-primary-thumbnail-m.jpg",
      "imageDesktop": "/sites/globe.com.ph/files/content/dam/globe/brie/About-us/Newsroom/image/Corporate/032823/globe-receives-opensignal-awards-in-barcelona-primary-thumbnail-d.jpg",
      "description": "Globe receives recognition from Opensignal’s Mobile Experience Awards for 5G Video Experience, 5G Upload Speed and Core Consistent Quality in the Philippines.",
      "datePosted": "Mar 28, 2023 | 01:53 PM",
      "titleFromTag": "Corporate"
    },
    {
      "title": "Globe, Partners Fiberize Zamboanga City with $150M PDSCN Project",
      "nonclickable": false,
      "openNewTab": false,
      "borderArticle": "border-color:#0074D9;",
      "borderTopArticle": "border-top-color:#0074D9;",
      "imageListing": "/sites/globe.com.ph/files/content/dam/globe/brie/AboutUs/newsroom/common/default-corporate-5/corp-thumbnail-listing.jpg",
      "articleUrl": "https://www.globe.com.ph/about-us/newsroom/corporate/globe-partners-fiberize-zamboanga-city.html",
      "columnType": "articles--type-3",
      "typeListing": "article",
      "imageMobile": "/sites/globe.com.ph/files/content/dam/globe/brie/AboutUs/newsroom/common/default-corporate-5/corp-primary-thumbnail-m.jpg",
      "imageDesktop": "/sites/globe.com.ph/files/content/dam/globe/brie/AboutUs/newsroom/common/default-corporate-5/corp-primary-thumbnail-d.jpg",
      "description": "Globe, together with partners Eastern Communications & InfiniVAN Inc., is landing its first submarine fiber optic cable through the $150-million PDSCN project.",
      "datePosted": "Mar 28, 2023 | 01:30 PM",
      "titleFromTag": "Corporate"
    },
    {
      "title": "Madiskarteng Pinoy Rejoice! Get Free 50 GB Shareable Data with Globe At Home Prepaid WiFi",
      "nonclickable": false,
      "openNewTab": false,
      "borderArticle": "border-color:#0074D9;",
      "borderTopArticle": "border-top-color:#0074D9;",
      "imageListing": "/sites/globe.com.ph/files/content/dam/globe/brie/AboutUs/newsroom/common/default-prepaid-gen-z-mobile-2/Newsroom-Prepaid-Default-Images-Gen-Z-Mobile-2-thumbnail-listing.jpg",
      "articleUrl": "https://www.globe.com.ph/about-us/newsroom/consumer/free-50-gb-shareable-data-prepaid-wifi.html",
      "columnType": "articles--type-3",
      "typeListing": "article",
      "imageMobile": "/sites/globe.com.ph/files/content/dam/globe/brie/AboutUs/newsroom/common/default-prepaid-gen-z-mobile-2/Newsroom-Prepaid-Default-Images-Gen-Z-Mobile-2-primary-thumbnail-m.jpg",
      "imageDesktop": "/sites/globe.com.ph/files/content/dam/globe/brie/AboutUs/newsroom/common/default-prepaid-gen-z-mobile-2/Newsroom-Prepaid-Default-Images-Gen-Z-Mobile-2-primary-thumbnail-d.jpg",
      "description": "Globe At Home Prepaid WiFi offers free 50 GB shareable data to Filipino families who are looking for reliable home connectivity. ",
      "datePosted": "Mar 28, 2023 | 01:00 PM",
      "titleFromTag": "Consumer"
    },
    {
      "title": "Globe's KmmunityPH Engages K-Pop Fandoms for World Vision’s #GirlsCan Campaign ",
      "nonclickable": false,
      "openNewTab": false,
      "borderArticle": "border-color:#1C91C5;",
      "borderTopArticle": "border-top-color:#1C91C5;",
      "imageListing": "/sites/globe.com.ph/files/content/dam/globe/brie/AboutUs/newsroom/common/default-sustainability-1/default-sustainability-2-thumbnail-listing.jpg",
      "articleUrl": "https://www.globe.com.ph/about-us/newsroom/sustainability/kmmunityph-world-vision-girlscan-campaign.html",
      "columnType": "articles--type-3",
      "typeListing": "article",
      "imageMobile": "/sites/globe.com.ph/files/content/dam/globe/brie/AboutUs/newsroom/common/defaultgenzmobile3/Newsroom-Prepaid-Default-Images-Gen-Z-Mobile-3-primary-thumbnail-m.jpg",
      "imageDesktop": "/sites/globe.com.ph/files/content/dam/globe/brie/AboutUs/newsroom/common/defaultgenzmobile3/Newsroom-Prepaid-Default-Images-Gen-Z-Mobile-3-primary-thumbnail-d.jpg",
      "description": "Globe’s KmmunityPH works with different K-pop fandoms in promoting World Vision's #GirlsCan campaign.\r\n",
      "datePosted": "Mar 24, 2023 | 01:50 PM",
      "titleFromTag": "Sustainability"
    },
    {
      "title": "917Ventures Transforms MSMEs with Capitan's Customized Digital Solutions",
      "nonclickable": false,
      "openNewTab": false,
      "borderArticle": "border-color:#0074D9;",
      "borderTopArticle": "border-top-color:#0074D9;",
      "imageListing": "/sites/globe.com.ph/files/content/dam/globe/brie/AboutUs/newsroom/917ventures/default-03/sg-default-images-thumbnail-listing.jpg",
      "articleUrl": "https://www.globe.com.ph/about-us/newsroom/917ventures/capitan-customized-digital-solutions-msmes.html",
      "columnType": "articles--type-3",
      "typeListing": "article",
      "imageMobile": "/sites/globe.com.ph/files/content/dam/globe/brie/AboutUs/newsroom/917ventures/default-03/sg-default-images-primary-thumbnail-m.jpg",
      "imageDesktop": "/sites/globe.com.ph/files/content/dam/globe/brie/AboutUs/newsroom/917ventures/default-03/sg-default-images-primary-thumbnail-d.jpg",
      "description": "Capitan launches a suite of digital solutions to help micro, small, and medium-sized enterprises.",
      "datePosted": "Mar 23, 2023 | 03:04 PM",
      "titleFromTag": "917Ventures"
    },
    {
      "title": "Globe Supports Local Forest Patrollers under USAID Safe Water Project",
      "nonclickable": false,
      "openNewTab": false,
      "borderArticle": "border-color:#1C91C5;",
      "borderTopArticle": "border-top-color:#1C91C5;",
      "imageListing": "/sites/globe.com.ph/files/content/dam/globe/brie/AboutUs/newsroom/common/default-sustainability-1/default-sustainability-2-thumbnail-listing.jpg",
      "articleUrl": "https://www.globe.com.ph/about-us/newsroom/sustainability/globe-supports-local-forest-patrollers.html",
      "columnType": "articles--type-3",
      "typeListing": "article",
      "imageMobile": "/sites/globe.com.ph/files/content/dam/globe/brie/AboutUs/newsroom/common/default-sustainability-1/default-sustainability-2-primary-thumbnail-m.jpg",
      "imageDesktop": "/sites/globe.com.ph/files/content/dam/globe/brie/AboutUs/newsroom/common/default-sustainability-1/default-sustainability-2-primary-thumbnail-d.jpg",
      "description": "Globe donated mobile phones to forest patrollers in Palawan, Negros Occidental, and Sarangani in support of the USAID Safe Water Project.",
      "datePosted": "Mar 22, 2023 | 01:50 PM",
      "titleFromTag": "Sustainability"
    },
    {
      "title": "Globe Keeps Diversity And Gender Balance Strong With Women In Leadership Team",
      "nonclickable": false,
      "openNewTab": false,
      "borderArticle": "border-color:#0074D9;",
      "borderTopArticle": "border-top-color:#0074D9;",
      "imageListing": "/sites/globe.com.ph/files/content/dam/globe/brie/AboutUs/newsroom/common/default-corporate-tech-3/newsroom-corporate-tech-3-thumbnail-listing.jpg",
      "articleUrl": "https://www.globe.com.ph/about-us/newsroom/corporate/globe-keeps-diversity-gender-balance-strong.html",
      "columnType": "articles--type-3",
      "typeListing": "article",
      "imageMobile": "/sites/globe.com.ph/files/content/dam/globe/brie/AboutUs/newsroom/common/default-corporate-tech-3/newsroom-corporate-tech-3-primary-thumbnail-m.jpg",
      "imageDesktop": "/sites/globe.com.ph/files/content/dam/globe/brie/AboutUs/newsroom/common/default-corporate-tech-3/newsroom-corporate-tech-3-primary-thumbnail-d.jpg",
      "description": "Women bring heart and purpose to the Globe Group leadership team.",
      "datePosted": "Mar 22, 2023 | 12:45 PM",
      "titleFromTag": "Corporate"
    },
    {
      "title": "Globe Group’s Yondu Inc. Bags the SEATH MSP Partner of the Year for 2022 Award",
      "nonclickable": false,
      "openNewTab": false,
      "borderArticle": "border-color:#0074D9;",
      "borderTopArticle": "border-top-color:#0074D9;",
      "imageListing": "/sites/globe.com.ph/files/content/dam/globe/brie/AboutUs/newsroom/business/yondu-bags-seath-msp-partner-of-the-year-award/eg-seath-thumbnail-listing.jpg",
      "articleUrl": "https://www.globe.com.ph/about-us/newsroom/business/yondu-bags-seath-msp-partner-of-the-year-award.html",
      "columnType": "articles--type-3",
      "typeListing": "article",
      "imageMobile": "/sites/globe.com.ph/files/content/dam/globe/brie/AboutUs/newsroom/business/yondu-bags-seath-msp-partner-of-the-year-award/eg-seath-primary-thumbnail-m.jpg",
      "imageDesktop": "/sites/globe.com.ph/files/content/dam/globe/brie/AboutUs/newsroom/business/yondu-bags-seath-msp-partner-of-the-year-award/eg-seath-primary-thumbnail-d.jpg",
      "description": "Yondu Inc. is honored with a SEATH MSP Partner of the Year for 2022 award at the annual HPE Channel Partner award.",
      "datePosted": "Mar 21, 2023 | 03:00 PM",
      "titleFromTag": "Business"
    }
  ]
}
