{
  "status": 200,
  "page": 31,
  "totalPage": 298,
  "range": "361-372",
  "total": 3573,
  "result": [
    {
      "title": "Unlock Life Essentials With Globe Rewards For Your Summer Revenge Travel Plus, Win Exciting Prizes In G Chance The Raffle 2023 ",
      "nonclickable": false,
      "openNewTab": false,
      "borderArticle": "border-color:#0074D9;",
      "borderTopArticle": "border-top-color:#0074D9;",
      "imageListing": "/sites/globe.com.ph/files/content/dam/globe/brie/AboutUs/newsroom/common/default-prepaid-gen-z-mobile-2/Newsroom-Prepaid-Default-Images-Gen-Z-Mobile-2-thumbnail-listing.jpg",
      "articleUrl": "https://www.globe.com.ph/about-us/newsroom/consumer/unlock-life-essentials-globe-rewards.html",
      "columnType": "articles--type-3",
      "typeListing": "article",
      "imageMobile": "/sites/globe.com.ph/files/content/dam/globe/brie/AboutUs/newsroom/common/default-prepaid-gen-z-mobile-2/Newsroom-Prepaid-Default-Images-Gen-Z-Mobile-2-primary-thumbnail-m.jpg",
      "imageDesktop": "/sites/globe.com.ph/files/content/dam/globe/brie/AboutUs/newsroom/common/default-prepaid-gen-z-mobile-2/Newsroom-Prepaid-Default-Images-Gen-Z-Mobile-2-primary-thumbnail-d.jpg",
      "description": "Enjoy your trip this summer with Globe Rewards as your companion and get a chance to win exciting prizes in G Chance the Raffle 2023.",
      "datePosted": "Mar 21, 2023 | 11:42 AM",
      "titleFromTag": "Consumer"
    },
    {
      "title": "Globe Partners With Super8 Grocery To Make Essential Connectivity Products Accessible To More Consumers",
      "nonclickable": false,
      "openNewTab": false,
      "borderArticle": "border-color:#0074D9;",
      "borderTopArticle": "border-top-color:#0074D9;",
      "imageListing": "/sites/globe.com.ph/files/content/dam/globe/brie/About-us/Newsroom/image/Consumer/032123/globe-partners-with-super8-grocery-thumbnail-listing.jpg",
      "articleUrl": "https://www.globe.com.ph/about-us/newsroom/consumer/globe-partners-with-super8-grocery.html",
      "columnType": "articles--type-3",
      "typeListing": "article",
      "imageMobile": "/sites/globe.com.ph/files/content/dam/globe/brie/About-us/Newsroom/image/Consumer/032123/globe-partners-with-super8-grocery-primary-thumbnail-m.jpg",
      "imageDesktop": "/sites/globe.com.ph/files/content/dam/globe/brie/About-us/Newsroom/image/Consumer/032123/globe-partners-with-super8-grocery-primary-thumbnail-d.jpg",
      "description": "Globe has tied up with Super8 Grocery to make essential connectivity products accessible to more Filipinos. ",
      "datePosted": "Mar 21, 2023 | 11:42 AM",
      "titleFromTag": "Consumer"
    },
    {
      "title": "Acquiro Launches NXT, Game-Changing Talent Tech Platform For Job Seekers And Employers",
      "nonclickable": false,
      "openNewTab": false,
      "borderArticle": "border-color:#0074D9;",
      "borderTopArticle": "border-top-color:#0074D9;",
      "imageListing": "/sites/globe.com.ph/files/content/dam/globe/brie/AboutUs/newsroom/common/default-partners-4/default-partners-4-primary-thumbnail-listing.jpg",
      "articleUrl": "https://www.globe.com.ph/about-us/newsroom/partners/acquiro-launches-nxt.html",
      "columnType": "articles--type-3",
      "typeListing": "article",
      "imageMobile": "/sites/globe.com.ph/files/content/dam/globe/brie/AboutUs/newsroom/common/default-partners-4/default-partners-4-primary-primary-thumbnail-m.jpg",
      "imageDesktop": "/sites/globe.com.ph/files/content/dam/globe/brie/AboutUs/newsroom/common/default-partners-4/default-partners-4-primary-primary-thumbnail-d.jpg",
      "description": "Acuiro launches its revolutionary technology platform NXT to transform the entire talent acquisition process and job searching experience in the country.",
      "datePosted": "Mar 20, 2023 | 03:33 PM",
      "titleFromTag": "Partners"
    },
    {
      "title": "Globe Sees More Core Business Growth and Sustainable Free Cash Flow Generation This Year",
      "nonclickable": false,
      "openNewTab": false,
      "borderArticle": "border-color:#0074D9;",
      "borderTopArticle": "border-top-color:#0074D9;",
      "imageListing": "/sites/globe.com.ph/files/content/dam/globe/brie/AboutUs/newsroom/common/default-advisory-1/corp-default-images-thumbnail-listing.jpg",
      "articleUrl": "https://www.globe.com.ph/about-us/newsroom/corporate/more-core-business-growth.html",
      "columnType": "articles--type-3",
      "typeListing": "article",
      "imageMobile": "/sites/globe.com.ph/files/content/dam/globe/brie/AboutUs/newsroom/common/default-advisory-1/corp-default-images-primary-thumbnail-m.jpg",
      "imageDesktop": "/sites/globe.com.ph/files/content/dam/globe/brie/AboutUs/newsroom/common/default-advisory-1/corp-default-images-primary-thumbnail-d.jpg",
      "description": "Digital solutions platform Globe sees more core business growth as it expects mid-single digit growth in overall service revenues vs the record level of 2022.",
      "datePosted": "Mar 20, 2023 | 02:05 PM",
      "titleFromTag": "Corporate"
    },
    {
      "title": "Globe Business and Snowflake Deepen Partnership to Help Customers in the Philippines Unlock the true Value of Data",
      "nonclickable": false,
      "openNewTab": false,
      "borderArticle": "border-color:#0074D9;",
      "borderTopArticle": "border-top-color:#0074D9;",
      "imageListing": "/sites/globe.com.ph/files/content/dam/globe/brie/AboutUs/newsroom/business/globe-business-snowflake-help-customers-unlock-true-value-data/eg-snowflake-thumbnail-listing.jpg",
      "articleUrl": "https://www.globe.com.ph/about-us/newsroom/business/globe-business-snowflake-help-customers-unlock-true-value-data.html",
      "columnType": "articles--type-3",
      "typeListing": "article",
      "imageMobile": "/sites/globe.com.ph/files/content/dam/globe/brie/AboutUs/newsroom/business/globe-business-snowflake-help-customers-unlock-true-value-data/eg-snowflake-primary-thumbnail-m.jpg",
      "imageDesktop": "/sites/globe.com.ph/files/content/dam/globe/brie/AboutUs/newsroom/business/globe-business-snowflake-help-customers-unlock-true-value-data/eg-snowflake-primary-thumbnail-d.jpg",
      "description": "Globe Business announced its partnership with Snowflake last February 21  to help Filipino customers maximize their data and future-proof business operations.",
      "datePosted": "Mar 17, 2023 | 03:00 PM",
      "titleFromTag": "Business"
    },
    {
      "title": "Globe Media Excellence Awards @10 Unveils Finalists from VisMin",
      "nonclickable": false,
      "openNewTab": false,
      "borderArticle": "border-color:#0074D9;",
      "borderTopArticle": "border-top-color:#0074D9;",
      "imageListing": "/sites/globe.com.ph/files/content/dam/globe/brie/AboutUs/newsroom/corporate/globe-media-excellence-awards-10/newsroom-Celebrating-a-decade-of-excellent-storytelling-thumbnail-listing.jpg",
      "articleUrl": "https://www.globe.com.ph/about-us/newsroom/corporate/gmea-10-unveils-finalists-vismin.html",
      "columnType": "articles--type-3",
      "typeListing": "article",
      "imageMobile": "/sites/globe.com.ph/files/content/dam/globe/brie/AboutUs/newsroom/corporate/globe-media-excellence-awards-10/newsroom-Celebrating-a-decade-of-excellent-storytelling-primary-thumbnail-m.jpg",
      "imageDesktop": "/sites/globe.com.ph/files/content/dam/globe/brie/AboutUs/newsroom/corporate/globe-media-excellence-awards-10/newsroom-Celebrating-a-decade-of-excellent-storytelling-primary-thumbnail-d.jpg",
      "description": "Globe Media Excellence Awards @10 proudly unveils finalists from Visayas & Mindanao, a roster of exceptional journalists who represent the best of the region.",
      "datePosted": "Mar 17, 2023 | 02:05 PM",
      "titleFromTag": "Corporate"
    },
    {
      "title": "Komunidad Global, Globe Group Collaborate to Help Make Siargao More Climate-Resilient",
      "nonclickable": false,
      "openNewTab": false,
      "borderArticle": "border-color:#0074D9;",
      "borderTopArticle": "border-top-color:#0074D9;",
      "imageListing": "/sites/globe.com.ph/files/content/dam/globe/brie/AboutUs/newsroom/common/default-sustainability-3/corp-default-images-thumbnail-listing.jpg",
      "articleUrl": "https://www.globe.com.ph/about-us/newsroom/sustainability/komunidad-global-globe-climate-resilient-siargao-project.html",
      "columnType": "articles--type-3",
      "typeListing": "article",
      "imageMobile": "/sites/globe.com.ph/files/content/dam/globe/brie/AboutUs/newsroom/common/default-sustainability-3/corp-default-images-primary-thumbnail-m.jpg",
      "imageDesktop": "/sites/globe.com.ph/files/content/dam/globe/brie/AboutUs/newsroom/common/default-sustainability-3/corp-default-images-primary-thumbnail-d.jpg",
      "description": "The Globe Group and Komunidad Global teamed up to implement an early warning monitoring system in Siargao island, a famous tourist destination in the country.",
      "datePosted": "Mar 17, 2023 | 01:56 PM",
      "titleFromTag": "Sustainability"
    },
    {
      "title": "GCash Rolls Out ‘doublesafe’ - Globe Newsroom ",
      "nonclickable": false,
      "openNewTab": false,
      "borderArticle": "border-color:#0074D9;",
      "borderTopArticle": "border-top-color:#0074D9;",
      "imageListing": "/sites/globe.com.ph/files/content/dam/globe/brie/AboutUs/newsroom/common/default-total-globe-1/default-1-total-globe-thumbnail-listing.jpg",
      "articleUrl": "https://www.globe.com.ph/about-us/newsroom/consumer/gcash-rolls-out-doublesafe.html",
      "columnType": "articles--type-3",
      "typeListing": "article",
      "imageMobile": "/sites/globe.com.ph/files/content/dam/globe/brie/AboutUs/newsroom/common/default-total-globe-1/default-1-total-globe-primary-thumbnail-m.jpg",
      "imageDesktop": "/sites/globe.com.ph/files/content/dam/globe/brie/AboutUs/newsroom/common/default-total-globe-1/default-1-total-globe-primary-thumbnail-d.jpg",
      "description": "Financial app GCash rolls out ‘DoubleSafe’ to safeguard its users from account takeovers. ",
      "datePosted": "Mar 17, 2023 | 11:42 AM",
      "titleFromTag": "Consumer"
    },
    {
      "title": "Globe, SOS PH Join Hands to Address Involuntary Hunger by Reducing Food Waste",
      "nonclickable": false,
      "openNewTab": false,
      "borderArticle": "border-color:#0074D9;",
      "borderTopArticle": "border-top-color:#0074D9;",
      "imageListing": "/sites/globe.com.ph/files/content/dam/globe/brie/AboutUs/newsroom/common/default-sustainability-2/corp-default-images-thumbnail-listing.jpg",
      "articleUrl": "https://www.globe.com.ph/about-us/newsroom/sustainability/globe-sos-ph-join-hands-address-involuntary-hunger.html",
      "columnType": "articles--type-3",
      "typeListing": "article",
      "imageMobile": "/sites/globe.com.ph/files/content/dam/globe/brie/AboutUs/newsroom/common/default-sustainability-2/corp-default-images-primary-thumbnail-m.jpg",
      "imageDesktop": "/sites/globe.com.ph/files/content/dam/globe/brie/AboutUs/newsroom/common/default-sustainability-2/corp-default-images-primary-thumbnail-d.jpg",
      "description": "Globe has brought in international food rescue organization Scholars of Sustenance (SOS) Philippines Food Rescue as its latest partner for The Hapag Movement.",
      "datePosted": "Mar 15, 2023 | 01:56 PM",
      "titleFromTag": "Sustainability"
    },
    {
      "title": "Globe Business Showcases New 5G Learning Possibilities at De La Salle Lipa",
      "nonclickable": false,
      "openNewTab": false,
      "borderArticle": "border-color:#0074D9;",
      "borderTopArticle": "border-top-color:#0074D9;",
      "imageListing": "/sites/globe.com.ph/files/content/dam/globe/brie/AboutUs/newsroom/business/globe-business-showcases-new-5g-learning-possibilities/sg-lipa-thumbnail-listing.jpg",
      "articleUrl": "https://www.globe.com.ph/about-us/newsroom/business/globe-business-showcases-5g-learning.html",
      "columnType": "articles--type-3",
      "typeListing": "article",
      "imageMobile": "/sites/globe.com.ph/files/content/dam/globe/brie/AboutUs/newsroom/business/globe-business-showcases-new-5g-learning-possibilities/sg-lipa-primary-thumbnail-m.jpg",
      "imageDesktop": "/sites/globe.com.ph/files/content/dam/globe/brie/AboutUs/newsroom/business/globe-business-showcases-new-5g-learning-possibilities/sg-lipa-primary-thumbnail-d.jpg",
      "description": "Globe Business held a Demo Day at the De La Salle Lipa to showcase 5G use cases relevant to learning.",
      "datePosted": "Mar 15, 2023 | 11:38 AM",
      "titleFromTag": "Business"
    },
    {
      "title": "Globe Named ‘Best Corporate Governance Company’ in PH Telecom Industry at 2022 International Finance Awards",
      "nonclickable": false,
      "openNewTab": false,
      "borderArticle": "border-color:#0074D9;",
      "borderTopArticle": "border-top-color:#0074D9;",
      "imageListing": "/sites/globe.com.ph/files/content/dam/globe/brie/AboutUs/newsroom/common/default-awards-1/corp-default-images-thumbnail-listing.jpg",
      "articleUrl": "https://www.globe.com.ph/about-us/newsroom/corporate/globe-named-best-corporate-governance-company.html",
      "columnType": "articles--type-3",
      "typeListing": "article",
      "imageMobile": "/sites/globe.com.ph/files/content/dam/globe/brie/AboutUs/newsroom/common/default-awards-1/corp-default-images-primary-thumbnail-m.jpg",
      "imageDesktop": "/sites/globe.com.ph/files/content/dam/globe/brie/AboutUs/newsroom/common/default-awards-1/corp-default-images-primary-thumbnail-d.jpg",
      "description": "Globe Telecom has been recognized by the International Finance as the winner in the category \"Best Corporate Governance Company - Telecom - Philippines 2022.",
      "datePosted": "Mar 14, 2023 | 02:30 PM",
      "titleFromTag": "Corporate"
    },
    {
      "title": "AdSpark Holdings, Inc., Now Brave Connective Holdings, Inc., Sets Out to Revolutionize Adtech and Data Industry in PH",
      "nonclickable": false,
      "openNewTab": false,
      "borderArticle": "border-color:#0074D9;",
      "borderTopArticle": "border-top-color:#0074D9;",
      "imageListing": "/sites/globe.com.ph/files/content/dam/globe/brie/AboutUs/newsroom/common/default-partners-4/default-partners-4-primary-thumbnail-listing.jpg",
      "articleUrl": "https://www.globe.com.ph/about-us/newsroom/partners/adspark-is-now-brave-connective-holdings-inc.html",
      "columnType": "articles--type-3",
      "typeListing": "article",
      "imageMobile": "/sites/globe.com.ph/files/content/dam/globe/brie/AboutUs/newsroom/common/default-partners-4/default-partners-4-primary-primary-thumbnail-m.jpg",
      "imageDesktop": "/sites/globe.com.ph/files/content/dam/globe/brie/AboutUs/newsroom/common/default-partners-4/default-partners-4-primary-primary-thumbnail-d.jpg",
      "description": "AdSpark Holdings, Inc., now known as Brave Connective Holdings, Inc., aims to revolutionize adtech through AdSpark, Inquiro, m360, and DeepSea.",
      "datePosted": "Mar 13, 2023 | 03:33 PM",
      "titleFromTag": "Partners"
    }
  ]
}
