{
  "status": 200,
  "page": 32,
  "totalPage": 298,
  "range": "373-384",
  "total": 3573,
  "result": [
    {
      "title": "Register Your Globe At Home Prepaid WiFi SIM Now",
      "nonclickable": false,
      "openNewTab": false,
      "borderArticle": "border-color:#0074D9;",
      "borderTopArticle": "border-top-color:#0074D9;",
      "imageListing": "/sites/globe.com.ph/files/content/dam/globe/brie/AboutUs/newsroom/consumer/register-your-globe-at-home-prepaid-wifi-sim-now/corp-thumbnail-listing.jpg",
      "articleUrl": "https://www.globe.com.ph/about-us/newsroom/consumer/register-your-globe-at-home-prepaid-wifi-sim-now.html",
      "columnType": "articles--type-3",
      "typeListing": "article",
      "imageMobile": "/sites/globe.com.ph/files/content/dam/globe/brie/AboutUs/newsroom/consumer/register-your-globe-at-home-prepaid-wifi-sim-now/corp-primary-thumbnail-m.jpg",
      "imageDesktop": "/sites/globe.com.ph/files/content/dam/globe/brie/AboutUs/newsroom/consumer/register-your-globe-at-home-prepaid-wifi-sim-now/corp-primary-thumbnail-d.jpg",
      "description": "Register your Globe At Home Prepaid Wifi SIM before April 26 in compliance with the SIM Registration Act to keep your Home Prepaid WiFi account.",
      "datePosted": "Mar 13, 2023 | 03:00 PM",
      "titleFromTag": "Consumer"
    },
    {
      "title": "Globe Group’s ECpay, Puregold Roll Out Aling Puring App For Sari-Sari Store Owners",
      "nonclickable": false,
      "openNewTab": false,
      "borderArticle": "border-color:#0074D9;",
      "borderTopArticle": "border-top-color:#0074D9;",
      "imageListing": "/sites/globe.com.ph/files/content/dam/globe/brie/About-us/Newsroom/image/Consumer/031323/ecpay-puregold-roll-out-aling-puring-app-thumbnail-listing.jpg",
      "articleUrl": "https://www.globe.com.ph/about-us/newsroom/consumer/ecpay-puregold-roll-out-aling-puring-app.html",
      "columnType": "articles--type-3",
      "typeListing": "article",
      "imageMobile": "/sites/globe.com.ph/files/content/dam/globe/brie/About-us/Newsroom/image/Consumer/031323/ecpay-puregold-roll-out-aling-puring-app-primary-thumbnail-m.jpg",
      "imageDesktop": "/sites/globe.com.ph/files/content/dam/globe/brie/About-us/Newsroom/image/Consumer/031323/ecpay-puregold-roll-out-aling-puring-app-primary-thumbnail-d.jpg",
      "description": "Globe, ECPay, and Puregold roll out the Aling Puring app to digitalize micro, small, and medium-sized enterprises.",
      "datePosted": "Mar 13, 2023 | 11:37 AM",
      "titleFromTag": "Consumer"
    },
    {
      "title": "Globe Cautions Job Seekers vs Online Recruitment Scams Using Brand",
      "nonclickable": false,
      "openNewTab": false,
      "borderArticle": "border-color:#0074D9;",
      "borderTopArticle": "border-top-color:#0074D9;",
      "imageListing": "/sites/globe.com.ph/files/content/dam/globe/brie/AboutUs/newsroom/common/default-total-globe-1/default-1-total-globe-thumbnail-listing.jpg",
      "articleUrl": "https://www.globe.com.ph/about-us/newsroom/corporate/globe-cautions-job-seekers-vs-online-recruitment-scams.html",
      "columnType": "articles--type-3",
      "typeListing": "article",
      "imageMobile": "/sites/globe.com.ph/files/content/dam/globe/brie/AboutUs/newsroom/common/default-total-globe-1/default-1-total-globe-primary-thumbnail-m.jpg",
      "imageDesktop": "/sites/globe.com.ph/files/content/dam/globe/brie/AboutUs/newsroom/common/default-total-globe-1/default-1-total-globe-primary-thumbnail-d.jpg",
      "description": "Globe warns the public against recruitment scams on social media, particularly Facebook, that use altered official photos of the company and its employees.",
      "datePosted": "Mar 09, 2023 | 11:42 AM",
      "titleFromTag": "Corporate"
    },
    {
      "title": "Globe Focuses on Capital Efficiency and Optimization for 2023 CAPEX Budget",
      "nonclickable": false,
      "openNewTab": false,
      "borderArticle": "border-color:#0074D9;",
      "borderTopArticle": "border-top-color:#0074D9;",
      "imageListing": "/sites/globe.com.ph/files/content/dam/globe/brie/AboutUs/newsroom/common/default-corporate-tech-3/newsroom-corporate-tech-3-thumbnail-listing.jpg",
      "articleUrl": "https://www.globe.com.ph/about-us/newsroom/corporate/focus-capital-efficiency-optimization-2023-capex-budget.html",
      "columnType": "articles--type-3",
      "typeListing": "article",
      "imageMobile": "/sites/globe.com.ph/files/content/dam/globe/brie/AboutUs/newsroom/common/default-corporate-tech-3/newsroom-corporate-tech-3-primary-thumbnail-m.jpg",
      "imageDesktop": "/sites/globe.com.ph/files/content/dam/globe/brie/AboutUs/newsroom/common/default-corporate-tech-3/newsroom-corporate-tech-3-primary-thumbnail-d.jpg",
      "description": "Globe has announced a capital expenditure (CAPEX) budget of approximately US$1.3 billion this year, a reduction of over 30% from the 2022 record CAPEX spending.",
      "datePosted": "Mar 08, 2023 | 11:00 AM",
      "titleFromTag": "Corporate"
    },
    {
      "title": "Globe Business Fortifies SD-WAN Services with Aruba EdgeConnect",
      "nonclickable": false,
      "openNewTab": false,
      "borderArticle": "border-color:#0074D9;",
      "borderTopArticle": "border-top-color:#0074D9;",
      "imageListing": "/sites/globe.com.ph/files/content/dam/globe/brie/AboutUs/newsroom/business/globe-business-fortifies-sd-wan-services/eg-aruba-thumbnail-listing.jpg",
      "articleUrl": "https://www.globe.com.ph/about-us/newsroom/business/globe-business-fortifies-sd-wan-services.html",
      "columnType": "articles--type-3",
      "typeListing": "article",
      "imageMobile": "/sites/globe.com.ph/files/content/dam/globe/brie/AboutUs/newsroom/business/globe-business-fortifies-sd-wan-services/eg-aruba-primary-thumbnail-m.jpg",
      "imageDesktop": "/sites/globe.com.ph/files/content/dam/globe/brie/AboutUs/newsroom/business/globe-business-fortifies-sd-wan-services/eg-aruba-primary-thumbnail-d.jpg",
      "description": "Globe Business strengthens Software-Defined Wide Area Network (SD-WAN) services with its recent partnership with Aruba EdgeConnect. ",
      "datePosted": "Mar 07, 2023 | 05:00 PM",
      "titleFromTag": "Business"
    },
    {
      "title": "Globe, Givvable Team Up to Promote Sustainability in Supply Chain",
      "nonclickable": false,
      "openNewTab": false,
      "borderArticle": "border-color:#0074D9;",
      "borderTopArticle": "border-top-color:#0074D9;",
      "imageListing": "/sites/globe.com.ph/files/content/dam/globe/brie/AboutUs/newsroom/common/updated/Corporate-globe-thumbnail-listing.jpg",
      "articleUrl": "https://www.globe.com.ph/about-us/newsroom/sustainability/globe-givvable-promote-sustainability.html",
      "columnType": "articles--type-3",
      "typeListing": "article",
      "imageMobile": "/sites/globe.com.ph/files/content/dam/globe/brie/AboutUs/newsroom/common/updated/Corporate-globe-primary-thumbnail-m.jpg",
      "imageDesktop": "/sites/globe.com.ph/files/content/dam/globe/brie/AboutUs/newsroom/common/updated/Corporate-globe-primary-thumbnail-d.jpg",
      "description": "Digital solutions platform Globe recently partnered with givvable, an Australia-based global Artificial Intelligence-powered supplier sustainability platform.",
      "datePosted": "Mar 07, 2023 | 03:54 PM",
      "titleFromTag": "Sustainability"
    },
    {
      "title": "‘Far First Ahead’: Globe’s Pivot from Telco to Techco All about Finding the Big Problems and Solving Them at Scale",
      "nonclickable": false,
      "openNewTab": false,
      "borderArticle": "border-color:#0074D9;",
      "borderTopArticle": "border-top-color:#0074D9;",
      "imageListing": "/sites/globe.com.ph/files/content/dam/globe/brie/AboutUs/newsroom/common/default-corporate-main/newsroom-default-corporate-thumbnail-listing.jpg",
      "articleUrl": "https://www.globe.com.ph/about-us/newsroom/corporate/globe-pivot-telco-techco-finding-big-problems.html",
      "columnType": "articles--type-3",
      "typeListing": "article",
      "imageMobile": "/sites/globe.com.ph/files/content/dam/globe/brie/AboutUs/newsroom/common/default-corporate-main/newsroom-default-corporate-primary-thumbnail-m.jpg",
      "imageDesktop": "/sites/globe.com.ph/files/content/dam/globe/brie/AboutUs/newsroom/common/default-corporate-main/newsroom-default-corporate-primary-thumbnail-d.jpg",
      "description": "Leading digital solutions platform Globe is accelerating its pivot from a traditional telecommunications company to a full-fledged tech enterprise.",
      "datePosted": "Mar 07, 2023 | 01:53 PM",
      "titleFromTag": "Corporate"
    },
    {
      "title": "BTS PH Army Pearls Donates Globe Rewards Points to The Hapag Movement in Celebration of ‘Hobiuary’",
      "nonclickable": false,
      "openNewTab": false,
      "borderArticle": "border-color:#0074D9;",
      "borderTopArticle": "border-top-color:#0074D9;",
      "imageListing": "/sites/globe.com.ph/files/content/dam/globe/brie/AboutUs/newsroom/common/default-events-2/default-event-2-thumbnail-listing.jpg",
      "articleUrl": "https://www.globe.com.ph/about-us/newsroom/sustainability/bts-ph-army-pearls-donates-rewards-points-the-hapag-movement.html",
      "columnType": "articles--type-3",
      "typeListing": "article",
      "imageMobile": "/sites/globe.com.ph/files/content/dam/globe/brie/AboutUs/newsroom/common/default-events-2/default-event-2-primary-thumbnail-m.jpg",
      "imageDesktop": "/sites/globe.com.ph/files/content/dam/globe/brie/AboutUs/newsroom/common/default-events-2/default-event-2-primary-thumbnail-d.jpg",
      "description": "BTS PH Army Pearls donated their Globe Rewards points to The Hapag Movement in celebration of ‘Hobiuary’ to help those suffering from involuntary hunger.",
      "datePosted": "Mar 06, 2023 | 05:08 PM",
      "titleFromTag": "Sustainability"
    },
    {
      "title": "Globe is Most Reliable Mobile Network and Most Sustainability-Driven Network Operator in PH",
      "nonclickable": false,
      "openNewTab": false,
      "borderArticle": "border-color:#0074D9;",
      "borderTopArticle": "border-top-color:#0074D9;",
      "imageListing": "/sites/globe.com.ph/files/content/dam/globe/brie/AboutUs/newsroom/common/default-corporate-main/newsroom-default-corporate-thumbnail-listing.jpg",
      "articleUrl": "https://www.globe.com.ph/about-us/newsroom/corporate/most-sustainability-driven-network-operator-philippines.html",
      "columnType": "articles--type-3",
      "typeListing": "article",
      "imageMobile": "/sites/globe.com.ph/files/content/dam/globe/brie/AboutUs/newsroom/common/default-corporate-main/newsroom-default-corporate-primary-thumbnail-m.jpg",
      "imageDesktop": "/sites/globe.com.ph/files/content/dam/globe/brie/AboutUs/newsroom/common/default-corporate-main/newsroom-default-corporate-primary-thumbnail-d.jpg",
      "description": "Globe has been named the Philippines’ Most Reliable Mobile Network by Ookla®, as well as Most Sustainability-Driven Network Operator by Standard Insights. ",
      "datePosted": "Mar 06, 2023 | 01:53 PM",
      "titleFromTag": "Corporate"
    },
    {
      "title": "Globe Business Aims For A Stronger Bond With Enterprise Partners At GDay 2022",
      "nonclickable": false,
      "openNewTab": false,
      "borderArticle": "border-color:#0074D9;",
      "borderTopArticle": "border-top-color:#0074D9;",
      "imageListing": "/sites/globe.com.ph/files/content/dam/globe/brie/AboutUs/newsroom/business/globe-business-hops-into-the-year-of-the-water-rabbit/sg-cny-thumbnail-listing.jpg",
      "articleUrl": "https://www.globe.com.ph/about-us/newsroom/business/chinoy-tv-festivities-filipino-chinese-msmes.html",
      "columnType": "articles--type-3",
      "typeListing": "article",
      "imageMobile": "/sites/globe.com.ph/files/content/dam/globe/brie/AboutUs/newsroom/business/globe-business-hops-into-the-year-of-the-water-rabbit/sg-cny-primary-thumbnail-m.jpg",
      "imageDesktop": "/sites/globe.com.ph/files/content/dam/globe/brie/AboutUs/newsroom/business/globe-business-hops-into-the-year-of-the-water-rabbit/sg-cny-primary-thumbnail-d.jpg",
      "description": "Globe, in partnership with CHiNOY TV, welcomed the Year of the Water Rabbit with a range of exciting activities for MSMEs in the Filipino-Chinese community.",
      "datePosted": "Mar 03, 2023 | 02:30 PM",
      "titleFromTag": "Business"
    },
    {
      "title": "Asticom Sets Out to Help More Businesses and Job Seekers in 2023, Expands Services to More MSMEs, Startups",
      "nonclickable": false,
      "openNewTab": false,
      "borderArticle": "border-color:#0074D9;",
      "borderTopArticle": "border-top-color:#0074D9;",
      "imageListing": "/sites/globe.com.ph/files/content/dam/globe/brie/AboutUs/newsroom/common/default-partners-6/default-partners-3-thumbnail-listing.jpg",
      "articleUrl": "https://www.globe.com.ph/about-us/newsroom/partners/asticom-expands-services-msmes-startups.html",
      "columnType": "articles--type-3",
      "typeListing": "article",
      "imageMobile": "/sites/globe.com.ph/files/content/dam/globe/brie/AboutUs/newsroom/common/default-partners-6/default-partners-3-primary-thumbnail-m.jpg",
      "imageDesktop": "/sites/globe.com.ph/files/content/dam/globe/brie/AboutUs/newsroom/common/default-partners-6/default-partners-3-primary-thumbnail-d.jpg",
      "description": "Asticom aims to reach more MSMEs, startups here and abroad in 2023.",
      "datePosted": "Mar 03, 2023 | 11:45 AM",
      "titleFromTag": "Partners"
    },
    {
      "title": "Globe & Yondu Fortifies Cybersecurity Through Security Ops Center",
      "nonclickable": false,
      "openNewTab": false,
      "borderArticle": "border-color:#0074D9;",
      "borderTopArticle": "border-top-color:#0074D9;",
      "imageListing": "/sites/globe.com.ph/files/content/dam/globe/brie/AboutUs/newsroom/business/globe-yondu-fortifies-cybersecurity-soc/eg-globexyondu-thumbnail-listing.jpg",
      "articleUrl": "https://www.globe.com.ph/about-us/newsroom/business/globe-yondu-fortifies-cybersecurity-soc.html",
      "columnType": "articles--type-3",
      "typeListing": "article",
      "imageMobile": "/sites/globe.com.ph/files/content/dam/globe/brie/AboutUs/newsroom/business/globe-yondu-fortifies-cybersecurity-soc/eg-globexyondu-primary-thumbnail-m.jpg",
      "imageDesktop": "/sites/globe.com.ph/files/content/dam/globe/brie/AboutUs/newsroom/business/globe-yondu-fortifies-cybersecurity-soc/eg-globexyondu-primary-thumbnail-d.jpg",
      "description": "Globe and Yondu strengthens cybersecurity by officially launching a dedicated Security Operations Center (SOC).",
      "datePosted": "Mar 02, 2023 | 03:00 PM",
      "titleFromTag": "Business"
    }
  ]
}
