{
  "status": 200,
  "page": 33,
  "totalPage": 298,
  "range": "385-396",
  "total": 3573,
  "result": [
    {
      "title": "Globe & Lynk Make History with First-Ever LEO Satellite to Mobile Connectivity Trial in PH",
      "nonclickable": false,
      "openNewTab": false,
      "borderArticle": "border-color:#0074D9;",
      "borderTopArticle": "border-top-color:#0074D9;",
      "imageListing": "/sites/globe.com.ph/files/content/dam/globe/brie/AboutUs/newsroom/common/default-corporate-5/corp-thumbnail-listing.jpg",
      "articleUrl": "https://www.globe.com.ph/about-us/newsroom/corporate/globe-lynk-first-ever-leo-satellite.html",
      "columnType": "articles--type-3",
      "typeListing": "article",
      "imageMobile": "/sites/globe.com.ph/files/content/dam/globe/brie/AboutUs/newsroom/common/default-corporate-5/corp-primary-thumbnail-m.jpg",
      "imageDesktop": "/sites/globe.com.ph/files/content/dam/globe/brie/AboutUs/newsroom/common/default-corporate-5/corp-primary-thumbnail-d.jpg",
      "description": "Globe has made history by becoming the first company in the country to test Low Earth Orbit (LEO) satellite connectivity for Short Messaging Service (SMS).",
      "datePosted": "Mar 02, 2023 | 10:50 AM",
      "titleFromTag": "Corporate"
    },
    {
      "title": "The Hapag Movement Raises ₱13.5M in Donations to Fight Involuntary Hunger, Globe Reiterates Call for Support",
      "nonclickable": false,
      "openNewTab": false,
      "borderArticle": "border-color:#0074D9;",
      "borderTopArticle": "border-top-color:#0074D9;",
      "imageListing": "/sites/globe.com.ph/files/content/dam/globe/brie/AboutUs/newsroom/sustainability/join-the-hapag-movement/Newsroom-sustainability-hapag-movement-relieve-hunger-thumbnail-listing.jpg",
      "articleUrl": "https://www.globe.com.ph/about-us/newsroom/sustainability/the-hapag-movement-raises-millions-donations.html",
      "columnType": "articles--type-3",
      "typeListing": "article",
      "imageMobile": "/sites/globe.com.ph/files/content/dam/globe/brie/AboutUs/newsroom/sustainability/join-the-hapag-movement/newsroom-sustainability-hapag-movement-relieve-hunger-primary-thumbnail-m5.jpg",
      "imageDesktop": "/sites/globe.com.ph/files/content/dam/globe/brie/AboutUs/newsroom/sustainability/join-the-hapag-movement/Newsroom-sustainability-hapag-movement-relieve-hunger-primary-thumbnail-d.jpg",
      "description": "Globe’s The Hapag Movement has raised over ₱13.5 million worth of donations to combat involuntary hunger in the Philippines since its launch in the year 2022.",
      "datePosted": "Mar 01, 2023 | 02:01 PM",
      "titleFromTag": "Sustainability"
    },
    {
      "title": "Globe Honors Robinsons Supermarket Corp as Most Outstanding Key Account Partner for 2022",
      "nonclickable": false,
      "openNewTab": false,
      "borderArticle": "border-color:#0074D9;",
      "borderTopArticle": "border-top-color:#0074D9;",
      "imageListing": "/sites/globe.com.ph/files/content/dam/globe/brie/AboutUs/newsroom/common/default-corporate-4/corp-listing-thumbnail.jpg",
      "articleUrl": "https://www.globe.com.ph/about-us/newsroom/sustainability/globe-honors-robinsons-supermarket-corp.html",
      "columnType": "articles--type-3",
      "typeListing": "article",
      "imageMobile": "/sites/globe.com.ph/files/content/dam/globe/brie/AboutUs/newsroom/common/default-corporate-4/corp-primary-banner-m.jpg",
      "imageDesktop": "/sites/globe.com.ph/files/content/dam/globe/brie/AboutUs/newsroom/common/default-corporate-4/corp-primary-thumbnail.jpg",
      "description": "Globe honors Robinsons Supermarket Corporation as its Most Outstanding Account Partner for 2022, shows support to achieving growth in their respective fields.",
      "datePosted": "Mar 01, 2023 | 11:42 AM",
      "titleFromTag": "Sustainability"
    },
    {
      "title": "Globe’s Diversification Strategy Pays off with Record-High Non-telco Revenues in 2022",
      "nonclickable": false,
      "openNewTab": false,
      "borderArticle": "border-color:#0074D9;",
      "borderTopArticle": "border-top-color:#0074D9;",
      "imageListing": "/sites/globe.com.ph/files/content/dam/globe/brie/AboutUs/newsroom/common/default-9/default-corporate-4-thumbnail-listing.jpg",
      "articleUrl": "https://www.globe.com.ph/about-us/newsroom/corporate/record-high-non-telco-revenues-2022.html",
      "columnType": "articles--type-3",
      "typeListing": "article",
      "imageMobile": "/sites/globe.com.ph/files/content/dam/globe/brie/AboutUs/newsroom/common/default-9/default-corporate-4-primary-thumbnail-m.jpg",
      "imageDesktop": "/sites/globe.com.ph/files/content/dam/globe/brie/AboutUs/newsroom/common/default-9/default-corporate-4-primary-thumbnail-d.jpg",
      "description": "Globe continues to expand its beyond-telco initiatives with a growing portfolio of digital companies, leading to record-high non-telco revenues of ₱4.2 billion.",
      "datePosted": "Feb 28, 2023 | 01:59 PM",
      "titleFromTag": "Corporate"
    },
    {
      "title": "Finally, Roaming Like a Local is Possible with the All-New Globe GoRoam",
      "nonclickable": false,
      "openNewTab": false,
      "borderArticle": "border-color:#0074D9;",
      "borderTopArticle": "border-top-color:#0074D9;",
      "imageListing": "/sites/globe.com.ph/files/content/dam/globe/brie/AboutUs/newsroom/consumer/roaming-like-a-local/Newsroom-International-Default-Images-Solo-Travel-with-mobile-1-thumbnail-listing.jpg",
      "articleUrl": "https://www.globe.com.ph/about-us/newsroom/consumer/roaming-like-a-local-globe-goroam.html",
      "columnType": "articles--type-3",
      "typeListing": "article",
      "imageMobile": "/sites/globe.com.ph/files/content/dam/globe/brie/AboutUs/newsroom/consumer/roaming-like-a-local/Newsroom-International-Default-Images-Solo-Travel-with-mobile-1-primary-thumbnail-m.jpg",
      "imageDesktop": "/sites/globe.com.ph/files/content/dam/globe/brie/AboutUs/newsroom/consumer/roaming-like-a-local/Newsroom-International-Default-Images-Solo-Travel-with-mobile-1-primary-thumbnail-d.jpg",
      "description": "Roam like a local and skip the hassle of switching SIMS with our newest GoRoam promos exclusive in Hong Kong, Thailand, and Taiwan.",
      "datePosted": "Feb 28, 2023 | 11:37 AM",
      "titleFromTag": "Consumer"
    },
    {
      "title": "Philippine Fintech Leader GCash Joins Plenary at Mobile World Congress",
      "nonclickable": false,
      "openNewTab": false,
      "borderArticle": "border-color:#0074D9;",
      "borderTopArticle": "border-top-color:#0074D9;",
      "imageListing": "/sites/globe.com.ph/files/content/dam/globe/brie/AboutUs/newsroom/corporate/philippine-fintech-leader-gcash-joins-plenary-at-mobile-world-congress/corp-gcash-thumbnail-listing.jpg",
      "articleUrl": "https://www.globe.com.ph/about-us/newsroom/corporate/gcash-joins-plenary-mobile-world-congress.html",
      "columnType": "articles--type-3",
      "typeListing": "article",
      "imageMobile": "/sites/globe.com.ph/files/content/dam/globe/brie/AboutUs/newsroom/corporate/philippine-fintech-leader-gcash-joins-plenary-at-mobile-world-congress/corp-gcash-primary-thumbnail-m.jpg",
      "imageDesktop": "/sites/globe.com.ph/files/content/dam/globe/brie/AboutUs/newsroom/corporate/philippine-fintech-leader-gcash-joins-plenary-at-mobile-world-congress/corp-gcash-primary-thumbnail-d.jpg",
      "description": "GCash joins key speakers at the plenary of the Mobile World Congress in Barcelona as its President & CEO Martha Sazon delivers a speech on evolving customer.",
      "datePosted": "Feb 28, 2023 | 09:05 AM",
      "titleFromTag": "Corporate"
    },
    {
      "title": "Globe Group Banners Pivot from Telco to Techco at Mobile World Congress in Barcelona, CEO Cu Leads Delegation",
      "nonclickable": false,
      "openNewTab": false,
      "borderArticle": "border-color:#0074D9;",
      "borderTopArticle": "border-top-color:#0074D9;",
      "imageListing": "/sites/globe.com.ph/files/content/dam/globe/brie/AboutUs/newsroom/common/default-corporate-main/newsroom-default-corporate-thumbnail-listing.jpg",
      "articleUrl": "https://www.globe.com.ph/about-us/newsroom/corporate/pivot-from-telco-to-techco-mwc.html",
      "columnType": "articles--type-3",
      "typeListing": "article",
      "imageMobile": "/sites/globe.com.ph/files/content/dam/globe/brie/AboutUs/newsroom/common/default-corporate-main/newsroom-default-corporate-primary-thumbnail-m.jpg",
      "imageDesktop": "/sites/globe.com.ph/files/content/dam/globe/brie/AboutUs/newsroom/common/default-corporate-main/newsroom-default-corporate-primary-thumbnail-d.jpg",
      "description": "The Globe Group will spotlight its shift from telco to techco at the Mobile World Congress (MWC) this month, led by its visionary President and CEO Ernest Cu.",
      "datePosted": "Feb 27, 2023 | 01:53 PM",
      "titleFromTag": "Corporate"
    },
    {
      "title": "Globe Records 3.9M Devices Connected On 5G Network; Installs 2,267 New 5G Sites In 2022",
      "nonclickable": false,
      "openNewTab": false,
      "borderArticle": "border-color:#0074D9;",
      "borderTopArticle": "border-top-color:#0074D9;",
      "imageListing": "/sites/globe.com.ph/files/content/dam/globe/brie/AboutUs/newsroom/common/default-corporate-5/corp-thumbnail-listing.jpg",
      "articleUrl": "https://www.globe.com.ph/about-us/newsroom/corporate/million-devices-connected-5g-network-2022.html",
      "columnType": "articles--type-3",
      "typeListing": "article",
      "imageMobile": "/sites/globe.com.ph/files/content/dam/globe/brie/AboutUs/newsroom/common/default-corporate-5/corp-primary-thumbnail-m.jpg",
      "imageDesktop": "/sites/globe.com.ph/files/content/dam/globe/brie/AboutUs/newsroom/common/default-corporate-5/corp-primary-thumbnail-d.jpg",
      "description": "Globe recorded over 3.9 million devices connected to its 5G network and installed 2,267 new 5G sites in December 2022.",
      "datePosted": "Feb 24, 2023 | 09:05 AM",
      "titleFromTag": "Corporate"
    },
    {
      "title": "February 2023 Updates: Globe SIM Registration Portal",
      "nonclickable": false,
      "openNewTab": false,
      "borderArticle": "border-color:#0074D9;",
      "borderTopArticle": "border-top-color:#0074D9;",
      "imageListing": "/sites/globe.com.ph/files/content/dam/globe/brie/AboutUs/newsroom/common/default-total-globe-2/newsroom-total-globe-default-2-thumbnail-listing.jpg",
      "articleUrl": "https://www.globe.com.ph/about-us/newsroom/corporate/sim-registration-february-2023.html",
      "columnType": "articles--type-3",
      "typeListing": "article",
      "imageMobile": "/sites/globe.com.ph/files/content/dam/globe/brie/AboutUs/newsroom/common/default-total-globe-2/newsroom-total-globe-default-2-primary-thumbnail-m.jpg",
      "imageDesktop": "/sites/globe.com.ph/files/content/dam/globe/brie/AboutUs/newsroom/common/default-total-globe-2/newsroom-total-globe-default-2-primary-thumbnail-d.jpg",
      "description": "Read the February 2023 updates on Globe's SIM Registration here.",
      "datePosted": "Feb 23, 2023 | 02:00 PM",
      "titleFromTag": "Corporate"
    },
    {
      "title": "Globe, Rotary Club of Makati Business District Seal Partnership for The Hapag Movement",
      "nonclickable": false,
      "openNewTab": false,
      "borderArticle": "border-color:#0074D9;",
      "borderTopArticle": "border-top-color:#0074D9;",
      "imageListing": "/sites/globe.com.ph/files/content/dam/globe/brie/AboutUs/newsroom/common/default-partners-5/default-partners-3-thumbnail-listing.jpg",
      "articleUrl": "https://www.globe.com.ph/about-us/newsroom/sustainability/globe-rcmbd-partnership-the-hapag-movement.html",
      "columnType": "articles--type-3",
      "typeListing": "article",
      "imageMobile": "/sites/globe.com.ph/files/content/dam/globe/brie/AboutUs/newsroom/common/default-partners-5/default-partners-3-primary-thumbnail-m.jpg",
      "imageDesktop": "/sites/globe.com.ph/files/content/dam/globe/brie/AboutUs/newsroom/common/default-partners-5/default-partners-3-primary-thumbnail-d.jpg",
      "description": "Globe signed a 4-year partnership with the Rotary Club of Makati Business District (RCMBD) to raise funds for its hunger alleviation program The Hapag Movement.",
      "datePosted": "Feb 22, 2023 | 11:05 AM",
      "titleFromTag": "Sustainability"
    },
    {
      "title": "Globe’s 2022 Mobile Business Growth Is Second Highest on Record, Driven by Mobile Data",
      "nonclickable": false,
      "openNewTab": false,
      "borderArticle": "border-color:#0074D9;",
      "borderTopArticle": "border-top-color:#0074D9;",
      "imageListing": "/sites/globe.com.ph/files/content/dam/globe/brie/AboutUs/newsroom/common/default-corporate-11/corp-thumbnail-listing.jpg",
      "articleUrl": "https://www.globe.com.ph/about-us/newsroom/corporate/2022-mobile-business-growth.html",
      "columnType": "articles--type-3",
      "typeListing": "article",
      "imageMobile": "/sites/globe.com.ph/files/content/dam/globe/brie/AboutUs/newsroom/common/default-corporate-11/corp-primary-thumbnail-m.jpg",
      "imageDesktop": "/sites/globe.com.ph/files/content/dam/globe/brie/AboutUs/newsroom/common/default-corporate-11/corp-primary-thumbnail-d.jpg",
      "description": "Globe recorded the highest growth in its mobile business last year, with revenues of ₱107.5 billion, driven by the increasing demand for mobile data services.",
      "datePosted": "Feb 22, 2023 | 09:14 AM",
      "titleFromTag": "Corporate"
    },
    {
      "title": "GCash Among Top 10 Apps In PH In 2022 – Data.Ai",
      "nonclickable": false,
      "openNewTab": false,
      "borderArticle": "border-color:#0074D9;",
      "borderTopArticle": "border-top-color:#0074D9;",
      "imageListing": "/sites/globe.com.ph/files/content/dam/globe/brie/AboutUs/newsroom/common/default-mobile-3/Newsroom-Total-Globe-Default-Images-Mobile-3-thumbnail-listing.jpg",
      "articleUrl": "https://www.globe.com.ph/about-us/newsroom/corporate/gcash-among-top-10-apps-in-ph.html",
      "columnType": "articles--type-3",
      "typeListing": "article",
      "imageMobile": "/sites/globe.com.ph/files/content/dam/globe/brie/AboutUs/newsroom/common/default-mobile-3/Newsroom-Total-Globe-Default-Images-Mobile-3-primary-thumbnail-m.jpg",
      "imageDesktop": "/sites/globe.com.ph/files/content/dam/globe/brie/AboutUs/newsroom/common/default-mobile-3/Newsroom-Total-Globe-Default-Images-Mobile-3-primary-thumbnail-d.jpg",
      "description": "GCash is among the top 10 apps in the Philippines in four categories, according to the 2022 State of Mobile report of data.ai ",
      "datePosted": "Feb 21, 2023 | 09:14 AM",
      "titleFromTag": "Corporate"
    }
  ]
}
