{
  "status": 200,
  "page": 34,
  "totalPage": 298,
  "range": "397-408",
  "total": 3573,
  "result": [
    {
      "title": "Asticom Recognized for People-Focused Initiatives with Great Place to Work® Certification",
      "nonclickable": false,
      "openNewTab": false,
      "borderArticle": "border-color:#0074D9;",
      "borderTopArticle": "border-top-color:#0074D9;",
      "imageListing": "/sites/globe.com.ph/files/content/dam/globe/brie/AboutUs/newsroom/common/default-partners-4/default-partners-4-primary-thumbnail-listing.jpg",
      "articleUrl": "https://www.globe.com.ph/about-us/newsroom/partners/asticom-great-place-to-work-certification.html",
      "columnType": "articles--type-3",
      "typeListing": "article",
      "imageMobile": "/sites/globe.com.ph/files/content/dam/globe/brie/AboutUs/newsroom/common/default-partners-4/default-partners-4-primary-primary-thumbnail-m.jpg",
      "imageDesktop": "/sites/globe.com.ph/files/content/dam/globe/brie/AboutUs/newsroom/common/default-partners-4/default-partners-4-primary-primary-thumbnail-d.jpg",
      "description": "Asticom Technology has achieved the prestigious Great Place to Work® certification in the Philippines for its people-focused initiatives and programs.",
      "datePosted": "Feb 17, 2023 | 03:33 PM",
      "titleFromTag": "Partners"
    },
    {
      "title": "Globe Reaches Historic High CAPEX of ₱101.4B in 2022",
      "nonclickable": false,
      "openNewTab": false,
      "borderArticle": "border-color:#0074D9;",
      "borderTopArticle": "border-top-color:#0074D9;",
      "imageListing": "/sites/globe.com.ph/files/content/dam/globe/brie/AboutUs/newsroom/common/default-9/default-corporate-4-thumbnail-listing.jpg",
      "articleUrl": "https://www.globe.com.ph/about-us/newsroom/corporate/globe-reaches-historic-high-capex-2022.html",
      "columnType": "articles--type-3",
      "typeListing": "article",
      "imageMobile": "/sites/globe.com.ph/files/content/dam/globe/brie/AboutUs/newsroom/common/default-9/default-corporate-4-primary-thumbnail-m.jpg",
      "imageDesktop": "/sites/globe.com.ph/files/content/dam/globe/brie/AboutUs/newsroom/common/default-9/default-corporate-4-primary-thumbnail-d.jpg",
      "description": "Leading digital solutions platform Globe closed 2022 with a record-high capital expenditure (CAPEX) of ₱101.4 billion, 9% above the previous year’s figures.",
      "datePosted": "Feb 17, 2023 | 09:14 AM",
      "titleFromTag": "Corporate"
    },
    {
      "title": "Revving Up Talent: Globe, AWS Collaborate on Inter-university DeepRacer League",
      "nonclickable": false,
      "openNewTab": false,
      "borderArticle": "border-color:#0074D9;",
      "borderTopArticle": "border-top-color:#0074D9;",
      "imageListing": "/sites/globe.com.ph/files/content/dam/globe/brie/AboutUs/newsroom/common/default-corporate-main/newsroom-default-corporate-thumbnail-listing.jpg",
      "articleUrl": "https://www.globe.com.ph/about-us/newsroom/corporate/globe-aws-collaborate-on-inter-university-deepracer-league.html",
      "columnType": "articles--type-3",
      "typeListing": "article",
      "imageMobile": "/sites/globe.com.ph/files/content/dam/globe/brie/AboutUs/newsroom/common/default-corporate-main/newsroom-default-corporate-primary-thumbnail-m.jpg",
      "imageDesktop": "/sites/globe.com.ph/files/content/dam/globe/brie/AboutUs/newsroom/common/default-corporate-main/newsroom-default-corporate-primary-thumbnail-d.jpg",
      "description": "Globe recently collaborated with Amazon Web Services (AWS) to host the inter-university AWS DeepRacer League.",
      "datePosted": "Feb 16, 2023 | 03:33 PM",
      "titleFromTag": "Corporate"
    },
    {
      "title": "Globe Connects PH With 1,702 New Cell Sites, Builds Over 2,200 New 5G Sites In 2022",
      "nonclickable": false,
      "openNewTab": false,
      "borderArticle": "border-color:#0074D9;",
      "borderTopArticle": "border-top-color:#0074D9;",
      "imageListing": "/sites/globe.com.ph/files/content/dam/globe/brie/About-us/Newsroom/image/Corporate/021622/globe-connects-ph-with-new-5g-sites-thumbnail-listing.jpg",
      "articleUrl": "https://www.globe.com.ph/about-us/newsroom/corporate/globe-connects-ph-with-new-5g-sites.html",
      "columnType": "articles--type-3",
      "typeListing": "article",
      "imageMobile": "/sites/globe.com.ph/files/content/dam/globe/brie/About-us/Newsroom/image/Corporate/021622/globe-connects-ph-with-new-5g-sites-primary-thumbnail-m.jpg",
      "imageDesktop": "/sites/globe.com.ph/files/content/dam/globe/brie/About-us/Newsroom/image/Corporate/021622/globe-connects-ph-with-new-5g-sites-primary-thumbnail-d.jpg",
      "description": "Globe builds 1,702 new cell sites, upgrades over 13,600 mobile sites, and installs 2,267 new 5G sites across the country in 2022.",
      "datePosted": "Feb 16, 2023 | 03:33 PM",
      "titleFromTag": "Corporate"
    },
    {
      "title": "Globe Engineer Gerhard Tan Receives ASEAN’s 1st Outstanding Young Engineers Award",
      "nonclickable": false,
      "openNewTab": false,
      "borderArticle": "border-color:#0074D9;",
      "borderTopArticle": "border-top-color:#0074D9;",
      "imageListing": "/sites/globe.com.ph/files/content/dam/globe/brie/AboutUs/newsroom/common/default-corporate-10/default-corporate-10-thumbnail-listing.jpg",
      "articleUrl": "https://www.globe.com.ph/about-us/newsroom/corporate/gerhard-tan-receives-outstanding-young-engineers-award.html",
      "columnType": "articles--type-3",
      "typeListing": "article",
      "imageMobile": "/sites/globe.com.ph/files/content/dam/globe/brie/AboutUs/newsroom/common/default-corporate-10/default-corporate-10-primary-thumbnail-m.jpg",
      "imageDesktop": "/sites/globe.com.ph/files/content/dam/globe/brie/AboutUs/newsroom/common/default-corporate-10/default-corporate-10-primary-thumbnail-d.jpg",
      "description": "Globe’s Network Strategy and Technology Enablement Head Gerhard Tan receives ASEAN’s 1st Outstanding Young Engineers Award at the 40th CAFEO held in Cambodia.",
      "datePosted": "Feb 16, 2023 | 02:05 PM",
      "titleFromTag": "Corporate"
    },
    {
      "title": "Globe Pioneers New Postpaid Experience with SIM-Only GPlan Plus & No Lock-up",
      "nonclickable": false,
      "openNewTab": false,
      "borderArticle": "border-color:#0074D9;",
      "borderTopArticle": "border-top-color:#0074D9;",
      "imageListing": "/sites/globe.com.ph/files/content/dam/globe/brie/AboutUs/newsroom/common/default-total-globe-1/default-1-total-globe-thumbnail-listing.jpg",
      "articleUrl": "https://www.globe.com.ph/about-us/newsroom/consumer/globe-pioneers-new-postpaid-experience.html",
      "columnType": "articles--type-3",
      "typeListing": "article",
      "imageMobile": "/sites/globe.com.ph/files/content/dam/globe/brie/AboutUs/newsroom/common/default-total-globe-1/default-1-total-globe-primary-thumbnail-m.jpg",
      "imageDesktop": "/sites/globe.com.ph/files/content/dam/globe/brie/AboutUs/newsroom/common/default-total-globe-1/default-1-total-globe-primary-thumbnail-d.jpg",
      "description": "GPlan Plus is Globe’s response to evolving customer needs, providing value-laden and versatile connectivity options that won’t tie you to a subscription period.",
      "datePosted": "Feb 15, 2023 | 11:42 AM",
      "titleFromTag": "Consumer"
    },
    {
      "title": "Globe Business Bags Back-to-back Awards for Empowering MSMEs Through Digitalization",
      "nonclickable": false,
      "openNewTab": false,
      "borderArticle": "border-color:#0074D9;",
      "borderTopArticle": "border-top-color:#0074D9;",
      "imageListing": "/sites/globe.com.ph/files/content/dam/globe/brie/AboutUs/newsroom/business/cybersecurity-critical-component-customer-service/business-cybersecurity-must-be-a-critical-component-thumbnail-listing.jpg",
      "articleUrl": "https://www.globe.com.ph/about-us/newsroom/business/globe-business-bags-back-to-back-awards.html",
      "columnType": "articles--type-3",
      "typeListing": "article",
      "imageMobile": "/sites/globe.com.ph/files/content/dam/globe/brie/AboutUs/newsroom/business/cybersecurity-critical-component-customer-service/business-cybersecurity-must-be-a-critical-component-primary-thumbnail-m.jpg",
      "imageDesktop": "/sites/globe.com.ph/files/content/dam/globe/brie/AboutUs/newsroom/business/cybersecurity-critical-component-customer-service/business-cybersecurity-must-be-a-critical-component-primary-thumbnail-d.jpg",
      "description": "Globe Business receives back-to-back awards for empowering and supporting MSMEs at the Marketing Excellence Awards 2022. ",
      "datePosted": "Feb 14, 2023 | 03:00 PM",
      "titleFromTag": "Business"
    },
    {
      "title": "Kidapawan City LGU Partners With KonsultaMD To Enhance Healthcare Access For Employees And Community",
      "nonclickable": false,
      "openNewTab": false,
      "borderArticle": "border-color:#0074D9;",
      "borderTopArticle": "border-top-color:#0074D9;",
      "imageListing": "/sites/globe.com.ph/files/content/dam/globe/brie/About-us/Newsroom/image/Partners/021422/kidapawan-city-lgu-konsultamd-to-enhance-healthcare-access-thumbnail-listing.jpg",
      "articleUrl": "https://www.globe.com.ph/about-us/newsroom/partners/kidapawan-city-lgu-konsultamd-to-enhance-healthcare-access.html",
      "columnType": "articles--type-3",
      "typeListing": "article",
      "imageMobile": "/sites/globe.com.ph/files/content/dam/globe/brie/About-us/Newsroom/image/Partners/021422/kidapawan-city-lgu-konsultamd-to-enhance-healthcare-access-primary-thumbnail-m.jpg",
      "imageDesktop": "/sites/globe.com.ph/files/content/dam/globe/brie/About-us/Newsroom/image/Partners/021422/kidapawan-city-lgu-konsultamd-to-enhance-healthcare-access-primary-thumbnail-d.jpg",
      "description": "Kidapawan City LGU Partners tapped KonsultaMD to enhance healthcare access for employees and the community.",
      "datePosted": "Feb 14, 2023 | 11:42 AM",
      "titleFromTag": "Partners"
    },
    {
      "title": "Recognizing Exceptional Stories of Digital Financial Inclusion: GMEA@10 Introduces I-GCashMo Award",
      "nonclickable": false,
      "openNewTab": false,
      "borderArticle": "border-color:#0074D9;",
      "borderTopArticle": "border-top-color:#0074D9;",
      "imageListing": "/sites/globe.com.ph/files/content/dam/globe/brie/AboutUs/newsroom/corporate/globe-media-excellence-awards-10/newsroom-Celebrating-a-decade-of-excellent-storytelling-thumbnail-listing.jpg",
      "articleUrl": "https://www.globe.com.ph/about-us/newsroom/corporate/gmea-10-i-gcashmo-award.html",
      "columnType": "articles--type-3",
      "typeListing": "article",
      "imageMobile": "/sites/globe.com.ph/files/content/dam/globe/brie/AboutUs/newsroom/corporate/globe-media-excellence-awards-10/newsroom-Celebrating-a-decade-of-excellent-storytelling-primary-thumbnail-m.jpg",
      "imageDesktop": "/sites/globe.com.ph/files/content/dam/globe/brie/AboutUs/newsroom/corporate/globe-media-excellence-awards-10/newsroom-Celebrating-a-decade-of-excellent-storytelling-primary-thumbnail-d.jpg",
      "description": "GMEA announces the addition of the I-GCashMo Award to its list of categories for 2023, which recognizes stories demonstrating how GCash impacts everyday.",
      "datePosted": "Feb 10, 2023 | 02:05 PM",
      "titleFromTag": "Corporate"
    },
    {
      "title": "Globe’s E-Grocery App Rappit Sweetens Valentine’s With Lovely Deals!",
      "nonclickable": false,
      "openNewTab": false,
      "borderArticle": "border-color:#0074D9;",
      "borderTopArticle": "border-top-color:#0074D9;",
      "imageListing": "/sites/globe.com.ph/files/content/dam/globe/brie/About-us/Newsroom/image/Consumer/021023/rappit-sweetens-valentines-day-lovely-deals-thumbnail-listing.jpg",
      "articleUrl": "https://www.globe.com.ph/about-us/newsroom/consumer/rappit-sweetens-valentines-day-lovely-deals.html",
      "columnType": "articles--type-3",
      "typeListing": "article",
      "imageMobile": "/sites/globe.com.ph/files/content/dam/globe/brie/About-us/Newsroom/image/Consumer/021023/rappit-sweetens-valentines-day-lovely-deals-primary-thumbnail-m.jpg",
      "imageDesktop": "/sites/globe.com.ph/files/content/dam/globe/brie/About-us/Newsroom/image/Consumer/021023/rappit-sweetens-valentines-day-lovely-deals-primary-thumbnail-d.jpg",
      "description": "Globe’s retail venture Rappit offers discounts and special deals to customers for Valentine’s.",
      "datePosted": "Feb 10, 2023 | 09:12 AM",
      "titleFromTag": "Consumer"
    },
    {
      "title": "Alex Eala Makes Jubilant Homecoming at Globe Tower",
      "nonclickable": false,
      "openNewTab": false,
      "borderArticle": "border-color:#0074D9;",
      "borderTopArticle": "border-top-color:#0074D9;",
      "imageListing": "/sites/globe.com.ph/files/content/dam/globe/brie/AboutUs/newsroom/common/default-corporate-main/newsroom-default-corporate-thumbnail-listing.jpg",
      "articleUrl": "https://www.globe.com.ph/about-us/newsroom/corporate/alex-eala-homecoming-globe-tower.html",
      "columnType": "articles--type-3",
      "typeListing": "article",
      "imageMobile": "/sites/globe.com.ph/files/content/dam/globe/brie/AboutUs/newsroom/common/default-corporate-main/newsroom-default-corporate-primary-thumbnail-m.jpg",
      "imageDesktop": "/sites/globe.com.ph/files/content/dam/globe/brie/AboutUs/newsroom/common/default-corporate-main/newsroom-default-corporate-primary-thumbnail-d.jpg",
      "description": "Alex Eala is finally back home for a brief vacation, carving out time to visit the Globe Tower where she met with the media & reconnected with Globe employees.",
      "datePosted": "Feb 08, 2023 | 03:33 PM",
      "titleFromTag": "Corporate"
    },
    {
      "title": "Globe Business and Mapúa Malayan Digital College Team Up for Enhanced Learning Experiences",
      "nonclickable": false,
      "openNewTab": false,
      "borderArticle": "border-color:#0074D9;",
      "borderTopArticle": "border-top-color:#0074D9;",
      "imageListing": "/sites/globe.com.ph/files/content/dam/globe/brie/AboutUs/newsroom/business/globe-business-mmdc-enhanced-learning-experiences/eg-mmdc-listing-thumbnail.jpg",
      "articleUrl": "https://www.globe.com.ph/about-us/newsroom/business/globe-business-mmdc-enhanced-learning-experiences.html",
      "columnType": "articles--type-3",
      "typeListing": "article",
      "imageMobile": "/sites/globe.com.ph/files/content/dam/globe/brie/AboutUs/newsroom/business/globe-business-mmdc-enhanced-learning-experiences/eg-mmdc-primary-banner-m.jpg",
      "imageDesktop": "/sites/globe.com.ph/files/content/dam/globe/brie/AboutUs/newsroom/business/globe-business-mmdc-enhanced-learning-experiences/eg-mmdc-primary-thumbnail.jpg",
      "description": "Globe Business, Mapúa Malayan Digital College collaborate to provide students with reliable internet connection at home for an enhanced learning experience.",
      "datePosted": "Feb 08, 2023 | 02:00 PM",
      "titleFromTag": "Business"
    }
  ]
}
