{
  "status": 200,
  "page": 35,
  "totalPage": 298,
  "range": "409-420",
  "total": 3573,
  "result": [
    {
      "title": "Best Choice for Streaming: Globe At Home Dominates Netflix Speed Index in 2022 ",
      "nonclickable": false,
      "openNewTab": false,
      "borderArticle": "border-color:#0074D9;",
      "borderTopArticle": "border-top-color:#0074D9;",
      "imageListing": "/sites/globe.com.ph/files/content/dam/globe/brie/AboutUs/newsroom/common/default-10/default-consumer-2-thumbnail-listing.jpg",
      "articleUrl": "https://www.globe.com.ph/about-us/newsroom/consumer/globe-at-home-dominates-netflix-speed-index-2022.html",
      "columnType": "articles--type-3",
      "typeListing": "article",
      "imageMobile": "/sites/globe.com.ph/files/content/dam/globe/brie/AboutUs/newsroom/common/default-10/default-consumer-2-primary-thumbnail-m.jpg",
      "imageDesktop": "/sites/globe.com.ph/files/content/dam/globe/brie/AboutUs/newsroom/common/default-10/default-consumer-2-primary-thumbnail-d.jpg",
      "description": "Globe At Home proves that it is the best choice for streaming as it remains dominant on the Netflix ISP speed index in 2022. ",
      "datePosted": "Feb 08, 2023 | 09:12 AM",
      "titleFromTag": "Consumer"
    },
    {
      "title": "Globe Extends FREE Call, Text, Data Services to Customers in Quake-Hit Turkey",
      "nonclickable": false,
      "openNewTab": false,
      "borderArticle": "border-color:#0074D9;",
      "borderTopArticle": "border-top-color:#0074D9;",
      "imageListing": "/sites/globe.com.ph/files/content/dam/globe/brie/AboutUs/newsroom/common/default-national-emergency-1/corp-thumbnail-listing.jpg",
      "articleUrl": "https://www.globe.com.ph/about-us/newsroom/sustainability/globe-extends-free-services-customers-turkey.html",
      "columnType": "articles--type-3",
      "typeListing": "article",
      "imageMobile": "/sites/globe.com.ph/files/content/dam/globe/brie/AboutUs/newsroom/common/default-national-emergency-1/corp-primary-thumbnail-m.jpg",
      "imageDesktop": "/sites/globe.com.ph/files/content/dam/globe/brie/AboutUs/newsroom/common/default-national-emergency-1/corp-primary-thumbnail-d.jpg",
      "description": "Globe is extending FREE call, text, and data services to customers in Turkey after a massive 7.8-magnitude earthquake struck the southern part of the country.",
      "datePosted": "Feb 08, 2023 | 09:00 AM",
      "titleFromTag": "Sustainability"
    },
    {
      "title": "Bicol University Taps Globe Business to Drive Academe Innovation",
      "nonclickable": false,
      "openNewTab": false,
      "borderArticle": "border-color:#0074D9;",
      "borderTopArticle": "border-top-color:#0074D9;",
      "imageListing": "/sites/globe.com.ph/files/content/dam/globe/brie/AboutUs/newsroom/business/bicol-university-taps-globe-business-drive-academe-innovation/sg-bicol-university-listing-thumbnail.jpg",
      "articleUrl": "https://www.globe.com.ph/about-us/newsroom/business/bicol-university-taps-globe-business-drive-academe-innovation.html",
      "columnType": "articles--type-3",
      "typeListing": "article",
      "imageMobile": "/sites/globe.com.ph/files/content/dam/globe/brie/AboutUs/newsroom/business/bicol-university-taps-globe-business-drive-academe-innovation/sg-bicol-university-primary-banner-m.jpg",
      "imageDesktop": "/sites/globe.com.ph/files/content/dam/globe/brie/AboutUs/newsroom/business/bicol-university-taps-globe-business-drive-academe-innovation/sg-bicol-university-primary-thumbnail.jpg",
      "description": "Bicol University partners with Globe Business to drive academe innovation through M360 and Zoom for Education. ",
      "datePosted": "Feb 07, 2023 | 10:59 AM",
      "titleFromTag": "Business"
    },
    {
      "title": "Globe, Skytower Opens Partnership on Tower Lease",
      "nonclickable": false,
      "openNewTab": false,
      "borderArticle": "border-color:#0074D9;",
      "borderTopArticle": "border-top-color:#0074D9;",
      "imageListing": "/sites/globe.com.ph/files/content/dam/globe/brie/About-us/Newsroom/image/Corporate/020623/corp-globe-skytower-listing-thumbnail.jpg",
      "articleUrl": "https://www.globe.com.ph/about-us/newsroom/corporate/globe-and-skytower-opens-partnership.html",
      "columnType": "articles--type-3",
      "typeListing": "article",
      "imageMobile": "/sites/globe.com.ph/files/content/dam/globe/brie/About-us/Newsroom/image/Corporate/020623/corp-globe-skytower-primary-banner-m.jpg",
      "imageDesktop": "/sites/globe.com.ph/files/content/dam/globe/brie/About-us/Newsroom/image/Corporate/020623/corp-globe-skytower-primary-banner-d.jpg",
      "description": "Tull Traisorat recently hosted a dinner to celebrate the partnership between Globe and Skytowers Infra Inc., a Philippine subsidiary of Thai firm Sky Tower Plc.",
      "datePosted": "Feb 06, 2023 | 03:33 PM",
      "titleFromTag": "Corporate"
    },
    {
      "title": "KonsultaMD Sheds Light on Mental Health with 'I Want To Be Here'",
      "nonclickable": false,
      "openNewTab": false,
      "borderArticle": "border-color:#0074D9;",
      "borderTopArticle": "border-top-color:#0074D9;",
      "imageListing": "/sites/globe.com.ph/files/content/dam/globe/brie/About-us/Newsroom/image/Consumer/KonsultaMD-Sheds-Light-on-Mental-Health/corp-kmd-listing-thumbnail.jpg",
      "articleUrl": "https://www.globe.com.ph/about-us/newsroom/consumer/konsultamd-sheds-light-on-mental-health.html",
      "columnType": "articles--type-3",
      "typeListing": "article",
      "imageMobile": "/sites/globe.com.ph/files/content/dam/globe/brie/About-us/Newsroom/image/Consumer/KonsultaMD-Sheds-Light-on-Mental-Health/corp-kmd-primary-banner-m.jpg",
      "imageDesktop": "/sites/globe.com.ph/files/content/dam/globe/brie/About-us/Newsroom/image/Consumer/KonsultaMD-Sheds-Light-on-Mental-Health/corp-kmd-primary-banner-d.jpg",
      "description": "Leading telehealth service provider KonsultaMD recently hosted a memorable celebration to launch the highly-anticipated mental health song “I Want To Be Here.” ",
      "datePosted": "Feb 06, 2023 | 01:48 PM",
      "titleFromTag": "Consumer"
    },
    {
      "title": "Globe Supports PSAC’s GoDigital Movement",
      "nonclickable": false,
      "openNewTab": false,
      "borderArticle": "border-color:#0074D9;",
      "borderTopArticle": "border-top-color:#0074D9;",
      "imageListing": "/sites/globe.com.ph/files/content/dam/globe/brie/AboutUs/newsroom/common/default-corporate-main/newsroom-default-corporate-thumbnail-listing.jpg",
      "articleUrl": "https://www.globe.com.ph/about-us/newsroom/corporate/globe-supports-psac-godigital-movement.html",
      "columnType": "articles--type-3",
      "typeListing": "article",
      "imageMobile": "/sites/globe.com.ph/files/content/dam/globe/brie/AboutUs/newsroom/common/default-corporate-main/newsroom-default-corporate-primary-thumbnail-m.jpg",
      "imageDesktop": "/sites/globe.com.ph/files/content/dam/globe/brie/AboutUs/newsroom/common/default-corporate-main/newsroom-default-corporate-primary-thumbnail-d.jpg",
      "description": "GDP’s goals are well-aligned with Globe’s programs under the Globe of Good, which seek to bridge the digital gap, ensure online safety, & foster sustainability.",
      "datePosted": "Feb 03, 2023 | 03:33 PM",
      "titleFromTag": "Corporate"
    },
    {
      "title": "Senior Citizen Registers 20-Year-Old Sim At Globe's SIM Registration Assistance Desk In Bacolod",
      "nonclickable": false,
      "openNewTab": false,
      "borderArticle": "border-color:#0074D9;",
      "borderTopArticle": "border-top-color:#0074D9;",
      "imageListing": "/sites/globe.com.ph/files/content/dam/globe/brie/About-us/Newsroom/image/Consumer/020323/senior-citizen-registers-20-year-old-sim-thumbnail-listing.jpg",
      "articleUrl": "https://www.globe.com.ph/about-us/newsroom/consumer/senior-citizen-registers-20-year-old-sim.html",
      "columnType": "articles--type-3",
      "typeListing": "article",
      "imageMobile": "/sites/globe.com.ph/files/content/dam/globe/brie/About-us/Newsroom/image/Consumer/020323/senior-citizen-registers-20-year-old-sim-primary-thumbnail-m.jpg",
      "imageDesktop": "/sites/globe.com.ph/files/content/dam/globe/brie/About-us/Newsroom/image/Consumer/020323/senior-citizen-registers-20-year-old-sim-primary-thumbnail-d.jpg",
      "description": "A 68-year-old woman registers her SIM at Globe’s SIM Registration Assistance Desk in Bacolod, which she has been using for 20 years.",
      "datePosted": "Feb 03, 2023 | 01:48 PM",
      "titleFromTag": "Consumer"
    },
    {
      "title": "FINSI Deploys over 133,000 Fiber Lines to Power Up More Filipino Homes",
      "nonclickable": false,
      "openNewTab": false,
      "borderArticle": "border-color:#0074D9;",
      "borderTopArticle": "border-top-color:#0074D9;",
      "imageListing": "/sites/globe.com.ph/files/content/dam/globe/brie/AboutUs/newsroom/common/default-corporate-5/corp-thumbnail-listing.jpg",
      "articleUrl": "https://www.globe.com.ph/about-us/newsroom/partners/finsi-deploys-fiber-lines-to-power-up-more-filipino-homes.html",
      "columnType": "articles--type-3",
      "typeListing": "article",
      "imageMobile": "/sites/globe.com.ph/files/content/dam/globe/brie/AboutUs/newsroom/common/default-corporate-5/corp-primary-thumbnail-m.jpg",
      "imageDesktop": "/sites/globe.com.ph/files/content/dam/globe/brie/AboutUs/newsroom/common/default-corporate-5/corp-primary-thumbnail-d.jpg",
      "description": "Fiber Infrastructure and Network Services Inc. (FINSI), a subsidiary of Asticom, amplified its fiber rollout last year, deploying more than 133,400 lines.",
      "datePosted": "Feb 03, 2023 | 11:42 AM",
      "titleFromTag": "Partners"
    },
    {
      "title": "Globe & Partners Commission Japanese Firm NTT WE Marine for Last Leg of $150-M PH Submarine Cable Project",
      "nonclickable": false,
      "openNewTab": false,
      "borderArticle": "border-color:#0074D9;",
      "borderTopArticle": "border-top-color:#0074D9;",
      "imageListing": "/sites/globe.com.ph/files/content/dam/globe/brie/AboutUs/newsroom/common/default-partners-4/default-partners-4-primary-thumbnail-listing.jpg",
      "articleUrl": "https://www.globe.com.ph/about-us/newsroom/corporate/globe-partners-commission-japanese-firm-ntt-we-marine.html",
      "columnType": "articles--type-3",
      "typeListing": "article",
      "imageMobile": "/sites/globe.com.ph/files/content/dam/globe/brie/AboutUs/newsroom/common/default-partners-4/default-partners-4-primary-primary-thumbnail-m.jpg",
      "imageDesktop": "/sites/globe.com.ph/files/content/dam/globe/brie/AboutUs/newsroom/common/default-partners-4/default-partners-4-primary-primary-thumbnail-d.jpg",
      "description": "Globe, together with Eastern Communications and InfiniVAN Inc, has commissioned NTT WE Marine of Japan for the last leg of the $150-million PDSCN project.",
      "datePosted": "Feb 01, 2023 | 03:33 PM",
      "titleFromTag": "Corporate"
    },
    {
      "title": "Globe Blocks over 400K Child Porn Links and Sites in 2022",
      "nonclickable": false,
      "openNewTab": false,
      "borderArticle": "border-color:#0074D9;",
      "borderTopArticle": "border-top-color:#0074D9;",
      "imageListing": "/sites/globe.com.ph/files/content/dam/globe/brie/AboutUs/newsroom/common/default-total-globe-4/total-globe-4-thumbnail-listing.jpg",
      "articleUrl": "https://www.globe.com.ph/about-us/newsroom/corporate/globe-blocks-over-400k-child-porn-links-and-sites.html",
      "columnType": "articles--type-3",
      "typeListing": "article",
      "imageMobile": "/sites/globe.com.ph/files/content/dam/globe/brie/AboutUs/newsroom/common/default-total-globe-4/total-globe-4-primary-thumbnail-m.jpg",
      "imageDesktop": "/sites/globe.com.ph/files/content/dam/globe/brie/AboutUs/newsroom/common/default-total-globe-4/total-globe-4-primary-thumbnail-d.jpg",
      "description": "Globe blocked over 400,000 links and malicious websites containing child pornography last year in support of the government’s all-out war against OSAEC.",
      "datePosted": "Feb 01, 2023 | 02:05 PM",
      "titleFromTag": "Corporate"
    },
    {
      "title": "January 2023 Updates: Globe SIM Registration Portal ",
      "nonclickable": false,
      "openNewTab": false,
      "borderArticle": "border-color:#0074D9;",
      "borderTopArticle": "border-top-color:#0074D9;",
      "imageListing": "/sites/globe.com.ph/files/content/dam/globe/brie/AboutUs/newsroom/common/default-total-globe-2/newsroom-total-globe-default-2-thumbnail-listing.jpg",
      "articleUrl": "https://www.globe.com.ph/about-us/newsroom/corporate/sim-registration-january-2023.html",
      "columnType": "articles--type-3",
      "typeListing": "article",
      "imageMobile": "/sites/globe.com.ph/files/content/dam/globe/brie/AboutUs/newsroom/common/default-total-globe-2/newsroom-total-globe-default-2-primary-thumbnail-m.jpg",
      "imageDesktop": "/sites/globe.com.ph/files/content/dam/globe/brie/AboutUs/newsroom/common/default-total-globe-2/newsroom-total-globe-default-2-primary-thumbnail-d.jpg",
      "description": "Read the January 2023 updates on Globe's SIM Registration here. ",
      "datePosted": "Jan 31, 2023 | 02:00 PM",
      "titleFromTag": "Corporate"
    },
    {
      "title": "First in SEA: Globe Pilots New Lens Antenna Technology for Better Customer Experience",
      "nonclickable": false,
      "openNewTab": false,
      "borderArticle": "border-color:#0074D9;",
      "borderTopArticle": "border-top-color:#0074D9;",
      "imageListing": "/sites/globe.com.ph/files/content/dam/globe/brie/AboutUs/newsroom/common/default-corporate-5/corp-thumbnail-listing.jpg",
      "articleUrl": "https://www.globe.com.ph/about-us/newsroom/corporate/globe-pilots-new-lens-antenna-technology.html",
      "columnType": "articles--type-3",
      "typeListing": "article",
      "imageMobile": "/sites/globe.com.ph/files/content/dam/globe/brie/AboutUs/newsroom/common/default-corporate-5/corp-primary-thumbnail-m.jpg",
      "imageDesktop": "/sites/globe.com.ph/files/content/dam/globe/brie/AboutUs/newsroom/common/default-corporate-5/corp-primary-thumbnail-d.jpg",
      "description": "Leading digital solutions platform Globe successfully completed pilot deployments in Southeast Asia of the first multi-beam, multi-band lens antenna technology.",
      "datePosted": "Jan 31, 2023 | 11:42 AM",
      "titleFromTag": "Corporate"
    }
  ]
}
