{
  "status": 200,
  "page": 36,
  "totalPage": 298,
  "range": "421-432",
  "total": 3573,
  "result": [
    {
      "title": "‘I Want To Be Here’:  KonsultaMD, Kiana Valenciano Launch Song to Raise Mental Health Awareness",
      "nonclickable": false,
      "openNewTab": false,
      "borderArticle": "border-color:#0074D9;",
      "borderTopArticle": "border-top-color:#0074D9;",
      "imageListing": "/sites/globe.com.ph/files/content/dam/globe/brie/AboutUs/newsroom/common/default-event-1/Newsroom-Event-Default-Images-Live-Concert-1-thumbnail-listing.jpg",
      "articleUrl": "https://www.globe.com.ph/about-us/newsroom/corporate/i-want-to-be-here-song-raise-mental-health-awareness.html",
      "columnType": "articles--type-3",
      "typeListing": "article",
      "imageMobile": "/sites/globe.com.ph/files/content/dam/globe/brie/AboutUs/newsroom/common/default-event-1/Newsroom-Event-Default-Images-Live-Concert-1-primary-thumbnail-m.jpg",
      "imageDesktop": "/sites/globe.com.ph/files/content/dam/globe/brie/AboutUs/newsroom/common/default-event-1/Newsroom-Event-Default-Images-Live-Concert-1-primary-thumbnail-d.jpg",
      "description": "KonsultaMD teamed up with some of the country's hottest artists Kiana Valenciano, DJ Nix Damn P, and Curtismith, to raise mental health awareness through music.",
      "datePosted": "Jan 30, 2023 | 01:48 PM",
      "titleFromTag": "Corporate"
    },
    {
      "title": "Prititit! Globe, WeAreAyala Business Club-Cebu Elevate Sinulog Experience with BisAyala Passion City",
      "nonclickable": false,
      "openNewTab": false,
      "borderArticle": "border-color:#0074D9;",
      "borderTopArticle": "border-top-color:#0074D9;",
      "imageListing": "/sites/globe.com.ph/files/content/dam/globe/brie/AboutUs/newsroom/common/default-event-2/default-event-2-thumbnail-listing.jpg",
      "articleUrl": "https://www.globe.com.ph/about-us/newsroom/consumer/globe-weareayala-elevate-sinulog-experience.html",
      "columnType": "articles--type-3",
      "typeListing": "article",
      "imageMobile": "/sites/globe.com.ph/files/content/dam/globe/brie/AboutUs/newsroom/common/default-event-2/default-event-2-primary-thumbnail-m.jpg",
      "imageDesktop": "/sites/globe.com.ph/files/content/dam/globe/brie/AboutUs/newsroom/common/default-event-2/default-event-2-primary-thumbnail-d.jpg",
      "description": "Globe and the WeAreAyala Business Club-Cebu brought the recent Sinulog Festival to a whole new level with BisAyala Passion City.",
      "datePosted": "Jan 27, 2023 | 01:48 PM",
      "titleFromTag": "Consumer"
    },
    {
      "title": "Globe Receives Prestigious 5 Golden Arrow Award for Corporate Governance",
      "nonclickable": false,
      "openNewTab": false,
      "borderArticle": "border-color:#0074D9;",
      "borderTopArticle": "border-top-color:#0074D9;",
      "imageListing": "/sites/globe.com.ph/files/content/dam/globe/brie/AboutUs/newsroom/common/updated/Corporate-globe-thumbnail-listing.jpg",
      "articleUrl": "https://www.globe.com.ph/about-us/newsroom/corporate/globe-receives-5-golden-arrow-award.html",
      "columnType": "articles--type-3",
      "typeListing": "article",
      "imageMobile": "/sites/globe.com.ph/files/content/dam/globe/brie/AboutUs/newsroom/common/updated/Corporate-globe-primary-thumbnail-m.jpg",
      "imageDesktop": "/sites/globe.com.ph/files/content/dam/globe/brie/AboutUs/newsroom/common/updated/Corporate-globe-primary-thumbnail-d.jpg",
      "description": "Globe emerged as the only telco to win the prestigious 5 Golden Arrow Award from the Institute of Corporate Directors at the 2022 Golden Arrow awards ceremony.",
      "datePosted": "Jan 27, 2023 | 11:42 AM",
      "titleFromTag": "Corporate"
    },
    {
      "title": "Join Globe, NYMA, and Stages for a Night to Remember with Christian Bautista’s 20th Anniversary Concert",
      "nonclickable": false,
      "openNewTab": false,
      "borderArticle": "border-color:#0074D9;",
      "borderTopArticle": "border-top-color:#0074D9;",
      "imageListing": "/sites/globe.com.ph/files/content/dam/globe/brie/AboutUs/newsroom/common/default-event-1/Newsroom-Event-Default-Images-Live-Concert-1-thumbnail-listing.jpg",
      "articleUrl": "https://www.globe.com.ph/about-us/newsroom/consumer/a-night-to-remember-with-christian-bautista.html",
      "columnType": "articles--type-3",
      "typeListing": "article",
      "imageMobile": "/sites/globe.com.ph/files/content/dam/globe/brie/AboutUs/newsroom/common/default-event-1/Newsroom-Event-Default-Images-Live-Concert-1-primary-thumbnail-m.jpg",
      "imageDesktop": "/sites/globe.com.ph/files/content/dam/globe/brie/AboutUs/newsroom/common/default-event-1/Newsroom-Event-Default-Images-Live-Concert-1-primary-thumbnail-d.jpg",
      "description": "Globe, in collaboration with NYMA and Stages, presents Christian Bautista’s 20th Anniversary Concert “The Way You Look At Me.” ",
      "datePosted": "Jan 26, 2023 | 01:48 PM",
      "titleFromTag": "Consumer"
    },
    {
      "title": "Globe Deactivates, Blacklists More than 50,000 SIMs Linked to Fraud in 2022",
      "nonclickable": false,
      "openNewTab": false,
      "borderArticle": "border-color:#0074D9;",
      "borderTopArticle": "border-top-color:#0074D9;",
      "imageListing": "/sites/globe.com.ph/files/content/dam/globe/brie/AboutUs/newsroom/common/default-corporate-13/corp-listing-thumbnail.jpg",
      "articleUrl": "https://www.globe.com.ph/about-us/newsroom/corporate/globe-deactivated-blacklisted-sims-linked-fraud.html",
      "columnType": "articles--type-3",
      "typeListing": "article",
      "imageMobile": "/sites/globe.com.ph/files/content/dam/globe/brie/AboutUs/newsroom/common/default-corporate-13/corp-primary-banner-m.jpg",
      "imageDesktop": "/sites/globe.com.ph/files/content/dam/globe/brie/AboutUs/newsroom/common/default-corporate-13/corp-primary-thumbnail.jpg",
      "description": "Globe deactivated & blacklisted more than 50,000 SIMs last year as it continued to intensify consumer protection initiatives amid the cases of online fraud.",
      "datePosted": "Jan 26, 2023 | 11:42 AM",
      "titleFromTag": "Corporate"
    },
    {
      "title": "Globe Champions Sustainable Transport, Pilots Electric Vehicles for Employee Shuttle Service",
      "nonclickable": false,
      "openNewTab": false,
      "borderArticle": "border-color:#0074D9;",
      "borderTopArticle": "border-top-color:#0074D9;",
      "imageListing": "/sites/globe.com.ph/files/content/dam/globe/brie/AboutUs/newsroom/sustainability/globe-champions-sustainable-transport/corp-employeeshuttleservice-thumbnail-listing.jpg",
      "articleUrl": "https://www.globe.com.ph/about-us/newsroom/sustainability/globe-and-get-launch-electric-powered-shuttles.html",
      "columnType": "articles--type-3",
      "typeListing": "article",
      "imageMobile": "/sites/globe.com.ph/files/content/dam/globe/brie/AboutUs/newsroom/sustainability/globe-champions-sustainable-transport/corp-employeeshuttleservice-primary-thumbnail-m.jpg",
      "imageDesktop": "/sites/globe.com.ph/files/content/dam/globe/brie/AboutUs/newsroom/sustainability/globe-champions-sustainable-transport/corp-employeeshuttleservice-primary-thumbnail-d.jpg",
      "description": "Globe has partnered with GET to launch electric-powered shuttles for its employees this January to reduce fuel consumption and greenhouse gas (GHG) emissions.",
      "datePosted": "Jan 25, 2023 | 09:00 AM",
      "titleFromTag": "Sustainability"
    },
    {
      "title": "Enchanted Kingdom Installs WiFi Powered by Globe for a Magical Guest Experience",
      "nonclickable": false,
      "openNewTab": false,
      "borderArticle": "border-color:#0074D9;",
      "borderTopArticle": "border-top-color:#0074D9;",
      "imageListing": "/sites/globe.com.ph/files/content/dam/globe/brie/AboutUs/newsroom/business/enchanted-kingdom-installs-wifi-powered-by-globe/eg-ek-thumbnail-listing.jpg",
      "articleUrl": "https://www.globe.com.ph/about-us/newsroom/business/enchanted-kingdom-installs-wifi-powered-by-globe.html",
      "columnType": "articles--type-3",
      "typeListing": "article",
      "imageMobile": "/sites/globe.com.ph/files/content/dam/globe/brie/AboutUs/newsroom/business/enchanted-kingdom-installs-wifi-powered-by-globe/eg-ek-primary-thumbnail-m.jpg",
      "imageDesktop": "/sites/globe.com.ph/files/content/dam/globe/brie/AboutUs/newsroom/business/enchanted-kingdom-installs-wifi-powered-by-globe/eg-ek-primary-thumbnail-d.jpg",
      "description": "Enchanted Kingdom partners with Globe Business in installing reliable high-speed Managed WiFi.",
      "datePosted": "Jan 25, 2023 | 08:39 AM",
      "titleFromTag": "Business"
    },
    {
      "title": "Globe Bags Back-To-Back Industry Champion of the Year Award from ACES",
      "nonclickable": false,
      "openNewTab": false,
      "borderArticle": "border-color:#0074D9;",
      "borderTopArticle": "border-top-color:#0074D9;",
      "imageListing": "/sites/globe.com.ph/files/content/dam/globe/brie/AboutUs/newsroom/common/default-corporate-4/corp-listing-thumbnail.jpg",
      "articleUrl": "https://www.globe.com.ph/about-us/newsroom/corporate/back-to-back-industry-champion-of-the-year-aces.html",
      "columnType": "articles--type-3",
      "typeListing": "article",
      "imageMobile": "/sites/globe.com.ph/files/content/dam/globe/brie/AboutUs/newsroom/common/default-corporate-4/corp-primary-banner-m.jpg",
      "imageDesktop": "/sites/globe.com.ph/files/content/dam/globe/brie/AboutUs/newsroom/common/default-corporate-4/corp-primary-thumbnail.jpg",
      "description": "Globe has been named Industry Champion of the Year by the Asia Corporate Excellence & Sustainability Awards (ACES) for the second straight year.",
      "datePosted": "Jan 24, 2023 | 11:42 AM",
      "titleFromTag": "Corporate"
    },
    {
      "title": "Globe Blocks Record High 2.72-B Spam, Scam SMS in 2022, More than Double vs 2021",
      "nonclickable": false,
      "openNewTab": false,
      "borderArticle": "border-color:#0074D9;",
      "borderTopArticle": "border-top-color:#0074D9;",
      "imageListing": "/sites/globe.com.ph/files/content/dam/globe/brie/AboutUs/newsroom/common/default-total-globe-1/default-1-total-globe-thumbnail-listing.jpg",
      "articleUrl": "https://www.globe.com.ph/about-us/newsroom/corporate/globe-blocks-record-high-spam-scam-sms.html",
      "columnType": "articles--type-3",
      "typeListing": "article",
      "imageMobile": "/sites/globe.com.ph/files/content/dam/globe/brie/AboutUs/newsroom/common/default-total-globe-1/default-1-total-globe-primary-thumbnail-m.jpg",
      "imageDesktop": "/sites/globe.com.ph/files/content/dam/globe/brie/AboutUs/newsroom/common/default-total-globe-1/default-1-total-globe-primary-thumbnail-d.jpg",
      "description": "Globe blocked 2.72 billion scam and spam messages in 2022, more than double vs 2021, reflecting the impact of its stepped up campaign against malicious SMS.",
      "datePosted": "Jan 24, 2023 | 11:42 AM",
      "titleFromTag": "Corporate"
    },
    {
      "title": "Globe, DepEd Join Hands in Fight against Child Abuse & Threats against Child Safety",
      "nonclickable": false,
      "openNewTab": false,
      "borderArticle": "border-color:#0074D9;",
      "borderTopArticle": "border-top-color:#0074D9;",
      "imageListing": "/sites/globe.com.ph/files/content/dam/globe/brie/AboutUs/newsroom/common/default-partners-2/default-partners-2-thumbnail-listing.jpg",
      "articleUrl": "https://www.globe.com.ph/about-us/newsroom/sustainability/globe-deped-fight-child-abuse-child-safety-threats.html",
      "columnType": "articles--type-3",
      "typeListing": "article",
      "imageMobile": "/sites/globe.com.ph/files/content/dam/globe/brie/AboutUs/newsroom/common/default-partners-2/default-partners-2-primary-thumbnail-m.jpg",
      "imageDesktop": "/sites/globe.com.ph/files/content/dam/globe/brie/AboutUs/newsroom/common/default-partners-2/default-partners-2-primary-thumbnail-d.jpg",
      "description": "Globe and the Department of Education’s (DepEd) Child Protection Unit (CPU) have joined hands to address the proliferation of abuses committed against children.",
      "datePosted": "Jan 24, 2023 | 09:00 AM",
      "titleFromTag": "Sustainability"
    },
    {
      "title": "Game-Changer for PH Job Market: Asticom Launches Acquiro",
      "nonclickable": false,
      "openNewTab": false,
      "borderArticle": "border-color:#0074D9;",
      "borderTopArticle": "border-top-color:#0074D9;",
      "imageListing": "/sites/globe.com.ph/files/content/dam/globe/brie/AboutUs/newsroom/partners/game-changer-for-ph-job-market-asticom-launches-acquiro/corp-acq-listing-thumbnail.jpg",
      "articleUrl": "https://www.globe.com.ph/about-us/newsroom/partners/asticom-launches-acquiro.html",
      "columnType": "articles--type-3",
      "typeListing": "article",
      "imageMobile": "/sites/globe.com.ph/files/content/dam/globe/brie/AboutUs/newsroom/partners/game-changer-for-ph-job-market-asticom-launches-acquiro/corp-acq-primary-banner-m-v2.jpg",
      "imageDesktop": "/sites/globe.com.ph/files/content/dam/globe/brie/AboutUs/newsroom/partners/game-changer-for-ph-job-market-asticom-launches-acquiro/corp-acq-primary-thumbnail.jpg",
      "description": "Asticom Group of Companies, a shared services provider under the Globe Group, has launched a new platform that promises to revolutionize job and talent search.",
      "datePosted": "Jan 23, 2023 | 04:00 PM",
      "titleFromTag": "Partners"
    },
    {
      "title": "Catch ‘Drag Den’ With Manila Luzon on Prime Video Mobile Edition Only With Globe",
      "nonclickable": false,
      "openNewTab": false,
      "borderArticle": "border-color:#0074D9;",
      "borderTopArticle": "border-top-color:#0074D9;",
      "imageListing": "/sites/globe.com.ph/files/content/dam/globe/brie/About-us/Newsroom/image/Consumer/012023/catch-drag-den-on-prime-video-mobile-edition-thumbnail-listing.jpg",
      "articleUrl": "https://www.globe.com.ph/about-us/newsroom/consumer/catch-drag-den-on-prime-video-mobile-edition.html",
      "columnType": "articles--type-3",
      "typeListing": "article",
      "imageMobile": "/sites/globe.com.ph/files/content/dam/globe/brie/About-us/Newsroom/image/Consumer/012023/catch-drag-den-on-prime-video-mobile-edition-primary-thumbnail-m.jpg",
      "imageDesktop": "/sites/globe.com.ph/files/content/dam/globe/brie/About-us/Newsroom/image/Consumer/012023/catch-drag-den-on-prime-video-mobile-edition-primary-thumbnail-d.jpg",
      "description": "Globe customers can enjoy Drag Den with Manila Luzon on Prime Video Mobile Edition.",
      "datePosted": "Jan 20, 2023 | 01:48 PM",
      "titleFromTag": "Consumer"
    }
  ]
}
