{
  "status": 200,
  "page": 37,
  "totalPage": 298,
  "range": "433-444",
  "total": 3573,
  "result": [
    {
      "title": "Unlock A Worry-Free Trip Abroad With Essential Roaming Tips From Globe",
      "nonclickable": false,
      "openNewTab": false,
      "borderArticle": "border-color:#0074D9;",
      "borderTopArticle": "border-top-color:#0074D9;",
      "imageListing": "/sites/globe.com.ph/files/content/dam/globe/brie/AboutUs/newsroom/consumer/unlock-a-worry-free-trip-abroad-with-roaming/NEWSROOM-CONSUMER-Unlock-a-worry-free-trip-abroad-with-essential-roaming-tips-from-Globe-thumbnail-listing.jpg",
      "articleUrl": "https://www.globe.com.ph/about-us/newsroom/consumer/unlock-a-worry-free-trip-abroad-with-globe.html",
      "columnType": "articles--type-3",
      "typeListing": "article",
      "imageMobile": "/sites/globe.com.ph/files/content/dam/globe/brie/AboutUs/newsroom/consumer/unlock-a-worry-free-trip-abroad-with-roaming/NEWSROOM-CONSUMER-Unlock-a-worry-free-trip-abroad-with-essential-roaming-tips-from-Globe-primary-thumbnail-m.jpg",
      "imageDesktop": "/sites/globe.com.ph/files/content/dam/globe/brie/AboutUs/newsroom/consumer/unlock-a-worry-free-trip-abroad-with-roaming/NEWSROOM-CONSUMER-Unlock-a-worry-free-trip-abroad-with-essential-roaming-tips-from-Globe-primary-thumbnail-d.jpg",
      "description": "In time for Chinese New Year, Globe Roaming shares essential tips on how to make the roaming experience seamless and convenient.",
      "datePosted": "Jan 20, 2023 | 01:48 PM",
      "titleFromTag": "Consumer"
    },
    {
      "title": "Promising Startups to Accelerate Growth with 917Ventures and 500 Global’s Silicon Valley-Inspired Program",
      "nonclickable": false,
      "openNewTab": false,
      "borderArticle": "border-color:#0074D9;",
      "borderTopArticle": "border-top-color:#0074D9;",
      "imageListing": "/sites/globe.com.ph/files/content/dam/globe/brie/AboutUs/newsroom/common/default-business-2/default-business-2-thumbnail-listing.jpg",
      "articleUrl": "https://www.globe.com.ph/about-us/newsroom/917ventures/917ventures-and-500-global-creates-program-to-accelerate.html",
      "columnType": "articles--type-3",
      "typeListing": "article",
      "imageMobile": "/sites/globe.com.ph/files/content/dam/globe/brie/AboutUs/newsroom/common/default-business-2/default-business-2-primary-thumbnail-m.jpg",
      "imageDesktop": "/sites/globe.com.ph/files/content/dam/globe/brie/AboutUs/newsroom/common/default-business-2/default-business-2-primary-thumbnail-d.jpg",
      "description": "917Ventures and 500 Global ran a 10-week Silicon Valley-inspired accelerator program for ten promising startups.",
      "datePosted": "Jan 19, 2023 | 11:27 AM",
      "titleFromTag": "917Ventures"
    },
    {
      "title": "PH's Longest Domestic Submarine Fiber Cable Project On Track For April 2023 Completion",
      "nonclickable": false,
      "openNewTab": false,
      "borderArticle": "border-color:#0074D9;",
      "borderTopArticle": "border-top-color:#0074D9;",
      "imageListing": "/sites/globe.com.ph/files/content/dam/globe/brie/AboutUs/newsroom/corporate/ph-longest-domestic-submarine-fiber-cable-project/corp-phsubmarinefiber-listing-thumbnail.jpg",
      "articleUrl": "https://www.globe.com.ph/about-us/newsroom/corporate/pdscn-for-april-2023-completion.html",
      "columnType": "articles--type-3",
      "typeListing": "article",
      "imageMobile": "/sites/globe.com.ph/files/content/dam/globe/brie/AboutUs/newsroom/corporate/ph-longest-domestic-submarine-fiber-cable-project/corp-phsubmarinefiber-primary-banner-m.jpg",
      "imageDesktop": "/sites/globe.com.ph/files/content/dam/globe/brie/AboutUs/newsroom/corporate/ph-longest-domestic-submarine-fiber-cable-project/corp-phsubmarinefiber-primary-thumbnail.jpg",
      "description": "PH's Longest Domestic Submarine Fiber Cable Project On Track For April 2023 Completion",
      "datePosted": "Jan 19, 2023 | 09:05 AM",
      "titleFromTag": "Corporate"
    },
    {
      "title": "Globe Urges Filipinos To Continue Supporting Local Businesses As It Wraps Up Purposeful Holiday Celebration",
      "nonclickable": false,
      "openNewTab": false,
      "borderArticle": "border-color:#1C91C5;",
      "borderTopArticle": "border-top-color:#1C91C5;",
      "imageListing": "/sites/globe.com.ph/files/content/dam/globe/brie/AboutUs/newsroom/sustainability/globe-urges-filipinos-to-support-local-businesses/Globe-urges-Filipinos-to-continue-supporting-local-businesses-as-it-wraps-up-purposeful-holiday-celebration-thumbnail-listing.jpg",
      "articleUrl": "https://www.globe.com.ph/about-us/newsroom/sustainability/globe-urges-filipinos-to-support-local-businesses.html",
      "columnType": "articles--type-3",
      "typeListing": "article",
      "imageMobile": "/sites/globe.com.ph/files/content/dam/globe/brie/AboutUs/newsroom/sustainability/globe-urges-filipinos-to-support-local-businesses/Globe-urges-Filipinos-to-continue-supporting-local-businesses-as-it-wraps-up-purposeful-holiday-celebration-primary-thumbnail-m.jpg",
      "imageDesktop": "/sites/globe.com.ph/files/content/dam/globe/brie/AboutUs/newsroom/sustainability/globe-urges-filipinos-to-support-local-businesses/Globe-urges-Filipinos-to-continue-supporting-local-businesses-as-it-wraps-up-purposeful-holiday-celebration-primary-thumbnail-d.jpg",
      "description": "Globe wraps up the holiday season with the urge to encourage Filipinos to support local businesses.",
      "datePosted": "Jan 17, 2023 | 11:00 AM",
      "titleFromTag": "Sustainability"
    },
    {
      "title": "EdVenture: Improving Lives Through High-Quality and Personalized Education",
      "nonclickable": false,
      "openNewTab": false,
      "borderArticle": "border-color:#0074D9;",
      "borderTopArticle": "border-top-color:#0074D9;",
      "imageListing": "/sites/globe.com.ph/files/content/dam/globe/brie/AboutUs/newsroom/common/default-sustainability-1/default-sustainability-1-thumbnail-listing.jpg",
      "articleUrl": "https://www.globe.com.ph/about-us/newsroom/917ventures/edventure-improves-lives-through-education.html",
      "columnType": "articles--type-3",
      "typeListing": "article",
      "imageMobile": "/sites/globe.com.ph/files/content/dam/globe/brie/AboutUs/newsroom/common/default-sustainability-1/default-sustainability-1-top-banner-m.jpg",
      "imageDesktop": "/sites/globe.com.ph/files/content/dam/globe/brie/AboutUs/newsroom/common/default-sustainability-1/default-sustainability-1-primary-thumbnail-d.jpg",
      "description": "EdVenture continues to offer high-quality, personalized online tutorials to students from Preschool through Grade 10. ",
      "datePosted": "Jan 17, 2023 | 05:46 AM",
      "titleFromTag": "917Ventures"
    },
    {
      "title": "Globe’s 5G Network Expands to 237 Sites in VisMin, Connects More Consumers and Businesses",
      "nonclickable": false,
      "openNewTab": false,
      "borderArticle": "border-color:#0074D9;",
      "borderTopArticle": "border-top-color:#0074D9;",
      "imageListing": "/sites/globe.com.ph/files/content/dam/globe/brie/AboutUs/newsroom/common/default-15/default-corporate-9-thumbnail-listing.jpg",
      "articleUrl": "https://www.globe.com.ph/about-us/newsroom/corporate/globes-5g-network-expands-to-237-sites-in-vismin.html",
      "columnType": "articles--type-3",
      "typeListing": "article",
      "imageMobile": "/sites/globe.com.ph/files/content/dam/globe/brie/AboutUs/newsroom/common/default-15/default-corporate-9-primary-thumbnail-m.jpg",
      "imageDesktop": "/sites/globe.com.ph/files/content/dam/globe/brie/AboutUs/newsroom/common/default-15/default-corporate-9-primary-thumbnail-d.jpg",
      "description": "Globe expanded its 5G coverage to 237 sites in VisMin by the end of the third quarter in 2022.",
      "datePosted": "Jan 16, 2023 | 03:20 PM",
      "titleFromTag": "Corporate"
    },
    {
      "title": "DENR, Globe Hail Winners of KLIMA-likasan Awards",
      "nonclickable": false,
      "openNewTab": false,
      "borderArticle": "border-color:#1C91C5;",
      "borderTopArticle": "border-top-color:#1C91C5;",
      "imageListing": "/sites/globe.com.ph/files/content/dam/globe/brie/AboutUs/newsroom/common/default-sustainability-1/default-sustainability-2-thumbnail-listing.jpg",
      "articleUrl": "https://www.globe.com.ph/about-us/newsroom/sustainability/denr-globe-winners-klima-likasan-awards.html",
      "columnType": "articles--type-3",
      "typeListing": "article",
      "imageMobile": "/sites/globe.com.ph/files/content/dam/globe/brie/AboutUs/newsroom/common/default-sustainability-1/default-sustainability-2-primary-thumbnail-m.jpg",
      "imageDesktop": "/sites/globe.com.ph/files/content/dam/globe/brie/AboutUs/newsroom/common/default-sustainability-1/default-sustainability-2-primary-thumbnail-d.jpg",
      "description": "DENR & Globe recognized the efforts of individuals, groups, & LGUs to address climate change, contribute in disaster risk reduction & promote cultural shifts.",
      "datePosted": "Jan 13, 2023 | 04:00 PM",
      "titleFromTag": "Sustainability"
    },
    {
      "title": "Globe Roaming Showcases Travel Offers at Singapore Airlines  Time to Fly Travel Fair",
      "nonclickable": false,
      "openNewTab": false,
      "borderArticle": "border-color:#0074D9;",
      "borderTopArticle": "border-top-color:#0074D9;",
      "imageListing": "/sites/globe.com.ph/files/content/dam/globe/brie/AboutUs/newsroom/corporate/globe-roaming-showcases-travel-offers-at-singapore-airlines/default-consumer-2-thumbnail-listing.jpg",
      "articleUrl": "https://www.globe.com.ph/about-us/newsroom/corporate/globe-roaming-showcases-travel-offers-at-singapore-airlines.html",
      "columnType": "articles--type-3",
      "typeListing": "article",
      "imageMobile": "/sites/globe.com.ph/files/content/dam/globe/brie/AboutUs/newsroom/corporate/globe-roaming-showcases-travel-offers-at-singapore-airlines/default-consumer-2-primary-thumbnail-m.jpg",
      "imageDesktop": "/sites/globe.com.ph/files/content/dam/globe/brie/AboutUs/newsroom/corporate/globe-roaming-showcases-travel-offers-at-singapore-airlines/default-consumer-2-primary-thumbnail-d.jpg",
      "description": "Globe Roaming and Singapore Airlines showcase its latest offers and deals for all revenge travelers.",
      "datePosted": "Jan 13, 2023 | 03:20 PM",
      "titleFromTag": "Corporate"
    },
    {
      "title": "Pampering Your Baby Now Allows You To Help Those in Need Too",
      "nonclickable": false,
      "openNewTab": false,
      "borderArticle": "border-color:#0074D9;",
      "borderTopArticle": "border-top-color:#0074D9;",
      "imageListing": "/sites/globe.com.ph/files/content/dam/globe/brie/AboutUs/newsroom/sustainability/globe-and-smac-join-hands-for-the-hapag-movement/thumbnail-listing.jpg",
      "articleUrl": "https://www.globe.com.ph/about-us/newsroom/consumer/pamper-your-baby-and-help-the-needy.html",
      "columnType": "articles--type-3",
      "typeListing": "article",
      "imageMobile": "/sites/globe.com.ph/files/content/dam/globe/brie/AboutUs/newsroom/sustainability/globe-and-smac-join-hands-for-the-hapag-movement/primary-thumbnail-m.jpg",
      "imageDesktop": "/sites/globe.com.ph/files/content/dam/globe/brie/AboutUs/newsroom/sustainability/globe-and-smac-join-hands-for-the-hapag-movement/primary-thumbnail-d.jpg",
      "description": "Shop for items to pamper your baby and help a family in need through Hapag Movement and SM Foundation programs. ",
      "datePosted": "Jan 13, 2023 | 03:05 PM",
      "titleFromTag": "Consumer"
    },
    {
      "title": "Start the Year with Some Self-Love at the Body Shop, Share Blessings via Globe and SMAC",
      "nonclickable": false,
      "openNewTab": false,
      "borderArticle": "border-color:#1C91C5;",
      "borderTopArticle": "border-top-color:#1C91C5;",
      "imageListing": "/sites/globe.com.ph/files/content/dam/globe/brie/AboutUs/newsroom/common/default-business-1/default-business-1-thumbnail-listing.jpg",
      "articleUrl": "https://www.globe.com.ph/about-us/newsroom/consumer/share-blessings-via-globe-and-smac.html",
      "columnType": "articles--type-3",
      "typeListing": "article",
      "imageMobile": "/sites/globe.com.ph/files/content/dam/globe/brie/AboutUs/newsroom/common/default-business-1/default-business-1-primary-thumbnail-m.jpg",
      "imageDesktop": "/sites/globe.com.ph/files/content/dam/globe/brie/AboutUs/newsroom/common/default-business-1/default-business-1-primary-thumbnail-d.jpg",
      "description": "Earn SMAC points and donate to the Hapag Movement when you buy select products at Body Shop.",
      "datePosted": "Jan 13, 2023 | 11:49 AM",
      "titleFromTag": "Consumer"
    },
    {
      "title": "Globe, AFI, Virlanie Laud First Batch of Graduates from The Hapag Movement’s Livelihood Training Program",
      "nonclickable": false,
      "openNewTab": false,
      "borderArticle": "border-color:#0074D9;",
      "borderTopArticle": "border-top-color:#0074D9;",
      "imageListing": "/sites/globe.com.ph/files/content/dam/globe/brie/AboutUs/newsroom/sustainability/first-batch-graduates-the-hapag-movement/corp-hapag-listing-thumbnail.jpg",
      "articleUrl": "https://www.globe.com.ph/about-us/newsroom/sustainability/first-batch-graduates-the-hapag-movement.html",
      "columnType": "articles--type-3",
      "typeListing": "article",
      "imageMobile": "/sites/globe.com.ph/files/content/dam/globe/brie/AboutUs/newsroom/sustainability/first-batch-graduates-the-hapag-movement/corp-hapag-primary-banner-m.jpg",
      "imageDesktop": "/sites/globe.com.ph/files/content/dam/globe/brie/AboutUs/newsroom/sustainability/first-batch-graduates-the-hapag-movement/corp-hapag-primary-thumbnail.jpg",
      "description": "A total of 100 women from disadvantaged communities celebrated a milestone in life as they graduated from The Hapag Movement’s Livelihood Training Program.",
      "datePosted": "Jan 12, 2023 | 03:05 PM",
      "titleFromTag": "Sustainability"
    },
    {
      "title": "Planning a New Year Home Improvement Project? Help Others Too Just by Shopping for Your Renovation Essentials with SMAC",
      "nonclickable": false,
      "openNewTab": false,
      "borderArticle": "border-color:#1C91C5;",
      "borderTopArticle": "border-top-color:#1C91C5;",
      "imageListing": "/sites/globe.com.ph/files/content/dam/globe/brie/AboutUs/newsroom/common/default-business-1/default-business-1-thumbnail-listing.jpg",
      "articleUrl": "https://www.globe.com.ph/about-us/newsroom/consumer/help-others-by-shopping-with-smac.html",
      "columnType": "articles--type-3",
      "typeListing": "article",
      "imageMobile": "/sites/globe.com.ph/files/content/dam/globe/brie/AboutUs/newsroom/common/default-business-1/default-business-1-primary-thumbnail-m.jpg",
      "imageDesktop": "/sites/globe.com.ph/files/content/dam/globe/brie/AboutUs/newsroom/common/default-business-1/default-business-1-primary-thumbnail-d.jpg",
      "description": "Earn extra SMAC points on select purchases at Our Home and Create & Barrel. And the best part? Half of those extra points will be donated to The Hapag Movement.",
      "datePosted": "Jan 11, 2023 | 11:49 AM",
      "titleFromTag": "Consumer"
    }
  ]
}
