{
  "status": 200,
  "page": 38,
  "totalPage": 298,
  "range": "445-456",
  "total": 3573,
  "result": [
    {
      "title": "KonsultaMD Makes Early Diabetes Detection Easier",
      "nonclickable": false,
      "openNewTab": false,
      "borderArticle": "border-color:#0074D9;",
      "borderTopArticle": "border-top-color:#0074D9;",
      "imageListing": "/sites/globe.com.ph/files/content/dam/globe/brie/AboutUs/newsroom/common/default-4/default-consumer-3-thumbnail-listing.jpg",
      "articleUrl": "https://www.globe.com.ph/about-us/newsroom/consumer/konsultamd-makes-early-diabetes-detection-easier.html",
      "columnType": "articles--type-3",
      "typeListing": "article",
      "imageMobile": "/sites/globe.com.ph/files/content/dam/globe/brie/AboutUs/newsroom/common/default-4/default-consumer-3-primary-thumbnail-m.jpg",
      "imageDesktop": "/sites/globe.com.ph/files/content/dam/globe/brie/AboutUs/newsroom/common/default-4/default-consumer-3-primary-thumbnail-d.jpg",
      "description": "KonsultaMD makes it easier for patients to take the first step to better health thru the Diabetes Screening package, the newest addition to its health packages.",
      "datePosted": "Jan 11, 2023 | 11:00 AM",
      "titleFromTag": "Consumer"
    },
    {
      "title": "Globe Showcases Potential of Latest 5G Technology with Successful Live Demo",
      "nonclickable": false,
      "openNewTab": false,
      "borderArticle": "border-color:#0074D9;",
      "borderTopArticle": "border-top-color:#0074D9;",
      "imageListing": "/sites/globe.com.ph/files/content/dam/globe/brie/AboutUs/newsroom/corporate/globe-sms-blocking/corporate-default-7-thumbnail-listing.jpg",
      "articleUrl": "https://www.globe.com.ph/about-us/newsroom/corporate/globe-showcases-potential-of-latest-5g-technology.html",
      "columnType": "articles--type-3",
      "typeListing": "article",
      "imageMobile": "/sites/globe.com.ph/files/content/dam/globe/brie/AboutUs/newsroom/corporate/globe-sms-blocking/corporate-default-7-primary-thumbnail-m.jpg",
      "imageDesktop": "/sites/globe.com.ph/files/content/dam/globe/brie/AboutUs/newsroom/corporate/globe-sms-blocking/corporate-default-7-primary-thumbnail-d.jpg",
      "description": "In a recent live demonstration, Globe successfully tested 5G Standalone technology for a variety of applications.",
      "datePosted": "Jan 09, 2023 | 10:33 AM",
      "titleFromTag": "Corporate"
    },
    {
      "title": "Globe Shares Valuable Consumer Insights on Philippine Education Landscape with DepEd",
      "nonclickable": false,
      "openNewTab": false,
      "borderArticle": "border-color:#0074D9;",
      "borderTopArticle": "border-top-color:#0074D9;",
      "imageListing": "/sites/globe.com.ph/files/content/dam/globe/brie/AboutUs/newsroom/common/default-partners-3/default-partners-3-thumbnail-listing.jpg",
      "articleUrl": "https://www.globe.com.ph/about-us/newsroom/corporate/-shares-valuable-consumer-insights.html",
      "columnType": "articles--type-3",
      "typeListing": "article",
      "imageMobile": "/sites/globe.com.ph/files/content/dam/globe/brie/AboutUs/newsroom/common/default-partners-3/default-partners-3-primary-thumbnail-m.jpg",
      "imageDesktop": "/sites/globe.com.ph/files/content/dam/globe/brie/AboutUs/newsroom/common/default-partners-3/default-partners-3-primary-thumbnail-d.jpg",
      "description": "Globe extended its consumer research findings on the PH education landscape to the Department of Education  to contribute to the national education agenda.",
      "datePosted": "Jan 09, 2023 | 10:05 AM",
      "titleFromTag": "Corporate"
    },
    {
      "title": "Globe Shifts Ten More Facilities to Renewable Energy",
      "nonclickable": false,
      "openNewTab": false,
      "borderArticle": "border-color:#0074D9;",
      "borderTopArticle": "border-top-color:#0074D9;",
      "imageListing": "/sites/globe.com.ph/files/content/dam/globe/brie/AboutUs/newsroom/common/updated/Corporate-globe-thumbnail-listing.jpg",
      "articleUrl": "https://www.globe.com.ph/about-us/newsroom/sustainability/globe-shifts-facilities-to-renewable-energy.html",
      "columnType": "articles--type-3",
      "typeListing": "article",
      "imageMobile": "/sites/globe.com.ph/files/content/dam/globe/brie/AboutUs/newsroom/common/updated/Corporate-globe-primary-thumbnail-m.jpg",
      "imageDesktop": "/sites/globe.com.ph/files/content/dam/globe/brie/AboutUs/newsroom/common/updated/Corporate-globe-primary-thumbnail-d.jpg",
      "description": "Digital solutions platform Globe increased its roster of sites in Luzon & Visayas running on renewable energy as it pursues its goal to reduce carbon emissions.",
      "datePosted": "Jan 06, 2023 | 09:00 AM",
      "titleFromTag": "Sustainability"
    },
    {
      "title": "Kick off the New Year Right!  Support The Hapag Movement and Fight Hunger with Globe and SMAC",
      "nonclickable": false,
      "openNewTab": false,
      "borderArticle": "border-color:#0074D9;",
      "borderTopArticle": "border-top-color:#0074D9;",
      "imageListing": "/sites/globe.com.ph/files/content/dam/globe/brie/AboutUs/newsroom/sustainability/globe-and-smac-join-hands-for-the-hapag-movement/thumbnail-listing.jpg",
      "articleUrl": "https://www.globe.com.ph/about-us/newsroom/sustainability/support-the-hapag-movement-and-fight-hunger.html",
      "columnType": "articles--type-3",
      "typeListing": "article",
      "imageMobile": "/sites/globe.com.ph/files/content/dam/globe/brie/AboutUs/newsroom/sustainability/globe-and-smac-join-hands-for-the-hapag-movement/primary-thumbnail-m.jpg",
      "imageDesktop": "/sites/globe.com.ph/files/content/dam/globe/brie/AboutUs/newsroom/sustainability/globe-and-smac-join-hands-for-the-hapag-movement/primary-thumbnail-d.jpg",
      "description": "If you're looking to make a positive impact on society, support The Hapag Movement,  a tech-driven program against involuntary hunger through Globe and SMAC.",
      "datePosted": "Jan 05, 2023 | 03:05 PM",
      "titleFromTag": "Sustainability"
    },
    {
      "title": "Globe Business and Palo Alto Networks Utilize AI For Cybersecurity",
      "nonclickable": false,
      "openNewTab": false,
      "borderArticle": "border-color:#0074D9;",
      "borderTopArticle": "border-top-color:#0074D9;",
      "imageListing": "/sites/globe.com.ph/files/content/dam/globe/brie/AboutUs/newsroom/business/globe-business-and-palo-alto-networks-utilize-ai/sg-palo-alto-networks-thumbnail-listing.jpg",
      "articleUrl": "https://www.globe.com.ph/about-us/newsroom/business/globe-and-palo-alto-utilize-ai-for-cybersecurity.html",
      "columnType": "articles--type-3",
      "typeListing": "article",
      "imageMobile": "/sites/globe.com.ph/files/content/dam/globe/brie/AboutUs/newsroom/business/globe-business-and-palo-alto-networks-utilize-ai/sg-palo-alto-networks-primary-thumbnail-m.jpg",
      "imageDesktop": "/sites/globe.com.ph/files/content/dam/globe/brie/AboutUs/newsroom/business/globe-business-and-palo-alto-networks-utilize-ai/sg-palo-alto-networks-primary-thumbnail-d.jpg",
      "description": "Globe Business partners with Palo Alto Networks to enhance enterprise cybersecurity.",
      "datePosted": "Jan 04, 2023 | 12:00 PM",
      "titleFromTag": "Business"
    },
    {
      "title": "Globe More Than Doubles 5G Footprint, Reaches 70 Cities, Towns Nationwide",
      "nonclickable": false,
      "openNewTab": false,
      "borderArticle": "border-color:#0074D9;",
      "borderTopArticle": "border-top-color:#0074D9;",
      "imageListing": "/sites/globe.com.ph/files/content/dam/globe/brie/AboutUs/newsroom/common/default-5/corporate-default-6-thumbnail-listing.jpg",
      "articleUrl": "https://www.globe.com.ph/about-us/newsroom/corporate/globe-more-than-doubles-5g-footprint.html",
      "columnType": "articles--type-3",
      "typeListing": "article",
      "imageMobile": "/sites/globe.com.ph/files/content/dam/globe/brie/AboutUs/newsroom/common/default-5/corporate-default-6-primary-thumbnail-m.jpg",
      "imageDesktop": "/sites/globe.com.ph/files/content/dam/globe/brie/AboutUs/newsroom/common/default-5/corporate-default-6-primary-thumbnail-d.jpg",
      "description": "Globe ended 2022 with 5G connectivity in 70 cities and towns nationwide versus 29 in 2021. ",
      "datePosted": "Jan 04, 2023 | 10:30 AM",
      "titleFromTag": "Corporate"
    },
    {
      "title": "Do Your ‘Pasalubong’ Shopping at Kultura While Helping the Hungry",
      "nonclickable": false,
      "openNewTab": false,
      "borderArticle": "border-color:#0074D9;",
      "borderTopArticle": "border-top-color:#0074D9;",
      "imageListing": "/sites/globe.com.ph/files/content/dam/globe/brie/AboutUs/newsroom/sustainability/join-the-hapag-movement/Newsroom-sustainability-hapag-movement-relieve-hunger-thumbnail-listing.jpg",
      "articleUrl": "https://www.globe.com.ph/about-us/newsroom/sustainability/shop-while-helping-the-hungry-with-kultura.html",
      "columnType": "articles--type-3",
      "typeListing": "article",
      "imageMobile": "/sites/globe.com.ph/files/content/dam/globe/brie/AboutUs/newsroom/sustainability/join-the-hapag-movement/newsroom-sustainability-hapag-movement-relieve-hunger-primary-thumbnail-m5.jpg",
      "imageDesktop": "/sites/globe.com.ph/files/content/dam/globe/brie/AboutUs/newsroom/sustainability/join-the-hapag-movement/Newsroom-sustainability-hapag-movement-relieve-hunger-primary-thumbnail-d.jpg",
      "description": "Aside from supporting local artistry and promoting Filipino heritage and talent, you can also help the hungry with every purchase at Kultura using your SMAC.",
      "datePosted": "Jan 03, 2023 | 11:05 PM",
      "titleFromTag": "Sustainability"
    },
    {
      "title": "Two Int’l Award-Giving Bodies Recognize Globe’s Efforts in Responsible Sustainability Reporting",
      "nonclickable": false,
      "openNewTab": false,
      "borderArticle": "border-color:#0074D9;",
      "borderTopArticle": "border-top-color:#0074D9;",
      "imageListing": "/sites/globe.com.ph/files/content/dam/globe/brie/AboutUs/newsroom/common/default-sustainability-1/default-sustainability-2-thumbnail-listing.jpg",
      "articleUrl": "https://www.globe.com.ph/about-us/newsroom/corporate/two-intl-award-giving-bodies-recognize-globe.html",
      "columnType": "articles--type-3",
      "typeListing": "article",
      "imageMobile": "/sites/globe.com.ph/files/content/dam/globe/brie/AboutUs/newsroom/common/default-sustainability-1/default-sustainability-2-primary-thumbnail-m.jpg",
      "imageDesktop": "/sites/globe.com.ph/files/content/dam/globe/brie/AboutUs/newsroom/common/default-sustainability-1/default-sustainability-2-primary-thumbnail-d.jpg",
      "description": "Globe continues to cement its leadership in sustainability within the Philippine telecom industry, recently receiving recognition from two award-giving bodies.",
      "datePosted": "Jan 03, 2023 | 01:33 PM",
      "titleFromTag": "Corporate"
    },
    {
      "title": "  Globe Delivers Immersive Concert Experience at 2022 Head in the Clouds Music & Arts Fest",
      "nonclickable": false,
      "openNewTab": false,
      "borderArticle": "border-color:#0074D9;",
      "borderTopArticle": "border-top-color:#0074D9;",
      "imageListing": "/sites/globe.com.ph/files/content/dam/globe/brie/AboutUs/newsroom/common/default-consumer/default-consumer-thumbnail-listing.jpg",
      "articleUrl": "https://www.globe.com.ph/about-us/newsroom/consumer/immersive-concert-experience-hitc-manila.html",
      "columnType": "articles--type-3",
      "typeListing": "article",
      "imageMobile": "/sites/globe.com.ph/files/content/dam/globe/brie/AboutUs/newsroom/common/default-consumer/default-consumer-primary-thumbnail-m.jpg",
      "imageDesktop": "/sites/globe.com.ph/files/content/dam/globe/brie/AboutUs/newsroom/common/default-consumer/default-consumer-primary-thumbnail-d.jpg",
      "description": "Globe delivers a unique and immersive concert experience at Head in the Clouds Music & Arts Fest.\r\n\r\n",
      "datePosted": "Dec 29, 2022 | 04:40 PM",
      "titleFromTag": "Consumer"
    },
    {
      "title": "December 2022 Updates: Globe SIM Registration Portal",
      "nonclickable": false,
      "openNewTab": false,
      "borderArticle": "border-color:#0074D9;",
      "borderTopArticle": "border-top-color:#0074D9;",
      "imageListing": "/sites/globe.com.ph/files/content/dam/globe/brie/AboutUs/newsroom/common/default-total-globe-2/newsroom-total-globe-default-2-thumbnail-listing.jpg",
      "articleUrl": "https://www.globe.com.ph/about-us/newsroom/corporate/sim-registration-december-2022.html",
      "columnType": "articles--type-3",
      "typeListing": "article",
      "imageMobile": "/sites/globe.com.ph/files/content/dam/globe/brie/AboutUs/newsroom/common/default-total-globe-2/newsroom-total-globe-default-2-primary-thumbnail-m.jpg",
      "imageDesktop": "/sites/globe.com.ph/files/content/dam/globe/brie/AboutUs/newsroom/common/default-total-globe-2/newsroom-total-globe-default-2-primary-thumbnail-d.jpg",
      "description": "Read the December 2022 updates on Globe's SIM Registration here. ",
      "datePosted": "Dec 29, 2022 | 02:00 PM",
      "titleFromTag": "Corporate"
    },
    {
      "title": "Do Good for Others While Shopping at SM This Holiday Season",
      "nonclickable": false,
      "openNewTab": false,
      "borderArticle": "border-color:#0074D9;",
      "borderTopArticle": "border-top-color:#0074D9;",
      "imageListing": "/sites/globe.com.ph/files/content/dam/globe/brie/AboutUs/newsroom/sustainability/globe-and-smac-join-hands-for-the-hapag-movement/thumbnail-listing.jpg",
      "articleUrl": "https://www.globe.com.ph/about-us/newsroom/consumer/shopping-at-sm-this-holiday-season.html",
      "columnType": "articles--type-3",
      "typeListing": "article",
      "imageMobile": "/sites/globe.com.ph/files/content/dam/globe/brie/AboutUs/newsroom/sustainability/globe-and-smac-join-hands-for-the-hapag-movement/primary-thumbnail-m.jpg",
      "imageDesktop": "/sites/globe.com.ph/files/content/dam/globe/brie/AboutUs/newsroom/sustainability/globe-and-smac-join-hands-for-the-hapag-movement/primary-thumbnail-d.jpg",
      "description": "Help feed a kababayan in need while shopping at SM through SMAC (SM Advantage Card) and Globe’s Hapag Movement’s partnership.",
      "datePosted": "Dec 29, 2022 | 01:05 PM",
      "titleFromTag": "Consumer"
    }
  ]
}
