{
  "status": 200,
  "page": 39,
  "totalPage": 298,
  "range": "457-468",
  "total": 3573,
  "result": [
    {
      "title": "Globe Sets Up Libreng Tawag and Libreng Charging Communication Lifeline in Flood-Hit Gingoog City",
      "nonclickable": false,
      "openNewTab": false,
      "borderArticle": "border-color:#1C91C5;",
      "borderTopArticle": "border-top-color:#1C91C5;",
      "imageListing": "/sites/globe.com.ph/files/content/dam/globe/brie/AboutUs/newsroom/sustainability/globe-builds-teacher-skills-early-language-literacy/default-sustainability-1-thumbnail-listing.jpg",
      "articleUrl": "https://www.globe.com.ph/about-us/newsroom/sustainability/libreng-tawag-libreng-charging-flood-hit-gingoog.html",
      "columnType": "articles--type-3",
      "typeListing": "article",
      "imageMobile": "/sites/globe.com.ph/files/content/dam/globe/brie/AboutUs/newsroom/sustainability/globe-builds-teacher-skills-early-language-literacy/default-sustainability-1-primary-thumbnail-m.jpg",
      "imageDesktop": "/sites/globe.com.ph/files/content/dam/globe/brie/AboutUs/newsroom/sustainability/globe-builds-teacher-skills-early-language-literacy/default-sustainability-1-primary-thumbnail-d.jpg",
      "description": "Globe sets up Libreng Tawag and Libreng Charging sites in flood-hit Gingoog City.",
      "datePosted": "Dec 28, 2022 | 11:00 AM",
      "titleFromTag": "Sustainability"
    },
    {
      "title": "GMEA@10 to Recognize Excellence in Reporting on Digital Inclusion, Transformation in VizMin",
      "nonclickable": false,
      "openNewTab": false,
      "borderArticle": "border-color:#0074D9;",
      "borderTopArticle": "border-top-color:#0074D9;",
      "imageListing": "/sites/globe.com.ph/files/content/dam/globe/brie/AboutUs/newsroom/corporate/gmea-10-recognize-excellence-reporting-vizmin/thumbnail-listing.jpg",
      "articleUrl": "https://www.globe.com.ph/about-us/newsroom/corporate/gmea-10-recognize-excellence-reporting-vizmin.html",
      "columnType": "articles--type-3",
      "typeListing": "article",
      "imageMobile": "/sites/globe.com.ph/files/content/dam/globe/brie/AboutUs/newsroom/corporate/gmea-10-recognize-excellence-reporting-vizmin/primary-thumbnail-m.jpg",
      "imageDesktop": "/sites/globe.com.ph/files/content/dam/globe/brie/AboutUs/newsroom/corporate/gmea-10-recognize-excellence-reporting-vizmin/primary-thumbnail-d.jpg",
      "description": "GMEA@10 to recognize excellent reporting on Digital Inclusion from Visayas and Mindanao.",
      "datePosted": "Dec 28, 2022 | 09:16 AM",
      "titleFromTag": "Corporate"
    },
    {
      "title": "Globe’s Non-Telco Revenues Jump 101%",
      "nonclickable": false,
      "openNewTab": false,
      "borderArticle": "border-color:#0074D9;",
      "borderTopArticle": "border-top-color:#0074D9;",
      "imageListing": "/sites/globe.com.ph/files/content/dam/globe/brie/AboutUs/newsroom/corporate/globe-named-ph-best-mobile-network-infrastructure-company/Corporate-globe-thumbnail-listing.jpg",
      "articleUrl": "https://www.globe.com.ph/about-us/newsroom/corporate/non-telco-revenues-jump-101-percent.html",
      "columnType": "articles--type-3",
      "typeListing": "article",
      "imageMobile": "/sites/globe.com.ph/files/content/dam/globe/brie/AboutUs/newsroom/corporate/globe-named-ph-best-mobile-network-infrastructure-company/Corporate-globe-primary-thumbnail-m.jpg",
      "imageDesktop": "/sites/globe.com.ph/files/content/dam/globe/brie/AboutUs/newsroom/corporate/globe-named-ph-best-mobile-network-infrastructure-company/Corporate-globe-primary-thumbnail-d.jpg",
      "description": "Globe’s non-telco revenues jumped to ₱2.8 billion in the first nine months of 2022.",
      "datePosted": "Dec 27, 2022 | 03:33 PM",
      "titleFromTag": "Corporate"
    },
    {
      "title": "Globe Optimizing SIM Registration Portal for Better Customer Experience",
      "nonclickable": false,
      "openNewTab": false,
      "borderArticle": "border-color:#0074D9;",
      "borderTopArticle": "border-top-color:#0074D9;",
      "imageListing": "/sites/globe.com.ph/files/content/dam/globe/brie/AboutUs/newsroom/corporate/globe-sms-blocking/corporate-default-7-thumbnail-listing.jpg",
      "articleUrl": "https://www.globe.com.ph/about-us/newsroom/corporate/optimizing-sim-registration-portal-for-better-customer-experience.html",
      "columnType": "articles--type-3",
      "typeListing": "article",
      "imageMobile": "/sites/globe.com.ph/files/content/dam/globe/brie/AboutUs/newsroom/corporate/globe-sms-blocking/corporate-default-7-primary-thumbnail-m.jpg",
      "imageDesktop": "/sites/globe.com.ph/files/content/dam/globe/brie/AboutUs/newsroom/corporate/globe-sms-blocking/corporate-default-7-primary-thumbnail-d.jpg",
      "description": "Globe launched its SIM Registration portal but had to make the site temporarily inaccessible to ensure better customer experience.",
      "datePosted": "Dec 27, 2022 | 01:33 PM",
      "titleFromTag": "Corporate"
    },
    {
      "title": "Globe Continues Aggressive Rollout in Visayas to Support Region’s Economic Recovery",
      "nonclickable": false,
      "openNewTab": false,
      "borderArticle": "border-color:#0074D9;",
      "borderTopArticle": "border-top-color:#0074D9;",
      "imageListing": "/sites/globe.com.ph/files/content/dam/globe/brie/AboutUs/newsroom/common/default-15/default-corporate-9-thumbnail-listing.jpg",
      "articleUrl": "https://www.globe.com.ph/about-us/newsroom/corporate/globe-continues-aggressive-rollout-visayas.html",
      "columnType": "articles--type-3",
      "typeListing": "article",
      "imageMobile": "/sites/globe.com.ph/files/content/dam/globe/brie/AboutUs/newsroom/common/default-15/default-corporate-9-primary-thumbnail-m.jpg",
      "imageDesktop": "/sites/globe.com.ph/files/content/dam/globe/brie/AboutUs/newsroom/common/default-15/default-corporate-9-primary-thumbnail-d.jpg",
      "description": "Globe continues its aggressive rollout in the Visayas to provide fast and reliable connectivity in the region.",
      "datePosted": "Dec 27, 2022 | 01:33 PM",
      "titleFromTag": "Corporate"
    },
    {
      "title": "Globe Maintains CDP Rating for 2022",
      "nonclickable": false,
      "openNewTab": false,
      "borderArticle": "border-color:#1C91C5;",
      "borderTopArticle": "border-top-color:#1C91C5;",
      "imageListing": "/sites/globe.com.ph/files/content/dam/globe/brie/AboutUs/newsroom/common/default-sustainability-1/default-sustainability-2-thumbnail-listing.jpg",
      "articleUrl": "https://www.globe.com.ph/about-us/newsroom/sustainability/globe-maintains-cdp-rating-2022.html",
      "columnType": "articles--type-3",
      "typeListing": "article",
      "imageMobile": "/sites/globe.com.ph/files/content/dam/globe/brie/AboutUs/newsroom/common/default-sustainability-1/default-sustainability-2-primary-thumbnail-m.jpg",
      "imageDesktop": "/sites/globe.com.ph/files/content/dam/globe/brie/AboutUs/newsroom/common/default-sustainability-1/default-sustainability-2-primary-thumbnail-d.jpg",
      "description": "Globe maintains its B rating from the CDP for 2022 which reaffirms Globe’s commitment to continue addressing climate related risks.",
      "datePosted": "Dec 27, 2022 | 11:49 AM",
      "titleFromTag": "Sustainability"
    },
    {
      "title": "Globe Dominates ASEAN Corporate Governance Scorecard Anew",
      "nonclickable": false,
      "openNewTab": false,
      "borderArticle": "border-color:#0074D9;",
      "borderTopArticle": "border-top-color:#0074D9;",
      "imageListing": "/sites/globe.com.ph/files/content/dam/globe/brie/AboutUs/newsroom/corporate/globe-named-ph-best-mobile-network-infrastructure-company/Corporate-globe-thumbnail-listing.jpg",
      "articleUrl": "https://www.globe.com.ph/about-us/newsroom/corporate/globe-dominates-asean-corporate-governance-scorecard-anew.html",
      "columnType": "articles--type-3",
      "typeListing": "article",
      "imageMobile": "/sites/globe.com.ph/files/content/dam/globe/brie/AboutUs/newsroom/corporate/globe-named-ph-best-mobile-network-infrastructure-company/Corporate-globe-primary-thumbnail-m.jpg",
      "imageDesktop": "/sites/globe.com.ph/files/content/dam/globe/brie/AboutUs/newsroom/corporate/globe-named-ph-best-mobile-network-infrastructure-company/Corporate-globe-primary-thumbnail-d.jpg",
      "description": "Globe receives outstanding recognition and bags three top awards at the ASEAN Corporate Governance Scorecard.",
      "datePosted": "Dec 23, 2022 | 01:33 PM",
      "titleFromTag": "Corporate"
    },
    {
      "title": "Globe Bags Alida Delta Award 2022 for Championing Customer Understanding",
      "nonclickable": false,
      "openNewTab": false,
      "borderArticle": "border-color:#0074D9;",
      "borderTopArticle": "border-top-color:#0074D9;",
      "imageListing": "/sites/globe.com.ph/files/content/dam/globe/brie/AboutUs/newsroom/corporate/globe-named-ph-best-mobile-network-infrastructure-company/Corporate-globe-thumbnail-listing.jpg",
      "articleUrl": "https://www.globe.com.ph/about-us/newsroom/corporate/globe-bags-alida-delta-award.html",
      "columnType": "articles--type-3",
      "typeListing": "article",
      "imageMobile": "/sites/globe.com.ph/files/content/dam/globe/brie/AboutUs/newsroom/corporate/globe-named-ph-best-mobile-network-infrastructure-company/Corporate-globe-primary-thumbnail-m.jpg",
      "imageDesktop": "/sites/globe.com.ph/files/content/dam/globe/brie/AboutUs/newsroom/corporate/globe-named-ph-best-mobile-network-infrastructure-company/Corporate-globe-primary-thumbnail-d.jpg",
      "description": "Globe received the Alida Delta Award for championing customer understanding through the effective use of market research data & insights for informed decisions.",
      "datePosted": "Dec 22, 2022 | 01:33 PM",
      "titleFromTag": "Corporate"
    },
    {
      "title": "KonsultaMD Donates 4,000 Medicines to Pasig City Health Department",
      "nonclickable": false,
      "openNewTab": false,
      "borderArticle": "border-color:#0074D9;",
      "borderTopArticle": "border-top-color:#0074D9;",
      "imageListing": "/sites/globe.com.ph/files/content/dam/globe/brie/AboutUs/newsroom/common/default-3/corporate-default-7-thumbnail-listing.jpg",
      "articleUrl": "https://www.globe.com.ph/about-us/newsroom/917ventures/konsultamd-donates-4000-medicines.html",
      "columnType": "articles--type-3",
      "typeListing": "article",
      "imageMobile": "/sites/globe.com.ph/files/content/dam/globe/brie/AboutUs/newsroom/common/default-3/corporate-default-7-primary-thumbnail-m.jpg",
      "imageDesktop": "/sites/globe.com.ph/files/content/dam/globe/brie/AboutUs/newsroom/common/default-3/corporate-default-7-primary-thumbnail-d.jpg",
      "description": "Telehealth service KonsultaMD donated 4,000 pieces of medicine to the Pasig City Health Department as part of its goal to provide accessible healthcare for all.",
      "datePosted": "Dec 21, 2022 | 08:00 AM",
      "titleFromTag": "917Ventures"
    },
    {
      "title": "Globe Says Integrity of Financial Disclosures and Reporting Cornerstones of Good Corporate Governance",
      "nonclickable": false,
      "openNewTab": false,
      "borderArticle": "border-color:#0074D9;",
      "borderTopArticle": "border-top-color:#0074D9;",
      "imageListing": "/sites/globe.com.ph/files/content/dam/globe/brie/AboutUs/newsroom/corporate/globe-named-ph-best-mobile-network-infrastructure-company/Corporate-globe-thumbnail-listing.jpg",
      "articleUrl": "https://www.globe.com.ph/about-us/newsroom/corporate/integrity-of-financial-disclosures-and-reporting-cornerstones-of-good-corporate-governance.html",
      "columnType": "articles--type-3",
      "typeListing": "article",
      "imageMobile": "/sites/globe.com.ph/files/content/dam/globe/brie/AboutUs/newsroom/corporate/globe-named-ph-best-mobile-network-infrastructure-company/Corporate-globe-primary-thumbnail-m.jpg",
      "imageDesktop": "/sites/globe.com.ph/files/content/dam/globe/brie/AboutUs/newsroom/corporate/globe-named-ph-best-mobile-network-infrastructure-company/Corporate-globe-primary-thumbnail-d.jpg",
      "description": "Globe emphasizes integrity, accountability, and transparency in its financial reporting standards as part of its commitment to uphold good corporate governance.",
      "datePosted": "Dec 20, 2022 | 01:33 PM",
      "titleFromTag": "Corporate"
    },
    {
      "title": "Globe Ready To Accept SIM Registrations Online Beginning December 27",
      "nonclickable": false,
      "openNewTab": false,
      "borderArticle": "border-color:#0074D9;",
      "borderTopArticle": "border-top-color:#0074D9;",
      "imageListing": "/sites/globe.com.ph/files/content/dam/globe/brie/AboutUs/newsroom/corporate/globe-sms-blocking/corporate-default-7-thumbnail-listing.jpg",
      "articleUrl": "https://www.globe.com.ph/about-us/newsroom/corporate/globe-ready-to-accept-sim-registrations-online.html",
      "columnType": "articles--type-3",
      "typeListing": "article",
      "imageMobile": "/sites/globe.com.ph/files/content/dam/globe/brie/AboutUs/newsroom/corporate/globe-sms-blocking/corporate-default-7-primary-thumbnail-m.jpg",
      "imageDesktop": "/sites/globe.com.ph/files/content/dam/globe/brie/AboutUs/newsroom/corporate/globe-sms-blocking/corporate-default-7-primary-thumbnail-d.jpg",
      "description": "Globe announces its online SIM registration platform beginning December 27 following the recent release of SIM Registration Act’s IRR.",
      "datePosted": "Dec 20, 2022 | 01:33 PM",
      "titleFromTag": "Corporate"
    },
    {
      "title": "Globe At Home Prepaid WiFi Offers Exclusive Promos and Discounts",
      "nonclickable": false,
      "openNewTab": false,
      "borderArticle": "border-color:#0074D9;",
      "borderTopArticle": "border-top-color:#0074D9;",
      "imageListing": "/sites/globe.com.ph/files/content/dam/globe/brie/AboutUs/newsroom/common/default-4/default-consumer-3-thumbnail-listing.jpg",
      "articleUrl": "https://www.globe.com.ph/about-us/newsroom/consumer/exclusive-promos-from-globe-at-home.html",
      "columnType": "articles--type-3",
      "typeListing": "article",
      "imageMobile": "/sites/globe.com.ph/files/content/dam/globe/brie/AboutUs/newsroom/common/default-4/default-consumer-3-primary-thumbnail-m.jpg",
      "imageDesktop": "/sites/globe.com.ph/files/content/dam/globe/brie/AboutUs/newsroom/common/default-4/default-consumer-3-primary-thumbnail-d.jpg",
      "description": "Globe At Home Prepaid WiFi offers exclusive promos and discounts so you can enjoy sulit internet connection and Gifts of Wonder  this Christmas. ",
      "datePosted": "Dec 20, 2022 | 11:00 AM",
      "titleFromTag": "Consumer"
    }
  ]
}
