{
  "status": 200,
  "page": 4,
  "totalPage": 298,
  "range": "37-48",
  "total": 3573,
  "result": [
    {
      "title": "PetPal Serves Over 300 Pets in First Vaccination Drive in Metro Manila",
      "nonclickable": false,
      "openNewTab": false,
      "borderArticle": "border-color:#0074D9;",
      "borderTopArticle": "border-top-color:#0074D9;",
      "imageListing": "/sites/globe.com.ph/files/content/dam/globe/brie/About-us/Newsroom/image/Consumer/over-300-pets-petpal-first-vaccination-drive-metro-manila/thumbnail-listing.jpg",
      "articleUrl": "https://www.globe.com.ph/about-us/newsroom/consumer/over-300-pets-petpal-first-vaccination-drive-metro-manila.html",
      "columnType": "articles--type-3",
      "typeListing": "article",
      "imageMobile": "/sites/globe.com.ph/files/content/dam/globe/brie/About-us/Newsroom/image/Consumer/over-300-pets-petpal-first-vaccination-drive-metro-manila/primary-thumbnail-m.jpg",
      "imageDesktop": "/sites/globe.com.ph/files/content/dam/globe/brie/About-us/Newsroom/image/Consumer/over-300-pets-petpal-first-vaccination-drive-metro-manila/primary-thumbnail-d.jpg",
      "description": "PetPal and Univet Nutrition and Animal Healthcare Company recently held their very first vaccination drive Pawtection Party: Vaccinate and Celebrate!",
      "datePosted": "Nov 09, 2023 | 12:38 PM",
      "titleFromTag": "Consumer"
    },
    {
      "title": "Globe Logs New Record-High Mobile Revenue Market Share, Bests Competition with Higher Data Use, Improved ARPU",
      "nonclickable": false,
      "openNewTab": false,
      "borderArticle": "border-color:#0074D9;",
      "borderTopArticle": "border-top-color:#0074D9;",
      "imageListing": "/sites/globe.com.ph/files/content/dam/globe/brie/AboutUs/newsroom/common/default-corporate-main/newsroom-default-corporate-thumbnail-listing.jpg",
      "articleUrl": "https://www.globe.com.ph/about-us/newsroom/corporate/new-record-high-mobile-revenue-market-share.html",
      "columnType": "articles--type-3",
      "typeListing": "article",
      "imageMobile": "/sites/globe.com.ph/files/content/dam/globe/brie/AboutUs/newsroom/common/default-corporate-main/newsroom-default-corporate-primary-thumbnail-m.jpg",
      "imageDesktop": "/sites/globe.com.ph/files/content/dam/globe/brie/AboutUs/newsroom/common/default-corporate-main/newsroom-default-corporate-primary-thumbnail-d.jpg",
      "description": "Globe has recorded its highest Mobile revenue market share since Q3 2019, consistently holding revenue leadership with 54.9% by the end of Q3 2023.",
      "datePosted": "Nov 09, 2023 | 12:37 AM",
      "titleFromTag": "Corporate"
    },
    {
      "title": "Globe Cements Partnership with AcadArena, Kicks it Off with Conquest 2023",
      "nonclickable": false,
      "openNewTab": false,
      "borderArticle": "border-color:#0074D9;",
      "borderTopArticle": "border-top-color:#0074D9;",
      "imageListing": "/sites/globe.com.ph/files/content/dam/globe/brie/AboutUs/newsroom/common/default-event-1/Newsroom-Event-Default-Images-Live-Concert-1-thumbnail-listing.jpg",
      "articleUrl": "https://www.globe.com.ph/about-us/newsroom/sustainability/globe-lyropera-unite-in-song-purpose-address-hunger.html",
      "columnType": "articles--type-3",
      "typeListing": "article",
      "imageMobile": "/sites/globe.com.ph/files/content/dam/globe/brie/AboutUs/newsroom/common/default-event-1/Newsroom-Event-Default-Images-Live-Concert-1-primary-thumbnail-m.jpg",
      "imageDesktop": "/sites/globe.com.ph/files/content/dam/globe/brie/AboutUs/newsroom/common/default-event-1/Newsroom-Event-Default-Images-Live-Concert-1-primary-thumbnail-d.jpg",
      "description": "Globe and LyrOPERA have come together to take action on involuntary hunger through the “Cavalleria Rusticana” and “I PAGliacci” (CAVPAG).",
      "datePosted": "Nov 08, 2023 | 02:47 PM",
      "titleFromTag": "Sustainability"
    },
    {
      "title": "Globe, Security Bank Team Up to Boost Cybersecurity Initiatives",
      "nonclickable": false,
      "openNewTab": false,
      "borderArticle": "border-color:#0074D9;",
      "borderTopArticle": "border-top-color:#0074D9;",
      "imageListing": "/sites/globe.com.ph/files/content/dam/globe/brie/AboutUs/newsroom/common/default-total-globe-partners-1/thumbnail-listing.jpg",
      "articleUrl": "https://www.globe.com.ph/about-us/newsroom/corporate/globe-security-bank-boost-cybersecurity-initiatives.html",
      "columnType": "articles--type-3",
      "typeListing": "article",
      "imageMobile": "/sites/globe.com.ph/files/content/dam/globe/brie/AboutUs/newsroom/common/default-total-globe-partners-1/primary-thumbnail-m.jpg",
      "imageDesktop": "/sites/globe.com.ph/files/content/dam/globe/brie/AboutUs/newsroom/common/default-total-globe-partners-1/primary-thumbnail-d.jpg",
      "description": "Globe and top universal bank Security Bank have signed a Memorandum of Understanding that aims to further boost cybersecurity initiatives.",
      "datePosted": "Nov 08, 2023 | 09:55 AM",
      "titleFromTag": "Corporate"
    },
    {
      "title": "Gogoro Opens First Experience Center in PH",
      "nonclickable": false,
      "openNewTab": false,
      "borderArticle": "border-color:#0074D9;",
      "borderTopArticle": "border-top-color:#0074D9;",
      "imageListing": "/sites/globe.com.ph/files/content/dam/globe/brie/AboutUs/newsroom/corporate/gogoro-opens-first-experience-center-in-ph/corp-gogoro-thumbnail-listing.jpg",
      "articleUrl": "https://www.globe.com.ph/about-us/newsroom/corporate/gogoro-opens-first-experience-center-ph.html",
      "columnType": "articles--type-3",
      "typeListing": "article",
      "imageMobile": "/sites/globe.com.ph/files/content/dam/globe/brie/AboutUs/newsroom/corporate/gogoro-opens-first-experience-center-in-ph/corp-gogoro-primary-thumbnail-m.jpg",
      "imageDesktop": "/sites/globe.com.ph/files/content/dam/globe/brie/AboutUs/newsroom/corporate/gogoro-opens-first-experience-center-in-ph/corp-gogoro-primary-thumbnail-d.jpg",
      "description": "Gogoro Philippines opened its first experience center in Makati City on November 7 as it gears up for its commercial launch in the country.",
      "datePosted": "Nov 07, 2023 | 05:51 PM",
      "titleFromTag": "Corporate"
    },
    {
      "title": "Traveling to the Philippines? Elevate Your Connectivity Experience with Globe’s New Prepaid Traveler eSIM",
      "nonclickable": false,
      "openNewTab": false,
      "borderArticle": "border-color:#0074D9;",
      "borderTopArticle": "border-top-color:#0074D9;",
      "imageListing": "/sites/globe.com.ph/files/content/dam/globe/brie/AboutUs/newsroom/common/default-international-2/thumbnail-listing.jpg",
      "articleUrl": "https://www.globe.com.ph/about-us/newsroom/consumer/elevate-connectivity-experience-new-prepaid-traveler-esim.html",
      "columnType": "articles--type-3",
      "typeListing": "article",
      "imageMobile": "/sites/globe.com.ph/files/content/dam/globe/brie/AboutUs/newsroom/common/default-international-2/primary-thumbnail-m.jpg",
      "imageDesktop": "/sites/globe.com.ph/files/content/dam/globe/brie/AboutUs/newsroom/common/default-international-2/primary-thumbnail-d.jpg",
      "description": "Globe is redefining the travel connectivity landscape with the introduction of the new Prepaid Traveler eSIM.",
      "datePosted": "Nov 07, 2023 | 04:39 PM",
      "titleFromTag": "Consumer"
    },
    {
      "title": "STT GDC Philippines Announces Second Facility in Cavite Data Center Campus",
      "nonclickable": false,
      "openNewTab": false,
      "borderArticle": "border-color:#0074D9;",
      "borderTopArticle": "border-top-color:#0074D9;",
      "imageListing": "/sites/globe.com.ph/files/content/dam/globe/brie/AboutUs/newsroom/corporate/stt-gdc-philippines-announces-second-facility-in-cavite-/corp-stt-thumbnail-listing.jpg",
      "articleUrl": "https://www.globe.com.ph/about-us/newsroom/corporate/stt-gdc-ph-second-facility-cavite-data-center-campus.html",
      "columnType": "articles--type-3",
      "typeListing": "article",
      "imageMobile": "/sites/globe.com.ph/files/content/dam/globe/brie/AboutUs/newsroom/corporate/stt-gdc-philippines-announces-second-facility-in-cavite-/corp-stt-primary-thumbnail-m.jpg",
      "imageDesktop": "/sites/globe.com.ph/files/content/dam/globe/brie/AboutUs/newsroom/corporate/stt-gdc-philippines-announces-second-facility-in-cavite-/corp-stt-primary-thumbnail-d.jpg",
      "description": "STT GDC is expanding its presence with the construction of a 2nd facility in its STT Cavite data center campus, 6 months after construction on STT Fairview.",
      "datePosted": "Nov 07, 2023 | 04:39 PM",
      "titleFromTag": "Corporate"
    },
    {
      "title": "Gogoro Philippines Completes Battery Swapping and Smartscooter Pilot, Gears Up for Opening of First Experience Center",
      "nonclickable": false,
      "openNewTab": false,
      "borderArticle": "border-color:#0074D9;",
      "borderTopArticle": "border-top-color:#0074D9;",
      "imageListing": "/sites/globe.com.ph/files/content/dam/globe/brie/About-us/Newsroom/image/Corporate/gogoro-philippines-completes-battery-swapping-smartscooter-pilot/thumbnail-listing.jpg",
      "articleUrl": "https://www.globe.com.ph/about-us/newsroom/corporate/gogoro-philippines-completes-battery-swapping-smartscooter-pilot.html",
      "columnType": "articles--type-3",
      "typeListing": "article",
      "imageMobile": "/sites/globe.com.ph/files/content/dam/globe/brie/About-us/Newsroom/image/Corporate/gogoro-philippines-completes-battery-swapping-smartscooter-pilot/primary-thumbnail-m.jpg",
      "imageDesktop": "/sites/globe.com.ph/files/content/dam/globe/brie/About-us/Newsroom/image/Corporate/gogoro-philippines-completes-battery-swapping-smartscooter-pilot/primary-thumbnail-d.jpg",
      "description": "Gogoro Philippines has successfully completed the two-month pilot test of Gogoro’s innovative Smartscooter® and battery-swapping system.",
      "datePosted": "Oct 31, 2023 | 05:15 PM",
      "titleFromTag": "Corporate"
    },
    {
      "title": "Globe Adds 35 Areas in Most Consistent Fixed Broadband Network Rating in Q3– Ookla",
      "nonclickable": false,
      "openNewTab": false,
      "borderArticle": "border-color:#0074D9;",
      "borderTopArticle": "border-top-color:#0074D9;",
      "imageListing": "/sites/globe.com.ph/files/content/dam/globe/brie/AboutUs/newsroom/common/default-corporate-5g-connectivity/thumbnail-listing.jpg",
      "articleUrl": "https://www.globe.com.ph/about-us/newsroom/corporate/35-areas-most-consistent-fixed-broadband-network-rating.html",
      "columnType": "articles--type-3",
      "typeListing": "article",
      "imageMobile": "/sites/globe.com.ph/files/content/dam/globe/brie/AboutUs/newsroom/common/default-corporate-5g-connectivity/primary-thumbnail-m.jpg",
      "imageDesktop": "/sites/globe.com.ph/files/content/dam/globe/brie/AboutUs/newsroom/common/default-corporate-5g-connectivity/primary-thumbnail-d.jpg",
      "description": "Ookla recognizes Globe as the Most Consistent Fixed Broadband Provider in two provinces and 33 towns and cities for the third quarter of the year.",
      "datePosted": "Oct 31, 2023 | 05:13 PM",
      "titleFromTag": "Corporate"
    },
    {
      "title": "HCX Wins Gold for HR Tech Solutions at the TITAN Business Awards 2023",
      "nonclickable": false,
      "openNewTab": false,
      "borderArticle": "border-color:#0074D9;",
      "borderTopArticle": "border-top-color:#0074D9;",
      "imageListing": "/sites/globe.com.ph/files/content/dam/globe/brie/AboutUs/newsroom/common/default-awards-1/corp-default-images-thumbnail-listing.jpg",
      "articleUrl": "https://www.globe.com.ph/about-us/newsroom/corporate/hcx-wins-gold-hr-tech-solutions-titan-business-awards-2023.html",
      "columnType": "articles--type-3",
      "typeListing": "article",
      "imageMobile": "/sites/globe.com.ph/files/content/dam/globe/brie/AboutUs/newsroom/common/default-awards-1/corp-default-images-primary-thumbnail-m.jpg",
      "imageDesktop": "/sites/globe.com.ph/files/content/dam/globe/brie/AboutUs/newsroom/common/default-awards-1/corp-default-images-primary-thumbnail-d.jpg",
      "description": "HCX Technology Partners bagged the prestigious Gold Award for Human Resources Business Technology Solutions at the TITAN Business Awards 2023.",
      "datePosted": "Oct 31, 2023 | 05:10 PM",
      "titleFromTag": "Corporate"
    },
    {
      "title": "Globe, Nokia Deploy State-of-the-Art Sustainable Antenna in South Cotabato",
      "nonclickable": false,
      "openNewTab": false,
      "borderArticle": "border-color:#0074D9;",
      "borderTopArticle": "border-top-color:#0074D9;",
      "imageListing": "/sites/globe.com.ph/files/content/dam/globe/brie/AboutUs/newsroom/common/default-corporate-5/corp-thumbnail-listing.jpg",
      "articleUrl": "https://www.globe.com.ph/about-us/newsroom/corporate/globe-nokia-deploy-state-of-the-art-sustainable-antenna-south-cotabato.html",
      "columnType": "articles--type-3",
      "typeListing": "article",
      "imageMobile": "/sites/globe.com.ph/files/content/dam/globe/brie/AboutUs/newsroom/common/default-corporate-5/corp-primary-thumbnail-m.jpg",
      "imageDesktop": "/sites/globe.com.ph/files/content/dam/globe/brie/AboutUs/newsroom/common/default-corporate-5/corp-primary-thumbnail-d.jpg",
      "description": "Globe recently deployed Nokia’s state-of-the-art Interleaved Passive Active Antenna (IPAA+) radio solution in South Cotabato.",
      "datePosted": "Oct 31, 2023 | 05:09 PM",
      "titleFromTag": "Corporate"
    },
    {
      "title": "917Ventures’ KodeGo Upskills PAP Employees in AWS Cloud Practitioner Training",
      "nonclickable": false,
      "openNewTab": false,
      "borderArticle": "border-color:#0074D9;",
      "borderTopArticle": "border-top-color:#0074D9;",
      "imageListing": "/sites/globe.com.ph/files/content/dam/globe/brie/AboutUs/newsroom/common/default-corporate-4/corp-listing-thumbnail.jpg",
      "articleUrl": "https://www.globe.com.ph/about-us/newsroom/corporate/kodego-upskills-pap-employees-aws-cloud-practitioner-training.html",
      "columnType": "articles--type-3",
      "typeListing": "article",
      "imageMobile": "/sites/globe.com.ph/files/content/dam/globe/brie/AboutUs/newsroom/common/default-corporate-4/corp-primary-banner-m.jpg",
      "imageDesktop": "/sites/globe.com.ph/files/content/dam/globe/brie/AboutUs/newsroom/common/default-corporate-4/corp-primary-thumbnail.jpg",
      "description": "KodeGo trains and upskills employees of Profiles Asia Pacific, Inc. (PAP) for the AWS Cloud Practitioner certification. ",
      "datePosted": "Oct 31, 2023 | 05:06 PM",
      "titleFromTag": "Corporate"
    }
  ]
}
