{
  "status": 200,
  "page": 40,
  "totalPage": 298,
  "range": "469-480",
  "total": 3573,
  "result": [
    {
      "title": "Have a Merry and Stress-Free Christmas Gift Shopping With Rappit’s Curated Gift Boxes",
      "nonclickable": false,
      "openNewTab": false,
      "borderArticle": "border-color:#0074D9;",
      "borderTopArticle": "border-top-color:#0074D9;",
      "imageListing": "/sites/globe.com.ph/files/content/dam/globe/brie/About-us/Newsroom/image/Consumer/121922/christmas-shopping-with-rappits-curated-gift-boxes-thumbnail-listing.jpg",
      "articleUrl": "https://www.globe.com.ph/about-us/newsroom/consumer/christmas-shopping-with-rappits-curated-gift-boxes.html",
      "columnType": "articles--type-3",
      "typeListing": "article",
      "imageMobile": "/sites/globe.com.ph/files/content/dam/globe/brie/About-us/Newsroom/image/Consumer/121922/christmas-shopping-with-rappits-curated-gift-boxes-primary-thumbnail-m.jpg",
      "imageDesktop": "/sites/globe.com.ph/files/content/dam/globe/brie/About-us/Newsroom/image/Consumer/121922/christmas-shopping-with-rappits-curated-gift-boxes-primary-thumbnail-d.jpg",
      "description": "Have a merry and stress-free Christmas with Rappit’s carefully curated gift packages specially created to suit your interests and budget.",
      "datePosted": "Dec 19, 2022 | 11:00 AM",
      "titleFromTag": "Consumer"
    },
    {
      "title": "Kickstart Ventures President Waves PH Flag in Forbes 2023 ‘50 Over 50’ APAC List of Exceptional Women",
      "nonclickable": false,
      "openNewTab": false,
      "borderArticle": "border-color:#0074D9;",
      "borderTopArticle": "border-top-color:#0074D9;",
      "imageListing": "/sites/globe.com.ph/files/content/dam/globe/brie/About-us/Newsroom/image/Partners/011823/kickstart-ventures-president-waves-ph-flag-in-forbes-thumbnail-listing.jpg",
      "articleUrl": "https://www.globe.com.ph/about-us/newsroom/partners/kickstart-ventures-president-waves-ph-flag-in-forbes.html",
      "columnType": "articles--type-3",
      "typeListing": "article",
      "imageMobile": "/sites/globe.com.ph/files/content/dam/globe/brie/About-us/Newsroom/image/Partners/011823/kickstart-ventures-president-waves-ph-flag-in-forbes-primary-thumbnail-m.jpg",
      "imageDesktop": "/sites/globe.com.ph/files/content/dam/globe/brie/About-us/Newsroom/image/Partners/011823/kickstart-ventures-president-waves-ph-flag-in-forbes-primary-thumbnail-d.jpg",
      "description": "Co-founder and President of Kickstart Ventures was selected from nominations from around the world for APAC List of Exceptional Women.",
      "datePosted": "Dec 18, 2022 | 11:00 AM",
      "titleFromTag": "Partners"
    },
    {
      "title": "Ring In the Year of the ‘Rappit’ With Savings on Groceries and More!",
      "nonclickable": false,
      "openNewTab": false,
      "borderArticle": "border-color:#0074D9;",
      "borderTopArticle": "border-top-color:#0074D9;",
      "imageListing": "/sites/globe.com.ph/files/content/dam/globe/brie/About-us/Newsroom/image/Partners/011923/save-on-groceries-and-more-with-rappit-thumbnail-listing.jpg",
      "articleUrl": "https://www.globe.com.ph/about-us/newsroom/partners/save-on-groceries-and-more-with-rappit.html",
      "columnType": "articles--type-3",
      "typeListing": "article",
      "imageMobile": "/sites/globe.com.ph/files/content/dam/globe/brie/About-us/Newsroom/image/Partners/011923/save-on-groceries-and-more-with-rappit-primary-thumbnail-m.jpg",
      "imageDesktop": "/sites/globe.com.ph/files/content/dam/globe/brie/About-us/Newsroom/image/Partners/011923/save-on-groceries-and-more-with-rappit-primary-thumbnail-d.jpg",
      "description": "Rappit is offering exciting deals this Chinese New Year to reward customers for their loyalty to the platform.",
      "datePosted": "Dec 18, 2022 | 11:00 AM",
      "titleFromTag": "Partners"
    },
    {
      "title": "Globe At Home Brings Wonder To Each Day With Rewards To GFiber Customers This Christmas",
      "nonclickable": false,
      "openNewTab": false,
      "borderArticle": "border-color:#0074D9;",
      "borderTopArticle": "border-top-color:#0074D9;",
      "imageListing": "/sites/globe.com.ph/files/content/dam/globe/brie/AboutUs/newsroom/common/default-4/default-consumer-3-thumbnail-listing.jpg",
      "articleUrl": "https://www.globe.com.ph/about-us/newsroom/consumer/globe-at-home-brings-wonder-to-each-day-with-rewards.html",
      "columnType": "articles--type-3",
      "typeListing": "article",
      "imageMobile": "/sites/globe.com.ph/files/content/dam/globe/brie/AboutUs/newsroom/common/default-4/default-consumer-3-primary-thumbnail-m.jpg",
      "imageDesktop": "/sites/globe.com.ph/files/content/dam/globe/brie/AboutUs/newsroom/common/default-4/default-consumer-3-primary-thumbnail-d.jpg",
      "description": "Globe at Home brings wonder and joy to GFiber customers this Christmas with exciting rewards to further enrich the lives of every Filipino at home.",
      "datePosted": "Dec 16, 2022 | 05:00 PM",
      "titleFromTag": "Consumer"
    },
    {
      "title": "Unionbank Empowers the Future of Banking through Globe Business Fleet Management Solutions",
      "nonclickable": false,
      "openNewTab": false,
      "borderArticle": "border-color:#0074D9;",
      "borderTopArticle": "border-top-color:#0074D9;",
      "imageListing": "/sites/globe.com.ph/files/content/dam/globe/brie/AboutUs/newsroom/corporate/unionbank-empowers-the-future-of-banking/NEWSROOM-PR-for-YCC-Approval-Upload-Seed-thumbnail-listing.jpg",
      "articleUrl": "https://www.globe.com.ph/about-us/newsroom/corporate/unionbank-empowers-the-future-of-banking.html",
      "columnType": "articles--type-3",
      "typeListing": "article",
      "imageMobile": "/sites/globe.com.ph/files/content/dam/globe/brie/AboutUs/newsroom/corporate/unionbank-empowers-the-future-of-banking/NEWSROOM-PR-for-YCC-Approval-Upload-Seed-primary-thumbnail-m.jpg",
      "imageDesktop": "/sites/globe.com.ph/files/content/dam/globe/brie/AboutUs/newsroom/corporate/unionbank-empowers-the-future-of-banking/NEWSROOM-PR-for-YCC-Approval-Upload-Seed-primary-thumbnail-d.jpg",
      "description": "Unionbank of the Philippines stands firm in its promise to empower the future of banking through Globe Business Fleet Management Solutions. ",
      "datePosted": "Dec 16, 2022 | 04:00 PM",
      "titleFromTag": "Corporate"
    },
    {
      "title": "Globe Welcomes Kumu to #UniteVsHunger with The Hapag Movement",
      "nonclickable": false,
      "openNewTab": false,
      "borderArticle": "border-color:#0074D9;",
      "borderTopArticle": "border-top-color:#0074D9;",
      "imageListing": "/sites/globe.com.ph/files/content/dam/globe/brie/AboutUs/newsroom/sustainability/join-the-hapag-movement/Newsroom-sustainability-hapag-movement-relieve-hunger-thumbnail-listing.jpg",
      "articleUrl": "https://www.globe.com.ph/about-us/newsroom/sustainability/globe-welcomes-kumu-to-unitevshunger.html",
      "columnType": "articles--type-3",
      "typeListing": "article",
      "imageMobile": "/sites/globe.com.ph/files/content/dam/globe/brie/AboutUs/newsroom/sustainability/join-the-hapag-movement/newsroom-sustainability-hapag-movement-relieve-hunger-primary-thumbnail-m5.jpg",
      "imageDesktop": "/sites/globe.com.ph/files/content/dam/globe/brie/AboutUs/newsroom/sustainability/join-the-hapag-movement/Newsroom-sustainability-hapag-movement-relieve-hunger-primary-thumbnail-d.jpg",
      "description": "Globe welcomes Kumu, the largest Pinoy social entertainment app, as its new partner joining The Hapag Movemen to raise awareness about food insecurity.",
      "datePosted": "Dec 16, 2022 | 03:05 PM",
      "titleFromTag": "Sustainability"
    },
    {
      "title": "Get Special Deals This Holiday Season at the New RUSH Plus Voucher Marketplace",
      "nonclickable": false,
      "openNewTab": false,
      "borderArticle": "border-color:#0074D9;",
      "borderTopArticle": "border-top-color:#0074D9;",
      "imageListing": "/sites/globe.com.ph/files/content/dam/globe/brie/AboutUs/newsroom/common/default-12/default-corporate-1-thumbnail-listing.jpg",
      "articleUrl": "https://www.globe.com.ph/about-us/newsroom/917ventures/get-special-deals-this-holiday-season.html",
      "columnType": "articles--type-3",
      "typeListing": "article",
      "imageMobile": "/sites/globe.com.ph/files/content/dam/globe/brie/AboutUs/newsroom/common/default-business-4/default-business-4-primary-thumbnail-m.jpg",
      "imageDesktop": "/sites/globe.com.ph/files/content/dam/globe/brie/AboutUs/newsroom/common/default-business-4/default-business-4-primary-thumbnail-d.jpg",
      "description": "RUSH Plus is home to various promos and discounts. From food and beverage, retail, service, to wellness, it makes shopping even more rewarding for customers.",
      "datePosted": "Dec 15, 2022 | 03:14 PM",
      "titleFromTag": "917Ventures"
    },
    {
      "title": "Globe, SM Advantage Card (SMAC) #UniteVsHunger, Join Hands for The Hapag Movement",
      "nonclickable": false,
      "openNewTab": false,
      "borderArticle": "border-color:#0074D9;",
      "borderTopArticle": "border-top-color:#0074D9;",
      "imageListing": "/sites/globe.com.ph/files/content/dam/globe/brie/AboutUs/newsroom/sustainability/globe-and-smac-join-hands-for-the-hapag-movement/thumbnail-listing.jpg",
      "articleUrl": "https://www.globe.com.ph/about-us/newsroom/sustainability/globe-and-smac-join-hands-for-the-hapag-movement.html",
      "columnType": "articles--type-3",
      "typeListing": "article",
      "imageMobile": "/sites/globe.com.ph/files/content/dam/globe/brie/AboutUs/newsroom/sustainability/globe-and-smac-join-hands-for-the-hapag-movement/primary-thumbnail-m.jpg",
      "imageDesktop": "/sites/globe.com.ph/files/content/dam/globe/brie/AboutUs/newsroom/sustainability/globe-and-smac-join-hands-for-the-hapag-movement/primary-thumbnail-d.jpg",
      "description": "Globe and SM Advantage Card, the loyalty card of retail giant SM, have come together to help put meals on the table of those in need through the Hapag Movement.",
      "datePosted": "Dec 15, 2022 | 03:05 PM",
      "titleFromTag": "Sustainability"
    },
    {
      "title": "Globe Named PH’s Best Mobile Network Infrastructure Company At Global Business Outlook Awards 2022",
      "nonclickable": false,
      "openNewTab": false,
      "borderArticle": "border-color:#0074D9;",
      "borderTopArticle": "border-top-color:#0074D9;",
      "imageListing": "/sites/globe.com.ph/files/content/dam/globe/brie/AboutUs/newsroom/corporate/globe-named-ph-best-mobile-network-infrastructure-company/Corporate-globe-thumbnail-listing.jpg",
      "articleUrl": "https://www.globe.com.ph/about-us/newsroom/corporate/globe-named-ph-best-mobile-network-infrastructure-company.html",
      "columnType": "articles--type-3",
      "typeListing": "article",
      "imageMobile": "/sites/globe.com.ph/files/content/dam/globe/brie/AboutUs/newsroom/corporate/globe-named-ph-best-mobile-network-infrastructure-company/Corporate-globe-primary-thumbnail-m.jpg",
      "imageDesktop": "/sites/globe.com.ph/files/content/dam/globe/brie/AboutUs/newsroom/corporate/globe-named-ph-best-mobile-network-infrastructure-company/Corporate-globe-primary-thumbnail-d.jpg",
      "description": "Globe is named the Best Mobile Network Infrastructure in the Philippines at the Global Business Outlook Awards 2022",
      "datePosted": "Dec 15, 2022 | 01:33 PM",
      "titleFromTag": "Corporate"
    },
    {
      "title": "Globe Upholds Highest Standards of Good Corporate Governance",
      "nonclickable": false,
      "openNewTab": false,
      "borderArticle": "border-color:#0074D9;",
      "borderTopArticle": "border-top-color:#0074D9;",
      "imageListing": "/sites/globe.com.ph/files/content/dam/globe/brie/AboutUs/newsroom/corporate/globe-named-ph-best-mobile-network-infrastructure-company/Corporate-globe-thumbnail-listing.jpg",
      "articleUrl": "https://www.globe.com.ph/about-us/newsroom/corporate/globe-upholds-highest-standards-on-corporate-governance.html",
      "columnType": "articles--type-3",
      "typeListing": "article",
      "imageMobile": "/sites/globe.com.ph/files/content/dam/globe/brie/AboutUs/newsroom/corporate/globe-named-ph-best-mobile-network-infrastructure-company/Corporate-globe-primary-thumbnail-m.jpg",
      "imageDesktop": "/sites/globe.com.ph/files/content/dam/globe/brie/AboutUs/newsroom/corporate/globe-named-ph-best-mobile-network-infrastructure-company/Corporate-globe-primary-thumbnail-d.jpg",
      "description": "Globe upheld the highest standards of good corporate governance, aligned with its goal of ensuring sound business all throughout its value and supply chains.",
      "datePosted": "Dec 15, 2022 | 01:33 PM",
      "titleFromTag": "Corporate"
    },
    {
      "title": "Globe Welcomes Release of IRR for RA 11934, Sees Massive Deployment for 87.9-m SIM Users",
      "nonclickable": false,
      "openNewTab": false,
      "borderArticle": "border-color:#0074D9;",
      "borderTopArticle": "border-top-color:#0074D9;",
      "imageListing": "/sites/globe.com.ph/files/content/dam/globe/brie/AboutUs/newsroom/corporate/globe-sms-blocking/corporate-default-7-thumbnail-listing.jpg",
      "articleUrl": "https://www.globe.com.ph/about-us/newsroom/corporate/globe-welcomes-release-of-irr-for-ra-11934.html",
      "columnType": "articles--type-3",
      "typeListing": "article",
      "imageMobile": "/sites/globe.com.ph/files/content/dam/globe/brie/AboutUs/newsroom/corporate/globe-sms-blocking/corporate-default-7-primary-thumbnail-m.jpg",
      "imageDesktop": "/sites/globe.com.ph/files/content/dam/globe/brie/AboutUs/newsroom/corporate/globe-sms-blocking/corporate-default-7-primary-thumbnail-d.jpg",
      "description": "Globe welcomes the release of the implementing rules and regulations of the SIM Registration Act for standard enforcement of the law.",
      "datePosted": "Dec 13, 2022 | 04:00 PM",
      "titleFromTag": "Corporate"
    },
    {
      "title": "Globe, Partners Land $150M PDSCN Cable in Boracay",
      "nonclickable": false,
      "openNewTab": false,
      "borderArticle": "border-color:#0074D9;",
      "borderTopArticle": "border-top-color:#0074D9;",
      "imageListing": "/sites/globe.com.ph/files/content/dam/globe/brie/AboutUs/newsroom/partners/globe-partners-land-150m-dollars-pdscn-cable/thumbnail-listing.jpg",
      "articleUrl": "https://www.globe.com.ph/about-us/newsroom/partners/globe-partners-land-150m-dollars-pdscn-cable.html",
      "columnType": "articles--type-3",
      "typeListing": "article",
      "imageMobile": "/sites/globe.com.ph/files/content/dam/globe/brie/AboutUs/newsroom/partners/globe-partners-land-150m-dollars-pdscn-cable/primary-thumbnail-m.jpg",
      "imageDesktop": "/sites/globe.com.ph/files/content/dam/globe/brie/AboutUs/newsroom/partners/globe-partners-land-150m-dollars-pdscn-cable/primary-thumbnail-d.jpg",
      "description": "Globe and its partners Eastern Communications and InfiniVAN, Inc. marked another milestone as the US$150-million PDSCN project landed in Boracay, Aklan.",
      "datePosted": "Dec 13, 2022 | 11:00 AM",
      "titleFromTag": "Partners"
    }
  ]
}
