{
  "status": 200,
  "page": 41,
  "totalPage": 298,
  "range": "481-492",
  "total": 3573,
  "result": [
    {
      "title": "Globe Readies Deployment of Improved 5G Technology After Successful Live Trial",
      "nonclickable": false,
      "openNewTab": false,
      "borderArticle": "border-color:#0074D9;",
      "borderTopArticle": "border-top-color:#0074D9;",
      "imageListing": "/sites/globe.com.ph/files/content/dam/globe/brie/About-us/Newsroom/image/Corporate/121222/globe-readies-deployment-of-improved-5g-technology-thumbnail-listing.jpg",
      "articleUrl": "https://www.globe.com.ph/about-us/newsroom/corporate/globe-readies-deployment-of-improved-5g-technology.html",
      "columnType": "articles--type-3",
      "typeListing": "article",
      "imageMobile": "/sites/globe.com.ph/files/content/dam/globe/brie/About-us/Newsroom/image/Corporate/121222/globe-readies-deployment-of-improved-5g-technology-primary-thumbnail-m.jpg",
      "imageDesktop": "/sites/globe.com.ph/files/content/dam/globe/brie/About-us/Newsroom/image/Corporate/121222/globe-readies-deployment-of-improved-5g-technology-primary-thumbnail-d.jpg",
      "description": "Globe is ramping up the deployment of 5G Standalone (SA) technology after its successful live network testing.",
      "datePosted": "Dec 12, 2022 | 04:00 PM",
      "titleFromTag": "Corporate"
    },
    {
      "title": "Globe Warns against Criminals Using SIM Registration Law to Scam Public",
      "nonclickable": false,
      "openNewTab": false,
      "borderArticle": "border-color:#0074D9;",
      "borderTopArticle": "border-top-color:#0074D9;",
      "imageListing": "/sites/globe.com.ph/files/content/dam/globe/brie/AboutUs/newsroom/corporate/globe-sms-blocking/corporate-default-7-thumbnail-listing.jpg",
      "articleUrl": "https://www.globe.com.ph/about-us/newsroom/corporate/globe-warns-against-criminals-using-sim-registration-law.html",
      "columnType": "articles--type-3",
      "typeListing": "article",
      "imageMobile": "/sites/globe.com.ph/files/content/dam/globe/brie/AboutUs/newsroom/corporate/globe-sms-blocking/corporate-default-7-primary-thumbnail-m.jpg",
      "imageDesktop": "/sites/globe.com.ph/files/content/dam/globe/brie/AboutUs/newsroom/corporate/globe-sms-blocking/corporate-default-7-primary-thumbnail-d.jpg",
      "description": "Globe warns the public against unscrupulous groups and individuals who are taking advantage of the SIM registration law to scam people.",
      "datePosted": "Dec 09, 2022 | 04:00 PM",
      "titleFromTag": "Corporate"
    },
    {
      "title": "Enjoy wonder at home this holiday season with the latest GFiber offer with Disney+ from Globe At Home",
      "nonclickable": false,
      "openNewTab": false,
      "borderArticle": "border-color:#0074D9;",
      "borderTopArticle": "border-top-color:#0074D9;",
      "imageListing": "/sites/globe.com.ph/files/content/dam/globe/brie/AboutUs/newsroom/consumer/enjoy-wonder-at-home-this-holiday-season/newsroom-consumer-enjoy-gfiber-disneyplus-GAH-thumbnail-listing.jpg",
      "articleUrl": "https://www.globe.com.ph/about-us/newsroom/consumer/enjoy-wonder-at-home-this-holiday-season.html",
      "columnType": "articles--type-3",
      "typeListing": "article",
      "imageMobile": "/sites/globe.com.ph/files/content/dam/globe/brie/AboutUs/newsroom/consumer/enjoy-wonder-at-home-this-holiday-season/newsroom-consumer-enjoy-gfiber-disneyplus-GAH-primary-thumbnail-m.jpg",
      "imageDesktop": "/sites/globe.com.ph/files/content/dam/globe/brie/AboutUs/newsroom/consumer/enjoy-wonder-at-home-this-holiday-season/newsroom-consumer-enjoy-gfiber-disneyplus-GAH-primary-thumbnail-d.jpg",
      "description": "Enjoy the holiday season in the comfort of your home with the latest GFiber Unli 2499 with Disney+ from Globe At Home. ",
      "datePosted": "Dec 09, 2022 | 03:53 PM",
      "titleFromTag": "Consumer"
    },
    {
      "title": "5G Gaming Experience Leader Globe Unleashes Filipino Gamers Potential in ESGS 2022",
      "nonclickable": false,
      "openNewTab": false,
      "borderArticle": "border-color:#0074D9;",
      "borderTopArticle": "border-top-color:#0074D9;",
      "imageListing": "/sites/globe.com.ph/files/content/dam/globe/brie/About-us/Newsroom/image/Corporate/120722/globe-unleashes-gamer-potential-in-esgs-thumbnail-listing.jpg",
      "articleUrl": "https://www.globe.com.ph/about-us/newsroom/corporate/globe-unleashes-gamer-potential-in-esgs.html",
      "columnType": "articles--type-3",
      "typeListing": "article",
      "imageMobile": "/sites/globe.com.ph/files/content/dam/globe/brie/About-us/Newsroom/image/Corporate/120722/globe-unleashes-gamer-potential-in-esgs-primary-thumbnail-m.jpg",
      "imageDesktop": "/sites/globe.com.ph/files/content/dam/globe/brie/About-us/Newsroom/image/Corporate/120722/globe-unleashes-gamer-potential-in-esgs-primary-thumbnail-d.jpg",
      "description": "Globe continues to enhance the experience of Filipino gamers, unleashes their potential in the annual Electronic Sports and Gaming Summit for the first time. ",
      "datePosted": "Dec 07, 2022 | 04:00 PM",
      "titleFromTag": "Corporate"
    },
    {
      "title": "Telco Is Utility: Globe Pushes for Institutionalization of Eased Permitting Process for Telco Infra",
      "nonclickable": false,
      "openNewTab": false,
      "borderArticle": "border-color:#1C91C5;",
      "borderTopArticle": "border-top-color:#1C91C5;",
      "imageListing": "/sites/globe.com.ph/files/content/dam/globe/brie/AboutUs/newsroom/corporate/globe-completes-sites-upgrades/corporate-default-6-thumbnail-listing.jpg",
      "articleUrl": "https://www.globe.com.ph/about-us/newsroom/corporate/globe-pushes-for-institutionalization-for-telco-infra.html",
      "columnType": "articles--type-3",
      "typeListing": "article",
      "imageMobile": "/sites/globe.com.ph/files/content/dam/globe/brie/AboutUs/newsroom/corporate/globe-completes-sites-upgrades/corporate-default-6-primary-thumbnail-m.jpg",
      "imageDesktop": "/sites/globe.com.ph/files/content/dam/globe/brie/AboutUs/newsroom/corporate/globe-completes-sites-upgrades/corporate-default-6-primary-thumbnail-d.jpg",
      "description": "Globe called for the institutionalization of a streamlined permitting process for ICT infrastructure to allow faster network to support in connectivity needs.",
      "datePosted": "Dec 07, 2022 | 09:31 AM",
      "titleFromTag": "Corporate"
    },
    {
      "title": "Globe Business Champions Ecosystem Mindset To Achieve Business Goals",
      "nonclickable": false,
      "openNewTab": false,
      "borderArticle": "border-color:#0074D9;",
      "borderTopArticle": "border-top-color:#0074D9;",
      "imageListing": "/sites/globe.com.ph/files/content/dam/globe/brie/AboutUs/newsroom/corporate/globe-business-champions-ecosystem-mindset/eg-leadin-listing-thumbnail.jpg",
      "articleUrl": "https://www.globe.com.ph/about-us/newsroom/business/globe-business-champions-ecosystem-mindset.html",
      "columnType": "articles--type-3",
      "typeListing": "article",
      "imageMobile": "/sites/globe.com.ph/files/content/dam/globe/brie/AboutUs/newsroom/corporate/globe-business-champions-ecosystem-mindset/eg-leadin-primary-banner-m.jpg",
      "imageDesktop": "/sites/globe.com.ph/files/content/dam/globe/brie/AboutUs/newsroom/corporate/globe-business-champions-ecosystem-mindset/eg-leadin-primary-thumbnail.jpg",
      "description": "Globe Business holds Leadership Innovation Forum 2022 to empower enterprise leaders to adopt the ecosystems approach to grow in today's landscape.",
      "datePosted": "Dec 06, 2022 | 11:47 AM",
      "titleFromTag": "Business"
    },
    {
      "title": "Globe Fires up 26 New Cell Sites in Mindoro, Marinduque via Partnerships with Power Coops",
      "nonclickable": false,
      "openNewTab": false,
      "borderArticle": "border-color:#1C91C5;",
      "borderTopArticle": "border-top-color:#1C91C5;",
      "imageListing": "/sites/globe.com.ph/files/content/dam/globe/brie/AboutUs/newsroom/common/default-15/default-corporate-9-thumbnail-listing.jpg",
      "articleUrl": "https://www.globe.com.ph/about-us/newsroom/corporate/globe-fires-up-26-new-cell-sites.html",
      "columnType": "articles--type-3",
      "typeListing": "article",
      "imageMobile": "/sites/globe.com.ph/files/content/dam/globe/brie/AboutUs/newsroom/common/default-15/default-corporate-9-primary-thumbnail-m.jpg",
      "imageDesktop": "/sites/globe.com.ph/files/content/dam/globe/brie/AboutUs/newsroom/common/default-15/default-corporate-9-primary-thumbnail-d.jpg",
      "description": "Globe fired up 26 new LTE-capable cell sites in Oriental Mindoro and Marinduque from Jan-Jun this year through stronger partnerships with local cooperatives.",
      "datePosted": "Dec 06, 2022 | 11:31 AM",
      "titleFromTag": "Corporate"
    },
    {
      "title": "Globe’s 9-Month Mobile Business Revenue Second Highest on Record",
      "nonclickable": false,
      "openNewTab": false,
      "borderArticle": "border-color:#0074D9;",
      "borderTopArticle": "border-top-color:#0074D9;",
      "imageListing": "/sites/globe.com.ph/files/content/dam/globe/brie/AboutUs/newsroom/common/default-11/default-business-5-thumbnail-listing.jpg",
      "articleUrl": "https://www.globe.com.ph/about-us/newsroom/corporate/globes-mobile-business-revenue-2nd-highest.html",
      "columnType": "articles--type-3",
      "typeListing": "article",
      "imageMobile": "/sites/globe.com.ph/files/content/dam/globe/brie/AboutUs/newsroom/common/default-11/default-business-5-primary-thumbnail-m.jpg",
      "imageDesktop": "/sites/globe.com.ph/files/content/dam/globe/brie/AboutUs/newsroom/common/default-11/default-business-5-primary-thumbnail-d.jpg",
      "description": "Globe’s mobile business remains strong, achieving revenue growth of ₱80.6 billion, the company’s second highest nine-month mobile revenues.",
      "datePosted": "Dec 05, 2022 | 01:44 PM",
      "titleFromTag": "Corporate"
    },
    {
      "title": "Globe, One Championship Bat for a New Breed of Filipino World Champions",
      "nonclickable": false,
      "openNewTab": false,
      "borderArticle": "border-color:#0074D9;",
      "borderTopArticle": "border-top-color:#0074D9;",
      "imageListing": "/sites/globe.com.ph/files/content/dam/globe/brie/AboutUs/newsroom/common/default-4/default-consumer-3-thumbnail-listing.jpg",
      "articleUrl": "https://www.globe.com.ph/about-us/newsroom/consumer/globe-one-championship-bat-for-new-breed-of-champions.html",
      "columnType": "articles--type-3",
      "typeListing": "article",
      "imageMobile": "/sites/globe.com.ph/files/content/dam/globe/brie/AboutUs/newsroom/common/default-4/default-consumer-3-primary-thumbnail-m.jpg",
      "imageDesktop": "/sites/globe.com.ph/files/content/dam/globe/brie/AboutUs/newsroom/common/default-4/default-consumer-3-primary-thumbnail-d.jpg",
      "description": "Globe and One Championship brings Filipino fight fans one of the biggest international sporting events: ONE 164.",
      "datePosted": "Dec 02, 2022 | 03:53 PM",
      "titleFromTag": "Consumer"
    },
    {
      "title": "Globe Group Chief: KonsultaMD Shows Potential to Become PH’s Next Unicorn",
      "nonclickable": false,
      "openNewTab": false,
      "borderArticle": "border-color:#1C91C5;",
      "borderTopArticle": "border-top-color:#1C91C5;",
      "imageListing": "/sites/globe.com.ph/files/content/dam/globe/brie/AboutUs/newsroom/corporate/konsultamd-potential-to-become-the-next-unicorn/thumbnail-listing.jpg",
      "articleUrl": "https://www.globe.com.ph/about-us/newsroom/corporate/konsultamd-potential-to-become-the-next-unicorn.html",
      "columnType": "articles--type-3",
      "typeListing": "article",
      "imageMobile": "/sites/globe.com.ph/files/content/dam/globe/brie/AboutUs/newsroom/corporate/konsultamd-potential-to-become-the-next-unicorn/primary-thumbnail-m.jpg",
      "imageDesktop": "/sites/globe.com.ph/files/content/dam/globe/brie/AboutUs/newsroom/corporate/konsultamd-potential-to-become-the-next-unicorn/primary-thumbnail-d.jpg",
      "description": "Globe Group Chief and CEO, Ernest Cu, enthusiastically says 917Ventures’ telehealth service KonsultaMD shows promising potential to become PH’s next unicorn.",
      "datePosted": "Dec 02, 2022 | 09:27 AM",
      "titleFromTag": "Corporate"
    },
    {
      "title": "Globe Pushes for Closer Collaboration with Gov’t to Bring Faster, More Reliable Connectivity Nationwide",
      "nonclickable": false,
      "openNewTab": false,
      "borderArticle": "border-color:#0074D9;",
      "borderTopArticle": "border-top-color:#0074D9;",
      "imageListing": "/sites/globe.com.ph/files/content/dam/globe/brie/AboutUs/newsroom/corporate/globe-dti-advocate-responsible-business-practices/Corporate-globe-thumbnail-listing.jpg",
      "articleUrl": "https://www.globe.com.ph/about-us/newsroom/corporate/globe-pushes-for-closer-collaboration-with-govt.html",
      "columnType": "articles--type-3",
      "typeListing": "article",
      "imageMobile": "/sites/globe.com.ph/files/content/dam/globe/brie/AboutUs/newsroom/corporate/globe-dti-advocate-responsible-business-practices/Corporate-globe-primary-thumbnail-m.jpg",
      "imageDesktop": "/sites/globe.com.ph/files/content/dam/globe/brie/AboutUs/newsroom/corporate/globe-dti-advocate-responsible-business-practices/Corporate-globe-primary-thumbnail-d.jpg",
      "description": "Globe is deepening its collaboration with the national government & LGUs to address challenges in delivering faster & more reliable internet connectivity.",
      "datePosted": "Dec 01, 2022 | 03:47 PM",
      "titleFromTag": "Corporate"
    },
    {
      "title": "Globe’s 917Ventures, Ayala Corp. To Bring Gogoro’s Leading ‘Smartscooter’ and Battery-Swapping Technology in PH",
      "nonclickable": false,
      "openNewTab": false,
      "borderArticle": "border-color:#1C91C5;",
      "borderTopArticle": "border-top-color:#1C91C5;",
      "imageListing": "/sites/globe.com.ph/files/content/dam/globe/brie/AboutUs/newsroom/corporate/917ventures-ayala-corp-bring-gogoro-philippines/thumbnail-listing.jpg",
      "articleUrl": "https://www.globe.com.ph/about-us/newsroom/corporate/917ventures-ayala-corp-bring-gogoro-philippines.html",
      "columnType": "articles--type-3",
      "typeListing": "article",
      "imageMobile": "/sites/globe.com.ph/files/content/dam/globe/brie/AboutUs/newsroom/corporate/917ventures-ayala-corp-bring-gogoro-philippines/primary-thumbnail-m.jpg",
      "imageDesktop": "/sites/globe.com.ph/files/content/dam/globe/brie/AboutUs/newsroom/corporate/917ventures-ayala-corp-bring-gogoro-philippines/primary-thumbnail-d.jpg",
      "description": "Globe’s 917Ventures and Ayala Corporation are set to bring global two-wheel electric vehicle and battery-swapping technology leader Gogoro to the Philippines.",
      "datePosted": "Dec 01, 2022 | 02:31 PM",
      "titleFromTag": "Corporate"
    }
  ]
}
