{
  "status": 200,
  "page": 42,
  "totalPage": 298,
  "range": "493-504",
  "total": 3573,
  "result": [
    {
      "title": "Globe At Home Cements Netflix Speed Index Dominance For 10 Straight Months",
      "nonclickable": false,
      "openNewTab": false,
      "borderArticle": "border-color:#1C91C5;",
      "borderTopArticle": "border-top-color:#1C91C5;",
      "imageListing": "/sites/globe.com.ph/files/content/dam/globe/brie/About-us/Newsroom/image/Corporate/12222/GAH-Portal-Newsroom-Netflix-Speeds-Index-thumbnail-listing-288x170.jpg",
      "articleUrl": "https://www.globe.com.ph/about-us/newsroom/corporate/globe-at-home-cements-netflix-speed-index-dominance.html",
      "columnType": "articles--type-3",
      "typeListing": "article",
      "imageMobile": "/sites/globe.com.ph/files/content/dam/globe/brie/About-us/Newsroom/image/Corporate/12222/GAH-Portal-Newsroom-Netflix-Speeds-Index-primary-thumbnail-m-320x360.jpg",
      "imageDesktop": "/sites/globe.com.ph/files/content/dam/globe/brie/About-us/Newsroom/image/Corporate/12222/GAH-Portal-Newsroom-Netflix-Speeds-Index-primary-thumbnail-d-860x400.jpg",
      "description": "Globe At Home scored fastest internet speeds in October, dominating in the Internet Service Providers performance rating of Netflix in the Philippines.",
      "datePosted": "Dec 01, 2022 | 09:27 AM",
      "titleFromTag": "Corporate"
    },
    {
      "title": "Globe Tops Opensignal 5G Video Experience, Upload Speed, Core Consistent Quality in October",
      "nonclickable": false,
      "openNewTab": false,
      "borderArticle": "border-color:#1C91C5;",
      "borderTopArticle": "border-top-color:#1C91C5;",
      "imageListing": "/sites/globe.com.ph/files/content/dam/globe/brie/About-us/Newsroom/image/Corporate/112922/globe-tops-opensignal-5g-quality-in-october-thumbnail-listing.jpg",
      "articleUrl": "https://www.globe.com.ph/about-us/newsroom/corporate/globe-tops-opensignal-5g-quality-in-october.html",
      "columnType": "articles--type-3",
      "typeListing": "article",
      "imageMobile": "/sites/globe.com.ph/files/content/dam/globe/brie/About-us/Newsroom/image/Corporate/112922/globe-tops-opensignal-5g-quality-in-october-primary-thumbnail-m.jpg",
      "imageDesktop": "/sites/globe.com.ph/files/content/dam/globe/brie/About-us/Newsroom/image/Corporate/112922/globe-tops-opensignal-5g-quality-in-october-primary-banner-d.jpg",
      "description": "Globe topped the latest report of Opensignal in terms of 5G Video Experience, 5G Upload Speed, and Core Consistent Quality for October 2022. ",
      "datePosted": "Nov 29, 2022 | 11:31 AM",
      "titleFromTag": "Corporate"
    },
    {
      "title": "Kickstart Ventures: Create Safe Spaces To Help Drive Innovation in the Workplace",
      "nonclickable": false,
      "openNewTab": false,
      "borderArticle": "border-color:#0074D9;",
      "borderTopArticle": "border-top-color:#0074D9;",
      "imageListing": "/sites/globe.com.ph/files/content/dam/globe/brie/About-us/Newsroom/image/Partners/112822/safe-spaces-to-drive-innovation-in-the-workplace-thumbnail-listing.jpg",
      "articleUrl": "https://www.globe.com.ph/about-us/newsroom/partners/safe-spaces-to-drive-innovation-in-the-workplace.html",
      "columnType": "articles--type-3",
      "typeListing": "article",
      "imageMobile": "/sites/globe.com.ph/files/content/dam/globe/brie/About-us/Newsroom/image/Partners/112822/safe-spaces-to-drive-innovation-in-the-workplace-primary-thumbnail-m.jpg",
      "imageDesktop": "/sites/globe.com.ph/files/content/dam/globe/brie/About-us/Newsroom/image/Partners/112822/safe-spaces-to-drive-innovation-in-the-workplace-primary-thumbnail-d.jpg",
      "description": "Globe’s corporate venture capital firm Kickstart Ventures encourages companies to provide an environment that supports unorthodox thinking and collaboration.",
      "datePosted": "Nov 28, 2022 | 04:00 PM",
      "titleFromTag": "Partners"
    },
    {
      "title": "Globe Network Rollout Continues, Ends Q3 2022 with 1,064 Cell Towers, More 5G Sites and FTTH Lines",
      "nonclickable": false,
      "openNewTab": false,
      "borderArticle": "border-color:#1C91C5;",
      "borderTopArticle": "border-top-color:#1C91C5;",
      "imageListing": "/sites/globe.com.ph/files/content/dam/globe/brie/AboutUs/newsroom/common/default-15/default-corporate-9-thumbnail-listing.jpg",
      "articleUrl": "https://www.globe.com.ph/about-us/newsroom/corporate/globe-network-rollout-continues.html",
      "columnType": "articles--type-3",
      "typeListing": "article",
      "imageMobile": "/sites/globe.com.ph/files/content/dam/globe/brie/AboutUs/newsroom/common/default-15/default-corporate-9-primary-thumbnail-m.jpg",
      "imageDesktop": "/sites/globe.com.ph/files/content/dam/globe/brie/AboutUs/newsroom/common/default-15/default-corporate-9-primary-thumbnail-d.jpg",
      "description": "Globe network rollout remains on track as it closed the first nine months of 2022 with ₱74.4 billion capital expenditure (CAPEX), 14% higher than last year.",
      "datePosted": "Nov 28, 2022 | 11:31 AM",
      "titleFromTag": "Corporate"
    },
    {
      "title": "7th GSMA SDG Impact Report Features Globe for Advancing Health Solutions in PH",
      "nonclickable": false,
      "openNewTab": false,
      "borderArticle": "border-color:#0074D9;",
      "borderTopArticle": "border-top-color:#0074D9;",
      "imageListing": "/sites/globe.com.ph/files/content/dam/globe/brie/AboutUs/newsroom/corporate/globe-dti-advocate-responsible-business-practices/Corporate-globe-thumbnail-listing.jpg",
      "articleUrl": "https://www.globe.com.ph/about-us/newsroom/corporate/7th-gsma-sdg-impact-report-features-globe.html",
      "columnType": "articles--type-3",
      "typeListing": "article",
      "imageMobile": "/sites/globe.com.ph/files/content/dam/globe/brie/AboutUs/newsroom/corporate/globe-dti-advocate-responsible-business-practices/Corporate-globe-primary-thumbnail-m.jpg",
      "imageDesktop": "/sites/globe.com.ph/files/content/dam/globe/brie/AboutUs/newsroom/corporate/globe-dti-advocate-responsible-business-practices/Corporate-globe-primary-thumbnail-d.jpg",
      "description": "GSMA has featured the efforts of leading digital solutions platform Globe in advancing health solutions in the Philippines through KonsultaMD and HealthNow.",
      "datePosted": "Nov 25, 2022 | 09:47 AM",
      "titleFromTag": "Corporate"
    },
    {
      "title": "Globe Commits to Building Resilient Network amid Climate Hazards",
      "nonclickable": false,
      "openNewTab": false,
      "borderArticle": "border-color:#1C91C5;",
      "borderTopArticle": "border-top-color:#1C91C5;",
      "imageListing": "/sites/globe.com.ph/files/content/dam/globe/brie/AboutUs/newsroom/common/default-15/default-corporate-9-thumbnail-listing.jpg",
      "articleUrl": "https://www.globe.com.ph/about-us/newsroom/corporate/building-resilient-network-amid-climate-hazards.html",
      "columnType": "articles--type-3",
      "typeListing": "article",
      "imageMobile": "/sites/globe.com.ph/files/content/dam/globe/brie/AboutUs/newsroom/common/default-15/default-corporate-9-primary-thumbnail-m.jpg",
      "imageDesktop": "/sites/globe.com.ph/files/content/dam/globe/brie/AboutUs/newsroom/common/default-15/default-corporate-9-primary-thumbnail-d.jpg",
      "description": "Globe strives to build resilient network infrastructure that can withstand the impact of stronger and frequent weather disturbances & other natural disasters. ",
      "datePosted": "Nov 24, 2022 | 11:31 AM",
      "titleFromTag": "Corporate"
    },
    {
      "title": "Globe Scales Up 5G Deployment; NCR Outdoor Coverage Now at 97.1%",
      "nonclickable": false,
      "openNewTab": false,
      "borderArticle": "border-color:#0074D9;",
      "borderTopArticle": "border-top-color:#0074D9;",
      "imageListing": "/sites/globe.com.ph/files/content/dam/globe/brie/About-us/Newsroom/image/Corporate/112422/globe-scales-up-5g-deployment-thumbnail-listing.jpg",
      "articleUrl": "https://www.globe.com.ph/about-us/newsroom/corporate/globe-scales-up-5g-deployment.html",
      "columnType": "articles--type-3",
      "typeListing": "article",
      "imageMobile": "/sites/globe.com.ph/files/content/dam/globe/brie/About-us/Newsroom/image/Corporate/112422/globe-scales-up-5g-deployment-primary-thumbnail-m.jpg",
      "imageDesktop": "/sites/globe.com.ph/files/content/dam/globe/brie/About-us/Newsroom/image/Corporate/112422/globe-scales-up-5g-deployment-primary-thumbnail-d.jpg",
      "description": "Globe continues to deploy its 5G technology nationwide and has now reached 97.1% of NCR and 87.7% of key cities in Visayas and Mindanao.",
      "datePosted": "Nov 24, 2022 | 09:14 AM",
      "titleFromTag": "Corporate"
    },
    {
      "title": "Globe Business Helps MSMEs Achieve Success One Gift At A Time Gift Local 2022",
      "nonclickable": false,
      "openNewTab": false,
      "borderArticle": "border-color:#0074D9;",
      "borderTopArticle": "border-top-color:#0074D9;",
      "imageListing": "/sites/globe.com.ph/files/content/dam/globe/brie/AboutUs/newsroom/consumer/gift-local-2022/sg-gift-local-listing-thumbnail.jpg",
      "articleUrl": "https://www.globe.com.ph/about-us/newsroom/consumer/globe-business-helps-msmes-achieve-success.html",
      "columnType": "articles--type-3",
      "typeListing": "article",
      "imageMobile": "/sites/globe.com.ph/files/content/dam/globe/brie/AboutUs/newsroom/consumer/gift-local-2022/sg-gift-local-primary-banner-m.jpg",
      "imageDesktop": "/sites/globe.com.ph/files/content/dam/globe/brie/AboutUs/newsroom/consumer/gift-local-2022/sg-gift-local-primary-thumbnail.jpg",
      "description": "Globe Business, through the Gift Local 2022 campaign, helps MSMEs achieve success one gift at a time.",
      "datePosted": "Nov 23, 2022 | 03:53 PM",
      "titleFromTag": "Consumer"
    },
    {
      "title": "Designing for the ‘New’ Filipino: 917Ventures Highlights How Design Plays a Role in Its Digital Solutions",
      "nonclickable": false,
      "openNewTab": false,
      "borderArticle": "border-color:#0074D9;",
      "borderTopArticle": "border-top-color:#0074D9;",
      "imageListing": "/sites/globe.com.ph/files/content/dam/globe/brie/AboutUs/newsroom/common/default-12/default-corporate-1-thumbnail-listing.jpg",
      "articleUrl": "https://www.globe.com.ph/about-us/newsroom/917ventures/how-design-plays-a-role-in-digital-solutions.html",
      "columnType": "articles--type-3",
      "typeListing": "article",
      "imageMobile": "/sites/globe.com.ph/files/content/dam/globe/brie/AboutUs/newsroom/common/default-12/default-corporate-1-primary-thumbnail-m.jpg",
      "imageDesktop": "/sites/globe.com.ph/files/content/dam/globe/brie/AboutUs/newsroom/common/default-12/default-corporate-1-primary-thumbnail-d.jpg",
      "description": "917Ventures is leveraging the diverse suite of digital solutions under the Globe Group to innovate and reinvent the lives of over 109 million Filipinos.",
      "datePosted": "Nov 23, 2022 | 03:14 PM",
      "titleFromTag": "917Ventures"
    },
    {
      "title": "Globe Platinum Supports Regional Arts and Design, Co-presents 2nd Visayas Art Fair",
      "nonclickable": false,
      "openNewTab": false,
      "borderArticle": "border-color:#0074D9;",
      "borderTopArticle": "border-top-color:#0074D9;",
      "imageListing": "/sites/globe.com.ph/files/content/dam/globe/brie/About-us/Newsroom/image/Consumer/112222/newsroom-platinum-vaf-thumbnail-listing.jpg",
      "articleUrl": "https://www.globe.com.ph/about-us/newsroom/consumer/globe-platinum-supports-regional-arts-design.html",
      "columnType": "articles--type-3",
      "typeListing": "article",
      "imageMobile": "/sites/globe.com.ph/files/content/dam/globe/brie/About-us/Newsroom/image/Consumer/112222/newsroom-platinum-vaf-primary-thumbnail-m.jpg",
      "imageDesktop": "/sites/globe.com.ph/files/content/dam/globe/brie/About-us/Newsroom/image/Consumer/112222/newsroom-platinum-vaf-primary-thumbnail-d.jpg",
      "description": "Globe Platinum co-presents the 2nd Visayas Art Fair happening on November 25 to 27, 2022 at Mandaue City, Cebu.",
      "datePosted": "Nov 22, 2022 | 04:40 PM",
      "titleFromTag": "Consumer"
    },
    {
      "title": "Globe Q3 Corporate Data Revenues Soar to Record High",
      "nonclickable": false,
      "openNewTab": false,
      "borderArticle": "border-color:#0074D9;",
      "borderTopArticle": "border-top-color:#0074D9;",
      "imageListing": "/sites/globe.com.ph/files/content/dam/globe/brie/AboutUs/newsroom/common/default-9/default-corporate-4-thumbnail-listing.jpg",
      "articleUrl": "https://www.globe.com.ph/about-us/newsroom/corporate/q3-corporate-data-revenues-a-record-high.html",
      "columnType": "articles--type-3",
      "typeListing": "article",
      "imageMobile": "/sites/globe.com.ph/files/content/dam/globe/brie/AboutUs/newsroom/common/default-9/default-corporate-4-primary-thumbnail-m.jpg",
      "imageDesktop": "/sites/globe.com.ph/files/content/dam/globe/brie/AboutUs/newsroom/common/default-9/default-corporate-4-primary-thumbnail-d.jpg",
      "description": "Globe’s Corporate Data revenues soared to another record level at ₱12.5 billion as of the third quarter of the year, or a 21% increase from a year ago.",
      "datePosted": "Nov 22, 2022 | 09:14 AM",
      "titleFromTag": "Corporate"
    },
    {
      "title": "OMO! Get Your Favorite ‘SMCU Express’ Merch Only with Globe’s 0917 Lifestyle",
      "nonclickable": false,
      "openNewTab": false,
      "borderArticle": "border-color:#0074D9;",
      "borderTopArticle": "border-top-color:#0074D9;",
      "imageListing": "/sites/globe.com.ph/files/content/dam/globe/brie/AboutUs/newsroom/consumer/omo-get-your-favorite-smcu-express-merch/thumbnail-listing.jpg",
      "articleUrl": "https://www.globe.com.ph/about-us/newsroom/consumer/smcu-express-merch-0917-lifestyle.html",
      "columnType": "articles--type-3",
      "typeListing": "article",
      "imageMobile": "/sites/globe.com.ph/files/content/dam/globe/brie/AboutUs/newsroom/consumer/omo-get-your-favorite-smcu-express-merch/primary-thumbnail-m.jpg",
      "imageDesktop": "/sites/globe.com.ph/files/content/dam/globe/brie/AboutUs/newsroom/consumer/omo-get-your-favorite-smcu-express-merch/primary-thumbnail-d.jpg",
      "description": "Get SMTOWN’s “SMCU Express” merch collection at Globe’s 0917 Lifestyle shops.",
      "datePosted": "Nov 21, 2022 | 04:40 PM",
      "titleFromTag": "Consumer"
    }
  ]
}
