{
  "status": 200,
  "page": 43,
  "totalPage": 298,
  "range": "505-516",
  "total": 3573,
  "result": [
    {
      "title": "Globe Powers over 600 TMBayan Fiber WiFi Hubs as Need for Connectivity Soars",
      "nonclickable": false,
      "openNewTab": false,
      "borderArticle": "border-color:#0074D9;",
      "borderTopArticle": "border-top-color:#0074D9;",
      "imageListing": "/sites/globe.com.ph/files/content/dam/globe/brie/AboutUs/newsroom/common/default-4/default-consumer-3-thumbnail-listing.jpg",
      "articleUrl": "https://www.globe.com.ph/about-us/newsroom/consumer/600-tmbayan-fiber-wifi-hubs.html",
      "columnType": "articles--type-3",
      "typeListing": "article",
      "imageMobile": "/sites/globe.com.ph/files/content/dam/globe/brie/AboutUs/newsroom/common/default-4/default-consumer-3-primary-thumbnail-m.jpg",
      "imageDesktop": "/sites/globe.com.ph/files/content/dam/globe/brie/AboutUs/newsroom/common/default-4/default-consumer-3-primary-thumbnail-d.jpg",
      "description": "Globe has fired up over 600 TMBayan Fiber WiFi as of October 2022.",
      "datePosted": "Nov 21, 2022 | 04:40 PM",
      "titleFromTag": "Consumer"
    },
    {
      "title": "Globe, PHINMA Education Collaborate On Closing Learning Gaps With Mobile Solutions",
      "nonclickable": false,
      "openNewTab": false,
      "borderArticle": "border-color:#0074D9;",
      "borderTopArticle": "border-top-color:#0074D9;",
      "imageListing": "/sites/globe.com.ph/files/content/dam/globe/brie/AboutUs/newsroom/business/globe-phinma-education-collaborate-mobile-solutions/eg-phinma-listing-thumbnail.jpg",
      "articleUrl": "https://www.globe.com.ph/about-us/newsroom/business/globe-phinma-education-collaborate-mobile-solutions.html",
      "columnType": "articles--type-3",
      "typeListing": "article",
      "imageMobile": "/sites/globe.com.ph/files/content/dam/globe/brie/AboutUs/newsroom/business/globe-phinma-education-collaborate-mobile-solutions/eg-phinma-primary-banner-m.jpg",
      "imageDesktop": "/sites/globe.com.ph/files/content/dam/globe/brie/AboutUs/newsroom/business/globe-phinma-education-collaborate-mobile-solutions/eg-phinma-primary-thumbnail.jpg",
      "description": "Globe Business, PHINMA Education partners to customize a mobile plan to help students adapt to a hybrid learning system.",
      "datePosted": "Nov 18, 2022 | 04:19 PM",
      "titleFromTag": "Business"
    },
    {
      "title": "Globe Deepens STEM Education Commitment, Collaborates with Mapúa on Technopreneurship",
      "nonclickable": false,
      "openNewTab": false,
      "borderArticle": "border-color:#0074D9;",
      "borderTopArticle": "border-top-color:#0074D9;",
      "imageListing": "/sites/globe.com.ph/files/content/dam/globe/brie/AboutUs/newsroom/common/default-partners-3/default-partners-3-thumbnail-listing.jpg",
      "articleUrl": "https://www.globe.com.ph/about-us/newsroom/sustainability/globe-collaborates-with-mapua.html",
      "columnType": "articles--type-3",
      "typeListing": "article",
      "imageMobile": "/sites/globe.com.ph/files/content/dam/globe/brie/AboutUs/newsroom/common/default-partners-3/default-partners-3-primary-thumbnail-m.jpg",
      "imageDesktop": "/sites/globe.com.ph/files/content/dam/globe/brie/AboutUs/newsroom/common/default-partners-3/default-partners-3-primary-thumbnail-d.jpg",
      "description": "Globe deepens its commitment to STEM education in the Philippines by collaborating with Mapúa University on technopreneurship training & curriculum development.",
      "datePosted": "Nov 18, 2022 | 08:05 AM",
      "titleFromTag": "Sustainability"
    },
    {
      "title": "Catch BrightWin’s Shooting Star Asia Tour in Manila With Exclusive Perks from Globe",
      "nonclickable": false,
      "openNewTab": false,
      "borderArticle": "border-color:#0074D9;",
      "borderTopArticle": "border-top-color:#0074D9;",
      "imageListing": "/sites/globe.com.ph/files/content/dam/globe/brie/AboutUs/newsroom/common/default-consumer/default-consumer-thumbnail-listing.jpg",
      "articleUrl": "https://www.globe.com.ph/about-us/newsroom/consumer/brightwin-in-manila.html",
      "columnType": "articles--type-3",
      "typeListing": "article",
      "imageMobile": "/sites/globe.com.ph/files/content/dam/globe/brie/AboutUs/newsroom/common/default-consumer/default-consumer-primary-thumbnail-m.jpg",
      "imageDesktop": "/sites/globe.com.ph/files/content/dam/globe/brie/AboutUs/newsroom/common/default-consumer/default-consumer-primary-thumbnail-d.jpg",
      "description": "Catch BrightWin in Manila on November 19, 2022 and enjoy other exclusive perks from Globe.",
      "datePosted": "Nov 17, 2022 | 04:40 PM",
      "titleFromTag": "Consumer"
    },
    {
      "title": "Asticom Renews Hope for Unemployed Filipino Workers",
      "nonclickable": false,
      "openNewTab": false,
      "borderArticle": "border-color:#0074D9;",
      "borderTopArticle": "border-top-color:#0074D9;",
      "imageListing": "/sites/globe.com.ph/files/content/dam/globe/brie/About-us/Newsroom/image/Partners/111722/Newsroom-Asticom-Renews-Hope-for-Unemployed-Filipino-Workers-thumbnail-listing.jpg",
      "articleUrl": "https://www.globe.com.ph/about-us/newsroom/partners/asticom-renews-hope-for-the-unemployed.html",
      "columnType": "articles--type-3",
      "typeListing": "article",
      "imageMobile": "/sites/globe.com.ph/files/content/dam/globe/brie/About-us/Newsroom/image/Partners/111722/Newsroom-Asticom-Renews-Hope-for-Unemployed-Filipino-Workers-primary-thumbnail-m.jpg",
      "imageDesktop": "/sites/globe.com.ph/files/content/dam/globe/brie/About-us/Newsroom/image/Partners/111722/Newsroom-Asticom-Renews-Hope-for-Unemployed-Filipino-Workers-primary-thumbnail-d.jpg",
      "description": "Although many businesses downsized their workforce or even stopped their operations, Asticom created more job opportunities for skilled Filipino individuals.",
      "datePosted": "Nov 17, 2022 | 04:00 PM",
      "titleFromTag": "Partners"
    },
    {
      "title": "G Summit: Unleashing Extraordinary Digital Leaders Among MSMEs",
      "nonclickable": false,
      "openNewTab": false,
      "borderArticle": "border-color:#0074D9;",
      "borderTopArticle": "border-top-color:#0074D9;",
      "imageListing": "/sites/globe.com.ph/files/content/dam/globe/brie/AboutUs/newsroom/consumer/unleashing-extraordinary-digital-leaders-among-msmes/sg-gsummit-listing-thumbnail.jpg",
      "articleUrl": "https://www.globe.com.ph/about-us/newsroom/consumer/g-summit-unleashes-extraordinary-digital-leaders.html",
      "columnType": "articles--type-3",
      "typeListing": "article",
      "imageMobile": "/sites/globe.com.ph/files/content/dam/globe/brie/AboutUs/newsroom/consumer/unleashing-extraordinary-digital-leaders-among-msmes/sg-gsummit-primary-banner-m.jpg",
      "imageDesktop": "/sites/globe.com.ph/files/content/dam/globe/brie/AboutUs/newsroom/consumer/unleashing-extraordinary-digital-leaders-among-msmes/sg-gsummit-primary-thumbnail.jpg",
      "description": "G Summit unleashes extraordinary digital leaders among MSMEs through knowledge sharing, industry trends, and networking.",
      "datePosted": "Nov 16, 2022 | 01:40 PM",
      "titleFromTag": "Consumer"
    },
    {
      "title": "GLOBE EXCLUSIVE: Get Your Head in the Clouds with an Impressive Lineup of Asian Talents at Great Ticket Discounts!",
      "nonclickable": false,
      "openNewTab": false,
      "borderArticle": "border-color:#0074D9;",
      "borderTopArticle": "border-top-color:#0074D9;",
      "imageListing": "/sites/globe.com.ph/files/content/dam/globe/brie/AboutUs/newsroom/common/default-consumer/default-consumer-thumbnail-listing.jpg",
      "articleUrl": "https://www.globe.com.ph/about-us/newsroom/consumer/head-in-the-clouds-great-ticket-discounts.html",
      "columnType": "articles--type-3",
      "typeListing": "article",
      "imageMobile": "/sites/globe.com.ph/files/content/dam/globe/brie/AboutUs/newsroom/common/default-consumer/default-consumer-primary-thumbnail-m.jpg",
      "imageDesktop": "/sites/globe.com.ph/files/content/dam/globe/brie/AboutUs/newsroom/common/default-consumer/default-consumer-primary-thumbnail-d.jpg",
      "description": "Get a great discount for the Head in the Clouds Music & Arts Festival from November 15–20, 2022. ",
      "datePosted": "Nov 15, 2022 | 04:40 PM",
      "titleFromTag": "Consumer"
    },
    {
      "title": "Planned ALC Subsea Cable System to Further Boost Globe’s Connectivity Capabilities",
      "nonclickable": false,
      "openNewTab": false,
      "borderArticle": "border-color:#1C91C5;",
      "borderTopArticle": "border-top-color:#1C91C5;",
      "imageListing": "/sites/globe.com.ph/files/content/dam/globe/brie/AboutUs/newsroom/common/default-15/default-corporate-9-thumbnail-listing.jpg",
      "articleUrl": "https://www.globe.com.ph/about-us/newsroom/corporate/alc-subsea-cable-system-to-boost-connectivity.html",
      "columnType": "articles--type-3",
      "typeListing": "article",
      "imageMobile": "/sites/globe.com.ph/files/content/dam/globe/brie/AboutUs/newsroom/common/default-15/default-corporate-9-primary-thumbnail-m.jpg",
      "imageDesktop": "/sites/globe.com.ph/files/content/dam/globe/brie/AboutUs/newsroom/common/default-15/default-corporate-9-primary-thumbnail-d.jpg",
      "description": "Globe’s investment into the planned US$300-million ALC system is expected to boost its connectivity capabilities as it shifts to a digital solutions platform.",
      "datePosted": "Nov 15, 2022 | 11:31 AM",
      "titleFromTag": "Corporate"
    },
    {
      "title": "Own Unique Superordinary Friends NFTs With Globe Rewards",
      "nonclickable": false,
      "openNewTab": false,
      "borderArticle": "border-color:#0074D9;",
      "borderTopArticle": "border-top-color:#0074D9;",
      "imageListing": "/sites/globe.com.ph/files/content/dam/globe/brie/About-us/Newsroom/image/Consumer/111522/newsroom-consumer-superordinary-friends-nft-thumbnail-listing.jpg",
      "articleUrl": "https://www.globe.com.ph/about-us/newsroom/consumer/own-nfts-with-globe-rewards.html",
      "columnType": "articles--type-3",
      "typeListing": "article",
      "imageMobile": "/sites/globe.com.ph/files/content/dam/globe/brie/About-us/Newsroom/image/Consumer/111522/newsroom-consumer-superordinary-friends-nft-primary-thumbnail-m.jpg",
      "imageDesktop": "/sites/globe.com.ph/files/content/dam/globe/brie/About-us/Newsroom/image/Consumer/111522/newsroom-consumer-superordinary-friends-nft-primary-thumbnail-d.jpg",
      "description": "Get your own Superordinary Friends (NFTs) or individual digital identifiers created by renowned Filipino artist TRNZ with Globe Rewards points.",
      "datePosted": "Nov 15, 2022 | 10:40 AM",
      "titleFromTag": "Consumer"
    },
    {
      "title": "917Ventures Partners with Venture Capital Firm 500 Global for Startup Acceleration",
      "nonclickable": false,
      "openNewTab": false,
      "borderArticle": "border-color:#0074D9;",
      "borderTopArticle": "border-top-color:#0074D9;",
      "imageListing": "/sites/globe.com.ph/files/content/dam/globe/brie/AboutUs/newsroom/common/default-9/default-corporate-4-thumbnail-listing.jpg",
      "articleUrl": "https://www.globe.com.ph/about-us/newsroom/917ventures/917ventures-partners-with-500-global.html",
      "columnType": "articles--type-3",
      "typeListing": "article",
      "imageMobile": "/sites/globe.com.ph/files/content/dam/globe/brie/AboutUs/newsroom/common/default-9/default-corporate-4-primary-thumbnail-m.jpg",
      "imageDesktop": "/sites/globe.com.ph/files/content/dam/globe/brie/AboutUs/newsroom/common/default-9/default-corporate-4-primary-thumbnail-d.jpg",
      "description": "917Ventures has partnered with worldwide venture capital firm 500 Global to develop and scale 917Ventures’ portfolio companies and ventures.",
      "datePosted": "Nov 15, 2022 | 09:14 AM",
      "titleFromTag": "917Ventures"
    },
    {
      "title": "Globe Portfolio Company Yondu Partners with Cisco for World-Class IT and Networking Solutions",
      "nonclickable": false,
      "openNewTab": false,
      "borderArticle": "border-color:#0074D9;",
      "borderTopArticle": "border-top-color:#0074D9;",
      "imageListing": "/sites/globe.com.ph/files/content/dam/globe/brie/AboutUs/newsroom/common/default-11/default-business-5-thumbnail-listing.jpg",
      "articleUrl": "https://www.globe.com.ph/about-us/newsroom/partners/yondu-partners-with-cisco.html",
      "columnType": "articles--type-3",
      "typeListing": "article",
      "imageMobile": "/sites/globe.com.ph/files/content/dam/globe/brie/AboutUs/newsroom/common/default-11/default-business-5-primary-thumbnail-m.jpg",
      "imageDesktop": "/sites/globe.com.ph/files/content/dam/globe/brie/AboutUs/newsroom/common/default-11/default-business-5-primary-thumbnail-d.jpg",
      "description": "Globe, through Yondu, expands its product offerings for Managed Networks and wireless solutions and Software-Defined Wide Area Network (SD-WAN) services.",
      "datePosted": "Nov 10, 2022 | 04:00 PM",
      "titleFromTag": "Partners"
    },
    {
      "title": "Rappit Celebrates Launch With Merchant Partners, Showcases Competitive Edge as a Grocery App",
      "nonclickable": false,
      "openNewTab": false,
      "borderArticle": "border-color:#0074D9;",
      "borderTopArticle": "border-top-color:#0074D9;",
      "imageListing": "/sites/globe.com.ph/files/content/dam/globe/brie/About-us/Newsroom/image/Partners/111022/Rappit-Celebrates-Launch-thumbnail-listing.jpg",
      "articleUrl": "https://www.globe.com.ph/about-us/newsroom/partners/rappit-celebrates-launch.html",
      "columnType": "articles--type-3",
      "typeListing": "article",
      "imageMobile": "/sites/globe.com.ph/files/content/dam/globe/brie/About-us/Newsroom/image/Partners/111022/Rappit-Celebrates-Launch-primary-thumbnail-m.jpg",
      "imageDesktop": "/sites/globe.com.ph/files/content/dam/globe/brie/About-us/Newsroom/image/Partners/111022/Rappit-Celebrates-Launch-primary-thumbnail-d.jpg",
      "description": "Rappit's launch highlighted partnership opportunities and its competitive advantage as an online grocery app.",
      "datePosted": "Nov 10, 2022 | 04:00 PM",
      "titleFromTag": "Partners"
    }
  ]
}
