{
  "status": 200,
  "page": 44,
  "totalPage": 298,
  "range": "517-528",
  "total": 3573,
  "result": [
    {
      "title": "Asticom Hits 5,000 Employees Mark, Targets 15K Jobs in Five Years",
      "nonclickable": false,
      "openNewTab": false,
      "borderArticle": "border-color:#0074D9;",
      "borderTopArticle": "border-top-color:#0074D9;",
      "imageListing": "/sites/globe.com.ph/files/content/dam/globe/brie/AboutUs/newsroom/partners/internet-watch-foundation-partner-child-protection-advocacy/default-partners-1-thumbnail-listing.jpg",
      "articleUrl": "https://www.globe.com.ph/about-us/newsroom/partners/asticom-hits-5000-employees-mark.html",
      "columnType": "articles--type-3",
      "typeListing": "article",
      "imageMobile": "/sites/globe.com.ph/files/content/dam/globe/brie/AboutUs/newsroom/partners/internet-watch-foundation-partner-child-protection-advocacy/default-partners-1-primary-thumbnail-m.jpg",
      "imageDesktop": "/sites/globe.com.ph/files/content/dam/globe/brie/AboutUs/newsroom/partners/internet-watch-foundation-partner-child-protection-advocacy/default-partners-1-primary-thumbnail-d.jpg",
      "description": "The Asticom Group of Companies is celebrating another milestone as it has reached 5,000 employees nationwide just seven years since its inception.",
      "datePosted": "Nov 10, 2022 | 11:00 AM",
      "titleFromTag": "Partners"
    },
    {
      "title": "Globe, DTI Advocate Responsible Business Practices Among MSMEs",
      "nonclickable": false,
      "openNewTab": false,
      "borderArticle": "border-color:#0074D9;",
      "borderTopArticle": "border-top-color:#0074D9;",
      "imageListing": "/sites/globe.com.ph/files/content/dam/globe/brie/AboutUs/newsroom/corporate/globe-dti-advocate-responsible-business-practices/Corporate-globe-thumbnail-listing.jpg",
      "articleUrl": "https://www.globe.com.ph/about-us/newsroom/corporate/responsible-business-practices-among-msmes.html",
      "columnType": "articles--type-3",
      "typeListing": "article",
      "imageMobile": "/sites/globe.com.ph/files/content/dam/globe/brie/AboutUs/newsroom/corporate/globe-dti-advocate-responsible-business-practices/Corporate-globe-primary-thumbnail-m.jpg",
      "imageDesktop": "/sites/globe.com.ph/files/content/dam/globe/brie/AboutUs/newsroom/corporate/globe-dti-advocate-responsible-business-practices/Corporate-globe-primary-thumbnail-d.jpg",
      "description": "Globe, DTI partners to advocate responsible business practices for online vendors and stimulate growth among micro, small, and medium-sized enterprises (MSMEs).",
      "datePosted": "Nov 10, 2022 | 09:47 AM",
      "titleFromTag": "Corporate"
    },
    {
      "title": "Globe Esports Celebrates Blacklist International’s Championship Win in MPL PH Season 10",
      "nonclickable": false,
      "openNewTab": false,
      "borderArticle": "border-color:#1C91C5;",
      "borderTopArticle": "border-top-color:#1C91C5;",
      "imageListing": "/sites/globe.com.ph/files/content/dam/globe/brie/About-us/Newsroom/image/Consumer/110822/Globe-Esports-Celebrates-Blacklist-Internationals-Championship-Win-in-MPL-PH-Season-10-thumbnail-listing.jpg",
      "articleUrl": "https://www.globe.com.ph/about-us/newsroom/consumer/globe-celebrates-blacklist-internationals-championship-win.html",
      "columnType": "articles--type-3",
      "typeListing": "article",
      "imageMobile": "/sites/globe.com.ph/files/content/dam/globe/brie/About-us/Newsroom/image/Consumer/110822/Globe-Esports-Celebrates-Blacklist-Internationals-Championship-Win-in-MPL-PH-Season-10-primary-thumbnail-m.jpg",
      "imageDesktop": "/sites/globe.com.ph/files/content/dam/globe/brie/About-us/Newsroom/image/Consumer/110822/Globe-Esports-Celebrates-Blacklist-Internationals-Championship-Win-in-MPL-PH-Season-10-primary-thumbnail-d.jpg",
      "description": "Globe Esports celebrates its gaming ambassador Blacklist International's championship win in MPL PH Season 10.",
      "datePosted": "Nov 08, 2022 | 11:49 AM",
      "titleFromTag": "Consumer"
    },
    {
      "title": "Globe Brings Back Hope By Championing Education Through FOREFRONT 2022",
      "nonclickable": false,
      "openNewTab": false,
      "borderArticle": "border-color:#0074D9;",
      "borderTopArticle": "border-top-color:#0074D9;",
      "imageListing": "/sites/globe.com.ph/files/content/dam/globe/brie/AboutUs/newsroom/consumer/globe-brings-back-hope/sg-forefront-listing-thumbnail.jpg",
      "articleUrl": "https://www.globe.com.ph/about-us/newsroom/consumer/globe-brings-back-hope.html",
      "columnType": "articles--type-3",
      "typeListing": "article",
      "imageMobile": "/sites/globe.com.ph/files/content/dam/globe/brie/AboutUs/newsroom/consumer/globe-brings-back-hope/sg-forefront-primary-banner-m.jpg",
      "imageDesktop": "/sites/globe.com.ph/files/content/dam/globe/brie/AboutUs/newsroom/consumer/globe-brings-back-hope/sg-forefront-primary-banner-d.jpg",
      "description": "Globe helps educators integrate technology and digitally transform learning through FOREFRONT 2022.",
      "datePosted": "Nov 08, 2022 | 10:40 AM",
      "titleFromTag": "Consumer"
    },
    {
      "title": "Globe Intensifies Campaign on Child Porn; Blocks over 278,000 Web Links, Domains from January to September",
      "nonclickable": false,
      "openNewTab": false,
      "borderArticle": "border-color:#0074D9;",
      "borderTopArticle": "border-top-color:#0074D9;",
      "imageListing": "/sites/globe.com.ph/files/content/dam/globe/brie/AboutUs/newsroom/common/default-business-2/default-business-2-thumbnail-listing.jpg",
      "articleUrl": "https://www.globe.com.ph/about-us/newsroom/sustainability/globe-intensifies-campaign-on-child-pornography.html",
      "columnType": "articles--type-3",
      "typeListing": "article",
      "imageMobile": "/sites/globe.com.ph/files/content/dam/globe/brie/AboutUs/newsroom/common/default-business-2/default-business-2-primary-thumbnail-m.jpg",
      "imageDesktop": "/sites/globe.com.ph/files/content/dam/globe/brie/AboutUs/newsroom/common/default-business-2/default-business-2-primary-thumbnail-d.jpg",
      "description": "Globe blocked 278,555 URLs & domains hosting child pornography from Jan. to Sept. this year, a record high that represents a leap from last year’s numbers.",
      "datePosted": "Nov 08, 2022 | 08:05 AM",
      "titleFromTag": "Sustainability"
    },
    {
      "title": "Globe, NABU Partner To Help Marginalized Filipino Youth Develop Reading Skills",
      "nonclickable": false,
      "openNewTab": false,
      "borderArticle": "border-color:#0074D9;",
      "borderTopArticle": "border-top-color:#0074D9;",
      "imageListing": "/sites/globe.com.ph/files/content/dam/globe/brie/AboutUs/newsroom/sustainability/globe-nabu-partner-to-help-marginalized-filipino-youth/thumbnail-listing.jpg",
      "articleUrl": "https://www.globe.com.ph/about-us/newsroom/sustainability/globe-nabu-partner-to-help-marginalized-filipino-youth.html",
      "columnType": "articles--type-3",
      "typeListing": "article",
      "imageMobile": "/sites/globe.com.ph/files/content/dam/globe/brie/AboutUs/newsroom/sustainability/globe-nabu-partner-to-help-marginalized-filipino-youth/primary-thumbnail-m.jpg",
      "imageDesktop": "/sites/globe.com.ph/files/content/dam/globe/brie/AboutUs/newsroom/sustainability/globe-nabu-partner-to-help-marginalized-filipino-youth/primary-thumbnail-d.jpg",
      "description": "Globe has partnered with NABU, a reading app and mother tongue publishing platform to help marginalized Filipino youth develop reading skills.",
      "datePosted": "Nov 04, 2022 | 08:05 AM",
      "titleFromTag": "Sustainability"
    },
    {
      "title": "Globe Innovation Fest 2022: Showcasing Many Firsts That Make Every Day Better",
      "nonclickable": false,
      "openNewTab": false,
      "borderArticle": "border-color:#1C91C5;",
      "borderTopArticle": "border-top-color:#1C91C5;",
      "imageListing": "/sites/globe.com.ph/files/content/dam/globe/brie/AboutUs/newsroom/consumer/globe-innovation-fest-2022-showcasing-many-firsts-that-make-every-day-better/Newsroom-Globe-Innovation-Fest-2022-Showcasing-Many-Firsts-That-Make-Every-Day-Better-thumbnail-listing.jpg",
      "articleUrl": "https://www.globe.com.ph/about-us/newsroom/consumer/globe-innovation-fest-2022.html",
      "columnType": "articles--type-3",
      "typeListing": "article",
      "imageMobile": "/sites/globe.com.ph/files/content/dam/globe/brie/AboutUs/newsroom/consumer/globe-innovation-fest-2022-showcasing-many-firsts-that-make-every-day-better/Newsroom-Globe-Innovation-Fest-2022-Showcasing-Many-Firsts-That-Make-Every-Day-Better-primary-thumbnail-m.jpg",
      "imageDesktop": "/sites/globe.com.ph/files/content/dam/globe/brie/AboutUs/newsroom/consumer/globe-innovation-fest-2022-showcasing-many-firsts-that-make-every-day-better/Newsroom-Globe-Innovation-Fest-2022-Showcasing-Many-Firsts-That-Make-Every-Day-Better-primary-thumbnail-d.jpg",
      "description": "Globe brought together a series of exciting announcements and previews from its different businesses and partner brands through the Globe Innovation Fest 2022.",
      "datePosted": "Nov 03, 2022 | 11:49 AM",
      "titleFromTag": "Consumer"
    },
    {
      "title": "Globe To Delight Consumers With Exciting Entertainment From Disney+",
      "nonclickable": false,
      "openNewTab": false,
      "borderArticle": "border-color:#0074D9;",
      "borderTopArticle": "border-top-color:#0074D9;",
      "imageListing": "/sites/globe.com.ph/files/content/dam/globe/brie/About-us/Newsroom/image/Consumer/110222/Globe-to-delight-consumers-with-exciting-entertainment-from-Disney-Plus-thumbnail-listing.jpg",
      "articleUrl": "https://www.globe.com.ph/about-us/newsroom/consumer/delight-consumers-with-entertainment-from-disneyplus.html",
      "columnType": "articles--type-3",
      "typeListing": "article",
      "imageMobile": "/sites/globe.com.ph/files/content/dam/globe/brie/About-us/Newsroom/image/Consumer/110222/Globe-to-delight-consumers-with-exciting-entertainment-from-Disney-Plus-primary-thumbnail-m.jpg",
      "imageDesktop": "/sites/globe.com.ph/files/content/dam/globe/brie/About-us/Newsroom/image/Consumer/110222/Globe-to-delight-consumers-with-exciting-entertainment-from-Disney-Plus-primary-thumbnail-d.jpg",
      "description": "Globe to distribute the highly anticipated streaming service, Disney+, in the Philippines starting November 17.",
      "datePosted": "Nov 02, 2022 | 02:27 PM",
      "titleFromTag": "Consumer"
    },
    {
      "title": "Globe Network Fully Operational in NCR, Starts Restoration Work in Regional Areas Hit by Paeng",
      "nonclickable": false,
      "openNewTab": false,
      "borderArticle": "border-color:#1C91C5;",
      "borderTopArticle": "border-top-color:#1C91C5;",
      "imageListing": "/sites/globe.com.ph/files/content/dam/globe/brie/AboutUs/newsroom/common/default-corporate-9/default-corporate-9-thumbnail-listing.jpg",
      "articleUrl": "https://www.globe.com.ph/about-us/newsroom/sustainability/network-fully-operational-in-ncr.html",
      "columnType": "articles--type-3",
      "typeListing": "article",
      "imageMobile": "/sites/globe.com.ph/files/content/dam/globe/brie/AboutUs/newsroom/common/default-corporate-9/default-corporate-9-primary-thumbnail-m.jpg",
      "imageDesktop": "/sites/globe.com.ph/files/content/dam/globe/brie/AboutUs/newsroom/common/default-corporate-9/default-corporate-9-primary-thumbnail-d.jpg",
      "description": "Globe’s ground crews have started crucial restoration work in areas hit by Paeng as several provinces across the country reeled from power outages, floods.",
      "datePosted": "Nov 02, 2022 | 09:56 AM",
      "titleFromTag": "Sustainability"
    },
    {
      "title": "Globe Group Provides Relief in Wake of Paeng, Activates Donor Platforms",
      "nonclickable": false,
      "openNewTab": false,
      "borderArticle": "border-color:#0074D9;",
      "borderTopArticle": "border-top-color:#0074D9;",
      "imageListing": "/sites/globe.com.ph/files/content/dam/globe/brie/AboutUs/newsroom/corporate/volte-service-now-available-25-provinces-ph/default-consumer-2-thumbnail-listing.jpg",
      "articleUrl": "https://www.globe.com.ph/about-us/newsroom/sustainability/globe-group-provides-relief-in-wake-of-paeng.html",
      "columnType": "articles--type-3",
      "typeListing": "article",
      "imageMobile": "/sites/globe.com.ph/files/content/dam/globe/brie/AboutUs/newsroom/corporate/volte-service-now-available-25-provinces-ph/default-consumer-2-primary-thumbnail-m.jpg",
      "imageDesktop": "/sites/globe.com.ph/files/content/dam/globe/brie/AboutUs/newsroom/corporate/volte-service-now-available-25-provinces-ph/default-consumer-2-primary-thumbnail-d.jpg",
      "description": "The Globe Group has deployed free connectivity and medical aid to help the affected families across the country cope in the aftermath of Tropical Storm Paeng.",
      "datePosted": "Nov 02, 2022 | 08:05 AM",
      "titleFromTag": "Sustainability"
    },
    {
      "title": "Globe Platinum Raises ₱450,000 for Underprivileged Breast Cancer Patients",
      "nonclickable": false,
      "openNewTab": false,
      "borderArticle": "border-color:#0074D9;",
      "borderTopArticle": "border-top-color:#0074D9;",
      "imageListing": "/sites/globe.com.ph/files/content/dam/globe/brie/AboutUs/newsroom/sustainability/Platinum-Raises-P450-000-for-Breast-Cancer-Patients/Newsroom-Globe-Platinum-Raises-P450,000-for-Underprivileged-Breast-Cancer-Patients-thumbnail-listing.jpg",
      "articleUrl": "https://www.globe.com.ph/about-us/newsroom/sustainability/globe-platinum-raises-450k-pesos-breast-cancer-patients.html",
      "columnType": "articles--type-3",
      "typeListing": "article",
      "imageMobile": "/sites/globe.com.ph/files/content/dam/globe/brie/AboutUs/newsroom/sustainability/Platinum-Raises-P450-000-for-Breast-Cancer-Patients/Newsroom-Globe-Platinum-Raises-P450,000-for-Underprivileged-Breast-Cancer-Patients-primary-thumbnail-m.jpg",
      "imageDesktop": "/sites/globe.com.ph/files/content/dam/globe/brie/AboutUs/newsroom/sustainability/Platinum-Raises-P450-000-for-Breast-Cancer-Patients/Newsroom-Globe-Platinum-Raises-P450,000-for-Underprivileged-Breast-Cancer-Patients-primary-thumbnail-d.jpg",
      "description": "Globe Platinum and street artist Distort Monsters raised ₱450,000 for underprivileged breast cancer patients in an art auction hosted by Estée Lauder.",
      "datePosted": "Nov 02, 2022 | 08:05 AM",
      "titleFromTag": "Sustainability"
    },
    {
      "title": "Globe’s Blocked Scam, Spam SMS Reach All-Time High in September at 270.5 Million with Measure vs Clickable Links",
      "nonclickable": false,
      "openNewTab": false,
      "borderArticle": "border-color:#0074D9;",
      "borderTopArticle": "border-top-color:#0074D9;",
      "imageListing": "/sites/globe.com.ph/files/content/dam/globe/brie/AboutUs/newsroom/corporate/globe-sms-blocking/corporate-default-7-thumbnail-listing.jpg",
      "articleUrl": "https://www.globe.com.ph/about-us/newsroom/corporate/blocked-spam-sms-reached-an-all-time-high-in-september.html",
      "columnType": "articles--type-3",
      "typeListing": "article",
      "imageMobile": "/sites/globe.com.ph/files/content/dam/globe/brie/AboutUs/newsroom/corporate/globe-sms-blocking/corporate-default-7-primary-thumbnail-m.jpg",
      "imageDesktop": "/sites/globe.com.ph/files/content/dam/globe/brie/AboutUs/newsroom/corporate/globe-sms-blocking/corporate-default-7-primary-thumbnail-d.jpg",
      "description": "Globe logged an all-time high in its monthly tally of blocked spam and scam messages in September, filtering out over 270.5 million messages.",
      "datePosted": "Oct 31, 2022 | 11:42 AM",
      "titleFromTag": "Corporate"
    }
  ]
}
