{
  "status": 200,
  "page": 45,
  "totalPage": 298,
  "range": "529-540",
  "total": 3573,
  "result": [
    {
      "title": "Edventure Joins McDonald’s Monster Ball to Elevate Children’s Halloween Experience",
      "nonclickable": false,
      "openNewTab": false,
      "borderArticle": "border-color:#0074D9;",
      "borderTopArticle": "border-top-color:#0074D9;",
      "imageListing": "/sites/globe.com.ph/files/content/dam/globe/brie/AboutUs/newsroom/common/default-sustainability-1/default-sustainability-1-thumbnail-listing.jpg",
      "articleUrl": "https://www.globe.com.ph/about-us/newsroom/partners/edventure-joins-mcdonalds-monster-ball.html",
      "columnType": "articles--type-3",
      "typeListing": "article",
      "imageMobile": "/sites/globe.com.ph/files/content/dam/globe/brie/AboutUs/newsroom/common/default-sustainability-1/default-sustainability-1-top-banner-m.jpg",
      "imageDesktop": "/sites/globe.com.ph/files/content/dam/globe/brie/AboutUs/newsroom/common/default-sustainability-1/default-sustainability-1-primary-thumbnail-d.jpg",
      "description": "EdVenture makes sure that kids get an experience they can’t forget as it joins McDonald's in staging a most spooktacular celebration this year.",
      "datePosted": "Oct 28, 2022 | 11:00 AM",
      "titleFromTag": "Partners"
    },
    {
      "title": "Globe Prepares Network for Paeng, Ready to Deploy FREE Call, Charging and WiFi Stations in Areas on Storm’s Path",
      "nonclickable": false,
      "openNewTab": false,
      "borderArticle": "border-color:#1C91C5;",
      "borderTopArticle": "border-top-color:#1C91C5;",
      "imageListing": "/sites/globe.com.ph/files/content/dam/globe/brie/AboutUs/newsroom/common/default-corporate-9/default-corporate-9-thumbnail-listing.jpg",
      "articleUrl": "https://www.globe.com.ph/about-us/newsroom/sustainability/globe-prepares-network-for-paeng.html",
      "columnType": "articles--type-3",
      "typeListing": "article",
      "imageMobile": "/sites/globe.com.ph/files/content/dam/globe/brie/AboutUs/newsroom/common/default-corporate-9/default-corporate-9-primary-thumbnail-m.jpg",
      "imageDesktop": "/sites/globe.com.ph/files/content/dam/globe/brie/AboutUs/newsroom/common/default-corporate-9/default-corporate-9-primary-thumbnail-d.jpg",
      "description": "Globe has started preparing its network and personnel for the expected impact of Tropical Storm Paeng, which is expected to intensify as it crosses Luzon.",
      "datePosted": "Oct 28, 2022 | 09:56 AM",
      "titleFromTag": "Sustainability"
    },
    {
      "title": "Globe Girds for Historic SIM Registration of over 87.4 Million Customers",
      "nonclickable": false,
      "openNewTab": false,
      "borderArticle": "border-color:#0074D9;",
      "borderTopArticle": "border-top-color:#0074D9;",
      "imageListing": "/sites/globe.com.ph/files/content/dam/globe/brie/AboutUs/newsroom/corporate/globe-sms-blocking/corporate-default-7-thumbnail-listing.jpg",
      "articleUrl": "https://www.globe.com.ph/about-us/newsroom/corporate/globe-girds-for-sim-registration.html",
      "columnType": "articles--type-3",
      "typeListing": "article",
      "imageMobile": "/sites/globe.com.ph/files/content/dam/globe/brie/AboutUs/newsroom/corporate/globe-sms-blocking/corporate-default-7-primary-thumbnail-m.jpg",
      "imageDesktop": "/sites/globe.com.ph/files/content/dam/globe/brie/AboutUs/newsroom/corporate/globe-sms-blocking/corporate-default-7-primary-thumbnail-d.jpg",
      "description": "Globe has begun preparations for the rollout of the SIM Registration Act that entails getting over 87.4 million customers to register their SIM within 6 months.",
      "datePosted": "Oct 27, 2022 | 11:42 AM",
      "titleFromTag": "Corporate"
    },
    {
      "title": "Asticom Joins Ranks of Top PH Employers",
      "nonclickable": false,
      "openNewTab": false,
      "borderArticle": "border-color:#0074D9;",
      "borderTopArticle": "border-top-color:#0074D9;",
      "imageListing": "/sites/globe.com.ph/files/content/dam/globe/brie/AboutUs/newsroom/partners/asticom-joins-ranks-of-top-ph-employers/Newsroom-Asticom-Joins-Ranks-of-Top-PH-Employers-thumbnail-listing.jpg",
      "articleUrl": "https://www.globe.com.ph/about-us/newsroom/partners/asticom-joins-ranks-of-top-ph-employers.html",
      "columnType": "articles--type-3",
      "typeListing": "article",
      "imageMobile": "/sites/globe.com.ph/files/content/dam/globe/brie/AboutUs/newsroom/partners/asticom-joins-ranks-of-top-ph-employers/Newsroom-Asticom-Joins-Ranks-of-Top-PH-Employers-primary-thumbnail-m.jpg",
      "imageDesktop": "/sites/globe.com.ph/files/content/dam/globe/brie/AboutUs/newsroom/partners/asticom-joins-ranks-of-top-ph-employers/Newsroom-Asticom-Joins-Ranks-of-Top-PH-Employers-primary-thumbnail-d.jpg",
      "description": "Asticom Technology Inc., a company under Globe, secured a spot in the exclusive list of the Philippines' Best Employers 2023 of the Philippine Daily Inquirer.",
      "datePosted": "Oct 27, 2022 | 11:00 AM",
      "titleFromTag": "Partners"
    },
    {
      "title": "Actress Gillian Vicencio Joins This isKwela Study With Me",
      "nonclickable": false,
      "openNewTab": false,
      "borderArticle": "border-color:#1C91C5;",
      "borderTopArticle": "border-top-color:#1C91C5;",
      "imageListing": "/sites/globe.com.ph/files/content/dam/globe/brie/AboutUs/newsroom/sustainability/actress-gillian-vicencio-joins-this-iskwela/sg-sustainability-listing-thumbnail.jpg",
      "articleUrl": "https://www.globe.com.ph/about-us/newsroom/sustainability/gillian-vicencio-joins-this-iskwela.html",
      "columnType": "articles--type-3",
      "typeListing": "article",
      "imageMobile": "/sites/globe.com.ph/files/content/dam/globe/brie/AboutUs/newsroom/sustainability/actress-gillian-vicencio-joins-this-iskwela/sg-sustainability-primary-banner-m.jpg",
      "imageDesktop": "/sites/globe.com.ph/files/content/dam/globe/brie/AboutUs/newsroom/sustainability/actress-gillian-vicencio-joins-this-iskwela/sg-sustainability-primary-thumbnail.jpg",
      "description": "Catch Gillian Vicencio at Globe's This isKwela's \"Study With Me\" Facebook livestream event on October 26.",
      "datePosted": "Oct 26, 2022 | 11:15 AM",
      "titleFromTag": "Sustainability"
    },
    {
      "title": "Globe, Google PH Collaborate to Provide 39,000 Certified Courses for Digital Upskilling",
      "nonclickable": false,
      "openNewTab": false,
      "borderArticle": "border-color:#0074D9;",
      "borderTopArticle": "border-top-color:#0074D9;",
      "imageListing": "/sites/globe.com.ph/files/content/dam/globe/brie/AboutUs/newsroom/common/default-partners-3/default-partners-3-thumbnail-listing.jpg",
      "articleUrl": "https://www.globe.com.ph/about-us/newsroom/partners/globe-google-ph-collaboration.html",
      "columnType": "articles--type-3",
      "typeListing": "article",
      "imageMobile": "/sites/globe.com.ph/files/content/dam/globe/brie/AboutUs/newsroom/common/default-partners-3/default-partners-3-primary-thumbnail-m.jpg",
      "imageDesktop": "/sites/globe.com.ph/files/content/dam/globe/brie/AboutUs/newsroom/common/default-partners-3/default-partners-3-primary-thumbnail-d.jpg",
      "description": "Globe has partnered with Google Philippines to provide 39,000 scholarships on advanced IT certificate courses to equip low-income students and jobseekers.",
      "datePosted": "Oct 26, 2022 | 11:00 AM",
      "titleFromTag": "Partners"
    },
    {
      "title": "GFiber Now Available in Over 10,000 Barangays Nationwide",
      "nonclickable": false,
      "openNewTab": false,
      "borderArticle": "border-color:#0074D9;",
      "borderTopArticle": "border-top-color:#0074D9;",
      "imageListing": "/sites/globe.com.ph/files/content/dam/globe/brie/About-us/Newsroom/image/Consumer/102522/GFiber-Now-Available-in-Over-10000-Barangays-thumbnail-listing.jpg",
      "articleUrl": "https://www.globe.com.ph/about-us/newsroom/consumer/gfiber-available-in-10000-barangays.html",
      "columnType": "articles--type-3",
      "typeListing": "article",
      "imageMobile": "/sites/globe.com.ph/files/content/dam/globe/brie/About-us/Newsroom/image/Consumer/102522/GFiber-Now-Available-in-Over-10000-Barangays-primary-thumbnail-m.jpg",
      "imageDesktop": "/sites/globe.com.ph/files/content/dam/globe/brie/About-us/Newsroom/image/Consumer/102522/GFiber-Now-Available-in-Over-10000-Barangays-primary-thumbnail-d.jpg",
      "description": "The affordable, fast, and reliable GFiber connectivity is now available in over 10,000 barangays nationwide. ",
      "datePosted": "Oct 25, 2022 | 02:27 PM",
      "titleFromTag": "Consumer"
    },
    {
      "title": "Globe Supports BARMM in Push for Innovation and Digital Transformation",
      "nonclickable": false,
      "openNewTab": false,
      "borderArticle": "border-color:#1C91C5;",
      "borderTopArticle": "border-top-color:#1C91C5;",
      "imageListing": "/sites/globe.com.ph/files/content/dam/globe/brie/AboutUs/newsroom/common/default-15/default-corporate-9-thumbnail-listing.jpg",
      "articleUrl": "https://www.globe.com.ph/about-us/newsroom/corporate/globe-supports-barmm.html",
      "columnType": "articles--type-3",
      "typeListing": "article",
      "imageMobile": "/sites/globe.com.ph/files/content/dam/globe/brie/AboutUs/newsroom/common/default-15/default-corporate-9-primary-thumbnail-m.jpg",
      "imageDesktop": "/sites/globe.com.ph/files/content/dam/globe/brie/AboutUs/newsroom/common/default-15/default-corporate-9-primary-thumbnail-d.jpg",
      "description": "Globe has expressed support for BARMM as it helps the self-governing entity in its digital transformation journey.",
      "datePosted": "Oct 25, 2022 | 11:31 AM",
      "titleFromTag": "Corporate"
    },
    {
      "title": "Globe Supports BARMM in Push for Innovation and Digital Transformation",
      "nonclickable": false,
      "openNewTab": false,
      "borderArticle": "border-color:#1C91C5;",
      "borderTopArticle": "border-top-color:#1C91C5;",
      "imageListing": "/sites/globe.com.ph/files/content/dam/globe/brie/AboutUs/newsroom/common/default-15/default-corporate-9-thumbnail-listing.jpg",
      "articleUrl": "https://www.globe.com.ph/about-us/newsroom/corporate/globe-support-barmm.html",
      "columnType": "articles--type-3",
      "typeListing": "article",
      "imageMobile": "/sites/globe.com.ph/files/content/dam/globe/brie/AboutUs/newsroom/common/default-15/default-corporate-9-primary-thumbnail-m.jpg",
      "imageDesktop": "/sites/globe.com.ph/files/content/dam/globe/brie/AboutUs/newsroom/common/default-15/default-corporate-9-primary-thumbnail-d.jpg",
      "description": "Globe has expressed support for BARMM as it helps the self-governing entity in its digital transformation journey.",
      "datePosted": "Oct 25, 2022 | 11:31 AM",
      "titleFromTag": "Corporate"
    },
    {
      "title": "Industry-leading innovation:  Globe First To Bring Filipinos to the Metaverse",
      "nonclickable": false,
      "openNewTab": false,
      "borderArticle": "border-color:#0074D9;",
      "borderTopArticle": "border-top-color:#0074D9;",
      "imageListing": "/sites/globe.com.ph/files/content/dam/globe/brie/About-us/Newsroom/image/Consumer/102422/Globe-first-to-bring-Filipino-sto-the-metaverse-thumbnail-listing.jpg",
      "articleUrl": "https://www.globe.com.ph/about-us/newsroom/consumer/globe-brings-filipinos-metaverse.html",
      "columnType": "articles--type-3",
      "typeListing": "article",
      "imageMobile": "/sites/globe.com.ph/files/content/dam/globe/brie/About-us/Newsroom/image/Consumer/102422/Globe-first-to-bring-Filipino-sto-the-metaverse-primary-thumbnail-m.jpg",
      "imageDesktop": "/sites/globe.com.ph/files/content/dam/globe/brie/About-us/Newsroom/image/Consumer/102422/Globe-first-to-bring-Filipino-sto-the-metaverse-primary-thumbnail-d.jpg",
      "description": "Globe is the first telco and digital solutions platform to bring Filipinos to the metaverse.",
      "datePosted": "Oct 24, 2022 | 02:27 PM",
      "titleFromTag": "Consumer"
    },
    {
      "title": "Globe Blocks 32.2 Million SMS with Clickable Links in 2 Weeks",
      "nonclickable": false,
      "openNewTab": false,
      "borderArticle": "border-color:#0074D9;",
      "borderTopArticle": "border-top-color:#0074D9;",
      "imageListing": "/sites/globe.com.ph/files/content/dam/globe/brie/AboutUs/newsroom/common/default-4/default-consumer-3-thumbnail-listing.jpg",
      "articleUrl": "https://www.globe.com.ph/about-us/newsroom/corporate/32-million-sms-with-clickable-links-blocked.html",
      "columnType": "articles--type-3",
      "typeListing": "article",
      "imageMobile": "/sites/globe.com.ph/files/content/dam/globe/brie/AboutUs/newsroom/common/default-4/default-consumer-3-primary-thumbnail-m.jpg",
      "imageDesktop": "/sites/globe.com.ph/files/content/dam/globe/brie/AboutUs/newsroom/common/default-4/default-consumer-3-primary-thumbnail-d.jpg",
      "description": "Globe blocked over 32.2 million scam and  spam texts with clickable links after enforcing its unprecedented measure against all person-to-person SMS with URLs.",
      "datePosted": "Oct 24, 2022 | 10:05 AM",
      "titleFromTag": "Corporate"
    },
    {
      "title": "Enjoy Worry-Free Trips With Globe Roaming Deals at Klook Travel Fest 2022",
      "nonclickable": false,
      "openNewTab": false,
      "borderArticle": "border-color:#0074D9;",
      "borderTopArticle": "border-top-color:#0074D9;",
      "imageListing": "/sites/globe.com.ph/files/content/dam/globe/brie/AboutUs/newsroom/consumer/enjoy-worry-free-trips-with-globe-roaming-deals/thumbnail-listing.jpg",
      "articleUrl": "https://www.globe.com.ph/about-us/newsroom/consumer/enjoy-worry-free-trips-with-globe-roaming-deals.html",
      "columnType": "articles--type-3",
      "typeListing": "article",
      "imageMobile": "/sites/globe.com.ph/files/content/dam/globe/brie/AboutUs/newsroom/consumer/enjoy-worry-free-trips-with-globe-roaming-deals/primary-thumbnail-m.jpg",
      "imageDesktop": "/sites/globe.com.ph/files/content/dam/globe/brie/AboutUs/newsroom/consumer/enjoy-worry-free-trips-with-globe-roaming-deals/primary-thumbnail-d.jpg",
      "description": "Book exciting experiences with Globe roaming deals at Klook Travel Fest 2022!",
      "datePosted": "Oct 21, 2022 | 02:27 PM",
      "titleFromTag": "Consumer"
    }
  ]
}
