{
  "status": 200,
  "page": 46,
  "totalPage": 298,
  "range": "541-552",
  "total": 3573,
  "result": [
    {
      "title": "A First in the Industry: Globe Launches ONEPlan for Mobile and Fiber Connectivity",
      "nonclickable": false,
      "openNewTab": false,
      "borderArticle": "border-color:#0074D9;",
      "borderTopArticle": "border-top-color:#0074D9;",
      "imageListing": "/sites/globe.com.ph/files/content/dam/globe/brie/AboutUs/newsroom/common/default-3/corporate-default-7-thumbnail-listing.jpg",
      "articleUrl": "https://www.globe.com.ph/about-us/newsroom/consumer/oneplan-mobile-fiber-connectivity.html",
      "columnType": "articles--type-3",
      "typeListing": "article",
      "imageMobile": "/sites/globe.com.ph/files/content/dam/globe/brie/AboutUs/newsroom/common/default-3/corporate-default-7-primary-thumbnail-m.jpg",
      "imageDesktop": "/sites/globe.com.ph/files/content/dam/globe/brie/AboutUs/newsroom/common/default-3/corporate-default-7-primary-thumbnail-d.jpg",
      "description": "Globe ONEPlan offers customers an alternative so that they can enjoy connectivity at home and on the go through the Philippines' most reliable mobile network.",
      "datePosted": "Oct 20, 2022 | 02:27 PM",
      "titleFromTag": "Consumer"
    },
    {
      "title": "Globe Retains Industry Dominance as Largest Publicly-Listed Telco in PH",
      "nonclickable": false,
      "openNewTab": false,
      "borderArticle": "border-color:#1C91C5;",
      "borderTopArticle": "border-top-color:#1C91C5;",
      "imageListing": "/sites/globe.com.ph/files/content/dam/globe/brie/AboutUs/newsroom/common/default-15/default-corporate-9-thumbnail-listing.jpg",
      "articleUrl": "https://www.globe.com.ph/about-us/newsroom/corporate/largest-publicly-listed-telco-ph.html",
      "columnType": "articles--type-3",
      "typeListing": "article",
      "imageMobile": "/sites/globe.com.ph/files/content/dam/globe/brie/AboutUs/newsroom/common/default-15/default-corporate-9-primary-thumbnail-m.jpg",
      "imageDesktop": "/sites/globe.com.ph/files/content/dam/globe/brie/AboutUs/newsroom/common/default-15/default-corporate-9-primary-thumbnail-d.jpg",
      "description": "Globe has retained its dominance as the largest telecommunications firm in the Philippines with a market capitalization of ₱321.25 billion as of October 11.",
      "datePosted": "Oct 20, 2022 | 09:31 AM",
      "titleFromTag": "Corporate"
    },
    {
      "title": "m360 Expands Reach To 227 Global Destinations Via 700 Network Operators",
      "nonclickable": false,
      "openNewTab": false,
      "borderArticle": "border-color:#0074D9;",
      "borderTopArticle": "border-top-color:#0074D9;",
      "imageListing": "/sites/globe.com.ph/files/content/dam/globe/brie/AboutUs/newsroom/917ventures/m360-expands-reach-to-227-global-destinations/default-consumer-2-thumbnail-listing.jpg",
      "articleUrl": "https://www.globe.com.ph/about-us/newsroom/917ventures/m360-expands-reach.html",
      "columnType": "articles--type-3",
      "typeListing": "article",
      "imageMobile": "/sites/globe.com.ph/files/content/dam/globe/brie/AboutUs/newsroom/917ventures/m360-expands-reach-to-227-global-destinations/default-consumer-2-primary-thumbnail-m.jpg",
      "imageDesktop": "/sites/globe.com.ph/files/content/dam/globe/brie/AboutUs/newsroom/917ventures/m360-expands-reach-to-227-global-destinations/default-consumer-2-primary-thumbnail-d.jpg",
      "description": "m360 expands reach to 227 global destinations via its 700 partner network operators",
      "datePosted": "Oct 20, 2022 | 09:17 AM",
      "titleFromTag": "917Ventures"
    },
    {
      "title": "Globe, Partners Bring PH’s Biggest Subsea Cable Project to Mactan Island",
      "nonclickable": false,
      "openNewTab": false,
      "borderArticle": "border-color:#1C91C5;",
      "borderTopArticle": "border-top-color:#1C91C5;",
      "imageListing": "/sites/globe.com.ph/files/content/dam/globe/brie/AboutUs/newsroom/corporate/globe-bring-ph-biggest-subsea-cable-project/thumbnail-listing.jpg",
      "articleUrl": "https://www.globe.com.ph/about-us/newsroom/corporate/globe-bring-ph-biggest-subsea-cable-project.html",
      "columnType": "articles--type-3",
      "typeListing": "article",
      "imageMobile": "/sites/globe.com.ph/files/content/dam/globe/brie/AboutUs/newsroom/corporate/globe-bring-ph-biggest-subsea-cable-project/primary-thumbnail-m.jpg",
      "imageDesktop": "/sites/globe.com.ph/files/content/dam/globe/brie/AboutUs/newsroom/corporate/globe-bring-ph-biggest-subsea-cable-project/primary-thumbnail-d.jpg",
      "description": "Cebuanos may soon expect faster internet connectivity and better voice and SMS service through fiber optic cable technology as PDSCN has reached Mactan Island.",
      "datePosted": "Oct 19, 2022 | 09:31 AM",
      "titleFromTag": "Corporate"
    },
    {
      "title": "KodeGo, UXPH team up for first-of-its-kind UX design curriculum",
      "nonclickable": false,
      "openNewTab": false,
      "borderArticle": "border-color:#0074D9;",
      "borderTopArticle": "border-top-color:#0074D9;",
      "imageListing": "/sites/globe.com.ph/files/content/dam/globe/brie/About-us/Newsroom/image/Partners/101822/first-of-its-kind-ux-design-curriculum-thumbnail-listing.jpg",
      "articleUrl": "https://www.globe.com.ph/about-us/newsroom/partners/first-of-its-kind-ux-design-curriculum.html",
      "columnType": "articles--type-3",
      "typeListing": "article",
      "imageMobile": "/sites/globe.com.ph/files/content/dam/globe/brie/About-us/Newsroom/image/Partners/101822/first-of-its-kind-ux-design-curriculum-primary-thumbnail-m.jpg",
      "imageDesktop": "/sites/globe.com.ph/files/content/dam/globe/brie/About-us/Newsroom/image/Partners/101822/first-of-its-kind-ux-design-curriculum-primary-thumbnail-d.jpg",
      "description": "KodeGo and User Experience Philippines (UXPH) design community have teamed up for a first-of-its-kind UX design curriculum.",
      "datePosted": "Oct 18, 2022 | 11:00 AM",
      "titleFromTag": "Partners"
    },
    {
      "title": "Globe 5G Expands Reach in Mindanao with 252 More Cell Sites",
      "nonclickable": false,
      "openNewTab": false,
      "borderArticle": "border-color:#1C91C5;",
      "borderTopArticle": "border-top-color:#1C91C5;",
      "imageListing": "/sites/globe.com.ph/files/content/dam/globe/brie/AboutUs/newsroom/corporate/799-permits-1q-2021-new-towers/default-corporate-9-thumbnail-listing.jpg",
      "articleUrl": "https://www.globe.com.ph/about-us/newsroom/corporate/globe-5g-expands-reach-mindanao.html",
      "columnType": "articles--type-3",
      "typeListing": "article",
      "imageMobile": "/sites/globe.com.ph/files/content/dam/globe/brie/AboutUs/newsroom/corporate/799-permits-1q-2021-new-towers/default-corporate-9-primary-thumbnail-m.jpg",
      "imageDesktop": "/sites/globe.com.ph/files/content/dam/globe/brie/AboutUs/newsroom/corporate/799-permits-1q-2021-new-towers/default-corporate-9-primary-thumbnail-d.jpg",
      "description": "Globe continues to roll out fast and reliable connectivity in key areas in the archipelago. It has already installed 252 5G-ready cell sites in Mindanao.",
      "datePosted": "Oct 18, 2022 | 09:31 AM",
      "titleFromTag": "Corporate"
    },
    {
      "title": "Globe Is PH’s Most Reliable Mobile Network in Q3, Sustains Network Performance for Better Customer Experience",
      "nonclickable": false,
      "openNewTab": false,
      "borderArticle": "border-color:#0074D9;",
      "borderTopArticle": "border-top-color:#0074D9;",
      "imageListing": "/sites/globe.com.ph/files/content/dam/globe/brie/AboutUs/newsroom/corporate/largest-ph-publicly-listed-telco-digital-solutions-group/Corporate-globe-thumbnail-listing.jpg",
      "articleUrl": "https://www.globe.com.ph/about-us/newsroom/corporate/most-reliable-mobile-network-q3.html",
      "columnType": "articles--type-3",
      "typeListing": "article",
      "imageMobile": "/sites/globe.com.ph/files/content/dam/globe/brie/AboutUs/newsroom/corporate/largest-ph-publicly-listed-telco-digital-solutions-group/Corporate-globe-primary-thumbnail-m.jpg",
      "imageDesktop": "/sites/globe.com.ph/files/content/dam/globe/brie/AboutUs/newsroom/corporate/largest-ph-publicly-listed-telco-digital-solutions-group/Corporate-globe-primary-thumbnail-d.jpg",
      "description": "Globe continues to cement its dominance as the Most Reliable Mobile Network in the Philippines, logging the highest consistency and availability scores.",
      "datePosted": "Oct 17, 2022 | 02:05 PM",
      "titleFromTag": "Corporate"
    },
    {
      "title": "Globe Business Innovation Summit 2022 Highlights Digital Tools For MSMEs’ Tuloy–tuloy Na Success",
      "nonclickable": false,
      "openNewTab": false,
      "borderArticle": "border-color:#0074D9;",
      "borderTopArticle": "border-top-color:#0074D9;",
      "imageListing": "/sites/globe.com.ph/files/content/dam/globe/brie/AboutUs/newsroom/business/globe-business-innovation-summit-2022/sg-innovation-summit-listing-thumbnail.jpg",
      "articleUrl": "https://www.globe.com.ph/about-us/newsroom/business/globe-taught-msmes-how-to-maximize-digital-tools.html",
      "columnType": "articles--type-3",
      "typeListing": "article",
      "imageMobile": "/sites/globe.com.ph/files/content/dam/globe/brie/AboutUs/newsroom/business/globe-business-innovation-summit-2022/sg-innovation-summit-primary-banner-m.jpg",
      "imageDesktop": "/sites/globe.com.ph/files/content/dam/globe/brie/AboutUs/newsroom/business/globe-business-innovation-summit-2022/sg-innovation-summit-primary-thumbnail.jpg",
      "description": "Globe Business Innovation Summit 2022 taught MSMEs how to maximize available digital tools for their business.",
      "datePosted": "Oct 17, 2022 | 10:48 AM",
      "titleFromTag": "Business"
    },
    {
      "title": "Globe's Guide For Pinoy Travelers On Getting The Best Roaming Experience While In The US ",
      "nonclickable": false,
      "openNewTab": false,
      "borderArticle": "border-color:#0074D9;",
      "borderTopArticle": "border-top-color:#0074D9;",
      "imageListing": "/sites/globe.com.ph/files/content/dam/globe/brie/AboutUs/newsroom/consumer/globe-guide-for-pinoy-travelers-on-roaming/default-consumer-2-thumbnail-listing.jpg",
      "articleUrl": "https://www.globe.com.ph/about-us/newsroom/consumer/getting-the-best-roaming-experience.html",
      "columnType": "articles--type-3",
      "typeListing": "article",
      "imageMobile": "/sites/globe.com.ph/files/content/dam/globe/brie/AboutUs/newsroom/consumer/globe-guide-for-pinoy-travelers-on-roaming/default-consumer-2-primary-thumbnail-m.jpg",
      "imageDesktop": "/sites/globe.com.ph/files/content/dam/globe/brie/AboutUs/newsroom/consumer/globe-guide-for-pinoy-travelers-on-roaming/default-consumer-2-primary-thumbnail-d.jpg",
      "description": "Globe ensures a worry-free roaming experience for customers with affordable Roam Surf promos",
      "datePosted": "Oct 17, 2022 | 10:29 AM",
      "titleFromTag": "Consumer"
    },
    {
      "title": "Enjoy Seamless Digital Experience via Globe eSIM Now Available Online",
      "nonclickable": false,
      "openNewTab": false,
      "borderArticle": "border-color:#0074D9;",
      "borderTopArticle": "border-top-color:#0074D9;",
      "imageListing": "/sites/globe.com.ph/files/content/dam/globe/brie/AboutUs/newsroom/common/default-4/default-consumer-3-thumbnail-listing.jpg",
      "articleUrl": "https://www.globe.com.ph/about-us/newsroom/corporate/seamless-digital-experience-via-globe-esim.html",
      "columnType": "articles--type-3",
      "typeListing": "article",
      "imageMobile": "/sites/globe.com.ph/files/content/dam/globe/brie/AboutUs/newsroom/common/default-4/default-consumer-3-primary-thumbnail-m.jpg",
      "imageDesktop": "/sites/globe.com.ph/files/content/dam/globe/brie/AboutUs/newsroom/common/default-4/default-consumer-3-primary-thumbnail-d.jpg",
      "description": "Globe continues to be the forerunner of innovation in the country, driving adoption of digitalization, offering eSIM on the New Globe Online Shop.",
      "datePosted": "Oct 17, 2022 | 08:05 AM",
      "titleFromTag": "Corporate"
    },
    {
      "title": "Globe Says On-Ground Events Are Coming Back to Give Customers Exciting Experiences but Wary of Signal Jamming Incidents",
      "nonclickable": false,
      "openNewTab": false,
      "borderArticle": "border-color:#1C91C5;",
      "borderTopArticle": "border-top-color:#1C91C5;",
      "imageListing": "/sites/globe.com.ph/files/content/dam/globe/brie/AboutUs/newsroom/common/default-consumer/default-consumer-thumbnail-listing.jpg",
      "articleUrl": "https://www.globe.com.ph/about-us/newsroom/consumer/on-ground-events-are-coming-back.html",
      "columnType": "articles--type-3",
      "typeListing": "article",
      "imageMobile": "/sites/globe.com.ph/files/content/dam/globe/brie/AboutUs/newsroom/common/default-consumer/default-consumer-primary-thumbnail-m.jpg",
      "imageDesktop": "/sites/globe.com.ph/files/content/dam/globe/brie/AboutUs/newsroom/common/default-consumer/default-consumer-primary-thumbnail-d.jpg",
      "description": "Globe is back with its on-ground events and fights signal jamming attempts.\r\n\r\n",
      "datePosted": "Oct 14, 2022 | 04:40 PM",
      "titleFromTag": "Consumer"
    },
    {
      "title": "Globe Receives Anew ‘A’ Rating from MSCI ESG Index in 2022",
      "nonclickable": false,
      "openNewTab": false,
      "borderArticle": "border-color:#0074D9;",
      "borderTopArticle": "border-top-color:#0074D9;",
      "imageListing": "/sites/globe.com.ph/files/content/dam/globe/brie/AboutUs/newsroom/common/updated/Corporate-globe-thumbnail-listing.jpg",
      "articleUrl": "https://www.globe.com.ph/about-us/newsroom/sustainability/anew-a-rating-from-msci-esg-index.html",
      "columnType": "articles--type-3",
      "typeListing": "article",
      "imageMobile": "/sites/globe.com.ph/files/content/dam/globe/brie/AboutUs/newsroom/common/updated/Corporate-globe-primary-thumbnail-m.jpg",
      "imageDesktop": "/sites/globe.com.ph/files/content/dam/globe/brie/AboutUs/newsroom/common/updated/Corporate-globe-primary-thumbnail-d.jpg",
      "description": "Globe received its “A” rating anew this year from the international investment research firm MSCI ESG reflecting its strong commitment to sustainability.",
      "datePosted": "Oct 14, 2022 | 09:00 AM",
      "titleFromTag": "Sustainability"
    }
  ]
}
