{
  "status": 200,
  "page": 47,
  "totalPage": 298,
  "range": "553-564",
  "total": 3573,
  "result": [
    {
      "title": "Globe Encourages Filipinos To Join ‘Kali ‘Kada,’ Help Build Sustainable Communities",
      "nonclickable": false,
      "openNewTab": false,
      "borderArticle": "border-color:#0074D9;",
      "borderTopArticle": "border-top-color:#0074D9;",
      "imageListing": "/sites/globe.com.ph/files/content/dam/globe/brie/AboutUs/newsroom/common/updated/Corporate-globe-thumbnail-listing.jpg",
      "articleUrl": "https://www.globe.com.ph/about-us/newsroom/sustainability/globe-encourages-filipinos-to-join-kali-kada.html",
      "columnType": "articles--type-3",
      "typeListing": "article",
      "imageMobile": "/sites/globe.com.ph/files/content/dam/globe/brie/AboutUs/newsroom/common/updated/Corporate-globe-primary-thumbnail-m.jpg",
      "imageDesktop": "/sites/globe.com.ph/files/content/dam/globe/brie/AboutUs/newsroom/common/updated/Corporate-globe-primary-thumbnail-d.jpg",
      "description": "Globe is encouraging Filipinos to join its nationwide search for “Kali ‘Kada” environmental advocates and help build One Sustainable Philippines.",
      "datePosted": "Oct 14, 2022 | 09:00 AM",
      "titleFromTag": "Sustainability"
    },
    {
      "title": "Globe Media Excellence Awards @10: Celebrating a Decade of Excellent Storytelling",
      "nonclickable": false,
      "openNewTab": false,
      "borderArticle": "border-color:#0074D9;",
      "borderTopArticle": "border-top-color:#0074D9;",
      "imageListing": "/sites/globe.com.ph/files/content/dam/globe/brie/AboutUs/newsroom/corporate/globe-media-excellence-awards-10/newsroom-Celebrating-a-decade-of-excellent-storytelling-thumbnail-listing.jpg",
      "articleUrl": "https://www.globe.com.ph/about-us/newsroom/corporate/globe-media-excellence-awards-10.html",
      "columnType": "articles--type-3",
      "typeListing": "article",
      "imageMobile": "/sites/globe.com.ph/files/content/dam/globe/brie/AboutUs/newsroom/corporate/globe-media-excellence-awards-10/newsroom-Celebrating-a-decade-of-excellent-storytelling-primary-thumbnail-m.jpg",
      "imageDesktop": "/sites/globe.com.ph/files/content/dam/globe/brie/AboutUs/newsroom/corporate/globe-media-excellence-awards-10/newsroom-Celebrating-a-decade-of-excellent-storytelling-primary-thumbnail-d.jpg",
      "description": "As Globe Media Excellence Awards turns 10, it celebrates innovations that uplift lives with compassion, care, and kindness under the #OneDigitalNation theme.",
      "datePosted": "Oct 12, 2022 | 02:05 PM",
      "titleFromTag": "Corporate"
    },
    {
      "title": "Globe Group Ready To Work With Government On ‘Greening’ Economy",
      "nonclickable": false,
      "openNewTab": false,
      "borderArticle": "border-color:#1C91C5;",
      "borderTopArticle": "border-top-color:#1C91C5;",
      "imageListing": "/sites/globe.com.ph/files/content/dam/globe/brie/AboutUs/newsroom/common/default-sustainability-1/default-sustainability-2-thumbnail-listing.jpg",
      "articleUrl": "https://www.globe.com.ph/about-us/newsroom/corporate/globe-group-ready-to-work-with-government.html",
      "columnType": "articles--type-3",
      "typeListing": "article",
      "imageMobile": "/sites/globe.com.ph/files/content/dam/globe/brie/AboutUs/newsroom/common/default-sustainability-1/default-sustainability-2-primary-thumbnail-m.jpg",
      "imageDesktop": "/sites/globe.com.ph/files/content/dam/globe/brie/AboutUs/newsroom/common/default-sustainability-1/default-sustainability-2-primary-thumbnail-d.jpg",
      "description": "Globe Group stands ready to work with the government in “greening” the economy as the Philippines treads the path of recovery towards a new and better normal. ",
      "datePosted": "Oct 12, 2022 | 11:49 AM",
      "titleFromTag": "Corporate"
    },
    {
      "title": "National Mental Health Week: Visit Globe's Makeitsafe.Ph Site And Learn To Protect Children’s Mental Health Online",
      "nonclickable": false,
      "openNewTab": false,
      "borderArticle": "border-color:#0074D9;",
      "borderTopArticle": "border-top-color:#0074D9;",
      "imageListing": "/sites/globe.com.ph/files/content/dam/globe/brie/About-us/Newsroom/image/Sustainability/101222/Visit-Globe_s-MakeITSafe.ph-site-and-learn-to-protect-childrens-mental-health-online-thumbnail-listing.jpg",
      "articleUrl": "https://www.globe.com.ph/about-us/newsroom/sustainability/learn-protect-childrens-mental-health.html",
      "columnType": "articles--type-3",
      "typeListing": "article",
      "imageMobile": "/sites/globe.com.ph/files/content/dam/globe/brie/About-us/Newsroom/image/Sustainability/101222/Visit-Globe_s-MakeITSafe.ph-site-and-learn-to-protect-childrens-mental-health-online-primary-thumbnail-m.jpg",
      "imageDesktop": "/sites/globe.com.ph/files/content/dam/globe/brie/About-us/Newsroom/image/Sustainability/101222/Visit-Globe_s-MakeITSafe.ph-site-and-learn-to-protect-childrens-mental-health-online-primary-thumbnail-d.jpg",
      "description": "Globe is undertaking a holistic effort to spread awareness on the negative effects of online threats on children’s mental health through MakeITSafe.ph.",
      "datePosted": "Oct 12, 2022 | 09:00 AM",
      "titleFromTag": "Sustainability"
    },
    {
      "title": "Globe Becomes First-Ever Overall PH Winner at HR Excellence Awards",
      "nonclickable": false,
      "openNewTab": false,
      "borderArticle": "border-color:#0074D9;",
      "borderTopArticle": "border-top-color:#0074D9;",
      "imageListing": "/sites/globe.com.ph/files/content/dam/globe/brie/AboutUs/newsroom/common/default-corporate-1/default-corporate-1-thumbnail-listing.jpg",
      "articleUrl": "https://www.globe.com.ph/about-us/newsroom/corporate/first-overall-ph-winner-hr-excellence-awards.html",
      "columnType": "articles--type-3",
      "typeListing": "article",
      "imageMobile": "/sites/globe.com.ph/files/content/dam/globe/brie/AboutUs/newsroom/common/default-corporate-1/default-corporate-1-primary-thumbnail-m.jpg",
      "imageDesktop": "/sites/globe.com.ph/files/content/dam/globe/brie/AboutUs/newsroom/common/default-corporate-1/default-corporate-1-primary-thumbnail-d.jpg",
      "description": "Globe was declared the overall Philippine winner at the HR Excellence Awards (HREA) 2022 as it bagged 6 citations for its commendable practices as an employer.",
      "datePosted": "Oct 11, 2022 | 09:30 AM",
      "titleFromTag": "Corporate"
    },
    {
      "title": "GCash Goes Hyperlocal To Expand Reach, Empower People in Countryside",
      "nonclickable": false,
      "openNewTab": false,
      "borderArticle": "border-color:#0074D9;",
      "borderTopArticle": "border-top-color:#0074D9;",
      "imageListing": "/sites/globe.com.ph/files/content/dam/globe/brie/About-us/Newsroom/image/Corporate/101122/GCash-goes-hyperlocal-to-expand-reach-empower-people-in-countryside-thumbnail-listing.jpg",
      "articleUrl": "https://www.globe.com.ph/about-us/newsroom/corporate/gcash-goes-hyperlocal-expand-reach.html",
      "columnType": "articles--type-3",
      "typeListing": "article",
      "imageMobile": "/sites/globe.com.ph/files/content/dam/globe/brie/About-us/Newsroom/image/Corporate/101122/GCash-goes-hyperlocal-to-expand-reach-empower-people-in-countryside-primary-thumbnail-m.jpg",
      "imageDesktop": "/sites/globe.com.ph/files/content/dam/globe/brie/About-us/Newsroom/image/Corporate/101122/GCash-goes-hyperlocal-to-expand-reach-empower-people-in-countryside-primary-thumbnail-d.jpg",
      "description": "GCash focuses on hyper localization and partnerships with local government units (LGUs) to extend financial services to the countryside.",
      "datePosted": "Oct 11, 2022 | 09:30 AM",
      "titleFromTag": "Corporate"
    },
    {
      "title": "Access to KonsultaMD Now Bundled with Gardenia",
      "nonclickable": false,
      "openNewTab": false,
      "borderArticle": "border-color:#0074D9;",
      "borderTopArticle": "border-top-color:#0074D9;",
      "imageListing": "/sites/globe.com.ph/files/content/dam/globe/brie/AboutUs/newsroom/common/default-business-1/default-business-1-thumbnail-listing.jpg",
      "articleUrl": "https://www.globe.com.ph/about-us/newsroom/corporate/konsultamd-now-bundled-with-gardenia.html",
      "columnType": "articles--type-3",
      "typeListing": "article",
      "imageMobile": "/sites/globe.com.ph/files/content/dam/globe/brie/AboutUs/newsroom/common/default-business-1/default-business-1-primary-thumbnail-m.jpg",
      "imageDesktop": "/sites/globe.com.ph/files/content/dam/globe/brie/AboutUs/newsroom/common/default-business-1/default-business-1-primary-thumbnail-d.jpg",
      "description": "With every loaf of bread bought, Filipinos can now access healthcare. KonsultaMD and Gardenia have joined hands to promote a healthier lifestyle for Filipinos.",
      "datePosted": "Oct 10, 2022 | 05:27 PM",
      "titleFromTag": "Corporate"
    },
    {
      "title": "Distort Monsters Headlines Globe Platinum’s Pop-Up Store Launch For 917 #Extragdayeveryday",
      "nonclickable": false,
      "openNewTab": false,
      "borderArticle": "border-color:#1C91C5;",
      "borderTopArticle": "border-top-color:#1C91C5;",
      "imageListing": "/sites/globe.com.ph/files/content/dam/globe/brie/About-us/Newsroom/image/Consumer/101022/Globe-Platinums-pop-up-store-launch-for-917-ExtraGDayEveryday-thumbnail-listing.jpg",
      "articleUrl": "https://www.globe.com.ph/about-us/newsroom/consumer/distort-monsters-headlines-pop-up-store.html",
      "columnType": "articles--type-3",
      "typeListing": "article",
      "imageMobile": "/sites/globe.com.ph/files/content/dam/globe/brie/About-us/Newsroom/image/Consumer/101022/Globe-Platinums-pop-up-store-launch-for-917-ExtraGDayEveryday-primary-thumbnail-m.jpg",
      "imageDesktop": "/sites/globe.com.ph/files/content/dam/globe/brie/About-us/Newsroom/image/Consumer/101022/Globe-Platinums-pop-up-store-launch-for-917-ExtraGDayEveryday-primary-thumbnail-d.jpg",
      "description": "Globe Platinum collaborated with artist Distort Monsters at the launch of the Platinum Series Hub in celebration of this year’s 917 GDay.",
      "datePosted": "Oct 10, 2022 | 11:49 AM",
      "titleFromTag": "Consumer"
    },
    {
      "title": "Globe Supports Signing of SIM Registration Bill, Seeks Full Rollout of National ID System",
      "nonclickable": false,
      "openNewTab": false,
      "borderArticle": "border-color:#0074D9;",
      "borderTopArticle": "border-top-color:#0074D9;",
      "imageListing": "/sites/globe.com.ph/files/content/dam/globe/brie/AboutUs/newsroom/corporate/globe-sms-blocking/corporate-default-7-thumbnail-listing.jpg",
      "articleUrl": "https://www.globe.com.ph/about-us/newsroom/corporate/globe-supports-signing-of-sim-registration.html",
      "columnType": "articles--type-3",
      "typeListing": "article",
      "imageMobile": "/sites/globe.com.ph/files/content/dam/globe/brie/AboutUs/newsroom/corporate/globe-sms-blocking/corporate-default-7-primary-thumbnail-m.jpg",
      "imageDesktop": "/sites/globe.com.ph/files/content/dam/globe/brie/AboutUs/newsroom/corporate/globe-sms-blocking/corporate-default-7-primary-thumbnail-d.jpg",
      "description": "Globe Telecom welcomes the swift passage and signing of the SIM Registration Law, as it reiterates its call for the full rollout of the National ID system.",
      "datePosted": "Oct 10, 2022 | 11:42 AM",
      "titleFromTag": "Corporate"
    },
    {
      "title": "Multi-Stakeholder Effort Needed Against Worldwide Mobile Phone Scams",
      "nonclickable": false,
      "openNewTab": false,
      "borderArticle": "border-color:#0074D9;",
      "borderTopArticle": "border-top-color:#0074D9;",
      "imageListing": "/sites/globe.com.ph/files/content/dam/globe/brie/AboutUs/newsroom/common/default-2/default-business-2-thumbnail-listing.jpg",
      "articleUrl": "https://www.globe.com.ph/about-us/newsroom/corporate/efforts-needed-against-mobile-phone-scams.html",
      "columnType": "articles--type-3",
      "typeListing": "article",
      "imageMobile": "/sites/globe.com.ph/files/content/dam/globe/brie/AboutUs/newsroom/common/default-2/default-business-2-primary-thumbnail-m.jpg",
      "imageDesktop": "/sites/globe.com.ph/files/content/dam/globe/brie/AboutUs/newsroom/common/default-2/default-business-2-primary-thumbnail-d.jpg",
      "description": "Stopping mobile phone scams needs a multi-stakeholder approach: government, law enforcement, business, consumers and other partners must work together.",
      "datePosted": "Oct 10, 2022 | 11:30 AM",
      "titleFromTag": "Corporate"
    },
    {
      "title": "Globe Fires up over 300 Sites as It Expands 5G Coverage in Visayas",
      "nonclickable": false,
      "openNewTab": false,
      "borderArticle": "border-color:#1C91C5;",
      "borderTopArticle": "border-top-color:#1C91C5;",
      "imageListing": "/sites/globe.com.ph/files/content/dam/globe/brie/AboutUs/newsroom/corporate/globe-completes-sites-upgrades/corporate-default-6-thumbnail-listing.jpg",
      "articleUrl": "https://www.globe.com.ph/about-us/newsroom/corporate/globe-expands-5g-coverage-visayas.html",
      "columnType": "articles--type-3",
      "typeListing": "article",
      "imageMobile": "/sites/globe.com.ph/files/content/dam/globe/brie/AboutUs/newsroom/corporate/globe-completes-sites-upgrades/corporate-default-6-primary-thumbnail-m.jpg",
      "imageDesktop": "/sites/globe.com.ph/files/content/dam/globe/brie/AboutUs/newsroom/corporate/globe-completes-sites-upgrades/corporate-default-6-primary-thumbnail-d.jpg",
      "description": "Globe continues to expand its coverage to areas outside Luzon by firing up 302 5G-capable cell sites in the Visayas to meet rising data traffic in the region.",
      "datePosted": "Oct 10, 2022 | 09:31 AM",
      "titleFromTag": "Corporate"
    },
    {
      "title": "Drag Race Philippines Creates ‘Herstory’ at Globe’s G Music Fest With First Complete Public Performance",
      "nonclickable": false,
      "openNewTab": false,
      "borderArticle": "border-color:#1C91C5;",
      "borderTopArticle": "border-top-color:#1C91C5;",
      "imageListing": "/sites/globe.com.ph/files/content/dam/globe/brie/About-us/Newsroom/image/Consumer/100522/Drag-Race-Philippines-Creates-Herstory-at-Globes-G-Music-Fest-thumbnail-listing.jpg",
      "articleUrl": "https://www.globe.com.ph/about-us/newsroom/consumer/drag-race-philippines-creates-herstory-g-music-fest.html",
      "columnType": "articles--type-3",
      "typeListing": "article",
      "imageMobile": "/sites/globe.com.ph/files/content/dam/globe/brie/About-us/Newsroom/image/Consumer/100522/Drag-Race-Philippines-Creates-Herstory-at-Globes-G-Music-Fest-primary-thumbnail-m.jpg",
      "imageDesktop": "/sites/globe.com.ph/files/content/dam/globe/brie/About-us/Newsroom/image/Consumer/100522/Drag-Race-Philippines-Creates-Herstory-at-Globes-G-Music-Fest-primary-thumbnail-d.jpg",
      "description": "Glamorous queens from the popular reality competition Drag Race Philippines surprised fans at the G Music Fest.",
      "datePosted": "Oct 05, 2022 | 11:49 AM",
      "titleFromTag": "Consumer"
    }
  ]
}
