{
  "status": 200,
  "page": 48,
  "totalPage": 298,
  "range": "565-576",
  "total": 3573,
  "result": [
    {
      "title": "Globe Logs 73% Growth in 5G Traffic for First Half of 2022",
      "nonclickable": false,
      "openNewTab": false,
      "borderArticle": "border-color:#1C91C5;",
      "borderTopArticle": "border-top-color:#1C91C5;",
      "imageListing": "/sites/globe.com.ph/files/content/dam/globe/brie/AboutUs/newsroom/corporate/799-permits-1q-2021-new-towers/default-corporate-9-thumbnail-listing.jpg",
      "articleUrl": "https://www.globe.com.ph/about-us/newsroom/corporate/globe-logs-growth-5g-traffic.html",
      "columnType": "articles--type-3",
      "typeListing": "article",
      "imageMobile": "/sites/globe.com.ph/files/content/dam/globe/brie/AboutUs/newsroom/corporate/799-permits-1q-2021-new-towers/default-corporate-9-primary-thumbnail-m.jpg",
      "imageDesktop": "/sites/globe.com.ph/files/content/dam/globe/brie/AboutUs/newsroom/corporate/799-permits-1q-2021-new-towers/default-corporate-9-primary-thumbnail-d.jpg",
      "description": "Globe logged 73% growth in 5G traffic for the first half of this year compared to the same period last year as it continues to expand network coverage.",
      "datePosted": "Oct 05, 2022 | 09:31 AM",
      "titleFromTag": "Corporate"
    },
    {
      "title": "Globe Group Welcomes PH Rise in Global Digital Competitiveness, Vows More Innovations for Greater Uplift",
      "nonclickable": false,
      "openNewTab": false,
      "borderArticle": "border-color:#0074D9;",
      "borderTopArticle": "border-top-color:#0074D9;",
      "imageListing": "/sites/globe.com.ph/files/content/dam/globe/brie/AboutUs/newsroom/corporate/largest-ph-publicly-listed-telco-digital-solutions-group/Corporate-globe-thumbnail-listing.jpg",
      "articleUrl": "https://www.globe.com.ph/about-us/newsroom/corporate/ph-rise-for-global-digital-competitiveness.html",
      "columnType": "articles--type-3",
      "typeListing": "article",
      "imageMobile": "/sites/globe.com.ph/files/content/dam/globe/brie/AboutUs/newsroom/corporate/largest-ph-publicly-listed-telco-digital-solutions-group/Corporate-globe-primary-thumbnail-m.jpg",
      "imageDesktop": "/sites/globe.com.ph/files/content/dam/globe/brie/AboutUs/newsroom/corporate/largest-ph-publicly-listed-telco-digital-solutions-group/Corporate-globe-primary-thumbnail-d.jpg",
      "description": "Globe welcomes the PH’s climb in a global digital competitiveness index, vowed to introduce more innovations in support of inclusive digital transformation.",
      "datePosted": "Oct 04, 2022 | 02:05 PM",
      "titleFromTag": "Corporate"
    },
    {
      "title": "Globe’s SMS Blocking Part Of Arsenal Of Tech-Based Countermeasures Vs Fraud",
      "nonclickable": false,
      "openNewTab": false,
      "borderArticle": "border-color:#0074D9;",
      "borderTopArticle": "border-top-color:#0074D9;",
      "imageListing": "/sites/globe.com.ph/files/content/dam/globe/brie/AboutUs/newsroom/corporate/globe-sms-blocking/corporate-default-7-thumbnail-listing.jpg",
      "articleUrl": "https://www.globe.com.ph/about-us/newsroom/corporate/sms-blocking-part-of-tech-based-countermeasures.html",
      "columnType": "articles--type-3",
      "typeListing": "article",
      "imageMobile": "/sites/globe.com.ph/files/content/dam/globe/brie/AboutUs/newsroom/corporate/globe-sms-blocking/corporate-default-7-primary-thumbnail-m.jpg",
      "imageDesktop": "/sites/globe.com.ph/files/content/dam/globe/brie/AboutUs/newsroom/corporate/globe-sms-blocking/corporate-default-7-primary-thumbnail-d.jpg",
      "description": "Globe temporarily blocks text messages containing clickable website links to ensure customer's protection and regain trust in digital platforms.",
      "datePosted": "Oct 03, 2022 | 05:27 PM",
      "titleFromTag": "Corporate"
    },
    {
      "title": "GCash improves security for users, moves text messages to app inbox, removes all links in SMS and emails",
      "nonclickable": false,
      "openNewTab": false,
      "borderArticle": "border-color:#0074D9;",
      "borderTopArticle": "border-top-color:#0074D9;",
      "imageListing": "/sites/globe.com.ph/files/content/dam/globe/brie/About-us/Newsroom/image/Corporate/100322/GCash-improves-security-for-users-thumbnail-listing.jpg",
      "articleUrl": "https://www.globe.com.ph/about-us/newsroom/corporate/gcash-moves-text-messages-to-app-inbox.html",
      "columnType": "articles--type-3",
      "typeListing": "article",
      "imageMobile": "/sites/globe.com.ph/files/content/dam/globe/brie/About-us/Newsroom/image/Corporate/100322/GCash-improves-security-for-users-primary-thumbnail-m.jpg",
      "imageDesktop": "/sites/globe.com.ph/files/content/dam/globe/brie/About-us/Newsroom/image/Corporate/100322/GCash-improves-security-for-users-primary-thumbnail-d.jpg",
      "description": "GCash further intensifies its security measures as part of heightened efforts to combat scams and fraud.",
      "datePosted": "Oct 03, 2022 | 12:00 PM",
      "titleFromTag": "Corporate"
    },
    {
      "title": "Globe At Home Customers Get 100 Mbps Average Internet Speed Under Free Plan Realignment",
      "nonclickable": false,
      "openNewTab": false,
      "borderArticle": "border-color:#0074D9;",
      "borderTopArticle": "border-top-color:#0074D9;",
      "imageListing": "/sites/globe.com.ph/files/content/dam/globe/brie/AboutUs/newsroom/corporate/customers-get-100-Mbps-internet-speed/gah-customers-100-mbps-thumbnail-listing.jpg",
      "articleUrl": "https://www.globe.com.ph/about-us/newsroom/corporate/customers-get-100-mbps-internet-speed.html",
      "columnType": "articles--type-3",
      "typeListing": "article",
      "imageMobile": "/sites/globe.com.ph/files/content/dam/globe/brie/AboutUs/newsroom/corporate/customers-get-100-Mbps-internet-speed/gah-customers-100-mbps-primary-thumbnail-m.jpg",
      "imageDesktop": "/sites/globe.com.ph/files/content/dam/globe/brie/AboutUs/newsroom/corporate/customers-get-100-Mbps-internet-speed/gah-customers-100-mbps-primary-thumbnail-d.jpg",
      "description": "Globe At Home Customers enjoy greater bandwidth under free plan realignment.",
      "datePosted": "Oct 03, 2022 | 12:00 PM",
      "titleFromTag": "Corporate"
    },
    {
      "title": "Globe, Partners Bring Fiber Connectivity to Eight Provinces Through Longest Domestic Submarine Cable Project",
      "nonclickable": false,
      "openNewTab": false,
      "borderArticle": "border-color:#0074D9;",
      "borderTopArticle": "border-top-color:#0074D9;",
      "imageListing": "/sites/globe.com.ph/files/content/dam/globe/brie/AboutUs/newsroom/corporate/volte-service-now-available-25-provinces-ph/default-consumer-2-thumbnail-listing.jpg",
      "articleUrl": "https://www.globe.com.ph/about-us/newsroom/corporate/globe-partners-bring-fiber-connectivity-to-8-provinces.html",
      "columnType": "articles--type-3",
      "typeListing": "article",
      "imageMobile": "/sites/globe.com.ph/files/content/dam/globe/brie/AboutUs/newsroom/corporate/volte-service-now-available-25-provinces-ph/default-consumer-2-primary-thumbnail-m.jpg",
      "imageDesktop": "/sites/globe.com.ph/files/content/dam/globe/brie/AboutUs/newsroom/corporate/volte-service-now-available-25-provinces-ph/default-consumer-2-primary-thumbnail-d.jpg",
      "description": "Globe and its partners have landed fiber optic cable in eight provinces that will bring better fiber connectivity to remote areas.",
      "datePosted": "Oct 03, 2022 | 11:05 AM",
      "titleFromTag": "Corporate"
    },
    {
      "title": "Globe Starts Blocking SMS with Clickable Links to Boost Fight vs Fraudsters",
      "nonclickable": false,
      "openNewTab": false,
      "borderArticle": "border-color:#0074D9;",
      "borderTopArticle": "border-top-color:#0074D9;",
      "imageListing": "/sites/globe.com.ph/files/content/dam/globe/brie/AboutUs/newsroom/common/default-3/corporate-default-7-thumbnail-listing.jpg",
      "articleUrl": "https://www.globe.com.ph/about-us/newsroom/corporate/globe-starts-blocking-sms-with-clickable-links.html",
      "columnType": "articles--type-3",
      "typeListing": "article",
      "imageMobile": "/sites/globe.com.ph/files/content/dam/globe/brie/AboutUs/newsroom/common/default-3/corporate-default-7-primary-thumbnail-m.jpg",
      "imageDesktop": "/sites/globe.com.ph/files/content/dam/globe/brie/AboutUs/newsroom/common/default-3/corporate-default-7-primary-thumbnail-d.jpg",
      "description": "Globe starts blocking SMS with website links to boost fight against scam and spam messages.",
      "datePosted": "Sep 30, 2022 | 02:05 PM",
      "titleFromTag": "Corporate"
    },
    {
      "title": "Globe Business Ties up with Inquiro to Enrich Customer Insighting and Fuel Enterprise Growth",
      "nonclickable": false,
      "openNewTab": false,
      "borderArticle": "border-color:#0074D9;",
      "borderTopArticle": "border-top-color:#0074D9;",
      "imageListing": "/sites/globe.com.ph/files/content/dam/globe/brie/AboutUs/newsroom/business/globe-ties-up-with-inquiro-enrich-customer-insighting/eg-inquiro-listing-thumbnail.jpg",
      "articleUrl": "https://www.globe.com.ph/about-us/newsroom/business/globe-ties-up-with-inquiro-enrich-customer-insighting.html",
      "columnType": "articles--type-3",
      "typeListing": "article",
      "imageMobile": "/sites/globe.com.ph/files/content/dam/globe/brie/AboutUs/newsroom/business/globe-ties-up-with-inquiro-enrich-customer-insighting/eg-inquiro-primary-banner-m.jpg",
      "imageDesktop": "/sites/globe.com.ph/files/content/dam/globe/brie/AboutUs/newsroom/business/globe-ties-up-with-inquiro-enrich-customer-insighting/eg-inquiro-primary-thumbnail.jpg",
      "description": "Globe Business Enterprise partners with Inquiro to empower enterprises to capture a bigger chunk of the growing online market.",
      "datePosted": "Sep 29, 2022 | 05:00 PM",
      "titleFromTag": "Business"
    },
    {
      "title": "IKEA Family Members Get Exclusive Free KonsultaMD Health Plan",
      "nonclickable": false,
      "openNewTab": false,
      "borderArticle": "border-color:#1C91C5;",
      "borderTopArticle": "border-top-color:#1C91C5;",
      "imageListing": "/sites/globe.com.ph/files/content/dam/globe/brie/AboutUs/newsroom/common/default-business-1/default-business-1-thumbnail-listing.jpg",
      "articleUrl": "https://www.globe.com.ph/about-us/newsroom/consumer/ikea-family-members-get-free-konsultamd-health-plan.html",
      "columnType": "articles--type-3",
      "typeListing": "article",
      "imageMobile": "/sites/globe.com.ph/files/content/dam/globe/brie/AboutUs/newsroom/common/default-business-1/default-business-1-primary-thumbnail-m.jpg",
      "imageDesktop": "/sites/globe.com.ph/files/content/dam/globe/brie/AboutUs/newsroom/common/default-business-1/default-business-1-primary-thumbnail-d.jpg",
      "description": "Members of IKEA Family, the loyalty club of the global home furnishing brand, get an exclusive free one-month health plan from telehealth provider KonsultaMD.",
      "datePosted": "Sep 29, 2022 | 11:49 AM",
      "titleFromTag": "Consumer"
    },
    {
      "title": "Renowned PH Tech Leaders Join KodeGo’s Board of Advisors",
      "nonclickable": false,
      "openNewTab": false,
      "borderArticle": "border-color:#0074D9;",
      "borderTopArticle": "border-top-color:#0074D9;",
      "imageListing": "/sites/globe.com.ph/files/content/dam/globe/brie/AboutUs/newsroom/common/default-4/default-consumer-3-thumbnail-listing.jpg",
      "articleUrl": "https://www.globe.com.ph/about-us/newsroom/partners/tech-leaders-join-kodegos-board-of-advisors.html",
      "columnType": "articles--type-3",
      "typeListing": "article",
      "imageMobile": "/sites/globe.com.ph/files/content/dam/globe/brie/AboutUs/newsroom/common/default-4/default-consumer-3-primary-thumbnail-m.jpg",
      "imageDesktop": "/sites/globe.com.ph/files/content/dam/globe/brie/AboutUs/newsroom/common/default-4/default-consumer-3-primary-thumbnail-d.jpg",
      "description": "Renowned leaders in the local technology industry have joined the Board of Advisors of KodeGo, the web development educational boot camp of Globe’s 917Ventures.",
      "datePosted": "Sep 29, 2022 | 11:00 AM",
      "titleFromTag": "Partners"
    },
    {
      "title": "Globe Welcomes Bicameral Ratification of SIM Registration Bill",
      "nonclickable": false,
      "openNewTab": false,
      "borderArticle": "border-color:#0074D9;",
      "borderTopArticle": "border-top-color:#0074D9;",
      "imageListing": "/sites/globe.com.ph/files/content/dam/globe/brie/AboutUs/newsroom/common/default-4/default-consumer-3-thumbnail-listing.jpg",
      "articleUrl": "https://www.globe.com.ph/about-us/newsroom/corporate/globe-welcomes-passage-sim-registration-bill.html",
      "columnType": "articles--type-3",
      "typeListing": "article",
      "imageMobile": "/sites/globe.com.ph/files/content/dam/globe/brie/AboutUs/newsroom/common/default-4/default-consumer-3-primary-thumbnail-m.jpg",
      "imageDesktop": "/sites/globe.com.ph/files/content/dam/globe/brie/AboutUs/newsroom/common/default-4/default-consumer-3-primary-thumbnail-d.jpg",
      "description": "Globe welcomes the passage of the SIM Registration Bill that will help address spam and scam messages.",
      "datePosted": "Sep 29, 2022 | 08:05 AM",
      "titleFromTag": "Corporate"
    },
    {
      "title": "Globe Exec Scores Double Win at Snowflake 2022 Data Driver Awards",
      "nonclickable": false,
      "openNewTab": false,
      "borderArticle": "border-color:#0074D9;",
      "borderTopArticle": "border-top-color:#0074D9;",
      "imageListing": "/sites/globe.com.ph/files/content/dam/globe/brie/About-us/Newsroom/image/Corporate/092922/Exec-Scores-Double-Win-at-Snowflake-2022-Data-Driver-Awards-thumbnail-listing.jpg",
      "articleUrl": "https://www.globe.com.ph/about-us/newsroom/corporate/globe-scores-double-win-snowflake-2022.html",
      "columnType": "articles--type-3",
      "typeListing": "article",
      "imageMobile": "/sites/globe.com.ph/files/content/dam/globe/brie/About-us/Newsroom/image/Corporate/092922/Exec-Scores-Double-Win-at-Snowflake-2022-Data-Driver-Awards-primary-thumbnail-m.jpg",
      "imageDesktop": "/sites/globe.com.ph/files/content/dam/globe/brie/About-us/Newsroom/image/Corporate/092922/Exec-Scores-Double-Win-at-Snowflake-2022-Data-Driver-Awards-primary-thumbnail-d.jpg",
      "description": "A Globe executive recently won twin recognitions at the recent Snowflake 2022 Data Drivers Awards.",
      "datePosted": "Sep 29, 2022 | 08:05 AM",
      "titleFromTag": "Corporate"
    }
  ]
}
