{
  "status": 200,
  "page": 49,
  "totalPage": 298,
  "range": "577-588",
  "total": 3573,
  "result": [
    {
      "title": "Ayala, Singtel, Globe Foster Positive Work Culture and Doing Business with Purpose",
      "nonclickable": false,
      "openNewTab": false,
      "borderArticle": "border-color:#0074D9;",
      "borderTopArticle": "border-top-color:#0074D9;",
      "imageListing": "/sites/globe.com.ph/files/content/dam/globe/brie/AboutUs/newsroom/common/default-corporate-1/default-corporate-1-thumbnail-listing.jpg",
      "articleUrl": "https://www.globe.com.ph/about-us/newsroom/corporate/positive-work-culture-doing-business-with-purpose.html",
      "columnType": "articles--type-3",
      "typeListing": "article",
      "imageMobile": "/sites/globe.com.ph/files/content/dam/globe/brie/AboutUs/newsroom/common/default-corporate-1/default-corporate-1-primary-thumbnail-m.jpg",
      "imageDesktop": "/sites/globe.com.ph/files/content/dam/globe/brie/AboutUs/newsroom/common/default-corporate-1/default-corporate-1-primary-thumbnail-d.jpg",
      "description": "Globe, Ayala Corporation, and Singtel, recognize the need for reinvention to keep up with new developments and foster a positive work culture.",
      "datePosted": "Sep 28, 2022 | 09:30 AM",
      "titleFromTag": "Corporate"
    },
    {
      "title": "GCash Warns Public Against Participating As Money Mules",
      "nonclickable": false,
      "openNewTab": false,
      "borderArticle": "border-color:#0074D9;",
      "borderTopArticle": "border-top-color:#0074D9;",
      "imageListing": "/sites/globe.com.ph/files/content/dam/globe/brie/About-us/Newsroom/image/Corporate/092822/Newsroom-GCash-warns-public-against-participating-as-money-thumbnail-listing.jpg",
      "articleUrl": "https://www.globe.com.ph/about-us/newsroom/corporate/gcash-warns-public-against-participating-as-money-mules.html",
      "columnType": "articles--type-3",
      "typeListing": "article",
      "imageMobile": "/sites/globe.com.ph/files/content/dam/globe/brie/About-us/Newsroom/image/Corporate/092822/Newsroom-GCash-warns-public-against-participating-as-money-primary-thumbnail-m.jpg",
      "imageDesktop": "/sites/globe.com.ph/files/content/dam/globe/brie/About-us/Newsroom/image/Corporate/092822/Newsroom-GCash-warns-public-against-participating-as-money-primary-thumbnail-d.jpg",
      "description": "GCash warns public and proactively bars accounts detected to be used for mule activity.",
      "datePosted": "Sep 28, 2022 | 08:05 AM",
      "titleFromTag": "Corporate"
    },
    {
      "title": "Globe Scales up Network Builds to Serve Remote Public Schools",
      "nonclickable": false,
      "openNewTab": false,
      "borderArticle": "border-color:#1C91C5;",
      "borderTopArticle": "border-top-color:#1C91C5;",
      "imageListing": "/sites/globe.com.ph/files/content/dam/globe/brie/AboutUs/newsroom/corporate/799-permits-1q-2021-new-towers/default-corporate-9-thumbnail-listing.jpg",
      "articleUrl": "https://www.globe.com.ph/about-us/newsroom/corporate/globe-scales-up-network-builds-to-serve-public-schools.html",
      "columnType": "articles--type-3",
      "typeListing": "article",
      "imageMobile": "/sites/globe.com.ph/files/content/dam/globe/brie/AboutUs/newsroom/corporate/799-permits-1q-2021-new-towers/default-corporate-9-primary-thumbnail-m.jpg",
      "imageDesktop": "/sites/globe.com.ph/files/content/dam/globe/brie/AboutUs/newsroom/corporate/799-permits-1q-2021-new-towers/default-corporate-9-primary-thumbnail-d.jpg",
      "description": "Globe continues to scale up its network builds and upgrades, especially in geographically isolated, disadvantaged, and conflict-affected areas.",
      "datePosted": "Sep 27, 2022 | 09:31 AM",
      "titleFromTag": "Corporate"
    },
    {
      "title": "GCash Serves 1M Borrowers, Disburses P40B in Loans",
      "nonclickable": false,
      "openNewTab": false,
      "borderArticle": "border-color:#1C91C5;",
      "borderTopArticle": "border-top-color:#1C91C5;",
      "imageListing": "/sites/globe.com.ph/files/content/dam/globe/brie/AboutUs/newsroom/consumer/GCash-Serves-1M-Borrowers--Disburses-P40B-in-Loans/Newsroom-GCash-serves-1M-borrowers-disburses-P40B-in-loans-thumbnail-listing.jpg",
      "articleUrl": "https://www.globe.com.ph/about-us/newsroom/consumer/gcash-serves-1m-borrowers.html",
      "columnType": "articles--type-3",
      "typeListing": "article",
      "imageMobile": "/sites/globe.com.ph/files/content/dam/globe/brie/AboutUs/newsroom/consumer/GCash-Serves-1M-Borrowers--Disburses-P40B-in-Loans/Newsroom-GCash-serves-1M-borrowers-disburses-P40B-in-loans-primary-thumbnail-m.jpg",
      "imageDesktop": "/sites/globe.com.ph/files/content/dam/globe/brie/AboutUs/newsroom/consumer/GCash-Serves-1M-Borrowers--Disburses-P40B-in-Loans/Newsroom-GCash-serves-1M-borrowers-disburses-P40B-in-loans-primary-thumbnail-d.jpg",
      "description": "With GCredit, GLoan and GGives altogether, GCash has logged one million active borrowers as of end June.",
      "datePosted": "Sep 26, 2022 | 01:49 PM",
      "titleFromTag": "Consumer"
    },
    {
      "title": "Globe Ready to Deploy FREE Call, Charging and WiFi Stations in Areas That May Be Affected by ‘Karding’",
      "nonclickable": false,
      "openNewTab": false,
      "borderArticle": "border-color:#1C91C5;",
      "borderTopArticle": "border-top-color:#1C91C5;",
      "imageListing": "/sites/globe.com.ph/files/content/dam/globe/brie/AboutUs/newsroom/common/default-3/corporate-default-7-thumbnail-listing.jpg",
      "articleUrl": "https://www.globe.com.ph/about-us/newsroom/sustainability/free-call-charging-wifi-stations-in-areas-affected-by-karding.html",
      "columnType": "articles--type-3",
      "typeListing": "article",
      "imageMobile": "/sites/globe.com.ph/files/content/dam/globe/brie/AboutUs/newsroom/common/default-3/corporate-default-7-primary-thumbnail-m.jpg",
      "imageDesktop": "/sites/globe.com.ph/files/content/dam/globe/brie/AboutUs/newsroom/common/default-3/corporate-default-7-primary-thumbnail-d.jpg",
      "description": "Globe has started preparations for the impact of Karding, which reached super typhoon category after “explosive intensification” and is on track to cross Luzon.",
      "datePosted": "Sep 26, 2022 | 01:00 PM",
      "titleFromTag": "Sustainability"
    },
    {
      "title": "KonsultaMD and National Bookstore Partner for Student Health This Back-To-School Season",
      "nonclickable": false,
      "openNewTab": false,
      "borderArticle": "border-color:#1C91C5;",
      "borderTopArticle": "border-top-color:#1C91C5;",
      "imageListing": "/sites/globe.com.ph/files/content/dam/globe/brie/AboutUs/newsroom/sustainability/Globe-Partners---LinkedIn-Learning-Offer-Sustainability-Education/default-default-3-thumbnail-listing.jpg",
      "articleUrl": "https://www.globe.com.ph/about-us/newsroom/consumer/konsultamd-national-bookstore-partner-student-health.html",
      "columnType": "articles--type-3",
      "typeListing": "article",
      "imageMobile": "/sites/globe.com.ph/files/content/dam/globe/brie/AboutUs/newsroom/sustainability/Globe-Partners---LinkedIn-Learning-Offer-Sustainability-Education/default-default-3-primary-thumbnail-m.jpg",
      "imageDesktop": "/sites/globe.com.ph/files/content/dam/globe/brie/AboutUs/newsroom/sustainability/Globe-Partners---LinkedIn-Learning-Offer-Sustainability-Education/default-default-3-primary-thumbnail-d.jpg",
      "description": "KonsultaMD and National Book Store are all set to ensure that students are physically and mentally fit as they return to face-to-face classes.",
      "datePosted": "Sep 26, 2022 | 11:49 AM",
      "titleFromTag": "Consumer"
    },
    {
      "title": "Globe Introduces New Mobile Game to Encourage Sustainable Practices One Gameplay at a Time",
      "nonclickable": false,
      "openNewTab": false,
      "borderArticle": "border-color:#0074D9;",
      "borderTopArticle": "border-top-color:#0074D9;",
      "imageListing": "/sites/globe.com.ph/files/content/dam/globe/brie/AboutUs/newsroom/common/default-corporate-3/default-corporate-3-thumbnail-listing.jpg",
      "articleUrl": "https://www.globe.com.ph/about-us/newsroom/sustainability/mobile-game-to-encourage-sustainable-practices.html",
      "columnType": "articles--type-3",
      "typeListing": "article",
      "imageMobile": "/sites/globe.com.ph/files/content/dam/globe/brie/AboutUs/newsroom/common/default-corporate-3/default-corporate-3-primary-thumbnail-m.jpg",
      "imageDesktop": "/sites/globe.com.ph/files/content/dam/globe/brie/AboutUs/newsroom/common/default-corporate-3/default-corporate-3-primary-thumbnail-d.jpg",
      "description": "Globe launched Climate Champions, a mobile game that aims to encourage their customers to make sustainable choices in their consumption of goods and  services. ",
      "datePosted": "Sep 26, 2022 | 09:00 AM",
      "titleFromTag": "Sustainability"
    },
    {
      "title": "Enjoy the Vibe in Metaverse @ GlobeXBUD Virtual World",
      "nonclickable": false,
      "openNewTab": false,
      "borderArticle": "border-color:#1C91C5;",
      "borderTopArticle": "border-top-color:#1C91C5;",
      "imageListing": "/sites/globe.com.ph/files/content/dam/globe/brie/AboutUs/newsroom/consumer/enjoy-vibe-metaverse-globexbud-virtual-world/newsroom-consumer-g-music-fest-metaverse-thumbnail-listing.jpg",
      "articleUrl": "https://www.globe.com.ph/about-us/newsroom/consumer/enjoy-vibe-metaverse-globexbud-virtual-world.html",
      "columnType": "articles--type-3",
      "typeListing": "article",
      "imageMobile": "/sites/globe.com.ph/files/content/dam/globe/brie/AboutUs/newsroom/consumer/enjoy-vibe-metaverse-globexbud-virtual-world/newsroom-consumer-g-music-fest-metaverse-primary-thumbnail-m.jpg",
      "imageDesktop": "/sites/globe.com.ph/files/content/dam/globe/brie/AboutUs/newsroom/consumer/enjoy-vibe-metaverse-globexbud-virtual-world/newsroom-consumer-g-music-fest-metaverse-primary-thumbnail-d.jpg",
      "description": "The G Music Fest virtual world officially launched the partnership between Globe and BUD, one of the largest global open metaverse platforms.",
      "datePosted": "Sep 23, 2022 | 01:49 PM",
      "titleFromTag": "Consumer"
    },
    {
      "title": "  Globe Brings ‘Rings of Power’ to Prepaid and TM Subs with Prime Video Mobile Edition",
      "nonclickable": false,
      "openNewTab": false,
      "borderArticle": "border-color:#1C91C5;",
      "borderTopArticle": "border-top-color:#1C91C5;",
      "imageListing": "/sites/globe.com.ph/files/content/dam/globe/brie/AboutUs/newsroom/common/default-4/default-consumer-3-thumbnail-listing.jpg",
      "articleUrl": "https://www.globe.com.ph/about-us/newsroom/consumer/prepaid-tm-subs-get-rings-of-power.html",
      "columnType": "articles--type-3",
      "typeListing": "article",
      "imageMobile": "/sites/globe.com.ph/files/content/dam/globe/brie/AboutUs/newsroom/common/default-4/default-consumer-3-primary-thumbnail-m.jpg",
      "imageDesktop": "/sites/globe.com.ph/files/content/dam/globe/brie/AboutUs/newsroom/common/default-4/default-consumer-3-primary-thumbnail-d.jpg",
      "description": "Globe Prepaid and TM Subscribers can access “Rings of Power” and more entertainment through Prime Video Mobile Edition. ",
      "datePosted": "Sep 23, 2022 | 01:49 PM",
      "titleFromTag": "Consumer"
    },
    {
      "title": "Globe Backs Calls for ICT Policy Reforms as It Drives Innovations to Boost Access to Connectivity in PH",
      "nonclickable": false,
      "openNewTab": false,
      "borderArticle": "border-color:#0074D9;",
      "borderTopArticle": "border-top-color:#0074D9;",
      "imageListing": "/sites/globe.com.ph/files/content/dam/globe/brie/AboutUs/newsroom/common/default-11/default-business-5-thumbnail-listing.jpg",
      "articleUrl": "https://www.globe.com.ph/about-us/newsroom/corporate/globe-backs-calls-for-ict-policy-to-boost-connectivity.html",
      "columnType": "articles--type-3",
      "typeListing": "article",
      "imageMobile": "/sites/globe.com.ph/files/content/dam/globe/brie/AboutUs/newsroom/common/default-11/default-business-5-primary-thumbnail-m.jpg",
      "imageDesktop": "/sites/globe.com.ph/files/content/dam/globe/brie/AboutUs/newsroom/common/default-11/default-business-5-primary-thumbnail-d.jpg",
      "description": "Globe reiterates its call for the government to pursue policy reforms to improve the country’s digital infrastructure, aligned with a discussion paper by PID.",
      "datePosted": "Sep 22, 2022 | 04:00 PM",
      "titleFromTag": "Corporate"
    },
    {
      "title": "World Vision Joins Globe’s Hapag Movement to Help Alleviate Hunger",
      "nonclickable": false,
      "openNewTab": false,
      "borderArticle": "border-color:#0074D9;",
      "borderTopArticle": "border-top-color:#0074D9;",
      "imageListing": "/sites/globe.com.ph/files/content/dam/globe/brie/AboutUs/newsroom/sustainability/join-the-hapag-movement/Newsroom-sustainability-hapag-movement-relieve-hunger-thumbnail-listing.jpg",
      "articleUrl": "https://www.globe.com.ph/about-us/newsroom/sustainability/world-vision-joins-hapag-movement.html",
      "columnType": "articles--type-3",
      "typeListing": "article",
      "imageMobile": "/sites/globe.com.ph/files/content/dam/globe/brie/AboutUs/newsroom/sustainability/join-the-hapag-movement/newsroom-sustainability-hapag-movement-relieve-hunger-primary-thumbnail-m5.jpg",
      "imageDesktop": "/sites/globe.com.ph/files/content/dam/globe/brie/AboutUs/newsroom/sustainability/join-the-hapag-movement/Newsroom-sustainability-hapag-movement-relieve-hunger-primary-thumbnail-d.jpg",
      "description": "World Vision Development Foundation has become the newest member of the Globe of Good ecosystem of partners, as it’s joined Globe’s hunger alleviation program.",
      "datePosted": "Sep 22, 2022 | 03:05 PM",
      "titleFromTag": "Sustainability"
    },
    {
      "title": "Globe Business Aims For A Stronger Bond With Enterprise Partners At GDay 2022",
      "nonclickable": false,
      "openNewTab": false,
      "borderArticle": "border-color:#0074D9;",
      "borderTopArticle": "border-top-color:#0074D9;",
      "imageListing": "/sites/globe.com.ph/files/content/dam/globe/brie/AboutUs/newsroom/business/globe-business-aims-for-a-stronger-bond-with-enterprise/eg-gday2022-listing-thumbnail.jpg",
      "articleUrl": "https://www.globe.com.ph/about-us/newsroom/business/stronger-bond-enterprise-partners-gday.html",
      "columnType": "articles--type-3",
      "typeListing": "article",
      "imageMobile": "/sites/globe.com.ph/files/content/dam/globe/brie/AboutUs/newsroom/business/globe-business-aims-for-a-stronger-bond-with-enterprise/eg-gday2022-primary-banner-m.jpg",
      "imageDesktop": "/sites/globe.com.ph/files/content/dam/globe/brie/AboutUs/newsroom/business/globe-business-aims-for-a-stronger-bond-with-enterprise/eg-gday2022-primary-thumbnail.jpg",
      "description": "Globe Business holds a memorable EK GDay at Enchanted Kingdom for Enterprise partners.",
      "datePosted": "Sep 22, 2022 | 09:54 AM",
      "titleFromTag": "Business"
    }
  ]
}
