{
  "status": 200,
  "page": 5,
  "totalPage": 298,
  "range": "49-60",
  "total": 3573,
  "result": [
    {
      "title": "Asticom Group of Companies Wins Four Prestigious Awards at the TITAN Business Awards 2023",
      "nonclickable": false,
      "openNewTab": false,
      "borderArticle": "border-color:#0074D9;",
      "borderTopArticle": "border-top-color:#0074D9;",
      "imageListing": "/sites/globe.com.ph/files/content/dam/globe/brie/AboutUs/newsroom/common/default-corporate-16/corp-default-images-thumbnail-listing.jpg",
      "articleUrl": "https://www.globe.com.ph/about-us/newsroom/corporate/asticom-wins-four-prestigious-awards-titan-business-awards-2023.html",
      "columnType": "articles--type-3",
      "typeListing": "article",
      "imageMobile": "/sites/globe.com.ph/files/content/dam/globe/brie/AboutUs/newsroom/common/default-corporate-16/corp-default-images-primary-thumbnail-m.jpg",
      "imageDesktop": "/sites/globe.com.ph/files/content/dam/globe/brie/AboutUs/newsroom/common/default-corporate-16/corp-default-images-primary-thumbnail-d.jpg",
      "description": "Asticom Group of Companies has garnered four major recognitions at the TITAN Business Awards 2023.",
      "datePosted": "Oct 31, 2023 | 04:48 PM",
      "titleFromTag": "Corporate"
    },
    {
      "title": "FINSI Boosts Nationwide Connectivity with Accelerated Tower Construction",
      "nonclickable": false,
      "openNewTab": false,
      "borderArticle": "border-color:#0074D9;",
      "borderTopArticle": "border-top-color:#0074D9;",
      "imageListing": "/sites/globe.com.ph/files/content/dam/globe/brie/AboutUs/newsroom/common/default-corporate-main/newsroom-default-corporate-thumbnail-listing.jpg",
      "articleUrl": "https://www.globe.com.ph/about-us/newsroom/corporate/finsi-boosts-nationwide-connectivity-accelerated-tower-construction.html",
      "columnType": "articles--type-3",
      "typeListing": "article",
      "imageMobile": "/sites/globe.com.ph/files/content/dam/globe/brie/AboutUs/newsroom/common/default-corporate-main/newsroom-default-corporate-primary-thumbnail-m.jpg",
      "imageDesktop": "/sites/globe.com.ph/files/content/dam/globe/brie/AboutUs/newsroom/common/default-corporate-main/newsroom-default-corporate-primary-thumbnail-d.jpg",
      "description": "FINSI advances national digital connectivity and sustainability through accelerated tower construction.",
      "datePosted": "Oct 31, 2023 | 04:50 AM",
      "titleFromTag": "Corporate"
    },
    {
      "title": "STT GDC Philippines Unveils New State-of-the-Art Data Hall in Makati City",
      "nonclickable": false,
      "openNewTab": false,
      "borderArticle": "border-color:#0074D9;",
      "borderTopArticle": "border-top-color:#0074D9;",
      "imageListing": "/sites/globe.com.ph/files/content/dam/globe/brie/AboutUs/newsroom/common/default-corporate-tech-3/newsroom-corporate-tech-3-thumbnail-listing.jpg",
      "articleUrl": "https://www.globe.com.ph/about-us/newsroom/corporate/stt-gdc-ph-unveils-new-state-of-the-art-data-hall-makati.html",
      "columnType": "articles--type-3",
      "typeListing": "article",
      "imageMobile": "/sites/globe.com.ph/files/content/dam/globe/brie/AboutUs/newsroom/common/default-corporate-tech-3/newsroom-corporate-tech-3-primary-thumbnail-m.jpg",
      "imageDesktop": "/sites/globe.com.ph/files/content/dam/globe/brie/AboutUs/newsroom/common/default-corporate-tech-3/newsroom-corporate-tech-3-primary-thumbnail-d.jpg",
      "description": "STT GDC Philippines has unveiled its newest data hall in the heart of Makati City to address the surging demand for data storage solutions.",
      "datePosted": "Oct 27, 2023 | 10:23 AM",
      "titleFromTag": "Corporate"
    },
    {
      "title": "Globe Group’s Cascadeo Sheds Light on the Transformative Power of Generative AI at Infra/STRUCTURE Summit in Toronto",
      "nonclickable": false,
      "openNewTab": false,
      "borderArticle": "border-color:#0074D9;",
      "borderTopArticle": "border-top-color:#0074D9;",
      "imageListing": "/sites/globe.com.ph/files/content/dam/globe/brie/AboutUs/newsroom/common/default-corp-connectivity-1/thumbnail-listing.jpg",
      "articleUrl": "https://www.globe.com.ph/about-us/newsroom/corporate/cascadeo-sheds-light-on-generative-ai-transformative-power.html",
      "columnType": "articles--type-3",
      "typeListing": "article",
      "imageMobile": "/sites/globe.com.ph/files/content/dam/globe/brie/AboutUs/newsroom/common/default-corp-connectivity-1/primary-thumbnail-m.jpg",
      "imageDesktop": "/sites/globe.com.ph/files/content/dam/globe/brie/AboutUs/newsroom/common/default-corp-connectivity-1/primary-thumbnail-d.jpg",
      "description": "Globe Group’s Cloud DevOps engineering firm, Cascadeo, recently took the stage at the infra/STRUCTURE summit in Toronto.",
      "datePosted": "Oct 27, 2023 | 10:22 AM",
      "titleFromTag": "Corporate"
    },
    {
      "title": "Strength, Reliability, Endearment: Recent Wins Cement Globe’s Mobile Leadership",
      "nonclickable": false,
      "openNewTab": false,
      "borderArticle": "border-color:#0074D9;",
      "borderTopArticle": "border-top-color:#0074D9;",
      "imageListing": "/sites/globe.com.ph/files/content/dam/globe/brie/AboutUs/newsroom/common/default-corporate-5/corp-thumbnail-listing.jpg",
      "articleUrl": "https://www.globe.com.ph/about-us/newsroom/corporate/strength-reliability-endearment-cement-globe-mobile-leadership.html",
      "columnType": "articles--type-3",
      "typeListing": "article",
      "imageMobile": "/sites/globe.com.ph/files/content/dam/globe/brie/AboutUs/newsroom/common/default-corporate-5/corp-primary-thumbnail-m.jpg",
      "imageDesktop": "/sites/globe.com.ph/files/content/dam/globe/brie/AboutUs/newsroom/common/default-corporate-5/corp-primary-thumbnail-d.jpg",
      "description": "Globe demonstrated its unparalleled commitment to excellence, innovation, and customer satisfaction with a series of remarkable recognitions and achievements.",
      "datePosted": "Oct 25, 2023 | 09:41 PM",
      "titleFromTag": "Corporate"
    },
    {
      "title": "Globe Expands Roam-Like-a-Local Offer, Unveils New Offers Amid Travel Peak",
      "nonclickable": false,
      "openNewTab": false,
      "borderArticle": "border-color:#0074D9;",
      "borderTopArticle": "border-top-color:#0074D9;",
      "imageListing": "/sites/globe.com.ph/files/content/dam/globe/brie/AboutUs/newsroom/common/default-international-1/international-default-images-thumbnail-listing.jpg",
      "articleUrl": "https://www.globe.com.ph/about-us/newsroom/consumer/globe-expands-roam-like-a-local-unveils-new-offers-amid-travel-peak.html",
      "columnType": "articles--type-3",
      "typeListing": "article",
      "imageMobile": "/sites/globe.com.ph/files/content/dam/globe/brie/AboutUs/newsroom/common/default-international-1/international-default-images-primary-thumbnail-m.jpg",
      "imageDesktop": "/sites/globe.com.ph/files/content/dam/globe/brie/AboutUs/newsroom/common/default-international-1/international-default-images-primary-thumbnail-d.jpg",
      "description": "Globe expands roaming coverage with the new GoRoam Malaysia promo.",
      "datePosted": "Oct 25, 2023 | 09:46 AM",
      "titleFromTag": "Consumer"
    },
    {
      "title": "Globe Honored with Five Golden Arrow Award for Second Consecutive Year",
      "nonclickable": false,
      "openNewTab": false,
      "borderArticle": "border-color:#0074D9;",
      "borderTopArticle": "border-top-color:#0074D9;",
      "imageListing": "/sites/globe.com.ph/files/content/dam/globe/brie/AboutUs/newsroom/common/default-corporate-16/corp-default-images-thumbnail-listing.jpg",
      "articleUrl": "https://www.globe.com.ph/about-us/newsroom/corporate/five-golden-arrow-award-second-consecutive-year.html",
      "columnType": "articles--type-3",
      "typeListing": "article",
      "imageMobile": "/sites/globe.com.ph/files/content/dam/globe/brie/AboutUs/newsroom/common/default-corporate-16/corp-default-images-primary-thumbnail-m.jpg",
      "imageDesktop": "/sites/globe.com.ph/files/content/dam/globe/brie/AboutUs/newsroom/common/default-corporate-16/corp-default-images-primary-thumbnail-d.jpg",
      "description": "Globe received  the esteemed Five Golden Arrow Award from the Institute of Corporate Directors (ICD) at the 2023 Golden Arrow Awards Ceremony.",
      "datePosted": "Oct 24, 2023 | 03:10 PM",
      "titleFromTag": "Corporate"
    },
    {
      "title": "Globe and Fine Dining Club Philippines Launch Gourmet Giving Series",
      "nonclickable": false,
      "openNewTab": false,
      "borderArticle": "border-color:#0074D9;",
      "borderTopArticle": "border-top-color:#0074D9;",
      "imageListing": "/sites/globe.com.ph/files/content/dam/globe/brie/AboutUs/newsroom/common/default-corporate/thumbnail-listing.jpg",
      "articleUrl": "https://www.globe.com.ph/about-us/newsroom/sustainability/globe-fine-dining-club-ph-launch-gourmet-giving-series.html",
      "columnType": "articles--type-3",
      "typeListing": "article",
      "imageMobile": "/sites/globe.com.ph/files/content/dam/globe/brie/AboutUs/newsroom/common/default-corporate/primary-thumbnail-m.jpg",
      "imageDesktop": "/sites/globe.com.ph/files/content/dam/globe/brie/AboutUs/newsroom/common/default-corporate/primary-thumbnail-d.jpg",
      "description": "Globe and Fine Dining Club Philippines proudly introduce the “Gourmet Giving Series: A Fine Dining Thanksgiving Experience for the Hapag Movement.”",
      "datePosted": "Oct 24, 2023 | 03:08 PM",
      "titleFromTag": "Sustainability"
    },
    {
      "title": "917Ventures’ FundSpace Expands SME Loan Offerings Up to ₱100M with Esquire Financing Collaboration",
      "nonclickable": false,
      "openNewTab": false,
      "borderArticle": "border-color:#0074D9;",
      "borderTopArticle": "border-top-color:#0074D9;",
      "imageListing": "/sites/globe.com.ph/files/content/dam/globe/brie/AboutUs/newsroom/partners/internet-watch-foundation-partner-child-protection-advocacy/default-partners-1-thumbnail-listing.jpg",
      "articleUrl": "https://www.globe.com.ph/about-us/newsroom/business/917ventures-fundspace-expands-sme-loan-offerings-up-to-100m.html",
      "columnType": "articles--type-3",
      "typeListing": "article",
      "imageMobile": "/sites/globe.com.ph/files/content/dam/globe/brie/AboutUs/newsroom/partners/internet-watch-foundation-partner-child-protection-advocacy/default-partners-1-primary-thumbnail-m.jpg",
      "imageDesktop": "/sites/globe.com.ph/files/content/dam/globe/brie/AboutUs/newsroom/partners/internet-watch-foundation-partner-child-protection-advocacy/default-partners-1-primary-thumbnail-d.jpg",
      "description": "FundSpace partners with Esquire Financing Inc. in order to provide business financing solutions for Filipino Small and Medium-sized Enterprises (SMEs).",
      "datePosted": "Oct 23, 2023 | 10:06 AM",
      "titleFromTag": "Business"
    },
    {
      "title": "Globe’s Next-Gen Leaders Delve into AI and Humanity at International Design Conference",
      "nonclickable": false,
      "openNewTab": false,
      "borderArticle": "border-color:#0074D9;",
      "borderTopArticle": "border-top-color:#0074D9;",
      "imageListing": "/sites/globe.com.ph/files/content/dam/globe/brie/AboutUs/newsroom/common/default-corporate-tech-3/newsroom-corporate-tech-3-thumbnail-listing.jpg",
      "articleUrl": "https://www.globe.com.ph/about-us/newsroom/corporate/next-gen-leaders-delve-into-ai-and-humanity-at-international-design-conference.html",
      "columnType": "articles--type-3",
      "typeListing": "article",
      "imageMobile": "/sites/globe.com.ph/files/content/dam/globe/brie/AboutUs/newsroom/common/default-corporate-tech-3/newsroom-corporate-tech-3-primary-thumbnail-m.jpg",
      "imageDesktop": "/sites/globe.com.ph/files/content/dam/globe/brie/AboutUs/newsroom/common/default-corporate-tech-3/newsroom-corporate-tech-3-primary-thumbnail-d.jpg",
      "description": "Globe’s next-generation leaders shared invaluable insights on the blend of AI and the human experience at the 7th International Design Conference.",
      "datePosted": "Oct 23, 2023 | 10:05 AM",
      "titleFromTag": "Corporate"
    },
    {
      "title": "Fusion of Art and AI: Globe Showcases 'The Wisdom of Da Vinci' at G Creator Night",
      "nonclickable": false,
      "openNewTab": false,
      "borderArticle": "border-color:#0074D9;",
      "borderTopArticle": "border-top-color:#0074D9;",
      "imageListing": "/sites/globe.com.ph/files/content/dam/globe/brie/About-us/Newsroom/image/Consumer/globe-showcases-the-wisdom-of-da-vinci-at-g-creator-night/thumbnail-listing.jpg",
      "articleUrl": "https://www.globe.com.ph/about-us/newsroom/consumer/globe-showcases-the-wisdom-of-da-vinci-at-g-creator-night.html",
      "columnType": "articles--type-3",
      "typeListing": "article",
      "imageMobile": "/sites/globe.com.ph/files/content/dam/globe/brie/About-us/Newsroom/image/Consumer/globe-showcases-the-wisdom-of-da-vinci-at-g-creator-night/primary-thumbnail-m.jpg",
      "imageDesktop": "/sites/globe.com.ph/files/content/dam/globe/brie/About-us/Newsroom/image/Consumer/globe-showcases-the-wisdom-of-da-vinci-at-g-creator-night/primary-thumbnail-d.jpg",
      "description": "Globe showcases \"The Wisdom of Da Vinci” exhibition at the recent G Creator Night.",
      "datePosted": "Oct 23, 2023 | 09:46 AM",
      "titleFromTag": "Consumer"
    },
    {
      "title": "Globe GFiber Prepaid Partners with Leading Content Providers to Elevate the Madiskarteng Pinoys’ Digital Experience at Home",
      "nonclickable": false,
      "openNewTab": false,
      "borderArticle": "border-color:#0074D9;",
      "borderTopArticle": "border-top-color:#0074D9;",
      "imageListing": "/sites/globe.com.ph/files/content/dam/globe/brie/AboutUs/newsroom/common/default-consumer-4/Newsroom-GAH-Default-Images-2-thumbnail-listing.jpg",
      "articleUrl": "https://www.globe.com.ph/about-us/newsroom/consumer/gfiber-prepaid-partners-elevate-digital-experience-at-home.html",
      "columnType": "articles--type-3",
      "typeListing": "article",
      "imageMobile": "/sites/globe.com.ph/files/content/dam/globe/brie/AboutUs/newsroom/common/default-consumer-4/Newsroom-GAH-Default-Images-2-thumbnail-listing.jpg",
      "imageDesktop": "/sites/globe.com.ph/files/content/dam/globe/brie/AboutUs/newsroom/common/default-consumer-4/Newsroom-GAH-Default-Images-2-primary-thumbnail-d.jpg",
      "description": "Globe GFiber Prepaid partners with content providers to elevate the digital experience at home with the latest fiber plans.",
      "datePosted": "Oct 20, 2023 | 11:35 AM",
      "titleFromTag": "Consumer"
    }
  ]
}
