{
  "status": 200,
  "page": 50,
  "totalPage": 298,
  "range": "589-600",
  "total": 3573,
  "result": [
    {
      "title": "Globe Pilots Hybrid Power Alternative Sources for Cell Towers in Off-Grid and Bad-Grid Sites",
      "nonclickable": false,
      "openNewTab": false,
      "borderArticle": "border-color:#1C91C5;",
      "borderTopArticle": "border-top-color:#1C91C5;",
      "imageListing": "/sites/globe.com.ph/files/content/dam/globe/brie/AboutUs/newsroom/common/default-sustainability-1/default-sustainability-2-thumbnail-listing.jpg",
      "articleUrl": "https://www.globe.com.ph/about-us/newsroom/consumer/globe-pilots-alternative-power-souce-for-cell-towers.html",
      "columnType": "articles--type-3",
      "typeListing": "article",
      "imageMobile": "/sites/globe.com.ph/files/content/dam/globe/brie/AboutUs/newsroom/common/default-sustainability-1/default-sustainability-2-primary-thumbnail-m.jpg",
      "imageDesktop": "/sites/globe.com.ph/files/content/dam/globe/brie/AboutUs/newsroom/common/default-sustainability-1/default-sustainability-2-primary-thumbnail-d.jpg",
      "description": "Globe is piloting hybrid power alternative sources for cell towers in off-grid and bad-grid sites in Northern Luzon, Southern Luzon and Metro Manila.",
      "datePosted": "Sep 21, 2022 | 01:49 PM",
      "titleFromTag": "Consumer"
    },
    {
      "title": "Globe, Customers Come Together in #ExtraGDayEveryday to Help Solve Involuntary Hunger via The Hapag Movement Donations",
      "nonclickable": false,
      "openNewTab": false,
      "borderArticle": "border-color:#1C91C5;",
      "borderTopArticle": "border-top-color:#1C91C5;",
      "imageListing": "/sites/globe.com.ph/files/content/dam/globe/brie/AboutUs/newsroom/sustainability/join-the-hapag-movement/Newsroom-sustainability-hapag-movement-relieve-hunger-thumbnail-listing.jpg",
      "articleUrl": "https://www.globe.com.ph/about-us/newsroom/consumer/globe-customers-come-together-hapag-movement-donations.html",
      "columnType": "articles--type-3",
      "typeListing": "article",
      "imageMobile": "/sites/globe.com.ph/files/content/dam/globe/brie/AboutUs/newsroom/sustainability/join-the-hapag-movement/newsroom-sustainability-hapag-movement-relieve-hunger-primary-thumbnail-m5.jpg",
      "imageDesktop": "/sites/globe.com.ph/files/content/dam/globe/brie/AboutUs/newsroom/sustainability/join-the-hapag-movement/Newsroom-sustainability-hapag-movement-relieve-hunger-primary-thumbnail-d.jpg",
      "description": "As Globe celebrates the annual 917 GDay to give back to its customers, it’s calling on customers to help millions of Filipinos experiencing involuntary hunger.",
      "datePosted": "Sep 21, 2022 | 10:30 AM",
      "titleFromTag": "Consumer"
    },
    {
      "title": "Globe Brings Excitement, Joy to Thousands in GDay Festivities",
      "nonclickable": false,
      "openNewTab": false,
      "borderArticle": "border-color:#1C91C5;",
      "borderTopArticle": "border-top-color:#1C91C5;",
      "imageListing": "/sites/globe.com.ph/files/content/dam/globe/brie/AboutUs/newsroom/consumer/globe-brings-excitement-joy-gday-festivities/newsroom-consumer-excitement-joy-gday-festivities-thumbnail-listing.jpg",
      "articleUrl": "https://www.globe.com.ph/about-us/newsroom/consumer/globe-brings-excitement-joy-gday-festivities.html",
      "columnType": "articles--type-3",
      "typeListing": "article",
      "imageMobile": "/sites/globe.com.ph/files/content/dam/globe/brie/AboutUs/newsroom/consumer/globe-brings-excitement-joy-gday-festivities/newsroom-consumer-excitement-joy-gday-festivities-primary-thumbnail-m.jpg",
      "imageDesktop": "/sites/globe.com.ph/files/content/dam/globe/brie/AboutUs/newsroom/consumer/globe-brings-excitement-joy-gday-festivities/newsroom-consumer-excitement-joy-gday-festivities-primary-thumbnail-d.jpg",
      "description": "Thousands gathered over the weekend for fun and exciting activities Globe held for its highly anticipated 917 GDay festivities.",
      "datePosted": "Sep 20, 2022 | 01:49 PM",
      "titleFromTag": "Consumer"
    },
    {
      "title": "EdVenture Partners With Knowledge Channel for “Wikaharian”",
      "nonclickable": false,
      "openNewTab": false,
      "borderArticle": "border-color:#1C91C5;",
      "borderTopArticle": "border-top-color:#1C91C5;",
      "imageListing": "/sites/globe.com.ph/files/content/dam/globe/brie/AboutUs/newsroom/consumer/edventure-partners-with-knowledge-channel/newsroom-consumer-edventure-partners-knowledge-wikahirian-thumbnail-listing.jpg",
      "articleUrl": "https://www.globe.com.ph/about-us/newsroom/consumer/edventure-partners-with-knowledge-channel.html",
      "columnType": "articles--type-3",
      "typeListing": "article",
      "imageMobile": "/sites/globe.com.ph/files/content/dam/globe/brie/AboutUs/newsroom/consumer/edventure-partners-with-knowledge-channel/newsroom-consumer-edventure-partners-knowledge-wikahirian-primary-thumbnail-m.jpg",
      "imageDesktop": "/sites/globe.com.ph/files/content/dam/globe/brie/AboutUs/newsroom/consumer/edventure-partners-with-knowledge-channel/newsroom-consumer-edventure-partners-knowledge-wikahirian-primary-thumbnail-d.jpg",
      "description": "EdVenture has partnered with the Knowledge Channel to produce entertaining and educational episodes of \"Wikaharian,\" an animated series of Filipino lessons.",
      "datePosted": "Sep 20, 2022 | 01:49 PM",
      "titleFromTag": "Consumer"
    },
    {
      "title": "Globe, KROMA, AVIA Cite Urgency To Strengthen IP Code To Combat Content Piracy",
      "nonclickable": false,
      "openNewTab": false,
      "borderArticle": "border-color:#0074D9;",
      "borderTopArticle": "border-top-color:#0074D9;",
      "imageListing": "/sites/globe.com.ph/files/content/dam/globe/brie/About-us/Newsroom/image/Partners/091922/Globe-KROMA-AVIA-cite-urgency-to-strengthen-IP-code-to-combat-content-piracy-thumbnail-listing.jpg",
      "articleUrl": "https://www.globe.com.ph/about-us/newsroom/partners/urgency-strengthen-ip-code-combat-content-piracy.html",
      "columnType": "articles--type-3",
      "typeListing": "article",
      "imageMobile": "/sites/globe.com.ph/files/content/dam/globe/brie/About-us/Newsroom/image/Partners/091922/KROMA-AVIA-cite-urgency-to-strengthen-IP-code-to-combat-content-piracy-primary-thumbnail-m.jpg",
      "imageDesktop": "/sites/globe.com.ph/files/content/dam/globe/brie/About-us/Newsroom/image/Partners/091922/KROMA-AVIA-cite-urgency-to-strengthen-IP-code-to-combat-content-piracy-primary-banner-d.jpg",
      "description": "Globe and KROMA continue to bolster its partnership with the Asia Video Industry Association against content piracy.",
      "datePosted": "Sep 19, 2022 | 05:00 PM",
      "titleFromTag": "Partners"
    },
    {
      "title": "Gaming Goes Extra at G Battle Zone Esports Tournament",
      "nonclickable": false,
      "openNewTab": false,
      "borderArticle": "border-color:#1C91C5;",
      "borderTopArticle": "border-top-color:#1C91C5;",
      "imageListing": "/sites/globe.com.ph/files/content/dam/globe/brie/About-us/Newsroom/image/Consumer/g-battle-091922/g-battle-zone-esports-tournament-thumbnail-listing.jpg",
      "articleUrl": "https://www.globe.com.ph/about-us/newsroom/consumer/g-battle-zone-esports-tournament.html",
      "columnType": "articles--type-3",
      "typeListing": "article",
      "imageMobile": "/sites/globe.com.ph/files/content/dam/globe/brie/About-us/Newsroom/image/Consumer/g-battle-091922/g-battle-zone-esports-tournament-primary-thumbnail-m.jpg",
      "imageDesktop": "/sites/globe.com.ph/files/content/dam/globe/brie/About-us/Newsroom/image/Consumer/g-battle-091922/g-battle-zone-esports-tournament-primary-thumbnail-d.jpg",
      "description": "Globe goes #ExtraGDayEveryday as it unleashes an epic gaming experience for esports enthusiasts at the much-anticipated G Battle Zone.",
      "datePosted": "Sep 19, 2022 | 01:31 PM",
      "titleFromTag": "Consumer"
    },
    {
      "title": "G Chance the Raffle Is Back!",
      "nonclickable": false,
      "openNewTab": false,
      "borderArticle": "border-color:#1C91C5;",
      "borderTopArticle": "border-top-color:#1C91C5;",
      "imageListing": "/sites/globe.com.ph/files/content/dam/globe/brie/About-us/Newsroom/image/Consumer/091922/g-chance-the-raffle-is-back-thumbnail-listing.jpg",
      "articleUrl": "https://www.globe.com.ph/about-us/newsroom/consumer/g-chance-the-raffle-is-back.html",
      "columnType": "articles--type-3",
      "typeListing": "article",
      "imageMobile": "/sites/globe.com.ph/files/content/dam/globe/brie/About-us/Newsroom/image/Consumer/091922/g-chance-the-raffle-is-back-primary-thumbnail-m.jpg",
      "imageDesktop": "/sites/globe.com.ph/files/content/dam/globe/brie/About-us/Newsroom/image/Consumer/091922/g-chance-the-raffle-is-back-primary-banner-d.jpg",
      "description": "Turn your days extraordinarily good with G Chance The Raffle, a very special treat prepared by Globe.",
      "datePosted": "Sep 19, 2022 | 01:31 PM",
      "titleFromTag": "Consumer"
    },
    {
      "title": "Turn Your Extra GBs into Points for 917  #ExtraGDayEveryday Experience",
      "nonclickable": false,
      "openNewTab": false,
      "borderArticle": "border-color:#0074D9;",
      "borderTopArticle": "border-top-color:#0074D9;",
      "imageListing": "/sites/globe.com.ph/files/content/dam/globe/brie/AboutUs/newsroom/common/default-3/corporate-default-7-thumbnail-listing.jpg",
      "articleUrl": "https://www.globe.com.ph/about-us/newsroom/consumer/turn-your-extra-gbs-into-points.html",
      "columnType": "articles--type-3",
      "typeListing": "article",
      "imageMobile": "/sites/globe.com.ph/files/content/dam/globe/brie/AboutUs/newsroom/common/default-3/corporate-default-7-primary-thumbnail-m.jpg",
      "imageDesktop": "/sites/globe.com.ph/files/content/dam/globe/brie/AboutUs/newsroom/common/default-3/corporate-default-7-primary-thumbnail-d.jpg",
      "description": "Maximize your unused open or all-access data by turning it into Globe Rewards points, so you can join #GChanceTheRaffle for a shot at exciting prizes.",
      "datePosted": "Sep 16, 2022 | 02:27 PM",
      "titleFromTag": "Consumer"
    },
    {
      "title": "Suspect Nabbed for Illegal Sale of Gcash-Registered SIMs",
      "nonclickable": false,
      "openNewTab": false,
      "borderArticle": "border-color:#0074D9;",
      "borderTopArticle": "border-top-color:#0074D9;",
      "imageListing": "/sites/globe.com.ph/files/content/dam/globe/brie/AboutUs/newsroom/corporate/largest-ph-publicly-listed-telco-digital-solutions-group/Corporate-globe-thumbnail-listing.jpg",
      "articleUrl": "https://www.globe.com.ph/about-us/newsroom/corporate/suspect-nabbed-illegal-sale-gcash-registered-sims.html",
      "columnType": "articles--type-3",
      "typeListing": "article",
      "imageMobile": "/sites/globe.com.ph/files/content/dam/globe/brie/AboutUs/newsroom/corporate/largest-ph-publicly-listed-telco-digital-solutions-group/Corporate-globe-primary-thumbnail-m.jpg",
      "imageDesktop": "/sites/globe.com.ph/files/content/dam/globe/brie/AboutUs/newsroom/corporate/largest-ph-publicly-listed-telco-digital-solutions-group/Corporate-globe-primary-thumbnail-d.jpg",
      "description": "Through its collaboration with law authorities, Globe scored a victory against fraudsters with the arrest of a suspect for selling GCash-registered SIM cards.",
      "datePosted": "Sep 16, 2022 | 02:05 PM",
      "titleFromTag": "Corporate"
    },
    {
      "title": "Play To Help: Globe Employees Give Back While Having Fun on GDay",
      "nonclickable": false,
      "openNewTab": false,
      "borderArticle": "border-color:#1C91C5;",
      "borderTopArticle": "border-top-color:#1C91C5;",
      "imageListing": "/sites/globe.com.ph/files/content/dam/globe/brie/AboutUs/newsroom/consumer/globe-employees-give-back-on-gday/newsroom-consumer-play-to-help-gday-thumbnail-listing.jpg",
      "articleUrl": "https://www.globe.com.ph/about-us/newsroom/consumer/globe-employees-give-back-on-gday.html",
      "columnType": "articles--type-3",
      "typeListing": "article",
      "imageMobile": "/sites/globe.com.ph/files/content/dam/globe/brie/AboutUs/newsroom/consumer/globe-employees-give-back-on-gday/newsroom-consumer-play-to-help-gday-primary-thumbnail-m.jpg",
      "imageDesktop": "/sites/globe.com.ph/files/content/dam/globe/brie/AboutUs/newsroom/consumer/globe-employees-give-back-on-gday/newsroom-consumer-play-to-help-gday-primary-thumbnail-d.jpg",
      "description": "Globe employees give back while having fun on GDay in partnership with Timezone. ",
      "datePosted": "Sep 16, 2022 | 01:49 PM",
      "titleFromTag": "Consumer"
    },
    {
      "title": "Globe’s G Music Fest Ensures Festival Goers’ Safety, Proper Waste Segregation and Disposal",
      "nonclickable": false,
      "openNewTab": false,
      "borderArticle": "border-color:#1C91C5;",
      "borderTopArticle": "border-top-color:#1C91C5;",
      "imageListing": "/sites/globe.com.ph/files/content/dam/globe/brie/AboutUs/newsroom/sustainability/new-e-waste-facility-in-malabon-to-protect-communities-from-hazardous-effects/default-sustainability-3-thumbnail-listing.jpg",
      "articleUrl": "https://www.globe.com.ph/about-us/newsroom/consumer/g-music-fest-ensures-festival-safety.html",
      "columnType": "articles--type-3",
      "typeListing": "article",
      "imageMobile": "/sites/globe.com.ph/files/content/dam/globe/brie/AboutUs/newsroom/sustainability/new-e-waste-facility-in-malabon-to-protect-communities-from-hazardous-effects/default-sustainability-3-primary-thumbnail-m.jpg",
      "imageDesktop": "/sites/globe.com.ph/files/content/dam/globe/brie/AboutUs/newsroom/sustainability/new-e-waste-facility-in-malabon-to-protect-communities-from-hazardous-effects/default-sustainability-3-primary-thumbnail-d.jpg",
      "description": "Globe is calling for festival goers’ and their partners’ participation in observing health and safety protocols and properly disposing of their waste.",
      "datePosted": "Sep 16, 2022 | 01:31 PM",
      "titleFromTag": "Consumer"
    },
    {
      "title": "Globe Treats Prepaid Users to Double Rewards Points for #ExtraGDayEveryday",
      "nonclickable": false,
      "openNewTab": false,
      "borderArticle": "border-color:#0074D9;",
      "borderTopArticle": "border-top-color:#0074D9;",
      "imageListing": "/sites/globe.com.ph/files/content/dam/globe/brie/AboutUs/newsroom/consumer/gcash-shifts-from-text-notifications/default-consumer-3-thumbnail-listing.jpg",
      "articleUrl": "https://www.globe.com.ph/about-us/newsroom/consumer/globe-treats-prepaid-users-double-rewards-points.html",
      "columnType": "articles--type-3",
      "typeListing": "article",
      "imageMobile": "/sites/globe.com.ph/files/content/dam/globe/brie/AboutUs/newsroom/consumer/gcash-shifts-from-text-notifications/default-consumer-3-primary-thumbnail-m.jpg",
      "imageDesktop": "/sites/globe.com.ph/files/content/dam/globe/brie/AboutUs/newsroom/consumer/gcash-shifts-from-text-notifications/default-consumer-3-primary-thumbnail-d.jpg",
      "description": "Prepaid customers now have another reason to celebrate #ExtraGDayEveryday with the “double the points” offer from Globe Rewards.",
      "datePosted": "Sep 15, 2022 | 04:50 PM",
      "titleFromTag": "Consumer"
    }
  ]
}
