{
  "status": 200,
  "page": 51,
  "totalPage": 298,
  "range": "601-612",
  "total": 3573,
  "result": [
    {
      "title": "Experience #ExtraGDay at G Music Fest with 917 Limited Edition NFT",
      "nonclickable": false,
      "openNewTab": false,
      "borderArticle": "border-color:#0074D9;",
      "borderTopArticle": "border-top-color:#0074D9;",
      "imageListing": "/sites/globe.com.ph/files/content/dam/globe/brie/AboutUs/newsroom/consumer/globe-g-music-fest-live-music-advocacies/default-consumer-thumbnail-listing.jpg",
      "articleUrl": "https://www.globe.com.ph/about-us/newsroom/consumer/limited-edition-nft-at-g-music-fest.html",
      "columnType": "articles--type-3",
      "typeListing": "article",
      "imageMobile": "/sites/globe.com.ph/files/content/dam/globe/brie/AboutUs/newsroom/consumer/globe-g-music-fest-live-music-advocacies/default-consumer-primary-thumbnail-m.jpg",
      "imageDesktop": "/sites/globe.com.ph/files/content/dam/globe/brie/AboutUs/newsroom/consumer/globe-g-music-fest-live-music-advocacies/default-consumer-primary-thumbnail-d.jpg",
      "description": "Globe & MetaverseGo have joined forces to create Gudi NFT in celebration of 917 #ExtraGDay, Globe’s annual tradition of giving back to its customers.",
      "datePosted": "Sep 15, 2022 | 02:14 PM",
      "titleFromTag": "Consumer"
    },
    {
      "title": "Globe Undertakes Industry–Leading Efforts vs Cyber Threats",
      "nonclickable": false,
      "openNewTab": false,
      "borderArticle": "border-color:#0074D9;",
      "borderTopArticle": "border-top-color:#0074D9;",
      "imageListing": "/sites/globe.com.ph/files/content/dam/globe/brie/AboutUs/newsroom/common/default-3/corporate-default-7-thumbnail-listing.jpg",
      "articleUrl": "https://www.globe.com.ph/about-us/newsroom/corporate/globe-undertakes-industry-leading-efforts-cyber-threats.html",
      "columnType": "articles--type-3",
      "typeListing": "article",
      "imageMobile": "/sites/globe.com.ph/files/content/dam/globe/brie/AboutUs/newsroom/common/default-3/corporate-default-7-primary-thumbnail-m.jpg",
      "imageDesktop": "/sites/globe.com.ph/files/content/dam/globe/brie/AboutUs/newsroom/common/default-3/corporate-default-7-primary-thumbnail-d.jpg",
      "description": "Globe welcomes NTC’s directive to block or deactivate URLs in text messages as this will institutionalize the fight against spam and text fraud.",
      "datePosted": "Sep 15, 2022 | 02:05 PM",
      "titleFromTag": "Corporate"
    },
    {
      "title": "GCash Breaches ₱3-T Gross Transaction Value, Reaches 66M Users",
      "nonclickable": false,
      "openNewTab": false,
      "borderArticle": "border-color:#0074D9;",
      "borderTopArticle": "border-top-color:#0074D9;",
      "imageListing": "/sites/globe.com.ph/files/content/dam/globe/brie/AboutUs/newsroom/common/default-3/corporate-default-7-thumbnail-listing.jpg",
      "articleUrl": "https://www.globe.com.ph/about-us/newsroom/corporate/gcash-breaches-3-trillion-gross-transaction-value.html",
      "columnType": "articles--type-3",
      "typeListing": "article",
      "imageMobile": "/sites/globe.com.ph/files/content/dam/globe/brie/AboutUs/newsroom/common/default-3/corporate-default-7-primary-thumbnail-m.jpg",
      "imageDesktop": "/sites/globe.com.ph/files/content/dam/globe/brie/AboutUs/newsroom/common/default-3/corporate-default-7-primary-thumbnail-d.jpg",
      "description": "GCash continues its growth momentum & journey towards providing finance for all, breaching the ₱3-trillion mark in gross transaction value in Q1 of the year.",
      "datePosted": "Sep 15, 2022 | 02:05 PM",
      "titleFromTag": "Corporate"
    },
    {
      "title": "Explore Practical Learning Tips with JC Alcantara via This isKwela FB Livestream on September 16",
      "nonclickable": false,
      "openNewTab": false,
      "borderArticle": "border-color:#1C91C5;",
      "borderTopArticle": "border-top-color:#1C91C5;",
      "imageListing": "/sites/globe.com.ph/files/content/dam/globe/brie/AboutUs/newsroom/sustainability/Globe-Partners---LinkedIn-Learning-Offer-Sustainability-Education/default-default-3-thumbnail-listing.jpg",
      "articleUrl": "https://www.globe.com.ph/about-us/newsroom/sustainability/practical-learning-tips-with-jc-alcantara-via-this-iskwela-fb-livestream.html",
      "columnType": "articles--type-3",
      "typeListing": "article",
      "imageMobile": "/sites/globe.com.ph/files/content/dam/globe/brie/AboutUs/newsroom/sustainability/Globe-Partners---LinkedIn-Learning-Offer-Sustainability-Education/default-default-3-primary-thumbnail-m.jpg",
      "imageDesktop": "/sites/globe.com.ph/files/content/dam/globe/brie/AboutUs/newsroom/sustainability/Globe-Partners---LinkedIn-Learning-Offer-Sustainability-Education/default-default-3-primary-thumbnail-d.jpg",
      "description": "Explore and have fun with JC Alcantara as he shares practical learning tips via the This isKwela Facebook Community “Study With Me” livestream on September 16.",
      "datePosted": "Sep 15, 2022 | 11:49 AM",
      "titleFromTag": "Sustainability"
    },
    {
      "title": "Globe Fires Up Cell Site in Pualas, Lanao Del Sur As It Builds More Infra in Countryside To Spur Economic Dev’t",
      "nonclickable": false,
      "openNewTab": false,
      "borderArticle": "border-color:#0074D9;",
      "borderTopArticle": "border-top-color:#0074D9;",
      "imageListing": "/sites/globe.com.ph/files/content/dam/globe/brie/About-us/Newsroom/image/Corporate/091522/more-infra-in-countryside-to-spur-economic-devt-thumbnail-listing.jpg",
      "articleUrl": "https://www.globe.com.ph/about-us/newsroom/corporate/globe-fire-up-cell-site-lanao-del-sur.html",
      "columnType": "articles--type-3",
      "typeListing": "article",
      "imageMobile": "/sites/globe.com.ph/files/content/dam/globe/brie/About-us/Newsroom/image/Corporate/091522/more-infra-in-countryside-to-spur-economic-devt-primary-thumbnail-m.jpg",
      "imageDesktop": "/sites/globe.com.ph/files/content/dam/globe/brie/About-us/Newsroom/image/Corporate/091522/more-infra-in-countryside-to-spur-economic-devt-primary-thumbnail-d.jpg",
      "description": "Globe continues to lay down the necessary infrastructure to spur economic development in the countryside, firing up a cell site in Pualas town, Lanao del Sur.",
      "datePosted": "Sep 15, 2022 | 09:44 AM",
      "titleFromTag": "Corporate"
    },
    {
      "title": "Globe Welcomes Progress on SIM Registration Bills, Seeks Inclusion of Proposed Amendments",
      "nonclickable": false,
      "openNewTab": false,
      "borderArticle": "border-color:#0074D9;",
      "borderTopArticle": "border-top-color:#0074D9;",
      "imageListing": "/sites/globe.com.ph/files/content/dam/globe/brie/AboutUs/newsroom/common/default-4/default-consumer-3-thumbnail-listing.jpg",
      "articleUrl": "https://www.globe.com.ph/about-us/newsroom/corporate/globe-welcomes-progress-on-sim-registration-bills.html",
      "columnType": "articles--type-3",
      "typeListing": "article",
      "imageMobile": "/sites/globe.com.ph/files/content/dam/globe/brie/AboutUs/newsroom/common/default-4/default-consumer-3-primary-thumbnail-m.jpg",
      "imageDesktop": "/sites/globe.com.ph/files/content/dam/globe/brie/AboutUs/newsroom/common/default-4/default-consumer-3-primary-thumbnail-d.jpg",
      "description": "Globe welcomes the progress of bills in the Senate that mandate SIM registration for mobile phone users as a crucial step in addressing criminal activity.",
      "datePosted": "Sep 15, 2022 | 08:05 AM",
      "titleFromTag": "Corporate"
    },
    {
      "title": "Globe Encourages Employees to Use Tech4Good in InnovTalks Workshop",
      "nonclickable": false,
      "openNewTab": false,
      "borderArticle": "border-color:#0074D9;",
      "borderTopArticle": "border-top-color:#0074D9;",
      "imageListing": "/sites/globe.com.ph/files/content/dam/globe/brie/AboutUs/newsroom/sustainability/globe-encourages-employees-to-use-tech-4-good/Globe-encourages-employees-to-use-Tech-4-Good-in-InnovTalks-Workshop-thumbnail-listing.jpg",
      "articleUrl": "https://www.globe.com.ph/about-us/newsroom/sustainability/globe-encourages-employees-to-use-tech-4-good.html",
      "columnType": "articles--type-3",
      "typeListing": "article",
      "imageMobile": "/sites/globe.com.ph/files/content/dam/globe/brie/AboutUs/newsroom/sustainability/globe-encourages-employees-to-use-tech-4-good/Globe-encourages-employees-to-use-Tech-4-Good-in-InnovTalks-Workshop-primary-thumbnail-m.jpg",
      "imageDesktop": "/sites/globe.com.ph/files/content/dam/globe/brie/AboutUs/newsroom/sustainability/globe-encourages-employees-to-use-tech-4-good/Globe-encourages-employees-to-use-Tech-4-Good-in-InnovTalks-Workshop-primary-thumbnail-d.jpg",
      "description": "Globe’s Information Services Group (ISG) advocates the use of Tech4Good to achieve sustainability through the InnovTalks workshop.",
      "datePosted": "Sep 14, 2022 | 05:00 PM",
      "titleFromTag": "Sustainability"
    },
    {
      "title": "Globe Group and Mexico’s Salud Interactiva Uplift PH Healthcare Through Digital Solutions",
      "nonclickable": false,
      "openNewTab": false,
      "borderArticle": "border-color:#0074D9;",
      "borderTopArticle": "border-top-color:#0074D9;",
      "imageListing": "/sites/globe.com.ph/files/content/dam/globe/brie/About-us/Newsroom/image/Partners/091322/healthcare-through-digital-solutions-thumbnail-listing.jpg",
      "articleUrl": "https://www.globe.com.ph/about-us/newsroom/partners/globe-group-and-salud-interactiva-uplift-ph-healthcare.html",
      "columnType": "articles--type-3",
      "typeListing": "article",
      "imageMobile": "/sites/globe.com.ph/files/content/dam/globe/brie/About-us/Newsroom/image/Partners/091322/healthcare-through-digital-solutions-primary-thumbnail-m.jpg",
      "imageDesktop": "/sites/globe.com.ph/files/content/dam/globe/brie/About-us/Newsroom/image/Partners/091322/healthcare-through-digital-solutions-primary-thumbnail-d.jpg",
      "description": "Globe formed a joint venture with Mexican company Salud Interactiva for an all-day health service hotline.",
      "datePosted": "Sep 13, 2022 | 05:00 PM",
      "titleFromTag": "Partners"
    },
    {
      "title": "New 917Ventures Portfolio Company DeepSea Helps PH Enterprises Optimize Digital Marketing Efforts",
      "nonclickable": false,
      "openNewTab": false,
      "borderArticle": "border-color:#0074D9;",
      "borderTopArticle": "border-top-color:#0074D9;",
      "imageListing": "/sites/globe.com.ph/files/content/dam/globe/brie/About-us/Newsroom/image/Partners/deepsea-091322/enterprises-optimize-digital-marketing-efforts-thumbnail-listing.jpg",
      "articleUrl": "https://www.globe.com.ph/about-us/newsroom/partners/deepsea-helps-ph-enterprises-optimize-digital-marketing-efforts.html",
      "columnType": "articles--type-3",
      "typeListing": "article",
      "imageMobile": "/sites/globe.com.ph/files/content/dam/globe/brie/About-us/Newsroom/image/Partners/deepsea-091322/enterprises-optimize-digital-marketing-efforts-primary-thumbnail-m.jpg",
      "imageDesktop": "/sites/globe.com.ph/files/content/dam/globe/brie/About-us/Newsroom/image/Partners/deepsea-091322/enterprises-optimize-digital-marketing-efforts-primary-thumbnail-d.jpg",
      "description": "DeepSea, a newest addition to AdSpark Holdings, helps PH enterprises optimize digital marketing efforts.",
      "datePosted": "Sep 13, 2022 | 05:00 PM",
      "titleFromTag": "Partners"
    },
    {
      "title": "Globe, National Teachers College Kick off IT Academy for STEM Delivery",
      "nonclickable": false,
      "openNewTab": false,
      "borderArticle": "border-color:#0074D9;",
      "borderTopArticle": "border-top-color:#0074D9;",
      "imageListing": "/sites/globe.com.ph/files/content/dam/globe/brie/AboutUs/newsroom/sustainability/globe-national-teachers-college-kick-off-it-academy/Newsroom-new-917ventures-portfolio-company-deepsea-helps-ph-enterprises-optimize-digital-marketing-efforts-thumbnail-listing.jpg",
      "articleUrl": "https://www.globe.com.ph/about-us/newsroom/sustainability/globe-national-teachers-college-kick-off-it-academy.html",
      "columnType": "articles--type-3",
      "typeListing": "article",
      "imageMobile": "/sites/globe.com.ph/files/content/dam/globe/brie/AboutUs/newsroom/sustainability/globe-national-teachers-college-kick-off-it-academy/Newsroom-new-917ventures-portfolio-company-deepsea-helps-ph-enterprises-optimize-digital-marketing-efforts-primary-thumbnail-m.jpg",
      "imageDesktop": "/sites/globe.com.ph/files/content/dam/globe/brie/AboutUs/newsroom/sustainability/globe-national-teachers-college-kick-off-it-academy/Newsroom-new-917ventures-portfolio-company-deepsea-helps-ph-enterprises-optimize-digital-marketing-efforts-primary-thumbnail-d.jpg",
      "description": "Globe, together with National Teachers College, launches the Globe IT Academy program to empower schools in teaching STEM at all levels.",
      "datePosted": "Sep 13, 2022 | 05:00 PM",
      "titleFromTag": "Sustainability"
    },
    {
      "title": "Globe’s #ConsistentSaLife Campaign Hits Over 50.5M Netizens, Amasses 12.5 Million Views",
      "nonclickable": false,
      "openNewTab": false,
      "borderArticle": "border-color:#0074D9;",
      "borderTopArticle": "border-top-color:#0074D9;",
      "imageListing": "/sites/globe.com.ph/files/content/dam/globe/brie/AboutUs/newsroom/corporate/globes-consistentsalife-campaign-hits-millions-of-views/newsroom-corporate-consistent-sa-life-campaign-thumbnail-listing.jpg",
      "articleUrl": "https://www.globe.com.ph/about-us/newsroom/corporate/globes-consistentsalife-campaign-hits-millions-of-views.html",
      "columnType": "articles--type-3",
      "typeListing": "article",
      "imageMobile": "/sites/globe.com.ph/files/content/dam/globe/brie/AboutUs/newsroom/corporate/globes-consistentsalife-campaign-hits-millions-of-views/newsroom-corporate-consistent-sa-life-campaign-primary-thumbnail-m.jpg",
      "imageDesktop": "/sites/globe.com.ph/files/content/dam/globe/brie/AboutUs/newsroom/corporate/globes-consistentsalife-campaign-hits-millions-of-views/newsroom-corporate-consistent-sa-life-campaign-primary-thumbnail-d.jpg",
      "description": "Globe’s #ConsistentSaLife Campaign, which sought to encourage netizens to share their experiences that reflect consistency, reached over 50.5M netizens.",
      "datePosted": "Sep 13, 2022 | 02:05 PM",
      "titleFromTag": "Corporate"
    },
    {
      "title": "Alex Eala’s Historic US Open Win A Victory For All Filipinos",
      "nonclickable": false,
      "openNewTab": false,
      "borderArticle": "border-color:#0074D9;",
      "borderTopArticle": "border-top-color:#0074D9;",
      "imageListing": "/sites/globe.com.ph/files/content/dam/globe/brie/AboutUs/newsroom/corporate/globe-congratulates-alex-eala/globe-alex-eala-historic-us-open-win-a-victory-for-all-filipino-thumbnail-listing.jpg",
      "articleUrl": "https://www.globe.com.ph/about-us/newsroom/corporate/alex-ealas-historic-us-open-win.html",
      "columnType": "articles--type-3",
      "typeListing": "article",
      "imageMobile": "/sites/globe.com.ph/files/content/dam/globe/brie/AboutUs/newsroom/corporate/globe-congratulates-alex-eala/globe-alex-eala-historic-us-open-win-a-victory-for-all-filipino-primary-thumbnail-m.jpg",
      "imageDesktop": "/sites/globe.com.ph/files/content/dam/globe/brie/AboutUs/newsroom/corporate/globe-congratulates-alex-eala/globe-alex-eala-historic-us-open-win-a-victory-for-all-filipino-primary-thumbnail-d.jpg",
      "description": "Globe congratulates its ambassador Alex Eala for winning the 2022 grand slam singles championship at the US Open Juniors",
      "datePosted": "Sep 13, 2022 | 09:44 AM",
      "titleFromTag": "Corporate"
    }
  ]
}
