{
  "status": 200,
  "page": 52,
  "totalPage": 298,
  "range": "613-624",
  "total": 3573,
  "result": [
    {
      "title": "Globe Hauls 13 Accolades at 2022 Stevie® Awards for Great Employers and Stevie® International Business Awards",
      "nonclickable": false,
      "openNewTab": false,
      "borderArticle": "border-color:#0074D9;",
      "borderTopArticle": "border-top-color:#0074D9;",
      "imageListing": "/sites/globe.com.ph/files/content/dam/globe/brie/About-us/Newsroom/image/Corporate/091222/international-business-awards-thumbnail-listing.jpg",
      "articleUrl": "https://www.globe.com.ph/about-us/newsroom/corporate/globe-hauls-13-accolades-at-2022-stevie-awards.html",
      "columnType": "articles--type-3",
      "typeListing": "article",
      "imageMobile": "/sites/globe.com.ph/files/content/dam/globe/brie/About-us/Newsroom/image/Corporate/091222/international-business-awards-primary-thumbnail-m.jpg",
      "imageDesktop": "/sites/globe.com.ph/files/content/dam/globe/brie/About-us/Newsroom/image/Corporate/091222/international-business-awards-primary-thumbnail-d.jpg",
      "description": "Globe reaped 13 accolades at the 2022 Stevie® Awards for Great Employers and the Stevie® International Business Awards.",
      "datePosted": "Sep 12, 2022 | 09:44 AM",
      "titleFromTag": "Corporate"
    },
    {
      "title": "GCash Ramps Up User Data Protection",
      "nonclickable": false,
      "openNewTab": false,
      "borderArticle": "border-color:#0074D9;",
      "borderTopArticle": "border-top-color:#0074D9;",
      "imageListing": "/sites/globe.com.ph/files/content/dam/globe/brie/About-us/Newsroom/image/Consumer/090822/Newsroom-gcash-ramps-up-user-data-protection-thumbnail-listing.jpg",
      "articleUrl": "https://www.globe.com.ph/about-us/newsroom/consumer/gcash-ramps-up-user-data-protection.html",
      "columnType": "articles--type-3",
      "typeListing": "article",
      "imageMobile": "/sites/globe.com.ph/files/content/dam/globe/brie/About-us/Newsroom/image/Consumer/090822/Newsroom-gcash-ramps-up-user-data-protection-primary-thumbnail-m.jpg",
      "imageDesktop": "/sites/globe.com.ph/files/content/dam/globe/brie/About-us/Newsroom/image/Consumer/090822/Newsroom-gcash-ramps-up-user-data-protection-primary-thumbnail-d.jpg",
      "description": "GCash underscores its strong commitment to protect the accounts and personal information of its customers in helping address scam text messages.",
      "datePosted": "Sep 09, 2022 | 05:00 PM",
      "titleFromTag": "Consumer"
    },
    {
      "title": "Globe Virtual Hangouts Kicks off Metaverse Platform for Exciting Gen Z “Phygital” Experiences",
      "nonclickable": false,
      "openNewTab": false,
      "borderArticle": "border-color:#0074D9;",
      "borderTopArticle": "border-top-color:#0074D9;",
      "imageListing": "/sites/globe.com.ph/files/content/dam/globe/brie/AboutUs/newsroom/consumer/globe-virtual-hangouts-kicks-off-metaverse-platform/Newsroom-globe-virtual-hangouts-kicks-off-metaverse-platform-for-exciting-gen-z-phygital-experiences-thumbnail-listing.jpg",
      "articleUrl": "https://www.globe.com.ph/about-us/newsroom/consumer/globe-virtual-hangouts-kicks-off-metaverse-platform.html",
      "columnType": "articles--type-3",
      "typeListing": "article",
      "imageMobile": "/sites/globe.com.ph/files/content/dam/globe/brie/AboutUs/newsroom/consumer/globe-virtual-hangouts-kicks-off-metaverse-platform/Newsroom-globe-virtual-hangouts-kicks-off-metaverse-platform-for-exciting-gen-z-phygital-experiences-primary-thumbnail-m.jpg",
      "imageDesktop": "/sites/globe.com.ph/files/content/dam/globe/brie/AboutUs/newsroom/consumer/globe-virtual-hangouts-kicks-off-metaverse-platform/Newsroom-globe-virtual-hangouts-kicks-off-metaverse-platform-for-exciting-gen-z-phygital-experiences-primary-thumbnail-d.jpg",
      "description": "Globe Virtual Hangouts continues to evolve and reinvent itself to give Gen Zs and more digital fun, innovative, educational, and passion-filled experiences.",
      "datePosted": "Sep 08, 2022 | 04:50 PM",
      "titleFromTag": "Consumer"
    },
    {
      "title": "Globe Maintains Its Place in FTSE4Good Index Series for 7th Consecutive Year",
      "nonclickable": false,
      "openNewTab": false,
      "borderArticle": "border-color:#1C91C5;",
      "borderTopArticle": "border-top-color:#1C91C5;",
      "imageListing": "/sites/globe.com.ph/files/content/dam/globe/brie/About-us/Newsroom/image/Sustainability/9222/newsroom-sustainability-globe-maintains-place-ftse4good-thumbnail-listing.jpg",
      "articleUrl": "https://www.globe.com.ph/about-us/newsroom/sustainability/maintains-place-ftse4good-index-series.html",
      "columnType": "articles--type-3",
      "typeListing": "article",
      "imageMobile": "/sites/globe.com.ph/files/content/dam/globe/brie/About-us/Newsroom/image/Sustainability/9222/newsroom-sustainability-globe-maintains-place-ftse4good-primary-thumbnail-m.jpg",
      "imageDesktop": "/sites/globe.com.ph/files/content/dam/globe/brie/About-us/Newsroom/image/Sustainability/9222/newsroom-sustainability-globe-maintains-place-ftse4good-primary-thumbnail-d.jpg",
      "description": "Globe has been included in the FTSE4Good Index Series, its seventh consecutive year to make the list. ",
      "datePosted": "Sep 08, 2022 | 03:21 PM",
      "titleFromTag": "Sustainability"
    },
    {
      "title": "Globe Spearheads Collaboration With Banks for Strengthened Cybersecurity",
      "nonclickable": false,
      "openNewTab": false,
      "borderArticle": "border-color:#0074D9;",
      "borderTopArticle": "border-top-color:#0074D9;",
      "imageListing": "/sites/globe.com.ph/files/content/dam/globe/brie/About-us/Newsroom/image/Corporate/090822/strengthened-cybersecurity-thumbnail-listing.jpg",
      "articleUrl": "https://www.globe.com.ph/about-us/newsroom/corporate/globe-collaborates-with-banks-for-cybersecurity.html",
      "columnType": "articles--type-3",
      "typeListing": "article",
      "imageMobile": "/sites/globe.com.ph/files/content/dam/globe/brie/About-us/Newsroom/image/Corporate/090822/strengthened-cybersecurity-primary-thumbnail-m.jpg",
      "imageDesktop": "/sites/globe.com.ph/files/content/dam/globe/brie/About-us/Newsroom/image/Corporate/090822/strengthened-cybersecurity-primary-thumbnail-d.jpg",
      "description": "Globe Group’s pioneering efforts to partner with banks and financial institutions continue to gain traction in the fight against cybercrime. ",
      "datePosted": "Sep 08, 2022 | 02:05 PM",
      "titleFromTag": "Corporate"
    },
    {
      "title": "Global Dominion Financing Inc. Finds the Right Ka-Partner in Globe Business",
      "nonclickable": false,
      "openNewTab": false,
      "borderArticle": "border-color:#0074D9;",
      "borderTopArticle": "border-top-color:#0074D9;",
      "imageListing": "/sites/globe.com.ph/files/content/dam/globe/brie/AboutUs/newsroom/business/global-dominion-financing-partners-with-globe/eg-dominion-listing-thumbnail.jpg",
      "articleUrl": "https://www.globe.com.ph/about-us/newsroom/business/global-dominion-financing-partners-with-globe.html",
      "columnType": "articles--type-3",
      "typeListing": "article",
      "imageMobile": "/sites/globe.com.ph/files/content/dam/globe/brie/AboutUs/newsroom/business/global-dominion-financing-partners-with-globe/eg-dominion-primary-banner-m.jpg",
      "imageDesktop": "/sites/globe.com.ph/files/content/dam/globe/brie/AboutUs/newsroom/business/global-dominion-financing-partners-with-globe/eg-dominion-primary-thumbnail.jpg",
      "description": "Global Dominion Financing Incorporated attributes its success to strong partnerships formed with their stakeholders including one with Globe Business.",
      "datePosted": "Sep 08, 2022 | 01:00 PM",
      "titleFromTag": "Business"
    },
    {
      "title": "Globe Seeks Unified Front vs Cybercriminals As Worsening Online Scams Threaten To Stifle Digitalization Efforts",
      "nonclickable": false,
      "openNewTab": false,
      "borderArticle": "border-color:#0074D9;",
      "borderTopArticle": "border-top-color:#0074D9;",
      "imageListing": "/sites/globe.com.ph/files/content/dam/globe/brie/AboutUs/newsroom/common/default-3/corporate-default-7-thumbnail-listing.jpg",
      "articleUrl": "https://www.globe.com.ph/about-us/newsroom/corporate/globe-seeks-unified-front-vs-cybercriminals.html",
      "columnType": "articles--type-3",
      "typeListing": "article",
      "imageMobile": "/sites/globe.com.ph/files/content/dam/globe/brie/AboutUs/newsroom/common/default-3/corporate-default-7-primary-thumbnail-m.jpg",
      "imageDesktop": "/sites/globe.com.ph/files/content/dam/globe/brie/AboutUs/newsroom/common/default-3/corporate-default-7-primary-thumbnail-d.jpg",
      "description": "A unified front against cybercriminals is sought by Globe as worsening online scams threaten to impede digitalization efforts.",
      "datePosted": "Sep 07, 2022 | 02:05 PM",
      "titleFromTag": "Corporate"
    },
    {
      "title": "Globe Logs Record Quarterly Revenues at ₱40B Driven by Data Service",
      "nonclickable": false,
      "openNewTab": false,
      "borderArticle": "border-color:#0074D9;",
      "borderTopArticle": "border-top-color:#0074D9;",
      "imageListing": "/sites/globe.com.ph/files/content/dam/globe/brie/AboutUs/newsroom/corporate/globe-logs-record-quarterly-revenues-40b-data-services/Newsroom-corporate-globe-logs-record-quarterly-revenues-at-p40b-driven-by-data-services-thumbnail-listing.jpg",
      "articleUrl": "https://www.globe.com.ph/about-us/newsroom/corporate/globe-logs-record-quarterly-revenues-40b-data-services.html",
      "columnType": "articles--type-3",
      "typeListing": "article",
      "imageMobile": "/sites/globe.com.ph/files/content/dam/globe/brie/AboutUs/newsroom/corporate/globe-logs-record-quarterly-revenues-40b-data-services/Newsroom-corporate-globe-logs-record-quarterly-revenues-at-p40b-driven-by-data-services-primary-thumbnail-m.jpg",
      "imageDesktop": "/sites/globe.com.ph/files/content/dam/globe/brie/AboutUs/newsroom/corporate/globe-logs-record-quarterly-revenues-40b-data-services/Newsroom-corporate-globe-logs-record-quarterly-revenues-at-p40b-driven-by-data-services-primary-thumbnail-d.jpg",
      "description": "Globe achieved a new record quarterly revenue of close to P40 billion brought about by the solid contribution of data-related products and services.",
      "datePosted": "Sep 06, 2022 | 05:00 PM",
      "titleFromTag": "Corporate"
    },
    {
      "title": "GCash Shifts From Text Notifications To Ensure Messages Are Legit",
      "nonclickable": false,
      "openNewTab": false,
      "borderArticle": "border-color:#0074D9;",
      "borderTopArticle": "border-top-color:#0074D9;",
      "imageListing": "/sites/globe.com.ph/files/content/dam/globe/brie/AboutUs/newsroom/consumer/gcash-shifts-from-text-notifications/default-consumer-3-thumbnail-listing.jpg",
      "articleUrl": "https://www.globe.com.ph/about-us/newsroom/consumer/gcash-shifts-from-text-notifications.html",
      "columnType": "articles--type-3",
      "typeListing": "article",
      "imageMobile": "/sites/globe.com.ph/files/content/dam/globe/brie/AboutUs/newsroom/consumer/gcash-shifts-from-text-notifications/default-consumer-3-primary-thumbnail-m.jpg",
      "imageDesktop": "/sites/globe.com.ph/files/content/dam/globe/brie/AboutUs/newsroom/consumer/gcash-shifts-from-text-notifications/default-consumer-3-primary-thumbnail-d.jpg",
      "description": "GCash to move confirmation messages from text message to app inbox to improve security and provide customers easier access to their transaction history.",
      "datePosted": "Sep 06, 2022 | 04:50 PM",
      "titleFromTag": "Consumer"
    },
    {
      "title": "Online Grocery Store Promises More Rewards for Shopping, More Efficient Deliveries",
      "nonclickable": false,
      "openNewTab": false,
      "borderArticle": "border-color:#1C91C5;",
      "borderTopArticle": "border-top-color:#1C91C5;",
      "imageListing": "/sites/globe.com.ph/files/content/dam/globe/brie/AboutUs/newsroom/partners/online-grocery-store-promises-more-rewards/Newsroom-online-grocery-store-promises-more-rewards-for-shopping-more-efficient-deliveries-thumbnail-listing.jpg",
      "articleUrl": "https://www.globe.com.ph/about-us/newsroom/partners/online-grocery-store-promises-more-rewards.html",
      "columnType": "articles--type-3",
      "typeListing": "article",
      "imageMobile": "/sites/globe.com.ph/files/content/dam/globe/brie/AboutUs/newsroom/partners/online-grocery-store-promises-more-rewards/Newsroom-online-grocery-store-promises-more-rewards-for-shopping-more-efficient-deliveries-primary-thumbnail-m.jpg",
      "imageDesktop": "/sites/globe.com.ph/files/content/dam/globe/brie/AboutUs/newsroom/partners/online-grocery-store-promises-more-rewards/Newsroom-online-grocery-store-promises-more-rewards-for-shopping-more-efficient-deliveries-primary-thumbnail-d.jpg",
      "description": "Online grocery store Purego is now Rappit, the Filipinos’ new grocery shopping sidekick that promises more efficient deliveries & a better shopping experience.",
      "datePosted": "Sep 06, 2022 | 04:41 PM",
      "titleFromTag": "Partners"
    },
    {
      "title": "KonsultaMD Group Seen To Help Government Delivery of Primary Care",
      "nonclickable": false,
      "openNewTab": false,
      "borderArticle": "border-color:#0074D9;",
      "borderTopArticle": "border-top-color:#0074D9;",
      "imageListing": "/sites/globe.com.ph/files/content/dam/globe/brie/About-us/Newsroom/image/Partners/090222/newsroom-partners-konsultamd-help-government-care-thumbnail-listing.jpg",
      "articleUrl": "https://www.globe.com.ph/about-us/newsroom/partners/konsultamd-group-seen-help-govt-delivery-primary-care.html",
      "columnType": "articles--type-3",
      "typeListing": "article",
      "imageMobile": "/sites/globe.com.ph/files/content/dam/globe/brie/About-us/Newsroom/image/Partners/090222/newsroom-partners-konsultamd-help-government-care-primary-thumbnail-m.jpg",
      "imageDesktop": "/sites/globe.com.ph/files/content/dam/globe/brie/About-us/Newsroom/image/Partners/090222/newsroom-partners-konsultamd-help-government-care-primary-thumbnail-d.jpg",
      "description": "KonsultaMD, HealthNow, and AIDE are expected to help the government lead the country’s development of an improved people-centered health system. ",
      "datePosted": "Sep 02, 2022 | 05:00 PM",
      "titleFromTag": "Partners"
    },
    {
      "title": "Food Insecurity Impacts Mental Health",
      "nonclickable": false,
      "openNewTab": false,
      "borderArticle": "border-color:#1C91C5;",
      "borderTopArticle": "border-top-color:#1C91C5;",
      "imageListing": "/sites/globe.com.ph/files/content/dam/globe/brie/AboutUs/newsroom/sustainability/food-insecurity-impacts-mental-health/NEWSROOM- sustainability- food-insecurity-impacts-mental health-thumbnail-listing.jpg",
      "articleUrl": "https://www.globe.com.ph/about-us/newsroom/sustainability/food-insecurity-impacts-mental-health.html",
      "columnType": "articles--type-3",
      "typeListing": "article",
      "imageMobile": "/sites/globe.com.ph/files/content/dam/globe/brie/AboutUs/newsroom/sustainability/food-insecurity-impacts-mental-health/NEWSROOM- sustainability- food-insecurity-impacts-mental health-primary-thumbnail-m.jpg",
      "imageDesktop": "/sites/globe.com.ph/files/content/dam/globe/brie/AboutUs/newsroom/sustainability/food-insecurity-impacts-mental-health/NEWSROOM- sustainability- food-insecurity-impacts-mental health-primary-thumbnail-d.jpg",
      "description": "Globe customers can now help provide food for families in need by donating through the New GlobeOne or GCash app.",
      "datePosted": "Sep 02, 2022 | 03:21 PM",
      "titleFromTag": "Sustainability"
    }
  ]
}
