{
  "status": 200,
  "page": 53,
  "totalPage": 298,
  "range": "625-636",
  "total": 3573,
  "result": [
    {
      "title": "#TruthInAction: Globe Partners With Internews To Support Quality Journalism, Fight Fake News in Industry First",
      "nonclickable": false,
      "openNewTab": false,
      "borderArticle": "border-color:#0074D9;",
      "borderTopArticle": "border-top-color:#0074D9;",
      "imageListing": "/sites/globe.com.ph/files/content/dam/globe/brie/About-us/Newsroom/image/Sustainability/090222/newsroom-sustainability-globe-internews-support-journalism-thumbnail-listing.jpg",
      "articleUrl": "https://www.globe.com.ph/about-us/newsroom/sustainability/globe-partners-with-internews.html",
      "columnType": "articles--type-3",
      "typeListing": "article",
      "imageMobile": "/sites/globe.com.ph/files/content/dam/globe/brie/About-us/Newsroom/image/Sustainability/090222/newsroom-sustainability-globe-internews-support-journalism-primary-thumbnail-m.jpg",
      "imageDesktop": "/sites/globe.com.ph/files/content/dam/globe/brie/About-us/Newsroom/image/Sustainability/090222/newsroom-sustainability-globe-internews-support-journalism-primary-thumbnail-d.jpg",
      "description": "Globe Partners With Internews  to raise quality journalism above the disinformation clutter.",
      "datePosted": "Sep 02, 2022 | 09:00 AM",
      "titleFromTag": "Sustainability"
    },
    {
      "title": "Globe Blocks 784 Million Spam, Scam Texts from January to July, Continues Vigilance amid Rise of New Text Scam with Users’ Personal Details",
      "nonclickable": false,
      "openNewTab": false,
      "borderArticle": "border-color:#0074D9;",
      "borderTopArticle": "border-top-color:#0074D9;",
      "imageListing": "/sites/globe.com.ph/files/content/dam/globe/brie/AboutUs/newsroom/corporate/volte-service-now-available-25-provinces-ph/default-consumer-2-thumbnail-listing.jpg",
      "articleUrl": "https://www.globe.com.ph/about-us/newsroom/sustainability/globe-blocks-784-million-spam-scam-texts.html",
      "columnType": "articles--type-3",
      "typeListing": "article",
      "imageMobile": "/sites/globe.com.ph/files/content/dam/globe/brie/AboutUs/newsroom/corporate/volte-service-now-available-25-provinces-ph/default-consumer-2-primary-thumbnail-m.jpg",
      "imageDesktop": "/sites/globe.com.ph/files/content/dam/globe/brie/AboutUs/newsroom/corporate/volte-service-now-available-25-provinces-ph/default-consumer-2-primary-thumbnail-d.jpg",
      "description": "Globe is one with the National Telecommunications Communication (NTC) in its goal of stopping the spread of spam and scam text messages.",
      "datePosted": "Sep 02, 2022 | 08:05 AM",
      "titleFromTag": "Sustainability"
    },
    {
      "title": "Globe At Home Prepaid WiFi Promo Offers Free 50GB Data",
      "nonclickable": false,
      "openNewTab": false,
      "borderArticle": "border-color:#0074D9;",
      "borderTopArticle": "border-top-color:#0074D9;",
      "imageListing": "/sites/globe.com.ph/files/content/dam/globe/brie/AboutUs/newsroom/common/default-4/default-consumer-3-thumbnail-listing.jpg",
      "articleUrl": "https://www.globe.com.ph/about-us/newsroom/consumer/globe-at-home-prepaid-wifi-promo-free-50-gb-data.html",
      "columnType": "articles--type-3",
      "typeListing": "article",
      "imageMobile": "/sites/globe.com.ph/files/content/dam/globe/brie/AboutUs/newsroom/common/default-4/default-consumer-3-primary-thumbnail-m.jpg",
      "imageDesktop": "/sites/globe.com.ph/files/content/dam/globe/brie/AboutUs/newsroom/common/default-4/default-consumer-3-primary-thumbnail-d.jpg",
      "description": "Globe At Home offers an all-new sulit and affordable Home Prepaid WiFi at P799 now comes with free FamSURF299, which includes 50GB data.",
      "datePosted": "Aug 31, 2022 | 05:00 PM",
      "titleFromTag": "Consumer"
    },
    {
      "title": "Globe Prepares Network for Typhoon Hinnamnor, ‘Gardo’; Ready to Deploy Free Call, Charging and WiFi Stations in Affected Areas",
      "nonclickable": false,
      "openNewTab": false,
      "borderArticle": "border-color:#1C91C5;",
      "borderTopArticle": "border-top-color:#1C91C5;",
      "imageListing": "/sites/globe.com.ph/files/content/dam/globe/brie/AboutUs/newsroom/common/default-3/corporate-default-7-thumbnail-listing.jpg",
      "articleUrl": "https://www.globe.com.ph/about-us/newsroom/sustainability/globe-prepares-network-for-typhoon-hinnamnor.html",
      "columnType": "articles--type-3",
      "typeListing": "article",
      "imageMobile": "/sites/globe.com.ph/files/content/dam/globe/brie/AboutUs/newsroom/common/default-3/corporate-default-7-primary-thumbnail-m.jpg",
      "imageDesktop": "/sites/globe.com.ph/files/content/dam/globe/brie/AboutUs/newsroom/common/default-3/corporate-default-7-primary-thumbnail-d.jpg",
      "description": "Globe ensures the network remains operational once tropical depression Gardo hits the ground by having technical and support personnel on standby.",
      "datePosted": "Aug 31, 2022 | 01:00 PM",
      "titleFromTag": "Sustainability"
    },
    {
      "title": "Globe Ramps Up 5G Rollout, Installs 933 Sites in 1st Half 2022",
      "nonclickable": false,
      "openNewTab": false,
      "borderArticle": "border-color:#0074D9;",
      "borderTopArticle": "border-top-color:#0074D9;",
      "imageListing": "/sites/globe.com.ph/files/content/dam/globe/brie/About-us/Newsroom/image/Consumer/083022/newsroom-corporate-5G-rollout-933-sites-thumbnail-listing.jpg",
      "articleUrl": "https://www.globe.com.ph/about-us/newsroom/consumer/5g-rollout-installs-933-sites-1st-half-2022.html",
      "columnType": "articles--type-3",
      "typeListing": "article",
      "imageMobile": "/sites/globe.com.ph/files/content/dam/globe/brie/About-us/Newsroom/image/Consumer/083022/newsroom-corporate-5G-rollout-933-sites-primary-thumbnail-m.jpg",
      "imageDesktop": "/sites/globe.com.ph/files/content/dam/globe/brie/About-us/Newsroom/image/Consumer/083022/newsroom-corporate-5G-rollout-933-sites-primary-thumbnail-d.jpg",
      "description": "Globe continues to scale up the deployment of 5G wireless technology nationwide, having built 933 sites in the first half of the year.",
      "datePosted": "Aug 30, 2022 | 05:00 PM",
      "titleFromTag": "Consumer"
    },
    {
      "title": "Globe Starts To Reap Gains From Strategy To Go Beyond Telco",
      "nonclickable": false,
      "openNewTab": false,
      "borderArticle": "border-color:#0074D9;",
      "borderTopArticle": "border-top-color:#0074D9;",
      "imageListing": "/sites/globe.com.ph/files/content/dam/globe/brie/AboutUs/newsroom/corporate/largest-ph-publicly-listed-telco-digital-solutions-group/Corporate-globe-thumbnail-listing.jpg",
      "articleUrl": "https://www.globe.com.ph/about-us/newsroom/corporate/globe-starts-to-reap-gains-from-strategy.html",
      "columnType": "articles--type-3",
      "typeListing": "article",
      "imageMobile": "/sites/globe.com.ph/files/content/dam/globe/brie/AboutUs/newsroom/corporate/largest-ph-publicly-listed-telco-digital-solutions-group/Corporate-globe-primary-thumbnail-m.jpg",
      "imageDesktop": "/sites/globe.com.ph/files/content/dam/globe/brie/AboutUs/newsroom/corporate/largest-ph-publicly-listed-telco-digital-solutions-group/Corporate-globe-primary-thumbnail-d.jpg",
      "description": "The rapid growth of Globe’s non-telco businesses is complementing the company’s strong revenue performance from telco core products and services.",
      "datePosted": "Aug 30, 2022 | 02:05 PM",
      "titleFromTag": "Corporate"
    },
    {
      "title": "Parental Guidance Can Keep Children Protected Online",
      "nonclickable": false,
      "openNewTab": false,
      "borderArticle": "border-color:#1C91C5;",
      "borderTopArticle": "border-top-color:#1C91C5;",
      "imageListing": "/sites/globe.com.ph/files/content/dam/globe/brie/AboutUs/newsroom/sustainability/Globe-Partners---LinkedIn-Learning-Offer-Sustainability-Education/default-default-3-thumbnail-listing.jpg",
      "articleUrl": "https://www.globe.com.ph/about-us/newsroom/sustainability/keep-children-protected-online.html",
      "columnType": "articles--type-3",
      "typeListing": "article",
      "imageMobile": "/sites/globe.com.ph/files/content/dam/globe/brie/AboutUs/newsroom/sustainability/Globe-Partners---LinkedIn-Learning-Offer-Sustainability-Education/default-default-3-primary-thumbnail-m.jpg",
      "imageDesktop": "/sites/globe.com.ph/files/content/dam/globe/brie/AboutUs/newsroom/sustainability/Globe-Partners---LinkedIn-Learning-Offer-Sustainability-Education/default-default-3-primary-thumbnail-d.jpg",
      "description": "Parental guidance can keep children protected against online risks and threats with the help of Globe’s Digital Thumbprint Program (DTP) eModules.",
      "datePosted": "Aug 30, 2022 | 11:49 AM",
      "titleFromTag": "Sustainability"
    },
    {
      "title": "Globe Partners With Bankers’ Group To Boost Cybersecurity Initiatives",
      "nonclickable": false,
      "openNewTab": false,
      "borderArticle": "border-color:#0074D9;",
      "borderTopArticle": "border-top-color:#0074D9;",
      "imageListing": "/sites/globe.com.ph/files/content/dam/globe/brie/AboutUs/newsroom/common/default-11/default-business-5-thumbnail-listing.jpg",
      "articleUrl": "https://www.globe.com.ph/about-us/newsroom/corporate/globe-partners-bankers-group-boost-cybersecurity-initaitves.html",
      "columnType": "articles--type-3",
      "typeListing": "article",
      "imageMobile": "/sites/globe.com.ph/files/content/dam/globe/brie/AboutUs/newsroom/common/default-11/default-business-5-primary-thumbnail-m.jpg",
      "imageDesktop": "/sites/globe.com.ph/files/content/dam/globe/brie/AboutUs/newsroom/common/default-11/default-business-5-primary-thumbnail-d.jpg",
      "description": "Globe has partnered with BAP to establish a cooperation framework for intelligence and data-sharing as it ramped up cybersecurity initiatives.",
      "datePosted": "Aug 26, 2022 | 04:00 PM",
      "titleFromTag": "Corporate"
    },
    {
      "title": "Globe Builds 572 New Cell Towers, Upgrades ~6.8K Mobile Sites in H1 2022, Most Reliable Network for Q2 2022",
      "nonclickable": false,
      "openNewTab": false,
      "borderArticle": "border-color:#1C91C5;",
      "borderTopArticle": "border-top-color:#1C91C5;",
      "imageListing": "/sites/globe.com.ph/files/content/dam/globe/brie/AboutUs/newsroom/corporate/799-permits-1q-2021-new-towers/default-corporate-9-thumbnail-listing.jpg",
      "articleUrl": "https://www.globe.com.ph/about-us/newsroom/corporate/new-cell-towers-upgrades-mobile-sites.html",
      "columnType": "articles--type-3",
      "typeListing": "article",
      "imageMobile": "/sites/globe.com.ph/files/content/dam/globe/brie/AboutUs/newsroom/corporate/799-permits-1q-2021-new-towers/default-corporate-9-primary-thumbnail-m.jpg",
      "imageDesktop": "/sites/globe.com.ph/files/content/dam/globe/brie/AboutUs/newsroom/corporate/799-permits-1q-2021-new-towers/default-corporate-9-primary-thumbnail-d.jpg",
      "description": "Globe has installed 572 new cell towers & upgraded ~6,800 mobile sites to 4G LTE in the 1st half of the year to address growing connectivity needs of Filipinos.",
      "datePosted": "Aug 26, 2022 | 09:31 AM",
      "titleFromTag": "Corporate"
    },
    {
      "title": "Globe Launches EasyHub in Boracay",
      "nonclickable": false,
      "openNewTab": false,
      "borderArticle": "border-color:#0074D9;",
      "borderTopArticle": "border-top-color:#0074D9;",
      "imageListing": "/sites/globe.com.ph/files/content/dam/globe/brie/About-us/Newsroom/image/Consumer/082522/newsroom-consumer-globe-launches-easyhub-boracay-thumbnail-listing.jpg",
      "articleUrl": "https://www.globe.com.ph/about-us/newsroom/consumer/globe-launches-easyhub-in-boracay.html",
      "columnType": "articles--type-3",
      "typeListing": "article",
      "imageMobile": "/sites/globe.com.ph/files/content/dam/globe/brie/About-us/Newsroom/image/Consumer/082522/newsroom-consumer-globe-launches-easyhub-boracay-primary-thumbnail-m.jpg",
      "imageDesktop": "/sites/globe.com.ph/files/content/dam/globe/brie/About-us/Newsroom/image/Consumer/082522/newsroom-consumer-globe-launches-easyhub-boracay-primary-thumbnail-d.jpg",
      "description": "Customers may now enjoy more of what Boracay has to offer with the launch of Globe’s EasyHub last August 1 at the D'Mall premier shopping and dining place.",
      "datePosted": "Aug 25, 2022 | 05:00 PM",
      "titleFromTag": "Consumer"
    },
    {
      "title": "Globe Adopts More Eco-Friendly Batteries for Core Network Sites",
      "nonclickable": false,
      "openNewTab": false,
      "borderArticle": "border-color:#0074D9;",
      "borderTopArticle": "border-top-color:#0074D9;",
      "imageListing": "/sites/globe.com.ph/files/content/dam/globe/brie/AboutUs/newsroom/common/updated/Corporate-globe-thumbnail-listing.jpg",
      "articleUrl": "https://www.globe.com.ph/about-us/newsroom/sustainability/eco-friendly-batteries-core-network-sites.html",
      "columnType": "articles--type-3",
      "typeListing": "article",
      "imageMobile": "/sites/globe.com.ph/files/content/dam/globe/brie/AboutUs/newsroom/common/updated/Corporate-globe-primary-thumbnail-m.jpg",
      "imageDesktop": "/sites/globe.com.ph/files/content/dam/globe/brie/AboutUs/newsroom/common/updated/Corporate-globe-primary-thumbnail-d.jpg",
      "description": "Globe is continuing its journey to greening their network through eco-friendly batteries as efficient backup power for its core network sites.",
      "datePosted": "Aug 24, 2022 | 09:00 AM",
      "titleFromTag": "Sustainability"
    },
    {
      "title": "Globe Steps up Advocacies vs Online Bullying to Protect Filipino Children",
      "nonclickable": false,
      "openNewTab": false,
      "borderArticle": "border-color:#0074D9;",
      "borderTopArticle": "border-top-color:#0074D9;",
      "imageListing": "/sites/globe.com.ph/files/content/dam/globe/brie/AboutUs/newsroom/citizenship/globe-steps-up-advocacies-vs-online-bullying/newsroom-citizenship-globe-steps-up-advocacies-thumbnail-listing.jpg",
      "articleUrl": "https://www.globe.com.ph/about-us/newsroom/citizenship/globe-steps-up-advocacies-vs-online-bullying.html",
      "columnType": "articles--type-3",
      "typeListing": "article",
      "imageMobile": "/sites/globe.com.ph/files/content/dam/globe/brie/AboutUs/newsroom/citizenship/globe-steps-up-advocacies-vs-online-bullying/newsroom-citizenship-globe-steps-up-advocacies-primary-thumbnail-m.jpg",
      "imageDesktop": "/sites/globe.com.ph/files/content/dam/globe/brie/AboutUs/newsroom/citizenship/globe-steps-up-advocacies-vs-online-bullying/newsroom-citizenship-globe-steps-up-advocacies-primary-thumbnail-d.jpg",
      "description": "Globe intensifies its commitment to online safety, enjoining the academe, mental health professionals, and parents to protect children against cyberbullying.",
      "datePosted": "Aug 23, 2022 | 03:06 PM",
      "titleFromTag": "Citizenship"
    }
  ]
}
