{
  "status": 200,
  "page": 54,
  "totalPage": 298,
  "range": "637-648",
  "total": 3573,
  "result": [
    {
      "title": "Globe Maintains Mobile Leadership, Revenues Back to Pre-pandemic Levels",
      "nonclickable": false,
      "openNewTab": false,
      "borderArticle": "border-color:#0074D9;",
      "borderTopArticle": "border-top-color:#0074D9;",
      "imageListing": "/sites/globe.com.ph/files/content/dam/globe/brie/AboutUs/newsroom/common/default-9/default-corporate-4-thumbnail-listing.jpg",
      "articleUrl": "https://www.globe.com.ph/about-us/newsroom/corporate/globe-maintains-mobile-leadership-revenues-back.html",
      "columnType": "articles--type-3",
      "typeListing": "article",
      "imageMobile": "/sites/globe.com.ph/files/content/dam/globe/brie/AboutUs/newsroom/common/default-9/default-corporate-4-primary-thumbnail-m.jpg",
      "imageDesktop": "/sites/globe.com.ph/files/content/dam/globe/brie/AboutUs/newsroom/common/default-9/default-corporate-4-primary-thumbnail-d.jpg",
      "description": "Globe maintains mobile leadership with its second-quarter revenue hitting ₱27 billion.",
      "datePosted": "Aug 23, 2022 | 09:14 AM",
      "titleFromTag": "Corporate"
    },
    {
      "title": "Globe Joins Industry-Wide Effort vs Illegal Cable Cutting",
      "nonclickable": false,
      "openNewTab": false,
      "borderArticle": "border-color:#0074D9;",
      "borderTopArticle": "border-top-color:#0074D9;",
      "imageListing": "/sites/globe.com.ph/files/content/dam/globe/brie/AboutUs/newsroom/corporate/799-permits-1q-2021-new-towers/default-corporate-9-thumbnail-listing.jpg",
      "articleUrl": "https://www.globe.com.ph/about-us/newsroom/citizenship/globe-joins-industry-wide-effort-vs-illegal-cable-cutting.html",
      "columnType": "articles--type-3",
      "typeListing": "article",
      "imageMobile": "/sites/globe.com.ph/files/content/dam/globe/brie/AboutUs/newsroom/corporate/799-permits-1q-2021-new-towers/default-corporate-9-primary-thumbnail-m.jpg",
      "imageDesktop": "/sites/globe.com.ph/files/content/dam/globe/brie/AboutUs/newsroom/corporate/799-permits-1q-2021-new-towers/default-corporate-9-primary-thumbnail-d.jpg",
      "description": "Globe joins Philippine cable & telecom providers in launching “Oplan Kontra Putol,” which condemns rampant cable theft that causes network disruptions.",
      "datePosted": "Aug 23, 2022 | 08:00 AM",
      "titleFromTag": "Citizenship"
    },
    {
      "title": "High School Grad Carves Out IT Career After KodeGo Bootcamp",
      "nonclickable": false,
      "openNewTab": false,
      "borderArticle": "border-color:#0074D9;",
      "borderTopArticle": "border-top-color:#0074D9;",
      "imageListing": "/sites/globe.com.ph/files/content/dam/globe/brie/About-us/Newsroom/image/Partners/bootcamp-082222/newsroom-917ventures-highschool-grad-it-career-thumbnail-listing.jpg",
      "articleUrl": "https://www.globe.com.ph/about-us/newsroom/partners/high-school-grad-carves-out-it-career-after-kodego-bootcamp.html",
      "columnType": "articles--type-3",
      "typeListing": "article",
      "imageMobile": "/sites/globe.com.ph/files/content/dam/globe/brie/About-us/Newsroom/image/Partners/bootcamp-082222/newsroom-917ventures-highschool-grad-it-career-primary-thumbnail-m.jpg",
      "imageDesktop": "/sites/globe.com.ph/files/content/dam/globe/brie/About-us/Newsroom/image/Partners/bootcamp-082222/newsroom-917ventures-highschool-grad-it-career-primary-thumbnail-d.jpg",
      "description": "John Michael Baldonado, a twenty-year-old high school graduate obtains a career in IT after KodeGo Bootcamp.",
      "datePosted": "Aug 22, 2022 | 05:00 PM",
      "titleFromTag": "Partners"
    },
    {
      "title": "Asticom Launches AstiELEVATE IT Cadetship Program With KodeGo",
      "nonclickable": false,
      "openNewTab": false,
      "borderArticle": "border-color:#0074D9;",
      "borderTopArticle": "border-top-color:#0074D9;",
      "imageListing": "/sites/globe.com.ph/files/content/dam/globe/brie/About-us/Newsroom/image/Partners/082222/newsroom-partners-asticom-launches-AstiELEVATE-IT-thumbnail-listing.jpg",
      "articleUrl": "https://www.globe.com.ph/about-us/newsroom/partners/astielevate-it-cadetship-program-kodego.html",
      "columnType": "articles--type-3",
      "typeListing": "article",
      "imageMobile": "/sites/globe.com.ph/files/content/dam/globe/brie/About-us/Newsroom/image/Partners/082222/newsroom-partners-asticom-launches-AstiELEVATE-IT-primary-thumbnail-m.jpg",
      "imageDesktop": "/sites/globe.com.ph/files/content/dam/globe/brie/About-us/Newsroom/image/Partners/082222/newsroom-partners-asticom-launches-AstiELEVATE-IT-primary-thumbnail-d.jpg",
      "description": "Asticom Group of Companies has just launched a cadetship program with coding boot camp KodeGo.",
      "datePosted": "Aug 22, 2022 | 05:00 PM",
      "titleFromTag": "Partners"
    },
    {
      "title": "Globe Bags UN SDG Award for ‘People’ in 1st SDG Awards in the Philippines",
      "nonclickable": false,
      "openNewTab": false,
      "borderArticle": "border-color:#1C91C5;",
      "borderTopArticle": "border-top-color:#1C91C5;",
      "imageListing": "/sites/globe.com.ph/files/content/dam/globe/brie/AboutUs/newsroom/sustainability/globe-bags-un-sdg-award/newsroom-sustainability-globe-un-sdg-award-thumbnail-listing.jpg",
      "articleUrl": "https://www.globe.com.ph/about-us/newsroom/sustainability/un-sdg-award-people-sdg-awards-ph.html",
      "columnType": "articles--type-3",
      "typeListing": "article",
      "imageMobile": "/sites/globe.com.ph/files/content/dam/globe/brie/AboutUs/newsroom/sustainability/globe-bags-un-sdg-award/newsroom-sustainability-globe-un-sdg-award-primary-thumbnail-m.jpg",
      "imageDesktop": "/sites/globe.com.ph/files/content/dam/globe/brie/AboutUs/newsroom/sustainability/globe-bags-un-sdg-award/newsroom-sustainability-globe-un-sdg-award-primary-thumbnail-d.jpg",
      "description": "Globe took home the first-ever United Nations Sustainable Development Goal (UN SDG) award for its outstanding contributions to people’s overall wellness.",
      "datePosted": "Aug 22, 2022 | 03:01 PM",
      "titleFromTag": "Sustainability"
    },
    {
      "title": "Learn the A-Z to Stop Cyberbullying; Go to www.makeitsafe.ph",
      "nonclickable": false,
      "openNewTab": false,
      "borderArticle": "border-color:#0074D9;",
      "borderTopArticle": "border-top-color:#0074D9;",
      "imageListing": "/sites/globe.com.ph/files/content/dam/globe/brie/AboutUs/newsroom/common/default-7/default-default-3-thumbnail-listing.jpg",
      "articleUrl": "https://www.globe.com.ph/about-us/newsroom/citizenship/learn-a-z-to-stop-cyberbullying.html",
      "columnType": "articles--type-3",
      "typeListing": "article",
      "imageMobile": "/sites/globe.com.ph/files/content/dam/globe/brie/AboutUs/newsroom/common/default-7/default-default-3-primary-thumbnail-m.jpg",
      "imageDesktop": "/sites/globe.com.ph/files/content/dam/globe/brie/AboutUs/newsroom/common/default-7/default-default-3-primary-thumbnail-d.jpg",
      "description": "Globe has various initiatives to protect people, particularly, minors and the youth, from cyberviolence, which includes bullying, and online sexual abuse.",
      "datePosted": "Aug 22, 2022 | 12:46 PM",
      "titleFromTag": "Citizenship"
    },
    {
      "title": "m360 Reaches 160% Budget Achievement in H1 2022",
      "nonclickable": false,
      "openNewTab": false,
      "borderArticle": "border-color:#0074D9;",
      "borderTopArticle": "border-top-color:#0074D9;",
      "imageListing": "/sites/globe.com.ph/files/content/dam/globe/brie/AboutUs/newsroom/917ventures/m360-reaches-160-budget-achievement-in-h1-2022/sg-m360-listing-thumbnail.jpg",
      "articleUrl": "https://www.globe.com.ph/about-us/newsroom/917ventures/m360-reaches-160-percent-budget-achievement-h1-2022.html",
      "columnType": "articles--type-3",
      "typeListing": "article",
      "imageMobile": "/sites/globe.com.ph/files/content/dam/globe/brie/AboutUs/newsroom/917ventures/m360-reaches-160-budget-achievement-in-h1-2022/sg-m360-primary-banner-m.jpg",
      "imageDesktop": "/sites/globe.com.ph/files/content/dam/globe/brie/AboutUs/newsroom/917ventures/m360-reaches-160-budget-achievement-in-h1-2022/sg-m360-primary-thumbnail.jpg",
      "description": "Web-based multi-channel messaging platform m360 reaches 160 percent budget achievement in H1 of 2022",
      "datePosted": "Aug 22, 2022 | 12:11 PM",
      "titleFromTag": "917Ventures"
    },
    {
      "title": "  Globe Fires up TMBayan Fiber WiFi in over 200 Pioneer Hubs Nationwide",
      "nonclickable": false,
      "openNewTab": false,
      "borderArticle": "border-color:#0074D9;",
      "borderTopArticle": "border-top-color:#0074D9;",
      "imageListing": "/sites/globe.com.ph/files/content/dam/globe/brie/About-us/Newsroom/image/Consumer/--Globe-Fires-up-TMBayan-Fiber-WiFi-in-over-200-Pioneer-Hubs-Nationwide/newsroom-consumer-TMBayan-Fiber-WiFi-in-over-200-Pioneer-Hubs-Nationwide-thumbnail-listing.jpg",
      "articleUrl": "https://www.globe.com.ph/about-us/newsroom/consumer/tmbayan-fiber-wifi-over-200-pioneer-hubs-nationwide.html",
      "columnType": "articles--type-3",
      "typeListing": "article",
      "imageMobile": "/sites/globe.com.ph/files/content/dam/globe/brie/About-us/Newsroom/image/Consumer/--Globe-Fires-up-TMBayan-Fiber-WiFi-in-over-200-Pioneer-Hubs-Nationwide/newsroom-consumer-TMBayan-Fiber-WiFi-in-over-200-Pioneer-Hubs-Nationwide-thumbnail-m.jpg",
      "imageDesktop": "/sites/globe.com.ph/files/content/dam/globe/brie/About-us/Newsroom/image/Consumer/--Globe-Fires-up-TMBayan-Fiber-WiFi-in-over-200-Pioneer-Hubs-Nationwide/newsroom-consumer-TMBayan-Fiber-WiFi-in-over-200-Pioneer-Hubs-Nationwide-thumbnail-d.jpg",
      "description": "Globe launches over 200 TMBayan Fiber WiFi connectivity hubs in 53 areas in NCR, Luzon, Visayas, and Mindanao.  ",
      "datePosted": "Aug 22, 2022 | 12:00 PM",
      "titleFromTag": "Consumer"
    },
    {
      "title": "Globe Business Introduces Omnichannel Retailing at 28th NRCE 2022",
      "nonclickable": false,
      "openNewTab": false,
      "borderArticle": "border-color:#0074D9;",
      "borderTopArticle": "border-top-color:#0074D9;",
      "imageListing": "/sites/globe.com.ph/files/content/dam/globe/brie/AboutUs/newsroom/business/globe-business-introduces-omnichannel-retailing/eg-nrce-newsroom-listing-thumbnail.jpg",
      "articleUrl": "https://www.globe.com.ph/about-us/newsroom/business/omnichannel-retailing-28th-nrce-2022.html",
      "columnType": "articles--type-3",
      "typeListing": "article",
      "imageMobile": "/sites/globe.com.ph/files/content/dam/globe/brie/AboutUs/newsroom/business/globe-business-introduces-omnichannel-retailing/eg-nrce-newsroom-primary-banner-m.jpg",
      "imageDesktop": "/sites/globe.com.ph/files/content/dam/globe/brie/AboutUs/newsroom/business/globe-business-introduces-omnichannel-retailing/eg-nrce-newsroom-primary-thumbnail.jpg",
      "description": "Globe Business introduces Omnichannel Retailing; aims to help retailers expand their capabilities in-store, in-app, on the web, or wherever they might be.",
      "datePosted": "Aug 19, 2022 | 02:04 PM",
      "titleFromTag": "Business"
    },
    {
      "title": "917Ventures’ Tech Startups Concati, Kodego Host 1st API Hackathon",
      "nonclickable": false,
      "openNewTab": false,
      "borderArticle": "border-color:#1C91C5;",
      "borderTopArticle": "border-top-color:#1C91C5;",
      "imageListing": "/sites/globe.com.ph/files/content/dam/globe/brie/AboutUs/newsroom/sustainability/concati-kodego-host-first-api-hackaton/v2/newsroom-917ventures-startups-concati-hackathon-thumbnail-listing.jpg",
      "articleUrl": "https://www.globe.com.ph/about-us/newsroom/sustainability/concati-kodego-host-first-api-hackaton.html",
      "columnType": "articles--type-3",
      "typeListing": "article",
      "imageMobile": "/sites/globe.com.ph/files/content/dam/globe/brie/AboutUs/newsroom/sustainability/concati-kodego-host-first-api-hackaton/v2/newsroom-917ventures-startups-concati-hackathon-primary-thumbnail-m.jpg",
      "imageDesktop": "/sites/globe.com.ph/files/content/dam/globe/brie/AboutUs/newsroom/sustainability/concati-kodego-host-first-api-hackaton/v2/newsroom-917ventures-startups-concati-hackathon-primary-thumbnail-d.jpg",
      "description": "Concati and KodeGo, tech startups under Globe venture builder 917Ventures, spearheaded their first Application Programming Interface (API) hackathon.",
      "datePosted": "Aug 18, 2022 | 10:41 AM",
      "titleFromTag": "Sustainability"
    },
    {
      "title": "Expedock Raises Total USD$17.5M Funding to Modernize Freight Forwarding",
      "nonclickable": false,
      "openNewTab": false,
      "borderArticle": "border-color:#0074D9;",
      "borderTopArticle": "border-top-color:#0074D9;",
      "imageListing": "/sites/globe.com.ph/files/content/dam/globe/brie/AboutUs/newsroom/partners/expedock-funding-modernize-freight-forwarding/newsroom-partners-expedock-raises-usd15.5m-thumbnail-listing.jpg",
      "articleUrl": "https://www.globe.com.ph/about-us/newsroom/partners/expedock-funding-modernize-freight-forwarding.html",
      "columnType": "articles--type-3",
      "typeListing": "article",
      "imageMobile": "/sites/globe.com.ph/files/content/dam/globe/brie/AboutUs/newsroom/partners/expedock-funding-modernize-freight-forwarding/newsroom-partners-expedock-raises-usd15.5m-primary-thumbnail-m.jpg",
      "imageDesktop": "/sites/globe.com.ph/files/content/dam/globe/brie/AboutUs/newsroom/partners/expedock-funding-modernize-freight-forwarding/newsroom-partners-expedock-raises-usd15.5m-primary-thumbnail-d.jpg",
      "description": "Tech startup Expedock, one of the portfolio companies under Kickstart Ventures, Inc., has raised a total USD$17.5M funding to modernize freight forwarding. ",
      "datePosted": "Aug 18, 2022 | 10:30 AM",
      "titleFromTag": "Partners"
    },
    {
      "title": "Globe to Develop More Digital Solutions in Support of Government’s Digitalization Goals",
      "nonclickable": false,
      "openNewTab": false,
      "borderArticle": "border-color:#1C91C5;",
      "borderTopArticle": "border-top-color:#1C91C5;",
      "imageListing": "/sites/globe.com.ph/files/content/dam/globe/brie/AboutUs/newsroom/corporate/799-permits-1q-2021-new-towers/default-corporate-9-thumbnail-listing.jpg",
      "articleUrl": "https://www.globe.com.ph/about-us/newsroom/corporate/more-digital-solutions-in-support-of-govts-digitalization-goals.html",
      "columnType": "articles--type-3",
      "typeListing": "article",
      "imageMobile": "/sites/globe.com.ph/files/content/dam/globe/brie/AboutUs/newsroom/corporate/799-permits-1q-2021-new-towers/default-corporate-9-primary-thumbnail-m.jpg",
      "imageDesktop": "/sites/globe.com.ph/files/content/dam/globe/brie/AboutUs/newsroom/corporate/799-permits-1q-2021-new-towers/default-corporate-9-primary-thumbnail-d.jpg",
      "description": "Globe is keen to develop more innovative solutions towards Filipinos’ digital enablement in line with the Marcos administration’s digitalization goals.",
      "datePosted": "Aug 18, 2022 | 09:31 AM",
      "titleFromTag": "Corporate"
    }
  ]
}
