{
  "status": 200,
  "page": 55,
  "totalPage": 298,
  "range": "649-660",
  "total": 3573,
  "result": [
    {
      "title": "KonsultaMD, Watsons Partner for FREE 24/7 Quality Consumer Healthcare",
      "nonclickable": false,
      "openNewTab": false,
      "borderArticle": "border-color:#0074D9;",
      "borderTopArticle": "border-top-color:#0074D9;",
      "imageListing": "/sites/globe.com.ph/files/content/dam/globe/brie/AboutUs/newsroom/common/default-4/default-consumer-3-thumbnail-listing.jpg",
      "articleUrl": "https://www.globe.com.ph/about-us/newsroom/consumer/konsultamd-watsons-partners-for-free-247-quality-consumer-healthcare.html",
      "columnType": "articles--type-3",
      "typeListing": "article",
      "imageMobile": "/sites/globe.com.ph/files/content/dam/globe/brie/AboutUs/newsroom/common/default-4/default-consumer-3-primary-thumbnail-m.jpg",
      "imageDesktop": "/sites/globe.com.ph/files/content/dam/globe/brie/AboutUs/newsroom/common/default-4/default-consumer-3-primary-thumbnail-d.jpg",
      "description": "Telemedicine service platform KonsultaMD and health & beauty store chain Watsons Philippines have partnered to give FREE healthcare to Filipinos nationwide. ",
      "datePosted": "Aug 16, 2022 | 04:38 PM",
      "titleFromTag": "Consumer"
    },
    {
      "title": "Globe Extends Personalized Service to More Broadband Customers through Viber Communities",
      "nonclickable": false,
      "openNewTab": false,
      "borderArticle": "border-color:#0074D9;",
      "borderTopArticle": "border-top-color:#0074D9;",
      "imageListing": "/sites/globe.com.ph/files/content/dam/globe/brie/AboutUs/newsroom/consumer/personalized-service-more-broadband-customers-viber-communities/Extends-Personalized-Service-Thumbnail-Listing.jpg",
      "articleUrl": "https://www.globe.com.ph/about-us/newsroom/consumer/personalized-service-more-broadband-customers-viber-communities.html",
      "columnType": "articles--type-3",
      "typeListing": "article",
      "imageMobile": "/sites/globe.com.ph/files/content/dam/globe/brie/AboutUs/newsroom/consumer/personalized-service-more-broadband-customers-viber-communities/Extends-Personalized-Service-Primary-Thumbnail-M.jpg",
      "imageDesktop": "/sites/globe.com.ph/files/content/dam/globe/brie/AboutUs/newsroom/consumer/personalized-service-more-broadband-customers-viber-communities/Extends-Personalized-Service-Primary-Thumbnail-D.jpg",
      "description": "Globe At Home sets up more Viber communities to reach out to more broadband customers.",
      "datePosted": "Aug 16, 2022 | 12:00 PM",
      "titleFromTag": "Consumer"
    },
    {
      "title": "Globe Opens New Portal to Help Parents Stop Cyberbullying, Intensifies Online Safety Efforts ",
      "nonclickable": false,
      "openNewTab": false,
      "borderArticle": "border-color:#0074D9;",
      "borderTopArticle": "border-top-color:#0074D9;",
      "imageListing": "/sites/globe.com.ph/files/content/dam/globe/brie/AboutUs/newsroom/corporate/default-3-business/default-business-3-thumbnail-listing.jpg",
      "articleUrl": "https://www.globe.com.ph/about-us/newsroom/citizenship/new-portal-help-parents-stop-cyberbullying.html",
      "columnType": "articles--type-3",
      "typeListing": "article",
      "imageMobile": "/sites/globe.com.ph/files/content/dam/globe/brie/AboutUs/newsroom/corporate/default-3-business/default-business-3-primary-thumbnail-m.jpg",
      "imageDesktop": "/sites/globe.com.ph/files/content/dam/globe/brie/AboutUs/newsroom/corporate/default-3-business/default-business-3-primary-thumbnail-d.jpg",
      "description": "To help equip families on protection from online risks, Globe has launched a web portal that provides practical info on cyber safety and online responsibility. ",
      "datePosted": "Aug 15, 2022 | 03:06 PM",
      "titleFromTag": "Citizenship"
    },
    {
      "title": "Get Globe’s Latest Innovation: All-in-One Platinum ONE Plan for Best Connectivity and Customer Care Experience",
      "nonclickable": false,
      "openNewTab": false,
      "borderArticle": "border-color:#0074D9;",
      "borderTopArticle": "border-top-color:#0074D9;",
      "imageListing": "/sites/globe.com.ph/files/content/dam/globe/brie/About-us/Newsroom/image/Consumer/081522/newsroom-consumer-platinum-one-plan-experience-thumbnail-listing.jpg",
      "articleUrl": "https://www.globe.com.ph/about-us/newsroom/consumer/latest-innovation-platinum-oneplan-best-connectivity-customer-care.html",
      "columnType": "articles--type-3",
      "typeListing": "article",
      "imageMobile": "/sites/globe.com.ph/files/content/dam/globe/brie/About-us/Newsroom/image/Consumer/081522/newsroom-consumer-platinum-one-plan-experience-primary-thumbnail-m.jpg",
      "imageDesktop": "/sites/globe.com.ph/files/content/dam/globe/brie/About-us/Newsroom/image/Consumer/081522/newsroom-consumer-platinum-one-plan-experience-primary-thumbnail-d.jpg",
      "description": "Globe introduces the all-in-one Platinum ONE Plan which combines the best mobile and home WiFi network connection with unparalleled priority care.",
      "datePosted": "Aug 15, 2022 | 12:00 PM",
      "titleFromTag": "Consumer"
    },
    {
      "title": "Morissette Releases Bisaya Single ‘Undangon Ta Ni’",
      "nonclickable": false,
      "openNewTab": false,
      "borderArticle": "border-color:#0074D9;",
      "borderTopArticle": "border-top-color:#0074D9;",
      "imageListing": "/sites/globe.com.ph/files/content/dam/globe/brie/About-us/Newsroom/image/Partners/081122/newsroom-partners-morissette-undangon-ta-ni-thumbnail-listing.jpg",
      "articleUrl": "https://www.globe.com.ph/about-us/newsroom/partners/morissette-releases-bisaya-single-undangon-ta-ni.html",
      "columnType": "articles--type-3",
      "typeListing": "article",
      "imageMobile": "/sites/globe.com.ph/files/content/dam/globe/brie/About-us/Newsroom/image/Partners/081122/newsroom-partners-morissette-undangon-ta-ni-primary-thumbnail-m.jpg",
      "imageDesktop": "/sites/globe.com.ph/files/content/dam/globe/brie/About-us/Newsroom/image/Partners/081122/newsroom-partners-morissette-undangon-ta-ni-primary-thumbnail-d.jpg",
      "description": "Asia’s Phoenix Morissette releases her new Bisaya single “Undangon Ta Ni.”",
      "datePosted": "Aug 11, 2022 | 05:00 PM",
      "titleFromTag": "Partners"
    },
    {
      "title": "  Globe Brings First World Internet Experience to Every Filipino with Affordable TMBayan Fiber WiFi",
      "nonclickable": false,
      "openNewTab": false,
      "borderArticle": "border-color:#0074D9;",
      "borderTopArticle": "border-top-color:#0074D9;",
      "imageListing": "/sites/globe.com.ph/files/content/dam/globe/brie/About-us/Newsroom/image/Consumer/TMBayan-Fiber-WiFi-1st-World-Internet-Experience-to-Every-Filipino/newsroom-consumer-affordable-tmbayan-fiber-wifi-thumbnail-listing.jpg",
      "articleUrl": "https://www.globe.com.ph/about-us/newsroom/consumer/first-world-internet-affordable-tmbayan-fiber-wifi.html",
      "columnType": "articles--type-3",
      "typeListing": "article",
      "imageMobile": "/sites/globe.com.ph/files/content/dam/globe/brie/About-us/Newsroom/image/Consumer/TMBayan-Fiber-WiFi-1st-World-Internet-Experience-to-Every-Filipino/newsroom-consumer-affordable-tmbayan-fiber-wifi-primary-thumbnail-m.jpg",
      "imageDesktop": "/sites/globe.com.ph/files/content/dam/globe/brie/About-us/Newsroom/image/Consumer/TMBayan-Fiber-WiFi-1st-World-Internet-Experience-to-Every-Filipino/newsroom-consumer-affordable-tmbayan-fiber-wifi-primary-banner-d.jpg",
      "description": "Globe launches TMBayan Fiber WiFi, an affordable unlimited prepaid fiber WiFi.",
      "datePosted": "Aug 11, 2022 | 12:00 PM",
      "titleFromTag": "Consumer"
    },
    {
      "title": "KonsultaMD: Free Mental Help Support Is Just a Chat Away",
      "nonclickable": false,
      "openNewTab": false,
      "borderArticle": "border-color:#0074D9;",
      "borderTopArticle": "border-top-color:#0074D9;",
      "imageListing": "/sites/globe.com.ph/files/content/dam/globe/brie/About-us/Newsroom/image/Consumer/081122/newsroom-consumer-konsultamd-free-mental-support-thumbnail-listing.jpg",
      "articleUrl": "https://www.globe.com.ph/about-us/newsroom/consumer/konsultamd-free-mental-health-support.html",
      "columnType": "articles--type-3",
      "typeListing": "article",
      "imageMobile": "/sites/globe.com.ph/files/content/dam/globe/brie/About-us/Newsroom/image/Consumer/081122/newsroom-consumer-konsultamd-free-mental-support-primary-thumbnail-m.jpg",
      "imageDesktop": "/sites/globe.com.ph/files/content/dam/globe/brie/About-us/Newsroom/image/Consumer/081122/newsroom-consumer-konsultamd-free-mental-support-primary-thumbnail-d.jpg",
      "description": "KonsultaMD further expanded its chat features to include free mental health support for Filipinos.",
      "datePosted": "Aug 11, 2022 | 12:00 PM",
      "titleFromTag": "Consumer"
    },
    {
      "title": "Globe’s Retail Innovation EasyHub Now in Calbayog City",
      "nonclickable": false,
      "openNewTab": false,
      "borderArticle": "border-color:#0074D9;",
      "borderTopArticle": "border-top-color:#0074D9;",
      "imageListing": "/sites/globe.com.ph/files/content/dam/globe/brie/About-us/Newsroom/image/Consumer/calbayog-081122/newsroom-consumer-retail-innovation-easyhub-calbayog-city-thumbnail-listing.jpg",
      "articleUrl": "https://www.globe.com.ph/about-us/newsroom/consumer/retail-innovation-easyhub-calbayog-city.html",
      "columnType": "articles--type-3",
      "typeListing": "article",
      "imageMobile": "/sites/globe.com.ph/files/content/dam/globe/brie/About-us/Newsroom/image/Consumer/calbayog-081122/newsroom-consumer-retail-innovation-easyhub-calbayog-city-primary-thumbnail-m.jpg",
      "imageDesktop": "/sites/globe.com.ph/files/content/dam/globe/brie/About-us/Newsroom/image/Consumer/calbayog-081122/newsroom-consumer-retail-innovation-easyhub-calbayog-city-thumbnail-d.jpg",
      "description": "Globe's retail innovation EasyHub expands its reach and opened the one-stop shop in Calbayog City, Samar on August 5, 2022. ",
      "datePosted": "Aug 11, 2022 | 12:00 PM",
      "titleFromTag": "Consumer"
    },
    {
      "title": "#RaceToZero: Globe Secures Energy Management System ISO certification",
      "nonclickable": false,
      "openNewTab": false,
      "borderArticle": "border-color:#1C91C5;",
      "borderTopArticle": "border-top-color:#1C91C5;",
      "imageListing": "/sites/globe.com.ph/files/content/dam/globe/brie/AboutUs/newsroom/common/default-sustainability-1/default-sustainability-2-thumbnail-listing.jpg",
      "articleUrl": "https://www.globe.com.ph/about-us/newsroom/sustainability/globe-secures-energy-management-system-iso-certification.html",
      "columnType": "articles--type-3",
      "typeListing": "article",
      "imageMobile": "/sites/globe.com.ph/files/content/dam/globe/brie/AboutUs/newsroom/common/default-sustainability-1/default-sustainability-2-primary-thumbnail-m.jpg",
      "imageDesktop": "/sites/globe.com.ph/files/content/dam/globe/brie/AboutUs/newsroom/common/default-sustainability-1/default-sustainability-2-primary-thumbnail-d.jpg",
      "description": "Globe has secured the ISO 50001:2018 certification for Energy Management System in line with its strategy to achieve Net Zero greenhouse gas emissions by 2050.",
      "datePosted": "Aug 11, 2022 | 11:49 AM",
      "titleFromTag": "Sustainability"
    },
    {
      "title": "STI West Negros University is Future-Ready with Globe",
      "nonclickable": false,
      "openNewTab": false,
      "borderArticle": "border-color:#0074D9;",
      "borderTopArticle": "border-top-color:#0074D9;",
      "imageListing": "/sites/globe.com.ph/files/content/dam/globe/brie/AboutUs/newsroom/business/sti-west-negros-university-is-future-ready-with-globe-business/sg-sti-listing-thumbnail.jpg",
      "articleUrl": "https://www.globe.com.ph/about-us/newsroom/business/sti-west-negros-univ-future-ready-with-globe-business.html",
      "columnType": "articles--type-3",
      "typeListing": "article",
      "imageMobile": "/sites/globe.com.ph/files/content/dam/globe/brie/AboutUs/newsroom/business/sti-west-negros-university-is-future-ready-with-globe-business/sg-sti-primary-banner-m.jpg",
      "imageDesktop": "/sites/globe.com.ph/files/content/dam/globe/brie/AboutUs/newsroom/business/sti-west-negros-university-is-future-ready-with-globe-business/sg-sti-primary-thumbnail.jpg",
      "description": "STI West Negros University partners with Globe Business to deliver quality education through connectivity and privacy solutions.",
      "datePosted": "Aug 09, 2022 | 06:13 PM",
      "titleFromTag": "Business"
    },
    {
      "title": "As Millions Struggle with Involuntary Hunger, Globe and Partners Launch the Hapag Movement",
      "nonclickable": false,
      "openNewTab": false,
      "borderArticle": "border-color:#1C91C5;",
      "borderTopArticle": "border-top-color:#1C91C5;",
      "imageListing": "/sites/globe.com.ph/files/content/dam/globe/brie/AboutUs/newsroom/sustainability/default-sustainability-4/default-sustainability-4-thumbnail-listing.jpg",
      "articleUrl": "https://www.globe.com.ph/about-us/newsroom/sustainability/globe-partners-launch-the-hapag-movement.html",
      "columnType": "articles--type-3",
      "typeListing": "article",
      "imageMobile": "/sites/globe.com.ph/files/content/dam/globe/brie/AboutUs/newsroom/sustainability/default-sustainability-4/default-sustainability-4-primary-thumbnail-m.jpg",
      "imageDesktop": "/sites/globe.com.ph/files/content/dam/globe/brie/AboutUs/newsroom/sustainability/default-sustainability-4/default-sustainability-4-primary-thumbnail-d.jpg",
      "description": "Globe launches the Hapag Movement to alleviate involuntary hunger in the Philippines.",
      "datePosted": "Aug 09, 2022 | 12:24 PM",
      "titleFromTag": "Sustainability"
    },
    {
      "title": "Be Ready To Discover Bigger Things With Your First E-Wallet, GCash Jr.",
      "nonclickable": false,
      "openNewTab": false,
      "borderArticle": "border-color:#0074D9;",
      "borderTopArticle": "border-top-color:#0074D9;",
      "imageListing": "/sites/globe.com.ph/files/content/dam/globe/brie/About-us/Newsroom/image/Consumer/080922/newsroom-consumer-discover-e-wallet-gcash-thumbnail-listing.jpg",
      "articleUrl": "https://www.globe.com.ph/about-us/newsroom/consumer/discover-bigger-things-first-e-wallet-gcash-junior.html",
      "columnType": "articles--type-3",
      "typeListing": "article",
      "imageMobile": "/sites/globe.com.ph/files/content/dam/globe/brie/About-us/Newsroom/image/Consumer/080922/newsroom-consumer-discover-e-wallet-gcash-primary-thumbnail-m.jpg",
      "imageDesktop": "/sites/globe.com.ph/files/content/dam/globe/brie/About-us/Newsroom/image/Consumer/080922/newsroom-consumer-discover-e-wallet-gcash-primary-thumbnail-d.jpg",
      "description": "GCash introduces GCash Jr., the newest e-wallet in the GCash app for minors aged 7 to 17 years old.",
      "datePosted": "Aug 09, 2022 | 12:00 PM",
      "titleFromTag": "Consumer"
    }
  ]
}
