{
  "status": 200,
  "page": 56,
  "totalPage": 298,
  "range": "661-672",
  "total": 3573,
  "result": [
    {
      "title": "Get Connected in 24 Hours: Globe At Home Redefines Customer Experience with New GFiber Online Channel",
      "nonclickable": false,
      "openNewTab": false,
      "borderArticle": "border-color:#0074D9;",
      "borderTopArticle": "border-top-color:#0074D9;",
      "imageListing": "/sites/globe.com.ph/files/content/dam/globe/brie/AboutUs/newsroom/consumer/new-gfiber-online-channel/final-asset/get-connected-in-24-hours-thumbnail-listing.jpg",
      "articleUrl": "https://www.globe.com.ph/about-us/newsroom/consumer/new-gfiber-online-channel.html",
      "columnType": "articles--type-3",
      "typeListing": "article",
      "imageMobile": "/sites/globe.com.ph/files/content/dam/globe/brie/AboutUs/newsroom/consumer/new-gfiber-online-channel/final-asset/get-connected-in-24-hours-primary-thumbnail-m.jpg",
      "imageDesktop": "/sites/globe.com.ph/files/content/dam/globe/brie/AboutUs/newsroom/consumer/new-gfiber-online-channel/final-asset/get-connected-in-24-hours-primary-thumbnail-d.jpg",
      "description": "Globe At Home launches new GFiber online channel for faster internet application and installation. ",
      "datePosted": "Aug 08, 2022 | 12:00 PM",
      "titleFromTag": "Consumer"
    },
    {
      "title": "Globe Embarks on IT Modernization, Hurdles First Milestone in Platform Refresh for Improved Customer Experience",
      "nonclickable": false,
      "openNewTab": false,
      "borderArticle": "border-color:#1C91C5;",
      "borderTopArticle": "border-top-color:#1C91C5;",
      "imageListing": "/sites/globe.com.ph/files/content/dam/globe/brie/AboutUs/newsroom/corporate/globe-completes-sites-upgrades/corporate-default-6-thumbnail-listing.jpg",
      "articleUrl": "https://www.globe.com.ph/about-us/newsroom/corporate/it-modernization-platform-refresh-improved-customer-experience.html",
      "columnType": "articles--type-3",
      "typeListing": "article",
      "imageMobile": "/sites/globe.com.ph/files/content/dam/globe/brie/AboutUs/newsroom/corporate/globe-completes-sites-upgrades/corporate-default-6-primary-thumbnail-m.jpg",
      "imageDesktop": "/sites/globe.com.ph/files/content/dam/globe/brie/AboutUs/newsroom/corporate/globe-completes-sites-upgrades/corporate-default-6-primary-thumbnail-d.jpg",
      "description": "Globe upgraded its IT platforms and cell sites to 4G/LTE as part of its ongoing IT modernization efforts.",
      "datePosted": "Aug 08, 2022 | 09:31 AM",
      "titleFromTag": "Corporate"
    },
    {
      "title": " Globe’s Data Privacy Book for Children among Best Reads in 7th National Children’s Book Awards",
      "nonclickable": false,
      "openNewTab": false,
      "borderArticle": "border-color:#1C91C5;",
      "borderTopArticle": "border-top-color:#1C91C5;",
      "imageListing": "/sites/globe.com.ph/files/content/dam/globe/brie/AboutUs/newsroom/common/default-sustainability-1/default-sustainability-1-thumbnail-listing.jpg",
      "articleUrl": "https://www.globe.com.ph/about-us/newsroom/sustainability/safe-space-among-best-reads-national-childrens-books-awards.html",
      "columnType": "articles--type-3",
      "typeListing": "article",
      "imageMobile": "/sites/globe.com.ph/files/content/dam/globe/brie/AboutUs/newsroom/common/default-sustainability-1/default-sustainability-1-top-banner-m.jpg",
      "imageDesktop": "/sites/globe.com.ph/files/content/dam/globe/brie/AboutUs/newsroom/common/default-sustainability-1/default-sustainability-1-primary-banner-d.jpg",
      "description": "“Safe Space: A Kid’s Guide to Data Privacy” won as one of the best reads at the 7th National Children’s Book Awards.\r\n\r\n",
      "datePosted": "Aug 05, 2022 | 10:53 AM",
      "titleFromTag": "Sustainability"
    },
    {
      "title": "Globe Sees Greater Synergy, Collaboration Towards Digital Enablement as Part of Presidential Advisory Council",
      "nonclickable": false,
      "openNewTab": false,
      "borderArticle": "border-color:#1C91C5;",
      "borderTopArticle": "border-top-color:#1C91C5;",
      "imageListing": "/sites/globe.com.ph/files/content/dam/globe/brie/About-us/Newsroom/image/Corporate/080522/newsroom-corporate-greater-synergy-advisory-council-thumbnail-listing.jpg",
      "articleUrl": "https://www.globe.com.ph/about-us/newsroom/corporate/greater-synergy-collaboration-digital-enablement.html",
      "columnType": "articles--type-3",
      "typeListing": "article",
      "imageMobile": "/sites/globe.com.ph/files/content/dam/globe/brie/About-us/Newsroom/image/Corporate/080522/newsroom-corporate-greater-synergy-advisory-council-primary-thumbnail-m.jpg",
      "imageDesktop": "/sites/globe.com.ph/files/content/dam/globe/brie/About-us/Newsroom/image/Corporate/080522/newsroom-corporate-greater-synergy-advisory-council-primary-thumbnail-d.jpg",
      "description": "Globe’s participation in the Private Sector Advisory Council strengthened union with the government in pursuit of a shared aspiration for Filipinos.",
      "datePosted": "Aug 05, 2022 | 09:31 AM",
      "titleFromTag": "Corporate"
    },
    {
      "title": "Globe, Eastern Communications, InfiniVAN Kickstart PH’s Longest Submarine Fiber Cable Network",
      "nonclickable": false,
      "openNewTab": false,
      "borderArticle": "border-color:#0074D9;",
      "borderTopArticle": "border-top-color:#0074D9;",
      "imageListing": "/sites/globe.com.ph/files/content/dam/globe/brie/AboutUs/newsroom/corporate/ph-longest-submarine-fiber-cable-network/newsroom-corporate-infinivan-longest-submarine-fiber-thumbnail-listing.jpg",
      "articleUrl": "https://www.globe.com.ph/about-us/newsroom/corporate/ph-longest-submarine-fiber-cable-network.html",
      "columnType": "articles--type-3",
      "typeListing": "article",
      "imageMobile": "/sites/globe.com.ph/files/content/dam/globe/brie/AboutUs/newsroom/corporate/ph-longest-submarine-fiber-cable-network/newsroom-corporate-infinivan-longest-submarine-fiber-primary-thumbnail-m.jpg",
      "imageDesktop": "/sites/globe.com.ph/files/content/dam/globe/brie/AboutUs/newsroom/corporate/ph-longest-submarine-fiber-cable-network/newsroom-corporate-infinivan-longest-submarine-fiber-primary-thumbnail-d.jpg",
      "description": "Globe, Eastern Communications, and InfiniVAN kickstarted the deployment of fiber cables to build the country’s longest submarine fiber cable network. ",
      "datePosted": "Aug 04, 2022 | 02:29 PM",
      "titleFromTag": "Corporate"
    },
    {
      "title": "Globe Lauds Law vs Online Child Sexual Abuse, to Champion Private Sector Role in Enactment",
      "nonclickable": false,
      "openNewTab": false,
      "borderArticle": "border-color:#0074D9;",
      "borderTopArticle": "border-top-color:#0074D9;",
      "imageListing": "/sites/globe.com.ph/files/content/dam/globe/brie/AboutUs/newsroom/corporate/largest-ph-publicly-listed-telco-digital-solutions-group/Corporate-globe-thumbnail-listing.jpg",
      "articleUrl": "https://www.globe.com.ph/about-us/newsroom/citizenship/globe-lauds-vs-online-child-sexual-abuse.html",
      "columnType": "articles--type-3",
      "typeListing": "article",
      "imageMobile": "/sites/globe.com.ph/files/content/dam/globe/brie/AboutUs/newsroom/corporate/largest-ph-publicly-listed-telco-digital-solutions-group/Corporate-globe-primary-thumbnail-m.jpg",
      "imageDesktop": "/sites/globe.com.ph/files/content/dam/globe/brie/AboutUs/newsroom/corporate/largest-ph-publicly-listed-telco-digital-solutions-group/Corporate-globe-primary-thumbnail-d.jpg",
      "description": "Globe has long been campaigning for online child safety & has vowed to fully support implementation of OSAEC law by championing private sector participation.",
      "datePosted": "Aug 04, 2022 | 12:46 PM",
      "titleFromTag": "Citizenship"
    },
    {
      "title": "Globe ‘Good Gaming’ Esports Platform Promotes Responsible, Inclusive Gaming",
      "nonclickable": false,
      "openNewTab": false,
      "borderArticle": "border-color:#0074D9;",
      "borderTopArticle": "border-top-color:#0074D9;",
      "imageListing": "/sites/globe.com.ph/files/content/dam/globe/brie/About-us/Newsroom/image/Consumer/080322/newsroom-consumer-esports-responsible-inclusive-gaming-thumbnail-listing.jpg",
      "articleUrl": "https://www.globe.com.ph/about-us/newsroom/consumer/globe-good-gaming-esports-platform-promotes-responsible-inclusive-gaming.html",
      "columnType": "articles--type-3",
      "typeListing": "article",
      "imageMobile": "/sites/globe.com.ph/files/content/dam/globe/brie/About-us/Newsroom/image/Consumer/080322/newsroom-consumer-esports-responsible-inclusive-gaming-primary-thumbnail-m.jpg",
      "imageDesktop": "/sites/globe.com.ph/files/content/dam/globe/brie/About-us/Newsroom/image/Consumer/080322/newsroom-consumer-esports-responsible-inclusive-gaming-primary-thumbnail-d.jpg",
      "description": "Globe’s ‘Game Well-Played’ campaign bands together gamers of all levels from all over the country to promote responsible, inclusive gaming.",
      "datePosted": "Aug 03, 2022 | 12:00 PM",
      "titleFromTag": "Consumer"
    },
    {
      "title": "Globe Resumes FREE Call, Charging, WiFi Station Ops in Abra",
      "nonclickable": false,
      "openNewTab": false,
      "borderArticle": "border-color:#1C91C5;",
      "borderTopArticle": "border-top-color:#1C91C5;",
      "imageListing": "/sites/globe.com.ph/files/content/dam/globe/brie/AboutUs/newsroom/common/default-3/corporate-default-7-thumbnail-listing.jpg",
      "articleUrl": "https://www.globe.com.ph/about-us/newsroom/sustainability/globe-resumes-free-call-charging-wifi-stations-ops-abra.html",
      "columnType": "articles--type-3",
      "typeListing": "article",
      "imageMobile": "/sites/globe.com.ph/files/content/dam/globe/brie/AboutUs/newsroom/common/default-3/corporate-default-7-primary-thumbnail-m.jpg",
      "imageDesktop": "/sites/globe.com.ph/files/content/dam/globe/brie/AboutUs/newsroom/common/default-3/corporate-default-7-primary-thumbnail-d.jpg",
      "description": "Globe’s Libreng Tawag, Libreng Charging and Libreng WiFi Stations resumes in Abra.",
      "datePosted": "Aug 02, 2022 | 03:24 PM",
      "titleFromTag": "Sustainability"
    },
    {
      "title": "Globe Seeks More Property Partners in Push for Built-in Broadband, Telco Space in Developments",
      "nonclickable": false,
      "openNewTab": false,
      "borderArticle": "border-color:#0074D9;",
      "borderTopArticle": "border-top-color:#0074D9;",
      "imageListing": "/sites/globe.com.ph/files/content/dam/globe/brie/AboutUs/newsroom/business/globe-seeks-more-property-partners-in-push-for-built-in-broadband/eg-newsroom-listing-thumbnail.jpg",
      "articleUrl": "https://www.globe.com.ph/about-us/newsroom/business/globe-seeks-more-property-partners-in-push-for-built-in-broadband.html",
      "columnType": "articles--type-3",
      "typeListing": "article",
      "imageMobile": "/sites/globe.com.ph/files/content/dam/globe/brie/AboutUs/newsroom/business/globe-seeks-more-property-partners-in-push-for-built-in-broadband/eg-newsroom-primary-banner-m.jpg",
      "imageDesktop": "/sites/globe.com.ph/files/content/dam/globe/brie/AboutUs/newsroom/business/globe-seeks-more-property-partners-in-push-for-built-in-broadband/eg-newsroom-primary-thumbnail.jpg",
      "description": "At Globe’s RISE to the Next Level, Globe President and CEO Ernest Cu said the company is looking to partner with like-minded property developers.",
      "datePosted": "Aug 02, 2022 | 12:00 PM",
      "titleFromTag": "Business"
    },
    {
      "title": "Morissette Releases New Single “Power”",
      "nonclickable": false,
      "openNewTab": false,
      "borderArticle": "border-color:#0074D9;",
      "borderTopArticle": "border-top-color:#0074D9;",
      "imageListing": "/sites/globe.com.ph/files/content/dam/globe/brie/About-us/Newsroom/image/Partners/0801225PM/newsroom-partners-morissette-new-single-power-thumbnail-listing.jpg",
      "articleUrl": "https://www.globe.com.ph/about-us/newsroom/partners/asia-phoenix-morisette-releases-new-single-power.html",
      "columnType": "articles--type-3",
      "typeListing": "article",
      "imageMobile": "/sites/globe.com.ph/files/content/dam/globe/brie/About-us/Newsroom/image/Partners/0801225PM/newsroom-partners-morissette-new-single-power-primary-thumbnail-m.jpg",
      "imageDesktop": "/sites/globe.com.ph/files/content/dam/globe/brie/About-us/Newsroom/image/Partners/0801225PM/newsroom-partners-morissette-new-single-power-primary-thumbnail-d.jpg",
      "description": "Asia’s Phoenix Morissette pulled out all the stops for her newest single “Power”.",
      "datePosted": "Aug 01, 2022 | 05:00 PM",
      "titleFromTag": "Partners"
    },
    {
      "title": "Crackdown on Telco Cable Theft Nets 13 Arrests in a Week",
      "nonclickable": false,
      "openNewTab": false,
      "borderArticle": "border-color:#0074D9;",
      "borderTopArticle": "border-top-color:#0074D9;",
      "imageListing": "/sites/globe.com.ph/files/content/dam/globe/brie/AboutUs/newsroom/corporate/crackdown-on-telco-cable-theft-nets-13-arrests-in-a-week/newsroom-corporate-cable-theft-13-arrests-thumbnail-listing.jpg",
      "articleUrl": "https://www.globe.com.ph/about-us/newsroom/corporate/crackdown-on-telco-cable-theft-nets-13-arrests-in-a-week.html",
      "columnType": "articles--type-3",
      "typeListing": "article",
      "imageMobile": "/sites/globe.com.ph/files/content/dam/globe/brie/AboutUs/newsroom/corporate/crackdown-on-telco-cable-theft-nets-13-arrests-in-a-week/newsroom-corporate-cable-theft-13-arrests-primary-thumbnail-m.jpg",
      "imageDesktop": "/sites/globe.com.ph/files/content/dam/globe/brie/AboutUs/newsroom/corporate/crackdown-on-telco-cable-theft-nets-13-arrests-in-a-week/newsroom-corporate-cable-theft-13-arrests-primary-thumbnail-d.jpg",
      "description": "Globe continues its campaign against telco cable theft with 13 arrests in a week.",
      "datePosted": "Aug 01, 2022 | 04:00 PM",
      "titleFromTag": "Corporate"
    },
    {
      "title": "Globe to Distribute Food Packs, Hygiene Kits in Quake-Hit Areas",
      "nonclickable": false,
      "openNewTab": false,
      "borderArticle": "border-color:#1C91C5;",
      "borderTopArticle": "border-top-color:#1C91C5;",
      "imageListing": "/sites/globe.com.ph/files/content/dam/globe/brie/AboutUs/newsroom/sustainability/default-sustainability-4/default-sustainability-4-thumbnail-listing.jpg",
      "articleUrl": "https://www.globe.com.ph/about-us/newsroom/sustainability/globe-to-distribute-food-packs-hygiene-kits-in-quake-hit-areas.html",
      "columnType": "articles--type-3",
      "typeListing": "article",
      "imageMobile": "/sites/globe.com.ph/files/content/dam/globe/brie/AboutUs/newsroom/sustainability/default-sustainability-4/default-sustainability-4-primary-thumbnail-m.jpg",
      "imageDesktop": "/sites/globe.com.ph/files/content/dam/globe/brie/AboutUs/newsroom/sustainability/default-sustainability-4/default-sustainability-4-primary-thumbnail-d.jpg",
      "description": "Globe Group, together with PureGo, is set to deliver food packs and hygiene kits in Bangued, Abra and Vigan, Ilocos Sur.",
      "datePosted": "Aug 01, 2022 | 12:24 PM",
      "titleFromTag": "Sustainability"
    }
  ]
}
