{
  "status": 200,
  "page": 57,
  "totalPage": 298,
  "range": "673-684",
  "total": 3573,
  "result": [
    {
      "title": "  GOMO Launches ‘Mo Creds Donation Drive for Abra Quake Victims",
      "nonclickable": false,
      "openNewTab": false,
      "borderArticle": "border-color:#0074D9;",
      "borderTopArticle": "border-top-color:#0074D9;",
      "imageListing": "/sites/globe.com.ph/files/content/dam/globe/brie/AboutUs/newsroom/common/default-4/default-consumer-3-thumbnail-listing.jpg",
      "articleUrl": "https://www.globe.com.ph/about-us/newsroom/consumer/gomo-launches-mo-creds-donation-drive.html",
      "columnType": "articles--type-3",
      "typeListing": "article",
      "imageMobile": "/sites/globe.com.ph/files/content/dam/globe/brie/AboutUs/newsroom/common/default-4/default-consumer-3-primary-thumbnail-m.jpg",
      "imageDesktop": "/sites/globe.com.ph/files/content/dam/globe/brie/AboutUs/newsroom/common/default-4/default-consumer-3-primary-thumbnail-d.jpg",
      "description": "GOMO provides relief efforts to Abra earthquake victims through ‘Mo Creds.\r\n\r\n",
      "datePosted": "Aug 01, 2022 | 12:00 PM",
      "titleFromTag": "Consumer"
    },
    {
      "title": "The Philippine Huawei Ads Summit — Introducing a New Marketing Resource That Tech-Advertisers Such As AdSpark Inc. Could Leverage On.",
      "nonclickable": false,
      "openNewTab": false,
      "borderArticle": "border-color:#0074D9;",
      "borderTopArticle": "border-top-color:#0074D9;",
      "imageListing": "/sites/globe.com.ph/files/content/dam/globe/brie/About-us/Newsroom/image/Partners/080122/newsroom-partners-Huawei-introduce-new-marketing-thumbnail-listing.jpg",
      "articleUrl": "https://www.globe.com.ph/about-us/newsroom/partners/philippine-huawei-ads-summit-introducing-a-new-marketing-resource-that-tech-advertisers-such-as-adspark-inc-could-leverage-on.html",
      "columnType": "articles--type-3",
      "typeListing": "article",
      "imageMobile": "/sites/globe.com.ph/files/content/dam/globe/brie/About-us/Newsroom/image/Partners/080122/newsroom-partners-Huawei-introduce-new-marketing-primary-thumbnail-m.jpg",
      "imageDesktop": "/sites/globe.com.ph/files/content/dam/globe/brie/About-us/Newsroom/image/Partners/080122/newsroom-partners-Huawei-introduce-new-marketing-primary-thumbnail-d.jpg",
      "description": "Capabilities within the HUAWEI ecosystem and its new self-serve ads platform was introduced on the first-ever Philippine HUAWEI Ads Summit.",
      "datePosted": "Aug 01, 2022 | 10:35 AM",
      "titleFromTag": "Partners"
    },
    {
      "title": "Maritime Academy of Asia and the Pacific Ready For  Hybrid Future with Globe",
      "nonclickable": false,
      "openNewTab": false,
      "borderArticle": "border-color:#0074D9;",
      "borderTopArticle": "border-top-color:#0074D9;",
      "imageListing": "/sites/globe.com.ph/files/content/dam/globe/brie/AboutUs/newsroom/business/maap-ready-for--hybrid-future-with-globe/sg-maritime-listing-thumbnail.jpg",
      "articleUrl": "https://www.globe.com.ph/about-us/newsroom/business/maritime-academy-asia-pacific-hybrid-future-globe-business.html",
      "columnType": "articles--type-3",
      "typeListing": "article",
      "imageMobile": "/sites/globe.com.ph/files/content/dam/globe/brie/AboutUs/newsroom/business/maap-ready-for--hybrid-future-with-globe/sg-maritime-primary-banner-m.jpg",
      "imageDesktop": "/sites/globe.com.ph/files/content/dam/globe/brie/AboutUs/newsroom/business/maap-ready-for--hybrid-future-with-globe/sg-maritime-primary-thumbnail.jpg",
      "description": "Maritime Academy of Asia and the Pacific partners with Globe Business  to upgrade its digital ecosystem of education and connectivity solutions.",
      "datePosted": "Aug 01, 2022 | 08:13 AM",
      "titleFromTag": "Business"
    },
    {
      "title": "Globe Sustains Comms Support in Quake-Hit Abra, Collaborates with DSWD",
      "nonclickable": false,
      "openNewTab": false,
      "borderArticle": "border-color:#1C91C5;",
      "borderTopArticle": "border-top-color:#1C91C5;",
      "imageListing": "/sites/globe.com.ph/files/content/dam/globe/brie/AboutUs/newsroom/common/default-3/corporate-default-7-thumbnail-listing.jpg",
      "articleUrl": "https://www.globe.com.ph/about-us/newsroom/sustainability/globe-sustains-comms-support-quake-hit-abra.html",
      "columnType": "articles--type-3",
      "typeListing": "article",
      "imageMobile": "/sites/globe.com.ph/files/content/dam/globe/brie/AboutUs/newsroom/common/default-3/corporate-default-7-primary-thumbnail-m.jpg",
      "imageDesktop": "/sites/globe.com.ph/files/content/dam/globe/brie/AboutUs/newsroom/common/default-3/corporate-default-7-primary-thumbnail-d.jpg",
      "description": "Globe has sustained its communications support for affected families in quake-hit Abra, providing residents, especially evacuees, access to connectivity.",
      "datePosted": "Jul 29, 2022 | 03:24 PM",
      "titleFromTag": "Sustainability"
    },
    {
      "title": "Globe At Home Set to Launch Newest Fiber-To-The-Room Technology",
      "nonclickable": false,
      "openNewTab": false,
      "borderArticle": "border-color:#0074D9;",
      "borderTopArticle": "border-top-color:#0074D9;",
      "imageListing": "/sites/globe.com.ph/files/content/dam/globe/brie/AboutUs/newsroom/consumer/globe-at-home-set-to-launch-newest-fiber-to-the-room-technology/gah-fttr-thumbnail-listing.jpg",
      "articleUrl": "https://www.globe.com.ph/about-us/newsroom/consumer/globe-at-home-set-to-launch-newest-fiber-to-the-room-technology.html",
      "columnType": "articles--type-3",
      "typeListing": "article",
      "imageMobile": "/sites/globe.com.ph/files/content/dam/globe/brie/AboutUs/newsroom/consumer/globe-at-home-set-to-launch-newest-fiber-to-the-room-technology/gah-fttr-primary-thumbnail-m.jpg",
      "imageDesktop": "/sites/globe.com.ph/files/content/dam/globe/brie/AboutUs/newsroom/consumer/globe-at-home-set-to-launch-newest-fiber-to-the-room-technology/gah-fttr-primary-thumbnail-d.jpg",
      "description": "Globe is about to become among the first telecommunications providers in Southeast Asia to launch innovative fiber-to-the room (FTTR) technology.",
      "datePosted": "Jul 29, 2022 | 12:00 PM",
      "titleFromTag": "Consumer"
    },
    {
      "title": "Mayora’s ‘Home Buddies’ Gets Funding Boost From Meta’s 2021 Facebook Community Accelerator Program",
      "nonclickable": false,
      "openNewTab": false,
      "borderArticle": "border-color:#0074D9;",
      "borderTopArticle": "border-top-color:#0074D9;",
      "imageListing": "/sites/globe.com.ph/files/content/dam/globe/brie/About-us/Newsroom/image/Partners/072922/newsroom-partners-home-buddies-funding-boost-thumbnail-listing.jpg",
      "articleUrl": "https://www.globe.com.ph/about-us/newsroom/partners/home-buddies-gets-funding-boost-from-meta.html",
      "columnType": "articles--type-3",
      "typeListing": "article",
      "imageMobile": "/sites/globe.com.ph/files/content/dam/globe/brie/About-us/Newsroom/image/Partners/072922/newsroom-partners-home-buddies-funding-boost-primary-thumbnail-m.jpg",
      "imageDesktop": "/sites/globe.com.ph/files/content/dam/globe/brie/About-us/Newsroom/image/Partners/072922/newsroom-partners-home-buddies-funding-boost-primary-thumbnail-d.jpg",
      "description": "Home Buddies has won funding from Meta’s 2021 Facebook Community Accelerator Program.",
      "datePosted": "Jul 29, 2022 | 10:35 AM",
      "titleFromTag": "Partners"
    },
    {
      "title": "Luzon Quake: Globe Group Sends Immediate Relief, FREE KonsultaMD to Quake Victims",
      "nonclickable": false,
      "openNewTab": false,
      "borderArticle": "border-color:#1C91C5;",
      "borderTopArticle": "border-top-color:#1C91C5;",
      "imageListing": "/sites/globe.com.ph/files/content/dam/globe/brie/AboutUs/newsroom/sustainability/default-sustainability-4/default-sustainability-4-thumbnail-listing.jpg",
      "articleUrl": "https://www.globe.com.ph/about-us/newsroom/sustainability/globe-group-sends-immediate-relief-free-konsultamd-quake-victims.html",
      "columnType": "articles--type-3",
      "typeListing": "article",
      "imageMobile": "/sites/globe.com.ph/files/content/dam/globe/brie/AboutUs/newsroom/sustainability/default-sustainability-4/default-sustainability-4-primary-thumbnail-m.jpg",
      "imageDesktop": "/sites/globe.com.ph/files/content/dam/globe/brie/AboutUs/newsroom/sustainability/default-sustainability-4/default-sustainability-4-primary-thumbnail-d.jpg",
      "description": "Globe is readily mobilizing support to respond to urgent humanitarian needs in severely-hit areas in Luzon  brought about by the  7.0-magnitude earthquake.",
      "datePosted": "Jul 28, 2022 | 03:24 PM",
      "titleFromTag": "Sustainability"
    },
    {
      "title": "Globe Sends Help to Worst-Hit Areas in Wake of Luzon Quake",
      "nonclickable": false,
      "openNewTab": false,
      "borderArticle": "border-color:#1C91C5;",
      "borderTopArticle": "border-top-color:#1C91C5;",
      "imageListing": "/sites/globe.com.ph/files/content/dam/globe/brie/AboutUs/newsroom/common/default-3/corporate-default-7-thumbnail-listing.jpg",
      "articleUrl": "https://www.globe.com.ph/about-us/newsroom/sustainability/globe-sends-help-worst-hit-areas-wake-luzon-quake.html",
      "columnType": "articles--type-3",
      "typeListing": "article",
      "imageMobile": "/sites/globe.com.ph/files/content/dam/globe/brie/AboutUs/newsroom/common/default-3/corporate-default-7-primary-thumbnail-m.jpg",
      "imageDesktop": "/sites/globe.com.ph/files/content/dam/globe/brie/AboutUs/newsroom/common/default-3/corporate-default-7-primary-thumbnail-d.jpg",
      "description": "Globe deployed  a Libreng Tawag, Charging & WiFi station at the Bangued Plaza in Abra, adjacent to Lagangilang town, epicenter of the 7.0-magnitude quake.",
      "datePosted": "Jul 27, 2022 | 03:24 PM",
      "titleFromTag": "Sustainability"
    },
    {
      "title": "Globe Group on SONA: A Comprehensive Roadmap Towards Economic Recovery, Universal Connectivity, Inclusive Growth",
      "nonclickable": false,
      "openNewTab": false,
      "borderArticle": "border-color:#0074D9;",
      "borderTopArticle": "border-top-color:#0074D9;",
      "imageListing": "/sites/globe.com.ph/files/content/dam/globe/brie/AboutUs/newsroom/common/updated/Corporate-globe-thumbnail-listing.jpg",
      "articleUrl": "https://www.globe.com.ph/about-us/newsroom/sustainability/globe-group-on-sona.html",
      "columnType": "articles--type-3",
      "typeListing": "article",
      "imageMobile": "/sites/globe.com.ph/files/content/dam/globe/brie/AboutUs/newsroom/common/updated/Corporate-globe-primary-thumbnail-m.jpg",
      "imageDesktop": "/sites/globe.com.ph/files/content/dam/globe/brie/AboutUs/newsroom/common/updated/Corporate-globe-primary-thumbnail-d.jpg",
      "description": "Globe, a part of the presidential advisory group, is heartened by the PBBM’s vision of a nation that follows a track of sustainable and inclusive development.",
      "datePosted": "Jul 27, 2022 | 09:00 AM",
      "titleFromTag": "Sustainability"
    },
    {
      "title": "Level Up Your Overseas Travel Experience with Exclusive Perks  from Globe Roaming!",
      "nonclickable": false,
      "openNewTab": false,
      "borderArticle": "border-color:#0074D9;",
      "borderTopArticle": "border-top-color:#0074D9;",
      "imageListing": "/sites/globe.com.ph/files/content/dam/globe/brie/AboutUs/newsroom/common/level-up-your-overseas-travel-experience/roaming-thumbnail-listing.png",
      "articleUrl": "https://www.globe.com.ph/about-us/newsroom/consumer/level-up-overseas-travel-experience-exclusive-perks-globe-roaming.html",
      "columnType": "articles--type-3",
      "typeListing": "article",
      "imageMobile": "/sites/globe.com.ph/files/content/dam/globe/brie/AboutUs/newsroom/common/level-up-your-overseas-travel-experience/roaming-primary-thumbnail-m.png",
      "imageDesktop": "/sites/globe.com.ph/files/content/dam/globe/brie/AboutUs/newsroom/common/level-up-your-overseas-travel-experience/roaming-primary-thumbnail-d.png",
      "description": "Globe Roaming partners with Klook and Shopback to provide exclusive travel perks and rewards to customers.",
      "datePosted": "Jul 26, 2022 | 11:53 AM",
      "titleFromTag": "Consumer"
    },
    {
      "title": "Globe Group’s Cascadeo Named in 2022 Gartner® Magic Quadrant™ for Public Cloud IT Transformation Services",
      "nonclickable": false,
      "openNewTab": false,
      "borderArticle": "border-color:#0074D9;",
      "borderTopArticle": "border-top-color:#0074D9;",
      "imageListing": "/sites/globe.com.ph/files/content/dam/globe/brie/AboutUs/newsroom/business/cascadeo-2022-gartner-magic-quadrant/eg-cascadeo-listing-thumbnail.jpg",
      "articleUrl": "https://www.globe.com.ph/about-us/newsroom/business/cascadeo-2022-gartner-magic-quadrant.html",
      "columnType": "articles--type-3",
      "typeListing": "article",
      "imageMobile": "/sites/globe.com.ph/files/content/dam/globe/brie/AboutUs/newsroom/business/cascadeo-2022-gartner-magic-quadrant/eg-cascadeo-primary-banner-m_v2.jpg",
      "imageDesktop": "/sites/globe.com.ph/files/content/dam/globe/brie/AboutUs/newsroom/business/cascadeo-2022-gartner-magic-quadrant/eg-cascadeo-primary-thumbnail.jpg",
      "description": "Cascadeo publicized its inclusion in the 2022 Gartner® Magic Quadrant™ for Public Cloud IT Transformation Services for the second year in a row.",
      "datePosted": "Jul 25, 2022 | 12:00 PM",
      "titleFromTag": "Business"
    },
    {
      "title": "Asticom, RUSH Partner to Bring Digital Transformation to Filipino Businesses",
      "nonclickable": false,
      "openNewTab": false,
      "borderArticle": "border-color:#0074D9;",
      "borderTopArticle": "border-top-color:#0074D9;",
      "imageListing": "/sites/globe.com.ph/files/content/dam/globe/brie/AboutUs/newsroom/partners/internet-watch-foundation-partner-child-protection-advocacy/default-partners-1-thumbnail-listing.jpg",
      "articleUrl": "https://www.globe.com.ph/about-us/newsroom/partners/asticom-rush-partner-bring-digital-transformation-filipino-businesses.html",
      "columnType": "articles--type-3",
      "typeListing": "article",
      "imageMobile": "/sites/globe.com.ph/files/content/dam/globe/brie/AboutUs/newsroom/partners/internet-watch-foundation-partner-child-protection-advocacy/default-partners-1-primary-thumbnail-m.jpg",
      "imageDesktop": "/sites/globe.com.ph/files/content/dam/globe/brie/AboutUs/newsroom/partners/internet-watch-foundation-partner-child-protection-advocacy/default-partners-1-primary-thumbnail-d.jpg",
      "description": "Asticom & RUSH have partnered to deliver digital transformation to SMEs in the country and create valuable impact on the PH e-commerce and loyalty industries.",
      "datePosted": "Jul 25, 2022 | 10:35 AM",
      "titleFromTag": "Partners"
    }
  ]
}
