{
  "status": 200,
  "page": 58,
  "totalPage": 298,
  "range": "685-696",
  "total": 3573,
  "result": [
    {
      "title": "Kristel Fulgar Interviews Her Top K-Drama Idol SEO In-Guk",
      "nonclickable": false,
      "openNewTab": false,
      "borderArticle": "border-color:#0074D9;",
      "borderTopArticle": "border-top-color:#0074D9;",
      "imageListing": "/sites/globe.com.ph/files/content/dam/globe/brie/AboutUs/newsroom/partners/internet-watch-foundation-partner-child-protection-advocacy/default-partners-1-thumbnail-listing.jpg",
      "articleUrl": "https://www.globe.com.ph/about-us/newsroom/partners/kristel-fulgar-interviews-seo-in-guk.html",
      "columnType": "articles--type-3",
      "typeListing": "article",
      "imageMobile": "/sites/globe.com.ph/files/content/dam/globe/brie/About-us/Newsroom/image/Partners/072522/newsroom-partners-kristel-interviews-seo-in-guk-primary-thumbnail-m.jpg",
      "imageDesktop": "/sites/globe.com.ph/files/content/dam/globe/brie/About-us/Newsroom/image/Partners/072522/newsroom-partners-kristel-interviews-seo-in-guk-primary-thumbnail-d.jpg",
      "description": "Actress-singer Kristel Fulgar interviews top-billed K-Drama actor Seo In-guk last June 30.",
      "datePosted": "Jul 25, 2022 | 10:35 AM",
      "titleFromTag": "Partners"
    },
    {
      "title": "Ayala Museum and Globe Bring a New Cultural Learning Experience with the Globe Digital Gallery!",
      "nonclickable": false,
      "openNewTab": false,
      "borderArticle": "border-color:#0074D9;",
      "borderTopArticle": "border-top-color:#0074D9;",
      "imageListing": "/sites/globe.com.ph/files/content/dam/globe/brie/AboutUs/newsroom/corporate/ayala-museum-globe-new-cultural-learning-experience/newsroom-corporate-ayala-globe-digital-gallery-thumbnail-listing.jpg",
      "articleUrl": "https://www.globe.com.ph/about-us/newsroom/corporate/ayala-museum-globe-new-cultural-learning-experience.html",
      "columnType": "articles--type-3",
      "typeListing": "article",
      "imageMobile": "/sites/globe.com.ph/files/content/dam/globe/brie/AboutUs/newsroom/corporate/ayala-museum-globe-new-cultural-learning-experience/newsroom-corporate-ayala-globe-digital-gallery-primary-thumbnail-m.jpg",
      "imageDesktop": "/sites/globe.com.ph/files/content/dam/globe/brie/AboutUs/newsroom/corporate/ayala-museum-globe-new-cultural-learning-experience/newsroom-corporate-ayala-globe-digital-gallery-primary-thumbnail-d.jpg",
      "description": "Ayala Museum & Globe Telecom Inc. held a signing ceremony on June 28, to mark a new milestone in their partnership with the launch of the Globe Digital Gallery.",
      "datePosted": "Jul 22, 2022 | 02:55 PM",
      "titleFromTag": "Corporate"
    },
    {
      "title": "KonsultaMD Provides foodpanda Delivery Partners and Family Members with FREE Healthcare",
      "nonclickable": false,
      "openNewTab": false,
      "borderArticle": "border-color:#0074D9;",
      "borderTopArticle": "border-top-color:#0074D9;",
      "imageListing": "/sites/globe.com.ph/files/content/dam/globe/brie/AboutUs/newsroom/common/default-4/default-consumer-3-thumbnail-listing.jpg",
      "articleUrl": "https://www.globe.com.ph/about-us/newsroom/consumer/konsultamd-foodpanda-partners-family-free-healthcare.html",
      "columnType": "articles--type-3",
      "typeListing": "article",
      "imageMobile": "/sites/globe.com.ph/files/content/dam/globe/brie/AboutUs/newsroom/common/default-4/default-consumer-3-primary-thumbnail-m.jpg",
      "imageDesktop": "/sites/globe.com.ph/files/content/dam/globe/brie/AboutUs/newsroom/common/default-4/default-consumer-3-primary-thumbnail-d.jpg",
      "description": "KonsultaMD & foodpanda Philippines have collaborated to provide riders, bikers, & other delivery partners & their family members FREE healthcare for one month.",
      "datePosted": "Jul 22, 2022 | 12:12 PM",
      "titleFromTag": "Consumer"
    },
    {
      "title": "Globe Business Introduces New Seamless Communications Solution for Evolving Workplace",
      "nonclickable": false,
      "openNewTab": false,
      "borderArticle": "border-color:#0074D9;",
      "borderTopArticle": "border-top-color:#0074D9;",
      "imageListing": "/sites/globe.com.ph/files/content/dam/globe/brie/AboutUs/newsroom/business/new-seamless-communications-solution-evolving-workplace/eg-bricolage-listing-thumbnail.jpg",
      "articleUrl": "https://www.globe.com.ph/about-us/newsroom/business/new-seamless-communications-solution-evolving-workplace.html",
      "columnType": "articles--type-3",
      "typeListing": "article",
      "imageMobile": "/sites/globe.com.ph/files/content/dam/globe/brie/AboutUs/newsroom/business/new-seamless-communications-solution-evolving-workplace/eg-bricolage-primary-banner-m_v2.jpg",
      "imageDesktop": "/sites/globe.com.ph/files/content/dam/globe/brie/AboutUs/newsroom/business/new-seamless-communications-solution-evolving-workplace/eg-bricolage-primary-thumbnail.jpg",
      "description": "Globe Business launches UCCaaS, a simplified and streamlined communications solution for enterprises looking to maximize hybrid work environments.",
      "datePosted": "Jul 22, 2022 | 12:00 PM",
      "titleFromTag": "Business"
    },
    {
      "title": "Globe Group Calls for Improved Policy to Address PH Digital Infrastructure Gaps",
      "nonclickable": false,
      "openNewTab": false,
      "borderArticle": "border-color:#0074D9;",
      "borderTopArticle": "border-top-color:#0074D9;",
      "imageListing": "/sites/globe.com.ph/files/content/dam/globe/brie/AboutUs/newsroom/common/default-11/default-business-5-thumbnail-listing.jpg",
      "articleUrl": "https://www.globe.com.ph/about-us/newsroom/corporate/globe-group-calls-for-improved-policy.html",
      "columnType": "articles--type-3",
      "typeListing": "article",
      "imageMobile": "/sites/globe.com.ph/files/content/dam/globe/brie/AboutUs/newsroom/common/default-11/default-business-5-primary-thumbnail-m.jpg",
      "imageDesktop": "/sites/globe.com.ph/files/content/dam/globe/brie/AboutUs/newsroom/common/default-11/default-business-5-primary-thumbnail-d.jpg",
      "description": "The Globe Group has echoed calls for the government to implement policy changes that would bring about more investments in the country’s digital infrastructure.",
      "datePosted": "Jul 21, 2022 | 04:00 PM",
      "titleFromTag": "Corporate"
    },
    {
      "title": "Isabela Lawmaker Faustino Dy to Refile Bill Requiring ICT Space in Property Developments",
      "nonclickable": false,
      "openNewTab": false,
      "borderArticle": "border-color:#0074D9;",
      "borderTopArticle": "border-top-color:#0074D9;",
      "imageListing": "/sites/globe.com.ph/files/content/dam/globe/brie/About-us/Newsroom/image/Business/7202022-2PM/eg-rise-listing-thumbnail.jpg",
      "articleUrl": "https://www.globe.com.ph/about-us/newsroom/business/faustino-dy-refile-bill-requiring-ict-space-property-developments.html",
      "columnType": "articles--type-3",
      "typeListing": "article",
      "imageMobile": "/sites/globe.com.ph/files/content/dam/globe/brie/About-us/Newsroom/image/Business/7202022-2PM/eg-rise-primary-banner-m_v2.jpg",
      "imageDesktop": "/sites/globe.com.ph/files/content/dam/globe/brie/About-us/Newsroom/image/Business/7202022-2PM/eg-rise-primary-thumbnail.jpg",
      "description": "Globe showed support for Isabela lawmaker Faustino Dy’s move to push for the bill requiring ICT space in housing developments across the country.",
      "datePosted": "Jul 20, 2022 | 12:00 PM",
      "titleFromTag": "Business"
    },
    {
      "title": "Globe Business Rolls Out GPlan Biz To Help MSMEs Push Boundaries Of Business Growth",
      "nonclickable": false,
      "openNewTab": false,
      "borderArticle": "border-color:#0074D9;",
      "borderTopArticle": "border-top-color:#0074D9;",
      "imageListing": "/sites/globe.com.ph/files/content/dam/globe/brie/AboutUs/newsroom/business/globe-business-rolls-out-gplan-biz-to-help-msmes/sg-sunbeam-listing-thumbnail.jpg",
      "articleUrl": "https://www.globe.com.ph/about-us/newsroom/business/gplan-biz-help-msmes-push-boundaries-business-growth.html",
      "columnType": "articles--type-3",
      "typeListing": "article",
      "imageMobile": "/sites/globe.com.ph/files/content/dam/globe/brie/AboutUs/newsroom/business/globe-business-rolls-out-gplan-biz-to-help-msmes/sg-sunbeam-primary-thumbnail-m.jpg",
      "imageDesktop": "/sites/globe.com.ph/files/content/dam/globe/brie/AboutUs/newsroom/business/globe-business-rolls-out-gplan-biz-to-help-msmes/sg-sunbeam-primary-thumbnail-d.jpg",
      "description": "Globe Business' latest option, GPlan Biz provides made-for business postpaid plans to address the growing needs of business owners.",
      "datePosted": "Jul 19, 2022 | 11:54 AM",
      "titleFromTag": "Business"
    },
    {
      "title": "RUSH Only PH Firm in APAC CIO Outlook’s Top 10 Ecommerce Solutions Companies for 2022",
      "nonclickable": false,
      "openNewTab": false,
      "borderArticle": "border-color:#0074D9;",
      "borderTopArticle": "border-top-color:#0074D9;",
      "imageListing": "/sites/globe.com.ph/files/content/dam/globe/brie/About-us/Newsroom/image/Partners/071922/newsroom-partners-apac-cio-top-solutions-thumbnail-listing.jpg",
      "articleUrl": "https://www.globe.com.ph/about-us/newsroom/partners/rush-only-ph-firm-apac-cio-top-ecom-solution-companies.html",
      "columnType": "articles--type-3",
      "typeListing": "article",
      "imageMobile": "/sites/globe.com.ph/files/content/dam/globe/brie/About-us/Newsroom/image/Partners/071922/newsroom-partners-apac-cio-top-solutions-primary-thumbnail-m.jpg",
      "imageDesktop": "/sites/globe.com.ph/files/content/dam/globe/brie/About-us/Newsroom/image/Partners/071922/newsroom-partners-apac-cio-top-solutions-primary-thumbnail-d.jpg",
      "description": "RUSH made it to the Top 10 ecommerce solutions companies for 2022 of APAC CIO Outlook– the only Philippine firm on the index. ",
      "datePosted": "Jul 19, 2022 | 10:35 AM",
      "titleFromTag": "Partners"
    },
    {
      "title": "5G to Drive Economic Growth, Job Creation in PH",
      "nonclickable": false,
      "openNewTab": false,
      "borderArticle": "border-color:#0074D9;",
      "borderTopArticle": "border-top-color:#0074D9;",
      "imageListing": "/sites/globe.com.ph/files/content/dam/globe/brie/AboutUs/newsroom/partners/internet-watch-foundation-partner-child-protection-advocacy/default-partners-1-thumbnail-listing.jpg",
      "articleUrl": "https://www.globe.com.ph/about-us/newsroom/corporate/5g-to-drive-economic-growth-job-creation-ph.html",
      "columnType": "articles--type-3",
      "typeListing": "article",
      "imageMobile": "/sites/globe.com.ph/files/content/dam/globe/brie/AboutUs/newsroom/partners/internet-watch-foundation-partner-child-protection-advocacy/default-partners-1-primary-thumbnail-m.jpg",
      "imageDesktop": "/sites/globe.com.ph/files/content/dam/globe/brie/AboutUs/newsroom/partners/internet-watch-foundation-partner-child-protection-advocacy/default-partners-1-primary-thumbnail-d.jpg",
      "description": "Globe continues to expand the availability of its 5G technology nationwide, as it expects wireless internet connectivity to boost PH economic growth & recovery.",
      "datePosted": "Jul 19, 2022 | 10:35 AM",
      "titleFromTag": "Corporate"
    },
    {
      "title": "Globe Extends Free Calls, Texts, Data To Customers In Sri Lanka",
      "nonclickable": false,
      "openNewTab": false,
      "borderArticle": "border-color:#1C91C5;",
      "borderTopArticle": "border-top-color:#1C91C5;",
      "imageListing": "/sites/globe.com.ph/files/content/dam/globe/brie/AboutUs/newsroom/sustainability/globe-extends-free-calls-texts-data-to-customers-in-sri-lanka/default-business-2-thumbnail-listing.jpg",
      "articleUrl": "https://www.globe.com.ph/about-us/newsroom/sustainability/globe-extends-free-calls-texts-data-sri-lanka.html",
      "columnType": "articles--type-3",
      "typeListing": "article",
      "imageMobile": "/sites/globe.com.ph/files/content/dam/globe/brie/AboutUs/newsroom/sustainability/globe-extends-free-calls-texts-data-to-customers-in-sri-lanka/default-business-2-primary-thumbnail-m.jpg",
      "imageDesktop": "/sites/globe.com.ph/files/content/dam/globe/brie/AboutUs/newsroom/sustainability/globe-extends-free-calls-texts-data-to-customers-in-sri-lanka/default-business-2-primary-thumbnail-d.jpg",
      "description": "Globe and its network partners will provide free calls, texts, and data to customers in Sri Lanka amid escalating tensions and the ongoing economic crisis.",
      "datePosted": "Jul 18, 2022 | 12:00 PM",
      "titleFromTag": "Sustainability"
    },
    {
      "title": "Connectivity Is Utility: Globe, Property Giants, Lawmaker Partner for Built-in Broadband to Future-Proof Homes",
      "nonclickable": false,
      "openNewTab": false,
      "borderArticle": "border-color:#0074D9;",
      "borderTopArticle": "border-top-color:#0074D9;",
      "imageListing": "/sites/globe.com.ph/files/content/dam/globe/brie/About-us/Newsroom/image/Business/07182022-5PM/eg-newsroom-listing-thumbnail.jpg",
      "articleUrl": "https://www.globe.com.ph/about-us/newsroom/business/globe-property-giants-lawmaker-built-in-broadband.html",
      "columnType": "articles--type-3",
      "typeListing": "article",
      "imageMobile": "/sites/globe.com.ph/files/content/dam/globe/brie/About-us/Newsroom/image/Business/07182022-5PM/eg-newsroom-primary-banner-m.jpg",
      "imageDesktop": "/sites/globe.com.ph/files/content/dam/globe/brie/About-us/Newsroom/image/Business/07182022-5PM/eg-newsroom-primary-thumbnail.jpg",
      "description": "Globe top executives and the country’s major property developers gathered to talk about their shared goal of providing internet-ready homes for their customers.",
      "datePosted": "Jul 18, 2022 | 12:00 PM",
      "titleFromTag": "Business"
    },
    {
      "title": "Globe Telecom Achieves MEF 3.0 Certification for Transformative Ethernet Services",
      "nonclickable": false,
      "openNewTab": false,
      "borderArticle": "border-color:#0074D9;",
      "borderTopArticle": "border-top-color:#0074D9;",
      "imageListing": "/sites/globe.com.ph/files/content/dam/globe/brie/About-us/Newsroom/image/Business/07152022-5PM/eg-mef-listing-thumbnail.jpg",
      "articleUrl": "https://www.globe.com.ph/about-us/newsroom/business/globe-telecom-achieves-mef-certification-transformative-ethernet-services.html",
      "columnType": "articles--type-3",
      "typeListing": "article",
      "imageMobile": "/sites/globe.com.ph/files/content/dam/globe/brie/About-us/Newsroom/image/Business/07152022-5PM/eg-mef-primary-banner-m.jpg",
      "imageDesktop": "/sites/globe.com.ph/files/content/dam/globe/brie/About-us/Newsroom/image/Business/07152022-5PM/eg-mef-primary-thumbnail.jpg",
      "description": "Globe Telecom has achieved MEF 3.0 Carrier Ethernet services certification from MEF, the industry’s defining authority.",
      "datePosted": "Jul 15, 2022 | 05:00 PM",
      "titleFromTag": "Business"
    }
  ]
}
