{
  "status": 200,
  "page": 59,
  "totalPage": 298,
  "range": "697-708",
  "total": 3573,
  "result": [
    {
      "title": "Globe Partnership with Law Enforcers Leads to Arrest, Prosecution of 267 Cable Thieves",
      "nonclickable": false,
      "openNewTab": false,
      "borderArticle": "border-color:#0074D9;",
      "borderTopArticle": "border-top-color:#0074D9;",
      "imageListing": "/sites/globe.com.ph/files/content/dam/globe/brie/AboutUs/newsroom/corporate/799-permits-1q-2021-new-towers/default-corporate-9-thumbnail-listing.jpg",
      "articleUrl": "https://www.globe.com.ph/about-us/newsroom/corporate/partnership-law-enforcers-leads-arrest-prosecution-cable-thieves.html",
      "columnType": "articles--type-3",
      "typeListing": "article",
      "imageMobile": "/sites/globe.com.ph/files/content/dam/globe/brie/AboutUs/newsroom/corporate/799-permits-1q-2021-new-towers/default-corporate-9-primary-thumbnail-m.jpg",
      "imageDesktop": "/sites/globe.com.ph/files/content/dam/globe/brie/AboutUs/newsroom/corporate/799-permits-1q-2021-new-towers/default-corporate-9-primary-thumbnail-d.jpg",
      "description": "Collaboration between Globe and law enforcers has led to the filing of charges against 267 individuals, including third-party contractors linked to cable theft.",
      "datePosted": "Jul 15, 2022 | 02:00 PM",
      "titleFromTag": "Corporate"
    },
    {
      "title": "Globe At Home Scores All-Time High in Netflix Speed Index, Takes Solo Lead in June Rankings",
      "nonclickable": false,
      "openNewTab": false,
      "borderArticle": "border-color:#0074D9;",
      "borderTopArticle": "border-top-color:#0074D9;",
      "imageListing": "/sites/globe.com.ph/files/content/dam/globe/brie/About-us/Newsroom/image/Consumer/07182022-5PM/Thumbnail-Listing.jpg",
      "articleUrl": "https://www.globe.com.ph/about-us/newsroom/consumer/globe-at-home-scores-all-time-high-netflix-speed-index.html",
      "columnType": "articles--type-3",
      "typeListing": "article",
      "imageMobile": "/sites/globe.com.ph/files/content/dam/globe/brie/About-us/Newsroom/image/Consumer/07182022-5PM/Primary-Thumbnail-M.jpg",
      "imageDesktop": "/sites/globe.com.ph/files/content/dam/globe/brie/About-us/Newsroom/image/Consumer/07182022-5PM/Primary-Thumbnail-D.jpg",
      "description": "Globe At Home has scored an all-time high in the ISP performance rating of Netflix, a subscription-based streaming service in the Philippines.",
      "datePosted": "Jul 15, 2022 | 12:00 PM",
      "titleFromTag": "Consumer"
    },
    {
      "title": "Globe’s Expanding 5G Service a Boost to Connectivity, Business Growth",
      "nonclickable": false,
      "openNewTab": false,
      "borderArticle": "border-color:#0074D9;",
      "borderTopArticle": "border-top-color:#0074D9;",
      "imageListing": "/sites/globe.com.ph/files/content/dam/globe/brie/AboutUs/newsroom/corporate/799-permits-1q-2021-new-towers/default-corporate-9-thumbnail-listing.jpg",
      "articleUrl": "https://www.globe.com.ph/about-us/newsroom/corporate/globe-expanding-5g-service-boost-connectivity-business-growth.html",
      "columnType": "articles--type-3",
      "typeListing": "article",
      "imageMobile": "/sites/globe.com.ph/files/content/dam/globe/brie/AboutUs/newsroom/corporate/799-permits-1q-2021-new-towers/default-corporate-9-primary-thumbnail-m.jpg",
      "imageDesktop": "/sites/globe.com.ph/files/content/dam/globe/brie/AboutUs/newsroom/corporate/799-permits-1q-2021-new-towers/default-corporate-9-primary-thumbnail-d.jpg",
      "description": "Globe said its 5G service is up to 20x faster than LTE, with average fiber-fast download speeds of up to 156.84 Mbps on average nationwide.",
      "datePosted": "Jul 15, 2022 | 11:00 AM",
      "titleFromTag": "Corporate"
    },
    {
      "title": "Globe Group’s Tech Investments Accelerate PH Digital Transformation",
      "nonclickable": false,
      "openNewTab": false,
      "borderArticle": "border-color:#0074D9;",
      "borderTopArticle": "border-top-color:#0074D9;",
      "imageListing": "/sites/globe.com.ph/files/content/dam/globe/brie/AboutUs/newsroom/common/default-11/default-business-5-thumbnail-listing.jpg",
      "articleUrl": "https://www.globe.com.ph/about-us/newsroom/corporate/globe-group-tech-investments-accelerate-ph-digital-transformation.html",
      "columnType": "articles--type-3",
      "typeListing": "article",
      "imageMobile": "/sites/globe.com.ph/files/content/dam/globe/brie/AboutUs/newsroom/common/default-11/default-business-5-primary-thumbnail-m.jpg",
      "imageDesktop": "/sites/globe.com.ph/files/content/dam/globe/brie/AboutUs/newsroom/common/default-11/default-business-5-primary-thumbnail-d.jpg",
      "description": "Through a joint venture, Globe is fast-tracking upgrades to its data center services to meet the growing demand from MSME and corporate clients.",
      "datePosted": "Jul 14, 2022 | 08:00 AM",
      "titleFromTag": "Corporate"
    },
    {
      "title": "Globe At Home Leads Netflix ISP Speed Index for 5th Straight Month This Year",
      "nonclickable": false,
      "openNewTab": false,
      "borderArticle": "border-color:#0074D9;",
      "borderTopArticle": "border-top-color:#0074D9;",
      "imageListing": "/sites/globe.com.ph/files/content/dam/globe/brie/About-us/Newsroom/image/Consumer/07132022-5PM/newsroom-consumer-globe-at-home-tops-netflix-isp-5th-thumbnail-listing.jpg",
      "articleUrl": "https://www.globe.com.ph/about-us/newsroom/consumer/globe-at-home-leads-netflix-isp-speed-index-5th-month-2022.html",
      "columnType": "articles--type-3",
      "typeListing": "article",
      "imageMobile": "/sites/globe.com.ph/files/content/dam/globe/brie/About-us/Newsroom/image/Consumer/07132022-5PM/newsroom-consumer-globe-at-home-tops-netflix-isp-5th-primary-thumbnail-m.jpg",
      "imageDesktop": "/sites/globe.com.ph/files/content/dam/globe/brie/About-us/Newsroom/image/Consumer/07132022-5PM/newsroom-consumer-globe-at-home-tops-netflix-isp-5th-primary-thumbnail-d.jpg",
      "description": "Globe At Home topped the Philippine Internet Service Providers performance rating of subscription-based streaming service Netflix for the 5th straight month.",
      "datePosted": "Jul 13, 2022 | 05:00 PM",
      "titleFromTag": "Consumer"
    },
    {
      "title": "In-Game Top Ups for Gamers Made More Convenient and Accessible through Globe Partnerships",
      "nonclickable": false,
      "openNewTab": false,
      "borderArticle": "border-color:#0074D9;",
      "borderTopArticle": "border-top-color:#0074D9;",
      "imageListing": "/sites/globe.com.ph/files/content/dam/globe/brie/About-us/Newsroom/image/Consumer/In-Game-Top-Ups-for-Gamers-Made-More-Convenient-and-Accessible-through-Globe-Partnerships/newsroom-consumer-ingame-top-ups-thumbnail-listing.jpg",
      "articleUrl": "https://www.globe.com.ph/about-us/newsroom/consumer/in-game-top-ups-made-more-convenient-accessible-globe-partnerships.html",
      "columnType": "articles--type-3",
      "typeListing": "article",
      "imageMobile": "/sites/globe.com.ph/files/content/dam/globe/brie/About-us/Newsroom/image/Consumer/In-Game-Top-Ups-for-Gamers-Made-More-Convenient-and-Accessible-through-Globe-Partnerships/newsroom-consumer-ingame-top-ups-primary-thumbnail-m.jpg",
      "imageDesktop": "/sites/globe.com.ph/files/content/dam/globe/brie/About-us/Newsroom/image/Consumer/In-Game-Top-Ups-for-Gamers-Made-More-Convenient-and-Accessible-through-Globe-Partnerships/newsroom-consumer-ingame-top-ups-primary-thumbnail-d.jpg",
      "description": "Globe now offers alternative payment methods for in-game purchases.\r\n",
      "datePosted": "Jul 13, 2022 | 04:31 PM",
      "titleFromTag": "Consumer"
    },
    {
      "title": "Globe Warns vs Certain Online Lending Apps over Privacy Risks",
      "nonclickable": false,
      "openNewTab": false,
      "borderArticle": "border-color:#0074D9;",
      "borderTopArticle": "border-top-color:#0074D9;",
      "imageListing": "/sites/globe.com.ph/files/content/dam/globe/brie/AboutUs/newsroom/common/default-3/corporate-default-7-thumbnail-listing.jpg",
      "articleUrl": "https://www.globe.com.ph/about-us/newsroom/citizenship/globe-warns-vs-certain-online-lending-apps-privacy-risks.html",
      "columnType": "articles--type-3",
      "typeListing": "article",
      "imageMobile": "/sites/globe.com.ph/files/content/dam/globe/brie/AboutUs/newsroom/common/default-3/corporate-default-7-primary-thumbnail-m.jpg",
      "imageDesktop": "/sites/globe.com.ph/files/content/dam/globe/brie/AboutUs/newsroom/common/default-3/corporate-default-7-primary-thumbnail-d.jpg",
      "description": "Globe has warned the public against online lending apps, some of which are notorious for intrusively accessing user data leading to spam and scam messaging.",
      "datePosted": "Jul 13, 2022 | 10:09 AM",
      "titleFromTag": "Citizenship"
    },
    {
      "title": "Globe, the Leader in Mobile, Is Philippines’ Most Reliable Mobile Network",
      "nonclickable": false,
      "openNewTab": false,
      "borderArticle": "border-color:#0074D9;",
      "borderTopArticle": "border-top-color:#0074D9;",
      "imageListing": "/sites/globe.com.ph/files/content/dam/globe/brie/AboutUs/newsroom/corporate/largest-ph-publicly-listed-telco-digital-solutions-group/Corporate-globe-thumbnail-listing.jpg",
      "articleUrl": "https://www.globe.com.ph/about-us/newsroom/corporate/globe-leader-in-mobile-philippines-most-reliable-network.html",
      "columnType": "articles--type-3",
      "typeListing": "article",
      "imageMobile": "/sites/globe.com.ph/files/content/dam/globe/brie/AboutUs/newsroom/corporate/largest-ph-publicly-listed-telco-digital-solutions-group/Corporate-globe-primary-thumbnail-m.jpg",
      "imageDesktop": "/sites/globe.com.ph/files/content/dam/globe/brie/AboutUs/newsroom/corporate/largest-ph-publicly-listed-telco-digital-solutions-group/Corporate-globe-primary-thumbnail-d.jpg",
      "description": "Globe has earned the coveted recognition as the Philippines’ Most Reliable Mobile Network in the 2nd quarter of 2022, in terms of consistency and availability.",
      "datePosted": "Jul 12, 2022 | 02:05 PM",
      "titleFromTag": "Corporate"
    },
    {
      "title": "Move On With ANIMA’s Romance-Comedy-Drama Film RESET U/I",
      "nonclickable": false,
      "openNewTab": false,
      "borderArticle": "border-color:#0074D9;",
      "borderTopArticle": "border-top-color:#0074D9;",
      "imageListing": "/sites/globe.com.ph/files/content/dam/globe/brie/About-us/Newsroom/image/Consumer/061222/newsroom-consumer-anima-drama-film-resetui-thumbnail-listing.jpg",
      "articleUrl": "https://www.globe.com.ph/about-us/newsroom/consumer/move-on-with-animas-reset-ui.html",
      "columnType": "articles--type-3",
      "typeListing": "article",
      "imageMobile": "/sites/globe.com.ph/files/content/dam/globe/brie/About-us/Newsroom/image/Consumer/061222/newsroom-consumer-anima-drama-film-resetui-primary-thumbnail-m.jpg",
      "imageDesktop": "/sites/globe.com.ph/files/content/dam/globe/brie/About-us/Newsroom/image/Consumer/061222/newsroom-consumer-anima-drama-film-resetui-primary-thumbnail-d.jpg",
      "description": "ANIMA, KROMA Entertainment Inc.’s film production outfit, merges the world of apps and love in its latest romantic comedy-drama offering “Reset U/I.",
      "datePosted": "Jul 12, 2022 | 12:00 PM",
      "titleFromTag": "Consumer"
    },
    {
      "title": "m360 Enables Premium A2P Inbound Messages via Globe Network",
      "nonclickable": false,
      "openNewTab": false,
      "borderArticle": "border-color:#0074D9;",
      "borderTopArticle": "border-top-color:#0074D9;",
      "imageListing": "/sites/globe.com.ph/files/content/dam/globe/brie/AboutUs/newsroom/business/m360-enables-premium-a2p-inbound-messages/sg-m360-listing-thumbnail.jpg",
      "articleUrl": "https://www.globe.com.ph/about-us/newsroom/business/m360-premium-a2p-inbound-messages-via-globe-network.html",
      "columnType": "articles--type-3",
      "typeListing": "article",
      "imageMobile": "/sites/globe.com.ph/files/content/dam/globe/brie/AboutUs/newsroom/business/m360-enables-premium-a2p-inbound-messages/sg-m360-primary-thumbnail-m.jpg",
      "imageDesktop": "/sites/globe.com.ph/files/content/dam/globe/brie/AboutUs/newsroom/business/m360-enables-premium-a2p-inbound-messages/sg-m360-primary-thumbnail-d.jpg",
      "description": "M360 now enables premium A2P inbound messaging via Globe’s network. Customers can now receive messages from international brands through approved, legal routes.",
      "datePosted": "Jul 12, 2022 | 11:48 AM",
      "titleFromTag": "Business"
    },
    {
      "title": "Globe Cautions vs OTT Messaging Scams amid Intensified Anti-Spam Campaign",
      "nonclickable": false,
      "openNewTab": false,
      "borderArticle": "border-color:#0074D9;",
      "borderTopArticle": "border-top-color:#0074D9;",
      "imageListing": "/sites/globe.com.ph/files/content/dam/globe/brie/AboutUs/newsroom/common/default-3/corporate-default-7-thumbnail-listing.jpg",
      "articleUrl": "https://www.globe.com.ph/about-us/newsroom/citizenship/cautions-vs-ott-messaging-scams.html",
      "columnType": "articles--type-3",
      "typeListing": "article",
      "imageMobile": "/sites/globe.com.ph/files/content/dam/globe/brie/AboutUs/newsroom/common/default-3/corporate-default-7-primary-thumbnail-m.jpg",
      "imageDesktop": "/sites/globe.com.ph/files/content/dam/globe/brie/AboutUs/newsroom/common/default-3/corporate-default-7-primary-thumbnail-d.jpg",
      "description": "Globe warned the public about the dangers of Over-The-Top or OTT messaging, which are sent through apps that are outside of telcos’ scope.",
      "datePosted": "Jul 12, 2022 | 10:09 AM",
      "titleFromTag": "Citizenship"
    },
    {
      "title": "Globe Group Backs Bill on Digitalization of Gov’t Processes",
      "nonclickable": false,
      "openNewTab": false,
      "borderArticle": "border-color:#0074D9;",
      "borderTopArticle": "border-top-color:#0074D9;",
      "imageListing": "/sites/globe.com.ph/files/content/dam/globe/brie/AboutUs/newsroom/corporate/default-3-business/default-business-3-thumbnail-listing.jpg",
      "articleUrl": "https://www.globe.com.ph/about-us/newsroom/corporate/globe-group-backs-bill-on-digitalization-govt-processes.html",
      "columnType": "articles--type-3",
      "typeListing": "article",
      "imageMobile": "/sites/globe.com.ph/files/content/dam/globe/brie/AboutUs/newsroom/corporate/default-3-business/default-business-3-primary-thumbnail-m.jpg",
      "imageDesktop": "/sites/globe.com.ph/files/content/dam/globe/brie/AboutUs/newsroom/corporate/default-3-business/default-business-3-primary-thumbnail-d.jpg",
      "description": "Globe supports legislation that seeks to digitalize government processes, in line with the administration's goal to streamline transactions in state agencies.",
      "datePosted": "Jul 12, 2022 | 08:05 AM",
      "titleFromTag": "Corporate"
    }
  ]
}
