{
  "status": 200,
  "page": 6,
  "totalPage": 298,
  "range": "61-72",
  "total": 3573,
  "result": [
    {
      "title": "917Ventures’ MemoApp Accelerates and Empowers Businesses with Free Paperless Document Management System",
      "nonclickable": false,
      "openNewTab": false,
      "borderArticle": "border-color:#0074D9;",
      "borderTopArticle": "border-top-color:#0074D9;",
      "imageListing": "/sites/globe.com.ph/files/content/dam/globe/brie/AboutUs/newsroom/common/default-business-5/sg-default-images-thumbnail-listing.jpg",
      "articleUrl": "https://www.globe.com.ph/about-us/newsroom/business/917ventures-memoapp-accelerates-empowers-businesses.html",
      "columnType": "articles--type-3",
      "typeListing": "article",
      "imageMobile": "/sites/globe.com.ph/files/content/dam/globe/brie/AboutUs/newsroom/common/default-business-5/sg-default-images-primary-thumbnail-m.jpg",
      "imageDesktop": "/sites/globe.com.ph/files/content/dam/globe/brie/AboutUs/newsroom/common/default-business-5/sg-default-images-primary-thumbnail-d.jpg",
      "description": "917Ventures’ ​​newest startup, MemoApp, launches a free paperless document management system to support businesses’ digital journey.",
      "datePosted": "Oct 20, 2023 | 11:34 AM",
      "titleFromTag": "Business"
    },
    {
      "title": "Asticom Achieves ISO Certifications on Data Security, IT Service Management",
      "nonclickable": false,
      "openNewTab": false,
      "borderArticle": "border-color:#0074D9;",
      "borderTopArticle": "border-top-color:#0074D9;",
      "imageListing": "/sites/globe.com.ph/files/content/dam/globe/brie/AboutUs/newsroom/common/newsroom-total-globe-default-images-partners/newsroom-total-globe-default-images-partners-3-thumbnail-listing.jpg",
      "articleUrl": "https://www.globe.com.ph/about-us/newsroom/corporate/asticom-achieves-iso-certifications-data-security-it-service-management.html",
      "columnType": "articles--type-3",
      "typeListing": "article",
      "imageMobile": "/sites/globe.com.ph/files/content/dam/globe/brie/AboutUs/newsroom/common/newsroom-total-globe-default-images-partners/newsroom-total-globe-default-images-partners-3-primary-thumbnail-m.jpg",
      "imageDesktop": "/sites/globe.com.ph/files/content/dam/globe/brie/AboutUs/newsroom/common/newsroom-total-globe-default-images-partners/newsroom-total-globe-default-images-partners-3-primary-thumbnail-d.jpg",
      "description": "Asticom has been honored with two prestigious certifications: the ISO/IEC 2700, which governs data security, and ISO/IEC 20000-1 on IT service management.",
      "datePosted": "Oct 19, 2023 | 10:43 AM",
      "titleFromTag": "Corporate"
    },
    {
      "title": "Globe Business Brings Retail Revolution to Davao City",
      "nonclickable": false,
      "openNewTab": false,
      "borderArticle": "border-color:#0074D9;",
      "borderTopArticle": "border-top-color:#0074D9;",
      "imageListing": "/sites/globe.com.ph/files/content/dam/globe/brie/AboutUs/newsroom/common/default-business-7/sg-default-images-thumbnail-listing.jpg",
      "articleUrl": "https://www.globe.com.ph/about-us/newsroom/business/globe-business-brings-retail-revolution-davao-city.html",
      "columnType": "articles--type-3",
      "typeListing": "article",
      "imageMobile": "/sites/globe.com.ph/files/content/dam/globe/brie/AboutUs/newsroom/common/default-business-7/sg-default-images-primary-thumbnail-m.jpg",
      "imageDesktop": "/sites/globe.com.ph/files/content/dam/globe/brie/AboutUs/newsroom/common/default-business-7/sg-default-images-primary-thumbnail-d.jpg",
      "description": "Globe Business brings its regional roadshow to Davao City which aims to revolutionize business' retail digital transformation.",
      "datePosted": "Oct 18, 2023 | 09:09 AM",
      "titleFromTag": "Business"
    },
    {
      "title": "Globe Lauds NTC Memo Requiring Telcos to Block SMS with Clickable Links",
      "nonclickable": false,
      "openNewTab": false,
      "borderArticle": "border-color:#0074D9;",
      "borderTopArticle": "border-top-color:#0074D9;",
      "imageListing": "/sites/globe.com.ph/files/content/dam/globe/brie/AboutUs/newsroom/common/default-corporate-main/newsroom-default-corporate-thumbnail-listing.jpg",
      "articleUrl": "https://www.globe.com.ph/about-us/newsroom/corporate/globe-lauds-ntc-memo-requiring-telcos-to-block-sms-with-clickable-links.html",
      "columnType": "articles--type-3",
      "typeListing": "article",
      "imageMobile": "/sites/globe.com.ph/files/content/dam/globe/brie/AboutUs/newsroom/common/default-corporate-main/newsroom-default-corporate-primary-thumbnail-m.jpg",
      "imageDesktop": "/sites/globe.com.ph/files/content/dam/globe/brie/AboutUs/newsroom/common/default-corporate-main/newsroom-default-corporate-primary-thumbnail-d.jpg",
      "description": "Globe lauds the National Telecommunications Commission (NTC) directive mandating telecom companies to block text messages with clickable links.",
      "datePosted": "Oct 18, 2023 | 09:07 AM",
      "titleFromTag": "Corporate"
    },
    {
      "title": "PetPal Revolutionizes Business for Vets, Helps Expand Clientele",
      "nonclickable": false,
      "openNewTab": false,
      "borderArticle": "border-color:#0074D9;",
      "borderTopArticle": "border-top-color:#0074D9;",
      "imageListing": "/sites/globe.com.ph/files/content/dam/globe/brie/About-us/Newsroom/image/Consumer/petpal-revolutionizes-business-for-vets-helps-expand-clientele/thumbnail-listing.jpg",
      "articleUrl": "https://www.globe.com.ph/about-us/newsroom/consumer/petpal-revolutionizes-business-for-vets-helps-expand-clientele.html",
      "columnType": "articles--type-3",
      "typeListing": "article",
      "imageMobile": "/sites/globe.com.ph/files/content/dam/globe/brie/About-us/Newsroom/image/Consumer/petpal-revolutionizes-business-for-vets-helps-expand-clientele/primary-thumbnail-m.jpg",
      "imageDesktop": "/sites/globe.com.ph/files/content/dam/globe/brie/About-us/Newsroom/image/Consumer/petpal-revolutionizes-business-for-vets-helps-expand-clientele/primary-thumbnail-d.jpg",
      "description": "PetPal has successfully onboarded over 1,000 licensed and accredited veterinarians, partnered with more than 300 trusted vet clinics across the country.",
      "datePosted": "Oct 17, 2023 | 10:49 AM",
      "titleFromTag": "Consumer"
    },
    {
      "title": "As PH Climbs Global Index, Globe Group Drives Innovation through Market-First Digital Solutions",
      "nonclickable": false,
      "openNewTab": false,
      "borderArticle": "border-color:#0074D9;",
      "borderTopArticle": "border-top-color:#0074D9;",
      "imageListing": "/sites/globe.com.ph/files/content/dam/globe/brie/AboutUs/newsroom/corporate/globe-named-ph-best-mobile-network-infrastructure-company/Corporate-globe-thumbnail-listing.jpg",
      "articleUrl": "https://www.globe.com.ph/about-us/newsroom/corporate/globe-group-drives-innovation-through-market-first-digital-solutions.html",
      "columnType": "articles--type-3",
      "typeListing": "article",
      "imageMobile": "/sites/globe.com.ph/files/content/dam/globe/brie/AboutUs/newsroom/corporate/globe-named-ph-best-mobile-network-infrastructure-company/Corporate-globe-primary-thumbnail-m.jpg",
      "imageDesktop": "/sites/globe.com.ph/files/content/dam/globe/brie/AboutUs/newsroom/corporate/globe-named-ph-best-mobile-network-infrastructure-company/Corporate-globe-primary-thumbnail-d.jpg",
      "description": "Globe Group stands at the forefront of this transformative journey, championing market-first digital solutions across various sectors.",
      "datePosted": "Oct 17, 2023 | 10:48 AM",
      "titleFromTag": "Corporate"
    },
    {
      "title": "Globe and TM Sweep Top Positions in 2023 PH’s Best Customer Service Mobile Carriers Category",
      "nonclickable": false,
      "openNewTab": false,
      "borderArticle": "border-color:#0074D9;",
      "borderTopArticle": "border-top-color:#0074D9;",
      "imageListing": "/sites/globe.com.ph/files/content/dam/globe/brie/AboutUs/newsroom/common/default-corporate-16/corp-default-images-thumbnail-listing.jpg",
      "articleUrl": "https://www.globe.com.ph/about-us/newsroom/corporate/globe-tm-top-position-2023-ph-best-customer-service-mobile-carriers-category.html",
      "columnType": "articles--type-3",
      "typeListing": "article",
      "imageMobile": "/sites/globe.com.ph/files/content/dam/globe/brie/AboutUs/newsroom/common/default-corporate-16/corp-default-images-primary-thumbnail-m.jpg",
      "imageDesktop": "/sites/globe.com.ph/files/content/dam/globe/brie/AboutUs/newsroom/common/default-corporate-16/corp-default-images-primary-thumbnail-d.jpg",
      "description": "Globe's mobile brands ranked best in PH customer service in the inaugural Philippines’ Best Customer Service 2023 survey.",
      "datePosted": "Oct 16, 2023 | 12:36 PM",
      "titleFromTag": "Corporate"
    },
    {
      "title": "Globe At Home Introduces All-new GFiber Plans",
      "nonclickable": false,
      "openNewTab": false,
      "borderArticle": "border-color:#0074D9;",
      "borderTopArticle": "border-top-color:#0074D9;",
      "imageListing": "/sites/globe.com.ph/files/content/dam/globe/brie/AboutUs/newsroom/common/default-consumer-2/default-consumer-thumbnail-listing.jpg",
      "articleUrl": "https://www.globe.com.ph/about-us/newsroom/consumer/globe-at-home-new-gfiber-plans-family-bundle-worth-7k.html",
      "columnType": "articles--type-3",
      "typeListing": "article",
      "imageMobile": "/sites/globe.com.ph/files/content/dam/globe/brie/AboutUs/newsroom/common/default-consumer-2/default-consumer-primary-thumbnail-m.jpg",
      "imageDesktop": "/sites/globe.com.ph/files/content/dam/globe/brie/AboutUs/newsroom/common/default-consumer-2/default-consumer-primary-thumbnail-d.jpg",
      "description": "Globe At Home unveils all-new GFiber plans curated with new family bundles.",
      "datePosted": "Oct 16, 2023 | 08:58 AM",
      "titleFromTag": "Consumer"
    },
    {
      "title": "917Ventures Dives Into Generative AI Innovations",
      "nonclickable": false,
      "openNewTab": false,
      "borderArticle": "border-color:#0074D9;",
      "borderTopArticle": "border-top-color:#0074D9;",
      "imageListing": "/sites/globe.com.ph/files/content/dam/globe/brie/AboutUs/newsroom/common/default-corp-3/Newsroom-Default-Images-Corporate-5G-connectivity-3-thumbnail-listing.jpg",
      "articleUrl": "https://www.globe.com.ph/about-us/newsroom/corporate/917ventures-dives-into-generative-ai-innovations.html",
      "columnType": "articles--type-3",
      "typeListing": "article",
      "imageMobile": "/sites/globe.com.ph/files/content/dam/globe/brie/AboutUs/newsroom/common/default-corp-3/Newsroom-Default-Images-Corporate-5G-connectivity-3-primary-thumbnail-m.jpg",
      "imageDesktop": "/sites/globe.com.ph/files/content/dam/globe/brie/AboutUs/newsroom/common/default-corp-3/Newsroom-Default-Images-Corporate-5G-connectivity-3-primary-thumbnail-d.jpg",
      "description": "917Ventures, the corporate venture builder of the Globe Group, is diving deep into the world of generative artificial intelligence (AI).",
      "datePosted": "Oct 16, 2023 | 08:57 AM",
      "titleFromTag": "Corporate"
    },
    {
      "title": "Globe Shines at HREA 2023 with Nine Awards",
      "nonclickable": false,
      "openNewTab": false,
      "borderArticle": "border-color:#0074D9;",
      "borderTopArticle": "border-top-color:#0074D9;",
      "imageListing": "/sites/globe.com.ph/files/content/dam/globe/brie/AboutUs/newsroom/common/default-awards-1/corp-default-images-thumbnail-listing.jpg",
      "articleUrl": "https://www.globe.com.ph/about-us/newsroom/corporate/globe-shines-at-hrea-2023-nine-awards.html",
      "columnType": "articles--type-3",
      "typeListing": "article",
      "imageMobile": "/sites/globe.com.ph/files/content/dam/globe/brie/AboutUs/newsroom/common/default-awards-1/corp-default-images-primary-thumbnail-m.jpg",
      "imageDesktop": "/sites/globe.com.ph/files/content/dam/globe/brie/AboutUs/newsroom/common/default-awards-1/corp-default-images-primary-thumbnail-d.jpg",
      "description": "Globe has emerged as the winner of nine awards, including five golds across various categories.",
      "datePosted": "Oct 13, 2023 | 09:57 AM",
      "titleFromTag": "Corporate"
    },
    {
      "title": "Harmony for Change: LyrOpera Donates ₱200K from Fundraising Concert to The Hapag Movement",
      "nonclickable": false,
      "openNewTab": false,
      "borderArticle": "border-color:#0074D9;",
      "borderTopArticle": "border-top-color:#0074D9;",
      "imageListing": "/sites/globe.com.ph/files/content/dam/globe/brie/About-us/Newsroom/image/Sustainability/lyropera-donates-200k-from-fundraising-concert-the-hapag-movement/thumbnail-listing.jpg",
      "articleUrl": "https://www.globe.com.ph/about-us/newsroom/sustainability/lyropera-donates-200k-from-fundraising-concert-the-hapag-movement.html",
      "columnType": "articles--type-3",
      "typeListing": "article",
      "imageMobile": "/sites/globe.com.ph/files/content/dam/globe/brie/About-us/Newsroom/image/Sustainability/lyropera-donates-200k-from-fundraising-concert-the-hapag-movement/primary-thumbnail-m.jpg",
      "imageDesktop": "/sites/globe.com.ph/files/content/dam/globe/brie/About-us/Newsroom/image/Sustainability/lyropera-donates-200k-from-fundraising-concert-the-hapag-movement/primary-thumbnail-d.jpg",
      "description": "Globe and Lyric Opera of the Philippines (LyrOpera) have united for a fundraising concert that drew ₱200,000 in support of The Hapag Movement.",
      "datePosted": "Oct 13, 2023 | 09:56 AM",
      "titleFromTag": "Sustainability"
    },
    {
      "title": "Globe Sets Stage For Global Leadership via 5G Roaming Collaborations with 156 Partners Worldwide",
      "nonclickable": false,
      "openNewTab": false,
      "borderArticle": "border-color:#0074D9;",
      "borderTopArticle": "border-top-color:#0074D9;",
      "imageListing": "/sites/globe.com.ph/files/content/dam/globe/brie/AboutUs/newsroom/common/default-corp-connectivity-1/thumbnail-listing.jpg",
      "articleUrl": "https://www.globe.com.ph/about-us/newsroom/corporate/global-leadership-5g-roaming-collaborations.html",
      "columnType": "articles--type-3",
      "typeListing": "article",
      "imageMobile": "/sites/globe.com.ph/files/content/dam/globe/brie/AboutUs/newsroom/common/default-corp-connectivity-1/primary-thumbnail-m.jpg",
      "imageDesktop": "/sites/globe.com.ph/files/content/dam/globe/brie/AboutUs/newsroom/common/default-corp-connectivity-1/primary-thumbnail-d.jpg",
      "description": "Globe redefines global connectivity with its expanded 5G roaming collaborations with 156 partners worldwide.",
      "datePosted": "Oct 12, 2023 | 12:08 PM",
      "titleFromTag": "Corporate"
    }
  ]
}
