{
  "status": 200,
  "page": 60,
  "totalPage": 298,
  "range": "709-720",
  "total": 3573,
  "result": [
    {
      "title": "Globe At Home Beefs up Ecosystem, Partners with discovery+ for Entertainment Content Bundle",
      "nonclickable": false,
      "openNewTab": false,
      "borderArticle": "border-color:#0074D9;",
      "borderTopArticle": "border-top-color:#0074D9;",
      "imageListing": "/sites/globe.com.ph/files/content/dam/globe/brie/About-us/Newsroom/image/Consumer/07082022-5PM/globe-at-home-discovery-for-entertainment-thumbnail-listing.jpg",
      "articleUrl": "https://www.globe.com.ph/about-us/newsroom/consumer/globe-at-home-beefs-up-ecosystem-partners-with-discoveryplus.html",
      "columnType": "articles--type-3",
      "typeListing": "article",
      "imageMobile": "/sites/globe.com.ph/files/content/dam/globe/brie/About-us/Newsroom/image/Consumer/07082022-5PM/globe-at-home-discovery-for-entertainment-primary-thumbnail-m.jpg",
      "imageDesktop": "/sites/globe.com.ph/files/content/dam/globe/brie/About-us/Newsroom/image/Consumer/07082022-5PM/globe-at-home-discovery-for-entertainment-primary-thumbnail-d.jpg",
      "description": "Globe At Home introduces discovery+ as part of their new and improved entertainment content bundle for their GFiber UNLI plan subscribers.",
      "datePosted": "Jul 08, 2022 | 12:00 PM",
      "titleFromTag": "Consumer"
    },
    {
      "title": "Partners with AC Ventures to Explore Business Opportunities, Grow Ecosystem",
      "nonclickable": false,
      "openNewTab": false,
      "borderArticle": "border-color:#0074D9;",
      "borderTopArticle": "border-top-color:#0074D9;",
      "imageListing": "/sites/globe.com.ph/files/content/dam/globe/brie/AboutUs/newsroom/partners/internet-watch-foundation-partner-child-protection-advocacy/default-partners-1-thumbnail-listing.jpg",
      "articleUrl": "https://www.globe.com.ph/about-us/newsroom/partners/partners-ac-ventures-explore-business-opportunities-grow-ecosystem.html",
      "columnType": "articles--type-3",
      "typeListing": "article",
      "imageMobile": "/sites/globe.com.ph/files/content/dam/globe/brie/AboutUs/newsroom/partners/internet-watch-foundation-partner-child-protection-advocacy/default-partners-1-primary-thumbnail-m.jpg",
      "imageDesktop": "/sites/globe.com.ph/files/content/dam/globe/brie/AboutUs/newsroom/partners/internet-watch-foundation-partner-child-protection-advocacy/default-partners-1-primary-thumbnail-d.jpg",
      "description": "Globe’s corporate venture builder 917Ventures (917V) has partnered with AC Ventures to explore business opportunities and grow its ecosystem.",
      "datePosted": "Jul 08, 2022 | 10:35 AM",
      "titleFromTag": "Partners"
    },
    {
      "title": "Mobile Users Urged to Use In-Device Filters to Block SMS Scams",
      "nonclickable": false,
      "openNewTab": false,
      "borderArticle": "border-color:#0074D9;",
      "borderTopArticle": "border-top-color:#0074D9;",
      "imageListing": "/sites/globe.com.ph/files/content/dam/globe/brie/AboutUs/newsroom/corporate/volte-service-now-available-25-provinces-ph/default-consumer-2-thumbnail-listing.jpg",
      "articleUrl": "https://www.globe.com.ph/about-us/newsroom/corporate/mobile-users-urged-to-use-in-device-filters-block-sms-scams.html",
      "columnType": "articles--type-3",
      "typeListing": "article",
      "imageMobile": "/sites/globe.com.ph/files/content/dam/globe/brie/AboutUs/newsroom/corporate/volte-service-now-available-25-provinces-ph/default-consumer-2-primary-thumbnail-m.jpg",
      "imageDesktop": "/sites/globe.com.ph/files/content/dam/globe/brie/AboutUs/newsroom/corporate/volte-service-now-available-25-provinces-ph/default-consumer-2-primary-thumbnail-d.jpg",
      "description": "Globe has been vigorously coming out with reminders to the public & instructional social media posts on how customers can enable spam filters on their devices.",
      "datePosted": "Jul 06, 2022 | 08:05 AM",
      "titleFromTag": "Corporate"
    },
    {
      "title": "Whiskey Business: A Masterclass in Malt and Digital Transformation",
      "nonclickable": false,
      "openNewTab": false,
      "borderArticle": "border-color:#0074D9;",
      "borderTopArticle": "border-top-color:#0074D9;",
      "imageListing": "/sites/globe.com.ph/files/content/dam/globe/brie/AboutUs/newsroom/business/whiskey-business-masterclass-malt-digital-transformation/eg-whiskey-thumbnail-listing.jpg",
      "articleUrl": "https://www.globe.com.ph/about-us/newsroom/business/whiskey-business-masterclass-malt-digital-transformation.html",
      "columnType": "articles--type-3",
      "typeListing": "article",
      "imageMobile": "/sites/globe.com.ph/files/content/dam/globe/brie/AboutUs/newsroom/business/whiskey-business-masterclass-malt-digital-transformation/eg-whiskey-primary-thumbnail-m.jpg",
      "imageDesktop": "/sites/globe.com.ph/files/content/dam/globe/brie/AboutUs/newsroom/business/whiskey-business-masterclass-malt-digital-transformation/eg-whiskey-primary-thumbnail-d.jpg",
      "description": "Globe Business held Whiskey Business: A Masterclass in Malt which brought together the best in malt and ICT solutions. ",
      "datePosted": "Jul 05, 2022 | 05:00 PM",
      "titleFromTag": "Business"
    },
    {
      "title": "Globe At Home Unveils WiFi-Strong GFiber Unli Plan Up to 150 Mbps for ₱1,699/Month",
      "nonclickable": false,
      "openNewTab": false,
      "borderArticle": "border-color:#0074D9;",
      "borderTopArticle": "border-top-color:#0074D9;",
      "imageListing": "/sites/globe.com.ph/files/content/dam/globe/brie/AboutUs/newsroom/consumer/globe-at-home-unveils-wifi-strong-gfiber-unli-plan/globe-at-home-unveils-upto-150mbps-for-1699-thumbnail-listing.jpg",
      "articleUrl": "https://www.globe.com.ph/about-us/newsroom/consumer/globe-at-home-unveils-wifi-strong-gfiber-unli-plan.html",
      "columnType": "articles--type-3",
      "typeListing": "article",
      "imageMobile": "/sites/globe.com.ph/files/content/dam/globe/brie/AboutUs/newsroom/consumer/globe-at-home-unveils-wifi-strong-gfiber-unli-plan/globe-at-home-unveils-upto-150mbps-for-1699-primary-thumbnail-m_v2.jpg",
      "imageDesktop": "/sites/globe.com.ph/files/content/dam/globe/brie/AboutUs/newsroom/consumer/globe-at-home-unveils-wifi-strong-gfiber-unli-plan/globe-at-home-unveils-upto-150mbps-for-1699-primary-thumbnail-d_v2.jpg",
      "description": "Globe launched its new and improved GFiber Unli Plan 1699 as a way to provide a fast, reliable, and strong WiFi connection for the whole family. ",
      "datePosted": "Jul 05, 2022 | 05:00 PM",
      "titleFromTag": "Consumer"
    },
    {
      "title": "Globe’s This IsKwela, UP-JFA Teach Pinoys How to Save and Invest Wisely",
      "nonclickable": false,
      "openNewTab": false,
      "borderArticle": "border-color:#1C91C5;",
      "borderTopArticle": "border-top-color:#1C91C5;",
      "imageListing": "/sites/globe.com.ph/files/content/dam/globe/brie/AboutUs/newsroom/sustainability/Globe-Partners---LinkedIn-Learning-Offer-Sustainability-Education/default-default-3-thumbnail-listing.jpg",
      "articleUrl": "https://www.globe.com.ph/about-us/newsroom/sustainability/this-iskwela-up-jfa-teach-pinoys-how-to-save-invest-wisely.html",
      "columnType": "articles--type-3",
      "typeListing": "article",
      "imageMobile": "/sites/globe.com.ph/files/content/dam/globe/brie/AboutUs/newsroom/sustainability/Globe-Partners---LinkedIn-Learning-Offer-Sustainability-Education/default-default-3-primary-thumbnail-m.jpg",
      "imageDesktop": "/sites/globe.com.ph/files/content/dam/globe/brie/AboutUs/newsroom/sustainability/Globe-Partners---LinkedIn-Learning-Offer-Sustainability-Education/default-default-3-primary-thumbnail-d.jpg",
      "description": "Globe’s This isKwela Online Community & UP-JFA to hold a two-part financial literacy online webinar called “Pera-Peraan: Unlock Your Future With Finance.”",
      "datePosted": "Jul 05, 2022 | 11:49 AM",
      "titleFromTag": "Sustainability"
    },
    {
      "title": "Globe Unifies Digital Customer Platforms Under New GlobeOne App",
      "nonclickable": false,
      "openNewTab": false,
      "borderArticle": "border-color:#0074D9;",
      "borderTopArticle": "border-top-color:#0074D9;",
      "imageListing": "/sites/globe.com.ph/files/content/dam/globe/brie/About-us/Newsroom/image/Consumer/060422/newsroom-consumer-globe-unifies-platforms-NG1-thumbnail-listing.jpg",
      "articleUrl": "https://www.globe.com.ph/about-us/newsroom/consumer/globe-unifies-digital-customer-platforms-under-new-globeone-app.html",
      "columnType": "articles--type-3",
      "typeListing": "article",
      "imageMobile": "/sites/globe.com.ph/files/content/dam/globe/brie/About-us/Newsroom/image/Consumer/060422/newsroom-consumer-globe-unifies-platforms-NG1-primary-thumbnail-m.jpg",
      "imageDesktop": "/sites/globe.com.ph/files/content/dam/globe/brie/About-us/Newsroom/image/Consumer/060422/newsroom-consumer-globe-unifies-platforms-NG1-primary-thumbnail-d.jpg",
      "description": "Globe to deactivate its old mobile apps this year and unify them into the New GlobeOne app for a better and streamlined customer experience. \r\n",
      "datePosted": "Jul 04, 2022 | 02:27 PM",
      "titleFromTag": "Consumer"
    },
    {
      "title": "Globe, Banks Partner for Stronger Online Safety; Bank-Related Scam, Spam Messages among 138M Blocked",
      "nonclickable": false,
      "openNewTab": false,
      "borderArticle": "border-color:#0074D9;",
      "borderTopArticle": "border-top-color:#0074D9;",
      "imageListing": "/sites/globe.com.ph/files/content/dam/globe/brie/AboutUs/newsroom/partners/internet-watch-foundation-partner-child-protection-advocacy/default-partners-1-thumbnail-listing.jpg",
      "articleUrl": "https://www.globe.com.ph/about-us/newsroom/partners/globe-banks-partner-for-stronger-online-safety.html",
      "columnType": "articles--type-3",
      "typeListing": "article",
      "imageMobile": "/sites/globe.com.ph/files/content/dam/globe/brie/AboutUs/newsroom/partners/internet-watch-foundation-partner-child-protection-advocacy/default-partners-1-primary-thumbnail-m.jpg",
      "imageDesktop": "/sites/globe.com.ph/files/content/dam/globe/brie/AboutUs/newsroom/partners/internet-watch-foundation-partner-child-protection-advocacy/default-partners-1-primary-thumbnail-d.jpg",
      "description": "Globe established partnerships with various financial institutions to strengthen its stance for online safety & cybersecurity, blocking scam and spam messages.",
      "datePosted": "Jul 04, 2022 | 10:35 AM",
      "titleFromTag": "Partners"
    },
    {
      "title": "Globe’s #1stWorldNetwork Ready for New Administration’s Digitalization Plan",
      "nonclickable": false,
      "openNewTab": false,
      "borderArticle": "border-color:#0074D9;",
      "borderTopArticle": "border-top-color:#0074D9;",
      "imageListing": "/sites/globe.com.ph/files/content/dam/globe/brie/AboutUs/newsroom/corporate/799-permits-1q-2021-new-towers/default-corporate-9-thumbnail-listing.jpg",
      "articleUrl": "https://www.globe.com.ph/about-us/newsroom/corporate/globe-ready-new-administration-digitalization-plan.html",
      "columnType": "articles--type-3",
      "typeListing": "article",
      "imageMobile": "/sites/globe.com.ph/files/content/dam/globe/brie/AboutUs/newsroom/corporate/799-permits-1q-2021-new-towers/default-corporate-9-primary-thumbnail-m.jpg",
      "imageDesktop": "/sites/globe.com.ph/files/content/dam/globe/brie/AboutUs/newsroom/corporate/799-permits-1q-2021-new-towers/default-corporate-9-primary-thumbnail-d.jpg",
      "description": "Globe fully supports the new administration’s goal of streamlining government service through digitalization, as it aims to deliver a #1stWorldNetwork.",
      "datePosted": "Jul 01, 2022 | 03:53 PM",
      "titleFromTag": "Corporate"
    },
    {
      "title": "Globe, KonsultaMD Team Up to Provide FREE Mental Health Support ",
      "nonclickable": false,
      "openNewTab": false,
      "borderArticle": "border-color:#0074D9;",
      "borderTopArticle": "border-top-color:#0074D9;",
      "imageListing": "/sites/globe.com.ph/files/content/dam/globe/brie/AboutUs/newsroom/common/default-3/corporate-default-7-thumbnail-listing.jpg",
      "articleUrl": "https://www.globe.com.ph/about-us/newsroom/consumer/globe-konsultamd-provide-free-mental-health-support.html",
      "columnType": "articles--type-3",
      "typeListing": "article",
      "imageMobile": "/sites/globe.com.ph/files/content/dam/globe/brie/AboutUs/newsroom/common/default-3/corporate-default-7-primary-thumbnail-m.jpg",
      "imageDesktop": "/sites/globe.com.ph/files/content/dam/globe/brie/AboutUs/newsroom/common/default-3/corporate-default-7-primary-thumbnail-d.jpg",
      "description": "Globe and KonsultaMD understand that it is difficult to get access to mental health services nowadays, so they are teaming up to provide mental health support. ",
      "datePosted": "Jul 01, 2022 | 02:27 PM",
      "titleFromTag": "Consumer"
    },
    {
      "title": "KROMA Brings Together PH’s Finest Artists, Creatives Under One Roof",
      "nonclickable": false,
      "openNewTab": false,
      "borderArticle": "border-color:#0074D9;",
      "borderTopArticle": "border-top-color:#0074D9;",
      "imageListing": "/sites/globe.com.ph/files/content/dam/globe/brie/About-us/Newsroom/image/Partners/060122/newsroom-partners-kroma-ph_s-finest-artist-thumbnail-listing.jpg",
      "articleUrl": "https://www.globe.com.ph/about-us/newsroom/partners/kroma-brings-together-ph-finest-artists-creatives-under-one-roof.html",
      "columnType": "articles--type-3",
      "typeListing": "article",
      "imageMobile": "/sites/globe.com.ph/files/content/dam/globe/brie/About-us/Newsroom/image/Partners/060122/newsroom-partners-kroma-ph_s-finest-artist-primary-thumbnail-m.jpg",
      "imageDesktop": "/sites/globe.com.ph/files/content/dam/globe/brie/About-us/Newsroom/image/Partners/060122/newsroom-partners-kroma-ph_s-finest-artist-primary-thumbnail-d.jpg",
      "description": "KROMA Entertainment brings together the country’s finest artists & creatives under one roof to bring world-class entertainment to Filipinos & global audiences.",
      "datePosted": "Jul 01, 2022 | 10:35 AM",
      "titleFromTag": "Partners"
    },
    {
      "title": "Gaming and eSports Powerhouses TNC Pro ML, PinoyGamer Make Lifestyle Crossover With Kroma Pub Co.",
      "nonclickable": false,
      "openNewTab": false,
      "borderArticle": "border-color:#0074D9;",
      "borderTopArticle": "border-top-color:#0074D9;",
      "imageListing": "/sites/globe.com.ph/files/content/dam/globe/brie/About-us/Newsroom/image/Partners/063022/newsroom-partners-gaming-tnc-pinoygamer-kroma-thumbnail-listing.jpg",
      "articleUrl": "https://www.globe.com.ph/about-us/newsroom/partners/tncproml-and-pinoygamer-make-lifestyle-crossover-with-kroma-pub-co.html",
      "columnType": "articles--type-3",
      "typeListing": "article",
      "imageMobile": "/sites/globe.com.ph/files/content/dam/globe/brie/About-us/Newsroom/image/Partners/063022/newsroom-partners-gaming-tnc-pinoygamer-kroma-primary-thumbnail-m.jpg",
      "imageDesktop": "/sites/globe.com.ph/files/content/dam/globe/brie/About-us/Newsroom/image/Partners/063022/newsroom-partners-gaming-tnc-pinoygamer-kroma-primary-thumbnail-d.jpg",
      "description": "Philippine gaming and eSports powerhouses TNC Pro ML and PinoyGamer make lifestyle crossover with Kroma Pub Co.",
      "datePosted": "Jun 30, 2022 | 03:23 PM",
      "titleFromTag": "Partners"
    }
  ]
}
