{
  "status": 200,
  "page": 61,
  "totalPage": 298,
  "range": "721-732",
  "total": 3573,
  "result": [
    {
      "title": "Globe Encourages Customers to Use Digital Channels to Fight Cyberviolence",
      "nonclickable": false,
      "openNewTab": false,
      "borderArticle": "border-color:#0074D9;",
      "borderTopArticle": "border-top-color:#0074D9;",
      "imageListing": "/sites/globe.com.ph/files/content/dam/globe/brie/AboutUs/newsroom/corporate/volte-service-now-available-25-provinces-ph/default-consumer-2-thumbnail-listing.jpg",
      "articleUrl": "https://www.globe.com.ph/about-us/newsroom/citizenship/globe-customers-digital-channels-fight-cyberviolence.html",
      "columnType": "articles--type-3",
      "typeListing": "article",
      "imageMobile": "/sites/globe.com.ph/files/content/dam/globe/brie/AboutUs/newsroom/corporate/volte-service-now-available-25-provinces-ph/default-consumer-2-primary-thumbnail-m.jpg",
      "imageDesktop": "/sites/globe.com.ph/files/content/dam/globe/brie/AboutUs/newsroom/corporate/volte-service-now-available-25-provinces-ph/default-consumer-2-primary-thumbnail-d.jpg",
      "description": "World Social Media Day: Globe encouraged its customers to unleash the full power of online channels to do good & fight alarming negative digital interactions. ",
      "datePosted": "Jun 30, 2022 | 10:36 AM",
      "titleFromTag": "Citizenship"
    },
    {
      "title": "Globe Business Brings an Ecosystem of Digital Solutions to  St. Joseph’s College to Support 21st Century Learning",
      "nonclickable": false,
      "openNewTab": false,
      "borderArticle": "border-color:#0074D9;",
      "borderTopArticle": "border-top-color:#0074D9;",
      "imageListing": "/sites/globe.com.ph/files/content/dam/globe/brie/AboutUs/newsroom/business/globe-business-brings-an-ecosystem-of-digital-solutions/sg-stjoseph-thumbnail-listing.jpg",
      "articleUrl": "https://www.globe.com.ph/about-us/newsroom/business/globe-business-digital-solutions-st-josephs-college.html",
      "columnType": "articles--type-3",
      "typeListing": "article",
      "imageMobile": "/sites/globe.com.ph/files/content/dam/globe/brie/AboutUs/newsroom/business/globe-business-brings-an-ecosystem-of-digital-solutions/sg-stjoseph-primary-thumbnail-m.jpg",
      "imageDesktop": "/sites/globe.com.ph/files/content/dam/globe/brie/AboutUs/newsroom/business/globe-business-brings-an-ecosystem-of-digital-solutions/sg-stjoseph-primary-thumbnail-d.jpg",
      "description": "Globe Business provides St. Joseph's College of Baggao the right digital and connectivity solutions to adapt confidently to a hybrid way of learning.",
      "datePosted": "Jun 30, 2022 | 10:00 AM",
      "titleFromTag": "Business"
    },
    {
      "title": "GCash Lone PH Representative in Exclusive UK-APAC Tech Dialogue at London Tech Week 2022",
      "nonclickable": false,
      "openNewTab": false,
      "borderArticle": "border-color:#0074D9;",
      "borderTopArticle": "border-top-color:#0074D9;",
      "imageListing": "/sites/globe.com.ph/files/content/dam/globe/brie/AboutUs/newsroom/corporate/gcash-ph-representative-uk-apac-tech-diologue-london-tech-week-2022/newsroom-corporate-gcash-representative-london-tech-thumbnail-listing.jpg",
      "articleUrl": "https://www.globe.com.ph/about-us/newsroom/corporate/gcash-ph-representative-uk-apac-tech-diologue-london-tech-week-2022.html",
      "columnType": "articles--type-3",
      "typeListing": "article",
      "imageMobile": "/sites/globe.com.ph/files/content/dam/globe/brie/AboutUs/newsroom/corporate/gcash-ph-representative-uk-apac-tech-diologue-london-tech-week-2022/newsroom-corporate-gcash-representative-london-tech-primary-thumbnail-m.jpg",
      "imageDesktop": "/sites/globe.com.ph/files/content/dam/globe/brie/AboutUs/newsroom/corporate/gcash-ph-representative-uk-apac-tech-diologue-london-tech-week-2022/newsroom-corporate-gcash-representative-london-tech-primary-thumbnail-d.jpg",
      "description": "GCash represented the Philippines in an intimate roundtable discussion among Asia-Pacific tech representatives and top UK officials at 10 Downing Street.",
      "datePosted": "Jun 29, 2022 | 02:05 PM",
      "titleFromTag": "Corporate"
    },
    {
      "title": "Globe, WWF Encourage In-Depth Environmental Learning for Filipinos via Camp Kalikasan",
      "nonclickable": false,
      "openNewTab": false,
      "borderArticle": "border-color:#1C91C5;",
      "borderTopArticle": "border-top-color:#1C91C5;",
      "imageListing": "/sites/globe.com.ph/files/content/dam/globe/brie/AboutUs/newsroom/common/default-sustainability-1/default-sustainability-2-thumbnail-listing.jpg",
      "articleUrl": "https://www.globe.com.ph/about-us/newsroom/sustainability/globe-wwf-in-depth-environmental-learning-camp-kalikasan.html",
      "columnType": "articles--type-3",
      "typeListing": "article",
      "imageMobile": "/sites/globe.com.ph/files/content/dam/globe/brie/AboutUs/newsroom/common/default-sustainability-1/default-sustainability-2-primary-thumbnail-m.jpg",
      "imageDesktop": "/sites/globe.com.ph/files/content/dam/globe/brie/AboutUs/newsroom/common/default-sustainability-1/default-sustainability-2-primary-thumbnail-d.jpg",
      "description": "WWF and Globe are encouraging Filipinos to be more proactive in learning about how we can help protect and restore ecosystems by signing up for Camp Kalikasan.",
      "datePosted": "Jun 29, 2022 | 11:49 AM",
      "titleFromTag": "Sustainability"
    },
    {
      "title": "Globe At Home Prepaid supports Filipino family’s needs with ₱799 promo",
      "nonclickable": false,
      "openNewTab": false,
      "borderArticle": "border-color:#0074D9;",
      "borderTopArticle": "border-top-color:#0074D9;",
      "imageListing": "/sites/globe.com.ph/files/content/dam/globe/brie/AboutUs/newsroom/consumer/globe-at-home-supports-filipino-family-needs-799-pesos-promo/newsroom-consumer-hpw-799-thumbnail-listing.jpg",
      "articleUrl": "https://www.globe.com.ph/about-us/newsroom/consumer/globe-at-home-supports-filipino-family-needs-799-pesos-promo.html",
      "columnType": "articles--type-3",
      "typeListing": "article",
      "imageMobile": "/sites/globe.com.ph/files/content/dam/globe/brie/AboutUs/newsroom/consumer/globe-at-home-supports-filipino-family-needs-799-pesos-promo/newsroom-consumer-hpw-799-primary-thumbnail-m.jpg",
      "imageDesktop": "/sites/globe.com.ph/files/content/dam/globe/brie/AboutUs/newsroom/consumer/globe-at-home-supports-filipino-family-needs-799-pesos-promo/newsroom-consumer-hpw-799-primary-thumbnail-d.jpg",
      "description": "Globe At Home Prepaid WiFi is now available at ₱799, down from the regular price of ₱999.",
      "datePosted": "Jun 28, 2022 | 05:00 PM",
      "titleFromTag": "Consumer"
    },
    {
      "title": "KROMA Pub Co. Partners With Lunch Boxer, Sets Sights on Emerging Filipino Creators",
      "nonclickable": false,
      "openNewTab": false,
      "borderArticle": "border-color:#0074D9;",
      "borderTopArticle": "border-top-color:#0074D9;",
      "imageListing": "/sites/globe.com.ph/files/content/dam/globe/brie/AboutUs/newsroom/consumer/KROMA-Pub-Co--Partners-With-Lunch-Boxer/newsroom-consumer-kroma-partners-with-lunchboxer-thumbnail-listing.jpg",
      "articleUrl": "https://www.globe.com.ph/about-us/newsroom/consumer/kroma-partners-with-lunch-boxer.html",
      "columnType": "articles--type-3",
      "typeListing": "article",
      "imageMobile": "/sites/globe.com.ph/files/content/dam/globe/brie/AboutUs/newsroom/consumer/KROMA-Pub-Co--Partners-With-Lunch-Boxer/newsroom-consumer-kroma-partners-with-lunchboxer-primary-thumbnail-m.jpg",
      "imageDesktop": "/sites/globe.com.ph/files/content/dam/globe/brie/AboutUs/newsroom/consumer/KROMA-Pub-Co--Partners-With-Lunch-Boxer/newsroom-consumer-kroma-partners-with-lunchboxer-primary-thumbnail-d.jpg",
      "description": "Kroma Pub Co. partners with food content brand Lunch Boxer as it sets its sights on empowering today’s rising Filipino creators. ",
      "datePosted": "Jun 28, 2022 | 05:00 PM",
      "titleFromTag": "Consumer"
    },
    {
      "title": "Redeem Life-Enabling GCash Vouchers via the New GlobeOne App!",
      "nonclickable": false,
      "openNewTab": false,
      "borderArticle": "border-color:#0074D9;",
      "borderTopArticle": "border-top-color:#0074D9;",
      "imageListing": "/sites/globe.com.ph/files/content/dam/globe/brie/AboutUs/newsroom/consumer/redeem-life-enabling-gcash-vouchers-new-globeone-app/newsroom-consumer-redeem-GCash-vouchers-NG1-thumbnail-listing.jpg",
      "articleUrl": "https://www.globe.com.ph/about-us/newsroom/consumer/redeem-life-enabling-gcash-vouchers-new-globeone-app.html",
      "columnType": "articles--type-3",
      "typeListing": "article",
      "imageMobile": "/sites/globe.com.ph/files/content/dam/globe/brie/AboutUs/newsroom/consumer/redeem-life-enabling-gcash-vouchers-new-globeone-app/newsroom-consumer-redeem-GCash-vouchers-NG1-primary-thumbnail-m.jpg",
      "imageDesktop": "/sites/globe.com.ph/files/content/dam/globe/brie/AboutUs/newsroom/consumer/redeem-life-enabling-gcash-vouchers-new-globeone-app/newsroom-consumer-redeem-GCash-vouchers-NG1-primary-thumbnail-d.jpg",
      "description": "You can now use your Globe Rewards points to redeem life-enabling GCash vouchers via the New GlobeOne app.",
      "datePosted": "Jun 27, 2022 | 05:00 PM",
      "titleFromTag": "Consumer"
    },
    {
      "title": "Globe Recognized for Green Solutions, Sustainability Programs in 2022 Europa Awards",
      "nonclickable": false,
      "openNewTab": false,
      "borderArticle": "border-color:#1C91C5;",
      "borderTopArticle": "border-top-color:#1C91C5;",
      "imageListing": "/sites/globe.com.ph/files/content/dam/globe/brie/AboutUs/newsroom/common/default-sustainability-1/default-sustainability-2-thumbnail-listing.jpg",
      "articleUrl": "https://www.globe.com.ph/about-us/newsroom/sustainability/globe-recognized-green-solutions-sustainability-programs-europa-awards.html",
      "columnType": "articles--type-3",
      "typeListing": "article",
      "imageMobile": "/sites/globe.com.ph/files/content/dam/globe/brie/AboutUs/newsroom/common/default-sustainability-1/default-sustainability-2-primary-thumbnail-m.jpg",
      "imageDesktop": "/sites/globe.com.ph/files/content/dam/globe/brie/AboutUs/newsroom/common/default-sustainability-1/default-sustainability-2-primary-thumbnail-d.jpg",
      "description": "Globe was recently recognized for its efforts in sustainable building management and energy efficiency and conservation in the 2022 Europa Awards.",
      "datePosted": "Jun 27, 2022 | 11:49 AM",
      "titleFromTag": "Sustainability"
    },
    {
      "title": "Globe Blocks over 138M Spam, Scam Messages from January to June 15",
      "nonclickable": false,
      "openNewTab": false,
      "borderArticle": "border-color:#0074D9;",
      "borderTopArticle": "border-top-color:#0074D9;",
      "imageListing": "/sites/globe.com.ph/files/content/dam/globe/brie/AboutUs/newsroom/common/default-3/corporate-default-7-thumbnail-listing.jpg",
      "articleUrl": "https://www.globe.com.ph/about-us/newsroom/citizenship/globe-block-138-million-spam-scam-messages.html",
      "columnType": "articles--type-3",
      "typeListing": "article",
      "imageMobile": "/sites/globe.com.ph/files/content/dam/globe/brie/AboutUs/newsroom/common/default-3/corporate-default-7-primary-thumbnail-m.jpg",
      "imageDesktop": "/sites/globe.com.ph/files/content/dam/globe/brie/AboutUs/newsroom/common/default-3/corporate-default-7-primary-thumbnail-d.jpg",
      "description": "Globe helps keep the public safe from malicious and fraudulent activities online, blocking over 138 million spam & scam messages from January to June 15, 2022.",
      "datePosted": "Jun 27, 2022 | 10:09 AM",
      "titleFromTag": "Citizenship"
    },
    {
      "title": "Globe Wins in 2022 ASEAN Tech for ESG Awards",
      "nonclickable": false,
      "openNewTab": false,
      "borderArticle": "border-color:#0074D9;",
      "borderTopArticle": "border-top-color:#0074D9;",
      "imageListing": "/sites/globe.com.ph/files/content/dam/globe/brie/AboutUs/newsroom/sustainability/globe-wins-2022-asean-tech-for-esg-awards/Newsroom-sustainability-globe-wins-asean-tech-thumbnail-listing.jpg",
      "articleUrl": "https://www.globe.com.ph/about-us/newsroom/sustainability/globe-wins-2022-asean-tech-for-esg-awards.html",
      "columnType": "articles--type-3",
      "typeListing": "article",
      "imageMobile": "/sites/globe.com.ph/files/content/dam/globe/brie/AboutUs/newsroom/sustainability/globe-wins-2022-asean-tech-for-esg-awards/Newsroom-sustainability-globe-wins-asean-tech-primary-thumbnail-m.jpg",
      "imageDesktop": "/sites/globe.com.ph/files/content/dam/globe/brie/AboutUs/newsroom/sustainability/globe-wins-2022-asean-tech-for-esg-awards/Newsroom-sustainability-globe-wins-asean-tech-primary-thumbnail-d.jpg",
      "description": "Globe was recognized by the ASEAN Innovative Business Platform for being a trailblazer on environmental, social, & governance integration in digital innovation.",
      "datePosted": "Jun 23, 2022 | 01:53 PM",
      "titleFromTag": "Sustainability"
    },
    {
      "title": "m360 Enables Philippine Businesses To Send SMS to Over 230 Countries",
      "nonclickable": false,
      "openNewTab": false,
      "borderArticle": "border-color:#0074D9;",
      "borderTopArticle": "border-top-color:#0074D9;",
      "imageListing": "/sites/globe.com.ph/files/content/dam/globe/brie/About-us/Newsroom/image/Partners/062222/newsroom-partners-m360-enables-business-sms-thumbnail-listing.jpg",
      "articleUrl": "https://www.globe.com.ph/about-us/newsroom/partners/m360-enables-ph-businesses-send-sms-over-230-countries.html",
      "columnType": "articles--type-3",
      "typeListing": "article",
      "imageMobile": "/sites/globe.com.ph/files/content/dam/globe/brie/About-us/Newsroom/image/Partners/062222/newsroom-partners-m360-enables-business-sms-primary-thumbnail-m.jpg",
      "imageDesktop": "/sites/globe.com.ph/files/content/dam/globe/brie/About-us/Newsroom/image/Partners/062222/newsroom-partners-m360-enables-business-sms-primary-thumbnail-d.jpg",
      "description": "Multi-channel messaging platform m360 now enables Philippine businesses to send SMS to over 230 countries worldwide. ",
      "datePosted": "Jun 22, 2022 | 03:23 PM",
      "titleFromTag": "Partners"
    },
    {
      "title": "Globe Network is Most Consistent in PH: How Your Most Consistent Mobile Network Lives up to Its Name",
      "nonclickable": false,
      "openNewTab": false,
      "borderArticle": "border-color:#0074D9;",
      "borderTopArticle": "border-top-color:#0074D9;",
      "imageListing": "/sites/globe.com.ph/files/content/dam/globe/brie/AboutUs/newsroom/corporate/largest-ph-publicly-listed-telco-digital-solutions-group/Corporate-globe-thumbnail-listing.jpg",
      "articleUrl": "https://www.globe.com.ph/about-us/newsroom/corporate/most-consistent-network-how-globe-lives-up-to-its-name.html",
      "columnType": "articles--type-3",
      "typeListing": "article",
      "imageMobile": "/sites/globe.com.ph/files/content/dam/globe/brie/AboutUs/newsroom/corporate/largest-ph-publicly-listed-telco-digital-solutions-group/Corporate-globe-primary-thumbnail-m.jpg",
      "imageDesktop": "/sites/globe.com.ph/files/content/dam/globe/brie/AboutUs/newsroom/corporate/largest-ph-publicly-listed-telco-digital-solutions-group/Corporate-globe-primary-thumbnail-d.jpg",
      "description": "Now, you can add Globe to this list of life’s consistencies, as it lives up to its recognition as the PH’s Most Consistent Mobile Network in more ways than one.",
      "datePosted": "Jun 22, 2022 | 02:05 PM",
      "titleFromTag": "Corporate"
    }
  ]
}
