{
  "status": 200,
  "page": 62,
  "totalPage": 298,
  "range": "733-744",
  "total": 3573,
  "result": [
    {
      "title": "KonsultaMD, Lawson Philippines Provide Accessible Healthcare to Filipinos",
      "nonclickable": false,
      "openNewTab": false,
      "borderArticle": "border-color:#0074D9;",
      "borderTopArticle": "border-top-color:#0074D9;",
      "imageListing": "/sites/globe.com.ph/files/content/dam/globe/brie/About-us/Newsroom/image/Consumer/062122/newsroom-consumer-konsultamd-lawson-accessible-healthcare-thumbnail-listing.jpg",
      "articleUrl": "https://www.globe.com.ph/about-us/newsroom/consumer/konsultamd-lawson-provide-accessible-healthcare-filipinos.html",
      "columnType": "articles--type-3",
      "typeListing": "article",
      "imageMobile": "/sites/globe.com.ph/files/content/dam/globe/brie/About-us/Newsroom/image/Consumer/062122/newsroom-consumer-konsultamd-lawson-accessible-healthcare-primary-thumbnail-m.jpg",
      "imageDesktop": "/sites/globe.com.ph/files/content/dam/globe/brie/About-us/Newsroom/image/Consumer/062122/newsroom-consumer-konsultamd-lawson-accessible-healthcare-primary-thumbnail-d.jpg",
      "description": "Telehealth service provider KonsultaMD and convenience store chain Lawson Philippines to provide accessible healthcare to Filipinos.",
      "datePosted": "Jun 21, 2022 | 05:00 PM",
      "titleFromTag": "Consumer"
    },
    {
      "title": "Globe, King Properties Redefine Modern Living in Cebu via Built-in Broadband Connectivity",
      "nonclickable": false,
      "openNewTab": false,
      "borderArticle": "border-color:#0074D9;",
      "borderTopArticle": "border-top-color:#0074D9;",
      "imageListing": "/sites/globe.com.ph/files/content/dam/globe/brie/AboutUs/newsroom/partners/globe-king-properties-redefine-modern-living-cebu/newsroom-corporate-king-properties-redefine-living-thumbnail-listing.jpg",
      "articleUrl": "https://www.globe.com.ph/about-us/newsroom/partners/globe-king-properties-redefine-modern-living-cebu.html",
      "columnType": "articles--type-3",
      "typeListing": "article",
      "imageMobile": "/sites/globe.com.ph/files/content/dam/globe/brie/AboutUs/newsroom/partners/globe-king-properties-redefine-modern-living-cebu/newsroom-corporate-king-properties-redefine-living-primary-thumbnail-m.jpg",
      "imageDesktop": "/sites/globe.com.ph/files/content/dam/globe/brie/AboutUs/newsroom/partners/globe-king-properties-redefine-modern-living-cebu/newsroom-corporate-king-properties-redefine-living-primary-thumbnail-d.jpg",
      "description": "Globe and real estate developer King Properties have joined hands to redefine modern living for young urban professionals and their families in Cebu.",
      "datePosted": "Jun 21, 2022 | 03:23 PM",
      "titleFromTag": "Partners"
    },
    {
      "title": "Globe, DA-NFRDI, Haifa University Collaborate to Promote Aquatic Technologies for PH Marine Conservation",
      "nonclickable": false,
      "openNewTab": false,
      "borderArticle": "border-color:#0074D9;",
      "borderTopArticle": "border-top-color:#0074D9;",
      "imageListing": "/sites/globe.com.ph/files/content/dam/globe/brie/AboutUs/newsroom/common/updated/Corporate-globe-thumbnail-listing.jpg",
      "articleUrl": "https://www.globe.com.ph/about-us/newsroom/sustainability/globe-da-nfrdi-haifa-univ-aquatic-technologies.html",
      "columnType": "articles--type-3",
      "typeListing": "article",
      "imageMobile": "/sites/globe.com.ph/files/content/dam/globe/brie/AboutUs/newsroom/common/updated/Corporate-globe-primary-thumbnail-m.jpg",
      "imageDesktop": "/sites/globe.com.ph/files/content/dam/globe/brie/AboutUs/newsroom/common/updated/Corporate-globe-primary-thumbnail-d.jpg",
      "description": "Globe partnered with Carmel-Haifa University Economic Corporation Ltd from Israel’s University of Haifa & DA-NFRDI, to Promote Aquatic Technologies for the PH.",
      "datePosted": "Jun 20, 2022 | 09:00 AM",
      "titleFromTag": "Sustainability"
    },
    {
      "title": "Globe Partners with LinkedIn Learning to Offer Sustainability Education for Workforce",
      "nonclickable": false,
      "openNewTab": false,
      "borderArticle": "border-color:#1C91C5;",
      "borderTopArticle": "border-top-color:#1C91C5;",
      "imageListing": "/sites/globe.com.ph/files/content/dam/globe/brie/AboutUs/newsroom/sustainability/Globe-Partners---LinkedIn-Learning-Offer-Sustainability-Education/default-default-3-thumbnail-listing.jpg",
      "articleUrl": "https://www.globe.com.ph/about-us/newsroom/sustainability/globe-linkedin-learning-sustainability-education-workforce.html",
      "columnType": "articles--type-3",
      "typeListing": "article",
      "imageMobile": "/sites/globe.com.ph/files/content/dam/globe/brie/AboutUs/newsroom/sustainability/Globe-Partners---LinkedIn-Learning-Offer-Sustainability-Education/default-default-3-primary-thumbnail-m.jpg",
      "imageDesktop": "/sites/globe.com.ph/files/content/dam/globe/brie/AboutUs/newsroom/sustainability/Globe-Partners---LinkedIn-Learning-Offer-Sustainability-Education/default-default-3-primary-thumbnail-d.jpg",
      "description": "Globe empowers its employees to embrace sustainable practices, providing them with useful knowledge and skills through their Sustainability Academy.",
      "datePosted": "Jun 17, 2022 | 11:49 AM",
      "titleFromTag": "Sustainability"
    },
    {
      "title": "Globe Builds a Future-Proof Business ‘up in the Cloud’ for Vivant Corporation",
      "nonclickable": false,
      "openNewTab": false,
      "borderArticle": "border-color:#0074D9;",
      "borderTopArticle": "border-top-color:#0074D9;",
      "imageListing": "/sites/globe.com.ph/files/content/dam/globe/brie/About-us/Newsroom/image/Business/06162022-5PM/eg-future-proof-thumbnail-listing.jpg",
      "articleUrl": "https://www.globe.com.ph/about-us/newsroom/business/globe-builds-future-proof-business-cloud-vivant-corporation.html",
      "columnType": "articles--type-3",
      "typeListing": "article",
      "imageMobile": "/sites/globe.com.ph/files/content/dam/globe/brie/About-us/Newsroom/image/Business/06162022-5PM/eg-future-proof-primary-thumbnail-m.jpg",
      "imageDesktop": "/sites/globe.com.ph/files/content/dam/globe/brie/About-us/Newsroom/image/Business/06162022-5PM/eg-future-proof-primary-thumbnail-d.jpg",
      "description": "Vivant Corporation teamed up with Globe Business, for the former’s successful migration to Amazon Web Services (AWS) with the help of Cascadeo.",
      "datePosted": "Jun 16, 2022 | 05:00 PM",
      "titleFromTag": "Business"
    },
    {
      "title": "Say Thanks to Dad with Globe At Home",
      "nonclickable": false,
      "openNewTab": false,
      "borderArticle": "border-color:#0074D9;",
      "borderTopArticle": "border-top-color:#0074D9;",
      "imageListing": "/sites/globe.com.ph/files/content/dam/globe/brie/About-us/Newsroom/image/Consumer/061622-5PM/gah-newsroom-thankstodad-thumbnail-listing.jpg",
      "articleUrl": "https://www.globe.com.ph/about-us/newsroom/consumer/say-thanks-to-dad-with-globe-at-home.html",
      "columnType": "articles--type-3",
      "typeListing": "article",
      "imageMobile": "/sites/globe.com.ph/files/content/dam/globe/brie/About-us/Newsroom/image/Consumer/061622-5PM/gah-newsroom-thankstodad-primary-thumbnail-m.jpg",
      "imageDesktop": "/sites/globe.com.ph/files/content/dam/globe/brie/About-us/Newsroom/image/Consumer/061622-5PM/gah-newsroom-thankstodad-primary-thumbnail.jpg",
      "description": "Exciting treats are in store for you when you buy a Globe At Home Prepaid WiFi or get a GFiber Unli Plan this Father’s Day weekend from Globe.",
      "datePosted": "Jun 16, 2022 | 05:00 PM",
      "titleFromTag": "Consumer"
    },
    {
      "title": "Globe offers affordable, longer roaming services as Japan reopens doors, S. Korea resumes tourist visa applications",
      "nonclickable": false,
      "openNewTab": false,
      "borderArticle": "border-color:#0074D9;",
      "borderTopArticle": "border-top-color:#0074D9;",
      "imageListing": "/sites/globe.com.ph/files/content/dam/globe/brie/AboutUs/newsroom/common/globe-offers-affordable-longer-roaming-services/sg-consumer-thumbnail-listing.jpg",
      "articleUrl": "https://www.globe.com.ph/about-us/newsroom/consumer/affordable-longer-roaming-services-japan-south-korea.html",
      "columnType": "articles--type-3",
      "typeListing": "article",
      "imageMobile": "/sites/globe.com.ph/files/content/dam/globe/brie/AboutUs/newsroom/common/globe-offers-affordable-longer-roaming-services/sg-consumer-primary-thumbnail-m.jpg",
      "imageDesktop": "/sites/globe.com.ph/files/content/dam/globe/brie/AboutUs/newsroom/common/globe-offers-affordable-longer-roaming-services/sg-consumer-primary-thumbnail-d.jpg",
      "description": "Globe is set to provide affordable roaming services for Filipino tourists with the expected surge in global travel as other countries reopen.",
      "datePosted": "Jun 16, 2022 | 04:00 PM",
      "titleFromTag": "Consumer"
    },
    {
      "title": "Globe Pioneers Use of Next-Generation Antennas to Facilitate 4G Acceleration and 5G Evolution",
      "nonclickable": false,
      "openNewTab": false,
      "borderArticle": "border-color:#0074D9;",
      "borderTopArticle": "border-top-color:#0074D9;",
      "imageListing": "/sites/globe.com.ph/files/content/dam/globe/brie/AboutUs/newsroom/corporate/799-permits-1q-2021-new-towers/default-corporate-9-thumbnail-listing.jpg",
      "articleUrl": "https://www.globe.com.ph/about-us/newsroom/corporate/globe-pioneer-next-generation-antennas-5g-evolution.html",
      "columnType": "articles--type-3",
      "typeListing": "article",
      "imageMobile": "/sites/globe.com.ph/files/content/dam/globe/brie/AboutUs/newsroom/corporate/799-permits-1q-2021-new-towers/default-corporate-9-primary-thumbnail-m.jpg",
      "imageDesktop": "/sites/globe.com.ph/files/content/dam/globe/brie/AboutUs/newsroom/corporate/799-permits-1q-2021-new-towers/default-corporate-9-primary-thumbnail-d.jpg",
      "description": "Globe has completed the deployment of a new series of antennas that efficiently enables the acceleration of 4G and the evolution of 5G technology.",
      "datePosted": "Jun 15, 2022 | 03:53 PM",
      "titleFromTag": "Corporate"
    },
    {
      "title": "Globe Group Consolidates Ad-Tech, Data Capabilities under AdSpark Holdings Inc., Appoints Nikko Acosta as CEO",
      "nonclickable": false,
      "openNewTab": false,
      "borderArticle": "border-color:#0074D9;",
      "borderTopArticle": "border-top-color:#0074D9;",
      "imageListing": "/sites/globe.com.ph/files/content/dam/globe/brie/AboutUs/newsroom/sustainability/globe-games-esports-continue-thrive/newsroom-sustainability-sports-league-of-legends-thumbnail-listing.jpg",
      "articleUrl": "https://www.globe.com.ph/about-us/newsroom/partners/globe-group-ad-tech-data-capabilities-under-adspark.html",
      "columnType": "articles--type-3",
      "typeListing": "article",
      "imageMobile": "/sites/globe.com.ph/files/content/dam/globe/brie/AboutUs/newsroom/sustainability/globe-games-esports-continue-thrive/newsroom-sustainability-sports-league-of-legends-primary-thumbnail-m.jpg",
      "imageDesktop": "/sites/globe.com.ph/files/content/dam/globe/brie/AboutUs/newsroom/sustainability/globe-games-esports-continue-thrive/newsroom-sustainability-sports-league-of-legends-primary-thumbnail-d.jpg",
      "description": "Globe has created AdSpark Holdings, Inc. to consolidate initiatives around its adtech and data capabilities, which will be part of the 917Ventures’ portfolio. ",
      "datePosted": "Jun 14, 2022 | 03:23 PM",
      "titleFromTag": "Partners"
    },
    {
      "title": "Globe Brings RO WOON Live in Manila, an Exclusive KmmunityPH Fan Meet on June 26, 2022",
      "nonclickable": false,
      "openNewTab": false,
      "borderArticle": "border-color:#0074D9;",
      "borderTopArticle": "border-top-color:#0074D9;",
      "imageListing": "/sites/globe.com.ph/files/content/dam/globe/brie/AboutUs/newsroom/consumer/rowoon-live-in-manila/newsroom-consumer-rowoon-live-in-manila-thumbnail-listing.jpg",
      "articleUrl": "https://www.globe.com.ph/about-us/newsroom/consumer/rowoon-live-in-manila.html",
      "columnType": "articles--type-3",
      "typeListing": "article",
      "imageMobile": "/sites/globe.com.ph/files/content/dam/globe/brie/AboutUs/newsroom/consumer/rowoon-live-in-manila/newsroom-consumer-rowoon-live-in-manila-primary-thumbnail-m.jpg",
      "imageDesktop": "/sites/globe.com.ph/files/content/dam/globe/brie/AboutUs/newsroom/consumer/rowoon-live-in-manila/newsroom-consumer-rowoon-live-in-manila-primary-thumbnail-d.jpg",
      "description": "Globe brings RO WOON Live in Manila for an exclusive fan meeting at SM Mall of Asia Arena on June 26, 2022. ",
      "datePosted": "Jun 14, 2022 | 02:27 PM",
      "titleFromTag": "Consumer"
    },
    {
      "title": "GCash Disburses ₱2.5B Cash Loans in 10 Months",
      "nonclickable": false,
      "openNewTab": false,
      "borderArticle": "border-color:#0074D9;",
      "borderTopArticle": "border-top-color:#0074D9;",
      "imageListing": "/sites/globe.com.ph/files/content/dam/globe/brie/AboutUs/newsroom/common/default-3/corporate-default-7-thumbnail-listing.jpg",
      "articleUrl": "https://www.globe.com.ph/about-us/newsroom/consumer/gcash-disburses-2b-cash-loans.html",
      "columnType": "articles--type-3",
      "typeListing": "article",
      "imageMobile": "/sites/globe.com.ph/files/content/dam/globe/brie/AboutUs/newsroom/common/default-3/corporate-default-7-primary-thumbnail-m.jpg",
      "imageDesktop": "/sites/globe.com.ph/files/content/dam/globe/brie/AboutUs/newsroom/common/default-3/corporate-default-7-primary-thumbnail-d.jpg",
      "description": "Leading e-wallet platform GCash has handed out more than ₱2.5 billion in cash loans in just 10 months since the launch of GLoan.",
      "datePosted": "Jun 13, 2022 | 02:27 PM",
      "titleFromTag": "Consumer"
    },
    {
      "title": "Globe Joins List of Top 200 Asia-Pacific Climate Leaders",
      "nonclickable": false,
      "openNewTab": false,
      "borderArticle": "border-color:#1C91C5;",
      "borderTopArticle": "border-top-color:#1C91C5;",
      "imageListing": "/sites/globe.com.ph/files/content/dam/globe/brie/AboutUs/newsroom/common/default-sustainability-1/default-sustainability-2-thumbnail-listing.jpg",
      "articleUrl": "https://www.globe.com.ph/about-us/newsroom/sustainability/globe-joins-list-top-200-asia-pacific-climate-leaders.html",
      "columnType": "articles--type-3",
      "typeListing": "article",
      "imageMobile": "/sites/globe.com.ph/files/content/dam/globe/brie/AboutUs/newsroom/common/default-sustainability-1/default-sustainability-2-primary-thumbnail-m.jpg",
      "imageDesktop": "/sites/globe.com.ph/files/content/dam/globe/brie/AboutUs/newsroom/common/default-sustainability-1/default-sustainability-2-primary-thumbnail-d.jpg",
      "description": "Globe has made it to top 200 Climate Leaders in Asia Pacific based on a special report entitled “Asia-Pacific climate leaders: Which companies cut emissions?.” ",
      "datePosted": "Jun 13, 2022 | 11:49 AM",
      "titleFromTag": "Sustainability"
    }
  ]
}
