{
  "status": 200,
  "page": 63,
  "totalPage": 298,
  "range": "745-756",
  "total": 3573,
  "result": [
    {
      "title": "Globe Business’ Efforts To Help Businesses Recognized In 2022 Asia-Pacific Stevie® Awards",
      "nonclickable": false,
      "openNewTab": false,
      "borderArticle": "border-color:#0074D9;",
      "borderTopArticle": "border-top-color:#0074D9;",
      "imageListing": "/sites/globe.com.ph/files/content/dam/globe/brie/About-us/Newsroom/image/Business/06102022-5PM/avocado-stevie-thumbnail-listing.jpg",
      "articleUrl": "https://www.globe.com.ph/about-us/newsroom/business/efforts-help-businesses-recognized-2022-asia-pacific-stevie-awards.html",
      "columnType": "articles--type-3",
      "typeListing": "article",
      "imageMobile": "/sites/globe.com.ph/files/content/dam/globe/brie/About-us/Newsroom/image/Business/06102022-5PM/avocado-stevie-primary-thumbnail-m_v2.jpg",
      "imageDesktop": "/sites/globe.com.ph/files/content/dam/globe/brie/About-us/Newsroom/image/Business/06102022-5PM/avocado-stevie-primary-thumbnail-d.jpg",
      "description": "Globe Business’ three successful campaigns to help shape businesses towards a stronger tomorrow were recognized in 2022 Asia-Pacific Stevie® Awards.",
      "datePosted": "Jun 10, 2022 | 05:00 PM",
      "titleFromTag": "Business"
    },
    {
      "title": "Yondu Earns Acumatica Gold Certification on Cloud-Based Enterprise Resource Planning",
      "nonclickable": false,
      "openNewTab": false,
      "borderArticle": "border-color:#0074D9;",
      "borderTopArticle": "border-top-color:#0074D9;",
      "imageListing": "/sites/globe.com.ph/files/content/dam/globe/brie/AboutUs/newsroom/partners/yondu-acumatica-cloud-resource/newsroom-partners-yondu-acumatica-cloud-resource-thumbnail-listing.jpg",
      "articleUrl": "https://www.globe.com.ph/about-us/newsroom/partners/yondu-earns-acumatica-gold-certification.html",
      "columnType": "articles--type-3",
      "typeListing": "article",
      "imageMobile": "/sites/globe.com.ph/files/content/dam/globe/brie/AboutUs/newsroom/partners/yondu-acumatica-cloud-resource/newsroom-partners-yondu-acumatica-cloud-resource-primary-thumbnail-m.jpg",
      "imageDesktop": "/sites/globe.com.ph/files/content/dam/globe/brie/AboutUs/newsroom/partners/yondu-acumatica-cloud-resource/newsroom-partners-yondu-acumatica-cloud-resource-primary-thumbnail-d.jpg",
      "description": "Information technology solutions company Yondu has earned the Acumatica Gold Certification, gaining a stronger foundation in Enterprise Resource Planning.",
      "datePosted": "Jun 09, 2022 | 05:00 PM",
      "titleFromTag": "Partners"
    },
    {
      "title": "Globe, WWF Philippines Advocate Climate Education via Camp Kalikasan",
      "nonclickable": false,
      "openNewTab": false,
      "borderArticle": "border-color:#0074D9;",
      "borderTopArticle": "border-top-color:#0074D9;",
      "imageListing": "/sites/globe.com.ph/files/content/dam/globe/brie/AboutUs/newsroom/sustainability/wwf-climate-education/Newsroom-sustainability-globe-wwf-climate-education-industry-thumbnail-listing.jpg",
      "articleUrl": "https://www.globe.com.ph/about-us/newsroom/sustainability/globe-wwf-ph-advocate-climate-education-camp-kalikasan.html",
      "columnType": "articles--type-3",
      "typeListing": "article",
      "imageMobile": "/sites/globe.com.ph/files/content/dam/globe/brie/AboutUs/newsroom/sustainability/wwf-climate-education/Newsroom-sustainability-globe-wwf-climate-education-primary-thumbnail-m.jpg",
      "imageDesktop": "/sites/globe.com.ph/files/content/dam/globe/brie/AboutUs/newsroom/sustainability/wwf-climate-education/Newsroom-sustainability-globe-wwf-climate-education-primary-thumbnail-d.jpg",
      "description": "Globe and WWF Philippines are collaborating to promote climate education to encourage Filipinos to learn more about how they can care for the environment. ",
      "datePosted": "Jun 09, 2022 | 01:49 PM",
      "titleFromTag": "Sustainability"
    },
    {
      "title": "Globe Takes Concrete Steps in Reducing Carbon Emissions to Fight Climate Change",
      "nonclickable": false,
      "openNewTab": false,
      "borderArticle": "border-color:#1C91C5;",
      "borderTopArticle": "border-top-color:#1C91C5;",
      "imageListing": "/sites/globe.com.ph/files/content/dam/globe/brie/AboutUs/newsroom/common/default-sustainability-1/default-sustainability-2-thumbnail-listing.jpg",
      "articleUrl": "https://www.globe.com.ph/about-us/newsroom/sustainability/concrete-steps-reducing-carbon-emissions.html",
      "columnType": "articles--type-3",
      "typeListing": "article",
      "imageMobile": "/sites/globe.com.ph/files/content/dam/globe/brie/AboutUs/newsroom/common/default-sustainability-1/default-sustainability-2-primary-thumbnail-m.jpg",
      "imageDesktop": "/sites/globe.com.ph/files/content/dam/globe/brie/AboutUs/newsroom/common/default-sustainability-1/default-sustainability-2-primary-thumbnail-d.jpg",
      "description": "In line with this year’s theme of World Environment Day (WED), Globe is encouraging the public to continuously look for ways to live and operate sustainably.",
      "datePosted": "Jun 09, 2022 | 11:49 AM",
      "titleFromTag": "Sustainability"
    },
    {
      "title": "Globe Warns Customers against New Phishing Threats, Blocks 203 Sites in Q1 2022",
      "nonclickable": false,
      "openNewTab": false,
      "borderArticle": "border-color:#0074D9;",
      "borderTopArticle": "border-top-color:#0074D9;",
      "imageListing": "/sites/globe.com.ph/files/content/dam/globe/brie/AboutUs/newsroom/common/default-3/corporate-default-7-thumbnail-listing.jpg",
      "articleUrl": "https://www.globe.com.ph/about-us/newsroom/consumer/globe-warns-customers-against-new-phishing-threats.html",
      "columnType": "articles--type-3",
      "typeListing": "article",
      "imageMobile": "/sites/globe.com.ph/files/content/dam/globe/brie/AboutUs/newsroom/common/default-3/corporate-default-7-primary-thumbnail-m.jpg",
      "imageDesktop": "/sites/globe.com.ph/files/content/dam/globe/brie/AboutUs/newsroom/common/default-3/corporate-default-7-primary-thumbnail-d.jpg",
      "description": "Globe has warned the public against a phishing attack targeting its customers, with its cybersecurity team stepping up measures to fend off spam & online scams.",
      "datePosted": "Jun 07, 2022 | 02:27 PM",
      "titleFromTag": "Consumer"
    },
    {
      "title": "EdVenture Partners with Teachers for Excellent and Affordable Personalized K-10 Learning Sessions",
      "nonclickable": false,
      "openNewTab": false,
      "borderArticle": "border-color:#0074D9;",
      "borderTopArticle": "border-top-color:#0074D9;",
      "imageListing": "/sites/globe.com.ph/files/content/dam/globe/brie/AboutUs/newsroom/917ventures/edventure-partners-with-teachers/newsroom-917ventures-edventures-affordable-lessons-thumbnail-listing.jpg",
      "articleUrl": "https://www.globe.com.ph/about-us/newsroom/917ventures/edventure-partners-teachers-personalized-k-10-learning-sessions.html",
      "columnType": "articles--type-3",
      "typeListing": "article",
      "imageMobile": "/sites/globe.com.ph/files/content/dam/globe/brie/AboutUs/newsroom/917ventures/edventure-partners-with-teachers/newsroom-917ventures-edventures-affordable-lessons-primary-thumbnail-m.jpg",
      "imageDesktop": "/sites/globe.com.ph/files/content/dam/globe/brie/AboutUs/newsroom/917ventures/edventure-partners-with-teachers/newsroom-917ventures-edventures-affordable-lessons-primary-thumbnail-d.jpg",
      "description": "EdVenture was created by Globe’s 917Ventures to provide 21st-century quality education to Filipino learners while improving the quality of life of teachers.",
      "datePosted": "Jun 07, 2022 | 10:20 AM",
      "titleFromTag": "917Ventures"
    },
    {
      "title": "GCash Breaches ₱500B Gross Transaction Value in March 2022, Sees Sustained Growth",
      "nonclickable": false,
      "openNewTab": false,
      "borderArticle": "border-color:#0074D9;",
      "borderTopArticle": "border-top-color:#0074D9;",
      "imageListing": "/sites/globe.com.ph/files/content/dam/globe/brie/AboutUs/newsroom/corporate/gcash-breaches-500-billion-gross-transaction-value-march-2022/newsroom-corporate-gcash-P500b-sustained-growth-thumbnail-listing.jpg",
      "articleUrl": "https://www.globe.com.ph/about-us/newsroom/partners/gcash-breaches-500-billion-gross-transaction-value-march-2022.html",
      "columnType": "articles--type-3",
      "typeListing": "article",
      "imageMobile": "/sites/globe.com.ph/files/content/dam/globe/brie/AboutUs/newsroom/corporate/gcash-breaches-500-billion-gross-transaction-value-march-2022/newsroom-corporate-gcash-P500b-sustained-growth-primary-thumbnail-m.jpg",
      "imageDesktop": "/sites/globe.com.ph/files/content/dam/globe/brie/AboutUs/newsroom/corporate/gcash-breaches-500-billion-gross-transaction-value-march-2022/newsroom-corporate-gcash-P500b-sustained-growth-primary-thumbnail-d.jpg",
      "description": "GCash sustained market dominance, breaching the ₱500-billion mark in gross transaction value in March 2022.",
      "datePosted": "Jun 06, 2022 | 05:00 PM",
      "titleFromTag": "Partners"
    },
    {
      "title": "Victor Consunji Dev’t Corp Hails Globe’s Innovations in Bespoke Telco 101",
      "nonclickable": false,
      "openNewTab": false,
      "borderArticle": "border-color:#0074D9;",
      "borderTopArticle": "border-top-color:#0074D9;",
      "imageListing": "/sites/globe.com.ph/files/content/dam/globe/brie/AboutUs/newsroom/corporate/victor-consunji-devt-corp-hails-globes-innovations-in-bespoke-telco-101/newsroom-corporate-consunji-hails-globe-innovations-thumbnail-listing.jpg",
      "articleUrl": "https://www.globe.com.ph/about-us/newsroom/corporate/vcdc-hails-globes-innovations.html",
      "columnType": "articles--type-3",
      "typeListing": "article",
      "imageMobile": "/sites/globe.com.ph/files/content/dam/globe/brie/AboutUs/newsroom/corporate/victor-consunji-devt-corp-hails-globes-innovations-in-bespoke-telco-101/newsroom-corporate-consunji-hails-globe-innovations-primary-thumbnail-m.jpg",
      "imageDesktop": "/sites/globe.com.ph/files/content/dam/globe/brie/AboutUs/newsroom/corporate/victor-consunji-devt-corp-hails-globes-innovations-in-bespoke-telco-101/newsroom-corporate-consunji-hails-globe-innovations-primary-thumbnail-d.jpg",
      "description": "Globe recently held an exclusive Telco 101 event with the top real estate firm Victor Consunji Development Corp.",
      "datePosted": "Jun 06, 2022 | 05:00 PM",
      "titleFromTag": "Corporate"
    },
    {
      "title": "Globe At Home Tops Netflix ISP Speed Index for 4th Straight Month in 2022",
      "nonclickable": false,
      "openNewTab": false,
      "borderArticle": "border-color:#0074D9;",
      "borderTopArticle": "border-top-color:#0074D9;",
      "imageListing": "/sites/globe.com.ph/files/content/dam/globe/brie/About-us/Newsroom/image/Consumer/06065PM/newsroom-consumer-globe-at-home-tops-netflix-isp-thumbnail-listing.jpg",
      "articleUrl": "https://www.globe.com.ph/about-us/newsroom/consumer/globe-at-home-tops-netflix-isp-speed-4th-month-2022.html",
      "columnType": "articles--type-3",
      "typeListing": "article",
      "imageMobile": "/sites/globe.com.ph/files/content/dam/globe/brie/About-us/Newsroom/image/Consumer/06065PM/newsroom-consumer-globe-at-home-tops-netflix-isp-primary-thumbnail-m.jpg",
      "imageDesktop": "/sites/globe.com.ph/files/content/dam/globe/brie/About-us/Newsroom/image/Consumer/06065PM/newsroom-consumer-globe-at-home-tops-netflix-isp-primary-thumbnail-d.jpg",
      "description": "Globe got the fastest speeds through its Globe At Home Broadband Business and dominated the list for 10 out of 12 months.",
      "datePosted": "Jun 06, 2022 | 05:00 PM",
      "titleFromTag": "Consumer"
    },
    {
      "title": "Globe Celebrates Fisherfolk, Empowers Fishing Industry through Technology",
      "nonclickable": false,
      "openNewTab": false,
      "borderArticle": "border-color:#1C91C5;",
      "borderTopArticle": "border-top-color:#1C91C5;",
      "imageListing": "/sites/globe.com.ph/files/content/dam/globe/brie/AboutUs/newsroom/sustainability/globe-celebrates-fisherfolk-empowers-fishing-industry/Newsroom-sustainability-globe-celebrates-fisherfolk-industry-thumbnail-listing.jpg",
      "articleUrl": "https://www.globe.com.ph/about-us/newsroom/sustainability/globe-celebrates-fisherfolk-empowers-fishing-industry.html",
      "columnType": "articles--type-3",
      "typeListing": "article",
      "imageMobile": "/sites/globe.com.ph/files/content/dam/globe/brie/AboutUs/newsroom/sustainability/globe-celebrates-fisherfolk-empowers-fishing-industry/Newsroom-sustainability-globe-celebrates-fisherfolk-industry-primary-thumbnail-m.jpg",
      "imageDesktop": "/sites/globe.com.ph/files/content/dam/globe/brie/AboutUs/newsroom/sustainability/globe-celebrates-fisherfolk-empowers-fishing-industry/Newsroom-sustainability-globe-celebrates-fisherfolk-industry-primary-thumbnail-d.jpg",
      "description": "Globe’s ISDApp is the first community app in the Philippines that aids fisherfolk with the power of data, even if they do not have smartphones and Internet.",
      "datePosted": "Jun 03, 2022 | 09:15 AM",
      "titleFromTag": "Sustainability"
    },
    {
      "title": "Winning Customers’ Hearts with Improved Experience in Q1 2022 Globe Is Ph’s Most Consistent Network",
      "nonclickable": false,
      "openNewTab": false,
      "borderArticle": "border-color:#0074D9;",
      "borderTopArticle": "border-top-color:#0074D9;",
      "imageListing": "/sites/globe.com.ph/files/content/dam/globe/brie/AboutUs/newsroom/corporate/largest-ph-publicly-listed-telco-digital-solutions-group/Corporate-globe-thumbnail-listing.jpg",
      "articleUrl": "https://www.globe.com.ph/about-us/newsroom/corporate/globe-is-philippines-most-consistent-network-q1-2022.html",
      "columnType": "articles--type-3",
      "typeListing": "article",
      "imageMobile": "/sites/globe.com.ph/files/content/dam/globe/brie/AboutUs/newsroom/corporate/largest-ph-publicly-listed-telco-digital-solutions-group/Corporate-globe-primary-thumbnail-m.jpg",
      "imageDesktop": "/sites/globe.com.ph/files/content/dam/globe/brie/AboutUs/newsroom/corporate/largest-ph-publicly-listed-telco-digital-solutions-group/Corporate-globe-primary-thumbnail-d.jpg",
      "description": "Globe improved customer experience across its services in the 1st quarter of the year, logging faster broadband & mobile connectivity thru its #1stWorldNetwork.",
      "datePosted": "Jun 03, 2022 | 09:03 AM",
      "titleFromTag": "Corporate"
    },
    {
      "title": "Join the Hapag Movement, Help Relieve Hunger Using Globe Rewards, GCash",
      "nonclickable": false,
      "openNewTab": false,
      "borderArticle": "border-color:#1C91C5;",
      "borderTopArticle": "border-top-color:#1C91C5;",
      "imageListing": "/sites/globe.com.ph/files/content/dam/globe/brie/AboutUs/newsroom/sustainability/join-the-hapag-movement/Newsroom-sustainability-hapag-movement-relieve-hunger-thumbnail-listing.jpg",
      "articleUrl": "https://www.globe.com.ph/about-us/newsroom/sustainability/join-the-hapag-movement-help-relieve-hunger-using-globe-rewards-gcash.html",
      "columnType": "articles--type-3",
      "typeListing": "article",
      "imageMobile": "/sites/globe.com.ph/files/content/dam/globe/brie/AboutUs/newsroom/sustainability/join-the-hapag-movement/newsroom-sustainability-hapag-movement-relieve-hunger-primary-thumbnail-m5.jpg",
      "imageDesktop": "/sites/globe.com.ph/files/content/dam/globe/brie/AboutUs/newsroom/sustainability/join-the-hapag-movement/Newsroom-sustainability-hapag-movement-relieve-hunger-primary-thumbnail-d.jpg",
      "description": "Globe aims to be part of the solution to create a Globe of Good. With The Hapag Movement, Globe provides a holistic intervention focusing on hunger alleviation.",
      "datePosted": "Jun 02, 2022 | 05:13 PM",
      "titleFromTag": "Sustainability"
    }
  ]
}
