{
  "status": 200,
  "page": 64,
  "totalPage": 298,
  "range": "757-768",
  "total": 3573,
  "result": [
    {
      "title": "GCash Onboards About 300,000 Sari-Sari Stores, Market Vendors, Tricycle Drivers To Promote Inclusion",
      "nonclickable": false,
      "openNewTab": false,
      "borderArticle": "border-color:#0074D9;",
      "borderTopArticle": "border-top-color:#0074D9;",
      "imageListing": "/sites/globe.com.ph/files/content/dam/globe/brie/About-us/Newsroom/image/Consumer/625PM/newsroom-consumer-gcash-onboards-vendors-drivers-thumbnail-listing.jpg",
      "articleUrl": "https://www.globe.com.ph/about-us/newsroom/consumer/gcash-onboards-sari-sari-market-vendors-tricycle-drivers.html",
      "columnType": "articles--type-3",
      "typeListing": "article",
      "imageMobile": "/sites/globe.com.ph/files/content/dam/globe/brie/About-us/Newsroom/image/Consumer/625PM/newsroom-consumer-gcash-onboards-vendors-drivers-primary-thumbnail-m.jpg",
      "imageDesktop": "/sites/globe.com.ph/files/content/dam/globe/brie/About-us/Newsroom/image/Consumer/625PM/newsroom-consumer-gcash-onboards-vendors-drivers-primary-thumbnail-d.jpg",
      "description": "About 300,000 community stores have already been onboarded in the GCash system including sari-sari stores, market vendors, and tricycle drivers. ",
      "datePosted": "Jun 02, 2022 | 05:00 PM",
      "titleFromTag": "Consumer"
    },
    {
      "title": "Activating SMS Spam Filters on Devices Helps Reduce Spam and Scam Messages",
      "nonclickable": false,
      "openNewTab": false,
      "borderArticle": "border-color:#0074D9;",
      "borderTopArticle": "border-top-color:#0074D9;",
      "imageListing": "/sites/globe.com.ph/files/content/dam/globe/brie/About-us/Newsroom/image/Consumer/62225PM/newsroom-corporate-alagang-globe-spam-filters-thumbnail-listing.jpg",
      "articleUrl": "https://www.globe.com.ph/about-us/newsroom/consumer/sms-spam-filters-helps-reduce-spam-scam-messages.html",
      "columnType": "articles--type-3",
      "typeListing": "article",
      "imageMobile": "/sites/globe.com.ph/files/content/dam/globe/brie/About-us/Newsroom/image/Consumer/62225PM/newsroom-corporate-alagang-globe-spam-filters-primary-thumbnail-m.jpg",
      "imageDesktop": "/sites/globe.com.ph/files/content/dam/globe/brie/About-us/Newsroom/image/Consumer/62225PM/newsroom-corporate-alagang-globe-spam-filters-primary-thumbnail-d.jpg",
      "description": "Globe is encouraging customers to activate SMS spam filters on their devices to help reduce spam and scam messages.",
      "datePosted": "Jun 02, 2022 | 05:00 PM",
      "titleFromTag": "Consumer"
    },
    {
      "title": "Puregold, Globe Partner To Digitalize MSMEs and Communities",
      "nonclickable": false,
      "openNewTab": false,
      "borderArticle": "border-color:#0074D9;",
      "borderTopArticle": "border-top-color:#0074D9;",
      "imageListing": "/sites/globe.com.ph/files/content/dam/globe/brie/About-us/Newsroom/image/Consumer/0601225PM/newsroom-consumer-puregold-globe-digitalize-msmes-thumbnail-listing.jpg",
      "articleUrl": "https://www.globe.com.ph/about-us/newsroom/consumer/puregold-globe-partner-digitalize-msme-communities.html",
      "columnType": "articles--type-3",
      "typeListing": "article",
      "imageMobile": "/sites/globe.com.ph/files/content/dam/globe/brie/About-us/Newsroom/image/Consumer/0601225PM/newsroom-consumer-puregold-globe-digitalize-msmes-primary-thumbnail-m.jpg",
      "imageDesktop": "/sites/globe.com.ph/files/content/dam/globe/brie/About-us/Newsroom/image/Consumer/0601225PM/newsroom-consumer-puregold-globe-digitalize-msmes-primary-thumbnail-d.jpg",
      "description": "Puregold and Globe join forces to help uplift MSMEs, especially sari-sari stores and communities, through technological innovation. ",
      "datePosted": "Jun 01, 2022 | 05:00 PM",
      "titleFromTag": "Consumer"
    },
    {
      "title": "GCash, San Fernando City Seals Digital Partnership",
      "nonclickable": false,
      "openNewTab": false,
      "borderArticle": "border-color:#0074D9;",
      "borderTopArticle": "border-top-color:#0074D9;",
      "imageListing": "/sites/globe.com.ph/files/content/dam/globe/brie/About-us/Newsroom/image/Partners/06015PM/newsroom-partners-gcash-san-fernando-deal-thumbnail-listing.jpg",
      "articleUrl": "https://www.globe.com.ph/about-us/newsroom/partners/gcash-san-fernando-city-seals-digital-partnership.html",
      "columnType": "articles--type-3",
      "typeListing": "article",
      "imageMobile": "/sites/globe.com.ph/files/content/dam/globe/brie/About-us/Newsroom/image/Partners/06015PM/newsroom-partners-gcash-san-fernando-deal-primary-thumbnail-m.jpg",
      "imageDesktop": "/sites/globe.com.ph/files/content/dam/globe/brie/About-us/Newsroom/image/Partners/06015PM/newsroom-partners-gcash-san-fernando-deal-primary-thumbnail-d.jpg",
      "description": "GCash has begun partnering with LGUs nationwide to help them adopt safe and convenient digital financial solutions.",
      "datePosted": "Jun 01, 2022 | 05:00 PM",
      "titleFromTag": "Partners"
    },
    {
      "title": "Globe Group Hauls 3 Gold, 1 Silver, 3 Bronze in 2022 Asia-Pacific Stevie® Awards",
      "nonclickable": false,
      "openNewTab": false,
      "borderArticle": "border-color:#1C91C5;",
      "borderTopArticle": "border-top-color:#1C91C5;",
      "imageListing": "/sites/globe.com.ph/files/content/dam/globe/brie/AboutUs/newsroom/sustainability/globe-group-gold-silver-bronze-2022-asia-pacific-stevie-awards/newsroom-corporate-globe-hauls-stevie-awards-thumbnail-listing.jpg",
      "articleUrl": "https://www.globe.com.ph/about-us/newsroom/corporate/globe-group-gold-silver-bronze-2022-asia-pacific-stevie-awards.html",
      "columnType": "articles--type-3",
      "typeListing": "article",
      "imageMobile": "/sites/globe.com.ph/files/content/dam/globe/brie/AboutUs/newsroom/sustainability/globe-group-gold-silver-bronze-2022-asia-pacific-stevie-awards/newsroom-corporate-globe-hauls-stevie-awards-primary-thumbnail-m.jpg",
      "imageDesktop": "/sites/globe.com.ph/files/content/dam/globe/brie/AboutUs/newsroom/sustainability/globe-group-gold-silver-bronze-2022-asia-pacific-stevie-awards/newsroom-corporate-globe-hauls-stevie-awards-primary-thumbnail-d.jpg",
      "description": "The Globe Group has bagged seven awards at the 2022 Asia-Pacific Stevie® Awards, reflecting its commitment to innovation, growth, and community service.",
      "datePosted": "Jun 01, 2022 | 12:59 PM",
      "titleFromTag": "Corporate"
    },
    {
      "title": "Globe to Explore the Metaverse",
      "nonclickable": false,
      "openNewTab": false,
      "borderArticle": "border-color:#0074D9;",
      "borderTopArticle": "border-top-color:#0074D9;",
      "imageListing": "/sites/globe.com.ph/files/content/dam/globe/brie/AboutUs/newsroom/corporate/globe-to-explore-metaverse/newsroom-corporate-globe-explores-metaverse-thumbnail-listing.jpg",
      "articleUrl": "https://www.globe.com.ph/about-us/newsroom/corporate/globe-to-explore-metaverse.html",
      "columnType": "articles--type-3",
      "typeListing": "article",
      "imageMobile": "/sites/globe.com.ph/files/content/dam/globe/brie/AboutUs/newsroom/corporate/globe-to-explore-metaverse/newsroom-corporate-globe-explores-metaverse-primary-thumbnail-m.jpg",
      "imageDesktop": "/sites/globe.com.ph/files/content/dam/globe/brie/AboutUs/newsroom/corporate/globe-to-explore-metaverse/newsroom-corporate-globe-explores-metaverse-primary-thumbnail-d.jpg",
      "description": "Leading digital solutions provider Globe has expressed interest in exploring the metaverse, where people can connect, interact and even work together virtually.",
      "datePosted": "Jun 01, 2022 | 08:05 AM",
      "titleFromTag": "Corporate"
    },
    {
      "title": "Asia’s Phoenix Morissette Moves to New Talent Management NYMA",
      "nonclickable": false,
      "openNewTab": false,
      "borderArticle": "border-color:#0074D9;",
      "borderTopArticle": "border-top-color:#0074D9;",
      "imageListing": "/sites/globe.com.ph/files/content/dam/globe/brie/About-us/Newsroom/image/Partners/5315PM/newsroom-partners-morisette-new-talent-nyma-thumbnail-listing.jpg",
      "articleUrl": "https://www.globe.com.ph/about-us/newsroom/partners/asias-phoenix-morissette-moves-to-nyma.html",
      "columnType": "articles--type-3",
      "typeListing": "article",
      "imageMobile": "/sites/globe.com.ph/files/content/dam/globe/brie/About-us/Newsroom/image/Partners/5315PM/newsroom-partners-morisette-new-talent-nyma-primary-thumbnail-m.jpg",
      "imageDesktop": "/sites/globe.com.ph/files/content/dam/globe/brie/About-us/Newsroom/image/Partners/5315PM/newsroom-partners-morisette-new-talent-nyma-primary-thumbnail-d.jpg",
      "description": "Asia’s Phoenix Morissette is pursuing her professional career with talent management agency NYMA.",
      "datePosted": "May 31, 2022 | 05:00 PM",
      "titleFromTag": "Partners"
    },
    {
      "title": "Globe Blocks over 140,000 Smishing Messages in Feb-March",
      "nonclickable": false,
      "openNewTab": false,
      "borderArticle": "border-color:#1C91C5;",
      "borderTopArticle": "border-top-color:#1C91C5;",
      "imageListing": "/sites/globe.com.ph/files/content/dam/globe/brie/AboutUs/newsroom/sustainability/globe-blocks-over-140k-smishing-messages/newsroom-corporate-blocks-140k-smishing-messages-thumbnail-listing.jpg",
      "articleUrl": "https://www.globe.com.ph/about-us/newsroom/sustainability/globe-blocks-over-140k-smishing-messages.html",
      "columnType": "articles--type-3",
      "typeListing": "article",
      "imageMobile": "/sites/globe.com.ph/files/content/dam/globe/brie/AboutUs/newsroom/sustainability/globe-blocks-over-140k-smishing-messages/newsroom-corporate-blocks-140k-smishing-messages-primary-thumbnail-m.jpg",
      "imageDesktop": "/sites/globe.com.ph/files/content/dam/globe/brie/AboutUs/newsroom/sustainability/globe-blocks-over-140k-smishing-messages/newsroom-corporate-blocks-140k-smishing-messages-primary-thumbnail-d.jpg",
      "description": "Globe continues to strengthen its security tools and platforms to increase detection and blocking capabilities against illegal SMS and web blaster devices.",
      "datePosted": "May 31, 2022 | 12:59 PM",
      "titleFromTag": "Sustainability"
    },
    {
      "title": "Globe Business Equips Enterprises with Innovation to Shape Future",
      "nonclickable": false,
      "openNewTab": false,
      "borderArticle": "border-color:#0074D9;",
      "borderTopArticle": "border-top-color:#0074D9;",
      "imageListing": "/sites/globe.com.ph/files/content/dam/globe/brie/AboutUs/newsroom/business/globe-business-equips-enterprises-with-innovation/eg-eif-thumbnail-listing.jpg",
      "articleUrl": "https://www.globe.com.ph/about-us/newsroom/business/globe-business-equip-enterprises-with-innovation.html",
      "columnType": "articles--type-3",
      "typeListing": "article",
      "imageMobile": "/sites/globe.com.ph/files/content/dam/globe/brie/AboutUs/newsroom/business/globe-business-equips-enterprises-with-innovation/eg-eif-primary-thumbnail-m.jpg",
      "imageDesktop": "/sites/globe.com.ph/files/content/dam/globe/brie/AboutUs/newsroom/business/globe-business-equips-enterprises-with-innovation/eg-eif-primary-thumbnail-d.jpg",
      "description": "Globe Business gathered leaders to navigate the technological challenges that come with the changing business landscape via the Enterprise Innovation Forum.",
      "datePosted": "May 30, 2022 | 04:30 PM",
      "titleFromTag": "Business"
    },
    {
      "title": "Adapt to a New Way of Learning with Globe",
      "nonclickable": false,
      "openNewTab": false,
      "borderArticle": "border-color:#0074D9;",
      "borderTopArticle": "border-top-color:#0074D9;",
      "imageListing": "/sites/globe.com.ph/files/content/dam/globe/brie/AboutUs/newsroom/business/adapt-to-a-new-way-of-learning-with-globe/sg-coronado-thumbnail-listing.jpg",
      "articleUrl": "https://www.globe.com.ph/about-us/newsroom/business/adapt-to-a-new-way-of-learning-globe-business.html",
      "columnType": "articles--type-3",
      "typeListing": "article",
      "imageMobile": "/sites/globe.com.ph/files/content/dam/globe/brie/AboutUs/newsroom/business/adapt-to-a-new-way-of-learning-with-globe/sg-coronado-primary-thumbnail-m.jpg",
      "imageDesktop": "/sites/globe.com.ph/files/content/dam/globe/brie/AboutUs/newsroom/business/adapt-to-a-new-way-of-learning-with-globe/sg-coronado-primary-thumbnail-d.jpg",
      "description": "Globe Business-Coronado partnership distributed over a thousand of Globe Prepaid Internet Kits for Learning to enrolled students to support digital learning.",
      "datePosted": "May 30, 2022 | 04:00 PM",
      "titleFromTag": "Business"
    },
    {
      "title": "Globe 5G Network Logs over 2M Devices in Q1 2022",
      "nonclickable": false,
      "openNewTab": false,
      "borderArticle": "border-color:#0074D9;",
      "borderTopArticle": "border-top-color:#0074D9;",
      "imageListing": "/sites/globe.com.ph/files/content/dam/globe/brie/AboutUs/newsroom/common/default-4/default-consumer-3-thumbnail-listing.jpg",
      "articleUrl": "https://www.globe.com.ph/about-us/newsroom/corporate/globe-5g-network-logs-over-2m-devices.html",
      "columnType": "articles--type-3",
      "typeListing": "article",
      "imageMobile": "/sites/globe.com.ph/files/content/dam/globe/brie/AboutUs/newsroom/common/default-4/default-consumer-3-primary-thumbnail-m.jpg",
      "imageDesktop": "/sites/globe.com.ph/files/content/dam/globe/brie/AboutUs/newsroom/common/default-4/default-consumer-3-primary-thumbnail-d.jpg",
      "description": "Globe has logged over 2 million devices in its 5G network as of end-March this year, showing that many customers are enjoying the higher speed data service.",
      "datePosted": "May 30, 2022 | 08:05 AM",
      "titleFromTag": "Corporate"
    },
    {
      "title": "GCash Brings Digital Finance Solutions to Sipaway Island Fisherfolk",
      "nonclickable": false,
      "openNewTab": false,
      "borderArticle": "border-color:#1C91C5;",
      "borderTopArticle": "border-top-color:#1C91C5;",
      "imageListing": "/sites/globe.com.ph/files/content/dam/globe/brie/AboutUs/newsroom/sustainability/GCash-Brings-Digital-Finance-Solutions-to-Sipaway-Island-Fisherfolk/Newsroom-sustainability-gcash-finance-solution-fisherfolk-thumbnail-listing.jpg",
      "articleUrl": "https://www.globe.com.ph/about-us/newsroom/sustainability/gcash-brings-digital-finance-solutions-sipaway-island-fisherfolk.html",
      "columnType": "articles--type-3",
      "typeListing": "article",
      "imageMobile": "/sites/globe.com.ph/files/content/dam/globe/brie/AboutUs/newsroom/sustainability/GCash-Brings-Digital-Finance-Solutions-to-Sipaway-Island-Fisherfolk/Newsroom-sustainability-gcash-finance-solution-fisherfolk-primary-thumbnail-m.jpg",
      "imageDesktop": "/sites/globe.com.ph/files/content/dam/globe/brie/AboutUs/newsroom/sustainability/GCash-Brings-Digital-Finance-Solutions-to-Sipaway-Island-Fisherfolk/Newsroom-sustainability-gcash-finance-solution-fisherfolk-primary-thumbnail-d.jpg",
      "description": "GCash joined forces with Rare Philippines to empower the financial capabilities of the fisherfolk community in Sipaway Island in Negros Occidental",
      "datePosted": "May 27, 2022 | 05:13 PM",
      "titleFromTag": "Sustainability"
    }
  ]
}
