{
  "status": 200,
  "page": 65,
  "totalPage": 298,
  "range": "769-780",
  "total": 3573,
  "result": [
    {
      "title": "Enter the Wizarding World of Fantastic Beasts: The Secrets of Dumbledore With Globe and HBO GO From June 1!",
      "nonclickable": false,
      "openNewTab": false,
      "borderArticle": "border-color:#0074D9;",
      "borderTopArticle": "border-top-color:#0074D9;",
      "imageListing": "/sites/globe.com.ph/files/content/dam/globe/brie/About-us/Newsroom/image/Consumer/0601225PM/newsroom-consumer-puregold-globe-digitalize-msmes-thumbnail-listing.jpg",
      "articleUrl": "https://www.globe.com.ph/about-us/newsroom/consumer/the-secrets-of-dumbledore-globe-hbo-go.html",
      "columnType": "articles--type-3",
      "typeListing": "article",
      "imageMobile": "/sites/globe.com.ph/files/content/dam/globe/brie/About-us/Newsroom/image/Consumer/527225PM/newsroom-consumer-fantastic-beasts-hbo-go-primary-thumbnail-m.jpg",
      "imageDesktop": "/sites/globe.com.ph/files/content/dam/globe/brie/About-us/Newsroom/image/Consumer/527225PM/newsroom-consumer-fantastic-beasts-hbo-go-primary-thumbnail-d.jpg",
      "description": "Fantastic Beasts: The Secrets of Dumbledore becomes available to stream First On HBO GO starting June 1, in the comfort of home.",
      "datePosted": "May 27, 2022 | 05:00 PM",
      "titleFromTag": "Consumer"
    },
    {
      "title": "Globe Fiber Takeup Grows 155% In Q1 2022; Customer Fiber Migration Nears Completion",
      "nonclickable": false,
      "openNewTab": false,
      "borderArticle": "border-color:#0074D9;",
      "borderTopArticle": "border-top-color:#0074D9;",
      "imageListing": "/sites/globe.com.ph/files/content/dam/globe/brie/AboutUs/newsroom/corporate/799-permits-1q-2021-new-towers/default-corporate-9-thumbnail-listing.jpg",
      "articleUrl": "https://www.globe.com.ph/about-us/newsroom/corporate/globe-fiber-takeup-grows-155-percent-q1-2022.html",
      "columnType": "articles--type-3",
      "typeListing": "article",
      "imageMobile": "/sites/globe.com.ph/files/content/dam/globe/brie/AboutUs/newsroom/corporate/799-permits-1q-2021-new-towers/default-corporate-9-primary-thumbnail-m.jpg",
      "imageDesktop": "/sites/globe.com.ph/files/content/dam/globe/brie/AboutUs/newsroom/corporate/799-permits-1q-2021-new-towers/default-corporate-9-primary-thumbnail-d.jpg",
      "description": "Globe’s fiber broadband takeup jumped by 155% from January to March this year compared to the same period in 2021, pushing fiber revenues higher by 164%.",
      "datePosted": "May 27, 2022 | 03:53 PM",
      "titleFromTag": "Corporate"
    },
    {
      "title": "Mobile Service Providers Must Scale Up to Meet Subscriber Growth, Continued Digital Shift",
      "nonclickable": false,
      "openNewTab": false,
      "borderArticle": "border-color:#0074D9;",
      "borderTopArticle": "border-top-color:#0074D9;",
      "imageListing": "/sites/globe.com.ph/files/content/dam/globe/brie/AboutUs/newsroom/corporate/largest-ph-publicly-listed-telco-digital-solutions-group/Corporate-globe-thumbnail-listing.jpg",
      "articleUrl": "https://www.globe.com.ph/about-us/newsroom/corporate/mobile-service-providers-must-scale-up-meet-subscriber-growth.html",
      "columnType": "articles--type-3",
      "typeListing": "article",
      "imageMobile": "/sites/globe.com.ph/files/content/dam/globe/brie/AboutUs/newsroom/corporate/largest-ph-publicly-listed-telco-digital-solutions-group/Corporate-globe-primary-thumbnail-m.jpg",
      "imageDesktop": "/sites/globe.com.ph/files/content/dam/globe/brie/AboutUs/newsroom/corporate/largest-ph-publicly-listed-telco-digital-solutions-group/Corporate-globe-primary-thumbnail-d.jpg",
      "description": "Globe remains focused on building up its network aggressively by allocating ₱89 billion for the construction of new cell sites & upgrading existing sites. ",
      "datePosted": "May 26, 2022 | 02:35 PM",
      "titleFromTag": "Corporate"
    },
    {
      "title": "Globe, DA-NFRDI, Haifa University Highlight Importance of Technology in Marine Conservation ",
      "nonclickable": false,
      "openNewTab": false,
      "borderArticle": "border-color:#1C91C5;",
      "borderTopArticle": "border-top-color:#1C91C5;",
      "imageListing": "/sites/globe.com.ph/files/content/dam/globe/brie/AboutUs/newsroom/sustainability/importance-of-technology-in-marine-conservation/newsroom-sustainability-highlight-technology-marine-conservation-thumbnail-listing.jpg",
      "articleUrl": "https://www.globe.com.ph/about-us/newsroom/sustainability/importance-of-technology-in-marine-conservation.html",
      "columnType": "articles--type-3",
      "typeListing": "article",
      "imageMobile": "/sites/globe.com.ph/files/content/dam/globe/brie/AboutUs/newsroom/sustainability/importance-of-technology-in-marine-conservation/newsroom-sustainability-highlight-technology-marine-conservation-primary-thumbnail-m.jpg",
      "imageDesktop": "/sites/globe.com.ph/files/content/dam/globe/brie/AboutUs/newsroom/sustainability/importance-of-technology-in-marine-conservation/newsroom-sustainability-highlight-technology-marine-conservation-primary-thumbnail-d.jpg",
      "description": "Globe, in partnership with DA-NFRDI & Haifa University, held a webinar about the importance of incorporating underwater technology in marine conservation. ",
      "datePosted": "May 25, 2022 | 12:59 PM",
      "titleFromTag": "Sustainability"
    },
    {
      "title": "Employee Innovations Save Globe US$6.7 Million, Reduce Processing Time by 80% Using Google AppSheet",
      "nonclickable": false,
      "openNewTab": false,
      "borderArticle": "border-color:#0074D9;",
      "borderTopArticle": "border-top-color:#0074D9;",
      "imageListing": "/sites/globe.com.ph/files/content/dam/globe/brie/AboutUs/newsroom/corporate/employee-innovations-save-globe-millions-google-appsheet/newsroom-corporate-employee-innovations-save-globe-thumbnail-listing.jpg",
      "articleUrl": "https://www.globe.com.ph/about-us/newsroom/corporate/employee-innovations-save-globe-millions-google-appsheet.html",
      "columnType": "articles--type-3",
      "typeListing": "article",
      "imageMobile": "/sites/globe.com.ph/files/content/dam/globe/brie/AboutUs/newsroom/corporate/employee-innovations-save-globe-millions-google-appsheet/newsroom-corporate-employee-innovations-save-globe-primary-thumbnail-m.jpg",
      "imageDesktop": "/sites/globe.com.ph/files/content/dam/globe/brie/AboutUs/newsroom/corporate/employee-innovations-save-globe-millions-google-appsheet/newsroom-corporate-employee-innovations-save-globe-primary-thumbnail-d.jpg",
      "description": "Globe’s citizen developer strategy has been reaping the fruits of AppSheet, with results such as higher employee engagement rates and empowerment since 2020.",
      "datePosted": "May 25, 2022 | 09:07 AM",
      "titleFromTag": "Corporate"
    },
    {
      "title": "Globe Targets over 1,700 New Cell Sites by Year-End",
      "nonclickable": false,
      "openNewTab": false,
      "borderArticle": "border-color:#0074D9;",
      "borderTopArticle": "border-top-color:#0074D9;",
      "imageListing": "/sites/globe.com.ph/files/content/dam/globe/brie/AboutUs/newsroom/corporate/799-permits-1q-2021-new-towers/default-corporate-9-thumbnail-listing.jpg",
      "articleUrl": "https://www.globe.com.ph/about-us/newsroom/corporate/globe-targets-over-1700-new-cell-sites-by-year-end.html",
      "columnType": "articles--type-3",
      "typeListing": "article",
      "imageMobile": "/sites/globe.com.ph/files/content/dam/globe/brie/AboutUs/newsroom/corporate/799-permits-1q-2021-new-towers/default-corporate-9-primary-thumbnail-m.jpg",
      "imageDesktop": "/sites/globe.com.ph/files/content/dam/globe/brie/AboutUs/newsroom/corporate/799-permits-1q-2021-new-towers/default-corporate-9-primary-thumbnail-d.jpg",
      "description": "Globe expects to end the year with about 1,700 new cell sites to reach more customers and provide Filipinos with a #1stWorldNetwork.",
      "datePosted": "May 25, 2022 | 09:07 AM",
      "titleFromTag": "Corporate"
    },
    {
      "title": "GCash Achieves New Milestone With Over 60M Registered Users",
      "nonclickable": false,
      "openNewTab": false,
      "borderArticle": "border-color:#0074D9;",
      "borderTopArticle": "border-top-color:#0074D9;",
      "imageListing": "/sites/globe.com.ph/files/content/dam/globe/brie/About-us/Newsroom/image/Consumer/0524225PM/newsroom-corporate-gcash-achieves-new-milestone-thumbnail-listing.jpg",
      "articleUrl": "https://www.globe.com.ph/about-us/newsroom/consumer/gcash-new-milestone-over-60m-registered-users.html",
      "columnType": "articles--type-3",
      "typeListing": "article",
      "imageMobile": "/sites/globe.com.ph/files/content/dam/globe/brie/About-us/Newsroom/image/Consumer/0524225PM/newsroom-corporate-gcash-achieves-new-milestone-primary-thumbnail-m.jpg",
      "imageDesktop": "/sites/globe.com.ph/files/content/dam/globe/brie/About-us/Newsroom/image/Consumer/0524225PM/newsroom-corporate-gcash-achieves-new-milestone-primary-thumbnail-d.jpg",
      "description": "GCash reached new milestone with over 60 million registered users nationwide and majority of the country’s adult population using the popular e-wallet service.",
      "datePosted": "May 24, 2022 | 05:00 PM",
      "titleFromTag": "Consumer"
    },
    {
      "title": "Globe Breaks Quarterly Mobile Data Revenue Record as Mobility Restrictions Ease",
      "nonclickable": false,
      "openNewTab": false,
      "borderArticle": "border-color:#0074D9;",
      "borderTopArticle": "border-top-color:#0074D9;",
      "imageListing": "/sites/globe.com.ph/files/content/dam/globe/brie/AboutUs/newsroom/common/default-3/corporate-default-7-thumbnail-listing.jpg",
      "articleUrl": "https://www.globe.com.ph/about-us/newsroom/corporate/globe-breaks-quarterly-mobile-data-revenue-record.html",
      "columnType": "articles--type-3",
      "typeListing": "article",
      "imageMobile": "/sites/globe.com.ph/files/content/dam/globe/brie/AboutUs/newsroom/common/default-3/corporate-default-7-primary-thumbnail-m.jpg",
      "imageDesktop": "/sites/globe.com.ph/files/content/dam/globe/brie/AboutUs/newsroom/common/default-3/corporate-default-7-primary-thumbnail-d.jpg",
      "description": "Globe has posted record-breaking quarterly mobile data revenue of ₱20.8 billion as pandemic restrictions ease and mobility increases.",
      "datePosted": "May 23, 2022 | 02:29 PM",
      "titleFromTag": "Corporate"
    },
    {
      "title": "Globe’s Ernest CU Hailed as Best Telco CEO by the Global Economics",
      "nonclickable": false,
      "openNewTab": false,
      "borderArticle": "border-color:#0074D9;",
      "borderTopArticle": "border-top-color:#0074D9;",
      "imageListing": "/sites/globe.com.ph/files/content/dam/globe/brie/AboutUs/newsroom/corporate/ernest-cu-hailed-as-best-telco-ceo/newsroom-corporate-ernest-hailed-best-ceo-thumbnail-listing.jpg",
      "articleUrl": "https://www.globe.com.ph/about-us/newsroom/corporate/ernest-cu-hailed-best-ceo-global-economics.html",
      "columnType": "articles--type-3",
      "typeListing": "article",
      "imageMobile": "/sites/globe.com.ph/files/content/dam/globe/brie/AboutUs/newsroom/corporate/ernest-cu-hailed-as-best-telco-ceo/newsroom-corporate-ernest-hailed-best-ceo-primary-thumbnail-m.jpg",
      "imageDesktop": "/sites/globe.com.ph/files/content/dam/globe/brie/AboutUs/newsroom/corporate/ernest-cu-hailed-as-best-telco-ceo/newsroom-corporate-ernest-hailed-best-ceo-primary-thumbnail-d.jpg",
      "description": "Globe President and Chief Executive Officer Ernest Cu was hailed the Best CEO in Telecom in the Philippines by London-based The Global Economics Limited.",
      "datePosted": "May 23, 2022 | 02:29 PM",
      "titleFromTag": "Corporate"
    },
    {
      "title": "Asticom Creates 3,000 Jobs in 2021 to Support PH Economic Recovery",
      "nonclickable": false,
      "openNewTab": false,
      "borderArticle": "border-color:#0074D9;",
      "borderTopArticle": "border-top-color:#0074D9;",
      "imageListing": "/sites/globe.com.ph/files/content/dam/globe/brie/AboutUs/newsroom/partners/asticom-creates-3000-jobs-2021/newsroom-partners-asticom-3000-jobs-2021-thumbnail-listing.jpg",
      "articleUrl": "https://www.globe.com.ph/about-us/newsroom/partners/asticom-creates-3000-jobs-2021.html",
      "columnType": "articles--type-3",
      "typeListing": "article",
      "imageMobile": "/sites/globe.com.ph/files/content/dam/globe/brie/AboutUs/newsroom/partners/asticom-creates-3000-jobs-2021/newsroom-partners-asticom-3000-jobs-2021-primary-thumbnail-m.jpg",
      "imageDesktop": "/sites/globe.com.ph/files/content/dam/globe/brie/AboutUs/newsroom/partners/asticom-creates-3000-jobs-2021/newsroom-partners-asticom-3000-jobs-2021-primary-thumbnail-d.jpg",
      "description": "The Asticom Group of Companies created 3,000 jobs for Filipinos in 2021 to help address the job market crisis caused by the prolonged pandemic. ",
      "datePosted": "May 20, 2022 | 02:00 PM",
      "titleFromTag": "Partners"
    },
    {
      "title": "GSave Depositors Reach 5.3M; New Account Holders Get 7% Interest P.A.",
      "nonclickable": false,
      "openNewTab": false,
      "borderArticle": "border-color:#0074D9;",
      "borderTopArticle": "border-top-color:#0074D9;",
      "imageListing": "/sites/globe.com.ph/files/content/dam/globe/brie/About-us/Newsroom/image/Consumer/052022/newsroom-consumer-gsave-depositors-7-interest-thumbnail-listing.jpg",
      "articleUrl": "https://www.globe.com.ph/about-us/newsroom/consumer/gsave-depositors-reach-five-million.html",
      "columnType": "articles--type-3",
      "typeListing": "article",
      "imageMobile": "/sites/globe.com.ph/files/content/dam/globe/brie/About-us/Newsroom/image/Consumer/052022/newsroom-consumer-gsave-depositors-7-interest-primary-thumbnail-m.jpg",
      "imageDesktop": "/sites/globe.com.ph/files/content/dam/globe/brie/About-us/Newsroom/image/Consumer/052022/newsroom-consumer-gsave-depositors-7-interest-primary-thumbnail-d.jpg",
      "description": "Digital savings account GSave has grown its base to 5.3 million users, new account holders get 7% Interest P.A.",
      "datePosted": "May 20, 2022 | 02:00 PM",
      "titleFromTag": "Consumer"
    },
    {
      "title": "Globe Signs in AcadArena as First Gaming Partner to Support the Hapag Movement",
      "nonclickable": false,
      "openNewTab": false,
      "borderArticle": "border-color:#1C91C5;",
      "borderTopArticle": "border-top-color:#1C91C5;",
      "imageListing": "/sites/globe.com.ph/files/content/dam/globe/brie/AboutUs/newsroom/sustainability/globe-signs-in-acadarena-first-gaming-partner/Newsroom-sustainability-acadarena-gaming-partner-hapag-thumbnail-listing.jpg",
      "articleUrl": "https://www.globe.com.ph/about-us/newsroom/sustainability/globe-signs-in-acadarena-first-gaming-partner.html",
      "columnType": "articles--type-3",
      "typeListing": "article",
      "imageMobile": "/sites/globe.com.ph/files/content/dam/globe/brie/AboutUs/newsroom/sustainability/globe-signs-in-acadarena-first-gaming-partner/newsroom-sustainability-acadarena-gaming-partner-hapag-primary-thumbnail-m2.jpg",
      "imageDesktop": "/sites/globe.com.ph/files/content/dam/globe/brie/AboutUs/newsroom/sustainability/globe-signs-in-acadarena-first-gaming-partner/Newsroom-sustainability-acadarena-gaming-partner-hapag-primary-thumbnail-d.jpg",
      "description": "As gaming continues to thrive in the country, Globe saw an opportunity to give customers an avenue to contribute to something meaningful through Hapag Movement.",
      "datePosted": "May 19, 2022 | 12:59 PM",
      "titleFromTag": "Sustainability"
    }
  ]
}
