{
  "status": 200,
  "page": 66,
  "totalPage": 298,
  "range": "781-792",
  "total": 3573,
  "result": [
    {
      "title": "Globe Holds Month-Long Celebration on Privacy and Security Awareness, Launches Exhibit with Canvas and Google",
      "nonclickable": false,
      "openNewTab": false,
      "borderArticle": "border-color:#1C91C5;",
      "borderTopArticle": "border-top-color:#1C91C5;",
      "imageListing": "/sites/globe.com.ph/files/content/dam/globe/brie/AboutUs/newsroom/sustainability/privacy-security-awareness/newsroom-sustainability-privacy-security-awareness-thumbnail-listing.jpg",
      "articleUrl": "https://www.globe.com.ph/about-us/newsroom/sustainability/month-long-celebration-privacy-security-awareness.html",
      "columnType": "articles--type-3",
      "typeListing": "article",
      "imageMobile": "/sites/globe.com.ph/files/content/dam/globe/brie/AboutUs/newsroom/sustainability/privacy-security-awareness/newsroom-sustainability-privacy-security-awareness-primary-thumbnail-m.jpg",
      "imageDesktop": "/sites/globe.com.ph/files/content/dam/globe/brie/AboutUs/newsroom/sustainability/privacy-security-awareness/newsroom-sustainability-privacy-security-awareness-primary-thumbnail-d.jpg",
      "description": "Globe is holding a month-long celebration in support of the National Privacy Commission’s (NPC) Privacy Awareness Week in May.",
      "datePosted": "May 19, 2022 | 12:59 PM",
      "titleFromTag": "Sustainability"
    },
    {
      "title": "Globe Sustains Top-Line Growth, Hits Record Consolidated Service Revenues in Q1 2022",
      "nonclickable": false,
      "openNewTab": false,
      "borderArticle": "border-color:#0074D9;",
      "borderTopArticle": "border-top-color:#0074D9;",
      "imageListing": "/sites/globe.com.ph/files/content/dam/globe/brie/AboutUs/newsroom/corporate/largest-ph-publicly-listed-telco-digital-solutions-group/Corporate-globe-thumbnail-listing.jpg",
      "articleUrl": "https://www.globe.com.ph/about-us/newsroom/corporate/globe-sustains-top-line-growth.html",
      "columnType": "articles--type-3",
      "typeListing": "article",
      "imageMobile": "/sites/globe.com.ph/files/content/dam/globe/brie/AboutUs/newsroom/corporate/largest-ph-publicly-listed-telco-digital-solutions-group/Corporate-globe-primary-thumbnail-m.jpg",
      "imageDesktop": "/sites/globe.com.ph/files/content/dam/globe/brie/AboutUs/newsroom/corporate/largest-ph-publicly-listed-telco-digital-solutions-group/Corporate-globe-primary-thumbnail-d.jpg",
      "description": "Globe sustained revenue growth in the Q1 of the year on the back of easing pandemic restrictions, posting record-high consolidated revenues of ₱39.2 billion.",
      "datePosted": "May 19, 2022 | 12:31 PM",
      "titleFromTag": "Corporate"
    },
    {
      "title": "Globe At Home Provides Great Value, Experience to Customers via Stronger GFiber Plans",
      "nonclickable": false,
      "openNewTab": false,
      "borderArticle": "border-color:#0074D9;",
      "borderTopArticle": "border-top-color:#0074D9;",
      "imageListing": "/sites/globe.com.ph/files/content/dam/globe/brie/About-us/Newsroom/image/Consumer/Globe-At-Home-Provides-Great-Value--Experience-to-Customers/GAH-Portal_WiFiStrong_Thumbnail-Listing_288x170px.jpg",
      "articleUrl": "https://www.globe.com.ph/about-us/newsroom/consumer/globe-at-home-provides-great-value-experience-gfiber-plans.html",
      "columnType": "articles--type-3",
      "typeListing": "article",
      "imageMobile": "/sites/globe.com.ph/files/content/dam/globe/brie/About-us/Newsroom/image/Consumer/Globe-At-Home-Provides-Great-Value--Experience-to-Customers/GAH-Portal_WiFiStrong_Primary-Thumbnail_320x360px_m.jpg",
      "imageDesktop": "/sites/globe.com.ph/files/content/dam/globe/brie/About-us/Newsroom/image/Consumer/Globe-At-Home-Provides-Great-Value--Experience-to-Customers/GAH-Portal_WiFiStrong_Primary-Thumbnail_860x400px_d.jpg",
      "description": "Enjoy stronger and more affordable high-speed unlimited internet plans and take your home internet experience to the next level via GFiber.",
      "datePosted": "May 18, 2022 | 06:34 PM",
      "titleFromTag": "Consumer"
    },
    {
      "title": "Make the Future of Work Safe with Globe Business Cybersecurity Solutions",
      "nonclickable": false,
      "openNewTab": false,
      "borderArticle": "border-color:#0074D9;",
      "borderTopArticle": "border-top-color:#0074D9;",
      "imageListing": "/sites/globe.com.ph/files/content/dam/globe/brie/AboutUs/newsroom/business/make-the-future-of-work-safe-with-globe-business-cybersecurity-solutions/eg-druid-thumbnail-listing.jpg",
      "articleUrl": "https://www.globe.com.ph/about-us/newsroom/business/make-the-future-work-safe-globe-business-cybersecurity-solutions.html",
      "columnType": "articles--type-3",
      "typeListing": "article",
      "imageMobile": "/sites/globe.com.ph/files/content/dam/globe/brie/AboutUs/newsroom/business/make-the-future-of-work-safe-with-globe-business-cybersecurity-solutions/eg-druid-primary-thumbnail-m.jpg",
      "imageDesktop": "/sites/globe.com.ph/files/content/dam/globe/brie/AboutUs/newsroom/business/make-the-future-of-work-safe-with-globe-business-cybersecurity-solutions/eg-druid-primary-thumbnail-d.jpg",
      "description": "In light of the growing cyber threats companies face, Globe Business merged its cybersecurity and connectivity expertise through its Cybersecurity Solutions.",
      "datePosted": "May 18, 2022 | 03:06 PM",
      "titleFromTag": "Business"
    },
    {
      "title": "GCash President and CEO Honored As Master Innovator for Digital Transformation",
      "nonclickable": false,
      "openNewTab": false,
      "borderArticle": "border-color:#0074D9;",
      "borderTopArticle": "border-top-color:#0074D9;",
      "imageListing": "/sites/globe.com.ph/files/content/dam/globe/brie/About-us/Newsroom/image/Partners/518222PM/newsroom-partners-gcash-president-ceo-innovator-thumbnail-listing.jpg",
      "articleUrl": "https://www.globe.com.ph/about-us/newsroom/partners/gcash-president-ceo-master-innovator-for-digital-transformation.html",
      "columnType": "articles--type-3",
      "typeListing": "article",
      "imageMobile": "/sites/globe.com.ph/files/content/dam/globe/brie/About-us/Newsroom/image/Partners/518222PM/newsroom-partners-gcash-president-ceo-innovator-primary-thumbnail-m.jpg",
      "imageDesktop": "/sites/globe.com.ph/files/content/dam/globe/brie/About-us/Newsroom/image/Partners/518222PM/newsroom-partners-gcash-president-ceo-innovator-primary-thumbnail-d.jpg",
      "description": "GCash President and CEO Martha Sazon honored as Master Innovator for Digital Transformation Innovation at the Annual Mansmith Innovation Awards and Summit.",
      "datePosted": "May 18, 2022 | 02:00 PM",
      "titleFromTag": "Partners"
    },
    {
      "title": "Finance for All: GCash, Generali Philippines Team Up To Bring Insurance Products to More Pinoys",
      "nonclickable": false,
      "openNewTab": false,
      "borderArticle": "border-color:#0074D9;",
      "borderTopArticle": "border-top-color:#0074D9;",
      "imageListing": "/sites/globe.com.ph/files/content/dam/globe/brie/About-us/Newsroom/image/Consumer/518222PM/newsroom-consumer-gcash-generali-insurance-pinoys-thumbnail-listing.jpg",
      "articleUrl": "https://www.globe.com.ph/about-us/newsroom/consumer/gcash-generali-philippines-bring-insurance-products-more-pinoys.html",
      "columnType": "articles--type-3",
      "typeListing": "article",
      "imageMobile": "/sites/globe.com.ph/files/content/dam/globe/brie/About-us/Newsroom/image/Consumer/518222PM/newsroom-consumer-gcash-generali-insurance-pinoys-primary-thumbnail-m.jpg",
      "imageDesktop": "/sites/globe.com.ph/files/content/dam/globe/brie/About-us/Newsroom/image/Consumer/518222PM/newsroom-consumer-gcash-generali-insurance-pinoys-primary-thumbnail-d.jpg",
      "description": "GCash partners with Generali Philippines to offer four affordable insurance packages on GCash’s GLife to continue providing safety and convenience to Filipinos",
      "datePosted": "May 18, 2022 | 02:00 PM",
      "titleFromTag": "Consumer"
    },
    {
      "title": "PIE CHANNEL DELIVERS FUN AND PRIZES ON TV, ONLINE STARTING MAY 23",
      "nonclickable": false,
      "openNewTab": false,
      "borderArticle": "border-color:#0074D9;",
      "borderTopArticle": "border-top-color:#0074D9;",
      "imageListing": "/sites/globe.com.ph/files/content/dam/globe/brie/About-us/Newsroom/image/Partners/0518222PM/newsroom-partners-pie-deliver-prizes-thumbnail-listing.jpg",
      "articleUrl": "https://www.globe.com.ph/about-us/newsroom/partners/pie-channel-fun-prizes-tv-online.html",
      "columnType": "articles--type-3",
      "typeListing": "article",
      "imageMobile": "/sites/globe.com.ph/files/content/dam/globe/brie/About-us/Newsroom/image/Partners/0518222PM/newsroom-partners-pie-delivers-prizes-primary-thumbnail-m.jpg",
      "imageDesktop": "/sites/globe.com.ph/files/content/dam/globe/brie/About-us/Newsroom/image/Partners/0518222PM/newsroom-partners-pie-delivers-prizes-primary-thumbnail-d.jpg",
      "description": "Pinoy Interactive Entertainment (PIE) is here to give the traditional viewing experience a digital upgrade starting May 23.",
      "datePosted": "May 18, 2022 | 02:00 PM",
      "titleFromTag": "Partners"
    },
    {
      "title": "Globe Non-telco Revenues Jump 252% In Q1 2022",
      "nonclickable": false,
      "openNewTab": false,
      "borderArticle": "border-color:#0074D9;",
      "borderTopArticle": "border-top-color:#0074D9;",
      "imageListing": "/sites/globe.com.ph/files/content/dam/globe/brie/AboutUs/newsroom/corporate/internet-speed-zooms-more-than-50-percent/default-corporate-4-thumbnail-listing.jpg",
      "articleUrl": "https://www.globe.com.ph/about-us/newsroom/corporate/non-telco-revenues-jump-252-percent-q1-2022.html",
      "columnType": "articles--type-3",
      "typeListing": "article",
      "imageMobile": "/sites/globe.com.ph/files/content/dam/globe/brie/AboutUs/newsroom/corporate/internet-speed-zooms-more-than-50-percent/default-corporate-4-primary-thumbnail-m.jpg",
      "imageDesktop": "/sites/globe.com.ph/files/content/dam/globe/brie/AboutUs/newsroom/corporate/internet-speed-zooms-more-than-50-percent/default-corporate-4-primary-thumbnail-d.jpg",
      "description": "Globe’s shift to becoming a digital solutions platform has started to bear fruit, with revenues from non-telco services growing a robust 252% year on year.",
      "datePosted": "May 18, 2022 | 01:56 PM",
      "titleFromTag": "Corporate"
    },
    {
      "title": "TikTok Comedy Creator Raco Ruiz Joins KROMA Entertainment’s NYMA Family",
      "nonclickable": false,
      "openNewTab": false,
      "borderArticle": "border-color:#0074D9;",
      "borderTopArticle": "border-top-color:#0074D9;",
      "imageListing": "/sites/globe.com.ph/files/content/dam/globe/brie/About-us/Newsroom/image/Partners/516222PM/newsroom-partners-raco-ruiz-joins-nyma-thumbnail-listing.jpg",
      "articleUrl": "https://www.globe.com.ph/about-us/newsroom/partners/raco-ruiz-joins-nyma-family.html",
      "columnType": "articles--type-3",
      "typeListing": "article",
      "imageMobile": "/sites/globe.com.ph/files/content/dam/globe/brie/About-us/Newsroom/image/Partners/516222PM/newsroom-partners-raco-ruiz-joins-nyma-primary-thumbnail-m.jpg",
      "imageDesktop": "/sites/globe.com.ph/files/content/dam/globe/brie/About-us/Newsroom/image/Partners/516222PM/newsroom-partners-raco-ruiz-joins-nyma-primary-thumbnail-d.jpg",
      "description": "Everybody’s favorite TikTok broski Raco Ruiz has joined the KROMA Entertainment’s NYMA family!",
      "datePosted": "May 16, 2022 | 02:00 PM",
      "titleFromTag": "Partners"
    },
    {
      "title": "917Ventures Launches Concati One-Stop API Hub for Faster Time to Market",
      "nonclickable": false,
      "openNewTab": false,
      "borderArticle": "border-color:#0074D9;",
      "borderTopArticle": "border-top-color:#0074D9;",
      "imageListing": "/sites/globe.com.ph/files/content/dam/globe/brie/AboutUs/newsroom/917ventures/concati-one-stop-api-hub/newsroom-917ventures-launches-api-hub-market-thumbnail-listing.jpg",
      "articleUrl": "https://www.globe.com.ph/about-us/newsroom/917ventures/concati-one-stop-api-hub.html",
      "columnType": "articles--type-3",
      "typeListing": "article",
      "imageMobile": "/sites/globe.com.ph/files/content/dam/globe/brie/AboutUs/newsroom/917ventures/concati-one-stop-api-hub/newsroom-917ventures-launches-api-hub-market-primary-thumbnail-m.jpg",
      "imageDesktop": "/sites/globe.com.ph/files/content/dam/globe/brie/AboutUs/newsroom/917ventures/concati-one-stop-api-hub/newsroom-917ventures-launches-api-hub-market-primary-thumbnail-d.jpg",
      "description": "917Ventures has launched Concati, a one-stop application programming interface (API) marketplace, where developers can access high-quality APIs.",
      "datePosted": "May 16, 2022 | 10:20 AM",
      "titleFromTag": "917Ventures"
    },
    {
      "title": "Globe’s #1stWorldNetwork Provides Consistent Connectivity in 2022 Elections",
      "nonclickable": false,
      "openNewTab": false,
      "borderArticle": "border-color:#0074D9;",
      "borderTopArticle": "border-top-color:#0074D9;",
      "imageListing": "/sites/globe.com.ph/files/content/dam/globe/brie/AboutUs/newsroom/corporate/799-permits-1q-2021-new-towers/default-corporate-9-thumbnail-listing.jpg",
      "articleUrl": "https://www.globe.com.ph/about-us/newsroom/corporate/globe-first-world-network-consistent-connectivity-2022-elections.html",
      "columnType": "articles--type-3",
      "typeListing": "article",
      "imageMobile": "/sites/globe.com.ph/files/content/dam/globe/brie/AboutUs/newsroom/corporate/799-permits-1q-2021-new-towers/default-corporate-9-primary-thumbnail-m.jpg",
      "imageDesktop": "/sites/globe.com.ph/files/content/dam/globe/brie/AboutUs/newsroom/corporate/799-permits-1q-2021-new-towers/default-corporate-9-primary-thumbnail-d.jpg",
      "description": "Globe’s aggressive expansion made its presence felt in the May 2022 elections as its #1stWorldNetwork provided consistent connectivity in the polls.",
      "datePosted": "May 16, 2022 | 09:07 AM",
      "titleFromTag": "Corporate"
    },
    {
      "title": "Globe At Home GFiber:  An Essential Tool for WFH and Online Class Setups",
      "nonclickable": false,
      "openNewTab": false,
      "borderArticle": "border-color:#0074D9;",
      "borderTopArticle": "border-top-color:#0074D9;",
      "imageListing": "/sites/globe.com.ph/files/content/dam/globe/brie/AboutUs/newsroom/consumer/globe-at-home-gfiber-essential-tool-wfh-online-class/GAH-Portal_WiFiStrong_Thumbnail-Listing_288x170px.jpg",
      "articleUrl": "https://www.globe.com.ph/about-us/newsroom/consumer/globe-at-home-gfiber-essential-tool-wfh-online-class.html",
      "columnType": "articles--type-3",
      "typeListing": "article",
      "imageMobile": "/sites/globe.com.ph/files/content/dam/globe/brie/AboutUs/newsroom/consumer/globe-at-home-gfiber-essential-tool-wfh-online-class/GAH-Portal_WiFiStrong_Primary-Thumbnail_320x360px_m.jpg",
      "imageDesktop": "/sites/globe.com.ph/files/content/dam/globe/brie/AboutUs/newsroom/consumer/globe-at-home-gfiber-essential-tool-wfh-online-class/GAH-Portal_WiFiStrong_Primary-Thumbnail_860x400px_d.jpg",
      "description": "Through GFiber, parents can hold work meetings, while children attend their online classes via an ultra fast internet connection.",
      "datePosted": "May 13, 2022 | 03:16 PM",
      "titleFromTag": "Consumer"
    }
  ]
}
