{
  "status": 200,
  "page": 67,
  "totalPage": 298,
  "range": "793-804",
  "total": 3573,
  "result": [
    {
      "title": "GCash and CIMB Bank Offer Up to 7% P.A. Interest With GSave",
      "nonclickable": false,
      "openNewTab": false,
      "borderArticle": "border-color:#0074D9;",
      "borderTopArticle": "border-top-color:#0074D9;",
      "imageListing": "/sites/globe.com.ph/files/content/dam/globe/brie/About-us/Newsroom/image/Consumer/513223PM/newsroom-consumer-gcash-cimb-7_-interest-thumbnail-listing.jpg",
      "articleUrl": "https://www.globe.com.ph/about-us/newsroom/consumer/gcash-cimb-up-to-seven-pa-interest-gsave.html",
      "columnType": "articles--type-3",
      "typeListing": "article",
      "imageMobile": "/sites/globe.com.ph/files/content/dam/globe/brie/About-us/Newsroom/image/Consumer/513223PM/newsroom-consumer-gcash-cimb-7_-interest-primary-thumbnail-m.jpg",
      "imageDesktop": "/sites/globe.com.ph/files/content/dam/globe/brie/About-us/Newsroom/image/Consumer/513223PM/newsroom-consumer-gcash-cimb-7_-interest-primary-thumbnail-d.jpg",
      "description": "GCash and CIMB Bank  offer as much as 7% per annum on GSave for users who will sign up for their first GSave account from April 1, 2022 to June 30, 2022.",
      "datePosted": "May 13, 2022 | 03:16 PM",
      "titleFromTag": "Consumer"
    },
    {
      "title": "Globe at Home Provides Unli Strength to Power Filipinos’ Digital Lifestyle",
      "nonclickable": false,
      "openNewTab": false,
      "borderArticle": "border-color:#0074D9;",
      "borderTopArticle": "border-top-color:#0074D9;",
      "imageListing": "/sites/globe.com.ph/files/content/dam/globe/brie/AboutUs/newsroom/consumer/globe-at-home-provides-unli-strength-power-filipinos-digital-lifestyle/GAH-Portal_WiFiStrong_Thumbnail-Listing_288x170px.jpg",
      "articleUrl": "https://www.globe.com.ph/about-us/newsroom/consumer/globe-at-home-provides-unli-strength-power-filipinos-digital-lifestyle.html",
      "columnType": "articles--type-3",
      "typeListing": "article",
      "imageMobile": "/sites/globe.com.ph/files/content/dam/globe/brie/AboutUs/newsroom/consumer/globe-at-home-provides-unli-strength-power-filipinos-digital-lifestyle/GAH-Portal_WiFiStrong_Primary-Thumbnail_320x360px_m.jpg",
      "imageDesktop": "/sites/globe.com.ph/files/content/dam/globe/brie/AboutUs/newsroom/consumer/globe-at-home-provides-unli-strength-power-filipinos-digital-lifestyle/GAH-Portal_WiFiStrong_Primary-Thumbnail_860x400px_d.jpg",
      "description": "Globe At Home empowers Filipinos to experience high-speed internet and service beyond connectivity through its new and exciting fiber portfolio, GFiber.",
      "datePosted": "May 12, 2022 | 05:47 PM",
      "titleFromTag": "Consumer"
    },
    {
      "title": "Paradise Rising Finds New Home in KROMA Entertainment",
      "nonclickable": false,
      "openNewTab": false,
      "borderArticle": "border-color:#0074D9;",
      "borderTopArticle": "border-top-color:#0074D9;",
      "imageListing": "/sites/globe.com.ph/files/content/dam/globe/brie/About-us/Newsroom/image/Partners/512222PM/newsroom-partners-paradise-rising-kroma-entertainment-thumbnail-listing.jpg",
      "articleUrl": "https://www.globe.com.ph/about-us/newsroom/partners/paradise-rising-new-home-kroma-entertainment.html",
      "columnType": "articles--type-3",
      "typeListing": "article",
      "imageMobile": "/sites/globe.com.ph/files/content/dam/globe/brie/About-us/Newsroom/image/Partners/512222PM/newsroom-partners-paradise-rising-kroma-entertainment-primary-thumbnail-m.jpg",
      "imageDesktop": "/sites/globe.com.ph/files/content/dam/globe/brie/About-us/Newsroom/image/Partners/512222PM/newsroom-partners-paradise-rising-kroma-entertainment-primary-thumbnail-d.jpg",
      "description": "Global platform Paradise Rising has found a new home in KROMA Entertainment.",
      "datePosted": "May 12, 2022 | 02:00 PM",
      "titleFromTag": "Partners"
    },
    {
      "title": "GCash Weaves Itself Into Pinoy Vocabulary and Lifestyle",
      "nonclickable": false,
      "openNewTab": false,
      "borderArticle": "border-color:#0074D9;",
      "borderTopArticle": "border-top-color:#0074D9;",
      "imageListing": "/sites/globe.com.ph/files/content/dam/globe/brie/About-us/Newsroom/image/Consumer/512222PM/newsroom-consumer-gcash-pinoy-vocabulary-lifestyle-thumbnail-listing.jpg",
      "articleUrl": "https://www.globe.com.ph/about-us/newsroom/consumer/gcash-pinoy-vocabulary-lifestyle.html",
      "columnType": "articles--type-3",
      "typeListing": "article",
      "imageMobile": "/sites/globe.com.ph/files/content/dam/globe/brie/About-us/Newsroom/image/Consumer/512222PM/newsroom-consumer-gcash-pinoy-vocabulary-lifestyle-primary-thumbnail-m.jpg",
      "imageDesktop": "/sites/globe.com.ph/files/content/dam/globe/brie/About-us/Newsroom/image/Consumer/512222PM/newsroom-consumer-gcash-pinoy-vocabulary-lifestyle-primary-thumbnail-d.jpg",
      "description": "E-wallet platform GCash has become a part of Pinoy vocabulary and lifestyle.",
      "datePosted": "May 12, 2022 | 02:00 PM",
      "titleFromTag": "Consumer"
    },
    {
      "title": "Globe’s AdSpark an Essential Partner as Businesses Pivot to Digital",
      "nonclickable": false,
      "openNewTab": false,
      "borderArticle": "border-color:#0074D9;",
      "borderTopArticle": "border-top-color:#0074D9;",
      "imageListing": "/sites/globe.com.ph/files/content/dam/globe/brie/AboutUs/newsroom/common/default-10/default-consumer-2-thumbnail-listing.jpg",
      "articleUrl": "https://www.globe.com.ph/about-us/newsroom/partners/adspark-essential-partner-businesses-pivot-digital.html",
      "columnType": "articles--type-3",
      "typeListing": "article",
      "imageMobile": "/sites/globe.com.ph/files/content/dam/globe/brie/AboutUs/newsroom/common/default-10/default-consumer-2-primary-thumbnail-m.jpg",
      "imageDesktop": "/sites/globe.com.ph/files/content/dam/globe/brie/AboutUs/newsroom/common/default-10/default-consumer-2-primary-thumbnail-d.jpg",
      "description": "Award-winning digital advertising agency AdSpark has been helping businesses transition to an increasingly internet and data-driven world.",
      "datePosted": "May 12, 2022 | 09:00 AM",
      "titleFromTag": "Partners"
    },
    {
      "title": "Kodego, Jobstreet Address It Skills, Jobs Mismatch in PH",
      "nonclickable": false,
      "openNewTab": false,
      "borderArticle": "border-color:#0074D9;",
      "borderTopArticle": "border-top-color:#0074D9;",
      "imageListing": "/sites/globe.com.ph/files/content/dam/globe/brie/AboutUs/newsroom/917ventures/default-01/default-business-3-thumbnail-listing.jpg",
      "articleUrl": "https://www.globe.com.ph/about-us/newsroom/917ventures/kodego-jobstreet-address-it-skills-jobs-mismatch-ph.html",
      "columnType": "articles--type-3",
      "typeListing": "article",
      "imageMobile": "/sites/globe.com.ph/files/content/dam/globe/brie/AboutUs/newsroom/917ventures/default-01/default-business-3-primary-thumbnail-m.jpg",
      "imageDesktop": "/sites/globe.com.ph/files/content/dam/globe/brie/AboutUs/newsroom/917ventures/default-01/default-business-3-primary-thumbnail-d.jpg",
      "description": "KodeGo partnered with Jobstreet Philippines to help address the skills mismatch between job seekers & open company positions, particularly in the field of IT.",
      "datePosted": "May 10, 2022 | 04:20 PM",
      "titleFromTag": "917Ventures"
    },
    {
      "title": "Asticom Bags Triple Win in 2022 Asia-Pacific Stevie® Awards",
      "nonclickable": false,
      "openNewTab": false,
      "borderArticle": "border-color:#0074D9;",
      "borderTopArticle": "border-top-color:#0074D9;",
      "imageListing": "/sites/globe.com.ph/files/content/dam/globe/brie/AboutUs/newsroom/partners/asticom-bags-triple-win-asia-pacific-stevie-awards/newsroom-partners-asticom-bags-2022-award-thumbnail-listing.jpg",
      "articleUrl": "https://www.globe.com.ph/about-us/newsroom/partners/asticom-bags-triple-win-asia-pacific-stevie-awards.html",
      "columnType": "articles--type-3",
      "typeListing": "article",
      "imageMobile": "/sites/globe.com.ph/files/content/dam/globe/brie/AboutUs/newsroom/partners/asticom-bags-triple-win-asia-pacific-stevie-awards/newsroom-partners-asticom-bags-2022-award-primary-thumbnail-m.jpg",
      "imageDesktop": "/sites/globe.com.ph/files/content/dam/globe/brie/AboutUs/newsroom/partners/asticom-bags-triple-win-asia-pacific-stevie-awards/newsroom-partners-asticom-bags-2022-award-primary-thumbnail-d.jpg",
      "description": "Asticom won 3  awards at the 2022 Asia Pacific Stevie Awards, demonstrating its perseverance to innovate, grow, and succeed despite challenges in the past year.",
      "datePosted": "May 10, 2022 | 02:00 PM",
      "titleFromTag": "Partners"
    },
    {
      "title": "Globe Fetes Alex Eala on 2nd Pro-Title, Sends Off Tennis Sensation to SEA Games",
      "nonclickable": false,
      "openNewTab": false,
      "borderArticle": "border-color:#0074D9;",
      "borderTopArticle": "border-top-color:#0074D9;",
      "imageListing": "/sites/globe.com.ph/files/content/dam/globe/brie/About-us/Newsroom/image/Corporate/510222PM/newsroom-corporate-eala-2nd-title-games-thumbnail-listing.jpg",
      "articleUrl": "https://www.globe.com.ph/about-us/newsroom/corporate/globe-fetes-alex-eala-second-pro-title.html",
      "columnType": "articles--type-3",
      "typeListing": "article",
      "imageMobile": "/sites/globe.com.ph/files/content/dam/globe/brie/About-us/Newsroom/image/Corporate/510222PM/newsroom-corporate-eala-2nd-title-games-primary-thumbnail-m.jpg",
      "imageDesktop": "/sites/globe.com.ph/files/content/dam/globe/brie/About-us/Newsroom/image/Corporate/510222PM/newsroom-corporate-eala-2nd-title-games-primary-thumbnail-d.jpg",
      "description": "Alex Eala received a warm welcome at the Globe headquarters in Taguig City as she visited Globe leaders, employees ahead of her Southeast Asian Games medal bid.",
      "datePosted": "May 10, 2022 | 02:00 PM",
      "titleFromTag": "Corporate"
    },
    {
      "title": "Globe Is Most Consistent Network in Q1 2022",
      "nonclickable": false,
      "openNewTab": false,
      "borderArticle": "border-color:#0074D9;",
      "borderTopArticle": "border-top-color:#0074D9;",
      "imageListing": "/sites/globe.com.ph/files/content/dam/globe/brie/AboutUs/newsroom/corporate/largest-ph-publicly-listed-telco-digital-solutions-group/Corporate-globe-thumbnail-listing.jpg",
      "articleUrl": "https://www.globe.com.ph/about-us/newsroom/corporate/globe-is-most-consistent-network.html",
      "columnType": "articles--type-3",
      "typeListing": "article",
      "imageMobile": "/sites/globe.com.ph/files/content/dam/globe/brie/AboutUs/newsroom/corporate/largest-ph-publicly-listed-telco-digital-solutions-group/Corporate-globe-primary-thumbnail-m.jpg",
      "imageDesktop": "/sites/globe.com.ph/files/content/dam/globe/brie/AboutUs/newsroom/corporate/largest-ph-publicly-listed-telco-digital-solutions-group/Corporate-globe-primary-thumbnail-d.jpg",
      "description": "Globe was rated the most consistent mobile operator in the Philippines in the ﬁrst quarter of the year based on ﬁgures from two international analytics ﬁrms.",
      "datePosted": "May 10, 2022 | 12:31 PM",
      "titleFromTag": "Corporate"
    },
    {
      "title": "Globe Continues Aggressive Expansion, Fires up 252 Cell Sites in Q1 2022",
      "nonclickable": false,
      "openNewTab": false,
      "borderArticle": "border-color:#0074D9;",
      "borderTopArticle": "border-top-color:#0074D9;",
      "imageListing": "/sites/globe.com.ph/files/content/dam/globe/brie/AboutUs/newsroom/corporate/799-permits-1q-2021-new-towers/default-corporate-9-thumbnail-listing.jpg",
      "articleUrl": "https://www.globe.com.ph/about-us/newsroom/corporate/globe-continues-aggressive-expansion.html",
      "columnType": "articles--type-3",
      "typeListing": "article",
      "imageMobile": "/sites/globe.com.ph/files/content/dam/globe/brie/AboutUs/newsroom/corporate/799-permits-1q-2021-new-towers/default-corporate-9-primary-thumbnail-m.jpg",
      "imageDesktop": "/sites/globe.com.ph/files/content/dam/globe/brie/AboutUs/newsroom/corporate/799-permits-1q-2021-new-towers/default-corporate-9-primary-thumbnail-d.jpg",
      "description": "Globe continues to expand and modernize its network by firing up 252 cell sites in the first quarter of the year to provide connectivity to more Filipinos.",
      "datePosted": "May 10, 2022 | 08:07 AM",
      "titleFromTag": "Corporate"
    },
    {
      "title": "Globe At Home gives #AllForMom this Mother’s Day",
      "nonclickable": false,
      "openNewTab": false,
      "borderArticle": "border-color:#0074D9;",
      "borderTopArticle": "border-top-color:#0074D9;",
      "imageListing": "/sites/globe.com.ph/files/content/dam/globe/brie/AboutUs/newsroom/consumer/globe-at-home-allformom-mothers-day/GAH-Portal_AllForMom_Thumbnail-Listing_288x170px.jpg",
      "articleUrl": "https://www.globe.com.ph/about-us/newsroom/consumer/globe-at-home-allformom-mothers-day.html",
      "columnType": "articles--type-3",
      "typeListing": "article",
      "imageMobile": "/sites/globe.com.ph/files/content/dam/globe/brie/AboutUs/newsroom/consumer/globe-at-home-allformom-mothers-day/GAH-Portal_AllForMom_Primary-Thumbnail_320x360px_m.jpg",
      "imageDesktop": "/sites/globe.com.ph/files/content/dam/globe/brie/AboutUs/newsroom/consumer/globe-at-home-allformom-mothers-day/GAH-Portal_AllForMom_Primary-Thumbnail_860x400px_d.jpg",
      "description": "Avail of freebies this Mother’s Day weekend when you subscribe to HomeSurf599, buy a Home Prepaid WiFi, or apply for a GFiber Unli Plan from May 7-9, 2022.",
      "datePosted": "May 09, 2022 | 09:00 AM",
      "titleFromTag": "Consumer"
    },
    {
      "title": "GCash Sees Rise in Democratized Fintech Access, Lending, Super Apps - Globe Newsroom",
      "nonclickable": false,
      "openNewTab": false,
      "borderArticle": "border-color:#0074D9;",
      "borderTopArticle": "border-top-color:#0074D9;",
      "imageListing": "/sites/globe.com.ph/files/content/dam/globe/brie/AboutUs/newsroom/partners/GCash-Sees-Rise-in-Democratized-Fintech-Access--Lending--Super-Apps/newsroom-partners-gcash-rise-fintech-access-thumbnail-listing.jpg",
      "articleUrl": "https://www.globe.com.ph/about-us/newsroom/partners/gcash-sees-rise-democratized-fintech-access.html",
      "columnType": "articles--type-3",
      "typeListing": "article",
      "imageMobile": "/sites/globe.com.ph/files/content/dam/globe/brie/AboutUs/newsroom/partners/GCash-Sees-Rise-in-Democratized-Fintech-Access--Lending--Super-Apps/newsroom-partners-gcash-rise-fintech-access-primary-thumbnail-m.jpg",
      "imageDesktop": "/sites/globe.com.ph/files/content/dam/globe/brie/AboutUs/newsroom/partners/GCash-Sees-Rise-in-Democratized-Fintech-Access--Lending--Super-Apps/newsroom-partners-gcash-rise-fintech-access-primary-thumbnail-d.jpg",
      "description": "GCash sees growth in fintech access, especially in developing countries like the Philippines, the rise of super apps, and lending growth.",
      "datePosted": "May 06, 2022 | 02:00 PM",
      "titleFromTag": "Partners"
    }
  ]
}
