{
  "status": 200,
  "page": 68,
  "totalPage": 298,
  "range": "805-816",
  "total": 3573,
  "result": [
    {
      "title": "RUSH, PayMongo Help SMEs Grow Online With Affordable eCommerce Solution",
      "nonclickable": false,
      "openNewTab": false,
      "borderArticle": "border-color:#0074D9;",
      "borderTopArticle": "border-top-color:#0074D9;",
      "imageListing": "/sites/globe.com.ph/files/content/dam/globe/brie/About-us/Newsroom/image/Partners/56229AM/newsroom-partners-paymongo-help-smes-rush-thumbnail-listing.jpg",
      "articleUrl": "https://www.globe.com.ph/about-us/newsroom/partners/rush-paymongo-help-smes-grow-online.html",
      "columnType": "articles--type-3",
      "typeListing": "article",
      "imageMobile": "/sites/globe.com.ph/files/content/dam/globe/brie/About-us/Newsroom/image/Partners/56229AM/newsroom-partners-paymongo-help-smes-rush-primary-thumbnail-m.jpg",
      "imageDesktop": "/sites/globe.com.ph/files/content/dam/globe/brie/About-us/Newsroom/image/Partners/56229AM/newsroom-partners-paymongo-help-smes-rush-primary-thumbnail-d.jpg",
      "description": "RUSH and PayMongo revolutionize eCommerce in the Philippines by making it easier and more affordable for SMEs to build and grow their businesses online.",
      "datePosted": "May 06, 2022 | 09:00 AM",
      "titleFromTag": "Partners"
    },
    {
      "title": "KROMA Entertainment’s NYMA Welcomes Singer-Actress Kristel Fulgar to Exclusive Talent Pool",
      "nonclickable": false,
      "openNewTab": false,
      "borderArticle": "border-color:#0074D9;",
      "borderTopArticle": "border-top-color:#0074D9;",
      "imageListing": "/sites/globe.com.ph/files/content/dam/globe/brie/About-us/Newsroom/image/Partners/55222PM/newsroom-partners-kroma-nyma-welcomes-kristel-thumbnail-listing.jpg",
      "articleUrl": "https://www.globe.com.ph/about-us/newsroom/partners/kroma-entertainment-nyma-welcomes-kristel-fulgar.html",
      "columnType": "articles--type-3",
      "typeListing": "article",
      "imageMobile": "/sites/globe.com.ph/files/content/dam/globe/brie/About-us/Newsroom/image/Partners/55222PM/newsroom-partners-kroma-nyma-welcomes-kristel-primary-thumbnail-m.jpg",
      "imageDesktop": "/sites/globe.com.ph/files/content/dam/globe/brie/About-us/Newsroom/image/Partners/55222PM/newsroom-partners-kroma-nyma-welcomes-kristel-primary-thumbnail-d.jpg",
      "description": "Singer-Actress Kristel Fulgar has joined KROMA Entertainment’s talent management agency NYMA.",
      "datePosted": "May 05, 2022 | 02:00 PM",
      "titleFromTag": "Partners"
    },
    {
      "title": "Globe Fires Up 380 New 5G Sites in Q1 2022",
      "nonclickable": false,
      "openNewTab": false,
      "borderArticle": "border-color:#0074D9;",
      "borderTopArticle": "border-top-color:#0074D9;",
      "imageListing": "/sites/globe.com.ph/files/content/dam/globe/brie/About-us/Newsroom/image/Corporate/55222pm/newsroom-corporate-fires-up-5g-sites-thumbnail-listing.jpg",
      "articleUrl": "https://www.globe.com.ph/about-us/newsroom/corporate/380-new-5g-sites-q1-2022.html",
      "columnType": "articles--type-3",
      "typeListing": "article",
      "imageMobile": "/sites/globe.com.ph/files/content/dam/globe/brie/About-us/Newsroom/image/Corporate/55222pm/newsroom-corporate-fires-up-5g-sites-primary-thumbnail-m.jpg",
      "imageDesktop": "/sites/globe.com.ph/files/content/dam/globe/brie/About-us/Newsroom/image/Corporate/55222pm/newsroom-corporate-fires-up-5g-sites-primary-thumbnail-d.jpg",
      "description": "Globe continues to make 5G wireless technology accessible to more areas nationwide, firing up 380 new sites in Q1 2022.",
      "datePosted": "May 05, 2022 | 02:00 PM",
      "titleFromTag": "Corporate"
    },
    {
      "title": "Globe Seeks Amendment of EPIRA Law IRR for Wider Use of Renewable Energy ",
      "nonclickable": false,
      "openNewTab": false,
      "borderArticle": "border-color:#1C91C5;",
      "borderTopArticle": "border-top-color:#1C91C5;",
      "imageListing": "/sites/globe.com.ph/files/content/dam/globe/brie/AboutUs/newsroom/sustainability/globe-seeks-amendment-of-epira-law-irr-for-wider-use-of-renewable-energy/Newsroom-sustainability-globe-amendment-epira-law-thumbnail-listing.jpg",
      "articleUrl": "https://www.globe.com.ph/about-us/newsroom/sustainability/globe-seeks-amendment-epira-law-irr.html",
      "columnType": "articles--type-3",
      "typeListing": "article",
      "imageMobile": "/sites/globe.com.ph/files/content/dam/globe/brie/AboutUs/newsroom/sustainability/globe-seeks-amendment-of-epira-law-irr-for-wider-use-of-renewable-energy/Newsroom-sustainability-globe-amendment-epira-law-primary-thumbnail-m.jpg",
      "imageDesktop": "/sites/globe.com.ph/files/content/dam/globe/brie/AboutUs/newsroom/sustainability/globe-seeks-amendment-of-epira-law-irr-for-wider-use-of-renewable-energy/Newsroom-sustainability-globe-amendment-epira-law-primary-thumbnail-d.jpg",
      "description": "Globe hopes to expand its use of clean energy across its operations as it looks forward to shifting more critical infrastructure to renewables.",
      "datePosted": "May 05, 2022 | 12:59 PM",
      "titleFromTag": "Sustainability"
    },
    {
      "title": "Globe Joins Opensignal’s ‘Global Rising Stars’ for 3rd Straight Year",
      "nonclickable": false,
      "openNewTab": false,
      "borderArticle": "border-color:#0074D9;",
      "borderTopArticle": "border-top-color:#0074D9;",
      "imageListing": "/sites/globe.com.ph/files/content/dam/globe/brie/About-us/Newsroom/image/Corporate/055229AM/newsroom-corporate-globe-joins-rising-stars-thumbnail-listing.jpg",
      "articleUrl": "https://www.globe.com.ph/about-us/newsroom/corporate/opensignal-global-rising-stars-3rd-straight-year.html",
      "columnType": "articles--type-3",
      "typeListing": "article",
      "imageMobile": "/sites/globe.com.ph/files/content/dam/globe/brie/About-us/Newsroom/image/Corporate/055229AM/newsroom-corporate-globe-joins-rising-stars-primary-thumbnail-m.jpg",
      "imageDesktop": "/sites/globe.com.ph/files/content/dam/globe/brie/About-us/Newsroom/image/Corporate/055229AM/newsroom-corporate-globe-joins-rising-stars-primary-thumbnail-d.jpg",
      "description": "Globe was recognized by Opensignal as a Global Rising Star for the third consecutive year in its 2022 Global Mobile Network Experience Awards report.",
      "datePosted": "May 05, 2022 | 09:00 AM",
      "titleFromTag": "Corporate"
    },
    {
      "title": "Globe Ramps Up 5G Rollout in Areas Not Reached by Broadband",
      "nonclickable": false,
      "openNewTab": false,
      "borderArticle": "border-color:#0074D9;",
      "borderTopArticle": "border-top-color:#0074D9;",
      "imageListing": "/sites/globe.com.ph/files/content/dam/globe/brie/About-us/Newsroom/image/Corporate/054229AM/newsroom-corporate-globe-ramps-5g-rollout-thumbnail-listing.jpg",
      "articleUrl": "https://www.globe.com.ph/about-us/newsroom/consumer/globe-ramps-up-5g-rollout-areas-not-reached-by-broadband.html",
      "columnType": "articles--type-3",
      "typeListing": "article",
      "imageMobile": "/sites/globe.com.ph/files/content/dam/globe/brie/About-us/Newsroom/image/Corporate/054229AM/newsroom-corporate-globe-ramps-5g-rollout-primary-thumbnail-m.jpg",
      "imageDesktop": "/sites/globe.com.ph/files/content/dam/globe/brie/About-us/Newsroom/image/Corporate/054229AM/newsroom-corporate-globe-ramps-5g-rollout-primary-thumbnail-d.jpg",
      "description": "Globe ramps up the rollout of 5G sites in areas not reached by fixed internet or broadband to further improve the Digital Quality of Life in the Philippines.",
      "datePosted": "May 04, 2022 | 09:00 AM",
      "titleFromTag": "Consumer"
    },
    {
      "title": "GCash, NBI, PNP Joint Effort Blocks 900,000 Fraudulent Accounts",
      "nonclickable": false,
      "openNewTab": false,
      "borderArticle": "border-color:#0074D9;",
      "borderTopArticle": "border-top-color:#0074D9;",
      "imageListing": "/sites/globe.com.ph/files/content/dam/globe/brie/About-us/Newsroom/image/Consumer/0504229AM/newsroom-consumer-gcash-nbi-pnp-accounts-thumbnail-listing.jpg",
      "articleUrl": "https://www.globe.com.ph/about-us/newsroom/consumer/gcash-nbi-pnp-block-fraudulent-accounts.html",
      "columnType": "articles--type-3",
      "typeListing": "article",
      "imageMobile": "/sites/globe.com.ph/files/content/dam/globe/brie/About-us/Newsroom/image/Consumer/0504229AM/newsroom-consumer-gcash-nbi-pnp-accounts-primary-thumbnail-m.jpg",
      "imageDesktop": "/sites/globe.com.ph/files/content/dam/globe/brie/About-us/Newsroom/image/Consumer/0504229AM/newsroom-consumer-gcash-nbi-pnp-accounts-primary-thumbnail-d.jpg",
      "description": "GCash, together with NBI and PNP have barred over 900,000 fraudulent accounts from January to March this year.",
      "datePosted": "May 04, 2022 | 09:00 AM",
      "titleFromTag": "Consumer"
    },
    {
      "title": "Full Time or Gig? Asticom Wants to Offer Pinoys Non-traditional Job Options",
      "nonclickable": false,
      "openNewTab": false,
      "borderArticle": "border-color:#0074D9;",
      "borderTopArticle": "border-top-color:#0074D9;",
      "imageListing": "/sites/globe.com.ph/files/content/dam/globe/brie/AboutUs/newsroom/partners/asticom-wants-to-offer-pinoys-non-traditional-job-options/newsroom-partners-asticom-offer-job-options-thumbnail-listing.jpg",
      "articleUrl": "https://www.globe.com.ph/about-us/newsroom/partners/asticom-wants-to-offer-pinoy-non-traditional-job-options.html",
      "columnType": "articles--type-3",
      "typeListing": "article",
      "imageMobile": "/sites/globe.com.ph/files/content/dam/globe/brie/AboutUs/newsroom/partners/asticom-wants-to-offer-pinoys-non-traditional-job-options/newsroom-partners-asticom-offer-job-options-primary-thumbnail-m.jpg",
      "imageDesktop": "/sites/globe.com.ph/files/content/dam/globe/brie/AboutUs/newsroom/partners/asticom-wants-to-offer-pinoys-non-traditional-job-options/newsroom-partners-asticom-offer-job-options-primary-thumbnail-d.jpg",
      "description": "Asticom is looking to offer employment beyond regular full-time jobs, mindful that Filipinos may want to see more work options adapted to their preferences.",
      "datePosted": "May 02, 2022 | 11:00 AM",
      "titleFromTag": "Partners"
    },
    {
      "title": "GFiber Brings Exciting Premium Content with Prime Video, HBO Go, Viu",
      "nonclickable": false,
      "openNewTab": false,
      "borderArticle": "border-color:#0074D9;",
      "borderTopArticle": "border-top-color:#0074D9;",
      "imageListing": "/sites/globe.com.ph/files/content/dam/globe/brie/AboutUs/newsroom/consumer/gfiber-brings-exciting-premium-content/thumbnail-listing-288x170.jpg",
      "articleUrl": "https://www.globe.com.ph/about-us/newsroom/consumer/gfiber-brings-exciting-premium-content.html",
      "columnType": "articles--type-3",
      "typeListing": "article",
      "imageMobile": "/sites/globe.com.ph/files/content/dam/globe/brie/AboutUs/newsroom/consumer/gfiber-brings-exciting-premium-content/primary-thumbnail-m-320x360.jpg",
      "imageDesktop": "/sites/globe.com.ph/files/content/dam/globe/brie/AboutUs/newsroom/consumer/gfiber-brings-exciting-premium-content/primary-thumbnail-d-860x400.jpg",
      "description": "Want to give your family non-stop entertainment? Globe At Home’s GFiber brings the most exciting premium content with Prime Video, HBO GO, and VIU!",
      "datePosted": "May 02, 2022 | 09:34 AM",
      "titleFromTag": "Consumer"
    },
    {
      "title": "Globe Signs MOU with AST SpaceMobile for Space-Based Cellular Broadband Connectivity",
      "nonclickable": false,
      "openNewTab": false,
      "borderArticle": "border-color:#0074D9;",
      "borderTopArticle": "border-top-color:#0074D9;",
      "imageListing": "/sites/globe.com.ph/files/content/dam/globe/brie/AboutUs/newsroom/partners/globe-signs-mou-ast-spacemobile/newsroom-corporate-globe-signs-mou-ast-thumbnail-listing.jpg",
      "articleUrl": "https://www.globe.com.ph/about-us/newsroom/partners/globe-signs-mou-ast-spacemobile.html",
      "columnType": "articles--type-3",
      "typeListing": "article",
      "imageMobile": "/sites/globe.com.ph/files/content/dam/globe/brie/AboutUs/newsroom/partners/globe-signs-mou-ast-spacemobile/newsroom-corporate-globe-signs-mou-ast-primary-thumbnail-m.jpg",
      "imageDesktop": "/sites/globe.com.ph/files/content/dam/globe/brie/AboutUs/newsroom/partners/globe-signs-mou-ast-spacemobile/newsroom-corporate-globe-signs-mou-ast-primary-thumbnail-d.jpg",
      "description": "Globe is collaborating with AST SpaceMobile Inc., which is building the world's 1st space-based cellular broadband network, to explore further services.",
      "datePosted": "Apr 29, 2022 | 02:00 PM",
      "titleFromTag": "Partners"
    },
    {
      "title": "Globe Bags Opensignal’s Excellent and Core Consistent Quality Awards",
      "nonclickable": false,
      "openNewTab": false,
      "borderArticle": "border-color:#0074D9;",
      "borderTopArticle": "border-top-color:#0074D9;",
      "imageListing": "/sites/globe.com.ph/files/content/dam/globe/brie/AboutUs/newsroom/corporate/largest-ph-publicly-listed-telco-digital-solutions-group/Corporate-globe-thumbnail-listing.jpg",
      "articleUrl": "https://www.globe.com.ph/about-us/newsroom/corporate/opensignal-excellent-core-consistent-quality-awards.html",
      "columnType": "articles--type-3",
      "typeListing": "article",
      "imageMobile": "/sites/globe.com.ph/files/content/dam/globe/brie/AboutUs/newsroom/corporate/largest-ph-publicly-listed-telco-digital-solutions-group/Corporate-globe-primary-thumbnail-m.jpg",
      "imageDesktop": "/sites/globe.com.ph/files/content/dam/globe/brie/AboutUs/newsroom/corporate/largest-ph-publicly-listed-telco-digital-solutions-group/Corporate-globe-primary-thumbnail-d.jpg",
      "description": "Independent global standard Opensignal has recognized Globe for delivering the most consistent mobile quality in the Philippines.",
      "datePosted": "Apr 29, 2022 | 01:00 PM",
      "titleFromTag": "Corporate"
    },
    {
      "title": "Globe Names Raul Macatangay as New CIO",
      "nonclickable": false,
      "openNewTab": false,
      "borderArticle": "border-color:#0074D9;",
      "borderTopArticle": "border-top-color:#0074D9;",
      "imageListing": "/sites/globe.com.ph/files/content/dam/globe/brie/AboutUs/newsroom/corporate/raul-macatangay-new-cio/newsroom-corporate-raul-macatangay-new-cio-thumbnail-listing.jpg",
      "articleUrl": "https://www.globe.com.ph/about-us/newsroom/corporate/raul-macatangay-new-cio.html",
      "columnType": "articles--type-3",
      "typeListing": "article",
      "imageMobile": "/sites/globe.com.ph/files/content/dam/globe/brie/AboutUs/newsroom/corporate/raul-macatangay-new-cio/newsroom-corporate-raul-macatangay-new-cio-primary-thumbnail-m.jpg",
      "imageDesktop": "/sites/globe.com.ph/files/content/dam/globe/brie/AboutUs/newsroom/corporate/raul-macatangay-new-cio/newsroom-corporate-raul-macatangay-new-cio-primary-thumbnail-d.jpg",
      "description": "Globe has appointed Raul Macatangay as Chief Information Officer effective May 1, 2022. He was previously the company’s vice president for financial control.",
      "datePosted": "Apr 29, 2022 | 01:00 PM",
      "titleFromTag": "Corporate"
    }
  ]
}
