{
  "status": 200,
  "page": 69,
  "totalPage": 298,
  "range": "817-828",
  "total": 3573,
  "result": [
    {
      "title": "Globe Backs Strengthening Intellectual Property Regime in Asia-Pacific",
      "nonclickable": false,
      "openNewTab": false,
      "borderArticle": "border-color:#1C91C5;",
      "borderTopArticle": "border-top-color:#1C91C5;",
      "imageListing": "/sites/globe.com.ph/files/content/dam/globe/brie/AboutUs/newsroom/sustainability/digital-thumbprint-program-online-verbal-abuse/sustainability-DTM-helps-kids-fight-online-thumbnail-listing.jpg",
      "articleUrl": "https://www.globe.com.ph/about-us/newsroom/sustainability/strengthening-intellectual-property-regime-asia-pacific.html",
      "columnType": "articles--type-3",
      "typeListing": "article",
      "imageMobile": "/sites/globe.com.ph/files/content/dam/globe/brie/AboutUs/newsroom/sustainability/digital-thumbprint-program-online-verbal-abuse/sustainability-DTM-helps-kids-fight-online-primary-thumbnail-m.jpg",
      "imageDesktop": "/sites/globe.com.ph/files/content/dam/globe/brie/AboutUs/newsroom/sustainability/digital-thumbprint-program-online-verbal-abuse/sustainability-DTM-helps-kids-fight-online-primary-thumbnail-d.jpg",
      "description": "Globe is in support of regional efforts to boost intellectual property protection as this is vital in encouraging businesses to develop & bring new products.",
      "datePosted": "Apr 28, 2022 | 03:15 PM",
      "titleFromTag": "Sustainability"
    },
    {
      "title": "How Globe’s Field Personnel Restored Services in Cebu",
      "nonclickable": false,
      "openNewTab": false,
      "borderArticle": "border-color:#0074D9;",
      "borderTopArticle": "border-top-color:#0074D9;",
      "imageListing": "/sites/globe.com.ph/files/content/dam/globe/brie/AboutUs/newsroom/corporate/how-globes-field-personnel-restored-services-cebu/newsroom-corporate-personnel-restore-services-cebu-thumbnail-listing.jpg",
      "articleUrl": "https://www.globe.com.ph/about-us/newsroom/corporate/how-globes-field-personnel-restored-services-cebu.html",
      "columnType": "articles--type-3",
      "typeListing": "article",
      "imageMobile": "/sites/globe.com.ph/files/content/dam/globe/brie/AboutUs/newsroom/corporate/how-globes-field-personnel-restored-services-cebu/newsroom-corporate-personnel-restore-services-cebu-primary-thumbnail-m.jpg",
      "imageDesktop": "/sites/globe.com.ph/files/content/dam/globe/brie/AboutUs/newsroom/corporate/how-globes-field-personnel-restored-services-cebu/newsroom-corporate-personnel-restore-services-cebu-primary-thumbnail-d.jpg",
      "description": "In March, Globe completed its network restoration in Odette-hit areas through the combined effort of some 220 teams from around the Philippines.",
      "datePosted": "Apr 28, 2022 | 10:25 AM",
      "titleFromTag": "Corporate"
    },
    {
      "title": "BRAD logistics announces nationwide expansion to support SMEs",
      "nonclickable": false,
      "openNewTab": false,
      "borderArticle": "border-color:#0074D9;",
      "borderTopArticle": "border-top-color:#0074D9;",
      "imageListing": "/sites/globe.com.ph/files/content/dam/globe/brie/AboutUs/newsroom/consumer/brad-logistics-announces-nationwide-expansion/sg-brad-thumbnail-listing.jpg",
      "articleUrl": "https://www.globe.com.ph/about-us/newsroom/consumer/brad-logistics-nationwide-expansion-support-smes.html",
      "columnType": "articles--type-3",
      "typeListing": "article",
      "imageMobile": "/sites/globe.com.ph/files/content/dam/globe/brie/AboutUs/newsroom/consumer/brad-logistics-announces-nationwide-expansion/sg-brad-primary-thumbnail-m.jpg",
      "imageDesktop": "/sites/globe.com.ph/files/content/dam/globe/brie/AboutUs/newsroom/consumer/brad-logistics-announces-nationwide-expansion/sg-brad-primary-thumbnail-d.jpg",
      "description": "BRAD logistics has unveiled plans to go nationwide this year to support the growth of small and medium-sized enterprises (SMEs), mainly homegrown businesses.  ",
      "datePosted": "Apr 27, 2022 | 04:00 PM",
      "titleFromTag": "Consumer"
    },
    {
      "title": "EdVenture Hosts Open House for Affordable, High-Quality K-To-10 Tutorials",
      "nonclickable": false,
      "openNewTab": false,
      "borderArticle": "border-color:#1C91C5;",
      "borderTopArticle": "border-top-color:#1C91C5;",
      "imageListing": "/sites/globe.com.ph/files/content/dam/globe/brie/AboutUs/newsroom/sustainability/edventure-open-house-affordable-high-quality-k-to-10-tutorials/newsroom-917ventures-edventure-affordable-k-to-10-thumbnail-listing.jpg",
      "articleUrl": "https://www.globe.com.ph/about-us/newsroom/sustainability/edventure-open-house-affordable-high-quality-k-to-10-tutorials.html",
      "columnType": "articles--type-3",
      "typeListing": "article",
      "imageMobile": "/sites/globe.com.ph/files/content/dam/globe/brie/AboutUs/newsroom/sustainability/edventure-open-house-affordable-high-quality-k-to-10-tutorials/newsroom-917ventures-edventure-affordable-k-to-10-primary-thumbnail-m.jpg",
      "imageDesktop": "/sites/globe.com.ph/files/content/dam/globe/brie/AboutUs/newsroom/sustainability/edventure-open-house-affordable-high-quality-k-to-10-tutorials/newsroom-917ventures-edventure-affordable-k-to-10-primary-thumbnail-d.jpg",
      "description": "EdVenture recently hosted its first virtual Open House to give parents access to high-quality yet affordable education for their children.",
      "datePosted": "Apr 27, 2022 | 03:15 PM",
      "titleFromTag": "Sustainability"
    },
    {
      "title": "Globe and Ortigas Malls Partner to Digitally Transform Properties",
      "nonclickable": false,
      "openNewTab": false,
      "borderArticle": "border-color:#0074D9;",
      "borderTopArticle": "border-top-color:#0074D9;",
      "imageListing": "/sites/globe.com.ph/files/content/dam/globe/brie/AboutUs/newsroom/business/globe-ortigas-malls-partner-digitally-transform-properties/eg-globe-ortigas-thumbnail-listing.jpg",
      "articleUrl": "https://www.globe.com.ph/about-us/newsroom/business/globe-ortigas-malls-partner-digitally-transform-properties.html",
      "columnType": "articles--type-3",
      "typeListing": "article",
      "imageMobile": "/sites/globe.com.ph/files/content/dam/globe/brie/AboutUs/newsroom/business/globe-ortigas-malls-partner-digitally-transform-properties/eg-globe-ortigas-primary-thumbnail-m.jpg",
      "imageDesktop": "/sites/globe.com.ph/files/content/dam/globe/brie/AboutUs/newsroom/business/globe-ortigas-malls-partner-digitally-transform-properties/eg-globe-ortigas-primary-thumbnail-d.jpg",
      "description": "Globe partnered with Ortigas Malls to offer its customers online and onsite solutions to augment Ortigas Malls and Ortigas Community Card memberships by 2024.",
      "datePosted": "Apr 27, 2022 | 03:06 PM",
      "titleFromTag": "Business"
    },
    {
      "title": "Globe Mobile Business Continues Uptrend as Post-pandemic Mobility Resumes",
      "nonclickable": false,
      "openNewTab": false,
      "borderArticle": "border-color:#0074D9;",
      "borderTopArticle": "border-top-color:#0074D9;",
      "imageListing": "/sites/globe.com.ph/files/content/dam/globe/brie/AboutUs/newsroom/common/default-3/corporate-default-7-thumbnail-listing.jpg",
      "articleUrl": "https://www.globe.com.ph/about-us/newsroom/corporate/globe-mobile-business-continues-uptrend.html",
      "columnType": "articles--type-3",
      "typeListing": "article",
      "imageMobile": "/sites/globe.com.ph/files/content/dam/globe/brie/AboutUs/newsroom/common/default-3/corporate-default-7-primary-thumbnail-m.jpg",
      "imageDesktop": "/sites/globe.com.ph/files/content/dam/globe/brie/AboutUs/newsroom/common/default-3/corporate-default-7-primary-thumbnail-d.jpg",
      "description": "Globe sees a continuing uptrend in mobile use in the country as more Filipinos regain mobility amid easing pandemic restrictions.",
      "datePosted": "Apr 27, 2022 | 12:00 PM",
      "titleFromTag": "Corporate"
    },
    {
      "title": "Globe 5G Offers Better Browsing Experience, 3X Faster Than Mobile WiFi Speed",
      "nonclickable": false,
      "openNewTab": false,
      "borderArticle": "border-color:#0074D9;",
      "borderTopArticle": "border-top-color:#0074D9;",
      "imageListing": "/sites/globe.com.ph/files/content/dam/globe/brie/About-us/Newsroom/image/Corporate/0426225PM/newsroom-corporate-5g-better-browsing-speed-thumbnail-listing.jpg",
      "articleUrl": "https://www.globe.com.ph/about-us/newsroom/corporate/globe-5g-better-browsing-experience.html",
      "columnType": "articles--type-3",
      "typeListing": "article",
      "imageMobile": "/sites/globe.com.ph/files/content/dam/globe/brie/About-us/Newsroom/image/Corporate/0426225PM/newsroom-corporate-5g-better-browsing-speed-primary-thumbnail-m.jpg",
      "imageDesktop": "/sites/globe.com.ph/files/content/dam/globe/brie/About-us/Newsroom/image/Corporate/0426225PM/newsroom-corporate-5g-better-browsing-speed-primary-thumbnail-d.jpg",
      "description": "Globe’s 5G speed is now three times faster than mobile WiFi, according to Ookla.",
      "datePosted": "Apr 26, 2022 | 05:00 PM",
      "titleFromTag": "Corporate"
    },
    {
      "title": "Asticom Bags Three Golds in 2022 Titan Business Awards",
      "nonclickable": false,
      "openNewTab": false,
      "borderArticle": "border-color:#0074D9;",
      "borderTopArticle": "border-top-color:#0074D9;",
      "imageListing": "/sites/globe.com.ph/files/content/dam/globe/brie/AboutUs/newsroom/partners/asticom-bags-three-golds-in-2022-titan-business-awards/newsroom-partners-asticom-three-golds-2022-thumbnail-listing.jpg",
      "articleUrl": "https://www.globe.com.ph/about-us/newsroom/partners/asticom-bags-three-golds-2022-titan-business-awards.html",
      "columnType": "articles--type-3",
      "typeListing": "article",
      "imageMobile": "/sites/globe.com.ph/files/content/dam/globe/brie/AboutUs/newsroom/partners/asticom-bags-three-golds-in-2022-titan-business-awards/newsroom-partners-asticom-three-golds-2022-primary-thumbnail-m.jpg",
      "imageDesktop": "/sites/globe.com.ph/files/content/dam/globe/brie/AboutUs/newsroom/partners/asticom-bags-three-golds-in-2022-titan-business-awards/newsroom-partners-asticom-three-golds-2022-primary-thumbnail-d.jpg",
      "description": "Asticom Group of Companies, a wholly-owned subsidiary of Globe, bagged three golds in the recent 2022 TITAN Business Awards. ",
      "datePosted": "Apr 26, 2022 | 02:00 PM",
      "titleFromTag": "Partners"
    },
    {
      "title": "KROMA Sets New Virtual Event Standard With xR Disguise Technology",
      "nonclickable": false,
      "openNewTab": false,
      "borderArticle": "border-color:#0074D9;",
      "borderTopArticle": "border-top-color:#0074D9;",
      "imageListing": "/sites/globe.com.ph/files/content/dam/globe/brie/About-us/Newsroom/image/Partners/0425225PM/newsroom-partners-kroma-new-xr-technology-thumbnail-listing.jpg",
      "articleUrl": "https://www.globe.com.ph/about-us/newsroom/partners/kroma-new-virtual-event-standard-xr-disguise-technology.html",
      "columnType": "articles--type-3",
      "typeListing": "article",
      "imageMobile": "/sites/globe.com.ph/files/content/dam/globe/brie/About-us/Newsroom/image/Partners/0425225PM/newsroom-partners-kroma-new-xr-technology-primary-thumbnail-m.jpg",
      "imageDesktop": "/sites/globe.com.ph/files/content/dam/globe/brie/About-us/Newsroom/image/Partners/0425225PM/newsroom-partners-kroma-new-xr-technology-primary-thumbnail-d.jpg",
      "description": "KROMA introduced its entertainment brand through an extended reality (xR) disguise event rarely seen in the Philippines.",
      "datePosted": "Apr 25, 2022 | 05:00 PM",
      "titleFromTag": "Partners"
    },
    {
      "title": "A Synergy for Economic and Social Growth",
      "nonclickable": false,
      "openNewTab": false,
      "borderArticle": "border-color:#0074D9;",
      "borderTopArticle": "border-top-color:#0074D9;",
      "imageListing": "/sites/globe.com.ph/files/content/dam/globe/brie/AboutUs/newsroom/partners/a-synergy-for-economic-and-social-growth/newsroom-partners-synergy-economic-social-growth-thumbnail-listing.jpg",
      "articleUrl": "https://www.globe.com.ph/about-us/newsroom/partners/a-synergy-for-economic-and-social-growth.html",
      "columnType": "articles--type-3",
      "typeListing": "article",
      "imageMobile": "/sites/globe.com.ph/files/content/dam/globe/brie/AboutUs/newsroom/partners/a-synergy-for-economic-and-social-growth/newsroom-partners-synergy-economic-social-growth-primary-thumbnail-m.jpg",
      "imageDesktop": "/sites/globe.com.ph/files/content/dam/globe/brie/AboutUs/newsroom/partners/a-synergy-for-economic-and-social-growth/newsroom-partners-synergy-economic-social-growth-primary-thumbnail-d.jpg",
      "description": "The Ayala Group has renamed and relaunched the Cebu chapter of the WeAreAyala Business Club recently to advance the Greater Good by fostering customer support.",
      "datePosted": "Apr 25, 2022 | 05:00 PM",
      "titleFromTag": "Partners"
    },
    {
      "title": "ABS-CBN, KROMA, and 917Ventures Launch PH’s Newest ‘TraDigital’ Entertainment Channel in May",
      "nonclickable": false,
      "openNewTab": false,
      "borderArticle": "border-color:#0074D9;",
      "borderTopArticle": "border-top-color:#0074D9;",
      "imageListing": "/sites/globe.com.ph/files/content/dam/globe/brie/About-us/Newsroom/image/Consumer/0422225PM/newsroom-consumer-ph_s-tradigital-entertainment-channel-thumbnail-listing.jpg",
      "articleUrl": "https://www.globe.com.ph/about-us/newsroom/consumer/abs-cbn-kroma-917ventures-tradigital-entertainment.html",
      "columnType": "articles--type-3",
      "typeListing": "article",
      "imageMobile": "/sites/globe.com.ph/files/content/dam/globe/brie/About-us/Newsroom/image/Consumer/0422225PM/newsroom-consumer-ph_s-tradigital-entertainment-channel-primary-thumbnail-m.jpg",
      "imageDesktop": "/sites/globe.com.ph/files/content/dam/globe/brie/About-us/Newsroom/image/Consumer/0422225PM/newsroom-consumer-ph_s-tradigital-entertainment-channel-primary-thumbnail-d.jpg",
      "description": "ABS-CBN, KROMA, and foremost corporate venture builder 917Ventures introduce “TraDigital” viewing to Filipinos through Pinoy Interactive Entertainment.",
      "datePosted": "Apr 22, 2022 | 05:00 PM",
      "titleFromTag": "Consumer"
    },
    {
      "title": "Asticom Celebrates Seven Years of Helping Businesses Achieve Greater Efficiency",
      "nonclickable": false,
      "openNewTab": false,
      "borderArticle": "border-color:#0074D9;",
      "borderTopArticle": "border-top-color:#0074D9;",
      "imageListing": "/sites/globe.com.ph/files/content/dam/globe/brie/AboutUs/newsroom/partners/asticom-celebrates-seven-years-helping-businesses/newsroom-partners-asticom-seven-years-efficiency-thumbnail-listing.jpg",
      "articleUrl": "https://www.globe.com.ph/about-us/newsroom/partners/asticom-celebrates-seven-years-helping-businesses.html",
      "columnType": "articles--type-3",
      "typeListing": "article",
      "imageMobile": "/sites/globe.com.ph/files/content/dam/globe/brie/AboutUs/newsroom/partners/asticom-celebrates-seven-years-helping-businesses/newsroom-partners-asticom-seven-years-efficiency-primary-thumbnail-m.jpg",
      "imageDesktop": "/sites/globe.com.ph/files/content/dam/globe/brie/AboutUs/newsroom/partners/asticom-celebrates-seven-years-helping-businesses/newsroom-partners-asticom-seven-years-efficiency-primary-thumbnail-d.jpg",
      "description": "Asticom has reached another milestone as it celebrates its 7th anniversary in shared services industry, helping various companies achieve efficient operations.",
      "datePosted": "Apr 22, 2022 | 02:00 PM",
      "titleFromTag": "Partners"
    }
  ]
}
