{
  "status": 200,
  "page": 7,
  "totalPage": 298,
  "range": "73-84",
  "total": 3573,
  "result": [
    {
      "title": "Countdown Begins: Gogoro Teases First Experience Center in the Philippines",
      "nonclickable": false,
      "openNewTab": false,
      "borderArticle": "border-color:#0074D9;",
      "borderTopArticle": "border-top-color:#0074D9;",
      "imageListing": "/sites/globe.com.ph/files/content/dam/globe/brie/AboutUs/newsroom/corporate/gogoro-teases-first-experience-center-in-the-philippines/thumbnail-listing.jpg",
      "articleUrl": "https://www.globe.com.ph/about-us/newsroom/corporate/gogoro-teases-first-experience-center-philippines.html",
      "columnType": "articles--type-3",
      "typeListing": "article",
      "imageMobile": "/sites/globe.com.ph/files/content/dam/globe/brie/AboutUs/newsroom/corporate/gogoro-teases-first-experience-center-in-the-philippines/primary-thumbnail-m.jpg",
      "imageDesktop": "/sites/globe.com.ph/files/content/dam/globe/brie/AboutUs/newsroom/corporate/gogoro-teases-first-experience-center-in-the-philippines/primary-thumbnail-d.jpg",
      "description": "Gogoro Experience Center set to open in Makati City, promises an immersive preview into the future of smart electric mobility.",
      "datePosted": "Oct 12, 2023 | 12:09 AM",
      "titleFromTag": "Corporate"
    },
    {
      "title": "Globe's KmmunityPH and K-Pop Fandoms Unite to Raise Funds for #GirlsCan Campaign",
      "nonclickable": false,
      "openNewTab": false,
      "borderArticle": "border-color:#0074D9;",
      "borderTopArticle": "border-top-color:#0074D9;",
      "imageListing": "/sites/globe.com.ph/files/content/dam/globe/brie/AboutUs/newsroom/sustainability/globeextends-free-connectivity/Newsroom-Kmmunity-thumbnail-listing.jpg",
      "articleUrl": "https://www.globe.com.ph/about-us/newsroom/sustainability/kmmunityph-k-pop-fandoms-unite-to-raise-funds-girlscan-campaign.html",
      "columnType": "articles--type-3",
      "typeListing": "article",
      "imageMobile": "/sites/globe.com.ph/files/content/dam/globe/brie/AboutUs/newsroom/sustainability/globeextends-free-connectivity/Newsroom-Kmmunity-primary-thumbnail-m.jpg",
      "imageDesktop": "/sites/globe.com.ph/files/content/dam/globe/brie/AboutUs/newsroom/sustainability/globeextends-free-connectivity/Newsroom-Kmmunity-primary-thumbnail-d.jpg",
      "description": "Globe's KmmunityPH, with K-pop fandoms, raised ₱200,000 for World Vision #GirlsCan, supporting women and subculture.",
      "datePosted": "Oct 11, 2023 | 02:32 PM",
      "titleFromTag": "Sustainability"
    },
    {
      "title": "Globe Supports Senate Bills Strengthening PH Law vs Online Content Piracy",
      "nonclickable": false,
      "openNewTab": false,
      "borderArticle": "border-color:#0074D9;",
      "borderTopArticle": "border-top-color:#0074D9;",
      "imageListing": "/sites/globe.com.ph/files/content/dam/globe/brie/AboutUs/newsroom/common/default-total-globe-3/thumbnail-listing.jpg",
      "articleUrl": "https://www.globe.com.ph/about-us/newsroom/corporate/globe-supports-senate-bills-vs-online-piracy.html",
      "columnType": "articles--type-3",
      "typeListing": "article",
      "imageMobile": "/sites/globe.com.ph/files/content/dam/globe/brie/AboutUs/newsroom/common/default-total-globe-3/primary-thumbnail-m.jpg",
      "imageDesktop": "/sites/globe.com.ph/files/content/dam/globe/brie/AboutUs/newsroom/common/default-total-globe-3/primary-thumbnail-d.jpg",
      "description": "Globe supports the Senate bills aimed at amending the 26-year-old code against online content piracy.",
      "datePosted": "Oct 11, 2023 | 10:37 AM",
      "titleFromTag": "Corporate"
    },
    {
      "title": "Globe Extends Free Connectivity to Filipinos in Israel amid Unrest",
      "nonclickable": false,
      "openNewTab": false,
      "borderArticle": "border-color:#0074D9;",
      "borderTopArticle": "border-top-color:#0074D9;",
      "imageListing": "/sites/globe.com.ph/files/content/dam/globe/brie/AboutUs/newsroom/common/default-corporate-5/corp-thumbnail-listing.jpg",
      "articleUrl": "https://www.globe.com.ph/about-us/newsroom/sustainability/globe-extends-free-connectivity-to-filipinos-in-israel-amid-unrest.html",
      "columnType": "articles--type-3",
      "typeListing": "article",
      "imageMobile": "/sites/globe.com.ph/files/content/dam/globe/brie/AboutUs/newsroom/common/default-corporate-5/corp-primary-thumbnail-m.jpg",
      "imageDesktop": "/sites/globe.com.ph/files/content/dam/globe/brie/AboutUs/newsroom/common/default-corporate-5/corp-primary-thumbnail-d.jpg",
      "description": "Globe has announced it is offering free connectivity, including roaming call, text, and data to Filipinos in Israel.",
      "datePosted": "Oct 10, 2023 | 02:32 PM",
      "titleFromTag": "Sustainability"
    },
    {
      "title": "Globe Improves Business Continuity Management Policy for Reliable Connections During Disasters",
      "nonclickable": false,
      "openNewTab": false,
      "borderArticle": "border-color:#0074D9;",
      "borderTopArticle": "border-top-color:#0074D9;",
      "imageListing": "/sites/globe.com.ph/files/content/dam/globe/brie/AboutUs/newsroom/common/default-corporate-5/corp-thumbnail-listing.jpg",
      "articleUrl": "https://www.globe.com.ph/about-us/newsroom/corporate/improved-bcm-policy-for-reliable-connectings-during-disasters.html",
      "columnType": "articles--type-3",
      "typeListing": "article",
      "imageMobile": "/sites/globe.com.ph/files/content/dam/globe/brie/AboutUs/newsroom/common/default-corporate-5/corp-primary-thumbnail-m.jpg",
      "imageDesktop": "/sites/globe.com.ph/files/content/dam/globe/brie/AboutUs/newsroom/common/default-corporate-5/corp-primary-thumbnail-d.jpg",
      "description": "Globe continues to fortify and strengthen its Business Community Management (BCM) policy to ensure a reliable connection even during natural disasters. ",
      "datePosted": "Oct 10, 2023 | 02:31 PM",
      "titleFromTag": "Corporate"
    },
    {
      "title": "STT GDC’s Largest Data Center in PH Build on Track",
      "nonclickable": false,
      "openNewTab": false,
      "borderArticle": "border-color:#0074D9;",
      "borderTopArticle": "border-top-color:#0074D9;",
      "imageListing": "/sites/globe.com.ph/files/content/dam/globe/brie/AboutUs/newsroom/common/default-corporate-4/corp-listing-thumbnail.jpg",
      "articleUrl": "https://www.globe.com.ph/about-us/newsroom/corporate/stt-gdc-largest-data-center-ph-build-on-track.html",
      "columnType": "articles--type-3",
      "typeListing": "article",
      "imageMobile": "/sites/globe.com.ph/files/content/dam/globe/brie/AboutUs/newsroom/common/default-corporate-4/corp-primary-banner-m.jpg",
      "imageDesktop": "/sites/globe.com.ph/files/content/dam/globe/brie/AboutUs/newsroom/common/default-corporate-4/corp-primary-thumbnail.jpg",
      "description": "Construction of ST Telemedia Global Data Centres Philippines’ Fairview site is on track for completion following its groundbreaking earlier this year.",
      "datePosted": "Oct 10, 2023 | 02:29 PM",
      "titleFromTag": "Corporate"
    },
    {
      "title": "Globe Named Best Company to Work For in Asia for Three Years in a Row",
      "nonclickable": false,
      "openNewTab": false,
      "borderArticle": "border-color:#0074D9;",
      "borderTopArticle": "border-top-color:#0074D9;",
      "imageListing": "/sites/globe.com.ph/files/content/dam/globe/brie/AboutUs/newsroom/common/default-corporate-16/corp-default-images-thumbnail-listing.jpg",
      "articleUrl": "https://www.globe.com.ph/about-us/newsroom/corporate/best-company-to-work-for-asia-three-years-in-a-row.html",
      "columnType": "articles--type-3",
      "typeListing": "article",
      "imageMobile": "/sites/globe.com.ph/files/content/dam/globe/brie/AboutUs/newsroom/common/default-corporate-16/corp-default-images-primary-thumbnail-m.jpg",
      "imageDesktop": "/sites/globe.com.ph/files/content/dam/globe/brie/AboutUs/newsroom/common/default-corporate-16/corp-default-images-primary-thumbnail-d.jpg",
      "description": "Globe recently scored a three-peat after being named by top regional human resource publisher HR Asia as one of the Best Companies to Work for in Asia.",
      "datePosted": "Oct 10, 2023 | 02:29 PM",
      "titleFromTag": "Corporate"
    },
    {
      "title": "Globe, Mercato Centrale Rally Foodies Behind Hapag Movement",
      "nonclickable": false,
      "openNewTab": false,
      "borderArticle": "border-color:#0074D9;",
      "borderTopArticle": "border-top-color:#0074D9;",
      "imageListing": "/sites/globe.com.ph/files/content/dam/globe/brie/About-us/Newsroom/image/Sustainability/globe-mercato-centrale-rally-foodies-behind-the-hapag-movement/thumbnail-listing.jpg",
      "articleUrl": "https://www.globe.com.ph/about-us/newsroom/sustainability/globe-mercato-centrale-rally-foodies-behind-the-hapag-movement.html",
      "columnType": "articles--type-3",
      "typeListing": "article",
      "imageMobile": "/sites/globe.com.ph/files/content/dam/globe/brie/About-us/Newsroom/image/Sustainability/globe-mercato-centrale-rally-foodies-behind-the-hapag-movement/primary-thumbnail-m.jpg",
      "imageDesktop": "/sites/globe.com.ph/files/content/dam/globe/brie/About-us/Newsroom/image/Sustainability/globe-mercato-centrale-rally-foodies-behind-the-hapag-movement/primary-thumbnail-d.jpg",
      "description": "Globe and Mercato Centrale have come together to spotlight the pressing problem of involuntary hunger and inspire communities to make a meaningful impact. ",
      "datePosted": "Oct 10, 2023 | 02:27 PM",
      "titleFromTag": "Sustainability"
    },
    {
      "title": "Embracing Diversity: Globe, Metro Manila Pride Hold SOGIE Training for Employees",
      "nonclickable": false,
      "openNewTab": false,
      "borderArticle": "border-color:#0074D9;",
      "borderTopArticle": "border-top-color:#0074D9;",
      "imageListing": "/sites/globe.com.ph/files/content/dam/globe/brie/AboutUs/newsroom/common/corporate-default-image-1/corp-thumbnail-listing.jpg",
      "articleUrl": "https://www.globe.com.ph/about-us/newsroom/sustainability/globe-metro-manila-pride-hold-sogie-training-employees.html",
      "columnType": "articles--type-3",
      "typeListing": "article",
      "imageMobile": "/sites/globe.com.ph/files/content/dam/globe/brie/AboutUs/newsroom/common/corporate-default-image-1/corp-primary-thumbnail-m.jpg",
      "imageDesktop": "/sites/globe.com.ph/files/content/dam/globe/brie/AboutUs/newsroom/common/corporate-default-image-1/corp-primary-thumbnail-d.jpg",
      "description": "Globe recently joined forces with Metro Manila Pride to hold the company's SOGIE 101/Sensitivity Training for employees.",
      "datePosted": "Oct 10, 2023 | 02:27 PM",
      "titleFromTag": "Sustainability"
    },
    {
      "title": "Globe Implements New Policies to Move Supply Chain Towards Sustainable Practices",
      "nonclickable": false,
      "openNewTab": false,
      "borderArticle": "border-color:#0074D9;",
      "borderTopArticle": "border-top-color:#0074D9;",
      "imageListing": "/sites/globe.com.ph/files/content/dam/globe/brie/AboutUs/newsroom/sustainability/innovation-and-climate-resiliency-at-gsma-m360-apac/corp-sustainability-thumbnail-listing.jpg",
      "articleUrl": "https://www.globe.com.ph/about-us/newsroom/sustainability/globe-group-highlights-innovation-resiliency-gsma-360-apac.html",
      "columnType": "articles--type-3",
      "typeListing": "article",
      "imageMobile": "/sites/globe.com.ph/files/content/dam/globe/brie/AboutUs/newsroom/sustainability/innovation-and-climate-resiliency-at-gsma-m360-apac/corp-sustainability-primary-thumbnail-m.jpg",
      "imageDesktop": "/sites/globe.com.ph/files/content/dam/globe/brie/AboutUs/newsroom/sustainability/innovation-and-climate-resiliency-at-gsma-m360-apac/corp-sustainability-primary-thumbnail-d.jpg",
      "description": "The Globe Group showcased its innovative approach to addressing the effects of climate change at the recent GSMA M360 Asia Pacific conference.",
      "datePosted": "Oct 10, 2023 | 02:26 PM",
      "titleFromTag": "Sustainability"
    },
    {
      "title": "Globe Boosts Collaboration with LGUs, Police in Areas with High Incidence of Cable Theft",
      "nonclickable": false,
      "openNewTab": false,
      "borderArticle": "border-color:#0074D9;",
      "borderTopArticle": "border-top-color:#0074D9;",
      "imageListing": "/sites/globe.com.ph/files/content/dam/globe/brie/AboutUs/newsroom/common/default-corporate-5g-connectivity/thumbnail-listing.jpg",
      "articleUrl": "https://www.globe.com.ph/about-us/newsroom/corporate/collaboration-lgu-police-area-high-incidence-cable-theft.html",
      "columnType": "articles--type-3",
      "typeListing": "article",
      "imageMobile": "/sites/globe.com.ph/files/content/dam/globe/brie/AboutUs/newsroom/common/default-corporate-5g-connectivity/primary-thumbnail-m.jpg",
      "imageDesktop": "/sites/globe.com.ph/files/content/dam/globe/brie/AboutUs/newsroom/common/default-corporate-5g-connectivity/primary-thumbnail-d.jpg",
      "description": "Globe has boosted its collaboration with local government units and law enforcement authorities in areas with the highest incidence of cable theft.",
      "datePosted": "Oct 05, 2023 | 10:57 AM",
      "titleFromTag": "Corporate"
    },
    {
      "title": "PetPal Club Offers Unmatched Benefits for Filipino Pet Owners",
      "nonclickable": false,
      "openNewTab": false,
      "borderArticle": "border-color:#0074D9;",
      "borderTopArticle": "border-top-color:#0074D9;",
      "imageListing": "/sites/globe.com.ph/files/content/dam/globe/brie/About-us/Newsroom/image/Consumer/petpal-club-offers-unmatched-benefits-filipino-pet-owners/thumbnail-listing.jpg",
      "articleUrl": "https://www.globe.com.ph/about-us/newsroom/consumer/petpal-club-offers-unmatched-benefits-filipino-pet-owners.html",
      "columnType": "articles--type-3",
      "typeListing": "article",
      "imageMobile": "/sites/globe.com.ph/files/content/dam/globe/brie/About-us/Newsroom/image/Consumer/petpal-club-offers-unmatched-benefits-filipino-pet-owners/primary-thumbnail-m.jpg",
      "imageDesktop": "/sites/globe.com.ph/files/content/dam/globe/brie/About-us/Newsroom/image/Consumer/petpal-club-offers-unmatched-benefits-filipino-pet-owners/primary-thumbnail-d.jpg",
      "description": "PetPal unveils the PetPal Club, offering pet owners unparalleled care for their furry companions with exclusive benefits.",
      "datePosted": "Oct 05, 2023 | 10:55 AM",
      "titleFromTag": "Consumer"
    }
  ]
}
