{
  "status": 200,
  "page": 70,
  "totalPage": 298,
  "range": "829-840",
  "total": 3573,
  "result": [
    {
      "title": "This isKwela online community, EdVenture to give away free 500 single tutorial sessions for parents",
      "nonclickable": false,
      "openNewTab": false,
      "borderArticle": "border-color:#1C91C5;",
      "borderTopArticle": "border-top-color:#1C91C5;",
      "imageListing": "/sites/globe.com.ph/files/content/dam/globe/brie/AboutUs/newsroom/sustainability/this-iskwela-online-community/sg-iskwela-thumbnail-listing.jpg",
      "articleUrl": "https://www.globe.com.ph/about-us/newsroom/sustainability/this-iskwela-edventure-free-single-tutorial-sessions.html",
      "columnType": "articles--type-3",
      "typeListing": "article",
      "imageMobile": "/sites/globe.com.ph/files/content/dam/globe/brie/AboutUs/newsroom/sustainability/this-iskwela-online-community/sg-iskwela-primary-thumbnail-m.jpg",
      "imageDesktop": "/sites/globe.com.ph/files/content/dam/globe/brie/AboutUs/newsroom/sustainability/this-iskwela-online-community/sg-iskwela-primary-thumbnail-d.jpg",
      "description": "Globe’s This isKwela online community and EdVenture are giving away free 500 single tutorial sessions for parents to transform education through technology",
      "datePosted": "Apr 22, 2022 | 11:00 AM",
      "titleFromTag": "Sustainability"
    },
    {
      "title": "Accelerated PH Digital Shift to Track Global Trend",
      "nonclickable": false,
      "openNewTab": false,
      "borderArticle": "border-color:#0074D9;",
      "borderTopArticle": "border-top-color:#0074D9;",
      "imageListing": "/sites/globe.com.ph/files/content/dam/globe/brie/AboutUs/newsroom/common/default-4/default-consumer-3-thumbnail-listing.jpg",
      "articleUrl": "https://www.globe.com.ph/about-us/newsroom/corporate/accelerated-ph-digital-shift-track-global-trend.html",
      "columnType": "articles--type-3",
      "typeListing": "article",
      "imageMobile": "/sites/globe.com.ph/files/content/dam/globe/brie/AboutUs/newsroom/common/default-4/default-consumer-3-primary-thumbnail-m.jpg",
      "imageDesktop": "/sites/globe.com.ph/files/content/dam/globe/brie/AboutUs/newsroom/common/default-4/default-consumer-3-primary-thumbnail-d.jpg",
      "description": "Globe expects Filipinos’ rapid adoption of digital services to gain even more momentum in the coming months, as more customers rely on online apps and devices.",
      "datePosted": "Apr 22, 2022 | 08:05 AM",
      "titleFromTag": "Corporate"
    },
    {
      "title": "Beyond Earth Day: 0917 Lifestyle, Revolve Advocate Sustainable Fashion",
      "nonclickable": false,
      "openNewTab": false,
      "borderArticle": "border-color:#1C91C5;",
      "borderTopArticle": "border-top-color:#1C91C5;",
      "imageListing": "/sites/globe.com.ph/files/content/dam/globe/brie/AboutUs/newsroom/sustainability/new-e-waste-facility-in-malabon-to-protect-communities-from-hazardous-effects/default-sustainability-3-thumbnail-listing.jpg",
      "articleUrl": "https://www.globe.com.ph/about-us/newsroom/sustainability/0917-lifestyle-revolve-advocate-sustainable-fashion.html",
      "columnType": "articles--type-3",
      "typeListing": "article",
      "imageMobile": "/sites/globe.com.ph/files/content/dam/globe/brie/AboutUs/newsroom/sustainability/new-e-waste-facility-in-malabon-to-protect-communities-from-hazardous-effects/default-sustainability-3-primary-thumbnail-m.jpg",
      "imageDesktop": "/sites/globe.com.ph/files/content/dam/globe/brie/AboutUs/newsroom/sustainability/new-e-waste-facility-in-malabon-to-protect-communities-from-hazardous-effects/default-sustainability-3-primary-thumbnail-d.jpg",
      "description": "With its theme of “Investing in Our Planet,” Globe is rallying its customers to incorporate sustainable practices in their lives and care for the environment.",
      "datePosted": "Apr 22, 2022 | 08:01 AM",
      "titleFromTag": "Sustainability"
    },
    {
      "title": "Visitors From 39 Countries Can Now Enjoy Globe 5G Mobile Services",
      "nonclickable": false,
      "openNewTab": false,
      "borderArticle": "border-color:#0074D9;",
      "borderTopArticle": "border-top-color:#0074D9;",
      "imageListing": "/sites/globe.com.ph/files/content/dam/globe/brie/About-us/Newsroom/image/Consumer/0421225PM/newsroom-consumer-39-countries-enjoy-5G-thumbnail-listing.jpg",
      "articleUrl": "https://www.globe.com.ph/about-us/newsroom/consumer/visitors-39-countries-globe-5g.html",
      "columnType": "articles--type-3",
      "typeListing": "article",
      "imageMobile": "/sites/globe.com.ph/files/content/dam/globe/brie/About-us/Newsroom/image/Consumer/0421225PM/newsroom-consumer-39-countries-enjoy-5G-primary-thumbnail-m.jpg",
      "imageDesktop": "/sites/globe.com.ph/files/content/dam/globe/brie/About-us/Newsroom/image/Consumer/0421225PM/newsroom-consumer-39-countries-enjoy-5G-primary-thumbnail-d.jpg",
      "description": "Visitors from 39 countries can now enjoy Globe 5G mobile services when they arrive in the country.",
      "datePosted": "Apr 21, 2022 | 05:00 PM",
      "titleFromTag": "Consumer"
    },
    {
      "title": "Globe Ready for Surge in Digital Streaming Demand as Network Expansion Yields Results",
      "nonclickable": false,
      "openNewTab": false,
      "borderArticle": "border-color:#0074D9;",
      "borderTopArticle": "border-top-color:#0074D9;",
      "imageListing": "/sites/globe.com.ph/files/content/dam/globe/brie/AboutUs/newsroom/corporate/largest-ph-publicly-listed-telco-digital-solutions-group/Corporate-globe-thumbnail-listing.jpg",
      "articleUrl": "https://www.globe.com.ph/about-us/newsroom/corporate/globe-ready-surge-digital-streaming-demand.html",
      "columnType": "articles--type-3",
      "typeListing": "article",
      "imageMobile": "/sites/globe.com.ph/files/content/dam/globe/brie/AboutUs/newsroom/corporate/largest-ph-publicly-listed-telco-digital-solutions-group/Corporate-globe-primary-thumbnail-m.jpg",
      "imageDesktop": "/sites/globe.com.ph/files/content/dam/globe/brie/AboutUs/newsroom/corporate/largest-ph-publicly-listed-telco-digital-solutions-group/Corporate-globe-primary-thumbnail-d.jpg",
      "description": "Globe’s capital expenditure program, focused mainly on data expansion, has equipped its network to handle the surge in demand for digital services.",
      "datePosted": "Apr 21, 2022 | 03:00 PM",
      "titleFromTag": "Corporate"
    },
    {
      "title": "Globe Sends Aid to over 16K Families Affected by Typhoon Odette",
      "nonclickable": false,
      "openNewTab": false,
      "borderArticle": "border-color:#1C91C5;",
      "borderTopArticle": "border-top-color:#1C91C5;",
      "imageListing": "/sites/globe.com.ph/files/content/dam/globe/brie/AboutUs/newsroom/sustainability/default-sustainability-4/default-sustainability-4-thumbnail-listing.jpg",
      "articleUrl": "https://www.globe.com.ph/about-us/newsroom/sustainability/globe-sends-aid-families-affected-typhoon-odette.html",
      "columnType": "articles--type-3",
      "typeListing": "article",
      "imageMobile": "/sites/globe.com.ph/files/content/dam/globe/brie/AboutUs/newsroom/sustainability/default-sustainability-4/default-sustainability-4-primary-thumbnail-m.jpg",
      "imageDesktop": "/sites/globe.com.ph/files/content/dam/globe/brie/AboutUs/newsroom/sustainability/default-sustainability-4/default-sustainability-4-primary-thumbnail-d.jpg",
      "description": "Globe has contributed millions in aid to families and communities affected by Typhoon Odette, which ravaged parts of the country in December. ",
      "datePosted": "Apr 19, 2022 | 03:24 PM",
      "titleFromTag": "Sustainability"
    },
    {
      "title": "Home Buddies ‘Mayora’ Signs Up With KROMA Entertainment’s NYMA As Exclusive Talent",
      "nonclickable": false,
      "openNewTab": false,
      "borderArticle": "border-color:#0074D9;",
      "borderTopArticle": "border-top-color:#0074D9;",
      "imageListing": "/sites/globe.com.ph/files/content/dam/globe/brie/About-us/Newsroom/image/Consumer/0418222PM/newsroom-consumer-mayora-signs-kroma-entertainment-thumbnail-listing.jpg",
      "articleUrl": "https://www.globe.com.ph/about-us/newsroom/consumer/home-buddies-mayora-kroma-entertainment-nyma-exclusive-talent.html",
      "columnType": "articles--type-3",
      "typeListing": "article",
      "imageMobile": "/sites/globe.com.ph/files/content/dam/globe/brie/About-us/Newsroom/image/Consumer/0418222PM/newsroom-consumer-mayora-signs-kroma-entertainment-primary-thumbnail-m.jpg",
      "imageDesktop": "/sites/globe.com.ph/files/content/dam/globe/brie/About-us/Newsroom/image/Consumer/0418222PM/newsroom-consumer-mayora-signs-kroma-entertainment-primary-thumbnail-d.jpg",
      "description": "Home Buddies Facebook community and Nobi founder Frances Cabatuando signs up with KROMA Entertainment’s NYMA as exclusive talent.",
      "datePosted": "Apr 18, 2022 | 02:00 PM",
      "titleFromTag": "Consumer"
    },
    {
      "title": "Asticom Eyes Strategic Partnerships, JVs, Acquisitions to Expand Business",
      "nonclickable": false,
      "openNewTab": false,
      "borderArticle": "border-color:#0074D9;",
      "borderTopArticle": "border-top-color:#0074D9;",
      "imageListing": "/sites/globe.com.ph/files/content/dam/globe/brie/About-us/Newsroom/image/Partners/Asticom-Eyes-Strategic-Partnerships/newsroom-partners-asticom-eyes-strategic-partnership-thumbnail-listing.jpg",
      "articleUrl": "https://www.globe.com.ph/about-us/newsroom/partners/asticom-strategic-partnerships-jvs-acquisitions.html",
      "columnType": "articles--type-3",
      "typeListing": "article",
      "imageMobile": "/sites/globe.com.ph/files/content/dam/globe/brie/About-us/Newsroom/image/Partners/Asticom-Eyes-Strategic-Partnerships/newsroom-partners-asticom-eyes-strategic-partnership-primary-thumbnail-m.jpg",
      "imageDesktop": "/sites/globe.com.ph/files/content/dam/globe/brie/About-us/Newsroom/image/Partners/Asticom-Eyes-Strategic-Partnerships/newsroom-partners-asticom-eyes-strategic-partnership-primary-thumbnail-d.jpg",
      "description": "The Asticom Group of Companies is looking at entering into strategic partnerships, joint ventures, & acquisitions to grow & expand its portfolio of businesses.",
      "datePosted": "Apr 18, 2022 | 02:00 PM",
      "titleFromTag": "Partners"
    },
    {
      "title": "Celebrate Easter Family Weekend with Globe At Home",
      "nonclickable": false,
      "openNewTab": false,
      "borderArticle": "border-color:#0074D9;",
      "borderTopArticle": "border-top-color:#0074D9;",
      "imageListing": "/sites/globe.com.ph/files/content/dam/globe/brie/AboutUs/newsroom/consumer/celebrate-easter-family-weekend-globe-at-home/newsroom-sustainability-Easter-unleash-thumbnail-listing.jpg",
      "articleUrl": "https://www.globe.com.ph/about-us/newsroom/consumer/celebrate-easter-family-weekend-globe-at-home.html",
      "columnType": "articles--type-3",
      "typeListing": "article",
      "imageMobile": "/sites/globe.com.ph/files/content/dam/globe/brie/AboutUs/newsroom/consumer/celebrate-easter-family-weekend-globe-at-home/newsroom-sustainability-robust-Easter-primary-thumbnail-m.jpg",
      "imageDesktop": "/sites/globe.com.ph/files/content/dam/globe/brie/AboutUs/newsroom/consumer/celebrate-easter-family-weekend-globe-at-home/newsroom-sustainability-Easter-primary-thumbnail-d.jpg",
      "description": "This Easter, Globe At Home brings families together with GFiber, through preparing fun-filled activities that go beyond video streaming and online gaming.",
      "datePosted": "Apr 13, 2022 | 05:51 PM",
      "titleFromTag": "Consumer"
    },
    {
      "title": "Data Centers 101: How Enterprises Benefit From Colocation and Outsourced IT Management",
      "nonclickable": false,
      "openNewTab": false,
      "borderArticle": "border-color:#0074D9;",
      "borderTopArticle": "border-top-color:#0074D9;",
      "imageListing": "/sites/globe.com.ph/files/content/dam/globe/brie/About-us/Newsroom/image/Partners/041320222PM/newsroom-consumer-data-centers-101-thumbnail-listing.jpg",
      "articleUrl": "https://www.globe.com.ph/about-us/newsroom/partners/how-enterprises-benefit-colocation-outsourced-it-management.html",
      "columnType": "articles--type-3",
      "typeListing": "article",
      "imageMobile": "/sites/globe.com.ph/files/content/dam/globe/brie/About-us/Newsroom/image/Partners/041320222PM/newsroom-consumer-data-centers-101-primary-thumbnail-m.jpg",
      "imageDesktop": "/sites/globe.com.ph/files/content/dam/globe/brie/About-us/Newsroom/image/Partners/041320222PM/newsroom-consumer-data-centers-101-primary-thumbnail-d.jpg",
      "description": "Colocation and outsourced IT management, part of Globe’s mission to support the growth of businesses. ",
      "datePosted": "Apr 13, 2022 | 02:00 PM",
      "titleFromTag": "Partners"
    },
    {
      "title": "m360 Exec Maps Out Communication Landscape at CEO Summit",
      "nonclickable": false,
      "openNewTab": false,
      "borderArticle": "border-color:#0074D9;",
      "borderTopArticle": "border-top-color:#0074D9;",
      "imageListing": "/sites/globe.com.ph/files/content/dam/globe/brie/About-us/Newsroom/image/Partners/041220225PM/newsroom-partners-m360-exec-maps-ceo-summit-thumbnail-listing.jpg",
      "articleUrl": "https://www.globe.com.ph/about-us/newsroom/partners/m360-exec-maps-out-communication-landscape.html",
      "columnType": "articles--type-3",
      "typeListing": "article",
      "imageMobile": "/sites/globe.com.ph/files/content/dam/globe/brie/About-us/Newsroom/image/Partners/041220225PM/newsroom-partners-m360-exec-maps-ceo-summit-primary-thumbnail-m.jpg",
      "imageDesktop": "/sites/globe.com.ph/files/content/dam/globe/brie/About-us/Newsroom/image/Partners/041220225PM/newsroom-partners-m360-exec-maps-ceo-summit-primary-thumbnail-d.jpg",
      "description": "COO Ramon Hirang discussed how m360 can help businesses engage with their customers better through innovative business messaging solutions. ",
      "datePosted": "Apr 12, 2022 | 05:00 PM",
      "titleFromTag": "Partners"
    },
    {
      "title": "Globe Expands Coverage with More Towerco Sites",
      "nonclickable": false,
      "openNewTab": false,
      "borderArticle": "border-color:#0074D9;",
      "borderTopArticle": "border-top-color:#0074D9;",
      "imageListing": "/sites/globe.com.ph/files/content/dam/globe/brie/AboutUs/newsroom/corporate/globe-expands-coverage-more-towerco-sites/newsroom-corporate-more-towerco-sites-thumbnail-listing.jpg",
      "articleUrl": "https://www.globe.com.ph/about-us/newsroom/corporate/globe-expands-coverage-more-towerco-sites.html",
      "columnType": "articles--type-3",
      "typeListing": "article",
      "imageMobile": "/sites/globe.com.ph/files/content/dam/globe/brie/AboutUs/newsroom/corporate/globe-expands-coverage-more-towerco-sites/newsroom-corporate-more-towerco-sites-primary-thumbnail-m.jpg",
      "imageDesktop": "/sites/globe.com.ph/files/content/dam/globe/brie/AboutUs/newsroom/corporate/globe-expands-coverage-more-towerco-sites/newsroom-corporate-more-towerco-sites-primary-thumbnail-d.jpg",
      "description": "Globe continues to build more tower company sites to expand its coverage nationwide.",
      "datePosted": "Apr 12, 2022 | 11:34 AM",
      "titleFromTag": "Corporate"
    }
  ]
}
