{
  "status": 200,
  "page": 71,
  "totalPage": 298,
  "range": "841-852",
  "total": 3573,
  "result": [
    {
      "title": "Go on Virtual Visita Iglesia Using Globe At Home",
      "nonclickable": false,
      "openNewTab": false,
      "borderArticle": "border-color:#0074D9;",
      "borderTopArticle": "border-top-color:#0074D9;",
      "imageListing": "/sites/globe.com.ph/files/content/dam/globe/brie/AboutUs/newsroom/consumer/virtual-iglesia-globe-at-home/newsroom-consumer-virtual-visita-iglesia-thumbnail-listing.jpg",
      "articleUrl": "https://www.globe.com.ph/about-us/newsroom/consumer/virtual-iglesia-globe-at-home.html",
      "columnType": "articles--type-3",
      "typeListing": "article",
      "imageMobile": "/sites/globe.com.ph/files/content/dam/globe/brie/AboutUs/newsroom/consumer/virtual-iglesia-globe-at-home/newsroom-consumer-virtual-visita-iglesia-primary-thumbnail-m.jpg",
      "imageDesktop": "/sites/globe.com.ph/files/content/dam/globe/brie/AboutUs/newsroom/consumer/virtual-iglesia-globe-at-home/newsroom-consumer-virtual-visita-iglesia-primary-thumbnail-d.jpg",
      "description": "Fulfill your Holy Week Obligations with Globe At Home’s HomeSHARE that allows you to share data allocation with up to three other Globe or TM subscribers.",
      "datePosted": "Apr 12, 2022 | 11:26 AM",
      "titleFromTag": "Consumer"
    },
    {
      "title": "Globe At Home Fiber Capacity Jumps 38.6% With Aggressive Builds",
      "nonclickable": false,
      "openNewTab": false,
      "borderArticle": "border-color:#0074D9;",
      "borderTopArticle": "border-top-color:#0074D9;",
      "imageListing": "/sites/globe.com.ph/files/content/dam/globe/brie/AboutUs/newsroom/corporate/globe-at-home-fiber-capacity-jumps-with-aggresive-builds/thumbnail-listing-288x170.jpg",
      "articleUrl": "https://www.globe.com.ph/about-us/newsroom/corporate/globe-at-home-fiber-capacity-jumps-with-aggressive-builds.html",
      "columnType": "articles--type-3",
      "typeListing": "article",
      "imageMobile": "/sites/globe.com.ph/files/content/dam/globe/brie/AboutUs/newsroom/corporate/globe-at-home-fiber-capacity-jumps-with-aggresive-builds/primary-thumbnail-m-320x360.jpg",
      "imageDesktop": "/sites/globe.com.ph/files/content/dam/globe/brie/AboutUs/newsroom/corporate/globe-at-home-fiber-capacity-jumps-with-aggresive-builds/primary-thumbnail-d-860x400.jpg",
      "description": "Globe At Home goes on delivering  fiber technology to more Filipinos as the capacity and customer base for it has been growing aggressively across its network.",
      "datePosted": "Apr 11, 2022 | 04:46 PM",
      "titleFromTag": "Corporate"
    },
    {
      "title": "Alex Eala Wins Second Pro Title ",
      "nonclickable": false,
      "openNewTab": false,
      "borderArticle": "border-color:#0074D9;",
      "borderTopArticle": "border-top-color:#0074D9;",
      "imageListing": "/sites/globe.com.ph/files/content/dam/globe/brie/About-us/Newsroom/image/Corporate/04112022/newsroom-corporate-alexa-wins-2nd-title-thumbnail-listing.jpg",
      "articleUrl": "https://www.globe.com.ph/about-us/newsroom/corporate/alex-eala-wins-second-pro-title.html",
      "columnType": "articles--type-3",
      "typeListing": "article",
      "imageMobile": "/sites/globe.com.ph/files/content/dam/globe/brie/About-us/Newsroom/image/Corporate/04112022/newsroom-corporate-alexa-wins-2nd-title-primary-thumbnail-m.jpg",
      "imageDesktop": "/sites/globe.com.ph/files/content/dam/globe/brie/About-us/Newsroom/image/Corporate/04112022/newsroom-corporate-alexa-wins-2nd-title-primary-thumbnail-d.jpg",
      "description": "Alex Eala bags her second pro title after winning the International Tennis Federation.",
      "datePosted": "Apr 11, 2022 | 04:46 PM",
      "titleFromTag": "Corporate"
    },
    {
      "title": "Power Failure Causes Service Outage in Selected Areas Hit by Agaton",
      "nonclickable": false,
      "openNewTab": false,
      "borderArticle": "border-color:#1C91C5;",
      "borderTopArticle": "border-top-color:#1C91C5;",
      "imageListing": "/sites/globe.com.ph/files/content/dam/globe/brie/AboutUs/newsroom/sustainability/power-failure-causes-service-outage-selected-areas-agaton/Newsroom-sustainability-power-failure-service-outage-thumbnail-listing.jpg",
      "articleUrl": "https://www.globe.com.ph/about-us/newsroom/sustainability/power-failure-causes-service-outage-selected-areas-agaton.html",
      "columnType": "articles--type-3",
      "typeListing": "article",
      "imageMobile": "/sites/globe.com.ph/files/content/dam/globe/brie/AboutUs/newsroom/sustainability/power-failure-causes-service-outage-selected-areas-agaton/Newsroom-sustainability-power-failure-service-outage-primary-thumbnail-m.jpg",
      "imageDesktop": "/sites/globe.com.ph/files/content/dam/globe/brie/AboutUs/newsroom/sustainability/power-failure-causes-service-outage-selected-areas-agaton/Newsroom-sustainability-power-failure-service-outage-primary-thumbnail-d.jpg",
      "description": "Service outage in selected areas hit by tropical depression Agaton. Globe is readying its Libreng Tawag and Libreng Charging Stations.",
      "datePosted": "Apr 11, 2022 | 03:24 PM",
      "titleFromTag": "Sustainability"
    },
    {
      "title": "Asticom Eyes International Market for Shared Services",
      "nonclickable": false,
      "openNewTab": false,
      "borderArticle": "border-color:#0074D9;",
      "borderTopArticle": "border-top-color:#0074D9;",
      "imageListing": "/sites/globe.com.ph/files/content/dam/globe/brie/About-us/Newsroom/image/Partners/Asticom-Eyes-International-Market-for-Shared-Services/newsroom-partners-asticom-eyes-international-market-thumbnail-listing.jpg",
      "articleUrl": "https://www.globe.com.ph/about-us/newsroom/partners/asticom-eyes-international-market-shared-services.html",
      "columnType": "articles--type-3",
      "typeListing": "article",
      "imageMobile": "/sites/globe.com.ph/files/content/dam/globe/brie/About-us/Newsroom/image/Partners/Asticom-Eyes-International-Market-for-Shared-Services/newsroom-partners-asticom-eyes-international-market-primary-thumbnail-m.jpg",
      "imageDesktop": "/sites/globe.com.ph/files/content/dam/globe/brie/About-us/Newsroom/image/Partners/Asticom-Eyes-International-Market-for-Shared-Services/newsroom-partners-asticom-eyes-international-market-primary-thumbnail-d.jpg",
      "description": "Asticom Group of Companies set its eyes on the international market for its shared services business, seeing a huge outsourcing potential from overseas clients",
      "datePosted": "Apr 08, 2022 | 01:03 PM",
      "titleFromTag": "Partners"
    },
    {
      "title": "Oil Price Hikes Wrecking Your Budget? Globe Group Has Services To Help You #SaveOnFuel",
      "nonclickable": false,
      "openNewTab": false,
      "borderArticle": "border-color:#0074D9;",
      "borderTopArticle": "border-top-color:#0074D9;",
      "imageListing": "/sites/globe.com.ph/files/content/dam/globe/brie/About-us/Newsroom/image/Consumer/04072022/newsroom-consumer-oil-price-hikes-budget-thumbnail-listing.jpg",
      "articleUrl": "https://www.globe.com.ph/about-us/newsroom/consumer/globe-group-services-help-save-fuel.html",
      "columnType": "articles--type-3",
      "typeListing": "article",
      "imageMobile": "/sites/globe.com.ph/files/content/dam/globe/brie/About-us/Newsroom/image/Consumer/04072022/newsroom-consumer-oil-price-hikes-budget-primary-thumbnail-m.jpg",
      "imageDesktop": "/sites/globe.com.ph/files/content/dam/globe/brie/About-us/Newsroom/image/Consumer/04072022/newsroom-consumer-oil-price-hikes-budget-primary-thumbnail-d.jpg",
      "description": "Globe Group offers services to help you cut down on your gas expenses amidst the Russia-Ukraine conflict. ",
      "datePosted": "Apr 07, 2022 | 04:00 PM",
      "titleFromTag": "Consumer"
    },
    {
      "title": "Ookla: Globe Is Most Consistent PH Mobile Operator for Q1 2022",
      "nonclickable": false,
      "openNewTab": false,
      "borderArticle": "border-color:#0074D9;",
      "borderTopArticle": "border-top-color:#0074D9;",
      "imageListing": "/sites/globe.com.ph/files/content/dam/globe/brie/AboutUs/newsroom/corporate/largest-ph-publicly-listed-telco-digital-solutions-group/Corporate-globe-thumbnail-listing.jpg",
      "articleUrl": "https://www.globe.com.ph/about-us/newsroom/corporate/globe-most-consistent-ph-mobile-operator-q1-2022.html",
      "columnType": "articles--type-3",
      "typeListing": "article",
      "imageMobile": "/sites/globe.com.ph/files/content/dam/globe/brie/AboutUs/newsroom/corporate/largest-ph-publicly-listed-telco-digital-solutions-group/Corporate-globe-primary-thumbnail-m.jpg",
      "imageDesktop": "/sites/globe.com.ph/files/content/dam/globe/brie/AboutUs/newsroom/corporate/largest-ph-publicly-listed-telco-digital-solutions-group/Corporate-globe-primary-thumbnail-d.jpg",
      "description": "Leading digital solutions platform Globe was the most consistent Philippine mobile operator in the first quarter of the year, according to Ookla.",
      "datePosted": "Apr 07, 2022 | 12:31 PM",
      "titleFromTag": "Corporate"
    },
    {
      "title": "FINSI Powers Broadband Fiber Lines in Luzon, Plans Vismin Expansion",
      "nonclickable": false,
      "openNewTab": false,
      "borderArticle": "border-color:#0074D9;",
      "borderTopArticle": "border-top-color:#0074D9;",
      "imageListing": "/sites/globe.com.ph/files/content/dam/globe/brie/AboutUs/newsroom/partners/finsi-powers-broadband-fiber-lines/newsroom-partners-finsi-powers-broadband-lines-thumbnail-listing.jpg",
      "articleUrl": "https://www.globe.com.ph/about-us/newsroom/partners/finsi-broadband-fiber-lines-luzon-vismin-expansion.html",
      "columnType": "articles--type-3",
      "typeListing": "article",
      "imageMobile": "/sites/globe.com.ph/files/content/dam/globe/brie/AboutUs/newsroom/partners/finsi-powers-broadband-fiber-lines/newsroom-partners-finsi-powers-broadband-lines-primary-thumbnail-m.jpg",
      "imageDesktop": "/sites/globe.com.ph/files/content/dam/globe/brie/AboutUs/newsroom/partners/finsi-powers-broadband-fiber-lines/newsroom-partners-finsi-powers-broadband-lines-primary-thumbnail-d.jpg",
      "description": "FINSI, a homegrown engineering solutions provider, is eyeing expansion to Visayas and Mindanao following rapid growth in operations around Luzon. ",
      "datePosted": "Apr 07, 2022 | 11:19 AM",
      "titleFromTag": "Partners"
    },
    {
      "title": "KROMA Brings ‘TraDigital’ Entertainment to Pinoy Audience",
      "nonclickable": false,
      "openNewTab": false,
      "borderArticle": "border-color:#0074D9;",
      "borderTopArticle": "border-top-color:#0074D9;",
      "imageListing": "/sites/globe.com.ph/files/content/dam/globe/brie/About-us/Newsroom/image/Partners/04062022/newsroom-partners-kroma-tradigital-entertainment-thumbnail-listing.jpg",
      "articleUrl": "https://www.globe.com.ph/about-us/newsroom/partners/kroma-tradigital-entertainment-pinoy-audience.html",
      "columnType": "articles--type-3",
      "typeListing": "article",
      "imageMobile": "/sites/globe.com.ph/files/content/dam/globe/brie/About-us/Newsroom/image/Partners/04062022/newsroom-partners-kroma-tradigital-entertainment-primary-thumbnail-m.jpg",
      "imageDesktop": "/sites/globe.com.ph/files/content/dam/globe/brie/About-us/Newsroom/image/Partners/04062022/newsroom-partners-kroma-tradigital-entertainment-primary-thumbnail-d.jpg",
      "description": "KROMA offers a new entertainment experience, converging to create a more engaging, exciting, and different experience to Pinoy audience.",
      "datePosted": "Apr 06, 2022 | 11:19 AM",
      "titleFromTag": "Partners"
    },
    {
      "title": "Globe Completes Network Restoration in Odette-Hit Areas",
      "nonclickable": false,
      "openNewTab": false,
      "borderArticle": "border-color:#1C91C5;",
      "borderTopArticle": "border-top-color:#1C91C5;",
      "imageListing": "/sites/globe.com.ph/files/content/dam/globe/brie/AboutUs/newsroom/common/default-corporate-9/default-corporate-9-thumbnail-listing.jpg",
      "articleUrl": "https://www.globe.com.ph/about-us/newsroom/sustainability/completes-network-restoration-odette-hit-areas.html",
      "columnType": "articles--type-3",
      "typeListing": "article",
      "imageMobile": "/sites/globe.com.ph/files/content/dam/globe/brie/AboutUs/newsroom/common/default-corporate-9/default-corporate-9-primary-thumbnail-m.jpg",
      "imageDesktop": "/sites/globe.com.ph/files/content/dam/globe/brie/AboutUs/newsroom/common/default-corporate-9/default-corporate-9-primary-thumbnail-d.jpg",
      "description": "Globe completed network restoration in Visayas and Mindanao following relentless efforts of its on-ground teams since Typhoon Odette toppled over 80 cell sites.",
      "datePosted": "Apr 06, 2022 | 09:56 AM",
      "titleFromTag": "Sustainability"
    },
    {
      "title": "Replace Your Expired Globe at Home Prepaid WiFi for Free",
      "nonclickable": false,
      "openNewTab": false,
      "borderArticle": "border-color:#0074D9;",
      "borderTopArticle": "border-top-color:#0074D9;",
      "imageListing": "/sites/globe.com.ph/files/content/dam/globe/brie/AboutUs/newsroom/consumer/replace-expired-globe-at-home-prepaid-wifi-free/newsroom-consumer-sim-replacement-thumbnail-listing.jpg",
      "articleUrl": "https://www.globe.com.ph/about-us/newsroom/consumer/replace-expired-globe-at-home-prepaid-wifi-free.html",
      "columnType": "articles--type-3",
      "typeListing": "article",
      "imageMobile": "/sites/globe.com.ph/files/content/dam/globe/brie/AboutUs/newsroom/consumer/replace-expired-globe-at-home-prepaid-wifi-free/newsroom-consumer-sim-replacement-primary-thumbnail-m.jpg",
      "imageDesktop": "/sites/globe.com.ph/files/content/dam/globe/brie/AboutUs/newsroom/consumer/replace-expired-globe-at-home-prepaid-wifi-free/newsroom-consumer-sim-replacement-primary-thumbnail-d.jpg",
      "description": "Get a replacement Globe Home Prepaid WiFi SIM for free and enjoy the sulit offers and exciting promos that come with it.",
      "datePosted": "Apr 05, 2022 | 04:00 PM",
      "titleFromTag": "Consumer"
    },
    {
      "title": "Globe Blocks More URLs, Domains Promoting Child Pornography",
      "nonclickable": false,
      "openNewTab": false,
      "borderArticle": "border-color:#0074D9;",
      "borderTopArticle": "border-top-color:#0074D9;",
      "imageListing": "/sites/globe.com.ph/files/content/dam/globe/brie/AboutUs/newsroom/common/default-3/corporate-default-7-thumbnail-listing.jpg",
      "articleUrl": "https://www.globe.com.ph/about-us/newsroom/citizenship/globe-blocks-urls-domains-promoting-child-pornography.html",
      "columnType": "articles--type-3",
      "typeListing": "article",
      "imageMobile": "/sites/globe.com.ph/files/content/dam/globe/brie/AboutUs/newsroom/common/default-3/corporate-default-7-primary-thumbnail-m.jpg",
      "imageDesktop": "/sites/globe.com.ph/files/content/dam/globe/brie/AboutUs/newsroom/common/default-3/corporate-default-7-primary-thumbnail-d.jpg",
      "description": "Globe continues to step up its campaign against illegal sites carrying child pornography content and online gambling, blocking 11,320 URLs and 502 domains.",
      "datePosted": "Apr 04, 2022 | 10:09 AM",
      "titleFromTag": "Citizenship"
    }
  ]
}
