{
  "status": 200,
  "page": 72,
  "totalPage": 298,
  "range": "853-864",
  "total": 3573,
  "result": [
    {
      "title": "WiFi Pampamilya P799 na lang: Get your discounted Globe At Home Prepaid WiFi modems",
      "nonclickable": false,
      "openNewTab": false,
      "borderArticle": "border-color:#0074D9;",
      "borderTopArticle": "border-top-color:#0074D9;",
      "imageListing": "/sites/globe.com.ph/files/content/dam/globe/brie/AboutUs/newsroom/consumer/discounted-globe-at-home-prepaid-wifi-modems/newsroom-consumer-wifi-pampamilya-thumbnail-listing.jpg",
      "articleUrl": "https://www.globe.com.ph/about-us/newsroom/consumer/discounted-globe-at-home-prepaid-wifi-modems.html",
      "columnType": "articles--type-3",
      "typeListing": "article",
      "imageMobile": "/sites/globe.com.ph/files/content/dam/globe/brie/AboutUs/newsroom/consumer/discounted-globe-at-home-prepaid-wifi-modems/newsroom-consumer-wifi-pampamilya-primary-thumbnail-m.jpg",
      "imageDesktop": "/sites/globe.com.ph/files/content/dam/globe/brie/AboutUs/newsroom/consumer/discounted-globe-at-home-prepaid-wifi-modems/newsroom-consumer-wifi-pampamilya-primary-thumbnail-d.jpg",
      "description": "Enjoy bigger savings with Globe At Home Prepaid WiFi modems now available for ₱799 and ₱1499 for a limited time.",
      "datePosted": "Apr 01, 2022 | 06:50 PM",
      "titleFromTag": "Consumer"
    },
    {
      "title": "Globe Taps International Experts to Build Climate Action Roadmap for Net Zero Carbon Emission",
      "nonclickable": false,
      "openNewTab": false,
      "borderArticle": "border-color:#1C91C5;",
      "borderTopArticle": "border-top-color:#1C91C5;",
      "imageListing": "/sites/globe.com.ph/files/content/dam/globe/brie/AboutUs/newsroom/sustainability/international-experts-build-climate-action-roadmap/Newsroom-sustainability-build-climate-action-roadmap-thumbnail-listing.jpg",
      "articleUrl": "https://www.globe.com.ph/about-us/newsroom/sustainability/international-experts-build-climate-action-roadmap.html",
      "columnType": "articles--type-3",
      "typeListing": "article",
      "imageMobile": "/sites/globe.com.ph/files/content/dam/globe/brie/AboutUs/newsroom/sustainability/international-experts-build-climate-action-roadmap/Newsroom-sustainability-build-climate-action-roadmap-primary-thumbnail-m.jpg",
      "imageDesktop": "/sites/globe.com.ph/files/content/dam/globe/brie/AboutUs/newsroom/sustainability/international-experts-build-climate-action-roadmap/Newsroom-sustainability-build-climate-action-roadmap-primary-thumbnail-d.jpg",
      "description": "Globe has invested in international technical experts and software to help build its climate action roadmap, aiming to achieve 50% emissions reduction by 2030.",
      "datePosted": "Apr 01, 2022 | 02:00 PM",
      "titleFromTag": "Sustainability"
    },
    {
      "title": "Philippines Books Biggest Improvement in 5G Download Speeds, Video Experience in Asia",
      "nonclickable": false,
      "openNewTab": false,
      "borderArticle": "border-color:#0074D9;",
      "borderTopArticle": "border-top-color:#0074D9;",
      "imageListing": "/sites/globe.com.ph/files/content/dam/globe/brie/About-us/Newsroom/image/Partners/040122200PM/newsroom-corporate-philippines-biggest-improvement-5G-thumbnail-listing.jpg",
      "articleUrl": "https://www.globe.com.ph/about-us/newsroom/partners/philippines-books-biggest-improvement-5g-download.html",
      "columnType": "articles--type-3",
      "typeListing": "article",
      "imageMobile": "/sites/globe.com.ph/files/content/dam/globe/brie/About-us/Newsroom/image/Partners/040122200PM/newsroom-corporate-philippines-biggest-improvement-5G-primary-thumbnail-m.jpg",
      "imageDesktop": "/sites/globe.com.ph/files/content/dam/globe/brie/About-us/Newsroom/image/Partners/040122200PM/newsroom-corporate-philippines-biggest-improvement-5G-primary-thumbnail-d.jpg",
      "description": "Philippines booked the most significant uplift between 5G and 4G download speeds and video experience in Asia Pacific.",
      "datePosted": "Apr 01, 2022 | 02:00 PM",
      "titleFromTag": "Partners"
    },
    {
      "title": "Globe Deploys Libreng Tawag, Libreng Charging Stations as Alert Level 3 Hoisted over Taal ",
      "nonclickable": false,
      "openNewTab": false,
      "borderArticle": "border-color:#1C91C5;",
      "borderTopArticle": "border-top-color:#1C91C5;",
      "imageListing": "/sites/globe.com.ph/files/content/dam/globe/brie/AboutUs/newsroom/sustainability/libreng-tawag-libreng-charging-alert-level-3-taal/Newsroom-sustainability-libreng-tawag-charging-taal-thumbnail-listing.jpg",
      "articleUrl": "https://www.globe.com.ph/about-us/newsroom/sustainability/libreng-tawag-libreng-charging-alert-level-3-taal.html",
      "columnType": "articles--type-3",
      "typeListing": "article",
      "imageMobile": "/sites/globe.com.ph/files/content/dam/globe/brie/AboutUs/newsroom/sustainability/libreng-tawag-libreng-charging-alert-level-3-taal/Newsroom-sustainability-libreng-tawag-charging-taal-primary-thumbnail-m.jpg",
      "imageDesktop": "/sites/globe.com.ph/files/content/dam/globe/brie/AboutUs/newsroom/sustainability/libreng-tawag-libreng-charging-alert-level-3-taal/Newsroom-sustainability-libreng-tawag-charging-taal-primary-thumbnail-d.jpg",
      "description": "Globe recently deployed Libreng Tawag and Libreng Charging stations in some Batangas evacuation sites after Taal Volcano’s alert level was raised to 3.",
      "datePosted": "Apr 01, 2022 | 09:56 AM",
      "titleFromTag": "Sustainability"
    },
    {
      "title": "Globe Intensifies Drive vs Piracy as PH Posts Highest Content Piracy Rate in Asia",
      "nonclickable": false,
      "openNewTab": false,
      "borderArticle": "border-color:#1C91C5;",
      "borderTopArticle": "border-top-color:#1C91C5;",
      "imageListing": "/sites/globe.com.ph/files/content/dam/globe/brie/AboutUs/newsroom/common/default-3/corporate-default-7-thumbnail-listing.jpg",
      "articleUrl": "https://www.globe.com.ph/about-us/newsroom/sustainability/globe-intensifies-drive-vs-piracy.html",
      "columnType": "articles--type-3",
      "typeListing": "article",
      "imageMobile": "/sites/globe.com.ph/files/content/dam/globe/brie/AboutUs/newsroom/common/default-3/corporate-default-7-primary-thumbnail-m.jpg",
      "imageDesktop": "/sites/globe.com.ph/files/content/dam/globe/brie/AboutUs/newsroom/common/default-3/corporate-default-7-primary-thumbnail-d.jpg",
      "description": "Globe has further intensified its drive against illegal streaming and downloading of content as the Philippines, together with Vietnam and Malaysia.",
      "datePosted": "Mar 31, 2022 | 03:24 PM",
      "titleFromTag": "Sustainability"
    },
    {
      "title": "Globe, Caritas Philippines Join Hands to Create a #GlobeOfGood",
      "nonclickable": false,
      "openNewTab": false,
      "borderArticle": "border-color:#1C91C5;",
      "borderTopArticle": "border-top-color:#1C91C5;",
      "imageListing": "/sites/globe.com.ph/files/content/dam/globe/brie/AboutUs/newsroom/sustainability/globe-caritas-ph-create-globe-of-good/Newsroom-sustainability-globe-caritas-create-globeofgood-thumbnail-listing.jpg",
      "articleUrl": "https://www.globe.com.ph/about-us/newsroom/sustainability/globe-caritas-ph-create-globe-of-good.html",
      "columnType": "articles--type-3",
      "typeListing": "article",
      "imageMobile": "/sites/globe.com.ph/files/content/dam/globe/brie/AboutUs/newsroom/sustainability/globe-caritas-ph-create-globe-of-good/Newsroom-sustainability-globe-caritas-create-globeofgood-primary-thumbnail-m.jpg",
      "imageDesktop": "/sites/globe.com.ph/files/content/dam/globe/brie/AboutUs/newsroom/sustainability/globe-caritas-ph-create-globe-of-good/Newsroom-sustainability-globe-caritas-create-globeofgood-primary-thumbnail-d.jpg",
      "description": "Gobe and Caritas Philippines focus on sustainable development programs and participative partnerships to provide holistic intervention to partner families.",
      "datePosted": "Mar 31, 2022 | 02:00 PM",
      "titleFromTag": "Sustainability"
    },
    {
      "title": "Empowered Women in the Workplace behind Asticom’s Growth",
      "nonclickable": false,
      "openNewTab": false,
      "borderArticle": "border-color:#0074D9;",
      "borderTopArticle": "border-top-color:#0074D9;",
      "imageListing": "/sites/globe.com.ph/files/content/dam/globe/brie/AboutUs/newsroom/partners/empowered-women-in-the-workplace-behind-asticoms-growth/newsroom-partners-empowered-women-asticoms-growth-thumbnail-listing.jpg",
      "articleUrl": "https://www.globe.com.ph/about-us/newsroom/partners/empowered-women-workplace-behind-asticoms-growth.html",
      "columnType": "articles--type-3",
      "typeListing": "article",
      "imageMobile": "/sites/globe.com.ph/files/content/dam/globe/brie/AboutUs/newsroom/partners/empowered-women-in-the-workplace-behind-asticoms-growth/newsroom-partners-empowered-women-asticoms-growth-primary-thumbnail-m.jpg",
      "imageDesktop": "/sites/globe.com.ph/files/content/dam/globe/brie/AboutUs/newsroom/partners/empowered-women-in-the-workplace-behind-asticoms-growth/newsroom-partners-empowered-women-asticoms-growth-primary-thumbnail-d.jpg",
      "description": "Asticom, a wholly-owned subsidiary of Globe, celebrates and acknowledges the impact of its female leaders in helping improve the lives of Filipinos.",
      "datePosted": "Mar 31, 2022 | 11:10 AM",
      "titleFromTag": "Partners"
    },
    {
      "title": "Globe, AcadArena Renew Partnership To Foster Growth of Filipino Student Gamers",
      "nonclickable": false,
      "openNewTab": false,
      "borderArticle": "border-color:#0074D9;",
      "borderTopArticle": "border-top-color:#0074D9;",
      "imageListing": "/sites/globe.com.ph/files/content/dam/globe/brie/About-us/Newsroom/image/Consumer/033033300PM/newsroom-consumer-globe-acadarena-renew-partnership-thumbnail-listing.jpg",
      "articleUrl": "https://www.globe.com.ph/about-us/newsroom/consumer/globe-acadarena-renew-partnership.html",
      "columnType": "articles--type-3",
      "typeListing": "article",
      "imageMobile": "/sites/globe.com.ph/files/content/dam/globe/brie/About-us/Newsroom/image/Consumer/033033300PM/newsroom-consumer-globe-acadarena-renew-partnership-primary-thumbnail-m.jpg",
      "imageDesktop": "/sites/globe.com.ph/files/content/dam/globe/brie/About-us/Newsroom/image/Consumer/033033300PM/newsroom-consumer-globe-acadarena-renew-partnership-primary-thumbnail-d.jpg",
      "description": "Globe and AcadArena have renewed their partnership to further support the growth of student gamers in the Philippines.",
      "datePosted": "Mar 30, 2022 | 02:00 PM",
      "titleFromTag": "Consumer"
    },
    {
      "title": "Kickstart Ventures Celebrates a Decade of Enabling Startups; Commits to Expand Investments Globally",
      "nonclickable": false,
      "openNewTab": false,
      "borderArticle": "border-color:#0074D9;",
      "borderTopArticle": "border-top-color:#0074D9;",
      "imageListing": "/sites/globe.com.ph/files/content/dam/globe/brie/AboutUs/newsroom/partners/kickstart-ventures-celebrates-a-decade-of-enabling-startups/newsroom-partners-kickstart-ventures-expand-investments-thumbnail-listing.jpg",
      "articleUrl": "https://www.globe.com.ph/about-us/newsroom/partners/kickstart-ventures-celebrates-decade-enabling-startups.html",
      "columnType": "articles--type-3",
      "typeListing": "article",
      "imageMobile": "/sites/globe.com.ph/files/content/dam/globe/brie/AboutUs/newsroom/partners/kickstart-ventures-celebrates-a-decade-of-enabling-startups/newsroom-partners-kickstart-ventures-expand-investments-primary-thumbnail-m.jpg",
      "imageDesktop": "/sites/globe.com.ph/files/content/dam/globe/brie/AboutUs/newsroom/partners/kickstart-ventures-celebrates-a-decade-of-enabling-startups/newsroom-partners-kickstart-ventures-expand-investments-primary-thumbnail-d.jpg",
      "description": "Kickstart Ventures, one of the most active venture capital firms in the PH, celebrates its 10th anniversary with a renewed commitment to invest in startups.",
      "datePosted": "Mar 30, 2022 | 11:10 AM",
      "titleFromTag": "Partners"
    },
    {
      "title": "Globe Warns Public vs Phishing Attacks amid Russia-Ukraine Conflict",
      "nonclickable": false,
      "openNewTab": false,
      "borderArticle": "border-color:#0074D9;",
      "borderTopArticle": "border-top-color:#0074D9;",
      "imageListing": "/sites/globe.com.ph/files/content/dam/globe/brie/AboutUs/newsroom/corporate/largest-ph-publicly-listed-telco-digital-solutions-group/Corporate-globe-thumbnail-listing.jpg",
      "articleUrl": "https://www.globe.com.ph/about-us/newsroom/corporate/globe-warns-public-phishing-attacks-russia-ukraine-conflict.html",
      "columnType": "articles--type-3",
      "typeListing": "article",
      "imageMobile": "/sites/globe.com.ph/files/content/dam/globe/brie/AboutUs/newsroom/corporate/largest-ph-publicly-listed-telco-digital-solutions-group/Corporate-globe-primary-thumbnail-m.jpg",
      "imageDesktop": "/sites/globe.com.ph/files/content/dam/globe/brie/AboutUs/newsroom/corporate/largest-ph-publicly-listed-telco-digital-solutions-group/Corporate-globe-primary-thumbnail-d.jpg",
      "description": "Globe is urging customers to remain vigilant amid an uptick in phishing attacks linked to the Russia-Ukraine conflict in recent weeks. ",
      "datePosted": "Mar 30, 2022 | 11:06 AM",
      "titleFromTag": "Corporate"
    },
    {
      "title": "Globe inspires hope by championing STEM and online education",
      "nonclickable": false,
      "openNewTab": false,
      "borderArticle": "border-color:#1C91C5;",
      "borderTopArticle": "border-top-color:#1C91C5;",
      "imageListing": "/sites/globe.com.ph/files/content/dam/globe/brie/AboutUs/newsroom/sustainability/globe-inspires-hope-by-championing-stem-and-online-education/sg-stem-thumbnail-listing.jpg",
      "articleUrl": "https://www.globe.com.ph/about-us/newsroom/sustainability/globe-inspires-hope-championing-stem-online-education.html",
      "columnType": "articles--type-3",
      "typeListing": "article",
      "imageMobile": "/sites/globe.com.ph/files/content/dam/globe/brie/AboutUs/newsroom/sustainability/globe-inspires-hope-by-championing-stem-and-online-education/sg-stem-primary-thumbnail-m.jpg",
      "imageDesktop": "/sites/globe.com.ph/files/content/dam/globe/brie/AboutUs/newsroom/sustainability/globe-inspires-hope-by-championing-stem-and-online-education/sg-stem-primary-thumbnail-d.jpg",
      "description": "Globe launches its Globe for Education campaign that aims to support the education sector’s journey towards 21st century learning.",
      "datePosted": "Mar 29, 2022 | 02:00 PM",
      "titleFromTag": "Sustainability"
    },
    {
      "title": "NCTzens Alert: 0917 Lifestyle launches all-new NCT ‘Universe’ merch collection",
      "nonclickable": false,
      "openNewTab": false,
      "borderArticle": "border-color:#0074D9;",
      "borderTopArticle": "border-top-color:#0074D9;",
      "imageListing": "/sites/globe.com.ph/files/content/dam/globe/brie/About-us/Newsroom/image/Consumer/032922200PM/newsroom-consumer-0917-nct-universe-collection-thumbnail-listing.jpg",
      "articleUrl": "https://www.globe.com.ph/about-us/newsroom/consumer/0917-lifestyle-nct-universe-merch-collection.html",
      "columnType": "articles--type-3",
      "typeListing": "article",
      "imageMobile": "/sites/globe.com.ph/files/content/dam/globe/brie/About-us/Newsroom/image/Consumer/032922200PM/newsroom-consumer-0917-nct-universe-collection-primary-thumbnail-m.jpg",
      "imageDesktop": "/sites/globe.com.ph/files/content/dam/globe/brie/About-us/Newsroom/image/Consumer/032922200PM/newsroom-consumer-0917-nct-universe-collection-primary-thumbnail-d.jpg",
      "description": "0917 Lifestyle, in collaboration with SM Entertainment, launched exclusive merchandise celebrating the release of NCT's “Universe” comeback album.",
      "datePosted": "Mar 29, 2022 | 02:00 PM",
      "titleFromTag": "Consumer"
    }
  ]
}
