{
  "status": 200,
  "page": 73,
  "totalPage": 298,
  "range": "865-876",
  "total": 3573,
  "result": [
    {
      "title": "Globe Ramps up Net Zero Initiatives via Green, Low-Carbon Optical Network",
      "nonclickable": false,
      "openNewTab": false,
      "borderArticle": "border-color:#1C91C5;",
      "borderTopArticle": "border-top-color:#1C91C5;",
      "imageListing": "/sites/globe.com.ph/files/content/dam/globe/brie/AboutUs/newsroom/sustainability/globe-ramps-up-net-zero-initiatives/Newsroom-sustainability-globe-ramps-net-zero-thumbnail-listing.jpg",
      "articleUrl": "https://www.globe.com.ph/about-us/newsroom/sustainability/net-zero-initiatives-green-low-carbon-optical-network.html",
      "columnType": "articles--type-3",
      "typeListing": "article",
      "imageMobile": "/sites/globe.com.ph/files/content/dam/globe/brie/AboutUs/newsroom/sustainability/globe-ramps-up-net-zero-initiatives/Newsroom-sustainability-globe-ramps-net-zero-primary-thumbnail-m.jpg",
      "imageDesktop": "/sites/globe.com.ph/files/content/dam/globe/brie/AboutUs/newsroom/sustainability/globe-ramps-up-net-zero-initiatives/Newsroom-sustainability-globe-ramps-net-zero-primary-thumbnail-d.jpg",
      "description": "Globe is ramping up its initiatives to achieve Net Zero Greenhouse Gas emissions by 2050 via building a green and low-carbon optical network.",
      "datePosted": "Mar 28, 2022 | 01:01 PM",
      "titleFromTag": "Sustainability"
    },
    {
      "title": "Globe Tops Netflix ISP Speed Index in February",
      "nonclickable": false,
      "openNewTab": false,
      "borderArticle": "border-color:#0074D9;",
      "borderTopArticle": "border-top-color:#0074D9;",
      "imageListing": "/sites/globe.com.ph/files/content/dam/globe/brie/AboutUs/newsroom/consumer/default-consumer-netflix/default-corporate-5-thumbnail-listing.jpg",
      "articleUrl": "https://www.globe.com.ph/about-us/newsroom/consumer/globe-tops-netflix-isp-speed-index-february.html",
      "columnType": "articles--type-3",
      "typeListing": "article",
      "imageMobile": "/sites/globe.com.ph/files/content/dam/globe/brie/AboutUs/newsroom/consumer/default-consumer-netflix/default-corporate-5-primary-thumbnail-m.jpg",
      "imageDesktop": "/sites/globe.com.ph/files/content/dam/globe/brie/AboutUs/newsroom/consumer/default-consumer-netflix/default-corporate-5-primary-thumbnail-d.jpg",
      "description": "Globe At Home topped the Philippine Internet Service Providers (ISPs) performance rating of streaming service Netflix for the second straight month this year.",
      "datePosted": "Mar 28, 2022 | 11:22 AM",
      "titleFromTag": "Consumer"
    },
    {
      "title": "Help ease poverty, create livelihood via Globe Rewards, Tzu Chi Foundation Philippines",
      "nonclickable": false,
      "openNewTab": false,
      "borderArticle": "border-color:#0074D9;",
      "borderTopArticle": "border-top-color:#0074D9;",
      "imageListing": "/sites/globe.com.ph/files/content/dam/globe/brie/About-us/Newsroom/image/Partners/0325222PM/Newsroom-sustainability-ease-poverty-create-livelihood-thumbnail-listing.jpg",
      "articleUrl": "https://www.globe.com.ph/about-us/newsroom/partners/ease-poverty-create-livelihood-globe-rewards-tzu-chi-foundation.html",
      "columnType": "articles--type-3",
      "typeListing": "article",
      "imageMobile": "/sites/globe.com.ph/files/content/dam/globe/brie/About-us/Newsroom/image/Partners/0325222PM/Newsroom-sustainability-ease-poverty-create-livelihood-primary-thumbnail-m.jpg",
      "imageDesktop": "/sites/globe.com.ph/files/content/dam/globe/brie/About-us/Newsroom/image/Partners/0325222PM/Newsroom-sustainability-ease-poverty-create-livelihood-primary-thumbnail-d.jpg",
      "description": "Help create livelihood by donating your reward points to any organization supported by Globe of Good in partnership with Tzu Chi Foundation Philippines.",
      "datePosted": "Mar 25, 2022 | 02:00 PM",
      "titleFromTag": "Partners"
    },
    {
      "title": "New E-waste Facility in Malabon to Protect Communities from Hazardous Effects of Improper E-waste Handling",
      "nonclickable": false,
      "openNewTab": false,
      "borderArticle": "border-color:#1C91C5;",
      "borderTopArticle": "border-top-color:#1C91C5;",
      "imageListing": "/sites/globe.com.ph/files/content/dam/globe/brie/AboutUs/newsroom/sustainability/new-e-waste-facility-in-malabon-to-protect-communities-from-hazardous-effects/default-sustainability-3-thumbnail-listing.jpg",
      "articleUrl": "https://www.globe.com.ph/about-us/newsroom/sustainability/new-e-waste-facility-malabon.html",
      "columnType": "articles--type-3",
      "typeListing": "article",
      "imageMobile": "/sites/globe.com.ph/files/content/dam/globe/brie/AboutUs/newsroom/sustainability/new-e-waste-facility-in-malabon-to-protect-communities-from-hazardous-effects/default-sustainability-3-primary-thumbnail-m.jpg",
      "imageDesktop": "/sites/globe.com.ph/files/content/dam/globe/brie/AboutUs/newsroom/sustainability/new-e-waste-facility-in-malabon-to-protect-communities-from-hazardous-effects/default-sustainability-3-primary-thumbnail-d.jpg",
      "description": "As part of Globe’s E-waste Zero program, new e-waste facility was established in Malabon.",
      "datePosted": "Mar 25, 2022 | 08:01 AM",
      "titleFromTag": "Sustainability"
    },
    {
      "title": "#MWC22: Globe Pilots Off-Grid Network Tech in Remote, Disaster-Prone PH Areas",
      "nonclickable": false,
      "openNewTab": false,
      "borderArticle": "border-color:#1C91C5;",
      "borderTopArticle": "border-top-color:#1C91C5;",
      "imageListing": "/sites/globe.com.ph/files/content/dam/globe/brie/AboutUs/newsroom/sustainability/globe-builds-teacher-skills-early-language-literacy/default-sustainability-1-thumbnail-listing.jpg",
      "articleUrl": "https://www.globe.com.ph/about-us/newsroom/sustainability/wc22-globe-pilots-off-grid-network-tech.html",
      "columnType": "articles--type-3",
      "typeListing": "article",
      "imageMobile": "/sites/globe.com.ph/files/content/dam/globe/brie/AboutUs/newsroom/sustainability/globe-builds-teacher-skills-early-language-literacy/default-sustainability-1-primary-thumbnail-m.jpg",
      "imageDesktop": "/sites/globe.com.ph/files/content/dam/globe/brie/AboutUs/newsroom/sustainability/globe-builds-teacher-skills-early-language-literacy/default-sustainability-1-primary-thumbnail-d.jpg",
      "description": "Globe, together with Huawei Technologies, is piloting solar solutions for rural areas with limited or no access to digital technology.",
      "datePosted": "Mar 25, 2022 | 08:00 AM",
      "titleFromTag": "Sustainability"
    },
    {
      "title": "Globe Reaffirms Commitment to Online Consumer Safety at 2022 Digital Pilipinas Launch",
      "nonclickable": false,
      "openNewTab": false,
      "borderArticle": "border-color:#0074D9;",
      "borderTopArticle": "border-top-color:#0074D9;",
      "imageListing": "/sites/globe.com.ph/files/content/dam/globe/brie/AboutUs/newsroom/citizenship/globe-reaffirms-commitment-online-consumer-safety/newsroom-citizenship-online-consumer-safety-2022-thumbnail-listing.jpg",
      "articleUrl": "https://www.globe.com.ph/about-us/newsroom/citizenship/globe-reaffirms-commitment-online-consumer-safety.html",
      "columnType": "articles--type-3",
      "typeListing": "article",
      "imageMobile": "/sites/globe.com.ph/files/content/dam/globe/brie/AboutUs/newsroom/citizenship/globe-reaffirms-commitment-online-consumer-safety/newsroom-citizenship-online-consumer-safety-2022-primary-thumbnail-m.jpg",
      "imageDesktop": "/sites/globe.com.ph/files/content/dam/globe/brie/AboutUs/newsroom/citizenship/globe-reaffirms-commitment-online-consumer-safety/newsroom-citizenship-online-consumer-safety-2022-primary-thumbnail-d.jpg",
      "description": "Globe underscored the value of keeping netizens safe from emerging risks, dangers of the online world at the Nascent Technology Summit x Digital Pilipinas 2022.",
      "datePosted": "Mar 24, 2022 | 02:00 PM",
      "titleFromTag": "Citizenship"
    },
    {
      "title": "Understanding the Harm beyond the Screen: #Bagets Carry Unseen Wounds from Online Sexual Abuse",
      "nonclickable": false,
      "openNewTab": false,
      "borderArticle": "border-color:#0074D9;",
      "borderTopArticle": "border-top-color:#0074D9;",
      "imageListing": "/sites/globe.com.ph/files/content/dam/globe/brie/AboutUs/newsroom/citizenship/bagets-carry-unseen-wounds-online-sexual-abuse/newsroom-citizenship-unseen-online-sexual-abuse-thumbnail-listing.jpg",
      "articleUrl": "https://www.globe.com.ph/about-us/newsroom/citizenship/bagets-carry-unseen-wounds-online-sexual-abuse.html",
      "columnType": "articles--type-3",
      "typeListing": "article",
      "imageMobile": "/sites/globe.com.ph/files/content/dam/globe/brie/AboutUs/newsroom/citizenship/bagets-carry-unseen-wounds-online-sexual-abuse/newsroom-citizenship-unseen-online-sexual-abuse-primary-thumbnail-m.jpg",
      "imageDesktop": "/sites/globe.com.ph/files/content/dam/globe/brie/AboutUs/newsroom/citizenship/bagets-carry-unseen-wounds-online-sexual-abuse/newsroom-citizenship-unseen-online-sexual-abuse-primary-thumbnail-d.jpg",
      "description": "Panelists from DSWD and UNICEF discussed the unseen effects of online child sexual abuse and exploitation at the #MakeITSafePH OSAEC webinar by Globe.",
      "datePosted": "Mar 24, 2022 | 01:29 PM",
      "titleFromTag": "Citizenship"
    },
    {
      "title": "Globe Wins Ookla® ’s Best 5G Video Experience Award in PH",
      "nonclickable": false,
      "openNewTab": false,
      "borderArticle": "border-color:#0074D9;",
      "borderTopArticle": "border-top-color:#0074D9;",
      "imageListing": "/sites/globe.com.ph/files/content/dam/globe/brie/AboutUs/newsroom/common/updated/Corporate-globe-thumbnail-listing.jpg",
      "articleUrl": "https://www.globe.com.ph/about-us/newsroom/partners/globe-wins-ookla-best-5g-video-experience-award.html",
      "columnType": "articles--type-3",
      "typeListing": "article",
      "imageMobile": "/sites/globe.com.ph/files/content/dam/globe/brie/AboutUs/newsroom/common/updated/Corporate-globe-primary-thumbnail-m.jpg",
      "imageDesktop": "/sites/globe.com.ph/files/content/dam/globe/brie/AboutUs/newsroom/common/updated/Corporate-globe-primary-thumbnail-d.jpg",
      "description": "Globe has bagged Ookla’s Best 5G Video Experience Award in the Philippines, proving that its customers are already reaping the fruits of its network investment.",
      "datePosted": "Mar 24, 2022 | 01:02 PM",
      "titleFromTag": "Partners"
    },
    {
      "title": "Globe, PNP Boost #BantayKable Campaign, Clamp Down on Rampant Cable Theft in Bacolod ",
      "nonclickable": false,
      "openNewTab": false,
      "borderArticle": "border-color:#0074D9;",
      "borderTopArticle": "border-top-color:#0074D9;",
      "imageListing": "/sites/globe.com.ph/files/content/dam/globe/brie/AboutUs/newsroom/corporate/799-permits-1q-2021-new-towers/default-corporate-9-thumbnail-listing.jpg",
      "articleUrl": "https://www.globe.com.ph/about-us/newsroom/corporate/globe-pnp-boost-bantaykable-campaign.html",
      "columnType": "articles--type-3",
      "typeListing": "article",
      "imageMobile": "/sites/globe.com.ph/files/content/dam/globe/brie/AboutUs/newsroom/corporate/799-permits-1q-2021-new-towers/default-corporate-9-primary-thumbnail-m.jpg",
      "imageDesktop": "/sites/globe.com.ph/files/content/dam/globe/brie/AboutUs/newsroom/corporate/799-permits-1q-2021-new-towers/default-corporate-9-primary-thumbnail-d.jpg",
      "description": "Globe and PNP intensify the #BantayKable campaign in Bacolod City.",
      "datePosted": "Mar 24, 2022 | 08:07 AM",
      "titleFromTag": "Corporate"
    },
    {
      "title": "Alagang GCash supports OFWs and their families towards a brighter future",
      "nonclickable": false,
      "openNewTab": false,
      "borderArticle": "border-color:#0074D9;",
      "borderTopArticle": "border-top-color:#0074D9;",
      "imageListing": "/sites/globe.com.ph/files/content/dam/globe/brie/About-us/Newsroom/image/Partners/alagang-gcash-ofws-families-brighter-future/newsroom-partners-alagang-gcash-supports-ofws-thumbnail-listing.jpg",
      "articleUrl": "https://www.globe.com.ph/about-us/newsroom/partners/alagang-gcash-ofws-families-brighter-future.html",
      "columnType": "articles--type-3",
      "typeListing": "article",
      "imageMobile": "/sites/globe.com.ph/files/content/dam/globe/brie/About-us/Newsroom/image/Partners/alagang-gcash-ofws-families-brighter-future/newsroom-partners-alagang-gcash-supports-ofws-primary-thumbnail-m.jpg",
      "imageDesktop": "/sites/globe.com.ph/files/content/dam/globe/brie/About-us/Newsroom/image/Partners/alagang-gcash-ofws-families-brighter-future/newsroom-partners-alagang-gcash-supports-ofws-primary-thumbnail-d.jpg",
      "description": "Alagang GCash supports OFWs and their families by continuously providing new products and convenient services as their financial solutions. ",
      "datePosted": "Mar 23, 2022 | 03:00 PM",
      "titleFromTag": "Partners"
    },
    {
      "title": "Asticom Group of Companies Eyes Jobs Generation, Boosts Standing as Leading Shared Services Company",
      "nonclickable": false,
      "openNewTab": false,
      "borderArticle": "border-color:#0074D9;",
      "borderTopArticle": "border-top-color:#0074D9;",
      "imageListing": "/sites/globe.com.ph/files/content/dam/globe/brie/AboutUs/newsroom/partners/asticom-group-of-companies-eyes-jobs-generation/newsroom-partners-asticom-leading-shared-services-thumbnail-listing.jpg",
      "articleUrl": "https://www.globe.com.ph/about-us/newsroom/partners/asticom-jobs-generation-leading-shared-services-company.html",
      "columnType": "articles--type-3",
      "typeListing": "article",
      "imageMobile": "/sites/globe.com.ph/files/content/dam/globe/brie/AboutUs/newsroom/partners/asticom-group-of-companies-eyes-jobs-generation/newsroom-partners-asticom-leading-shared-services-primary-thumbnail-m.jpg",
      "imageDesktop": "/sites/globe.com.ph/files/content/dam/globe/brie/AboutUs/newsroom/partners/asticom-group-of-companies-eyes-jobs-generation/newsroom-partners-asticom-leading-shared-services-primary-thumbnail-d.jpg",
      "description": "Asticom, a shared services provider under the Globe Group, hopes to generate more than 15,000 jobs for Filipinos through its portfolio of businesses.",
      "datePosted": "Mar 23, 2022 | 01:00 PM",
      "titleFromTag": "Partners"
    },
    {
      "title": "Globe Business Unveils New Postpaid Plans for Enterprises, Corporate Subscribers",
      "nonclickable": false,
      "openNewTab": false,
      "borderArticle": "border-color:#0074D9;",
      "borderTopArticle": "border-top-color:#0074D9;",
      "imageListing": "/sites/globe.com.ph/files/content/dam/globe/brie/AboutUs/newsroom/business/globe-business-unveils-new-postpaid-plans-for-enterprises/eg-gplan-thumbnail-listing.jpg",
      "articleUrl": "https://www.globe.com.ph/about-us/newsroom/business/new-postpaid-plans-enterprises-corporate-subscribers.html",
      "columnType": "articles--type-3",
      "typeListing": "article",
      "imageMobile": "/sites/globe.com.ph/files/content/dam/globe/brie/AboutUs/newsroom/business/globe-business-unveils-new-postpaid-plans-for-enterprises/eg-gplan-primary-thumbnail-m.jpg",
      "imageDesktop": "/sites/globe.com.ph/files/content/dam/globe/brie/AboutUs/newsroom/business/globe-business-unveils-new-postpaid-plans-for-enterprises/eg-gplan-primary-thumbnail-d.jpg",
      "description": "Globe Business launches GPlan Enterprise, its newest portfolio of postpaid plans geared towards optimizing communication in enterprise organizations. ",
      "datePosted": "Mar 23, 2022 | 01:00 PM",
      "titleFromTag": "Business"
    }
  ]
}
