{
  "status": 200,
  "page": 74,
  "totalPage": 298,
  "range": "877-888",
  "total": 3573,
  "result": [
    {
      "title": "#GlobeofGood: Globe and Its Ecosystem of Partners Mobilize Collective Support for Hunger Alleviation and Holistic Assistance",
      "nonclickable": false,
      "openNewTab": false,
      "borderArticle": "border-color:#1C91C5;",
      "borderTopArticle": "border-top-color:#1C91C5;",
      "imageListing": "/sites/globe.com.ph/files/content/dam/globe/brie/AboutUs/newsroom/sustainability/default-sustainability-4/default-sustainability-4-thumbnail-listing.jpg",
      "articleUrl": "https://www.globe.com.ph/about-us/newsroom/sustainability/globe-ecosystem-partners-hunger-alleviation-holistic-assistance.html",
      "columnType": "articles--type-3",
      "typeListing": "article",
      "imageMobile": "/sites/globe.com.ph/files/content/dam/globe/brie/AboutUs/newsroom/sustainability/default-sustainability-4/default-sustainability-4-primary-thumbnail-m.jpg",
      "imageDesktop": "/sites/globe.com.ph/files/content/dam/globe/brie/AboutUs/newsroom/sustainability/default-sustainability-4/default-sustainability-4-primary-thumbnail-d.jpg",
      "description": "The Globe of Good program intends to provide a holistic intervention focusing on hunger alleviation and livelihood opportunities to benefit vulnerable families.",
      "datePosted": "Mar 22, 2022 | 11:11 AM",
      "titleFromTag": "Sustainability"
    },
    {
      "title": "Globe, GCash empower OFWs via all-in-one connectivity solution",
      "nonclickable": false,
      "openNewTab": false,
      "borderArticle": "border-color:#0074D9;",
      "borderTopArticle": "border-top-color:#0074D9;",
      "imageListing": "/sites/globe.com.ph/files/content/dam/globe/brie/About-us/Newsroom/image/Partners/globe-gcash-empower-ofws-all-in-one-connectivity-solution/newsroom-partners-globe-gcash-empower-ofws-thumbnail-listing.jpg",
      "articleUrl": "https://www.globe.com.ph/about-us/newsroom/partners/globe-gcash-empower-ofws-all-in-one-connectivity-solution.html",
      "columnType": "articles--type-3",
      "typeListing": "article",
      "imageMobile": "/sites/globe.com.ph/files/content/dam/globe/brie/About-us/Newsroom/image/Partners/globe-gcash-empower-ofws-all-in-one-connectivity-solution/newsroom-partners-globe-gcash-empower-ofws-primary-thumbnail-m.jpg",
      "imageDesktop": "/sites/globe.com.ph/files/content/dam/globe/brie/About-us/Newsroom/image/Partners/globe-gcash-empower-ofws-all-in-one-connectivity-solution/newsroom-partners-globe-gcash-empower-ofws-primary-thumbnail-d.jpg",
      "description": "Globe and GCash have joined hands to empower OFWs to support and remain connected with their loved ones back home. ",
      "datePosted": "Mar 21, 2022 | 01:00 PM",
      "titleFromTag": "Partners"
    },
    {
      "title": "Globe Business Bags First Gold, 2 Silvers at Anvil Awards",
      "nonclickable": false,
      "openNewTab": false,
      "borderArticle": "border-color:#0074D9;",
      "borderTopArticle": "border-top-color:#0074D9;",
      "imageListing": "/sites/globe.com.ph/files/content/dam/globe/brie/AboutUs/newsroom/business/globe-business-bags-first-gold-2-silvers-at-anvil-awards/eg-anvil-award-thumbnail-listing.jpg",
      "articleUrl": "https://www.globe.com.ph/about-us/newsroom/business/first-gold-two-silvers-anvil-awards.html",
      "columnType": "articles--type-3",
      "typeListing": "article",
      "imageMobile": "/sites/globe.com.ph/files/content/dam/globe/brie/AboutUs/newsroom/business/globe-business-bags-first-gold-2-silvers-at-anvil-awards/eg-anvil-award-primary-thumbnail-m.jpg",
      "imageDesktop": "/sites/globe.com.ph/files/content/dam/globe/brie/AboutUs/newsroom/business/globe-business-bags-first-gold-2-silvers-at-anvil-awards/eg-anvil-award-primary-thumbnail-d.jpg",
      "description": "Globe Business wins Gold Anvil Award for Public Relations Tools: Multimedia / Digital Tool - Online Video for “Project Colbert Clockwork Webisodes.",
      "datePosted": "Mar 21, 2022 | 01:00 PM",
      "titleFromTag": "Business"
    },
    {
      "title": "Globe Calls for Public Vigilance vs Illegal Use of Cell Broadcasters",
      "nonclickable": false,
      "openNewTab": false,
      "borderArticle": "border-color:#0074D9;",
      "borderTopArticle": "border-top-color:#0074D9;",
      "imageListing": "/sites/globe.com.ph/files/content/dam/globe/brie/AboutUs/newsroom/corporate/largest-ph-publicly-listed-telco-digital-solutions-group/Corporate-globe-thumbnail-listing.jpg",
      "articleUrl": "https://www.globe.com.ph/about-us/newsroom/corporate/public-vigilance-illegal-use-cell-broadcasters.html",
      "columnType": "articles--type-3",
      "typeListing": "article",
      "imageMobile": "/sites/globe.com.ph/files/content/dam/globe/brie/AboutUs/newsroom/corporate/largest-ph-publicly-listed-telco-digital-solutions-group/Corporate-globe-primary-thumbnail-m.jpg",
      "imageDesktop": "/sites/globe.com.ph/files/content/dam/globe/brie/AboutUs/newsroom/corporate/largest-ph-publicly-listed-telco-digital-solutions-group/Corporate-globe-primary-thumbnail-d.jpg",
      "description": "Leading digital solutions provider Globe is calling on the public to be wary of messages coming from illegal use of cell broadcasters.",
      "datePosted": "Mar 21, 2022 | 09:23 AM",
      "titleFromTag": "Corporate"
    },
    {
      "title": "International Happiness Day: Spread happiness with Globe",
      "nonclickable": false,
      "openNewTab": false,
      "borderArticle": "border-color:#0074D9;",
      "borderTopArticle": "border-top-color:#0074D9;",
      "imageListing": "/sites/globe.com.ph/files/content/dam/globe/brie/About-us/Newsroom/image/Consumer/international-happiness-day-spread-happiness-with-globe/newsroom-consumer-international-happiness-day-primary-banner-d.jpg",
      "articleUrl": "https://www.globe.com.ph/about-us/newsroom/consumer/international-happiness-day-spread-happiness-with-globe.html",
      "columnType": "articles--type-3",
      "typeListing": "article",
      "imageMobile": "/sites/globe.com.ph/files/content/dam/globe/brie/About-us/Newsroom/image/Consumer/international-happiness-day-spread-happiness-with-globe/newsroom-consumer-international-happiness-day-primary-thumbnail-m.jpg",
      "imageDesktop": "/sites/globe.com.ph/files/content/dam/globe/brie/About-us/Newsroom/image/Consumer/international-happiness-day-spread-happiness-with-globe/newsroom-consumer-international-happiness-day-primary-thumbnail-d.jpg",
      "description": "The Globe Group helps spread cheer even better this International Happiness Day.",
      "datePosted": "Mar 18, 2022 | 01:00 PM",
      "titleFromTag": "Consumer"
    },
    {
      "title": "Globe Ensures Holistic COVID-19 Support for Employees and Customers; Aid Totals ₱2B by 2021 Year-End",
      "nonclickable": false,
      "openNewTab": false,
      "borderArticle": "border-color:#1C91C5;",
      "borderTopArticle": "border-top-color:#1C91C5;",
      "imageListing": "/sites/globe.com.ph/files/content/dam/globe/brie/AboutUs/newsroom/sustainability/holistic-covid-19-support-employees-customers/newsroom-sustainability-holistic-support-for-employees-thumbnail-listing.jpg",
      "articleUrl": "https://www.globe.com.ph/about-us/newsroom/sustainability/holistic-covid-19-support-employees-customers.html",
      "columnType": "articles--type-3",
      "typeListing": "article",
      "imageMobile": "/sites/globe.com.ph/files/content/dam/globe/brie/AboutUs/newsroom/sustainability/holistic-covid-19-support-employees-customers/newsroom-sustainability-holistic-support-for-employees-primary-thumbnail-m.jpg",
      "imageDesktop": "/sites/globe.com.ph/files/content/dam/globe/brie/AboutUs/newsroom/sustainability/holistic-covid-19-support-employees-customers/newsroom-sustainability-holistic-support-for-employees-primary-thumbnail-d.jpg",
      "description": "Globe has contributed ₱2.46 billion in aid for various sectors as part of its unwavering commitment to help the government in response to the COVID-19 pandemic.",
      "datePosted": "Mar 18, 2022 | 11:11 AM",
      "titleFromTag": "Sustainability"
    },
    {
      "title": "Globe’s Third Pillar Becomes Elite Salesforce Summit Partner",
      "nonclickable": false,
      "openNewTab": false,
      "borderArticle": "border-color:#0074D9;",
      "borderTopArticle": "border-top-color:#0074D9;",
      "imageListing": "/sites/globe.com.ph/files/content/dam/globe/brie/AboutUs/newsroom/business/third-pillar-becomes-elite-salesforce-summit-partner/eg-third-pillar-thumbnail-listing.jpg",
      "articleUrl": "https://www.globe.com.ph/about-us/newsroom/business/third-pillar-becomes-elite-salesforce-summit-partner.html",
      "columnType": "articles--type-3",
      "typeListing": "article",
      "imageMobile": "/sites/globe.com.ph/files/content/dam/globe/brie/AboutUs/newsroom/business/third-pillar-becomes-elite-salesforce-summit-partner/eg-third-pillar-primary-thumbnail-m.jpg",
      "imageDesktop": "/sites/globe.com.ph/files/content/dam/globe/brie/AboutUs/newsroom/business/third-pillar-becomes-elite-salesforce-summit-partner/eg-third-pillar-primary-thumbnail-d.jpg",
      "description": "Third Pillar, a business applications and systems portfolio company under the Globe Group becomes an elite Salesforce Summit Partner.",
      "datePosted": "Mar 17, 2022 | 06:37 PM",
      "titleFromTag": "Business"
    },
    {
      "title": "Philippine School of Business Administration - Manila transitions to online learning with ease through Globe",
      "nonclickable": false,
      "openNewTab": false,
      "borderArticle": "border-color:#0074D9;",
      "borderTopArticle": "border-top-color:#0074D9;",
      "imageListing": "/sites/globe.com.ph/files/content/dam/globe/brie/AboutUs/newsroom/corporate/psba-manila-transitions-to-online-learning/sg-psba-thumbnail-listing.jpg",
      "articleUrl": "https://www.globe.com.ph/about-us/newsroom/corporate/psba-manila-transitions-to-online-learning.html",
      "columnType": "articles--type-3",
      "typeListing": "article",
      "imageMobile": "/sites/globe.com.ph/files/content/dam/globe/brie/AboutUs/newsroom/corporate/psba-manila-transitions-to-online-learning/sg-psba-primary-thumbnail-m.jpg",
      "imageDesktop": "/sites/globe.com.ph/files/content/dam/globe/brie/AboutUs/newsroom/corporate/psba-manila-transitions-to-online-learning/sg-psba-primary-thumbnail-d.jpg",
      "description": "Philippine School of Business Administration-Manila taps Globe to implement Google Workspace for Education for their school.",
      "datePosted": "Mar 17, 2022 | 09:00 AM",
      "titleFromTag": "Corporate"
    },
    {
      "title": "#BantayKable: Rampant Cable-Cutting in Visayas Sends 16 Individuals to Prison",
      "nonclickable": false,
      "openNewTab": false,
      "borderArticle": "border-color:#0074D9;",
      "borderTopArticle": "border-top-color:#0074D9;",
      "imageListing": "/sites/globe.com.ph/files/content/dam/globe/brie/AboutUs/newsroom/corporate/799-permits-1q-2021-new-towers/default-corporate-9-thumbnail-listing.jpg",
      "articleUrl": "https://www.globe.com.ph/about-us/newsroom/corporate/rampant-cable-cutting-visayas-sends-individuals-prison.html",
      "columnType": "articles--type-3",
      "typeListing": "article",
      "imageMobile": "/sites/globe.com.ph/files/content/dam/globe/brie/AboutUs/newsroom/corporate/799-permits-1q-2021-new-towers/default-corporate-9-primary-thumbnail-m.jpg",
      "imageDesktop": "/sites/globe.com.ph/files/content/dam/globe/brie/AboutUs/newsroom/corporate/799-permits-1q-2021-new-towers/default-corporate-9-primary-thumbnail-d.jpg",
      "description": "Globe is working closely with barangay tanods and the Philippine National Police in the Visayas for its Bantay-Kable operations.",
      "datePosted": "Mar 17, 2022 | 08:07 AM",
      "titleFromTag": "Corporate"
    },
    {
      "title": "Asticom Launches Asti Shared Services Center to Accelerate Client Service Delivery",
      "nonclickable": false,
      "openNewTab": false,
      "borderArticle": "border-color:#0074D9;",
      "borderTopArticle": "border-top-color:#0074D9;",
      "imageListing": "/sites/globe.com.ph/files/content/dam/globe/brie/AboutUs/newsroom/partners/asticom-launches-asti-shared-services-center/newsroom-partners-asticom-launches-service-center-thumbnail-listing.jpg",
      "articleUrl": "https://www.globe.com.ph/about-us/newsroom/partners/asticom-launches-asti-shared-services-center.html",
      "columnType": "articles--type-3",
      "typeListing": "article",
      "imageMobile": "/sites/globe.com.ph/files/content/dam/globe/brie/AboutUs/newsroom/partners/asticom-launches-asti-shared-services-center/newsroom-partners-asticom-launches-service-center-primary-thumbnail-m.jpg",
      "imageDesktop": "/sites/globe.com.ph/files/content/dam/globe/brie/AboutUs/newsroom/partners/asticom-launches-asti-shared-services-center/newsroom-partners-asticom-launches-service-center-primary-thumbnail-d.jpg",
      "description": "Asticom, a shared services provider under the Globe Group, launched its Asti Shared Services Center  to enhance business operations efficiency.",
      "datePosted": "Mar 16, 2022 | 10:15 AM",
      "titleFromTag": "Partners"
    },
    {
      "title": "#BrigadangAyalaKaakay: Globe Celebrates the Women of Brgy. Barangka Ilaya, Mandaluyong for Their Strength and Support for the Community",
      "nonclickable": false,
      "openNewTab": false,
      "borderArticle": "border-color:#1C91C5;",
      "borderTopArticle": "border-top-color:#1C91C5;",
      "imageListing": "/sites/globe.com.ph/files/content/dam/globe/brie/AboutUs/newsroom/sustainability/globe-celebrates-the-women-of-brgy-barangka-ilaya/newsroom-sustainability-globe-celebrates-women-strength-thumbnail-listing.jpg",
      "articleUrl": "https://www.globe.com.ph/about-us/newsroom/sustainability/globe-celebrates-women-brgy-barangka-ilaya-mandaluyong.html",
      "columnType": "articles--type-3",
      "typeListing": "article",
      "imageMobile": "/sites/globe.com.ph/files/content/dam/globe/brie/AboutUs/newsroom/sustainability/globe-celebrates-the-women-of-brgy-barangka-ilaya/newsroom-sustainability-globe-celebrates-women-strength-primary-thumbnail-m.jpg",
      "imageDesktop": "/sites/globe.com.ph/files/content/dam/globe/brie/AboutUs/newsroom/sustainability/globe-celebrates-the-women-of-brgy-barangka-ilaya/newsroom-sustainability-globe-celebrates-women-strength-primary-thumbnail-d.jpg",
      "description": "True to its commitment to creating a #GlobeOfGood, Globe became a bridge for three women to become pillars of their homes during the health crisis. ",
      "datePosted": "Mar 15, 2022 | 11:11 AM",
      "titleFromTag": "Sustainability"
    },
    {
      "title": "Globe, IWF Partner for Safer Internet, Promote Online Child Abuse Reporting Portals",
      "nonclickable": false,
      "openNewTab": false,
      "borderArticle": "border-color:#1C91C5;",
      "borderTopArticle": "border-top-color:#1C91C5;",
      "imageListing": "/sites/globe.com.ph/files/content/dam/globe/brie/AboutUs/newsroom/sustainability/globe-iwf-partner-safer-internet/newsroom-sustainability-globe-iwf-safer-internet-thumbnail-listing.jpg",
      "articleUrl": "https://www.globe.com.ph/about-us/newsroom/sustainability/globe-iwf-partner-safer-internet.html",
      "columnType": "articles--type-3",
      "typeListing": "article",
      "imageMobile": "/sites/globe.com.ph/files/content/dam/globe/brie/AboutUs/newsroom/sustainability/globe-iwf-partner-safer-internet/newsroom-sustainability-globe-iwf-safer-internet-primary-thumbnail-m.jpg",
      "imageDesktop": "/sites/globe.com.ph/files/content/dam/globe/brie/AboutUs/newsroom/sustainability/globe-iwf-partner-safer-internet/newsroom-sustainability-globe-iwf-safer-internet-primary-thumbnail-d.jpg",
      "description": "Globe & IWF partnered to boost protection of children online, as greater use of the Internet during the pandemic has seen a rise in child sexual abuse material.",
      "datePosted": "Mar 14, 2022 | 02:56 PM",
      "titleFromTag": "Sustainability"
    }
  ]
}
