{
  "status": 200,
  "page": 75,
  "totalPage": 298,
  "range": "889-900",
  "total": 3573,
  "result": [
    {
      "title": "Discover how M360 messaging solutions can boost your connection to your customers",
      "nonclickable": false,
      "openNewTab": false,
      "borderArticle": "border-color:#0074D9;",
      "borderTopArticle": "border-top-color:#0074D9;",
      "imageListing": "/sites/globe.com.ph/files/content/dam/globe/brie/About-us/Newsroom/image/Partners/how-m360-messaging-solutions-can-boost-connection-customers/newsroom-partners-m360-boost-connection-thumbnail-listing.jpg",
      "articleUrl": "https://www.globe.com.ph/about-us/newsroom/partners/how-m360-messaging-solutions-can-boost-connection-customers.html",
      "columnType": "articles--type-3",
      "typeListing": "article",
      "imageMobile": "/sites/globe.com.ph/files/content/dam/globe/brie/About-us/Newsroom/image/Partners/how-m360-messaging-solutions-can-boost-connection-customers/newsroom-partners-m360-boost-connection-primary-thumbnail-m.jpg",
      "imageDesktop": "/sites/globe.com.ph/files/content/dam/globe/brie/About-us/Newsroom/image/Partners/how-m360-messaging-solutions-can-boost-connection-customers/newsroom-partners-m360-boost-connection-primary-thumbnail-d.jpg",
      "description": "M360, the newest subsidiary of 917Ventures, offers messaging solutions for seamless customer interactions.",
      "datePosted": "Mar 14, 2022 | 01:00 PM",
      "titleFromTag": "Partners"
    },
    {
      "title": "Gcash Tightens User Verification Process to Enhance Traceability Ahead of 2022 Elections",
      "nonclickable": false,
      "openNewTab": false,
      "borderArticle": "border-color:#0074D9;",
      "borderTopArticle": "border-top-color:#0074D9;",
      "imageListing": "/sites/globe.com.ph/files/content/dam/globe/brie/AboutUs/newsroom/consumer/gcash-tightens-user-verification-process/newsroom-consumer-gcash-tightens-verification-thumbnail-listing.jpg",
      "articleUrl": "https://www.globe.com.ph/about-us/newsroom/consumer/gcash-tightens-user-verification-process.html",
      "columnType": "articles--type-3",
      "typeListing": "article",
      "imageMobile": "/sites/globe.com.ph/files/content/dam/globe/brie/AboutUs/newsroom/consumer/gcash-tightens-user-verification-process/newsroom-consumer-gcash-tightens-verification-primary-thumbnail-m.jpg",
      "imageDesktop": "/sites/globe.com.ph/files/content/dam/globe/brie/AboutUs/newsroom/consumer/gcash-tightens-user-verification-process/newsroom-consumer-gcash-tightens-verification-primary-thumbnail-d.jpg",
      "description": "GCash implemented stricter user onboarding and account verification to avoid misuse of the platform in the upcoming 2022 elections.",
      "datePosted": "Mar 11, 2022 | 09:22 AM",
      "titleFromTag": "Consumer"
    },
    {
      "title": "Globe Business Connects MSMEs to the Right Business Essentials",
      "nonclickable": false,
      "openNewTab": false,
      "borderArticle": "border-color:#0074D9;",
      "borderTopArticle": "border-top-color:#0074D9;",
      "imageListing": "/sites/globe.com.ph/files/content/dam/globe/brie/AboutUs/newsroom/business/globe-business-connects-msmes/sg-bplo-thumbnail-listing.jpg",
      "articleUrl": "https://www.globe.com.ph/about-us/newsroom/business/globe-business-connect-msmes-right-business-essentials.html",
      "columnType": "articles--type-3",
      "typeListing": "article",
      "imageMobile": "/sites/globe.com.ph/files/content/dam/globe/brie/AboutUs/newsroom/business/globe-business-connects-msmes/sg-bplo-primary-thumbnail-m.jpg",
      "imageDesktop": "/sites/globe.com.ph/files/content/dam/globe/brie/AboutUs/newsroom/business/globe-business-connects-msmes/sg-bplo-primary-thumbnail-d.jpg",
      "description": "Globe Business builds on its promise to be the trusted partner of every micro, small and medium-scale enterprise (MSME) by launching Negosyo Essentials.",
      "datePosted": "Mar 11, 2022 | 09:16 AM",
      "titleFromTag": "Business"
    },
    {
      "title": "GCash and TNG Wallet partnership offers faster remittance for OFWs in HK",
      "nonclickable": false,
      "openNewTab": false,
      "borderArticle": "border-color:#0074D9;",
      "borderTopArticle": "border-top-color:#0074D9;",
      "imageListing": "/sites/globe.com.ph/files/content/dam/globe/brie/About-us/Newsroom/image/Consumer/gcash-tng-wallet-partnership-faster-remittance-ofw-hk/newsroom-consumer-gcash-tng-faster-remittance-thumbnail-listing.jpg",
      "articleUrl": "https://www.globe.com.ph/about-us/newsroom/consumer/gcash-tng-wallet-partnership-faster-remittance-ofw-hk.html",
      "columnType": "articles--type-3",
      "typeListing": "article",
      "imageMobile": "/sites/globe.com.ph/files/content/dam/globe/brie/About-us/Newsroom/image/Consumer/gcash-tng-wallet-partnership-faster-remittance-ofw-hk/newsroom-consumer-gcash-tng-faster-remittance-primary-thumbnail-m.jpg",
      "imageDesktop": "/sites/globe.com.ph/files/content/dam/globe/brie/About-us/Newsroom/image/Consumer/gcash-tng-wallet-partnership-faster-remittance-ofw-hk/newsroom-consumer-gcash-tng-faster-remittance-primary-thumbnail-d.jpg",
      "description": "GCash teams up with TNG Wallet, a P2P mobile remittance app in Hong Kong to provide a more convenient digital financial solution for Filipino OFWs.",
      "datePosted": "Mar 10, 2022 | 01:00 PM",
      "titleFromTag": "Consumer"
    },
    {
      "title": "GCash teams up with the Bank of the Philippine Islands (BPI) to further broaden its retail offerings and provide customers with more opportunities to grow their funds. ",
      "nonclickable": false,
      "openNewTab": false,
      "borderArticle": "border-color:#0074D9;",
      "borderTopArticle": "border-top-color:#0074D9;",
      "imageListing": "/sites/globe.com.ph/files/content/dam/globe/brie/About-us/Newsroom/image/Consumer/gcash-bpi-partnership-retail-investment-financial-services-accessibility/newsroom-consumer-gcash-bpi-enhance-accessibility-thumbnail-listing.jpg",
      "articleUrl": "https://www.globe.com.ph/about-us/newsroom/consumer/gcash-bpi-partnership-retail-investment-financial-services-accessibility.html",
      "columnType": "articles--type-3",
      "typeListing": "article",
      "imageMobile": "/sites/globe.com.ph/files/content/dam/globe/brie/About-us/Newsroom/image/Consumer/gcash-bpi-partnership-retail-investment-financial-services-accessibility/newsroom-consumer-gcash-bpi-enhance-accessibility-primary-thumbnail-m.jpg",
      "imageDesktop": "/sites/globe.com.ph/files/content/dam/globe/brie/About-us/Newsroom/image/Consumer/gcash-bpi-partnership-retail-investment-financial-services-accessibility/newsroom-consumer-gcash-bpi-enhance-accessibility-primary-thumbnail-d.jpg",
      "description": "GCash teams up with the Bank of the Philippine Islands to broaden its retail offerings and provide customers with more opportunities to grow their funds.",
      "datePosted": "Mar 09, 2022 | 01:00 PM",
      "titleFromTag": "Consumer"
    },
    {
      "title": "GCash’s ‘Buy Now, Pay Later’ and lending options - a fit for Filipinos’ financing needs",
      "nonclickable": false,
      "openNewTab": false,
      "borderArticle": "border-color:#0074D9;",
      "borderTopArticle": "border-top-color:#0074D9;",
      "imageListing": "/sites/globe.com.ph/files/content/dam/globe/brie/About-us/Newsroom/image/Partners/gcash-buy-now-pay-later-fit-filipinos-financing-needs/newsroom-partners-gcash-lending-options-thumbnail-listing.jpg",
      "articleUrl": "https://www.globe.com.ph/about-us/newsroom/partners/gcash-buy-now-pay-later-fit-filipinos-financing-needs.html",
      "columnType": "articles--type-3",
      "typeListing": "article",
      "imageMobile": "/sites/globe.com.ph/files/content/dam/globe/brie/About-us/Newsroom/image/Partners/gcash-buy-now-pay-later-fit-filipinos-financing-needs/newsroom-partners-gcash-lending-options-primary-thumbnail-m.jpg",
      "imageDesktop": "/sites/globe.com.ph/files/content/dam/globe/brie/About-us/Newsroom/image/Partners/gcash-buy-now-pay-later-fit-filipinos-financing-needs/newsroom-partners-gcash-lending-options-primary-thumbnail-d.jpg",
      "description": "GGives is the newest “Buy Now, Pay Later” feature on the GCash app designed to help with Filipinos' financing needs and effectively manage their expenses.",
      "datePosted": "Mar 09, 2022 | 08:00 AM",
      "titleFromTag": "Partners"
    },
    {
      "title": "ANIMA wins big at Film Ambassadors Night, 2nd Pinoy Rebyu Awards",
      "nonclickable": false,
      "openNewTab": false,
      "borderArticle": "border-color:#0074D9;",
      "borderTopArticle": "border-top-color:#0074D9;",
      "imageListing": "/sites/globe.com.ph/files/content/dam/globe/brie/About-us/Newsroom/image/Consumer/anima-wins-big-film-ambassadors-night-2nd-pinoy-rebyu-awards/newsroom-consumer-anima-wins-big-thumbnail-listing.jpg",
      "articleUrl": "https://www.globe.com.ph/about-us/newsroom/consumer/anima-wins-big-film-ambassadors-night-2nd-pinoy-rebyu-awards.html",
      "columnType": "articles--type-3",
      "typeListing": "article",
      "imageMobile": "/sites/globe.com.ph/files/content/dam/globe/brie/About-us/Newsroom/image/Consumer/anima-wins-big-film-ambassadors-night-2nd-pinoy-rebyu-awards/newsroom-consumer-anima-wins-big-primary-thumbnail-m.jpg",
      "imageDesktop": "/sites/globe.com.ph/files/content/dam/globe/brie/About-us/Newsroom/image/Consumer/anima-wins-big-film-ambassadors-night-2nd-pinoy-rebyu-awards/newsroom-consumer-anima-wins-big-primary-thumbnail-d.jpg",
      "description": "ANIMA bagged 17 awards from the 6th Film Ambassadors’ Night and 2nd Pinoy Rebyu Awards for its notable films, talents, and production teams. ",
      "datePosted": "Mar 08, 2022 | 11:31 AM",
      "titleFromTag": "Consumer"
    },
    {
      "title": "International Women’s Month: Globe Fetes Women Leaders, Employees as Pillars of Strength",
      "nonclickable": false,
      "openNewTab": false,
      "borderArticle": "border-color:#0074D9;",
      "borderTopArticle": "border-top-color:#0074D9;",
      "imageListing": "/sites/globe.com.ph/files/content/dam/globe/brie/AboutUs/newsroom/corporate/globe-fetes-women-leaders-eployees-pillars-of-strength/newsroom-corporate-globe-fetes-women-leaders-thumbnail-listing.jpg",
      "articleUrl": "https://www.globe.com.ph/about-us/newsroom/corporate/globe-fetes-women-leaders-eployees-pillars-of-strength.html",
      "columnType": "articles--type-3",
      "typeListing": "article",
      "imageMobile": "/sites/globe.com.ph/files/content/dam/globe/brie/AboutUs/newsroom/corporate/globe-fetes-women-leaders-eployees-pillars-of-strength/newsroom-corporate-globe-fetes-women-leaders-primary-thumbnail-m.jpg",
      "imageDesktop": "/sites/globe.com.ph/files/content/dam/globe/brie/AboutUs/newsroom/corporate/globe-fetes-women-leaders-eployees-pillars-of-strength/newsroom-corporate-globe-fetes-women-leaders-primary-thumbnail-d.jpg",
      "description": "Globe acknowledges the undeniable impact its female leaders have had on the business and the lives of its customers.",
      "datePosted": "Mar 08, 2022 | 10:25 AM",
      "titleFromTag": "Corporate"
    },
    {
      "title": "Kickstart-backed ZAP secures Series A funding from True Digital Group",
      "nonclickable": false,
      "openNewTab": false,
      "borderArticle": "border-color:#0074D9;",
      "borderTopArticle": "border-top-color:#0074D9;",
      "imageListing": "/sites/globe.com.ph/files/content/dam/globe/brie/About-us/Newsroom/image/Partners/030822800AM/newsroom-partners-kickstart-zap-secures-funding-thumbnail-listing.jpg",
      "articleUrl": "https://www.globe.com.ph/about-us/newsroom/partners/zap-secures-series-a-funding-true-digital-group.html",
      "columnType": "articles--type-3",
      "typeListing": "article",
      "imageMobile": "/sites/globe.com.ph/files/content/dam/globe/brie/About-us/Newsroom/image/Partners/030822800AM/newsroom-partners-kickstart-zap-secures-funding-primary-thumbnail-m.jpg",
      "imageDesktop": "/sites/globe.com.ph/files/content/dam/globe/brie/About-us/Newsroom/image/Partners/030822800AM/newsroom-partners-kickstart-zap-secures-funding-primary-thumbnail-d.jpg",
      "description": "ZAP secures Series A funding from True Digital Group to help close the gap in consumer's digital journey.",
      "datePosted": "Mar 08, 2022 | 08:00 AM",
      "titleFromTag": "Partners"
    },
    {
      "title": "Cloud Contact Center Solutions to Revolutionize Customer Service",
      "nonclickable": false,
      "openNewTab": false,
      "borderArticle": "border-color:#0074D9;",
      "borderTopArticle": "border-top-color:#0074D9;",
      "imageListing": "/sites/globe.com.ph/files/content/dam/globe/brie/AboutUs/newsroom/business/cloud-contact-center-solutions-to-revolutionize-customer-service/sg-cloud-solutions-thumbnail-listing.jpg",
      "articleUrl": "https://www.globe.com.ph/about-us/newsroom/business/cloud-contact-center-solutions-revolutionize-customer-service.html",
      "columnType": "articles--type-3",
      "typeListing": "article",
      "imageMobile": "/sites/globe.com.ph/files/content/dam/globe/brie/AboutUs/newsroom/business/cloud-contact-center-solutions-to-revolutionize-customer-service/sg-cloud-solutions-primary-thumbnail-m.jpg",
      "imageDesktop": "/sites/globe.com.ph/files/content/dam/globe/brie/AboutUs/newsroom/business/cloud-contact-center-solutions-to-revolutionize-customer-service/sg-cloud-solutions-primary-thumbnail-d.jpg",
      "description": "Globe offers an easy-to-use and fast-to-deploy Contact Center as a Service (CCasS) solution for enterprises.",
      "datePosted": "Mar 07, 2022 | 10:53 AM",
      "titleFromTag": "Business"
    },
    {
      "title": "ANIMA brings Filipino film talent to global stage, reiterates call vs piracy",
      "nonclickable": false,
      "openNewTab": false,
      "borderArticle": "border-color:#0074D9;",
      "borderTopArticle": "border-top-color:#0074D9;",
      "imageListing": "/sites/globe.com.ph/files/content/dam/globe/brie/About-us/Newsroom/image/Consumer/anima-brings-filipino-talent-to-global-stage/newsroom-consumer-anima-filipino-talent-global-thumbnail-listing.jpg",
      "articleUrl": "https://www.globe.com.ph/about-us/newsroom/consumer/anima-brings-filipino-talent-to-global-stage.html",
      "columnType": "articles--type-3",
      "typeListing": "article",
      "imageMobile": "/sites/globe.com.ph/files/content/dam/globe/brie/About-us/Newsroom/image/Consumer/anima-brings-filipino-talent-to-global-stage/newsroom-consumer-anima-filipino-talent-global-primary-thumbnail-m.jpg",
      "imageDesktop": "/sites/globe.com.ph/files/content/dam/globe/brie/About-us/Newsroom/image/Consumer/anima-brings-filipino-talent-to-global-stage/newsroom-consumer-anima-filipino-talent-global-primary-thumbnail-d.jpg",
      "description": "ANIMA brings Filipino films to the global stage and stands behind filmmakers and entertainment content creators through its #PlayItRight anti-piracy campaign.",
      "datePosted": "Mar 07, 2022 | 09:00 AM",
      "titleFromTag": "Consumer"
    },
    {
      "title": "Globe Business spurs Odette-hit MSMEs’ recovery with rebates, digital support",
      "nonclickable": false,
      "openNewTab": false,
      "borderArticle": "border-color:#0074D9;",
      "borderTopArticle": "border-top-color:#0074D9;",
      "imageListing": "/sites/globe.com.ph/files/content/dam/globe/brie/AboutUs/newsroom/business/globe-business-spurs-odette-hit-msmes-recovery/sg-odette-thumbnail-listing.jpg",
      "articleUrl": "https://www.globe.com.ph/about-us/newsroom/business/globe-business-spurs-odette-hit-msmes-recovery.html",
      "columnType": "articles--type-3",
      "typeListing": "article",
      "imageMobile": "/sites/globe.com.ph/files/content/dam/globe/brie/AboutUs/newsroom/business/globe-business-spurs-odette-hit-msmes-recovery/sg-odette-primary-thumbnail-m.jpg",
      "imageDesktop": "/sites/globe.com.ph/files/content/dam/globe/brie/AboutUs/newsroom/business/globe-business-spurs-odette-hit-msmes-recovery/sg-odette-primary-thumbnail-d.jpg",
      "description": "Globe Business spurs Odette-hit MSMEs’ recovery with rebates, digital support",
      "datePosted": "Mar 04, 2022 | 01:06 PM",
      "titleFromTag": "Business"
    }
  ]
}
