{
  "status": 200,
  "page": 76,
  "totalPage": 298,
  "range": "901-912",
  "total": 3573,
  "result": [
    {
      "title": "Globe Business Introduces Work Anywhere Solution",
      "nonclickable": false,
      "openNewTab": false,
      "borderArticle": "border-color:#0074D9;",
      "borderTopArticle": "border-top-color:#0074D9;",
      "imageListing": "/sites/globe.com.ph/files/content/dam/globe/brie/AboutUs/newsroom/business/globe-business-introduces-work-anywhere-solution/eg-work-from-anywhere-thumbnail-listing.jpg",
      "articleUrl": "https://www.globe.com.ph/about-us/newsroom/business/globe-business-introduces-work-anywhere-solution.html",
      "columnType": "articles--type-3",
      "typeListing": "article",
      "imageMobile": "/sites/globe.com.ph/files/content/dam/globe/brie/AboutUs/newsroom/business/globe-business-introduces-work-anywhere-solution/eg-work-from-anywhere-primary-thumbnail-m.jpg",
      "imageDesktop": "/sites/globe.com.ph/files/content/dam/globe/brie/AboutUs/newsroom/business/globe-business-introduces-work-anywhere-solution/eg-work-from-anywhere-primary-thumbnail-d.jpg",
      "description": "Globe Business addresses the challenges of digital transformation through Globe Work Anywhere Solution.",
      "datePosted": "Mar 03, 2022 | 04:14 PM",
      "titleFromTag": "Business"
    },
    {
      "title": "Globe’s Finance Exec Bags FutureCFO Controller of the Year Award",
      "nonclickable": false,
      "openNewTab": false,
      "borderArticle": "border-color:#0074D9;",
      "borderTopArticle": "border-top-color:#0074D9;",
      "imageListing": "/sites/globe.com.ph/files/content/dam/globe/brie/AboutUs/newsroom/corporate/finance-exec-bags-futurecfo-controller-of-the-year-award/v2/newsroom-corporate-finance-execs-bags-award-thumbnail-listing.jpg",
      "articleUrl": "https://www.globe.com.ph/about-us/newsroom/corporate/globe-finance-exec-futurecfo-controller-of-the-year.html",
      "columnType": "articles--type-3",
      "typeListing": "article",
      "imageMobile": "/sites/globe.com.ph/files/content/dam/globe/brie/AboutUs/newsroom/corporate/finance-exec-bags-futurecfo-controller-of-the-year-award/v2/newsroom-corporate-finance-execs-bags-award-primary-thumbnail-m.jpg",
      "imageDesktop": "/sites/globe.com.ph/files/content/dam/globe/brie/AboutUs/newsroom/corporate/finance-exec-bags-futurecfo-controller-of-the-year-award/v2/newsroom-corporate-finance-execs-bags-award-primary-thumbnail-d.jpg",
      "description": "Globe Vice President for Finance and Advisory Walter Ricarte was named Controller of the Year at the FutureCFO Awards 2022 held in February.",
      "datePosted": "Mar 03, 2022 | 10:25 AM",
      "titleFromTag": "Corporate"
    },
    {
      "title": "Globe expands 5G roaming footprint, onboards Netherlands, Bahrain, New Zealand",
      "nonclickable": false,
      "openNewTab": false,
      "borderArticle": "border-color:#0074D9;",
      "borderTopArticle": "border-top-color:#0074D9;",
      "imageListing": "/sites/globe.com.ph/files/content/dam/globe/brie/AboutUs/newsroom/consumer/globe-expands-5g-roaming-footprint/sg-5g-map-thumbnail-listing.jpg",
      "articleUrl": "https://www.globe.com.ph/about-us/newsroom/consumer/globe-expands-5g-roaming-netherlands-bahrain-new-zealand.html",
      "columnType": "articles--type-3",
      "typeListing": "article",
      "imageMobile": "/sites/globe.com.ph/files/content/dam/globe/brie/AboutUs/newsroom/consumer/globe-expands-5g-roaming-footprint/sg-5g-map-primary-thumbnail-m.jpg",
      "imageDesktop": "/sites/globe.com.ph/files/content/dam/globe/brie/AboutUs/newsroom/consumer/globe-expands-5g-roaming-footprint/sg-5g-map-primary-thumbnail-d.jpg",
      "description": "Globe 5G roaming now covers Netherlands, Bahrain, New Zealand",
      "datePosted": "Mar 03, 2022 | 09:00 AM",
      "titleFromTag": "Consumer"
    },
    {
      "title": "Globe Continues to Beef up Manpower as Network Restoration in Cebu City Approaches Final Stage",
      "nonclickable": false,
      "openNewTab": false,
      "borderArticle": "border-color:#0074D9;",
      "borderTopArticle": "border-top-color:#0074D9;",
      "imageListing": "/sites/globe.com.ph/files/content/dam/globe/brie/AboutUs/newsroom/corporate/beef-up-manpower-network-restoration-cebu-city/newsroom-corporate-beef-up-manpower-network-thumbnail-listing.jpg",
      "articleUrl": "https://www.globe.com.ph/about-us/newsroom/corporate/beef-up-manpower-network-restoration-cebu-city.html",
      "columnType": "articles--type-3",
      "typeListing": "article",
      "imageMobile": "/sites/globe.com.ph/files/content/dam/globe/brie/AboutUs/newsroom/corporate/beef-up-manpower-network-restoration-cebu-city/newsroom-corporate-beef-up-manpower-network-primary-thumbnail-m.jpg",
      "imageDesktop": "/sites/globe.com.ph/files/content/dam/globe/brie/AboutUs/newsroom/corporate/beef-up-manpower-network-restoration-cebu-city/newsroom-corporate-beef-up-manpower-network-primary-thumbnail-d.jpg",
      "description": "Over 200 Globe teams from around the country joined network restoration efforts in Cebu City, now approaching the final stage.",
      "datePosted": "Mar 01, 2022 | 01:34 PM",
      "titleFromTag": "Corporate"
    },
    {
      "title": "Alternative Credit-Scoring Provider FinScore Achieves 100 PCT Mobile Subscriber Base Coverage in the Philippines",
      "nonclickable": false,
      "openNewTab": false,
      "borderArticle": "border-color:#0074D9;",
      "borderTopArticle": "border-top-color:#0074D9;",
      "imageListing": "/sites/globe.com.ph/files/content/dam/globe/brie/AboutUs/newsroom/partners/finscore-achieves-100-pct-mobile-subscriber-base-coverage/default-corporate-4-thumbnail-listing.jpg",
      "articleUrl": "https://www.globe.com.ph/about-us/newsroom/partners/finscore-achieves-100-pct-mobile-subscriber-base-coverage.html",
      "columnType": "articles--type-3",
      "typeListing": "article",
      "imageMobile": "/sites/globe.com.ph/files/content/dam/globe/brie/AboutUs/newsroom/partners/finscore-achieves-100-pct-mobile-subscriber-base-coverage/default-corporate-4-primary-thumbnail-m.jpg",
      "imageDesktop": "/sites/globe.com.ph/files/content/dam/globe/brie/AboutUs/newsroom/partners/finscore-achieves-100-pct-mobile-subscriber-base-coverage/default-corporate-4-primary-thumbnail-d.jpg",
      "description": "PH-based alternative credit scoring company FinScore has become the 1st company to determine the creditworthiness of 100% of mobile subscribers in the country.",
      "datePosted": "Feb 28, 2022 | 10:45 AM",
      "titleFromTag": "Partners"
    },
    {
      "title": "Globe Connects Cebu Safari and Adventure Park to the World",
      "nonclickable": false,
      "openNewTab": false,
      "borderArticle": "border-color:#0074D9;",
      "borderTopArticle": "border-top-color:#0074D9;",
      "imageListing": "/sites/globe.com.ph/files/content/dam/globe/brie/AboutUs/newsroom/corporate/globe-connects-cebu-safari-adventure-park-to-the-world/newsroom-corporate-cebu-safari-adventure-park-thumbnail-listing.jpg",
      "articleUrl": "https://www.globe.com.ph/about-us/newsroom/corporate/globe-connects-cebu-safari-adventure-park-to-the-world.html",
      "columnType": "articles--type-3",
      "typeListing": "article",
      "imageMobile": "/sites/globe.com.ph/files/content/dam/globe/brie/AboutUs/newsroom/corporate/globe-connects-cebu-safari-adventure-park-to-the-world/newsroom-corporate-cebu-safari-adventure-park-primary-thumbnail-m.jpg",
      "imageDesktop": "/sites/globe.com.ph/files/content/dam/globe/brie/AboutUs/newsroom/corporate/globe-connects-cebu-safari-adventure-park-to-the-world/newsroom-corporate-cebu-safari-adventure-park-primary-thumbnail-d.jpg",
      "description": "The Cebu Safari & Adventure Park partnered with Globe to provide campers, other visitors fast & reliable connectivity in the mountains of Carmen, Northern Cebu.",
      "datePosted": "Feb 28, 2022 | 09:45 AM",
      "titleFromTag": "Corporate"
    },
    {
      "title": "Globe Expects Higher 5G Device Penetration in 2022",
      "nonclickable": false,
      "openNewTab": false,
      "borderArticle": "border-color:#0074D9;",
      "borderTopArticle": "border-top-color:#0074D9;",
      "imageListing": "/sites/globe.com.ph/files/content/dam/globe/brie/AboutUs/newsroom/corporate/globe-expects-higher-5g-device-penetration-2022/newsroom-corporate-expect-higher-5g-penetration-thumbnail-listing.jpg",
      "articleUrl": "https://www.globe.com.ph/about-us/newsroom/corporate/globe-expects-higher-5g-device-penetration-2022.html",
      "columnType": "articles--type-3",
      "typeListing": "article",
      "imageMobile": "/sites/globe.com.ph/files/content/dam/globe/brie/AboutUs/newsroom/corporate/globe-expects-higher-5g-device-penetration-2022/newsroom-corporate-expect-higher-5g-penetration-primary-thumbnail-m.jpg",
      "imageDesktop": "/sites/globe.com.ph/files/content/dam/globe/brie/AboutUs/newsroom/corporate/globe-expects-higher-5g-device-penetration-2022/newsroom-corporate-expect-higher-5g-penetration-primary-thumbnail-d.jpg",
      "description": "Globe projects higher 5G device penetration among its customers this year with the continuous expansion of 5G coverage in the country.",
      "datePosted": "Feb 28, 2022 | 08:59 AM",
      "titleFromTag": "Corporate"
    },
    {
      "title": "Globe, AWS Collaborate on Digital Transformation of PH Businesses",
      "nonclickable": false,
      "openNewTab": false,
      "borderArticle": "border-color:#0074D9;",
      "borderTopArticle": "border-top-color:#0074D9;",
      "imageListing": "/sites/globe.com.ph/files/content/dam/globe/brie/About-us/Newsroom/image/Business/globe-business-022422/newsroom-business-aws-digital-transformation-ph-thumbnail-listing.jpg",
      "articleUrl": "https://www.globe.com.ph/about-us/newsroom/business/globe-aws-digital-transformation-ph-businesses.html",
      "columnType": "articles--type-3",
      "typeListing": "article",
      "imageMobile": "/sites/globe.com.ph/files/content/dam/globe/brie/About-us/Newsroom/image/Business/globe-business-022422/newsroom-business-aws-digital-transformation-ph-primary-thumbnail-m.jpg",
      "imageDesktop": "/sites/globe.com.ph/files/content/dam/globe/brie/About-us/Newsroom/image/Business/globe-business-022422/newsroom-business-aws-digital-transformation-ph-primary-thumbnail-d.jpg",
      "description": "Globe, through Cascadeo and AWS have entered into a strategic collaboration to help digitally transform Philippine businesses thru cloud technology.",
      "datePosted": "Feb 24, 2022 | 01:18 PM",
      "titleFromTag": "Business"
    },
    {
      "title": "Globe Sees Better Prepaid Data Uptake, Higher Mobile Revenues as Pandemic Restrictions Ease ",
      "nonclickable": false,
      "openNewTab": false,
      "borderArticle": "border-color:#0074D9;",
      "borderTopArticle": "border-top-color:#0074D9;",
      "imageListing": "/sites/globe.com.ph/files/content/dam/globe/brie/AboutUs/newsroom/corporate/corporate-2-24-22/newsroom-corporate-better-prepaid-uptake-revenues-thumbnail-listing.jpg",
      "articleUrl": "https://www.globe.com.ph/about-us/newsroom/corporate/better-prepaid-data-uptake-higher-mobile-revenues.html",
      "columnType": "articles--type-3",
      "typeListing": "article",
      "imageMobile": "/sites/globe.com.ph/files/content/dam/globe/brie/AboutUs/newsroom/corporate/corporate-2-24-22/newsroom-corporate-better-prepaid-uptake-revenues-primary-thumbnail-m.jpg",
      "imageDesktop": "/sites/globe.com.ph/files/content/dam/globe/brie/AboutUs/newsroom/corporate/corporate-2-24-22/newsroom-corporate-better-prepaid-uptake-revenues-primary-thumbnail-d.jpg",
      "description": "Globe sees better prepaid data uptake and mobile revenues this year as the government eases pandemic restrictions and the economy begins to open up.",
      "datePosted": "Feb 24, 2022 | 11:47 AM",
      "titleFromTag": "Corporate"
    },
    {
      "title": "Globe Extends Free Calls, Texts, Data to Filipinos in Ukraine amid Tensions",
      "nonclickable": false,
      "openNewTab": false,
      "borderArticle": "border-color:#1C91C5;",
      "borderTopArticle": "border-top-color:#1C91C5;",
      "imageListing": "/sites/globe.com.ph/files/content/dam/globe/brie/AboutUs/newsroom/common/default-3/corporate-default-7-thumbnail-listing.jpg",
      "articleUrl": "https://www.globe.com.ph/about-us/newsroom/sustainability/free-calls-texts-data-ukraine-amid-tensions.html",
      "columnType": "articles--type-3",
      "typeListing": "article",
      "imageMobile": "/sites/globe.com.ph/files/content/dam/globe/brie/AboutUs/newsroom/common/default-3/corporate-default-7-primary-thumbnail-m.jpg",
      "imageDesktop": "/sites/globe.com.ph/files/content/dam/globe/brie/AboutUs/newsroom/common/default-3/corporate-default-7-primary-thumbnail-d.jpg",
      "description": "Globe is providing assistance to Filipinos in Ukraine through free roaming calls, texts, & data to keep in touch with their loved ones back home amid trensions.",
      "datePosted": "Feb 24, 2022 | 08:35 AM",
      "titleFromTag": "Sustainability"
    },
    {
      "title": "Globe Prioritizes Kids’ Online Safety in #MakeITSafePH Campaign",
      "nonclickable": false,
      "openNewTab": false,
      "borderArticle": "border-color:#0074D9;",
      "borderTopArticle": "border-top-color:#0074D9;",
      "imageListing": "/sites/globe.com.ph/files/content/dam/globe/brie/AboutUs/newsroom/citizenship/kids-online-safety-in-makeitsafeph-campaign/newsroom-citizenship-prioritize-kids-online-safety-thumbnail-listing.jpg",
      "articleUrl": "https://www.globe.com.ph/about-us/newsroom/citizenship/globe-prioritizes-kids-online-safety-makeitsafeph.html",
      "columnType": "articles--type-3",
      "typeListing": "article",
      "imageMobile": "/sites/globe.com.ph/files/content/dam/globe/brie/AboutUs/newsroom/citizenship/kids-online-safety-in-makeitsafeph-campaign/newsroom-citizenship-prioritize-kids-online-safety-primary-thumbnail-m.jpg",
      "imageDesktop": "/sites/globe.com.ph/files/content/dam/globe/brie/AboutUs/newsroom/citizenship/kids-online-safety-in-makeitsafeph-campaign/newsroom-citizenship-prioritize-kids-online-safety-primary-thumbnail-d.jpg",
      "description": "Through its #MakeITSafePH campaign, Globe continues to invest in infrastructure that supports the government’s campaign against online child pornography. ",
      "datePosted": "Feb 23, 2022 | 01:29 PM",
      "titleFromTag": "Citizenship"
    },
    {
      "title": "Globe Chief: Network Restoration in Odette-Hit Areas Also Rely on Power Companies",
      "nonclickable": false,
      "openNewTab": false,
      "borderArticle": "border-color:#0074D9;",
      "borderTopArticle": "border-top-color:#0074D9;",
      "imageListing": "/sites/globe.com.ph/files/content/dam/globe/brie/AboutUs/newsroom/consumer/network-restoration-odette-hit-areas-rely-power-companies/newsroom-consumer-bangsamoro-crackdown-illegal-boosters-thumbnail-listing.jpg",
      "articleUrl": "https://www.globe.com.ph/about-us/newsroom/consumer/network-restoration-odette-hit-areas-rely-power-companies.html",
      "columnType": "articles--type-3",
      "typeListing": "article",
      "imageMobile": "/sites/globe.com.ph/files/content/dam/globe/brie/AboutUs/newsroom/consumer/network-restoration-odette-hit-areas-rely-power-companies/newsroom-consumer-bangsamoro-crackdown-illegal-boosters-primary-thumbnail-m.jpg",
      "imageDesktop": "/sites/globe.com.ph/files/content/dam/globe/brie/AboutUs/newsroom/consumer/network-restoration-odette-hit-areas-rely-power-companies/newsroom-consumer-globe-power-restoration-odette-primary-thumbnail-d.jpg",
      "description": "The restoration of telecom services in areas ravaged by Super Typhoon Odette last December depends on several factors and is not solely reliant on telcos.",
      "datePosted": "Feb 23, 2022 | 10:27 AM",
      "titleFromTag": "Consumer"
    }
  ]
}
