{
  "status": 200,
  "page": 77,
  "totalPage": 298,
  "range": "913-924",
  "total": 3573,
  "result": [
    {
      "title": "Amdocs Provides Globe Prepaid WiFi Kits, Aid to Odette Victims",
      "nonclickable": false,
      "openNewTab": false,
      "borderArticle": "border-color:#0074D9;",
      "borderTopArticle": "border-top-color:#0074D9;",
      "imageListing": "/sites/globe.com.ph/files/content/dam/globe/brie/AboutUs/newsroom/partners/amdocs-globe-prepaid-wifi-aid-odette-victims/newsroom-partners-amdocs-provide-wifi-kits-thumbnail-listing.jpg",
      "articleUrl": "https://www.globe.com.ph/about-us/newsroom/partners/amdocs-globe-prepaid-wifi-aid-odette-victims.html",
      "columnType": "articles--type-3",
      "typeListing": "article",
      "imageMobile": "/sites/globe.com.ph/files/content/dam/globe/brie/AboutUs/newsroom/partners/amdocs-globe-prepaid-wifi-aid-odette-victims/newsroom-partners-amdocs-provide-wifi-kits-primary-thumbnail-m.jpg",
      "imageDesktop": "/sites/globe.com.ph/files/content/dam/globe/brie/AboutUs/newsroom/partners/amdocs-globe-prepaid-wifi-aid-odette-victims/newsroom-partners-amdocs-provide-wifi-kits-primary-thumbnail-d.jpg",
      "description": "Globe technology partner, Amdocs, is donating Globe At Home Prepaid WiFi kits to schools and communities hit by Super Typhoon Odette last December.",
      "datePosted": "Feb 23, 2022 | 10:27 AM",
      "titleFromTag": "Partners"
    },
    {
      "title": "Globe Appoints Don Rae as New Senior Advisor for the Enterprise Group",
      "nonclickable": false,
      "openNewTab": false,
      "borderArticle": "border-color:#0074D9;",
      "borderTopArticle": "border-top-color:#0074D9;",
      "imageListing": "/sites/globe.com.ph/files/content/dam/globe/brie/AboutUs/newsroom/corporate/don-rae-as-new-senior-advisor/newsroom-corporate-don-new-senior-advisor-thumbnail-listing.jpg",
      "articleUrl": "https://www.globe.com.ph/about-us/newsroom/corporate/don-rae-new-senior-advisor-enterprise-group.html",
      "columnType": "articles--type-3",
      "typeListing": "article",
      "imageMobile": "/sites/globe.com.ph/files/content/dam/globe/brie/AboutUs/newsroom/corporate/don-rae-as-new-senior-advisor/newsroom-corporate-don-new-senior-advisor-primary-thumbnail-m.jpg",
      "imageDesktop": "/sites/globe.com.ph/files/content/dam/globe/brie/AboutUs/newsroom/corporate/don-rae-as-new-senior-advisor/newsroom-corporate-don-new-senior-advisor-primary-thumbnail-d.jpg",
      "description": "Globe announces the appointment of Don Rae as the new Senior Advisor for the Enterprise Group effective March 31, 2022.",
      "datePosted": "Feb 22, 2022 | 02:05 PM",
      "titleFromTag": "Corporate"
    },
    {
      "title": "Globe, Bangsamoro Telecommunications Commission Intensify Crackdown against Illegal Signal Boosters in BARMM",
      "nonclickable": false,
      "openNewTab": false,
      "borderArticle": "border-color:#0074D9;",
      "borderTopArticle": "border-top-color:#0074D9;",
      "imageListing": "/sites/globe.com.ph/files/content/dam/globe/brie/AboutUs/newsroom/consumer/crackdown-against-illegal-signal-boosters/newsroom-consumer-bangsamoro-crackdown-illegal-boosters-thumbnail-listing.jpg",
      "articleUrl": "https://www.globe.com.ph/about-us/newsroom/consumer/globe-btc-intensify-crackdown-illegal-signal-boosters.html",
      "columnType": "articles--type-3",
      "typeListing": "article",
      "imageMobile": "/sites/globe.com.ph/files/content/dam/globe/brie/AboutUs/newsroom/consumer/crackdown-against-illegal-signal-boosters/newsroom-consumer-bangsamoro-crackdown-illegal-boosters-primary-thumbnail-m.jpg",
      "imageDesktop": "/sites/globe.com.ph/files/content/dam/globe/brie/AboutUs/newsroom/consumer/crackdown-against-illegal-signal-boosters/newsroom-consumer-bangsamoro-crackdown-illegal-boosters-primary-thumbnail-d.jpg",
      "description": "Globe and the Bangsamoro Telecommunications Commission intensified its crackdown against illegal signal boosters that have been causing slow connections.",
      "datePosted": "Feb 22, 2022 | 08:30 AM",
      "titleFromTag": "Consumer"
    },
    {
      "title": "BRAD Expands SME Logistics Solutions outside NCR Sets Eyes on VisMin",
      "nonclickable": false,
      "openNewTab": false,
      "borderArticle": "border-color:#0074D9;",
      "borderTopArticle": "border-top-color:#0074D9;",
      "imageListing": "/sites/globe.com.ph/files/content/dam/globe/brie/AboutUs/newsroom/business/brad-expands-sme-logistics-solutions-outside-ncr/newsroom-business-brad-expands-logistics-thumbnail-listing.jpg",
      "articleUrl": "https://www.globe.com.ph/about-us/newsroom/business/brad-expands-sme-logistics-solutions-outside-ncr.html",
      "columnType": "articles--type-3",
      "typeListing": "article",
      "imageMobile": "/sites/globe.com.ph/files/content/dam/globe/brie/AboutUs/newsroom/business/brad-expands-sme-logistics-solutions-outside-ncr/newsroom-business-brad-expands-logistics-primary-thumbnail-m.jpg",
      "imageDesktop": "/sites/globe.com.ph/files/content/dam/globe/brie/AboutUs/newsroom/business/brad-expands-sme-logistics-solutions-outside-ncr/newsroom-business-brad-expands-logistics-primary-thumbnail-d.jpg",
      "description": "BRAD Warehouse and Logistics Services Inc. is expanding its operations to include small and medium enterprises (SMEs) in Laguna, Rizal, and Bulacan.",
      "datePosted": "Feb 21, 2022 | 11:25 AM",
      "titleFromTag": "Business"
    },
    {
      "title": "Globe Supports PH Economic Recovery through Infra Builds and Upgrades, Job Creation",
      "nonclickable": false,
      "openNewTab": false,
      "borderArticle": "border-color:#0074D9;",
      "borderTopArticle": "border-top-color:#0074D9;",
      "imageListing": "/sites/globe.com.ph/files/content/dam/globe/brie/AboutUs/newsroom/common/default-corporate-9/default-corporate-9-thumbnail-listing.jpg",
      "articleUrl": "https://www.globe.com.ph/about-us/newsroom/consumer/globe-supports-ph-economic-recovery.html",
      "columnType": "articles--type-3",
      "typeListing": "article",
      "imageMobile": "/sites/globe.com.ph/files/content/dam/globe/brie/AboutUs/newsroom/common/default-corporate-9/default-corporate-9-primary-thumbnail-m.jpg",
      "imageDesktop": "/sites/globe.com.ph/files/content/dam/globe/brie/AboutUs/newsroom/common/default-corporate-9/default-corporate-9-primary-thumbnail-d.jpg",
      "description": "Globe is committed to supporting the country on its road to economic recovery as it fast-tracks infrastructure builds and network upgrades and provide jobs.",
      "datePosted": "Feb 21, 2022 | 09:47 AM",
      "titleFromTag": "Consumer"
    },
    {
      "title": "Beyond Telco: Globe on Track to Solidify Position as Digital Solutions Group",
      "nonclickable": false,
      "openNewTab": false,
      "borderArticle": "border-color:#0074D9;",
      "borderTopArticle": "border-top-color:#0074D9;",
      "imageListing": "/sites/globe.com.ph/files/content/dam/globe/brie/AboutUs/newsroom/corporate/globe-on-track-solidify-position-digital-solutions-group/newsroom-corporate-beyond-telco-globe-digital-thumbnail-listing.jpg",
      "articleUrl": "https://www.globe.com.ph/about-us/newsroom/corporate/globe-on-track-solidify-position-digital-solutions-group.html",
      "columnType": "articles--type-3",
      "typeListing": "article",
      "imageMobile": "/sites/globe.com.ph/files/content/dam/globe/brie/AboutUs/newsroom/corporate/globe-on-track-solidify-position-digital-solutions-group/newsroom-corporate-beyond-telco-globe-digital-primary-thumbnail-m.jpg",
      "imageDesktop": "/sites/globe.com.ph/files/content/dam/globe/brie/AboutUs/newsroom/corporate/globe-on-track-solidify-position-digital-solutions-group/newsroom-corporate-beyond-telco-globe-digital-primary-thumbnail-d.jpg",
      "description": "Globe is on track to solidify its expansion into a digital solutions platform as its affiliates and subsidiaries registered strong growth in 2021.",
      "datePosted": "Feb 18, 2022 | 09:49 AM",
      "titleFromTag": "Corporate"
    },
    {
      "title": "‘This isKwela’ For All: Globe Launches Online Education Community Page",
      "nonclickable": false,
      "openNewTab": false,
      "borderArticle": "border-color:#0074D9;",
      "borderTopArticle": "border-top-color:#0074D9;",
      "imageListing": "/sites/globe.com.ph/files/content/dam/globe/brie/AboutUs/newsroom/sustainability/globe-launches-online-education-community-page/newsroom-sustainability-iskwela-for-all-online-page-thumbnail-listing.jpg",
      "articleUrl": "https://www.globe.com.ph/about-us/newsroom/sustainability/globe-launches-online-education-community-page.html",
      "columnType": "articles--type-3",
      "typeListing": "article",
      "imageMobile": "/sites/globe.com.ph/files/content/dam/globe/brie/AboutUs/newsroom/sustainability/globe-launches-online-education-community-page/newsroom-sustainability-iskwela-for-all-online-page-primary-thumbnail-m.jpg",
      "imageDesktop": "/sites/globe.com.ph/files/content/dam/globe/brie/AboutUs/newsroom/sustainability/globe-launches-online-education-community-page/newsroom-sustainability-iskwela-for-all-online-page-primary-thumbnail-d.jpg",
      "description": "Globe has launched a new online education community that aims to spark meaningful and inspiring conversations to elevate learning across digital platforms.",
      "datePosted": "Feb 17, 2022 | 10:51 AM",
      "titleFromTag": "Sustainability"
    },
    {
      "title": "Globe Ambassadors in Tatler’s List of Asia’s Most Influential",
      "nonclickable": false,
      "openNewTab": false,
      "borderArticle": "border-color:#0074D9;",
      "borderTopArticle": "border-top-color:#0074D9;",
      "imageListing": "/sites/globe.com.ph/files/content/dam/globe/brie/AboutUs/newsroom/consumer/globe-ambassadors-tatlers-list-asias-most-influential/newsroom-consumer-ambassadors-tatlers-list-most-influential-thumbnail-listing.jpg",
      "articleUrl": "https://www.globe.com.ph/about-us/newsroom/consumer/globe-ambassadors-tatlers-list-asias-most-influential.html",
      "columnType": "articles--type-3",
      "typeListing": "article",
      "imageMobile": "/sites/globe.com.ph/files/content/dam/globe/brie/AboutUs/newsroom/consumer/globe-ambassadors-tatlers-list-asias-most-influential/newsroom-consumer-ambassadors-tatlers-list-most-influential-primary-thumbnail-m.jpg",
      "imageDesktop": "/sites/globe.com.ph/files/content/dam/globe/brie/AboutUs/newsroom/consumer/globe-ambassadors-tatlers-list-asias-most-influential/newsroom-consumer-ambassadors-tatlers-list-most-influential-primary-thumbnail-d.jpg",
      "description": "Tennis Grand Slam champion Alex Eala, TV personality Kim Atienza, and award-winning actor John Arcilla are part of the 2021 Asia’s Most Influential list.",
      "datePosted": "Feb 17, 2022 | 10:22 AM",
      "titleFromTag": "Consumer"
    },
    {
      "title": "Globe’s Telehealth Services Post Stellar Growth in 2021",
      "nonclickable": false,
      "openNewTab": false,
      "borderArticle": "border-color:#0074D9;",
      "borderTopArticle": "border-top-color:#0074D9;",
      "imageListing": "/sites/globe.com.ph/files/content/dam/globe/brie/AboutUs/newsroom/partners/globe-telehealth-services-stellar-growth-2021/newsroom-partners-telehealth-services-stellar-growth-thumbnail-listing.jpg",
      "articleUrl": "https://www.globe.com.ph/about-us/newsroom/partners/globe-telehealth-services-stellar-growth-2021.html",
      "columnType": "articles--type-3",
      "typeListing": "article",
      "imageMobile": "/sites/globe.com.ph/files/content/dam/globe/brie/AboutUs/newsroom/partners/globe-telehealth-services-stellar-growth-2021/newsroom-partners-telehealth-services-stellar-growth-primary-thumbnail-m.jpg",
      "imageDesktop": "/sites/globe.com.ph/files/content/dam/globe/brie/AboutUs/newsroom/partners/globe-telehealth-services-stellar-growth-2021/newsroom-partners-telehealth-services-stellar-growth-primary-thumbnail-d.jpg",
      "description": "Globe’s KonsultaMD & HealthNow saw strong growth in 2021, boosting their respective user base as more Filipinos adopt digital solutions for their medical needs.",
      "datePosted": "Feb 17, 2022 | 10:03 AM",
      "titleFromTag": "Partners"
    },
    {
      "title": "Globe, PDRF, Private Utility Companies Highlight Need to Strengthen Infrastructure Resilience vs Disasters",
      "nonclickable": false,
      "openNewTab": false,
      "borderArticle": "border-color:#0074D9;",
      "borderTopArticle": "border-top-color:#0074D9;",
      "imageListing": "/sites/globe.com.ph/files/content/dam/globe/brie/AboutUs/newsroom/sustainability/globe-pdrf-private-utility-infrastructure-resilience/newsroom-sustainability-private-companies-need-resilience-thumbnail-listing.jpg",
      "articleUrl": "https://www.globe.com.ph/about-us/newsroom/sustainability/globe-pdrf-private-utility-infrastructure-resilience.html",
      "columnType": "articles--type-3",
      "typeListing": "article",
      "imageMobile": "/sites/globe.com.ph/files/content/dam/globe/brie/AboutUs/newsroom/sustainability/globe-pdrf-private-utility-infrastructure-resilience/newsroom-sustainability-private-companies-need-resilience-primary-thumbnail-m.jpg",
      "imageDesktop": "/sites/globe.com.ph/files/content/dam/globe/brie/AboutUs/newsroom/sustainability/globe-pdrf-private-utility-infrastructure-resilience/newsroom-sustainability-private-companies-need-resilience-primary-thumbnail-d.jpg",
      "description": "Globe creates value through institutional partnerships & local government collaboration, striving for disaster preparedness by spreading information",
      "datePosted": "Feb 16, 2022 | 11:40 AM",
      "titleFromTag": "Sustainability"
    },
    {
      "title": "ABSI Marks Major Milestone, Gears up to Capture Asia-Pacific Market",
      "nonclickable": false,
      "openNewTab": false,
      "borderArticle": "border-color:#0074D9;",
      "borderTopArticle": "border-top-color:#0074D9;",
      "imageListing": "/sites/globe.com.ph/files/content/dam/globe/brie/AboutUs/newsroom/corporate/largest-ph-publicly-listed-telco-digital-solutions-group/Corporate-globe-thumbnail-listing.jpg",
      "articleUrl": "https://www.globe.com.ph/about-us/newsroom/corporate/absi-marks-major-milestone.html",
      "columnType": "articles--type-3",
      "typeListing": "article",
      "imageMobile": "/sites/globe.com.ph/files/content/dam/globe/brie/AboutUs/newsroom/corporate/largest-ph-publicly-listed-telco-digital-solutions-group/Corporate-globe-primary-thumbnail-m.jpg",
      "imageDesktop": "/sites/globe.com.ph/files/content/dam/globe/brie/AboutUs/newsroom/corporate/largest-ph-publicly-listed-telco-digital-solutions-group/Corporate-globe-primary-thumbnail-d.jpg",
      "description": "ABSI celebrates its first anniversary with a major milestone—aiming for expansion in the Asia-Pacific region.",
      "datePosted": "Feb 16, 2022 | 09:50 AM",
      "titleFromTag": "Corporate"
    },
    {
      "title": "Globe, Cascadeo Enter Strategic Collaboration Agreement with AWS",
      "nonclickable": false,
      "openNewTab": false,
      "borderArticle": "border-color:#0074D9;",
      "borderTopArticle": "border-top-color:#0074D9;",
      "imageListing": "/sites/globe.com.ph/files/content/dam/globe/brie/About-us/Newsroom/image/Business/globe-cascadeo-enter-strategic-collaboration/newsroom-corporate-cascadeo-enter-strategic-collaboration-thumbnail-listing.jpg",
      "articleUrl": "https://www.globe.com.ph/about-us/newsroom/business/globe-cascadeo-strategic-collaboration-agreement-aws.html",
      "columnType": "articles--type-3",
      "typeListing": "article",
      "imageMobile": "/sites/globe.com.ph/files/content/dam/globe/brie/About-us/Newsroom/image/Business/globe-cascadeo-enter-strategic-collaboration/newsroom-corporate-cascadeo-enter-strategic-collaboration-primary-thumbnail-m.jpg",
      "imageDesktop": "/sites/globe.com.ph/files/content/dam/globe/brie/About-us/Newsroom/image/Business/globe-cascadeo-enter-strategic-collaboration/newsroom-corporate-cascadeo-enter-strategic-collaboration-primary-banner-d.jpg",
      "description": "Globe Telecom, through Cascadeo—its official cloud division—has announced a Strategic Collaboration Agreement (SCA) with Amazon Web Services (AWS).",
      "datePosted": "Feb 15, 2022 | 01:18 PM",
      "titleFromTag": "Business"
    }
  ]
}
