{
  "status": 200,
  "page": 78,
  "totalPage": 298,
  "range": "925-936",
  "total": 3573,
  "result": [
    {
      "title": "First in the PH: Globe Utilizes uHoo Technology in Monitoring Indoor Air Quality and Employee Health in the Workplace",
      "nonclickable": false,
      "openNewTab": false,
      "borderArticle": "border-color:#0074D9;",
      "borderTopArticle": "border-top-color:#0074D9;",
      "imageListing": "/sites/globe.com.ph/files/content/dam/globe/brie/AboutUs/newsroom/sustainability/globe-utilizes-uhoo-technology/newsroom-sustainability-uhoo-technology-monitor-air-quality-thumbnail-listing.jpg",
      "articleUrl": "https://www.globe.com.ph/about-us/newsroom/sustainability/globe-utilizes-uhoo-technology.html",
      "columnType": "articles--type-3",
      "typeListing": "article",
      "imageMobile": "/sites/globe.com.ph/files/content/dam/globe/brie/AboutUs/newsroom/sustainability/globe-utilizes-uhoo-technology/newsroom-sustainability-uhoo-technology-monitor-air-quality-primary-thumbnail-m.jpg",
      "imageDesktop": "/sites/globe.com.ph/files/content/dam/globe/brie/AboutUs/newsroom/sustainability/globe-utilizes-uhoo-technology/newsroom-sustainability-uhoo-technology-monitor-air-quality-primary-thumbnail-d.jpg",
      "description": "Globe & uHoo have partnered in making The Globe Tower the first building in the Philippines to have 24/7 real-time environmental & coronavirus risk monitoring.",
      "datePosted": "Feb 15, 2022 | 10:56 AM",
      "titleFromTag": "Sustainability"
    },
    {
      "title": "GCash Sustains Growth, Seeks Further Disruption in 2022",
      "nonclickable": false,
      "openNewTab": false,
      "borderArticle": "border-color:#0074D9;",
      "borderTopArticle": "border-top-color:#0074D9;",
      "imageListing": "/sites/globe.com.ph/files/content/dam/globe/brie/AboutUs/newsroom/consumer/gcash-sustains-growth-seeks-further-disruption-in-2022/newsroom-consumer-gcash-sustains-growth-2022-thumbnail-listing.jpg",
      "articleUrl": "https://www.globe.com.ph/about-us/newsroom/consumer/gcash-sustains-growth-seeks-further-disruption.html",
      "columnType": "articles--type-3",
      "typeListing": "article",
      "imageMobile": "/sites/globe.com.ph/files/content/dam/globe/brie/AboutUs/newsroom/consumer/gcash-sustains-growth-seeks-further-disruption-in-2022/newsroom-consumer-gcash-sustains-growth-2022-primary-thumbnail-m.jpg",
      "imageDesktop": "/sites/globe.com.ph/files/content/dam/globe/brie/AboutUs/newsroom/consumer/gcash-sustains-growth-seeks-further-disruption-in-2022/newsroom-consumer-gcash-sustains-growth-2022-primary-thumbnail-d.jpg",
      "description": "Even as pandemic restrictions ease and mobility again increases, GCash sees further expansion this year as it introduces more disruptive services.",
      "datePosted": "Feb 15, 2022 | 10:18 AM",
      "titleFromTag": "Consumer"
    },
    {
      "title": "Anima’s ‘Leonor Will Never Die’ Takes Home 2022 Sundance Film Festival Special Jury Award",
      "nonclickable": false,
      "openNewTab": false,
      "borderArticle": "border-color:#0074D9;",
      "borderTopArticle": "border-top-color:#0074D9;",
      "imageListing": "/sites/globe.com.ph/files/content/dam/globe/brie/About-us/Newsroom/image/Consumer/leonor-will-never-die/newsroom-consumer-leonor-will-never-die-wins-award-thumbnail-listing.jpg",
      "articleUrl": "https://www.globe.com.ph/about-us/newsroom/consumer/anima-leonor-will-never-die-2022-sundance-award.html",
      "columnType": "articles--type-3",
      "typeListing": "article",
      "imageMobile": "/sites/globe.com.ph/files/content/dam/globe/brie/About-us/Newsroom/image/Consumer/leonor-will-never-die/newsroom-consumer-leonor-will-never-die-wins-award-primary-thumbnail-m.jpg",
      "imageDesktop": "/sites/globe.com.ph/files/content/dam/globe/brie/About-us/Newsroom/image/Consumer/leonor-will-never-die/newsroom-consumer-leonor-will-never-die-wins-award-primary-thumbnail-d.jpg",
      "description": "Anima’s feature film “Leonor Will Never Die” recently won an award at the 2022 Sundance Film Festival, receiving an accolade following its rebirth in December.",
      "datePosted": "Feb 15, 2022 | 09:35 AM",
      "titleFromTag": "Consumer"
    },
    {
      "title": "Globe Harnesses Technology to Boost Employee Care amid Pandemic",
      "nonclickable": false,
      "openNewTab": false,
      "borderArticle": "border-color:#0074D9;",
      "borderTopArticle": "border-top-color:#0074D9;",
      "imageListing": "/sites/globe.com.ph/files/content/dam/globe/brie/AboutUs/newsroom/corporate/boost-employee-care-amid-pandemic/newsroom-corporate-boost-employee-care-pandemic-thumbnail-listing.jpg",
      "articleUrl": "https://www.globe.com.ph/about-us/newsroom/corporate/boost-employee-care-amid-pandemic.html",
      "columnType": "articles--type-3",
      "typeListing": "article",
      "imageMobile": "/sites/globe.com.ph/files/content/dam/globe/brie/AboutUs/newsroom/corporate/boost-employee-care-amid-pandemic/newsroom-corporate-boost-employee-care-pandemic-primary-thumbnail-m.jpg",
      "imageDesktop": "/sites/globe.com.ph/files/content/dam/globe/brie/AboutUs/newsroom/corporate/boost-employee-care-amid-pandemic/newsroom-corporate-boost-employee-care-pandemic-thumbnail-d.jpg",
      "description": "Globe continues to enhance its employee care initiatives, leveraging innovative technology for more efficient program delivery as pandemic restrictions remain.",
      "datePosted": "Feb 14, 2022 | 09:37 AM",
      "titleFromTag": "Corporate"
    },
    {
      "title": "Globe Tops the Method Research 2021 Mobile Operators Survey",
      "nonclickable": false,
      "openNewTab": false,
      "borderArticle": "border-color:#0074D9;",
      "borderTopArticle": "border-top-color:#0074D9;",
      "imageListing": "/sites/globe.com.ph/files/content/dam/globe/brie/AboutUs/newsroom/corporate/largest-ph-publicly-listed-telco-digital-solutions-group/Corporate-globe-thumbnail-listing.jpg",
      "articleUrl": "https://www.globe.com.ph/about-us/newsroom/corporate/method-research-2021-mobile-operators-survey.html",
      "columnType": "articles--type-3",
      "typeListing": "article",
      "imageMobile": "/sites/globe.com.ph/files/content/dam/globe/brie/AboutUs/newsroom/corporate/largest-ph-publicly-listed-telco-digital-solutions-group/Corporate-globe-primary-thumbnail-m.jpg",
      "imageDesktop": "/sites/globe.com.ph/files/content/dam/globe/brie/AboutUs/newsroom/corporate/largest-ph-publicly-listed-telco-digital-solutions-group/Corporate-globe-primary-thumbnail-d.jpg",
      "description": "Globe dominated four categories in the Mobile Network Operators 2021 report on the Philippines released for the first time by The Method Research.",
      "datePosted": "Feb 14, 2022 | 09:06 AM",
      "titleFromTag": "Corporate"
    },
    {
      "title": "#MayFurEverWithGlobe: Celebrate V-Day with Special Treats for You and Your Pets",
      "nonclickable": false,
      "openNewTab": false,
      "borderArticle": "border-color:#0074D9;",
      "borderTopArticle": "border-top-color:#0074D9;",
      "imageListing": "/sites/globe.com.ph/files/content/dam/globe/brie/AboutUs/newsroom/consumer/consumer-02152022/newsroom-consumer-mayfureverwithglobe-vday-treats-thumbnail-listing.jpg",
      "articleUrl": "https://www.globe.com.ph/about-us/newsroom/consumer/celebrate-v-day-special-treats-you-your-pets.html",
      "columnType": "articles--type-3",
      "typeListing": "article",
      "imageMobile": "/sites/globe.com.ph/files/content/dam/globe/brie/AboutUs/newsroom/consumer/consumer-02152022/newsroom-consumer-mayfureverwithglobe-vday-treats-primary-thumbnail-m.jpg",
      "imageDesktop": "/sites/globe.com.ph/files/content/dam/globe/brie/AboutUs/newsroom/consumer/consumer-02152022/newsroom-consumer-mayfureverwithglobe-vday-treats-primary-thumbnail-d.jpg",
      "description": "This Valentine’s Day, Globe is putting the spotlight on our pet friends, furry or otherwise, with special treats that they can enjoy with their humans. ",
      "datePosted": "Feb 14, 2022 | 08:31 AM",
      "titleFromTag": "Consumer"
    },
    {
      "title": "No More Sana All as Globe Brings #Loveforall with ‘2gether the Movie’ This V-Day",
      "nonclickable": false,
      "openNewTab": false,
      "borderArticle": "border-color:#0074D9;",
      "borderTopArticle": "border-top-color:#0074D9;",
      "imageListing": "/sites/globe.com.ph/files/content/dam/globe/brie/AboutUs/newsroom/consumer/no-more-sana-all/newsroom-consumer-loveforall-2gether-movie-vday-thumbnail-listing.jpg",
      "articleUrl": "https://www.globe.com.ph/about-us/newsroom/consumer/loveforall-2gether-the-movie-valentines-day.html",
      "columnType": "articles--type-3",
      "typeListing": "article",
      "imageMobile": "/sites/globe.com.ph/files/content/dam/globe/brie/AboutUs/newsroom/consumer/no-more-sana-all/newsroom-consumer-loveforall-2gether-movie-vday-primary-thumbnail-m.jpg",
      "imageDesktop": "/sites/globe.com.ph/files/content/dam/globe/brie/AboutUs/newsroom/consumer/no-more-sana-all/newsroom-consumer-loveforall-2gether-movie-vday-primary-thumbnail-d.jpg",
      "description": "Globe brings #LoveForAll with the release of “2gether The Movie,” a film that perfectly fits the you-complete-me theme this season of love.",
      "datePosted": "Feb 11, 2022 | 03:08 PM",
      "titleFromTag": "Consumer"
    },
    {
      "title": "Purpose Powers Globe’s Drive for Constant Innovation",
      "nonclickable": false,
      "openNewTab": false,
      "borderArticle": "border-color:#0074D9;",
      "borderTopArticle": "border-top-color:#0074D9;",
      "imageListing": "/sites/globe.com.ph/files/content/dam/globe/brie/AboutUs/newsroom/corporate/purpose-powers-globes-drive-constant-innovation/newsroom-corporate-purpose-powers-globes-innovation-thumbnail-listing.jpg",
      "articleUrl": "https://www.globe.com.ph/about-us/newsroom/corporate/purpose-powers-globes-drive-constant-innovation.html",
      "columnType": "articles--type-3",
      "typeListing": "article",
      "imageMobile": "/sites/globe.com.ph/files/content/dam/globe/brie/AboutUs/newsroom/corporate/purpose-powers-globes-drive-constant-innovation/newsroom-corporate-purpose-powers-globes-innovation-primary-thumbnail-m.jpg",
      "imageDesktop": "/sites/globe.com.ph/files/content/dam/globe/brie/AboutUs/newsroom/corporate/purpose-powers-globes-drive-constant-innovation/newsroom-corporate-purpose-powers-globes-innovation-primary-thumbnail-d.jpg",
      "description": "For Globe, staying true to its purpose of creating a Globe of Good means leveraging innovation to come up with products and services that help customers.",
      "datePosted": "Feb 11, 2022 | 08:01 AM",
      "titleFromTag": "Corporate"
    },
    {
      "title": "Globe Calls for Stronger Cybercrime Law, ‘Rational’ Enforcement of SIM Card Registration Act Once Enacted",
      "nonclickable": false,
      "openNewTab": false,
      "borderArticle": "border-color:#0074D9;",
      "borderTopArticle": "border-top-color:#0074D9;",
      "imageListing": "/sites/globe.com.ph/files/content/dam/globe/brie/AboutUs/newsroom/corporate/799-permits-1q-2021-new-towers/default-corporate-9-thumbnail-listing.jpg",
      "articleUrl": "https://www.globe.com.ph/about-us/newsroom/citizenship/globe-calls-for-stronger-cybercrime-law.html",
      "columnType": "articles--type-3",
      "typeListing": "article",
      "imageMobile": "/sites/globe.com.ph/files/content/dam/globe/brie/AboutUs/newsroom/corporate/799-permits-1q-2021-new-towers/default-corporate-9-primary-thumbnail-m.jpg",
      "imageDesktop": "/sites/globe.com.ph/files/content/dam/globe/brie/AboutUs/newsroom/corporate/799-permits-1q-2021-new-towers/default-corporate-9-primary-thumbnail-d.jpg",
      "description": "Globe has called for a stronger cybercrime law and the rational enforcement of the SIM Card Registration Act upon its enactment to protect Filipinos.",
      "datePosted": "Feb 11, 2022 | 08:00 AM",
      "titleFromTag": "Citizenship"
    },
    {
      "title": "Globe, GCash Top Execs Named in Tatler’s 2021 Asia’s Most Influential List",
      "nonclickable": false,
      "openNewTab": false,
      "borderArticle": "border-color:#0074D9;",
      "borderTopArticle": "border-top-color:#0074D9;",
      "imageListing": "/sites/globe.com.ph/files/content/dam/globe/brie/AboutUs/newsroom/corporate/largest-ph-publicly-listed-telco-digital-solutions-group/Corporate-globe-thumbnail-listing.jpg",
      "articleUrl": "https://www.globe.com.ph/about-us/newsroom/corporate/globe-gcash-top-execs-tatlers-asia-most-infuential-list.html",
      "columnType": "articles--type-3",
      "typeListing": "article",
      "imageMobile": "/sites/globe.com.ph/files/content/dam/globe/brie/AboutUs/newsroom/corporate/largest-ph-publicly-listed-telco-digital-solutions-group/Corporate-globe-primary-thumbnail-m.jpg",
      "imageDesktop": "/sites/globe.com.ph/files/content/dam/globe/brie/AboutUs/newsroom/corporate/largest-ph-publicly-listed-telco-digital-solutions-group/Corporate-globe-primary-thumbnail-d.jpg",
      "description": "Globe President and CEO Ernest Cu and GCash President and CEO Martha Sazon are among personalities on Tatler Magazine’s 2021 Asia’s Most Influential list.",
      "datePosted": "Feb 10, 2022 | 09:08 AM",
      "titleFromTag": "Corporate"
    },
    {
      "title": "Globe Business, TNL Tech Solutions Make Digital Learning Accessible to over 5,000 Students in Valenzuela City",
      "nonclickable": false,
      "openNewTab": false,
      "borderArticle": "border-color:#0074D9;",
      "borderTopArticle": "border-top-color:#0074D9;",
      "imageListing": "/sites/globe.com.ph/files/content/dam/globe/brie/AboutUs/newsroom/business/tech-solutions-make-digital-learning-accessible/newsroom-business-TNL-digital-learning-accessible-thumbnail-listing.jpeg",
      "articleUrl": "https://www.globe.com.ph/about-us/newsroom/business/tnl-tech-solutions-digital-learning-accessible-valenzuela-city.html",
      "columnType": "articles--type-3",
      "typeListing": "article",
      "imageMobile": "/sites/globe.com.ph/files/content/dam/globe/brie/AboutUs/newsroom/business/tech-solutions-make-digital-learning-accessible/newsroom-business-TNL-digital-learning-accessible-primary-thumbnail-m.jpg",
      "imageDesktop": "/sites/globe.com.ph/files/content/dam/globe/brie/AboutUs/newsroom/business/tech-solutions-make-digital-learning-accessible/newsroom-business-TNL-digital-learning-accessible-primary-thumbnail-d.jpg",
      "description": "Globe Business and TNL Tech Solutions forged a partnership to make digital learning more accessible and more affordable.",
      "datePosted": "Feb 08, 2022 | 02:50 PM",
      "titleFromTag": "Business"
    },
    {
      "title": "#MakeITSafePH: Globe, Unicef, IWf Highlight Need for Cooperation to Protect Children vs Online Abuse and Sexual Exploitation",
      "nonclickable": false,
      "openNewTab": false,
      "borderArticle": "border-color:#0074D9;",
      "borderTopArticle": "border-top-color:#0074D9;",
      "imageListing": "/sites/globe.com.ph/files/content/dam/globe/brie/AboutUs/newsroom/citizenship/cooperation-to-protect-children-vs-online-abuse-and-sexual-exploitation/v2/newsroom-citizenship-makeitsafeph-cooperation-protect-children-thumbnail-listing.jpg",
      "articleUrl": "https://www.globe.com.ph/about-us/newsroom/citizenship/globe-unicef-iwf-protect-children-online-abuse.html",
      "columnType": "articles--type-3",
      "typeListing": "article",
      "imageMobile": "/sites/globe.com.ph/files/content/dam/globe/brie/AboutUs/newsroom/citizenship/cooperation-to-protect-children-vs-online-abuse-and-sexual-exploitation/v2/newsroom-citizenship-makeitsafeph-cooperation-protect-children-primary-thumbnail-m.jpg",
      "imageDesktop": "/sites/globe.com.ph/files/content/dam/globe/brie/AboutUs/newsroom/citizenship/cooperation-to-protect-children-vs-online-abuse-and-sexual-exploitation/v2/newsroom-citizenship-makeitsafeph-cooperation-protect-children-primary-thumbnail-d.jpg",
      "description": "Globe vowed to continue efforts to provide a platform for collaboration among key stakeholders to fight Online Sexual Abuse and Exploitation of Children.",
      "datePosted": "Feb 08, 2022 | 12:11 PM",
      "titleFromTag": "Citizenship"
    }
  ]
}
