{
  "status": 200,
  "page": 79,
  "totalPage": 298,
  "range": "937-948",
  "total": 3573,
  "result": [
    {
      "title": "Globe 5G Data Traffic Zooms 27 Times in 2021",
      "nonclickable": false,
      "openNewTab": false,
      "borderArticle": "border-color:#0074D9;",
      "borderTopArticle": "border-top-color:#0074D9;",
      "imageListing": "/sites/globe.com.ph/files/content/dam/globe/brie/AboutUs/newsroom/corporate/799-permits-1q-2021-new-towers/default-corporate-9-thumbnail-listing.jpg",
      "articleUrl": "https://www.globe.com.ph/about-us/newsroom/corporate/5g-data-traffic-zooms-27-times.html",
      "columnType": "articles--type-3",
      "typeListing": "article",
      "imageMobile": "/sites/globe.com.ph/files/content/dam/globe/brie/AboutUs/newsroom/corporate/799-permits-1q-2021-new-towers/default-corporate-9-primary-thumbnail-m.jpg",
      "imageDesktop": "/sites/globe.com.ph/files/content/dam/globe/brie/AboutUs/newsroom/corporate/799-permits-1q-2021-new-towers/default-corporate-9-primary-thumbnail-d.jpg",
      "description": "Globe booked a massive 27x increase in monthly data traffic on its 5G network, growing by as much as 35.2% month-on-month, with NCR, Cebu, & Davao del Sur.",
      "datePosted": "Feb 08, 2022 | 08:07 AM",
      "titleFromTag": "Corporate"
    },
    {
      "title": "Globe Blocks 1.15B Scam, Spam Messages in 2021",
      "nonclickable": false,
      "openNewTab": false,
      "borderArticle": "border-color:#0074D9;",
      "borderTopArticle": "border-top-color:#0074D9;",
      "imageListing": "/sites/globe.com.ph/files/content/dam/globe/brie/AboutUs/newsroom/common/default-3/corporate-default-7-thumbnail-listing.jpg",
      "articleUrl": "https://www.globe.com.ph/about-us/newsroom/citizenship/globe-blocks-scam-spam-messages.html",
      "columnType": "articles--type-3",
      "typeListing": "article",
      "imageMobile": "/sites/globe.com.ph/files/content/dam/globe/brie/AboutUs/newsroom/common/default-3/corporate-default-7-primary-thumbnail-m.jpg",
      "imageDesktop": "/sites/globe.com.ph/files/content/dam/globe/brie/AboutUs/newsroom/common/default-3/corporate-default-7-primary-thumbnail-d.jpg",
      "description": "Globe announced that it blocked over a billion scam and spam messages and thousands of scammers’ mobile numbers in 2021 to further boost customer protection.",
      "datePosted": "Feb 07, 2022 | 08:01 AM",
      "titleFromTag": "Citizenship"
    },
    {
      "title": "#StopOnlineChildAbuse: Globe Marks Safer Internet Day with Webinar on Online Child Safety and Protection",
      "nonclickable": false,
      "openNewTab": false,
      "borderArticle": "border-color:#0074D9;",
      "borderTopArticle": "border-top-color:#0074D9;",
      "imageListing": "/sites/globe.com.ph/files/content/dam/globe/brie/AboutUs/newsroom/citizenship/safer-internet-day-webinar-online-child-safety-protection/newsroom-citizenship-globe-gathering-stakeholders-thumbnail-listing.jpg",
      "articleUrl": "https://www.globe.com.ph/about-us/newsroom/citizenship/safer-internet-day-webinar-online-child-safety-protection.html",
      "columnType": "articles--type-3",
      "typeListing": "article",
      "imageMobile": "/sites/globe.com.ph/files/content/dam/globe/brie/AboutUs/newsroom/citizenship/safer-internet-day-webinar-online-child-safety-protection/newsroom-citizenship-globe-gathering-stakeholders-primary-thumbnail-m.jpg",
      "imageDesktop": "/sites/globe.com.ph/files/content/dam/globe/brie/AboutUs/newsroom/citizenship/safer-internet-day-webinar-online-child-safety-protection/newsroom-citizenship-globe-gathering-stakeholders-primary-thumbnail-d.jpg",
      "description": "Globe seeks to boost awareness and push for sustained action towards the protection of children against online sexual abuse and exploitation.",
      "datePosted": "Feb 05, 2022 | 02:31 PM",
      "titleFromTag": "Citizenship"
    },
    {
      "title": "917Ventures Delivers Seamless Digital Solutions to Hyperconnected Customers",
      "nonclickable": false,
      "openNewTab": false,
      "borderArticle": "border-color:#0074D9;",
      "borderTopArticle": "border-top-color:#0074D9;",
      "imageListing": "/sites/globe.com.ph/files/content/dam/globe/brie/AboutUs/newsroom/917ventures/seamless-digital-solutions-hyperconnected-customers/newsroom-917ventures-digital-solutions-to-hyperconnected-customers-thumbnail-listing.jpg",
      "articleUrl": "https://www.globe.com.ph/about-us/newsroom/917ventures/seamless-digital-solutions-hyperconnected-customers.html",
      "columnType": "articles--type-3",
      "typeListing": "article",
      "imageMobile": "/sites/globe.com.ph/files/content/dam/globe/brie/AboutUs/newsroom/917ventures/seamless-digital-solutions-hyperconnected-customers/newsroom-917ventures-digital-solutions-to-hyperconnected-customers-primary-thumbnail-m.jpg",
      "imageDesktop": "/sites/globe.com.ph/files/content/dam/globe/brie/AboutUs/newsroom/917ventures/seamless-digital-solutions-hyperconnected-customers/newsroom-917ventures-digital-solutions-to-hyperconnected-customers-primary-thumbnail-d.jpg",
      "description": "In this new normal, hyperconnected Filipinos needed innovative digital solutions and 917Ventures, Globe’s non-telco subsidiary, has risen to such challenge.",
      "datePosted": "Feb 04, 2022 | 04:20 PM",
      "titleFromTag": "917Ventures"
    },
    {
      "title": "Unpacking Cybersecurity: Examining Its Gears with Today’s CISOs",
      "nonclickable": false,
      "openNewTab": false,
      "borderArticle": "border-color:#0074D9;",
      "borderTopArticle": "border-top-color:#0074D9;",
      "imageListing": "/sites/globe.com.ph/files/content/dam/globe/brie/AboutUs/newsroom/business/cybersecurity-examining-gears-todays-cisos/newsroom-business-unpacking-cybersecurity-cisos-thumbnail-listing.jpg",
      "articleUrl": "https://www.globe.com.ph/about-us/newsroom/business/cybersecurity-examining-gears-todays-cisos.html",
      "columnType": "articles--type-3",
      "typeListing": "article",
      "imageMobile": "/sites/globe.com.ph/files/content/dam/globe/brie/AboutUs/newsroom/business/cybersecurity-examining-gears-todays-cisos/newsroom-business-unpacking-cybersecurity-cisos-primary-thumbnail-m.jpg",
      "imageDesktop": "/sites/globe.com.ph/files/content/dam/globe/brie/AboutUs/newsroom/business/cybersecurity-examining-gears-todays-cisos/newsroom-business-unpacking-cybersecurity-cisos-primary-thumbnail-d.jpg",
      "description": "Cybersecurity is the practice of deploying people, policies, processes, technologies to protect organizations, their critical systems, & sensitive information.",
      "datePosted": "Feb 04, 2022 | 11:18 AM",
      "titleFromTag": "Business"
    },
    {
      "title": "Globe Network Closes 2021 with Substantial Improvements across All Ookla Metrics",
      "nonclickable": false,
      "openNewTab": false,
      "borderArticle": "border-color:#0074D9;",
      "borderTopArticle": "border-top-color:#0074D9;",
      "imageListing": "/sites/globe.com.ph/files/content/dam/globe/brie/AboutUs/newsroom/corporate/799-permits-1q-2021-new-towers/default-corporate-9-thumbnail-listing.jpg",
      "articleUrl": "https://www.globe.com.ph/about-us/newsroom/corporate/globe-network-closes-2021-substantial-improvements.html",
      "columnType": "articles--type-3",
      "typeListing": "article",
      "imageMobile": "/sites/globe.com.ph/files/content/dam/globe/brie/AboutUs/newsroom/corporate/799-permits-1q-2021-new-towers/default-corporate-9-primary-thumbnail-m.jpg",
      "imageDesktop": "/sites/globe.com.ph/files/content/dam/globe/brie/AboutUs/newsroom/corporate/799-permits-1q-2021-new-towers/default-corporate-9-primary-thumbnail-d.jpg",
      "description": "According to Ookla®’s Q4 2021 data, Globe registered a 51% improvement on download speeds and 24% on upload speeds, versus its Q1 2021 performance.",
      "datePosted": "Feb 03, 2022 | 10:05 AM",
      "titleFromTag": "Corporate"
    },
    {
      "title": "Shift to an Eco-Conscious Lifestyle with Globe eSIM and Eco-SIM",
      "nonclickable": false,
      "openNewTab": false,
      "borderArticle": "border-color:#0074D9;",
      "borderTopArticle": "border-top-color:#0074D9;",
      "imageListing": "/sites/globe.com.ph/files/content/dam/globe/brie/AboutUs/newsroom/sustainability/eco-conscious-lifestyle-globe-esim-eco-sim/newsroom-sustainability-shift-lifestyle-esim-ecosim-thumbnail-listing.jpg",
      "articleUrl": "https://www.globe.com.ph/about-us/newsroom/sustainability/eco-conscious-lifestyle-globe-esim-eco-sim.html",
      "columnType": "articles--type-3",
      "typeListing": "article",
      "imageMobile": "/sites/globe.com.ph/files/content/dam/globe/brie/AboutUs/newsroom/sustainability/eco-conscious-lifestyle-globe-esim-eco-sim/newsroom-sustainability-shift-lifestyle-esim-ecosim-primary-thumbnail-m.jpg",
      "imageDesktop": "/sites/globe.com.ph/files/content/dam/globe/brie/AboutUs/newsroom/sustainability/eco-conscious-lifestyle-globe-esim-eco-sim/newsroom-sustainability-shift-lifestyle-esim-ecosim-primary-thumbnail-d.jpg",
      "description": "Globe encourages its customers to further support sustainable living and contribute to reversing environmental damage through the eSIM and Eco-SIM.",
      "datePosted": "Feb 02, 2022 | 09:40 AM",
      "titleFromTag": "Sustainability"
    },
    {
      "title": "More Globe Customers Enjoy Improved Network Experience with New, Upgraded LTE Sites",
      "nonclickable": false,
      "openNewTab": false,
      "borderArticle": "border-color:#0074D9;",
      "borderTopArticle": "border-top-color:#0074D9;",
      "imageListing": "/sites/globe.com.ph/files/content/dam/globe/brie/AboutUs/newsroom/consumer/improved-network-experience-new-upgraded-lte-sites/newsroom-consumer-more-customers-enjoy-lte-thumbnail-listing.jpg",
      "articleUrl": "https://www.globe.com.ph/about-us/newsroom/consumer/improved-network-experience-new-upgraded-lte-sites.html",
      "columnType": "articles--type-3",
      "typeListing": "article",
      "imageMobile": "/sites/globe.com.ph/files/content/dam/globe/brie/AboutUs/newsroom/consumer/improved-network-experience-new-upgraded-lte-sites/newsroom-consumer-more-customers-enjoy-lte-primary-thumbnail-m.jpg",
      "imageDesktop": "/sites/globe.com.ph/files/content/dam/globe/brie/AboutUs/newsroom/consumer/improved-network-experience-new-upgraded-lte-sites/newsroom-consumer-more-customers-enjoy-lte-primary-thumbnail-d.jpg",
      "description": "For the months of September & October 2021, Globe built 195 new cell sites & upgraded 2,800 sites with LTE technology in 706 towns & cities across 81 provinces.",
      "datePosted": "Feb 02, 2022 | 08:48 AM",
      "titleFromTag": "Consumer"
    },
    {
      "title": "GCash Breaks Barriers to Further Boost Financial Inclusion in PH",
      "nonclickable": false,
      "openNewTab": false,
      "borderArticle": "border-color:#0074D9;",
      "borderTopArticle": "border-top-color:#0074D9;",
      "imageListing": "/sites/globe.com.ph/files/content/dam/globe/brie/AboutUs/newsroom/consumer/gcash-breaks-barriers-boost-financial-inclusion/newsroom-consumer-gcash-boost-financial-inclusion-thumbnail-listing.jpg",
      "articleUrl": "https://www.globe.com.ph/about-us/newsroom/consumer/gcash-breaks-barriers-boost-financial-inclusion.html",
      "columnType": "articles--type-3",
      "typeListing": "article",
      "imageMobile": "/sites/globe.com.ph/files/content/dam/globe/brie/AboutUs/newsroom/consumer/gcash-breaks-barriers-boost-financial-inclusion/newsroom-consumer-gcash-boost-financial-inclusion-primary-thumbnail-m.jpg",
      "imageDesktop": "/sites/globe.com.ph/files/content/dam/globe/brie/AboutUs/newsroom/consumer/gcash-breaks-barriers-boost-financial-inclusion/newsroom-consumer-gcash-boost-financial-inclusion-primary-thumbnail-d.jpg",
      "description": "GCash continues to break barriers to bring financial inclusion to more Filipinos nationwide, racking up over 51 million users and 3,500 merchants.",
      "datePosted": "Jan 31, 2022 | 03:35 PM",
      "titleFromTag": "Consumer"
    },
    {
      "title": "From Zero to Hero:  With Globe’s #1stWorldNetwork, Remote N. Cotabato Village Says Hello to LTE, Bids Goodbye to Snail Mail",
      "nonclickable": false,
      "openNewTab": false,
      "borderArticle": "border-color:#0074D9;",
      "borderTopArticle": "border-top-color:#0074D9;",
      "imageListing": "/sites/globe.com.ph/files/content/dam/globe/brie/AboutUs/newsroom/citizenship/remote-north-cotabato-village-lte/newsroom-citizenship-n.cotabato-hello-to-lte-thumbnail-listing.jpg",
      "articleUrl": "https://www.globe.com.ph/about-us/newsroom/citizenship/remote-north-cotabato-village-lte.html",
      "columnType": "articles--type-3",
      "typeListing": "article",
      "imageMobile": "/sites/globe.com.ph/files/content/dam/globe/brie/AboutUs/newsroom/citizenship/remote-north-cotabato-village-lte/newsroom-citizenship-n.cotabato-hello-to-lte-primary-thumbnail-m.jpg",
      "imageDesktop": "/sites/globe.com.ph/files/content/dam/globe/brie/AboutUs/newsroom/citizenship/remote-north-cotabato-village-lte/newsroom-citizenship-n.cotabato-hello-to-lte-primary-thumbnail-d.jpg",
      "description": "The construction of a Globe cell site equipped with 4G LTE in Brgy. Dado in Alamada, North Cotabato brought hope & happiness to families separated by distance.",
      "datePosted": "Jan 31, 2022 | 03:30 PM",
      "titleFromTag": "Citizenship"
    },
    {
      "title": "Globe, NPC Partner to Boost Privacy Security Awareness and Education among Children",
      "nonclickable": false,
      "openNewTab": false,
      "borderArticle": "border-color:#0074D9;",
      "borderTopArticle": "border-top-color:#0074D9;",
      "imageListing": "/sites/globe.com.ph/files/content/dam/globe/brie/About-us/Newsroom/image/Partners/013122/newsroom-partners-boost-privacy-awareness-children-thumbnail-listing.jpg",
      "articleUrl": "https://www.globe.com.ph/about-us/newsroom/partners/globe-npc-privacy-security-awareness-education-children.html",
      "columnType": "articles--type-3",
      "typeListing": "article",
      "imageMobile": "/sites/globe.com.ph/files/content/dam/globe/brie/About-us/Newsroom/image/Partners/013122/newsroom-partners-boost-privacy-awareness-children-primary-thumbnail-m.jpg",
      "imageDesktop": "/sites/globe.com.ph/files/content/dam/globe/brie/About-us/Newsroom/image/Partners/013122/newsroom-partners-boost-privacy-awareness-children-primary-thumbnail-d.jpg",
      "description": "Globe teamed up with the NPC in the Kabataang Digital Program, which aims to spread awareness among kids on how they can protect themselves online.",
      "datePosted": "Jan 31, 2022 | 09:20 AM",
      "titleFromTag": "Partners"
    },
    {
      "title": "Globe At Home Prepaid WiFi Modem Now More Affordable, Perfect for Every Filipino Family!",
      "nonclickable": false,
      "openNewTab": false,
      "borderArticle": "border-color:#0074D9;",
      "borderTopArticle": "border-top-color:#0074D9;",
      "imageListing": "/sites/globe.com.ph/files/content/dam/globe/brie/AboutUs/newsroom/consumer/Globe-At-Home-Prepaid-WiFi-Modem-Now-More-Affordable/newsroom-consumer-gah-prepaid-more-affordable-thumbnail-listing.jpg",
      "articleUrl": "https://www.globe.com.ph/about-us/newsroom/consumer/prepaid-wifi-modem-more-affordable.html",
      "columnType": "articles--type-3",
      "typeListing": "article",
      "imageMobile": "/sites/globe.com.ph/files/content/dam/globe/brie/AboutUs/newsroom/consumer/Globe-At-Home-Prepaid-WiFi-Modem-Now-More-Affordable/newsroom-consumer-gah-prepaid-more-affordable-primary-thumbnail-m.jpg",
      "imageDesktop": "/sites/globe.com.ph/files/content/dam/globe/brie/AboutUs/newsroom/consumer/Globe-At-Home-Prepaid-WiFi-Modem-Now-More-Affordable/newsroom-consumer-gah-prepaid-more-affordable-primary-thumbnail-d.jpg",
      "description": "Globe At Home Prepaid WiFi is now available at more affordable prices, becoming more accessible to millions of Filipinos in need of reliable connection.",
      "datePosted": "Jan 28, 2022 | 12:44 PM",
      "titleFromTag": "Consumer"
    }
  ]
}
