{
  "status": 200,
  "page": 8,
  "totalPage": 298,
  "range": "85-96",
  "total": 3573,
  "result": [
    {
      "title": "Globe CEO Ernest Cu: Philippines a ‘Great Alternative’ for Sea Hyperscalers",
      "nonclickable": false,
      "openNewTab": false,
      "borderArticle": "border-color:#0074D9;",
      "borderTopArticle": "border-top-color:#0074D9;",
      "imageListing": "/sites/globe.com.ph/files/content/dam/globe/brie/AboutUs/newsroom/corporate/customer-centric-initiatives-heart-1stworldnetwork/newsroom-corporate-customer-centric-initiatives-thumbnail-listing.jpg",
      "articleUrl": "https://www.globe.com.ph/about-us/newsroom/corporate/ernest-cu-philippines-a-great-alternative-for-sea-hyperscalers.html",
      "columnType": "articles--type-3",
      "typeListing": "article",
      "imageMobile": "/sites/globe.com.ph/files/content/dam/globe/brie/AboutUs/newsroom/corporate/customer-centric-initiatives-heart-1stworldnetwork/newsroom-corporate-customer-centric-initiatives-primary-thumbnail-m.jpg",
      "imageDesktop": "/sites/globe.com.ph/files/content/dam/globe/brie/AboutUs/newsroom/corporate/customer-centric-initiatives-heart-1stworldnetwork/newsroom-corporate-customer-centric-initiatives-primary-thumbnail-d.jpg",
      "description": "Globe CEO Ernest Cu cited the company’s venture into the data business with the intent to own the space in the next few years.",
      "datePosted": "Oct 05, 2023 | 10:54 AM",
      "titleFromTag": "Corporate"
    },
    {
      "title": "A Purpose-Driven Celebration: Globe's G Day Activities Highlight Hapag Movement",
      "nonclickable": false,
      "openNewTab": false,
      "borderArticle": "border-color:#0074D9;",
      "borderTopArticle": "border-top-color:#0074D9;",
      "imageListing": "/sites/globe.com.ph/files/content/dam/globe/brie/AboutUs/newsroom/sustainability/a-purpose-driven-celebration-globe-g-day/NEWSROOM-SUSTAINABILITY-A-purpose-driven-celebration-Globe_s-G-Day-activities-highlight-Hapag-Movement-thumbnail-listing.jpg",
      "articleUrl": "https://www.globe.com.ph/about-us/newsroom/sustainability/g-day-activities-highlight-the-hapag-movement.html",
      "columnType": "articles--type-3",
      "typeListing": "article",
      "imageMobile": "/sites/globe.com.ph/files/content/dam/globe/brie/AboutUs/newsroom/sustainability/a-purpose-driven-celebration-globe-g-day/NEWSROOM-SUSTAINABILITY-A-purpose-driven-celebration-Globe_s-G-Day-activities-highlight-Hapag-Movement-primary-thumbnail-m.jpg",
      "imageDesktop": "/sites/globe.com.ph/files/content/dam/globe/brie/AboutUs/newsroom/sustainability/a-purpose-driven-celebration-globe-g-day/NEWSROOM-SUSTAINABILITY-A-purpose-driven-celebration-Globe_s-G-Day-activities-highlight-Hapag-Movement-primary-thumbnail-d.jpg",
      "description": "Globe integrates Hapag Movement in G Day on-ground events, encouraging its customers to support the cause against hunger. ",
      "datePosted": "Oct 03, 2023 | 04:31 PM",
      "titleFromTag": "Sustainability"
    },
    {
      "title": "Globe Business Brings New Perspectives on Enterprise Sustainability and Resilience in G Summit 2023",
      "nonclickable": false,
      "openNewTab": false,
      "borderArticle": "border-color:#0074D9;",
      "borderTopArticle": "border-top-color:#0074D9;",
      "imageListing": "/sites/globe.com.ph/files/content/dam/globe/brie/AboutUs/newsroom/business/globe-business-brings-new-perspectives-g-summit-2023/b2b-gsummit-thumbnail-listing.jpg",
      "articleUrl": "https://www.globe.com.ph/about-us/newsroom/business/globe-business-brings-new-perspectives-g-summit-2023.html",
      "columnType": "articles--type-3",
      "typeListing": "article",
      "imageMobile": "/sites/globe.com.ph/files/content/dam/globe/brie/AboutUs/newsroom/business/globe-business-brings-new-perspectives-g-summit-2023/b2b-gsummit-primary-thumbnail-m.jpg",
      "imageDesktop": "/sites/globe.com.ph/files/content/dam/globe/brie/AboutUs/newsroom/business/globe-business-brings-new-perspectives-g-summit-2023/b2b-gsummit-primary-thumbnail-d.jpg",
      "description": "Globe Business kicks of G Summit 2023 with the theme: Phase: Forward, sharing fresh perspectives for a sustainable and resilient business. ",
      "datePosted": "Oct 03, 2023 | 02:32 PM",
      "titleFromTag": "Business"
    },
    {
      "title": "Globe Champions Energy Consciousness in Energize 2023",
      "nonclickable": false,
      "openNewTab": false,
      "borderArticle": "border-color:#0074D9;",
      "borderTopArticle": "border-top-color:#0074D9;",
      "imageListing": "/sites/globe.com.ph/files/content/dam/globe/brie/AboutUs/newsroom/common/default-corporate-main/newsroom-default-corporate-thumbnail-listing.jpg",
      "articleUrl": "https://www.globe.com.ph/about-us/newsroom/sustainability/energy-consciousness-energize-2023.html",
      "columnType": "articles--type-3",
      "typeListing": "article",
      "imageMobile": "/sites/globe.com.ph/files/content/dam/globe/brie/AboutUs/newsroom/common/default-corporate-main/newsroom-default-corporate-primary-thumbnail-m.jpg",
      "imageDesktop": "/sites/globe.com.ph/files/content/dam/globe/brie/AboutUs/newsroom/common/default-corporate-main/newsroom-default-corporate-primary-thumbnail-d.jpg",
      "description": "Globe continues to pave the way for a sustainable future with Energize 2023.",
      "datePosted": "Oct 03, 2023 | 02:31 PM",
      "titleFromTag": "Sustainability"
    },
    {
      "title": "Enabling Youth Digital Citizenship: Globe and Palo Alto Networks Donate Cyber Safety Booklets to E. Zobel Foundation",
      "nonclickable": false,
      "openNewTab": false,
      "borderArticle": "border-color:#0074D9;",
      "borderTopArticle": "border-top-color:#0074D9;",
      "imageListing": "/sites/globe.com.ph/files/content/dam/globe/brie/AboutUs/newsroom/sustainability/enabling-youth-digital-citizenship/Portal-Newsroom-Cyber-Safety-Booklets-thumbnail-listing.jpg",
      "articleUrl": "https://www.globe.com.ph/about-us/newsroom/sustainability/globe-palo-alto-networks-donate-cyber-safety-booklets.html",
      "columnType": "articles--type-3",
      "typeListing": "article",
      "imageMobile": "/sites/globe.com.ph/files/content/dam/globe/brie/AboutUs/newsroom/sustainability/enabling-youth-digital-citizenship/Portal-Newsroom-Cyber-Safety-Booklets-primary-thumbnail-m.jpg",
      "imageDesktop": "/sites/globe.com.ph/files/content/dam/globe/brie/AboutUs/newsroom/sustainability/enabling-youth-digital-citizenship/Portal-Newsroom-Cyber-Safety-Booklets-primary-thumbnail-d.jpg",
      "description": "Globe and Palo Alto Networks handed over 1,000 cyber safety booklets to E. Zobel Foundation.",
      "datePosted": "Oct 03, 2023 | 09:12 AM",
      "titleFromTag": "Sustainability"
    },
    {
      "title": "Globe's #SeniorDigizen TikTok Challenge Extended: More Time to Teach Lola and Lolo How to ‘digi’",
      "nonclickable": false,
      "openNewTab": false,
      "borderArticle": "border-color:#1C91C5;",
      "borderTopArticle": "border-top-color:#1C91C5;",
      "imageListing": "/sites/globe.com.ph/files/content/dam/globe/brie/AboutUs/newsroom/sustainability/globe-seniordigizen-tiktok-challenge-extended/thumbnail-listing.jpg",
      "articleUrl": "https://www.globe.com.ph/about-us/newsroom/sustainability/seniordigizen-tiktok-challenge-extended.html",
      "columnType": "articles--type-3",
      "typeListing": "article",
      "imageMobile": "/sites/globe.com.ph/files/content/dam/globe/brie/AboutUs/newsroom/sustainability/globe-seniordigizen-tiktok-challenge-extended/primary-thumbnail-m.jpg",
      "imageDesktop": "/sites/globe.com.ph/files/content/dam/globe/brie/AboutUs/newsroom/sustainability/globe-seniordigizen-tiktok-challenge-extended/primary-thumbnail-d.jpg",
      "description": "Globe extends #SeniorDigizen TikTok Challenge due to overwhelming online response.",
      "datePosted": "Oct 02, 2023 | 11:50 AM",
      "titleFromTag": "Sustainability"
    },
    {
      "title": "Globe GFiber Prepaid Pamilya Kaya Live House Now Open",
      "nonclickable": false,
      "openNewTab": false,
      "borderArticle": "border-color:#0074D9;",
      "borderTopArticle": "border-top-color:#0074D9;",
      "imageListing": "/sites/globe.com.ph/files/content/dam/globe/brie/AboutUs/newsroom/common/default-prepaid-gen-z-mobile-2/Newsroom-Prepaid-Default-Images-Gen-Z-Mobile-2-thumbnail-listing.jpg",
      "articleUrl": "https://www.globe.com.ph/about-us/newsroom/consumer/gfiber-prepaid-pamilya-kaya-live-house-now-open.html",
      "columnType": "articles--type-3",
      "typeListing": "article",
      "imageMobile": "/sites/globe.com.ph/files/content/dam/globe/brie/AboutUs/newsroom/common/default-prepaid-gen-z-mobile-2/Newsroom-Prepaid-Default-Images-Gen-Z-Mobile-2-primary-thumbnail-m.jpg",
      "imageDesktop": "/sites/globe.com.ph/files/content/dam/globe/brie/AboutUs/newsroom/common/default-prepaid-gen-z-mobile-2/Newsroom-Prepaid-Default-Images-Gen-Z-Mobile-2-primary-thumbnail-d.jpg",
      "description": "Join Globe GFiber Prepaid’s Pamilya Kaya from October 1 to 7, 2023 in their Live House at Market! Market! as they beat the 299 challenge. ",
      "datePosted": "Oct 02, 2023 | 11:49 AM",
      "titleFromTag": "Consumer"
    },
    {
      "title": "Globe Fetes Alex Eala for Historic Double Bronze Win in Asian Games",
      "nonclickable": false,
      "openNewTab": false,
      "borderArticle": "border-color:#0074D9;",
      "borderTopArticle": "border-top-color:#0074D9;",
      "imageListing": "/sites/globe.com.ph/files/content/dam/globe/brie/AboutUs/newsroom/corporate/globe-fetes-alex-eala-for-historic-double-bronze-win/thumbnail-listing.jpg",
      "articleUrl": "https://www.globe.com.ph/about-us/newsroom/corporate/alex-eala-historic-double-bronze-win-asian-games.html",
      "columnType": "articles--type-3",
      "typeListing": "article",
      "imageMobile": "/sites/globe.com.ph/files/content/dam/globe/brie/AboutUs/newsroom/corporate/globe-fetes-alex-eala-for-historic-double-bronze-win/primary-thumbnail-m.jpg",
      "imageDesktop": "/sites/globe.com.ph/files/content/dam/globe/brie/AboutUs/newsroom/corporate/globe-fetes-alex-eala-for-historic-double-bronze-win/primary-thumbnail-d.jpg",
      "description": "Globe congratulates tennis sensation Alex Eala for winning two bronze medals in the Asian Games held in Hangzhou, China",
      "datePosted": "Oct 02, 2023 | 11:48 AM",
      "titleFromTag": "Corporate"
    },
    {
      "title": "Click, Redeem, Celebrate: Globe At Home Unveils G Day September Specials",
      "nonclickable": false,
      "openNewTab": false,
      "borderArticle": "border-color:#0074D9;",
      "borderTopArticle": "border-top-color:#0074D9;",
      "imageListing": "/sites/globe.com.ph/files/content/dam/globe/brie/AboutUs/newsroom/common/default-consumer-3/default-consumer-thumbnail-listing.jpg",
      "articleUrl": "https://www.globe.com.ph/about-us/newsroom/consumer/globe-at-home-unveils-g-day-september-specials.html",
      "columnType": "articles--type-3",
      "typeListing": "article",
      "imageMobile": "/sites/globe.com.ph/files/content/dam/globe/brie/AboutUs/newsroom/common/default-consumer-3/default-consumer-primary-thumbnail-m.jpg",
      "imageDesktop": "/sites/globe.com.ph/files/content/dam/globe/brie/AboutUs/newsroom/common/default-consumer-3/default-consumer-primary-thumbnail-d.jpg",
      "description": "Globe At Home reveals exciting G Day September specials for Globe At Home postpaid and prepaid customers.",
      "datePosted": "Sep 28, 2023 | 04:47 PM",
      "titleFromTag": "Consumer"
    },
    {
      "title": "KonsultaMD Welcomes Actor and Entrepreneur Enrique Gil as New CCIO",
      "nonclickable": false,
      "openNewTab": false,
      "borderArticle": "border-color:#0074D9;",
      "borderTopArticle": "border-top-color:#0074D9;",
      "imageListing": "/sites/globe.com.ph/files/2024-01/NEWSROOM-CORPORATE-KonsultaMD-welcomes-actor-and-entrepreneur-Enrique-Gil-as-new-CCIO-social-media-thumbnail.jpg",
      "articleUrl": "https://www.globe.com.ph/about-us/newsroom/corporate/konsultamd-welcomes-enrique-gil-as-new-ccio.html",
      "columnType": "articles--type-3",
      "typeListing": "article",
      "imageMobile": "/sites/globe.com.ph/files/2024-01/NEWSROOM-CORPORATE-KonsultaMD-welcomes-actor-and-entrepreneur-Enrique-Gil-as-new-CCIO-social-media-thumbnail.jpg",
      "imageDesktop": "/sites/globe.com.ph/files/2024-01/NEWSROOM-CORPORATE-KonsultaMD-welcomes-actor-and-entrepreneur-Enrique-Gil-as-new-CCIO-social-media-thumbnail.jpg",
      "description": "Enrique Gil joins KonsultaMD, a premier health SuperApp under the Globe Group umbrella, as its Chief Communications and Impact Officer.",
      "datePosted": "Sep 28, 2023 | 04:46 PM",
      "titleFromTag": "Corporate"
    },
    {
      "title": "Globe At Home Customers Get First Dibs to the All-New GFiber Plan",
      "nonclickable": false,
      "openNewTab": false,
      "borderArticle": "border-color:#0074D9;",
      "borderTopArticle": "border-top-color:#0074D9;",
      "imageListing": "/sites/globe.com.ph/files/content/dam/globe/brie/AboutUs/newsroom/common/default-consumer-2/default-consumer-thumbnail-listing.jpg",
      "articleUrl": "https://www.globe.com.ph/about-us/newsroom/consumer/globe-at-home-customers-first-dibs-all-new-gfiber-plan.html",
      "columnType": "articles--type-3",
      "typeListing": "article",
      "imageMobile": "/sites/globe.com.ph/files/content/dam/globe/brie/AboutUs/newsroom/common/default-consumer-2/default-consumer-primary-thumbnail-m.jpg",
      "imageDesktop": "/sites/globe.com.ph/files/content/dam/globe/brie/AboutUs/newsroom/common/default-consumer-2/default-consumer-primary-thumbnail-d.jpg",
      "description": "Globe At Home continues to enhance every household’s digital experience with the launch of the all-new GFiber Plan.",
      "datePosted": "Sep 27, 2023 | 01:30 PM",
      "titleFromTag": "Consumer"
    },
    {
      "title": "Sustainability Champion Globe Debuts EVs as Top Prizes for G Chance the Raffle 2023",
      "nonclickable": false,
      "openNewTab": false,
      "borderArticle": "border-color:#0074D9;",
      "borderTopArticle": "border-top-color:#0074D9;",
      "imageListing": "/sites/globe.com.ph/files/content/dam/globe/brie/About-us/Newsroom/image/Consumer/evs-as-top-prizes-g-chance-the-raffle-2023/thumbnail-listing.jpg",
      "articleUrl": "https://www.globe.com.ph/about-us/newsroom/consumer/evs-as-top-prizes-g-chance-the-raffle-2023.html",
      "columnType": "articles--type-3",
      "typeListing": "article",
      "imageMobile": "/sites/globe.com.ph/files/content/dam/globe/brie/About-us/Newsroom/image/Consumer/evs-as-top-prizes-g-chance-the-raffle-2023/primary-thumbnail-m.jpg",
      "imageDesktop": "/sites/globe.com.ph/files/content/dam/globe/brie/About-us/Newsroom/image/Consumer/evs-as-top-prizes-g-chance-the-raffle-2023/primary-thumbnail-d.jpg",
      "description": "Globe is giving away three Gogoro Smartscooters and one BYD Dolphin Pure EV in this year’s G Chance the Raffle.",
      "datePosted": "Sep 27, 2023 | 01:30 PM",
      "titleFromTag": "Consumer"
    }
  ]
}
