{
  "status": 200,
  "page": 80,
  "totalPage": 298,
  "range": "949-960",
  "total": 3573,
  "result": [
    {
      "title": "Join Globe Business’ Chinese New Year Festivities—and Set Your Business up for Success",
      "nonclickable": false,
      "openNewTab": false,
      "borderArticle": "border-color:#0074D9;",
      "borderTopArticle": "border-top-color:#0074D9;",
      "imageListing": "/sites/globe.com.ph/files/content/dam/globe/brie/AboutUs/newsroom/business/Join-Globe-Business--Chinese-New-Year-Festivities---Globe-Newsroom/newsroom-business-set-up-business-for-success-thumbnail-listing.jpg",
      "articleUrl": "https://www.globe.com.ph/about-us/newsroom/business/chinese-new-year-festivities.html",
      "columnType": "articles--type-3",
      "typeListing": "article",
      "imageMobile": "/sites/globe.com.ph/files/content/dam/globe/brie/AboutUs/newsroom/business/Join-Globe-Business--Chinese-New-Year-Festivities---Globe-Newsroom/newsroom-business-set-up-business-for-success-primary-thumbnail-m.jpg",
      "imageDesktop": "/sites/globe.com.ph/files/content/dam/globe/brie/AboutUs/newsroom/business/Join-Globe-Business--Chinese-New-Year-Festivities---Globe-Newsroom/newsroom-business-set-up-business-for-success-primary-thumbnail-d.jpg",
      "description": "Globe Business, in partnership with CHiNOY TV, celebrates the revolutionary business leaders (Tao Ke), who were able to optimize digital solutions amid change.",
      "datePosted": "Jan 28, 2022 | 12:26 PM",
      "titleFromTag": "Business"
    },
    {
      "title": "Globe QC Facility Shifts to Renewable Energy, Luzon Green Sites up to 14",
      "nonclickable": false,
      "openNewTab": false,
      "borderArticle": "border-color:#0074D9;",
      "borderTopArticle": "border-top-color:#0074D9;",
      "imageListing": "/sites/globe.com.ph/files/content/dam/globe/brie/About-us/Newsroom/image/Sustainability/globe-qc-facility-shifts-to-renewable-energy-luzon-green-sites-up-to-14/newsroom-sustainability-luzon-green-sites-up-to-14-thumbnail-listing.jpg",
      "articleUrl": "https://www.globe.com.ph/about-us/newsroom/sustainability/qc-facility-renewable-energy.html",
      "columnType": "articles--type-3",
      "typeListing": "article",
      "imageMobile": "/sites/globe.com.ph/files/content/dam/globe/brie/About-us/Newsroom/image/Sustainability/globe-qc-facility-shifts-to-renewable-energy-luzon-green-sites-up-to-14/newsroom-sustainability-luzon-green-sites-up-to-14-primary-thumbnail-m.jpg",
      "imageDesktop": "/sites/globe.com.ph/files/content/dam/globe/brie/About-us/Newsroom/image/Sustainability/globe-qc-facility-shifts-to-renewable-energy-luzon-green-sites-up-to-14/newsroom-sustainability-luzon-green-sites-up-to-14-primary-thumbnail-d.jpg",
      "description": "Globe shifted another key facility in QC to renewable energy, raising the number of green sites in Luzon to 14 as part of its commitment to climate action. \r\n",
      "datePosted": "Jan 28, 2022 | 11:37 AM",
      "titleFromTag": "Sustainability"
    },
    {
      "title": "FINSI Helps Restore over 2,000 Communication Lines in Typhoon-Stricken Cebu Localities",
      "nonclickable": false,
      "openNewTab": false,
      "borderArticle": "border-color:#0074D9;",
      "borderTopArticle": "border-top-color:#0074D9;",
      "imageListing": "/sites/globe.com.ph/files/content/dam/globe/brie/About-us/Newsroom/image/Partners/finsi-helps-restore-over-2000-communication-lines/newsroom-partners-finsi-help-restore-lines-cebu-thumbnail-listing.jpg",
      "articleUrl": "https://www.globe.com.ph/about-us/newsroom/partners/finsi-restore-communication-lines-cebu-localities.html",
      "columnType": "articles--type-3",
      "typeListing": "article",
      "imageMobile": "/sites/globe.com.ph/files/content/dam/globe/brie/About-us/Newsroom/image/Partners/finsi-helps-restore-over-2000-communication-lines/newsroom-partners-finsi-help-restore-lines-cebu-primary-thumbnail-m.jpg",
      "imageDesktop": "/sites/globe.com.ph/files/content/dam/globe/brie/About-us/Newsroom/image/Partners/finsi-helps-restore-over-2000-communication-lines/newsroom-partners-finsi-help-restore-lines-cebu-primary-thumbnail-d.jpg",
      "description": "FINSI has helped repair and restore more than 2,000 Globe communication lines in Cebu in the wake of the devastation of Typhoon Odette. ",
      "datePosted": "Jan 28, 2022 | 09:56 AM",
      "titleFromTag": "Partners"
    },
    {
      "title": "Globe Business MSME Group Wins Big at International Asia Communication Awards",
      "nonclickable": false,
      "openNewTab": false,
      "borderArticle": "border-color:#0074D9;",
      "borderTopArticle": "border-top-color:#0074D9;",
      "imageListing": "/sites/globe.com.ph/files/content/dam/globe/brie/AboutUs/newsroom/business/globe-business-msme-international-asia-communication-awards/newsroom-business-globe-msme-wins-asia-communication-awards-thumbnail-listing.jpg",
      "articleUrl": "https://www.globe.com.ph/about-us/newsroom/business/globe-business-msme-international-asia-communication-awards.html",
      "columnType": "articles--type-3",
      "typeListing": "article",
      "imageMobile": "/sites/globe.com.ph/files/content/dam/globe/brie/AboutUs/newsroom/business/globe-business-msme-international-asia-communication-awards/newsroom-business-globe-msme-wins-asia-communication-awards-primary-thumbnail-m.jpg",
      "imageDesktop": "/sites/globe.com.ph/files/content/dam/globe/brie/AboutUs/newsroom/business/globe-business-msme-international-asia-communication-awards/newsroom-business-globe-msme-wins-asia-communication-awards-primary-thumbnail-d.jpg",
      "description": "Winning at the International Asia Communication Awards is a testament to Globe Business’ commitment in strengthening the small businesses ecosystem in the PH.",
      "datePosted": "Jan 27, 2022 | 12:16 PM",
      "titleFromTag": "Business"
    },
    {
      "title": "Blockbusters for ₱50: UPSTREAM PH Now on GCash",
      "nonclickable": false,
      "openNewTab": false,
      "borderArticle": "border-color:#0074D9;",
      "borderTopArticle": "border-top-color:#0074D9;",
      "imageListing": "/sites/globe.com.ph/files/content/dam/globe/brie/AboutUs/newsroom/consumer/upstream-now-on-gcash/newsroom-consumer-blockbusters-50php-upstream-gcash-thumbnail-listing.jpg",
      "articleUrl": "https://www.globe.com.ph/about-us/newsroom/consumer/upstream-now-on-gcash.html",
      "columnType": "articles--type-3",
      "typeListing": "article",
      "imageMobile": "/sites/globe.com.ph/files/content/dam/globe/brie/AboutUs/newsroom/consumer/upstream-now-on-gcash/newsroom-consumer-blockbusters-50php-upstream-gcash-primary-thumbnail-m.jpg",
      "imageDesktop": "/sites/globe.com.ph/files/content/dam/globe/brie/AboutUs/newsroom/consumer/upstream-now-on-gcash/newsroom-consumer-blockbusters-50php-upstream-gcash-primary-thumbnail-d.jpg",
      "description": "UPSTREAM is now available on GCash through GLife, which gives you access to lifestyle services, from food delivery and retail to transport and entertainment.",
      "datePosted": "Jan 27, 2022 | 10:20 AM",
      "titleFromTag": "Consumer"
    },
    {
      "title": "Asticom Hits ₱2B Revenue Mark in Just Six Years of Operations",
      "nonclickable": false,
      "openNewTab": false,
      "borderArticle": "border-color:#0074D9;",
      "borderTopArticle": "border-top-color:#0074D9;",
      "imageListing": "/sites/globe.com.ph/files/content/dam/globe/brie/AboutUs/newsroom/partners/asticom-hits-2b-revenue-mark/newsroom-partners-asticom-2b-mark-6yrs-thumbnail-listing.jpg",
      "articleUrl": "https://www.globe.com.ph/about-us/newsroom/partners/asticom-hits-2b-revenue-mark.html",
      "columnType": "articles--type-3",
      "typeListing": "article",
      "imageMobile": "/sites/globe.com.ph/files/content/dam/globe/brie/AboutUs/newsroom/partners/asticom-hits-2b-revenue-mark/newsroom-partners-asticom-2b-mark-6yrs-primary-thumbnail-m.jpg",
      "imageDesktop": "/sites/globe.com.ph/files/content/dam/globe/brie/AboutUs/newsroom/partners/asticom-hits-2b-revenue-mark/newsroom-partners-asticom-2b-mark-6yrs-primary-thumbnail-d.jpg",
      "description": "The Asticom Group of Companies, a shared services provider under the Ayala conglomerate, has reached ₱2 billion in revenues as of the fourth quarter of 2021.",
      "datePosted": "Jan 27, 2022 | 08:51 AM",
      "titleFromTag": "Partners"
    },
    {
      "title": "Globe Provides Typhoon-Hit LGUs FREE 30-Day SMS Blast to Reach Constituents in One Click",
      "nonclickable": false,
      "openNewTab": false,
      "borderArticle": "border-color:#0074D9;",
      "borderTopArticle": "border-top-color:#0074D9;",
      "imageListing": "/sites/globe.com.ph/files/content/dam/globe/brie/AboutUs/newsroom/consumer/typhoon-hit-lgus-free-sms-blast/newsroom-consumer-globe-provides-30days-sms-blast-thumbnail-listing.jpg",
      "articleUrl": "https://www.globe.com.ph/about-us/newsroom/consumer/typhoon-hit-lgus-free-sms-blast.html",
      "columnType": "articles--type-3",
      "typeListing": "article",
      "imageMobile": "/sites/globe.com.ph/files/content/dam/globe/brie/AboutUs/newsroom/consumer/typhoon-hit-lgus-free-sms-blast/newsroom-consumer-globe-provides-30days-sms-blast-primary-thumbnail-m.jpg",
      "imageDesktop": "/sites/globe.com.ph/files/content/dam/globe/brie/AboutUs/newsroom/consumer/typhoon-hit-lgus-free-sms-blast/newsroom-consumer-globe-provides-30days-sms-blast-primary-thumbnail-d.jpg",
      "description": "Globe is extending its A2P messaging service to affected local government units in Palawan, Visayas, & Mindanao to aid their  disaster recovery operations.",
      "datePosted": "Jan 26, 2022 | 02:03 PM",
      "titleFromTag": "Consumer"
    },
    {
      "title": "Globe Helps Upskill TESDA Online Scholars via Digital Citizenship, WiFi 101 Lessons",
      "nonclickable": false,
      "openNewTab": false,
      "borderArticle": "border-color:#0074D9;",
      "borderTopArticle": "border-top-color:#0074D9;",
      "imageListing": "/sites/globe.com.ph/files/content/dam/globe/brie/AboutUs/newsroom/citizenship/globe-helps-upskill-tesda-online-scholars/newsroom-citizenship-tesda-scholars-wifi-101-thumbnail-listing.jpg",
      "articleUrl": "https://www.globe.com.ph/about-us/newsroom/citizenship/globe-helps-upskill-tesda-online-scholars.html",
      "columnType": "articles--type-3",
      "typeListing": "article",
      "imageMobile": "/sites/globe.com.ph/files/content/dam/globe/brie/AboutUs/newsroom/citizenship/globe-helps-upskill-tesda-online-scholars/newsroom-citizenship-tesda-scholars-wifi-101-primary-thumbnail-m.jpg",
      "imageDesktop": "/sites/globe.com.ph/files/content/dam/globe/brie/AboutUs/newsroom/citizenship/globe-helps-upskill-tesda-online-scholars/newsroom-citizenship-tesda-scholars-wifi-101-primary-thumbnail-d.jpg",
      "description": "Globe, through Globe University, is providing scholars of the TESDA Online Program with relevant content on the basics of WiFi and digital citizenship.",
      "datePosted": "Jan 26, 2022 | 02:02 PM",
      "titleFromTag": "Citizenship"
    },
    {
      "title": "Partners vs Crime: GCash, NBI Effort Leads to Major Fraud Bust",
      "nonclickable": false,
      "openNewTab": false,
      "borderArticle": "border-color:#0074D9;",
      "borderTopArticle": "border-top-color:#0074D9;",
      "imageListing": "/sites/globe.com.ph/files/content/dam/globe/brie/AboutUs/newsroom/consumer/gcash-nbi-major-fraud-bust/default-business-2-thumbnail-listing.jpg",
      "articleUrl": "https://www.globe.com.ph/about-us/newsroom/consumer/gcash-nbi-major-fraud-bust.html",
      "columnType": "articles--type-3",
      "typeListing": "article",
      "imageMobile": "/sites/globe.com.ph/files/content/dam/globe/brie/AboutUs/newsroom/consumer/gcash-nbi-major-fraud-bust/default-business-2-primary-thumbnail-m.jpg",
      "imageDesktop": "/sites/globe.com.ph/files/content/dam/globe/brie/AboutUs/newsroom/consumer/gcash-nbi-major-fraud-bust/default-business-2-primary-thumbnail-d.jpg",
      "description": "GCash is looking forward to forging stronger partnerships with NBI after its efforts led to a major bust of suspected fraudsters preying on its customers.",
      "datePosted": "Jan 25, 2022 | 12:13 PM",
      "titleFromTag": "Consumer"
    },
    {
      "title": "Advent Technologies to Supply SereneU Fuel Cells for Globe Telecom’s Rooftop Sites in the Philippines",
      "nonclickable": false,
      "openNewTab": false,
      "borderArticle": "border-color:#0074D9;",
      "borderTopArticle": "border-top-color:#0074D9;",
      "imageListing": "/sites/globe.com.ph/files/content/dam/globe/brie/AboutUs/newsroom/partners/advent-supply-sereneu-fuel-cells-globe-rooftop-sites/newsroom-partners-advent-supply-fuel-for-globe-thumbnail-listing.jpg",
      "articleUrl": "https://www.globe.com.ph/about-us/newsroom/partners/advent-supply-sereneu-fuel-cells-globe-rooftop-sites.html",
      "columnType": "articles--type-3",
      "typeListing": "article",
      "imageMobile": "/sites/globe.com.ph/files/content/dam/globe/brie/AboutUs/newsroom/partners/advent-supply-sereneu-fuel-cells-globe-rooftop-sites/newsroom-partners-advent-supply-fuel-for-globe-primary-thumbnail-m.jpg",
      "imageDesktop": "/sites/globe.com.ph/files/content/dam/globe/brie/AboutUs/newsroom/partners/advent-supply-sereneu-fuel-cells-globe-rooftop-sites/newsroom-partners-advent-supply-fuel-for-globe-primary-thumbnail-d.jpg",
      "description": "Advent Technologies Holdings, Inc. is pleased to announce that it is currently upgrading Globe’s rooftop sites in the PH with 10kW SereneU fuel cell systems.",
      "datePosted": "Jan 25, 2022 | 10:13 AM",
      "titleFromTag": "Partners"
    },
    {
      "title": "Globe Opens First Visayas EasyHub One-Stop-Shop in Bacolod City",
      "nonclickable": false,
      "openNewTab": false,
      "borderArticle": "border-color:#0074D9;",
      "borderTopArticle": "border-top-color:#0074D9;",
      "imageListing": "/sites/globe.com.ph/files/content/dam/globe/brie/AboutUs/newsroom/consumer/first-visayas-easyhub-bacolod-city/newsroom-consumer-visayas-first-easyhub-bacolod-thumbnail-listing.jpg",
      "articleUrl": "https://www.globe.com.ph/about-us/newsroom/consumer/first-visayas-easyhub-bacolod-city.html",
      "columnType": "articles--type-3",
      "typeListing": "article",
      "imageMobile": "/sites/globe.com.ph/files/content/dam/globe/brie/AboutUs/newsroom/consumer/first-visayas-easyhub-bacolod-city/newsroom-consumer-visayas-first-easyhub-bacolod-primary-thumbnail-m.jpg",
      "imageDesktop": "/sites/globe.com.ph/files/content/dam/globe/brie/AboutUs/newsroom/consumer/first-visayas-easyhub-bacolod-city/newsroom-consumer-visayas-first-easyhub-bacolod-primary-thumbnail-d.jpg",
      "description": "Globe has launched the first EasyHub kiosk at Robinsons Place Bacolod City. This enables customers to fulfill various transactions in safe and convenient ways.",
      "datePosted": "Jan 25, 2022 | 09:43 AM",
      "titleFromTag": "Consumer"
    },
    {
      "title": "Piracy Sites and Apps Put Privacy and Personal Info at Risk",
      "nonclickable": false,
      "openNewTab": false,
      "borderArticle": "border-color:#0074D9;",
      "borderTopArticle": "border-top-color:#0074D9;",
      "imageListing": "/sites/globe.com.ph/files/content/dam/globe/brie/AboutUs/newsroom/common/default-3/corporate-default-7-thumbnail-listing.jpg",
      "articleUrl": "https://www.globe.com.ph/about-us/newsroom/consumer/piracy-sites-apps-put-privacy-personal-info-at-risk.html",
      "columnType": "articles--type-3",
      "typeListing": "article",
      "imageMobile": "/sites/globe.com.ph/files/content/dam/globe/brie/AboutUs/newsroom/common/default-3/corporate-default-7-primary-thumbnail-m.jpg",
      "imageDesktop": "/sites/globe.com.ph/files/content/dam/globe/brie/AboutUs/newsroom/common/default-3/corporate-default-7-primary-thumbnail-d.jpg",
      "description": "Malicious ads and popups in piracy sites and streaming apps are used by cybercriminals to infect devices with malware, corrupting privacy and personal data.",
      "datePosted": "Jan 24, 2022 | 02:27 PM",
      "titleFromTag": "Consumer"
    }
  ]
}
