{
  "status": 200,
  "page": 81,
  "totalPage": 298,
  "range": "961-972",
  "total": 3573,
  "result": [
    {
      "title": "From Zero to Hero: Globe Cell Site Brings Dead Spot in Bangar, La Union to Life",
      "nonclickable": false,
      "openNewTab": false,
      "borderArticle": "border-color:#0074D9;",
      "borderTopArticle": "border-top-color:#0074D9;",
      "imageListing": "/sites/globe.com.ph/files/content/dam/globe/brie/AboutUs/newsroom/consumer/cell-site-brings-dead-spot-bangar-to-life/newsroom-consumer-cell-site-brings-launion-to-life-thumbnail-listing.jpg",
      "articleUrl": "https://www.globe.com.ph/about-us/newsroom/consumer/cell-site-brings-dead-spot-bangar-to-life.html",
      "columnType": "articles--type-3",
      "typeListing": "article",
      "imageMobile": "/sites/globe.com.ph/files/content/dam/globe/brie/AboutUs/newsroom/consumer/cell-site-brings-dead-spot-bangar-to-life/newsroom-consumer-cell-site-brings-launion-to-life-primary-thumbnail-m.jpg",
      "imageDesktop": "/sites/globe.com.ph/files/content/dam/globe/brie/AboutUs/newsroom/consumer/cell-site-brings-dead-spot-bangar-to-life/newsroom-consumer-cell-site-brings-launion-to-life-primary-thumbnail-d.jpg",
      "description": "With the recent construction of a Globe cell site equipped with 4G LTE, Barangay Rissing was brought to life.",
      "datePosted": "Jan 24, 2022 | 02:27 PM",
      "titleFromTag": "Consumer"
    },
    {
      "title": "Globe Removes Activation Fee for Facetime, iMessage",
      "nonclickable": false,
      "openNewTab": false,
      "borderArticle": "border-color:#0074D9;",
      "borderTopArticle": "border-top-color:#0074D9;",
      "imageListing": "/sites/globe.com.ph/files/content/dam/globe/brie/AboutUs/newsroom/consumer/globe-removes-activation-fee-facetime-imessage/newsroom-consumer-globe-removes-activation-fee-thumbnail-listing.jpg",
      "articleUrl": "https://www.globe.com.ph/about-us/newsroom/consumer/globe-removes-activation-fee-facetime-imessage.html",
      "columnType": "articles--type-3",
      "typeListing": "article",
      "imageMobile": "/sites/globe.com.ph/files/content/dam/globe/brie/AboutUs/newsroom/consumer/globe-removes-activation-fee-facetime-imessage/newsroom-consumer-globe-removes-activation-fee-primary-thumbnail-m.jpg",
      "imageDesktop": "/sites/globe.com.ph/files/content/dam/globe/brie/AboutUs/newsroom/consumer/globe-removes-activation-fee-facetime-imessage/newsroom-consumer-globe-removes-activation-fee-primary-thumbnail-d.jpg",
      "description": "A more seamless experience awaits Apple subscribers as Globe removes the one-time activation fee for Facetime and iMessage services.",
      "datePosted": "Jan 24, 2022 | 08:01 AM",
      "titleFromTag": "Consumer"
    },
    {
      "title": "PH Records Faster Internet Speeds in December, up Nine Notches for Fixed Broadband",
      "nonclickable": false,
      "openNewTab": false,
      "borderArticle": "border-color:#0074D9;",
      "borderTopArticle": "border-top-color:#0074D9;",
      "imageListing": "/sites/globe.com.ph/files/content/dam/globe/brie/AboutUs/newsroom/consumer/faster-internet-speeds-in-december/newsroom-consumer-ph-records-faster-internet-december-thumbnail-listing.jpg",
      "articleUrl": "https://www.globe.com.ph/about-us/newsroom/consumer/ph-records-faster-internet-speeds-december.html",
      "columnType": "articles--type-3",
      "typeListing": "article",
      "imageMobile": "/sites/globe.com.ph/files/content/dam/globe/brie/AboutUs/newsroom/consumer/faster-internet-speeds-in-december/newsroom-consumer-ph-records-faster-internet-december-primary-thumbnail-m.jpg",
      "imageDesktop": "/sites/globe.com.ph/files/content/dam/globe/brie/AboutUs/newsroom/consumer/faster-internet-speeds-in-december/newsroom-consumer-ph-records-faster-internet-december-primary-thumbnail-d.jpg",
      "description": "The country rose 9 places to 63 out of 178 in median fixed broadband connectivity, recording a median download speed of 50.26 Mbps, up from 46.44 in November. ",
      "datePosted": "Jan 21, 2022 | 01:25 PM",
      "titleFromTag": "Consumer"
    },
    {
      "title": "Globe Debuts First Ever Eco-SIM in Asia",
      "nonclickable": false,
      "openNewTab": false,
      "borderArticle": "border-color:#0074D9;",
      "borderTopArticle": "border-top-color:#0074D9;",
      "imageListing": "/sites/globe.com.ph/files/content/dam/globe/brie/AboutUs/newsroom/sustainability/globe-debuts-first-ever-eco-sim-in-asia/newsroom-sustainability-first-eco-sim-asia-thumbnail-listing.jpg",
      "articleUrl": "https://www.globe.com.ph/about-us/newsroom/sustainability/globe-debuts-first-ever-eco-sim-in-asia.html",
      "columnType": "articles--type-3",
      "typeListing": "article",
      "imageMobile": "/sites/globe.com.ph/files/content/dam/globe/brie/AboutUs/newsroom/sustainability/globe-debuts-first-ever-eco-sim-in-asia/newsroom-sustainability-first-eco-sim-asia-primary-thumbnail-m.jpg",
      "imageDesktop": "/sites/globe.com.ph/files/content/dam/globe/brie/AboutUs/newsroom/sustainability/globe-debuts-first-ever-eco-sim-in-asia/newsroom-sustainability-first-eco-sim-asia-primary-thumbnail-d.jpg",
      "description": "Globe debuts the first Eco-SIM cards in Asia for its postpaid mobile customers, contributing to environmental sustainability by recycling refrigerator waste.",
      "datePosted": "Jan 21, 2022 | 08:01 AM",
      "titleFromTag": "Sustainability"
    },
    {
      "title": "Globe Customers Raise ₱1.9M for Typhoon Odette Survivors",
      "nonclickable": false,
      "openNewTab": false,
      "borderArticle": "border-color:#0074D9;",
      "borderTopArticle": "border-top-color:#0074D9;",
      "imageListing": "/sites/globe.com.ph/files/content/dam/globe/brie/AboutUs/newsroom/consumer/globe-customers-raises-million-for-typhoon-odette-survivors/newsroom-consumer-customers-raise-1.9million-odette-thumbnail-listing.jpg",
      "articleUrl": "https://www.globe.com.ph/about-us/newsroom/consumer/globe-customers-raises-million-for-typhoon-odette-survivors.html",
      "columnType": "articles--type-3",
      "typeListing": "article",
      "imageMobile": "/sites/globe.com.ph/files/content/dam/globe/brie/AboutUs/newsroom/consumer/globe-customers-raises-million-for-typhoon-odette-survivors/newsroom-consumer-customers-raise-1.9million-odette-primary-thumbnail-m.jpg",
      "imageDesktop": "/sites/globe.com.ph/files/content/dam/globe/brie/AboutUs/newsroom/consumer/globe-customers-raises-million-for-typhoon-odette-survivors/newsroom-consumer-customers-raise-1.9million-odette-primary-thumbnail-d.jpg",
      "description": "Globe customers have raised ₱1,925,284 worth of Globe and TM Rewards points to help survivors of Typhoon Odette.",
      "datePosted": "Jan 20, 2022 | 01:14 PM",
      "titleFromTag": "Consumer"
    },
    {
      "title": "From Zero to Hero:  New Globe Cell Tower in Remote Isabela Barangay Helps Bring Families Together",
      "nonclickable": false,
      "openNewTab": false,
      "borderArticle": "border-color:#0074D9;",
      "borderTopArticle": "border-top-color:#0074D9;",
      "imageListing": "/sites/globe.com.ph/files/content/dam/globe/brie/AboutUs/newsroom/citizenship/new-globe-cell-tower-remote-isabela-baranggay/newsroom-citizenship-new-cell-tower-remote-isabella-thumbnail-listing.jpg",
      "articleUrl": "https://www.globe.com.ph/about-us/newsroom/citizenship/new-globe-cell-tower-remote-isabela-baranggay.html",
      "columnType": "articles--type-3",
      "typeListing": "article",
      "imageMobile": "/sites/globe.com.ph/files/content/dam/globe/brie/AboutUs/newsroom/citizenship/new-globe-cell-tower-remote-isabela-baranggay/newsroom-citizenship-new-cell-tower-remote-isabella-primary-thumbnail-m.jpg",
      "imageDesktop": "/sites/globe.com.ph/files/content/dam/globe/brie/AboutUs/newsroom/citizenship/new-globe-cell-tower-remote-isabela-baranggay/newsroom-citizenship-new-cell-tower-remote-isabella-primary-thumbnail-d.jpg",
      "description": "Globe continues to ramp up its new cell site builds in different parts of the Philippines, including far-flung areas where connectivity is weak or non-existent.",
      "datePosted": "Jan 19, 2022 | 03:10 PM",
      "titleFromTag": "Citizenship"
    },
    {
      "title": "Globe Wins Opensignal Award for Largest Uplift in 5G Global Mobile Gaming Experience",
      "nonclickable": false,
      "openNewTab": false,
      "borderArticle": "border-color:#0074D9;",
      "borderTopArticle": "border-top-color:#0074D9;",
      "imageListing": "/sites/globe.com.ph/files/content/dam/globe/brie/AboutUs/newsroom/corporate/opensignal-award-largest-uplift-5g-global-mobile-gaming-experience/newsroom-corporate-globe-wins-opensignal-award-thumbnail-listing.jpg",
      "articleUrl": "https://www.globe.com.ph/about-us/newsroom/corporate/opensignal-award-largest-uplift-5g-global-mobile-gaming-experience.html",
      "columnType": "articles--type-3",
      "typeListing": "article",
      "imageMobile": "/sites/globe.com.ph/files/content/dam/globe/brie/AboutUs/newsroom/corporate/opensignal-award-largest-uplift-5g-global-mobile-gaming-experience/newsroom-corporate-globe-wins-opensignal-award-primary-thumbnail-m.jpg",
      "imageDesktop": "/sites/globe.com.ph/files/content/dam/globe/brie/AboutUs/newsroom/corporate/opensignal-award-largest-uplift-5g-global-mobile-gaming-experience/newsroom-corporate-globe-wins-opensignal-award-primary-thumbnail-d.jpg",
      "description": "Globe has received yet another global recognition for its network upgrade and modernization efforts at the 5G Global Mobile Network Experience Awards 2021.",
      "datePosted": "Jan 19, 2022 | 08:37 AM",
      "titleFromTag": "Corporate"
    },
    {
      "title": "Globe Group’s Channels Ready to Support Customers, Offers Free WiFi in Hospitals as Tighter Restrictions Enforced",
      "nonclickable": false,
      "openNewTab": false,
      "borderArticle": "border-color:#0074D9;",
      "borderTopArticle": "border-top-color:#0074D9;",
      "imageListing": "/sites/globe.com.ph/files/content/dam/globe/brie/AboutUs/newsroom/consumer/free-wifi-in-hospitals/newsroom-consumer-rise-covid-cases-thumbnail-listing.jpg",
      "articleUrl": "https://www.globe.com.ph/about-us/newsroom/consumer/group-channels-ready-support-customers.html",
      "columnType": "articles--type-3",
      "typeListing": "article",
      "imageMobile": "/sites/globe.com.ph/files/content/dam/globe/brie/AboutUs/newsroom/consumer/free-wifi-in-hospitals/newsroom-consumer-rise-covid-cases-primary-thumbnail-m.jpg",
      "imageDesktop": "/sites/globe.com.ph/files/content/dam/globe/brie/AboutUs/newsroom/consumer/free-wifi-in-hospitals/newsroom-consumer-rise-covid-cases-primary-thumbnail-d.jpg",
      "description": "Globe group’s channels to support customers as tighter restrictions are enforced in Metro Manila and other areas amid a rise in Covid cases.",
      "datePosted": "Jan 18, 2022 | 02:10 PM",
      "titleFromTag": "Consumer"
    },
    {
      "title": "Ayala Property Management Corp Partners with Globe Business for IoT Solutions",
      "nonclickable": false,
      "openNewTab": false,
      "borderArticle": "border-color:#0074D9;",
      "borderTopArticle": "border-top-color:#0074D9;",
      "imageListing": "/sites/globe.com.ph/files/content/dam/globe/brie/AboutUs/newsroom/business/ala-property-management-corp-globe-business-iot/newsroom-business-ayala-partners-globe-business-thumbnail-listing.jpg",
      "articleUrl": "https://www.globe.com.ph/about-us/newsroom/business/ayala-property-management-corp-globe-business-iot.html",
      "columnType": "articles--type-3",
      "typeListing": "article",
      "imageMobile": "/sites/globe.com.ph/files/content/dam/globe/brie/AboutUs/newsroom/business/ala-property-management-corp-globe-business-iot/newsroom-business-ayala-partners-globe-business-primary-thumbnail-m.jpg",
      "imageDesktop": "/sites/globe.com.ph/files/content/dam/globe/brie/AboutUs/newsroom/business/ala-property-management-corp-globe-business-iot/newsroom-business-ayala-partners-globe-business-primary-thumbnail-d.jpg",
      "description": "Ayala Property Management Corp partners with Globe Business to transition its manual processes to digital.",
      "datePosted": "Jan 17, 2022 | 01:40 PM",
      "titleFromTag": "Business"
    },
    {
      "title": "Globe Expands 5G Roaming Coverage in Europe with Belgium, Luxemburg, Spain, France",
      "nonclickable": false,
      "openNewTab": false,
      "borderArticle": "border-color:#0074D9;",
      "borderTopArticle": "border-top-color:#0074D9;",
      "imageListing": "/sites/globe.com.ph/files/content/dam/globe/brie/AboutUs/newsroom/consumer/globe-expands-5g-roaming-europe/newsroom-consumer-globe-expands-5g-roaming-thumbnail-listing.jpg",
      "articleUrl": "https://www.globe.com.ph/about-us/newsroom/consumer/globe-expands-5g-roaming-europe.html",
      "columnType": "articles--type-3",
      "typeListing": "article",
      "imageMobile": "/sites/globe.com.ph/files/content/dam/globe/brie/AboutUs/newsroom/consumer/globe-expands-5g-roaming-europe/newsroom-consumer-globe-expands-5g-roaming-primary-thumbnail-m.jpg",
      "imageDesktop": "/sites/globe.com.ph/files/content/dam/globe/brie/AboutUs/newsroom/consumer/globe-expands-5g-roaming-europe/newsroom-consumer-globe-expands-5g-roaming-primary-thumbnail-d.jpg",
      "description": "Globe continues its leadership in the 5G space, as it expands its 5G Roaming coverage in Europe with Belgium, Luxemburg, Spain, and France.",
      "datePosted": "Jan 17, 2022 | 10:46 AM",
      "titleFromTag": "Consumer"
    },
    {
      "title": "DONATE USING DATA: Globe Customers’ Unused Data Can Now Extend Relief  To Typhoon Odette Victims",
      "nonclickable": false,
      "openNewTab": false,
      "borderArticle": "border-color:#0074D9;",
      "borderTopArticle": "border-top-color:#0074D9;",
      "imageListing": "/sites/globe.com.ph/files/content/dam/globe/brie/AboutUs/newsroom/common/default-4/default-consumer-3-thumbnail-listing.jpg",
      "articleUrl": "https://www.globe.com.ph/about-us/newsroom/consumer/unused-data-can-now-extend-relief-typhoon-odette.html",
      "columnType": "articles--type-3",
      "typeListing": "article",
      "imageMobile": "/sites/globe.com.ph/files/content/dam/globe/brie/AboutUs/newsroom/common/default-4/default-consumer-3-primary-thumbnail-m.jpg",
      "imageDesktop": "/sites/globe.com.ph/files/content/dam/globe/brie/AboutUs/newsroom/common/default-4/default-consumer-3-primary-thumbnail-d.jpg",
      "description": "Globe customers can now convert their unused data into Rewards points that can be donated to help Typhoon Odette victims.",
      "datePosted": "Jan 15, 2022 | 04:34 PM",
      "titleFromTag": "Consumer"
    },
    {
      "title": "Globe’s KonekTayo WiFi Brings Affordable Internet to over 4,500 Households in Batangas",
      "nonclickable": false,
      "openNewTab": false,
      "borderArticle": "border-color:#0074D9;",
      "borderTopArticle": "border-top-color:#0074D9;",
      "imageListing": "/sites/globe.com.ph/files/content/dam/globe/brie/AboutUs/newsroom/consumer/konektayo-wifi-affordable-internet-households-batangas/newsroom-consumer-konektayo-affordable-internet-batangas-thumbnail-listing.jpg",
      "articleUrl": "https://www.globe.com.ph/about-us/newsroom/consumer/konektayo-wifi-affordable-internet-households-batangas.html",
      "columnType": "articles--type-3",
      "typeListing": "article",
      "imageMobile": "/sites/globe.com.ph/files/content/dam/globe/brie/AboutUs/newsroom/consumer/konektayo-wifi-affordable-internet-households-batangas/newsroom-consumer-konektayo-affordable-internet-batangas-primary-thumbnail-m.jpg",
      "imageDesktop": "/sites/globe.com.ph/files/content/dam/globe/brie/AboutUs/newsroom/consumer/konektayo-wifi-affordable-internet-households-batangas/newsroom-consumer-konektayo-affordable-internet-batangas-primary-thumbnail-d.jpg",
      "description": "With Globe’s KonekTayo, more than 4,500 households in Batangas now have access to reliable and affordable internet.",
      "datePosted": "Jan 14, 2022 | 05:04 PM",
      "titleFromTag": "Consumer"
    }
  ]
}
