{
  "status": 200,
  "page": 82,
  "totalPage": 298,
  "range": "973-984",
  "total": 3573,
  "result": [
    {
      "title": "ABSI Acquires HCX Technology Partners from Ayala Corp.",
      "nonclickable": false,
      "openNewTab": false,
      "borderArticle": "border-color:#0074D9;",
      "borderTopArticle": "border-top-color:#0074D9;",
      "imageListing": "/sites/globe.com.ph/files/content/dam/globe/brie/AboutUs/newsroom/partners/absi-acquires-hcx-technology-partners-ayala-corp/newsroom-partners-absi-acquires-hcx-thumbnail-listing.jpg",
      "articleUrl": "https://www.globe.com.ph/about-us/newsroom/partners/absi-acquires-hcx-technology-partners-ayala-corp.html",
      "columnType": "articles--type-3",
      "typeListing": "article",
      "imageMobile": "/sites/globe.com.ph/files/content/dam/globe/brie/AboutUs/newsroom/partners/absi-acquires-hcx-technology-partners-ayala-corp/newsroom-partners-absi-acquires-hcx-primary-thumbnail-m.jpg",
      "imageDesktop": "/sites/globe.com.ph/files/content/dam/globe/brie/AboutUs/newsroom/partners/absi-acquires-hcx-technology-partners-ayala-corp/newsroom-partners-absi-acquires-hcx-primary-thumbnail-d.jpg",
      "description": "Asti Business Services Inc. is proving to be a key player in the shared services industry, with the recent acquisition of HCX Technology Partners Inc.",
      "datePosted": "Jan 14, 2022 | 02:48 PM",
      "titleFromTag": "Partners"
    },
    {
      "title": "Globe Supports Employee Welfare & Local Communities in Recovering from Typhoon Odette - Globe Newsroom",
      "nonclickable": false,
      "openNewTab": false,
      "borderArticle": "border-color:#0074D9;",
      "borderTopArticle": "border-top-color:#0074D9;",
      "imageListing": "/sites/globe.com.ph/files/content/dam/globe/brie/AboutUs/newsroom/citizenship/employee-welfare-local-communities-recovering-typhoon-odette/newsroom-citizenship-supports-employee-welfare-odette-thumbnail-listing.jpg",
      "articleUrl": "https://www.globe.com.ph/about-us/newsroom/citizenship/employee-welfare-local-communities-recovering-typhoon-odette.html",
      "columnType": "articles--type-3",
      "typeListing": "article",
      "imageMobile": "/sites/globe.com.ph/files/content/dam/globe/brie/AboutUs/newsroom/citizenship/employee-welfare-local-communities-recovering-typhoon-odette/newsroom-citizenship-supports-employee-welfare-odette-primary-thumbnail-m.jpg",
      "imageDesktop": "/sites/globe.com.ph/files/content/dam/globe/brie/AboutUs/newsroom/citizenship/employee-welfare-local-communities-recovering-typhoon-odette/newsroom-citizenship-supports-employee-welfare-odette-primary-thumbnail-d.jpg",
      "description": "Globe has released an initial cash assistance for all employees affected by Typhoon Odette & partnered with PureGo and the Ayala Group to deliver relief goods.",
      "datePosted": "Jan 13, 2022 | 03:56 PM",
      "titleFromTag": "Citizenship"
    },
    {
      "title": "Globe Informs Customers of Service Response Slowdown as COVID Cases Surge in NCR, Encourages Use of Digital Channels",
      "nonclickable": false,
      "openNewTab": false,
      "borderArticle": "border-color:#0074D9;",
      "borderTopArticle": "border-top-color:#0074D9;",
      "imageListing": "/sites/globe.com.ph/files/content/dam/globe/brie/AboutUs/newsroom/common/default-3/corporate-default-7-thumbnail-listing.jpg",
      "articleUrl": "https://www.globe.com.ph/about-us/newsroom/consumer/service-response-slowdown.html",
      "columnType": "articles--type-3",
      "typeListing": "article",
      "imageMobile": "/sites/globe.com.ph/files/content/dam/globe/brie/AboutUs/newsroom/common/default-3/corporate-default-7-primary-thumbnail-m.jpg",
      "imageDesktop": "/sites/globe.com.ph/files/content/dam/globe/brie/AboutUs/newsroom/common/default-3/corporate-default-7-primary-thumbnail-d.jpg",
      "description": "Globe continues to enhance its contactless digital channels to ensure that essential services are up and available amid the surge in Covid cases. ",
      "datePosted": "Jan 11, 2022 | 02:45 PM",
      "titleFromTag": "Consumer"
    },
    {
      "title": "Globe Temporarily Closes Select Stores as COVID Cases Soar",
      "nonclickable": false,
      "openNewTab": false,
      "borderArticle": "border-color:#0074D9;",
      "borderTopArticle": "border-top-color:#0074D9;",
      "imageListing": "/sites/globe.com.ph/files/content/dam/globe/brie/AboutUs/newsroom/consumer/globe-temporarily-closes-select-stores/newsroom-consumer-temporarily-closes-select-stores-thumbnail-listing.jpg",
      "articleUrl": "https://www.globe.com.ph/about-us/newsroom/consumer/globe-temporarily-closes-select-stores.html",
      "columnType": "articles--type-3",
      "typeListing": "article",
      "imageMobile": "/sites/globe.com.ph/files/content/dam/globe/brie/AboutUs/newsroom/consumer/globe-temporarily-closes-select-stores/newsroom-consumer-temporarily-closes-select-stores-primary-thumbnail-m.jpg",
      "imageDesktop": "/sites/globe.com.ph/files/content/dam/globe/brie/AboutUs/newsroom/consumer/globe-temporarily-closes-select-stores/newsroom-consumer-temporarily-closes-select-stores-primary-thumbnail-d.jpg",
      "description": "Globe announces the temporary closure of select Stores in NCR and other areas, as Covid cases surge. ",
      "datePosted": "Jan 11, 2022 | 02:05 PM",
      "titleFromTag": "Consumer"
    },
    {
      "title": "Globe Extends FREE Calls, Texts and Data to Customers in Kazakhstan amid Unrest",
      "nonclickable": false,
      "openNewTab": false,
      "borderArticle": "border-color:#0074D9;",
      "borderTopArticle": "border-top-color:#0074D9;",
      "imageListing": "/sites/globe.com.ph/files/content/dam/globe/brie/AboutUs/newsroom/common/default-10/default-consumer-2-thumbnail-listing.jpg",
      "articleUrl": "https://www.globe.com.ph/about-us/newsroom/consumer/globe-extends-free-calls-texts-data-kazakhstan.html",
      "columnType": "articles--type-3",
      "typeListing": "article",
      "imageMobile": "/sites/globe.com.ph/files/content/dam/globe/brie/AboutUs/newsroom/common/default-10/default-consumer-2-primary-thumbnail-m.jpg",
      "imageDesktop": "/sites/globe.com.ph/files/content/dam/globe/brie/AboutUs/newsroom/common/default-10/default-consumer-2-primary-thumbnail-d.jpg",
      "description": "In light of Kazakhstan's situation, Globe is providing assistance in the form of free calls, texts and data to customers currently roaming in the country.",
      "datePosted": "Jan 10, 2022 | 12:09 PM",
      "titleFromTag": "Consumer"
    },
    {
      "title": "KonsultaMD and Viber Philippines Collaborate to Connect Filipinos to Telehealth Services in Response to Typhoon Odette",
      "nonclickable": false,
      "openNewTab": false,
      "borderArticle": "border-color:#0074D9;",
      "borderTopArticle": "border-top-color:#0074D9;",
      "imageListing": "/sites/globe.com.ph/files/content/dam/globe/brie/AboutUs/newsroom/common/default-4/default-consumer-3-thumbnail-listing.jpg",
      "articleUrl": "https://www.globe.com.ph/about-us/newsroom/consumer/konsultamd-viber-collaborate-telehealth-services-response-typhoon-odette.html",
      "columnType": "articles--type-3",
      "typeListing": "article",
      "imageMobile": "/sites/globe.com.ph/files/content/dam/globe/brie/AboutUs/newsroom/common/default-4/default-consumer-3-primary-thumbnail-m.jpg",
      "imageDesktop": "/sites/globe.com.ph/files/content/dam/globe/brie/AboutUs/newsroom/common/default-4/default-consumer-3-primary-thumbnail-d.jpg",
      "description": "Globe's telehealth service provider, KonsultaMD, has partnered with Viber to provide critical healthcare services to families affected by Typhoon Odette.",
      "datePosted": "Jan 07, 2022 | 03:35 PM",
      "titleFromTag": "Consumer"
    },
    {
      "title": "Globe Wins Ethical Boardroom’s Best Corporate Governance Award for Telecoms in Asia",
      "nonclickable": false,
      "openNewTab": false,
      "borderArticle": "border-color:#0074D9;",
      "borderTopArticle": "border-top-color:#0074D9;",
      "imageListing": "/sites/globe.com.ph/files/content/dam/globe/brie/AboutUs/newsroom/corporate/ethical-boardroom-best-corporate-governance-award-telecoms-asia/newsroom-corporate-best-corporate-governance-award-thumbnail-listing.jpg",
      "articleUrl": "https://www.globe.com.ph/about-us/newsroom/corporate/ethical-boardroom-best-corporate-governance-award-telecoms-asia.html",
      "columnType": "articles--type-3",
      "typeListing": "article",
      "imageMobile": "/sites/globe.com.ph/files/content/dam/globe/brie/AboutUs/newsroom/corporate/ethical-boardroom-best-corporate-governance-award-telecoms-asia/newsroom-corporate-best-corporate-governance-award-primary-thumbnail-m.jpg",
      "imageDesktop": "/sites/globe.com.ph/files/content/dam/globe/brie/AboutUs/newsroom/corporate/ethical-boardroom-best-corporate-governance-award-telecoms-asia/newsroom-corporate-best-corporate-governance-award-primary-thumbnail-d.jpg",
      "description": "Globe was awarded Best Corporate Governance (CG) in Asia by London’s Ethical Boardroom under the Telecoms category.",
      "datePosted": "Jan 07, 2022 | 09:10 AM",
      "titleFromTag": "Corporate"
    },
    {
      "title": "9th GMEA Submission of Entries Extended until January 31, 2022",
      "nonclickable": false,
      "openNewTab": false,
      "borderArticle": "border-color:#0074D9;",
      "borderTopArticle": "border-top-color:#0074D9;",
      "imageListing": "/sites/globe.com.ph/files/content/dam/globe/brie/AboutUs/newsroom/corporate/gmea-submission-entries-extended/newsroom-corporate-gmea-submission-entries-extended-thumbnail-listing.jpg",
      "articleUrl": "https://www.globe.com.ph/about-us/newsroom/corporate/gmea-submission-entries-extended.html",
      "columnType": "articles--type-3",
      "typeListing": "article",
      "imageMobile": "/sites/globe.com.ph/files/content/dam/globe/brie/AboutUs/newsroom/corporate/gmea-submission-entries-extended/newsroom-corporate-gmea-submission-entries-extended-primary-thumbnail-m.jpg",
      "imageDesktop": "/sites/globe.com.ph/files/content/dam/globe/brie/AboutUs/newsroom/corporate/gmea-submission-entries-extended/newsroom-corporate-gmea-submission-entries-extended-primary-thumbnail-d.jpg",
      "description": "In light of Super Typhoon Odette, which wreaked havoc in Visayas and Mindanao recently, submission of entries for the 9th GMEA is extended until January 31.",
      "datePosted": "Jan 07, 2022 | 09:04 AM",
      "titleFromTag": "Corporate"
    },
    {
      "title": "Globe Studios Transforms into ANIMA, Expect More Blockbusters in 2022",
      "nonclickable": false,
      "openNewTab": false,
      "borderArticle": "border-color:#0074D9;",
      "borderTopArticle": "border-top-color:#0074D9;",
      "imageListing": "/sites/globe.com.ph/files/content/dam/globe/brie/AboutUs/newsroom/sustainability/globe-studios-transforms-into-anima/newsroom-consumer-globe-studio-transforms-anima-thumbnail-listing.jpg",
      "articleUrl": "https://www.globe.com.ph/about-us/newsroom/sustainability/globe-studios-transforms-into-anima.html",
      "columnType": "articles--type-3",
      "typeListing": "article",
      "imageMobile": "/sites/globe.com.ph/files/content/dam/globe/brie/AboutUs/newsroom/sustainability/globe-studios-transforms-into-anima/newsroom-consumer-globe-studio-transforms-anima-primary-thumbnail-m.jpg",
      "imageDesktop": "/sites/globe.com.ph/files/content/dam/globe/brie/AboutUs/newsroom/sustainability/globe-studios-transforms-into-anima/newsroom-consumer-globe-studio-transforms-anima-primary-thumbnail-d.jpg",
      "description": "ANIMA is the new name of Globe Studios, an organization now under the umbrella of Kroma Entertainment, Inc.",
      "datePosted": "Jan 05, 2022 | 03:39 PM",
      "titleFromTag": "Consumer"
    },
    {
      "title": "Typhoon Odette Service Advisory",
      "nonclickable": false,
      "openNewTab": false,
      "borderArticle": "border-color:#0074D9;",
      "borderTopArticle": "border-top-color:#0074D9;",
      "imageListing": "/sites/globe.com.ph/files/content/dam/globe/brie/AboutUs/newsroom/common/default-3/corporate-default-7-thumbnail-listing.jpg",
      "articleUrl": "https://www.globe.com.ph/about-us/newsroom/corporate/typhoon-odette-service-advisory.html",
      "columnType": "articles--type-3",
      "typeListing": "article",
      "imageMobile": "/sites/globe.com.ph/files/content/dam/globe/brie/AboutUs/newsroom/common/default-3/corporate-default-7-primary-thumbnail-m.jpg",
      "imageDesktop": "/sites/globe.com.ph/files/content/dam/globe/brie/AboutUs/newsroom/common/default-3/corporate-default-7-primary-thumbnail-d.jpg",
      "description": "For Typhoon Odette, Globe offered Prepaid and TM customers 1-day unli text to all networks, 1 free month of KonsultaMD, and unli calls to Globe and TM numbers.",
      "datePosted": "Jan 04, 2022 | 11:31 AM",
      "titleFromTag": "Corporate"
    },
    {
      "title": "Make Extra Income from Home with Globe at Home and Google Negosyo Talk!",
      "nonclickable": false,
      "openNewTab": false,
      "borderArticle": "border-color:#0074D9;",
      "borderTopArticle": "border-top-color:#0074D9;",
      "imageListing": "/sites/globe.com.ph/files/content/dam/globe/brie/AboutUs/newsroom/corporate/extra-income-globe-at-home-google-negosyo-talk/newsroom-business-extra-income-negosyo-talk-thumbnail-listing.jpg",
      "articleUrl": "https://www.globe.com.ph/about-us/newsroom/corporate/extra-income-globe-at-home-google-negosyo-talk.html",
      "columnType": "articles--type-3",
      "typeListing": "article",
      "imageMobile": "/sites/globe.com.ph/files/content/dam/globe/brie/AboutUs/newsroom/corporate/extra-income-globe-at-home-google-negosyo-talk/newsroom-business-extra-income-negosyo-talk-primary-thumbnail-m.jpg",
      "imageDesktop": "/sites/globe.com.ph/files/content/dam/globe/brie/AboutUs/newsroom/corporate/extra-income-globe-at-home-google-negosyo-talk/newsroom-business-extra-income-negosyo-talk-primary-thumbnail-d.jpg",
      "description": "Globe At Home Prepaid WiFi together with Google held the Google Negosyo Talk: Trending Negosyo - Usapang Online Business held last December 3.",
      "datePosted": "Jan 03, 2022 | 03:51 PM",
      "titleFromTag": "Corporate"
    },
    {
      "title": "Globe Waives Data Charges on UNICEF’s SaferKidsPH Platform to Boost Fight against Online Child Exploitation",
      "nonclickable": false,
      "openNewTab": false,
      "borderArticle": "border-color:#0074D9;",
      "borderTopArticle": "border-top-color:#0074D9;",
      "imageListing": "/sites/globe.com.ph/files/content/dam/globe/brie/AboutUs/newsroom/consumer/newsroom-saferkidsph-boost-fight-exploitation/newsroom-saferkidsph-boost-fight-exploitation-thumbnail-listing.jpg",
      "articleUrl": "https://www.globe.com.ph/about-us/newsroom/consumer/globe-waives-data-charges-unicef-saferkidsph.html",
      "columnType": "articles--type-3",
      "typeListing": "article",
      "imageMobile": "/sites/globe.com.ph/files/content/dam/globe/brie/AboutUs/newsroom/consumer/newsroom-saferkidsph-boost-fight-exploitation/newsroom-saferkidsph-boost-fight-exploitation-primary-thumbnail-m.jpg",
      "imageDesktop": "/sites/globe.com.ph/files/content/dam/globe/brie/AboutUs/newsroom/consumer/newsroom-saferkidsph-boost-fight-exploitation/newsroom-saferkidsph-boost-fight-exploitation-primary-thumbnail-d.jpg",
      "description": "In an effort to join the fight against Online Child Exploitation, Globe waives data charges on Unicef’s SaferKidsPH platform.",
      "datePosted": "Jan 03, 2022 | 10:21 AM",
      "titleFromTag": "Consumer"
    }
  ]
}
