{
  "status": 200,
  "page": 83,
  "totalPage": 298,
  "range": "985-996",
  "total": 3573,
  "result": [
    {
      "title": "Globe Extends Bill Rebates, Payment Due Dates for Customers Affected by Odette to January 2, 2022",
      "nonclickable": false,
      "openNewTab": false,
      "borderArticle": "border-color:#0074D9;",
      "borderTopArticle": "border-top-color:#0074D9;",
      "imageListing": "/sites/globe.com.ph/files/content/dam/globe/brie/AboutUs/newsroom/common/default-4/default-consumer-3-thumbnail-listing.jpg",
      "articleUrl": "https://www.globe.com.ph/about-us/newsroom/consumer/globe-extends-bill-rebates-payment-due-dates-typhoon-odette.html",
      "columnType": "articles--type-3",
      "typeListing": "article",
      "imageMobile": "/sites/globe.com.ph/files/content/dam/globe/brie/AboutUs/newsroom/common/default-4/default-consumer-3-primary-thumbnail-m.jpg",
      "imageDesktop": "/sites/globe.com.ph/files/content/dam/globe/brie/AboutUs/newsroom/common/default-4/default-consumer-3-primary-thumbnail-d.jpg",
      "description": "To aid those affected by Typhoon Odette, Globe extended bill rebates and payment due dates for Globe At Home, Globe Platinum, and Postpaid mobile customers.",
      "datePosted": "Dec 28, 2021 | 04:00 PM",
      "titleFromTag": "Consumer"
    },
    {
      "title": "Creating a Positive Learning Environment: Globe Encourages Parents and Teachers to Collaborate for Students’ Upskilling",
      "nonclickable": false,
      "openNewTab": false,
      "borderArticle": "border-color:#1C91C5;",
      "borderTopArticle": "border-top-color:#1C91C5;",
      "imageListing": "/sites/globe.com.ph/files/content/dam/globe/brie/AboutUs/newsroom/corporate/globe-encourages-parents-teachers-collaborate-students-upskilling/newsroom-corporate-parents-teachers-collaborate-thumbnail-listing.jpg",
      "articleUrl": "https://www.globe.com.ph/about-us/newsroom/corporate/globe-encourages-parents-teachers-collaborate-students-upskilling.html",
      "columnType": "articles--type-3",
      "typeListing": "article",
      "imageMobile": "/sites/globe.com.ph/files/content/dam/globe/brie/AboutUs/newsroom/corporate/globe-encourages-parents-teachers-collaborate-students-upskilling/newsroom-corporate-parents-teachers-collaborate-primary-thumbnail-m.jpg",
      "imageDesktop": "/sites/globe.com.ph/files/content/dam/globe/brie/AboutUs/newsroom/corporate/globe-encourages-parents-teachers-collaborate-students-upskilling/newsroom-corporate-parents-teachers-collaborate-primary-thumbnail-d.jpg",
      "description": "Globe upheld the importance of collaboration between teachers and parents in the second part of “Exploring Parental Engagement Practice in the School.”",
      "datePosted": "Dec 28, 2021 | 12:51 PM",
      "titleFromTag": "Corporate"
    },
    {
      "title": "Globe Strengthens Cyber Education Campaign; Calls on Customers to Stay Vigilant in Protecting their Data",
      "nonclickable": false,
      "openNewTab": false,
      "borderArticle": "border-color:#0074D9;",
      "borderTopArticle": "border-top-color:#0074D9;",
      "imageListing": "/sites/globe.com.ph/files/content/dam/globe/brie/AboutUs/newsroom/corporate/globe-strengthens-cyber-education-campaign/newsroom-corporate-cyber-education-campaign-thumbnail-listing.jpg",
      "articleUrl": "https://www.globe.com.ph/about-us/newsroom/corporate/globe-strengthens-cyber-education-campaign.html",
      "columnType": "articles--type-3",
      "typeListing": "article",
      "imageMobile": "/sites/globe.com.ph/files/content/dam/globe/brie/AboutUs/newsroom/corporate/globe-strengthens-cyber-education-campaign/newsroom-corporate-cyber-education-campaign-primary-thumbnail-m.jpg",
      "imageDesktop": "/sites/globe.com.ph/files/content/dam/globe/brie/AboutUs/newsroom/corporate/globe-strengthens-cyber-education-campaign/newsroom-corporate-cyber-education-campaign-primary-thumbnail-d.jpg",
      "description": "Globe strengthens education on its customers against cybercrimes. #makeITsafePH campaign continues to roll out Digital Thumbprint Program.",
      "datePosted": "Dec 27, 2021 | 01:51 PM",
      "titleFromTag": "Corporate"
    },
    {
      "title": "Government Centers in Pampanga Get Signal Boost from Globe’s ‘Cell Site on Wheels’",
      "nonclickable": false,
      "openNewTab": false,
      "borderArticle": "border-color:#1C91C5;",
      "borderTopArticle": "border-top-color:#1C91C5;",
      "imageListing": "/sites/globe.com.ph/files/content/dam/globe/brie/AboutUs/newsroom/corporate/26-new-towers-377-site-upgrades-pampanga/newsroom-corporate-377-sites-pampanga-thumbnail-listing.jpg",
      "articleUrl": "https://www.globe.com.ph/about-us/newsroom/corporate/government-centers-pampanga-signal-boost-cell-site-on-wheels.html",
      "columnType": "articles--type-3",
      "typeListing": "article",
      "imageMobile": "/sites/globe.com.ph/files/content/dam/globe/brie/AboutUs/newsroom/corporate/26-new-towers-377-site-upgrades-pampanga/newsroom-corporate-377-sites-pampanga-primary-thumbnail-m.jpg",
      "imageDesktop": "/sites/globe.com.ph/files/content/dam/globe/brie/AboutUs/newsroom/corporate/26-new-towers-377-site-upgrades-pampanga/newsroom-corporate-377-sites-pampanga-primary-thumbnail-d.jpg",
      "description": "To enhance mobile signal in government offices within the region, Globe deployed its Cell Site on Wheels in San Fernando, Pampanga. ",
      "datePosted": "Dec 27, 2021 | 12:00 PM",
      "titleFromTag": "Corporate"
    },
    {
      "title": "Globe Offers Free Data, Unli Calls and SMS to Customers Affected by Odette",
      "nonclickable": false,
      "openNewTab": false,
      "borderArticle": "border-color:#0074D9;",
      "borderTopArticle": "border-top-color:#0074D9;",
      "imageListing": "/sites/globe.com.ph/files/content/dam/globe/brie/AboutUs/newsroom/common/default-3/corporate-default-7-thumbnail-listing.jpg",
      "articleUrl": "https://www.globe.com.ph/about-us/newsroom/corporate/free-data-unli-calls-sms-odette.html",
      "columnType": "articles--type-3",
      "typeListing": "article",
      "imageMobile": "/sites/globe.com.ph/files/content/dam/globe/brie/AboutUs/newsroom/common/default-3/corporate-default-7-primary-thumbnail-m.jpg",
      "imageDesktop": "/sites/globe.com.ph/files/content/dam/globe/brie/AboutUs/newsroom/common/default-3/corporate-default-7-primary-thumbnail-d.jpg",
      "description": "Globe offered 1-day unli text to all networks, unli calls to Globe & TM, and one free month of KonsultaMD to typhoon-affected Globe & TM prepaid customers.",
      "datePosted": "Dec 19, 2021 | 12:00 PM",
      "titleFromTag": "Corporate"
    },
    {
      "title": "Philippine Startup KodeGo Wins Big at Singtel Group’s Regional Program for Social Innovation",
      "nonclickable": false,
      "openNewTab": false,
      "borderArticle": "border-color:#0074D9;",
      "borderTopArticle": "border-top-color:#0074D9;",
      "imageListing": "/sites/globe.com.ph/files/content/dam/globe/brie/AboutUs/newsroom/917ventures/kodego-wins-big-singtel-group-regional-program/917Ventures-Kodego-Singtel-thumbnail-listing.jpg",
      "articleUrl": "https://www.globe.com.ph/about-us/newsroom/917ventures/kodego-wins-big-singtel-group-regional-program.html",
      "columnType": "articles--type-3",
      "typeListing": "article",
      "imageMobile": "/sites/globe.com.ph/files/content/dam/globe/brie/AboutUs/newsroom/917ventures/kodego-wins-big-singtel-group-regional-program/917Ventures-Kodego-Singtel-primary-thumbnail-m.jpg",
      "imageDesktop": "/sites/globe.com.ph/files/content/dam/globe/brie/AboutUs/newsroom/917ventures/kodego-wins-big-singtel-group-regional-program/917Ventures-Kodego-Singtel-primary-thumbnail-d.jpg",
      "description": "KodeGo, a startup under Globe’s corporate venture builder, 917Ventures, secured  SG$30,000, and landed a spot in the 2021 Singtel Group Future Makers Program.  ",
      "datePosted": "Dec 17, 2021 | 02:57 PM",
      "titleFromTag": "917Ventures"
    },
    {
      "title": "Globe Calls on Stronger Private Sector Partnership to Combat Text Scams",
      "nonclickable": false,
      "openNewTab": false,
      "borderArticle": "border-color:#0074D9;",
      "borderTopArticle": "border-top-color:#0074D9;",
      "imageListing": "/sites/globe.com.ph/files/content/dam/globe/brie/AboutUs/newsroom/corporate/largest-ph-publicly-listed-telco-digital-solutions-group/Corporate-globe-thumbnail-listing.jpg",
      "articleUrl": "https://www.globe.com.ph/about-us/newsroom/corporate/stronger-private-sector-partnership-combat-text-scams.html",
      "columnType": "articles--type-3",
      "typeListing": "article",
      "imageMobile": "/sites/globe.com.ph/files/content/dam/globe/brie/AboutUs/newsroom/corporate/largest-ph-publicly-listed-telco-digital-solutions-group/Corporate-globe-primary-thumbnail-m.jpg",
      "imageDesktop": "/sites/globe.com.ph/files/content/dam/globe/brie/AboutUs/newsroom/corporate/largest-ph-publicly-listed-telco-digital-solutions-group/Corporate-globe-primary-thumbnail-d.jpg",
      "description": "While Globe has been working closely with the NPC to address text scams, it also calls for the private sector to be more open to collaboration to prevent this.",
      "datePosted": "Dec 16, 2021 | 11:02 AM",
      "titleFromTag": "Corporate"
    },
    {
      "title": "Globe Business Upstart Eyes to Accelerate Loyal MSME Clients’ Success through Exclusive Digital Services",
      "nonclickable": false,
      "openNewTab": false,
      "borderArticle": "border-color:#0074D9;",
      "borderTopArticle": "border-top-color:#0074D9;",
      "imageListing": "/sites/globe.com.ph/files/content/dam/globe/brie/AboutUs/newsroom/business/default-business-4/default-business-4-thumbnail-listing.jpg",
      "articleUrl": "https://www.globe.com.ph/about-us/newsroom/business/upstart-accelerate-loyal-msme-clients-success.html",
      "columnType": "articles--type-3",
      "typeListing": "article",
      "imageMobile": "/sites/globe.com.ph/files/content/dam/globe/brie/AboutUs/newsroom/business/default-business-4/default-business-4-primary-thumbnail-m.jpg",
      "imageDesktop": "/sites/globe.com.ph/files/content/dam/globe/brie/AboutUs/newsroom/business/default-business-4/default-business-4-primary-thumbnail-d.jpg",
      "description": "Globe Business empowers the rise of the Filipino entrepreneurs, aspiring to be the trusted partner of micro, small and medium enterprises (MSMEs).",
      "datePosted": "Dec 15, 2021 | 10:45 AM",
      "titleFromTag": "Business"
    },
    {
      "title": "Globe Business Upholds Operational Efficiency and Connectivity for Software Developers",
      "nonclickable": false,
      "openNewTab": false,
      "borderArticle": "border-color:#0074D9;",
      "borderTopArticle": "border-top-color:#0074D9;",
      "imageListing": "/sites/globe.com.ph/files/content/dam/globe/brie/AboutUs/newsroom/business/globe-business-upholds-operational-efficiency-connectivity/newsroom-business-upholds-operation-efficiency-developers-thumbnail-listing.jpg",
      "articleUrl": "https://www.globe.com.ph/about-us/newsroom/business/globe-business-upholds-operational-efficiency-connectivity.html",
      "columnType": "articles--type-3",
      "typeListing": "article",
      "imageMobile": "/sites/globe.com.ph/files/content/dam/globe/brie/AboutUs/newsroom/business/globe-business-upholds-operational-efficiency-connectivity/newsroom-business-upholds-operation-efficiency-developers-primary-thumbnail-m.jpg",
      "imageDesktop": "/sites/globe.com.ph/files/content/dam/globe/brie/AboutUs/newsroom/business/globe-business-upholds-operational-efficiency-connectivity/newsroom-business-upholds-operation-efficiency-developers-primary-thumbnail-d.jpg",
      "description": "Globe Business makes sure that its solutions provide stronger connectivity and enhanced data privacy for software developers in various industries.",
      "datePosted": "Dec 14, 2021 | 06:11 PM",
      "titleFromTag": "Business"
    },
    {
      "title": "Globe Business Future-proofs MSMEs with Business Recovery Program",
      "nonclickable": false,
      "openNewTab": false,
      "borderArticle": "border-color:#0074D9;",
      "borderTopArticle": "border-top-color:#0074D9;",
      "imageListing": "/sites/globe.com.ph/files/content/dam/globe/brie/AboutUs/newsroom/business/future-proof-msmes-business-recovery-program/newsroom-business-future-proofs-msmes-thumbnail-listing.jpg",
      "articleUrl": "https://www.globe.com.ph/about-us/newsroom/business/future-proof-msmes-business-recovery-program.html",
      "columnType": "articles--type-3",
      "typeListing": "article",
      "imageMobile": "/sites/globe.com.ph/files/content/dam/globe/brie/AboutUs/newsroom/business/future-proof-msmes-business-recovery-program/newsroom-business-future-proofs-msmes-primary-thumbnail-m.jpg",
      "imageDesktop": "/sites/globe.com.ph/files/content/dam/globe/brie/AboutUs/newsroom/business/future-proof-msmes-business-recovery-program/newsroom-business-future-proofs-msmes-primary-thumbnail-d.jpg",
      "description": "Through the Globe Business Recovery Program, the digital solutions provider helps MSMEs by analyzing how they cope with events like disasters or pandemics.",
      "datePosted": "Dec 14, 2021 | 04:38 PM",
      "titleFromTag": "Business"
    },
    {
      "title": "Attention EXO-Ls! 0917 Lifestyle Just Dropped an Exclusive EXO ‘Don’t Fight the Feeling’ Collection with SM Entertainment",
      "nonclickable": false,
      "openNewTab": false,
      "borderArticle": "border-color:#0074D9;",
      "borderTopArticle": "border-top-color:#0074D9;",
      "imageListing": "/sites/globe.com.ph/files/content/dam/globe/brie/AboutUs/newsroom/consumer/0917-lifestyle-exclusive-exo-collection/newsroom-consumer-exo-ls-collection-thumbnail-listing.jpg",
      "articleUrl": "https://www.globe.com.ph/about-us/newsroom/consumer/0917-lifestyle-exclusive-exo-collection.html",
      "columnType": "articles--type-3",
      "typeListing": "article",
      "imageMobile": "/sites/globe.com.ph/files/content/dam/globe/brie/AboutUs/newsroom/consumer/0917-lifestyle-exclusive-exo-collection/newsroom-consumer-exo-ls-collection-primary-thumbnail-m.jpg",
      "imageDesktop": "/sites/globe.com.ph/files/content/dam/globe/brie/AboutUs/newsroom/consumer/0917-lifestyle-exclusive-exo-collection/newsroom-consumer-exo-ls-collection-primary-thumbnail-d.jpg",
      "description": "You and your chingu can get your hands on official EXO merch that’s definitely a must-have for all Filipino EXO-Ls with Globe 0917 Lifestyle.",
      "datePosted": "Dec 14, 2021 | 12:25 PM",
      "titleFromTag": "Consumer"
    },
    {
      "title": "Globe, Multinational Companies Say ESG Practice Vital to Business at Lead-in 2021",
      "nonclickable": false,
      "openNewTab": false,
      "borderArticle": "border-color:#1C91C5;",
      "borderTopArticle": "border-top-color:#1C91C5;",
      "imageListing": "/sites/globe.com.ph/files/content/dam/globe/brie/AboutUs/newsroom/sustainability/esg-practice-vital-to-business/newsroom-sustainability-esg-vital-business-lead-thumbnail-listing.jpg",
      "articleUrl": "https://www.globe.com.ph/about-us/newsroom/sustainability/esg-practice-vital-to-business.html",
      "columnType": "articles--type-3",
      "typeListing": "article",
      "imageMobile": "/sites/globe.com.ph/files/content/dam/globe/brie/AboutUs/newsroom/sustainability/esg-practice-vital-to-business/newsroom-sustainability-esg-vital-business-lead-primary-thumbnail-m.jpg",
      "imageDesktop": "/sites/globe.com.ph/files/content/dam/globe/brie/AboutUs/newsroom/sustainability/esg-practice-vital-to-business/newsroom-sustainability-esg-vital-business-lead-primary-thumbnail-d.jpg",
      "description": "Globe and multinational companies stressed the importance of integrating environmental, social, and governance (ESG) practices in business operations.",
      "datePosted": "Dec 14, 2021 | 11:32 AM",
      "titleFromTag": "Sustainability"
    }
  ]
}
