{
  "status": 200,
  "page": 84,
  "totalPage": 298,
  "range": "997-1008",
  "total": 3573,
  "result": [
    {
      "title": "Asticom Named ‘Employer of Choice’ in 2021 HRD Asia Awards",
      "nonclickable": false,
      "openNewTab": false,
      "borderArticle": "border-color:#0074D9;",
      "borderTopArticle": "border-top-color:#0074D9;",
      "imageListing": "/sites/globe.com.ph/files/content/dam/globe/brie/AboutUs/newsroom/partners/globe-plan-international-bring-down-sexual-exploitation-children/newsroom-partners-bring-down-exploitation-of-children-thumbnail-listing.jpg",
      "articleUrl": "https://www.globe.com.ph/about-us/newsroom/partners/globe-plan-international-bring-down-sexual-exploitation-children.html",
      "columnType": "articles--type-3",
      "typeListing": "article",
      "imageMobile": "/sites/globe.com.ph/files/content/dam/globe/brie/AboutUs/newsroom/partners/globe-plan-international-bring-down-sexual-exploitation-children/newsroom-partners-bring-down-exploitation-of-children-primary-thumbnail-m.jpg",
      "imageDesktop": "/sites/globe.com.ph/files/content/dam/globe/brie/AboutUs/newsroom/partners/globe-plan-international-bring-down-sexual-exploitation-children/newsroom-partners-bring-down-exploitation-of-children-primary-thumbnail-d.jpg",
      "description": "Globe & Plan International Philippines are collaborating to address the rising threats and risks to children’s safety and their online security via DtZ program.",
      "datePosted": "Dec 14, 2021 | 08:51 AM",
      "titleFromTag": "Partners"
    },
    {
      "title": "Asticom Named ‘Employer of Choice’ in 2021 HRD Asia Awards",
      "nonclickable": false,
      "openNewTab": false,
      "borderArticle": "border-color:#0074D9;",
      "borderTopArticle": "border-top-color:#0074D9;",
      "imageListing": "/sites/globe.com.ph/files/content/dam/globe/brie/AboutUs/newsroom/partners/asticom-employer-of-choice-2021-hrd-asia-awards/newsroom-partners-asticom-employer-of-choice-thumbnail-listing.jpg",
      "articleUrl": "https://www.globe.com.ph/about-us/newsroom/partners/asticom-employer-of-choice-2021-hrd-asia-awards.html",
      "columnType": "articles--type-3",
      "typeListing": "article",
      "imageMobile": "/sites/globe.com.ph/files/content/dam/globe/brie/AboutUs/newsroom/partners/asticom-employer-of-choice-2021-hrd-asia-awards/newsroom-partners-asticom-employer-of-choice-primary-thumbnail-m.jpg",
      "imageDesktop": "/sites/globe.com.ph/files/content/dam/globe/brie/AboutUs/newsroom/partners/asticom-employer-of-choice-2021-hrd-asia-awards/newsroom-partners-asticom-employer-of-choice-primary-thumbnail-d.jpg",
      "description": "Globe’s shared services company Asticom Technology, Inc. was named “Employer of Choice” in the HRD Asia Awards 2021 for enterprises with over 1,000 employees.",
      "datePosted": "Dec 14, 2021 | 08:51 AM",
      "titleFromTag": "Partners"
    },
    {
      "title": "From Zero to Hero: Bukidnon Community Thrives with New Globe Cell Site ",
      "nonclickable": false,
      "openNewTab": false,
      "borderArticle": "border-color:#0074D9;",
      "borderTopArticle": "border-top-color:#0074D9;",
      "imageListing": "/sites/globe.com.ph/files/content/dam/globe/brie/AboutUs/newsroom/consumer/bukidnon-community-thrives-new-globe-cell-site/newsroom-consumer-bukidnon-thrives-new-site-thumbnail-listing.jpg",
      "articleUrl": "https://www.globe.com.ph/about-us/newsroom/consumer/bukidnon-community-thrives-new-globe-cell-site.html",
      "columnType": "articles--type-3",
      "typeListing": "article",
      "imageMobile": "/sites/globe.com.ph/files/content/dam/globe/brie/AboutUs/newsroom/consumer/bukidnon-community-thrives-new-globe-cell-site/newsroom-consumer-bukidnon-thrives-new-site-primary-thumbnail-m.jpg",
      "imageDesktop": "/sites/globe.com.ph/files/content/dam/globe/brie/AboutUs/newsroom/consumer/bukidnon-community-thrives-new-globe-cell-site/newsroom-consumer-bukidnon-thrives-new-site-primary-thumbnail-d.jpg",
      "description": "With Globe’s new cell site equipped with 4G LTE, the people of Barangay San Nicolas, San Carlos, Bukidnon felt a great relief. ",
      "datePosted": "Dec 14, 2021 | 08:45 AM",
      "titleFromTag": "Consumer"
    },
    {
      "title": "Five Ways for MSMEs to Fuel Business Growth with Globe Labs APIs",
      "nonclickable": false,
      "openNewTab": false,
      "borderArticle": "border-color:#0074D9;",
      "borderTopArticle": "border-top-color:#0074D9;",
      "imageListing": "/sites/globe.com.ph/files/content/dam/globe/brie/AboutUs/newsroom/business/business-growth-with-globe-labs-apis/newsroom-business-msmes-fuel-business-growth-zoom-thumbnail-listing.jpg",
      "articleUrl": "https://www.globe.com.ph/about-us/newsroom/business/ways-msmes-fuel-business-growth-globe-labs-apis.html",
      "columnType": "articles--type-3",
      "typeListing": "article",
      "imageMobile": "/sites/globe.com.ph/files/content/dam/globe/brie/AboutUs/newsroom/business/business-growth-with-globe-labs-apis/newsroom-business-msmes-fuel-business-growth-primary-thumbnail-m.jpg",
      "imageDesktop": "/sites/globe.com.ph/files/content/dam/globe/brie/AboutUs/newsroom/business/business-growth-with-globe-labs-apis/newsroom-business-msmes-fuel-business-growth-primary-thumbnail-d.jpg",
      "description": "For every business roadblock and term of lackluster growth, there’s a Globe Labs Application Programming Interface (API) designed to solve the problem.",
      "datePosted": "Dec 10, 2021 | 02:23 PM",
      "titleFromTag": "Business"
    },
    {
      "title": "Globe Business Supports Advertising Sector through Innovative Digital Solutions",
      "nonclickable": false,
      "openNewTab": false,
      "borderArticle": "border-color:#0074D9;",
      "borderTopArticle": "border-top-color:#0074D9;",
      "imageListing": "/sites/globe.com.ph/files/content/dam/globe/brie/AboutUs/newsroom/business/supports-advertising-sector-innovative-digital-solutions/newsroom-business-supports-advertising-digital-solutions-thumbnail-listing.jpg",
      "articleUrl": "https://www.globe.com.ph/about-us/newsroom/business/supports-advertising-sector-innovative-digital-solutions.html",
      "columnType": "articles--type-3",
      "typeListing": "article",
      "imageMobile": "/sites/globe.com.ph/files/content/dam/globe/brie/AboutUs/newsroom/business/supports-advertising-sector-innovative-digital-solutions/newsroom-business-supports-advertising-digital-solutions-primary-thumbnail-m.jpg",
      "imageDesktop": "/sites/globe.com.ph/files/content/dam/globe/brie/AboutUs/newsroom/business/supports-advertising-sector-innovative-digital-solutions/newsroom-business-supports-advertising-digital-solutions-primary-thumbnail-d.jpg",
      "description": "Globe Business has partnered with ASAP in a virtual roundtable discussion dubbed “ASAP: Handa Ka Na Ba?! Thriving in the New Ad Industry.”",
      "datePosted": "Dec 10, 2021 | 09:45 AM",
      "titleFromTag": "Business"
    },
    {
      "title": "Globe Offers Automated Voice Response Technology to LGUs for Faster Community Response",
      "nonclickable": false,
      "openNewTab": false,
      "borderArticle": "border-color:#0074D9;",
      "borderTopArticle": "border-top-color:#0074D9;",
      "imageListing": "/sites/globe.com.ph/files/content/dam/globe/brie/AboutUs/newsroom/consumer/automated-voice-response-technology-lgu/newsroom-consumer-automated-voice-response-lgu-thumbnail-listing.jpg",
      "articleUrl": "https://www.globe.com.ph/about-us/newsroom/consumer/automated-voice-response-technology-lgu.html",
      "columnType": "articles--type-3",
      "typeListing": "article",
      "imageMobile": "/sites/globe.com.ph/files/content/dam/globe/brie/AboutUs/newsroom/consumer/automated-voice-response-technology-lgu/newsroom-consumer-automated-voice-response-lgu-primary-thumbnail-m.jpg",
      "imageDesktop": "/sites/globe.com.ph/files/content/dam/globe/brie/AboutUs/newsroom/consumer/automated-voice-response-technology-lgu/newsroom-consumer-automated-voice-response-lgu-primary-thumbnail-d.jpg",
      "description": "To help community leaders accomplish this with ease, Globe introduces an automated voice response technology via IVES or Interactive Voice Engagement Solution.",
      "datePosted": "Dec 10, 2021 | 09:45 AM",
      "titleFromTag": "Consumer"
    },
    {
      "title": "Experience a Better, Wider WiFi Coverage with Globe At Home and Linksys Atlas Pro 6",
      "nonclickable": false,
      "openNewTab": false,
      "borderArticle": "border-color:#0074D9;",
      "borderTopArticle": "border-top-color:#0074D9;",
      "imageListing": "/sites/globe.com.ph/files/content/dam/globe/brie/AboutUs/newsroom/consumer/better-wider-wifi-globe-at-home-linksys/newsroom-consumer-wider-wifi-coverage-linksys-thumbnail-listing.jpg",
      "articleUrl": "https://www.globe.com.ph/about-us/newsroom/consumer/better-wider-wifi-globe-at-home-linksys.html",
      "columnType": "articles--type-3",
      "typeListing": "article",
      "imageMobile": "/sites/globe.com.ph/files/content/dam/globe/brie/AboutUs/newsroom/consumer/better-wider-wifi-globe-at-home-linksys/newsroom-consumer-wider-wifi-coverage-linksys-primary-thumbnail-m.jpg",
      "imageDesktop": "/sites/globe.com.ph/files/content/dam/globe/brie/AboutUs/newsroom/consumer/better-wider-wifi-globe-at-home-linksys/newsroom-consumer-wider-wifi-coverage-linksys-primary-thumbnail-d.jpg",
      "description": "Globe At Home has announced that it has partnered with Linksy to give Filipinos the chance to be one of the first in Asia to own Linksys Atlas Pro 6.",
      "datePosted": "Dec 10, 2021 | 09:45 AM",
      "titleFromTag": "Consumer"
    },
    {
      "title": "Globe’s 917ventures Discusses Business Focus On MSME Market in 2022",
      "nonclickable": false,
      "openNewTab": false,
      "borderArticle": "border-color:#0074D9;",
      "borderTopArticle": "border-top-color:#0074D9;",
      "imageListing": "/sites/globe.com.ph/files/content/dam/globe/brie/AboutUs/newsroom/partners/internet-watch-foundation-partner-child-protection-advocacy/default-partners-1-thumbnail-listing.jpg",
      "articleUrl": "https://www.globe.com.ph/about-us/newsroom/917ventures/917ventures-business-focus-msme-market-2022.html",
      "columnType": "articles--type-3",
      "typeListing": "article",
      "imageMobile": "/sites/globe.com.ph/files/content/dam/globe/brie/AboutUs/newsroom/partners/internet-watch-foundation-partner-child-protection-advocacy/default-partners-1-primary-thumbnail-m.jpg",
      "imageDesktop": "/sites/globe.com.ph/files/content/dam/globe/brie/AboutUs/newsroom/partners/internet-watch-foundation-partner-child-protection-advocacy/default-partners-1-primary-thumbnail-d.jpg",
      "description": "Globe’s 917Ventures announced in a recent panel discussion that they are keen on growing their micro, small, & medium enterprises clientele in the coming year.",
      "datePosted": "Dec 09, 2021 | 03:19 PM",
      "titleFromTag": "917Ventures"
    },
    {
      "title": "Globe Innoverse:  Non-stop Innovation for Customers to Strengthen Care and Compassion",
      "nonclickable": false,
      "openNewTab": false,
      "borderArticle": "border-color:#0074D9;",
      "borderTopArticle": "border-top-color:#0074D9;",
      "imageListing": "/sites/globe.com.ph/files/content/dam/globe/brie/AboutUs/newsroom/corporate/globe-innoverse-non-stop-innovation-customers-care-compassion/newsroom-corporate-non-stop-innovation-customer-thumbnail-listing.jpg",
      "articleUrl": "https://www.globe.com.ph/about-us/newsroom/corporate/globe-innoverse-non-stop-innovation-customers-care-compassion.html",
      "columnType": "articles--type-3",
      "typeListing": "article",
      "imageMobile": "/sites/globe.com.ph/files/content/dam/globe/brie/AboutUs/newsroom/corporate/globe-innoverse-non-stop-innovation-customers-care-compassion/newsroom-corporate-non-stop-innovation-customer-primary-thumbnail-m.jpg",
      "imageDesktop": "/sites/globe.com.ph/files/content/dam/globe/brie/AboutUs/newsroom/corporate/globe-innoverse-non-stop-innovation-customers-care-compassion/newsroom-corporate-non-stop-innovation-customer-primary-thumbnail-d.jpg",
      "description": "Globe Innoverse highlights the Globe Group’s vast ecosystem of technologies tailored to improve the lives of its customers and the Filipino digital life.",
      "datePosted": "Dec 09, 2021 | 02:40 PM",
      "titleFromTag": "Corporate"
    },
    {
      "title": "Globe Statement: Service Interruption (December 9, 2021)",
      "nonclickable": false,
      "openNewTab": false,
      "borderArticle": "border-color:#0074D9;",
      "borderTopArticle": "border-top-color:#0074D9;",
      "imageListing": "/sites/globe.com.ph/files/content/dam/globe/brie/AboutUs/newsroom/common/updated/Corporate-globe-thumbnail-listing.jpg",
      "articleUrl": "https://www.globe.com.ph/about-us/newsroom/consumer/service-interruption-december-9-2021.html",
      "columnType": "articles--type-3",
      "typeListing": "article",
      "imageMobile": "/sites/globe.com.ph/files/content/dam/globe/brie/AboutUs/newsroom/common/updated/Corporate-globe-primary-thumbnail-m.jpg",
      "imageDesktop": "/sites/globe.com.ph/files/content/dam/globe/brie/AboutUs/newsroom/common/updated/Corporate-globe-primary-thumbnail-d.jpg",
      "description": "Globe informs mobile customers that calls, messaging, & reloading services are now back to normal, resolved at 10:53 a.m., with all affected services restored.",
      "datePosted": "Dec 09, 2021 | 04:52 AM",
      "titleFromTag": "Consumer"
    },
    {
      "title": "Globe Statement: Service Restoration (December 9, 2021)",
      "nonclickable": false,
      "openNewTab": false,
      "borderArticle": "border-color:#0074D9;",
      "borderTopArticle": "border-top-color:#0074D9;",
      "imageListing": "/sites/globe.com.ph/files/content/dam/globe/brie/AboutUs/newsroom/common/updated/Corporate-globe-thumbnail-listing.jpg",
      "articleUrl": "https://www.globe.com.ph/about-us/newsroom/consumer/service-restoration-december-9-2021.html",
      "columnType": "articles--type-3",
      "typeListing": "article",
      "imageMobile": "/sites/globe.com.ph/files/content/dam/globe/brie/AboutUs/newsroom/common/updated/Corporate-globe-primary-thumbnail-m.jpg",
      "imageDesktop": "/sites/globe.com.ph/files/content/dam/globe/brie/AboutUs/newsroom/common/updated/Corporate-globe-primary-thumbnail-d.jpg",
      "description": "Globe informs mobile customers that calls, messaging, & reloading services are now back to normal, resolved at 10:53 a.m., with all affected services restored.",
      "datePosted": "Dec 09, 2021 | 04:52 AM",
      "titleFromTag": "Consumer"
    },
    {
      "title": "‘Reliable, Essential, Effective’—That’s What Globe Business and Its Services Are for Northeast Business Solutions",
      "nonclickable": false,
      "openNewTab": false,
      "borderArticle": "border-color:#0074D9;",
      "borderTopArticle": "border-top-color:#0074D9;",
      "imageListing": "/sites/globe.com.ph/files/content/dam/globe/brie/AboutUs/newsroom/business/northeast-business-solutions-globe-business-reliable-essential-effective/newsroom-business-globe-northeast-business-solutions-thumbnail-listing.jpg",
      "articleUrl": "https://www.globe.com.ph/about-us/newsroom/business/northeast-business-solutions-globe-business-reliable-essential-effective.html",
      "columnType": "articles--type-3",
      "typeListing": "article",
      "imageMobile": "/sites/globe.com.ph/files/content/dam/globe/brie/AboutUs/newsroom/business/northeast-business-solutions-globe-business-reliable-essential-effective/newsroom-business-globe-northeast-business-solutions-primary-thumbnail-m.jpg",
      "imageDesktop": "/sites/globe.com.ph/files/content/dam/globe/brie/AboutUs/newsroom/business/northeast-business-solutions-globe-business-reliable-essential-effective/newsroom-business-globe-northeast-business-solutions-primary-thumbnail-d.jpg",
      "description": "On top of stable and reliable digital connectivity services, Northeast Business Solutions founder praises Globe Business for its great after-sales service.",
      "datePosted": "Dec 07, 2021 | 03:35 PM",
      "titleFromTag": "Business"
    }
  ]
}
