{
  "status": 200,
  "page": 85,
  "totalPage": 298,
  "range": "1009-1020",
  "total": 3573,
  "result": [
    {
      "title": "Companies Urged to Take Advantage of ‘The Great Reset’ to Build a More Sustainable FutureGlobe and Green Antz Partner for Single-Use Plastic Avoidance and Upcycling",
      "nonclickable": false,
      "openNewTab": false,
      "borderArticle": "border-color:#1C91C5;",
      "borderTopArticle": "border-top-color:#1C91C5;",
      "imageListing": "/sites/globe.com.ph/files/content/dam/globe/brie/AboutUs/newsroom/sustainability/globe-green-antz-partner-single-use-plastic-avoidance-upcycling/newsroom-sustainability-plastic-avoidance-upcycling-thumbnail-listing.jpg",
      "articleUrl": "https://www.globe.com.ph/about-us/newsroom/sustainability/globe-green-antz-partner-single-use-plastic-avoidance-upcycling.html",
      "columnType": "articles--type-3",
      "typeListing": "article",
      "imageMobile": "/sites/globe.com.ph/files/content/dam/globe/brie/AboutUs/newsroom/sustainability/globe-green-antz-partner-single-use-plastic-avoidance-upcycling/newsroom-sustainability-plastic-avoidance-upcycling-primary-thumbnail-m.jpg",
      "imageDesktop": "/sites/globe.com.ph/files/content/dam/globe/brie/AboutUs/newsroom/sustainability/globe-green-antz-partner-single-use-plastic-avoidance-upcycling/newsroom-sustainability-plastic-avoidance-upcycling-primary-thumbnail-d.jpg",
      "description": "Globe joins hands with Green Antz Builders and its distribution partners in an urgent mission to drive environmental conservation.",
      "datePosted": "Dec 07, 2021 | 11:19 AM",
      "titleFromTag": "Sustainability"
    },
    {
      "title": "Globe Empowers Employees and Customers to Create a #GlobeOfGood This International Volunteer Day",
      "nonclickable": false,
      "openNewTab": false,
      "borderArticle": "border-color:#0074D9;",
      "borderTopArticle": "border-top-color:#0074D9;",
      "imageListing": "/sites/globe.com.ph/files/content/dam/globe/brie/AboutUs/newsroom/citizenship/globe-employees-customers-globeofgood-international-volunteer-day/newsroom-citizenship-globe-of-good-volunteer-thumbnail-listing.jpg",
      "articleUrl": "https://www.globe.com.ph/about-us/newsroom/citizenship/globe-employees-customers-globeofgood-international-volunteer-day.html",
      "columnType": "articles--type-3",
      "typeListing": "article",
      "imageMobile": "/sites/globe.com.ph/files/content/dam/globe/brie/AboutUs/newsroom/citizenship/globe-employees-customers-globeofgood-international-volunteer-day/newsroom-citizenship-globe-of-good-volunteer-primary-thumbnail-m.jpg",
      "imageDesktop": "/sites/globe.com.ph/files/content/dam/globe/brie/AboutUs/newsroom/citizenship/globe-employees-customers-globeofgood-international-volunteer-day/newsroom-citizenship-globe-of-good-volunteer-primary-thumbnail-d.jpg",
      "description": "As contribution to nation-building, Globe is encouraging its employees and customers to actively support community engagement programs",
      "datePosted": "Dec 06, 2021 | 02:02 PM",
      "titleFromTag": "Citizenship"
    },
    {
      "title": "Globe At Home Customer Field Service Receives ISO 9001:2015 Certification",
      "nonclickable": false,
      "openNewTab": false,
      "borderArticle": "border-color:#0074D9;",
      "borderTopArticle": "border-top-color:#0074D9;",
      "imageListing": "/sites/globe.com.ph/files/content/dam/globe/brie/AboutUs/newsroom/corporate/largest-ph-publicly-listed-telco-digital-solutions-group/Corporate-globe-thumbnail-listing.jpg",
      "articleUrl": "https://www.globe.com.ph/about-us/newsroom/corporate/globe-at-home-customer-field-service-iso-certification.html",
      "columnType": "articles--type-3",
      "typeListing": "article",
      "imageMobile": "/sites/globe.com.ph/files/content/dam/globe/brie/AboutUs/newsroom/corporate/largest-ph-publicly-listed-telco-digital-solutions-group/Corporate-globe-primary-thumbnail-m.jpg",
      "imageDesktop": "/sites/globe.com.ph/files/content/dam/globe/brie/AboutUs/newsroom/corporate/largest-ph-publicly-listed-telco-digital-solutions-group/Corporate-globe-primary-thumbnail-d.jpg",
      "description": "Globe At Home customer field service received the ISO 9001:2015 certification for its quality assurance operations and technical support.",
      "datePosted": "Dec 06, 2021 | 01:17 PM",
      "titleFromTag": "Corporate"
    },
    {
      "title": "Road to Fiber: Globe At Home Migrating Customers to Fiber by 2022",
      "nonclickable": false,
      "openNewTab": false,
      "borderArticle": "border-color:#0074D9;",
      "borderTopArticle": "border-top-color:#0074D9;",
      "imageListing": "/sites/globe.com.ph/files/content/dam/globe/brie/AboutUs/newsroom/consumer/globe-at-home-migrating-customers-fiber-2022/newsroom-consumer-road-to-fiber-gah-thumbnail-listing.jpg",
      "articleUrl": "https://www.globe.com.ph/about-us/newsroom/consumer/globe-at-home-migrating-customers-fiber-2022.html",
      "columnType": "articles--type-3",
      "typeListing": "article",
      "imageMobile": "/sites/globe.com.ph/files/content/dam/globe/brie/AboutUs/newsroom/consumer/globe-at-home-migrating-customers-fiber-2022/newsroom-consumer-road-to-fiber-gah-primary-thumbnail-m.jpg",
      "imageDesktop": "/sites/globe.com.ph/files/content/dam/globe/brie/AboutUs/newsroom/consumer/globe-at-home-migrating-customers-fiber-2022/newsroom-consumer-road-to-fiber-gah-primary-thumbnail-d.jpg",
      "description": "Globe At Home expects to migrate all its broadband customers to the latest fiber technology by 2022.",
      "datePosted": "Dec 06, 2021 | 01:05 PM",
      "titleFromTag": "Consumer"
    },
    {
      "title": "Globe Receives Higher B Rating for Climate Action Initiatives",
      "nonclickable": false,
      "openNewTab": false,
      "borderArticle": "border-color:#1C91C5;",
      "borderTopArticle": "border-top-color:#1C91C5;",
      "imageListing": "/sites/globe.com.ph/files/content/dam/globe/brie/AboutUs/newsroom/sustainability/higher-b-rating-climate-action-initiatives/newsroom-sustainability-b-rating-climate-initiatives-data-thumbnail-listing.jpg",
      "articleUrl": "https://www.globe.com.ph/about-us/newsroom/sustainability/higher-b-rating-climate-action-initiatives.html",
      "columnType": "articles--type-3",
      "typeListing": "article",
      "imageMobile": "/sites/globe.com.ph/files/content/dam/globe/brie/AboutUs/newsroom/sustainability/higher-b-rating-climate-action-initiatives/newsroom-sustainability-b-rating-climate-initiatives-primary-thumbnail-m.jpg",
      "imageDesktop": "/sites/globe.com.ph/files/content/dam/globe/brie/AboutUs/newsroom/sustainability/higher-b-rating-climate-action-initiatives/newsroom-sustainability-b-rating-climate-initiatives-primary-thumbnail-d.jpg",
      "description": "Globe received a higher B rating in 2021 from the CDP (formerly Carbon Disclosure Project), as it continues to intensify efforts to address climate change.",
      "datePosted": "Dec 06, 2021 | 12:27 PM",
      "titleFromTag": "Sustainability"
    },
    {
      "title": "Brighter Future for MSMEs Seen as Globe Business Wraps up “Biz Is It! Supply Chain” Digital Kwentuhan",
      "nonclickable": false,
      "openNewTab": false,
      "borderArticle": "border-color:#0074D9;",
      "borderTopArticle": "border-top-color:#0074D9;",
      "imageListing": "/sites/globe.com.ph/files/content/dam/globe/brie/AboutUs/newsroom/business/biz-is-it-supply-chain-digital-kwentuhan/newsroom-business-help-brighter-future-for-msme-thumbnail-listing.jpg",
      "articleUrl": "https://www.globe.com.ph/about-us/newsroom/business/globe-business-wraps-up-biz-is-it-supply-chain-digital-kwentuhan.html",
      "columnType": "articles--type-3",
      "typeListing": "article",
      "imageMobile": "/sites/globe.com.ph/files/content/dam/globe/brie/AboutUs/newsroom/business/biz-is-it-supply-chain-digital-kwentuhan/newsroom-business-help-brighter-future-for-msme-primary-thumbnail-m.jpg",
      "imageDesktop": "/sites/globe.com.ph/files/content/dam/globe/brie/AboutUs/newsroom/business/biz-is-it-supply-chain-digital-kwentuhan/newsroom-business-help-brighter-future-for-msme-primary-thumbnail-d.jpg",
      "description": "As the country looks forward to a full reopening of the economy, several MSMEs are now looking forward to the future with more zeal and confidence.",
      "datePosted": "Dec 03, 2021 | 02:45 PM",
      "titleFromTag": "Business"
    },
    {
      "title": "Companies Urged to Take Advantage of ‘The Great Reset’ to Build a More Sustainable Future",
      "nonclickable": false,
      "openNewTab": false,
      "borderArticle": "border-color:#1C91C5;",
      "borderTopArticle": "border-top-color:#1C91C5;",
      "imageListing": "/sites/globe.com.ph/files/content/dam/globe/brie/AboutUs/newsroom/sustainability/companies-urged-to-take-advantage-of-the-great-reset/newsroom-sustainability-companies-take-advantage-great-reset-thumbnail-listing.jpg",
      "articleUrl": "https://www.globe.com.ph/about-us/newsroom/sustainability/take-advantage-great-reset-build-more-sustainable-future.html",
      "columnType": "articles--type-3",
      "typeListing": "article",
      "imageMobile": "/sites/globe.com.ph/files/content/dam/globe/brie/AboutUs/newsroom/sustainability/companies-urged-to-take-advantage-of-the-great-reset/newsroom-sustainability-companies-take-advantage-great-reset-primary-thumbnail-m.jpg",
      "imageDesktop": "/sites/globe.com.ph/files/content/dam/globe/brie/AboutUs/newsroom/sustainability/companies-urged-to-take-advantage-of-the-great-reset/newsroom-sustainability-companies-take-advantage-great-reset-primary-thumbnail-d.jpg",
      "description": "“The Great Reset” offers a chance for corporations to rethink priorities and work towards building a more sustainable future.",
      "datePosted": "Dec 03, 2021 | 01:24 PM",
      "titleFromTag": "Sustainability"
    },
    {
      "title": "Globe Readies Disaster Assistance for Communities Surrounding Mt. Pinatubo",
      "nonclickable": false,
      "openNewTab": false,
      "borderArticle": "border-color:#0074D9;",
      "borderTopArticle": "border-top-color:#0074D9;",
      "imageListing": "/sites/globe.com.ph/files/content/dam/globe/brie/AboutUs/newsroom/consumer/globe-readies-disaster-assistance-communities-mt-pinatubo/newsroom-consumer-ready-assistance-mt-pinatubo-thumbnail-listing.jpg",
      "articleUrl": "https://www.globe.com.ph/about-us/newsroom/consumer/globe-readies-disaster-assistance-communities-mt-pinatubo.html",
      "columnType": "articles--type-3",
      "typeListing": "article",
      "imageMobile": "/sites/globe.com.ph/files/content/dam/globe/brie/AboutUs/newsroom/consumer/globe-readies-disaster-assistance-communities-mt-pinatubo/newsroom-consumer-ready-assistance-mt-pinatubo-primary-thumbnail-m.jpg",
      "imageDesktop": "/sites/globe.com.ph/files/content/dam/globe/brie/AboutUs/newsroom/consumer/globe-readies-disaster-assistance-communities-mt-pinatubo/newsroom-consumer-ready-assistance-mt-pinatubo-primary-thumbnail-d.jpg",
      "description": "Globe is on standby for disaster assistance for communities surrounding Mt. Pinatubo in case of high seismic activity and other volcanic hazards.",
      "datePosted": "Dec 02, 2021 | 12:00 PM",
      "titleFromTag": "Consumer"
    },
    {
      "title": "From Zero to Hero: New Globe Cell Site Offers Hope to Leyte Barangay Residents",
      "nonclickable": false,
      "openNewTab": false,
      "borderArticle": "border-color:#0074D9;",
      "borderTopArticle": "border-top-color:#0074D9;",
      "imageListing": "/sites/globe.com.ph/files/content/dam/globe/brie/AboutUs/newsroom/consumer/new-globe-cell-sites-offers-hope-leyte-barangay-residents/newsroom-consumer-cell-site-offers-hope-leyte-thumbnail-listing.jpg",
      "articleUrl": "https://www.globe.com.ph/about-us/newsroom/consumer/new-globe-cell-sites-offers-hope-leyte-barangay-residents.html",
      "columnType": "articles--type-3",
      "typeListing": "article",
      "imageMobile": "/sites/globe.com.ph/files/content/dam/globe/brie/AboutUs/newsroom/consumer/new-globe-cell-sites-offers-hope-leyte-barangay-residents/newsroom-consumer-cell-site-offers-hope-leyte-primary-thumbnail-m.jpg",
      "imageDesktop": "/sites/globe.com.ph/files/content/dam/globe/brie/AboutUs/newsroom/consumer/new-globe-cell-sites-offers-hope-leyte-barangay-residents/newsroom-consumer-cell-site-offers-hope-leyte-primary-thumbnail-d.jpg",
      "description": "Through Globe’s massive network modernization and expansion program, Brgy. Tabigue finally had a cell site that served the population and passing motorists.",
      "datePosted": "Dec 02, 2021 | 11:59 AM",
      "titleFromTag": "Consumer"
    },
    {
      "title": "Globe on Content Creation: Consumers First before Technology",
      "nonclickable": false,
      "openNewTab": false,
      "borderArticle": "border-color:#0074D9;",
      "borderTopArticle": "border-top-color:#0074D9;",
      "imageListing": "/sites/globe.com.ph/files/content/dam/globe/brie/AboutUs/newsroom/consumer/content-creation-consumer-first-before-technology/newsroom-consumer-content-creation-technology-inbox-thumbnail-listing.jpg",
      "articleUrl": "https://www.globe.com.ph/about-us/newsroom/consumer/content-creation-consumer-first-before-technology.html",
      "columnType": "articles--type-3",
      "typeListing": "article",
      "imageMobile": "/sites/globe.com.ph/files/content/dam/globe/brie/AboutUs/newsroom/consumer/content-creation-consumer-first-before-technology/newsroom-consumer-content-creation-technology-inbox-primary-thumbnail-m.jpg",
      "imageDesktop": "/sites/globe.com.ph/files/content/dam/globe/brie/AboutUs/newsroom/consumer/content-creation-consumer-first-before-technology/newsroom-consumer-content-creation-technology-inbox-primary-thumbnail-d.jpg",
      "description": "In a world where things are going digital & content permeates nearly all aspects of people's lives, it’s imperative for content creators to listen to consumers.",
      "datePosted": "Dec 02, 2021 | 11:34 AM",
      "titleFromTag": "Consumer"
    },
    {
      "title": "From Zero to Hero: Globe Builds New Cell Tower in Remote Cotabato Barangay ",
      "nonclickable": false,
      "openNewTab": false,
      "borderArticle": "border-color:#0074D9;",
      "borderTopArticle": "border-top-color:#0074D9;",
      "imageListing": "/sites/globe.com.ph/files/content/dam/globe/brie/AboutUs/newsroom/citizenship/globe-builds-new-cell-tower-remote-cotabato-barangay/newsroom-citizenship-cell-tower-remote-cotabato-thumbnail-listing.jpg",
      "articleUrl": "https://www.globe.com.ph/about-us/newsroom/citizenship/globe-builds-new-cell-tower-remote-cotabato-barangay.html",
      "columnType": "articles--type-3",
      "typeListing": "article",
      "imageMobile": "/sites/globe.com.ph/files/content/dam/globe/brie/AboutUs/newsroom/citizenship/globe-builds-new-cell-tower-remote-cotabato-barangay/newsroom-citizenship-cell-tower-remote-cotabato-primary-thumbnail-m.jpg",
      "imageDesktop": "/sites/globe.com.ph/files/content/dam/globe/brie/AboutUs/newsroom/citizenship/globe-builds-new-cell-tower-remote-cotabato-barangay/newsroom-citizenship-cell-tower-remote-cotabato-primary-thumbnail-d.jpg",
      "description": "Globe builds a new cell tower in the barangay of Dado in Alamada, Cotabato. With 4G LTE, residents of Brgy. Dado can now call, text, and browse the internet.",
      "datePosted": "Dec 01, 2021 | 01:29 PM",
      "titleFromTag": "Citizenship"
    },
    {
      "title": "Globe’s 917Ventures’ Portfolio Companies Share Plans for Building a ‘Better Normal’ in PH Startup Week 2021",
      "nonclickable": false,
      "openNewTab": false,
      "borderArticle": "border-color:#0074D9;",
      "borderTopArticle": "border-top-color:#0074D9;",
      "imageListing": "/sites/globe.com.ph/files/content/dam/globe/brie/AboutUs/newsroom/917ventures/building-better-normal-ph-startup-week-2021/newsroom-917ventures-building-better-normal-thumbnail-listing.jpg",
      "articleUrl": "https://www.globe.com.ph/about-us/newsroom/917ventures/building-better-normal-ph-startup-week-2021.html",
      "columnType": "articles--type-3",
      "typeListing": "article",
      "imageMobile": "/sites/globe.com.ph/files/content/dam/globe/brie/AboutUs/newsroom/917ventures/building-better-normal-ph-startup-week-2021/newsroom-917ventures-building-better-normal-primary-thumbnail-m.jpg",
      "imageDesktop": "/sites/globe.com.ph/files/content/dam/globe/brie/AboutUs/newsroom/917ventures/building-better-normal-ph-startup-week-2021/newsroom-917ventures-building-better-normal-primary-thumbnail-d.jpg",
      "description": "917Ventures Managing Director Vince Yamat spoke about new technologies they are developing at the recently concluded Philippine Startup Week 2021.",
      "datePosted": "Dec 01, 2021 | 01:21 PM",
      "titleFromTag": "917Ventures"
    }
  ]
}
