{
  "status": 200,
  "page": 87,
  "totalPage": 298,
  "range": "1033-1044",
  "total": 3573,
  "result": [
    {
      "title": "Globe Business Inspires ‘Radical Compassion’ at Lead-in 2021",
      "nonclickable": false,
      "openNewTab": false,
      "borderArticle": "border-color:#0074D9;",
      "borderTopArticle": "border-top-color:#0074D9;",
      "imageListing": "/sites/globe.com.ph/files/content/dam/globe/brie/AboutUs/newsroom/business/business-radical-compassion-at-lead-at-lead-zoom/newsroom-business-radical-compassion-at-lead-thumbnail-listing.jpg",
      "articleUrl": "https://www.globe.com.ph/about-us/newsroom/business/globe-business-radical-compassion-lead-in-2021.html",
      "columnType": "articles--type-3",
      "typeListing": "article",
      "imageMobile": "/sites/globe.com.ph/files/content/dam/globe/brie/AboutUs/newsroom/business/business-radical-compassion-at-lead-at-lead-zoom/newsroom-business-radical-compassion-at-lead-at-lead-zoom-primary-thumbnail-m.jpg",
      "imageDesktop": "/sites/globe.com.ph/files/content/dam/globe/brie/AboutUs/newsroom/business/business-radical-compassion-at-lead-at-lead-zoom/newsroom-business-radical-compassion-at-lead-primary-thumbnail-d.jpg",
      "description": "Globe’s Business  inspires leaders across all industries to go  beyond profit and look at environmental, social, and governance integration to save the planet.",
      "datePosted": "Nov 25, 2021 | 11:05 AM",
      "titleFromTag": "Business"
    },
    {
      "title": "Globe Customers Experience Improved Connectivity from New and Upgraded Sites in 65 Provinces",
      "nonclickable": false,
      "openNewTab": false,
      "borderArticle": "border-color:#0074D9;",
      "borderTopArticle": "border-top-color:#0074D9;",
      "imageListing": "/sites/globe.com.ph/files/content/dam/globe/brie/AboutUs/newsroom/common/default-corporate-9/default-corporate-9-thumbnail-listing.jpg",
      "articleUrl": "https://www.globe.com.ph/about-us/newsroom/consumer/improved-connectivity-new-upgraded-sites.html",
      "columnType": "articles--type-3",
      "typeListing": "article",
      "imageMobile": "/sites/globe.com.ph/files/content/dam/globe/brie/AboutUs/newsroom/common/default-corporate-9/default-corporate-9-primary-thumbnail-m.jpg",
      "imageDesktop": "/sites/globe.com.ph/files/content/dam/globe/brie/AboutUs/newsroom/common/default-corporate-9/default-corporate-9-primary-thumbnail-d.jpg",
      "description": "Globe accelerates network rollouts to bring better communications services to its over 85 million customers nationwide.",
      "datePosted": "Nov 25, 2021 | 10:15 AM",
      "titleFromTag": "Consumer"
    },
    {
      "title": "Globe Calls for Better ‘Threat Intelligence Sharing’ amid Rise in Spam, Scam Messages",
      "nonclickable": false,
      "openNewTab": false,
      "borderArticle": "border-color:#0074D9;",
      "borderTopArticle": "border-top-color:#0074D9;",
      "imageListing": "/sites/globe.com.ph/files/content/dam/globe/brie/AboutUs/newsroom/common/default-4/default-consumer-3-thumbnail-listing.jpg",
      "articleUrl": "https://www.globe.com.ph/about-us/newsroom/consumer/better-threat-intelligence-sharing-amid-spam-scam-messages.html",
      "columnType": "articles--type-3",
      "typeListing": "article",
      "imageMobile": "/sites/globe.com.ph/files/content/dam/globe/brie/AboutUs/newsroom/common/default-4/default-consumer-3-primary-thumbnail-m.jpg",
      "imageDesktop": "/sites/globe.com.ph/files/content/dam/globe/brie/AboutUs/newsroom/common/default-4/default-consumer-3-primary-thumbnail-d.jpg",
      "description": "Globe is ready to collaborate with other stakeholders to help protect Filipino customers from smishing and other fraudulent activities.",
      "datePosted": "Nov 24, 2021 | 02:51 PM",
      "titleFromTag": "Consumer"
    },
    {
      "title": "Globe Launches Sustainability Academy through LinkedIn Learning; Encourages Employees to Embrace Sustainable Practices",
      "nonclickable": false,
      "openNewTab": false,
      "borderArticle": "border-color:#1C91C5;",
      "borderTopArticle": "border-top-color:#1C91C5;",
      "imageListing": "/sites/globe.com.ph/files/content/dam/globe/brie/AboutUs/newsroom/sustainability/globe-builds-teacher-skills-early-language-literacy/default-sustainability-1-thumbnail-listing.jpg",
      "articleUrl": "https://www.globe.com.ph/about-us/newsroom/sustainability/sustainability-academy-linkedin-learning.html",
      "columnType": "articles--type-3",
      "typeListing": "article",
      "imageMobile": "/sites/globe.com.ph/files/content/dam/globe/brie/AboutUs/newsroom/sustainability/globe-builds-teacher-skills-early-language-literacy/default-sustainability-1-primary-thumbnail-m.jpg",
      "imageDesktop": "/sites/globe.com.ph/files/content/dam/globe/brie/AboutUs/newsroom/sustainability/globe-builds-teacher-skills-early-language-literacy/default-sustainability-1-primary-thumbnail-d.jpg",
      "description": "Globe launched its first-ever Sustainability Academy to give its over 8,000 employees the know-how and insights to incorporate sustainability practices.",
      "datePosted": "Nov 24, 2021 | 01:49 PM",
      "titleFromTag": "Sustainability"
    },
    {
      "title": "Asticom Taps Woman Exec to Steer IT BSO Unit",
      "nonclickable": false,
      "openNewTab": false,
      "borderArticle": "border-color:#0074D9;",
      "borderTopArticle": "border-top-color:#0074D9;",
      "imageListing": "/sites/globe.com.ph/files/content/dam/globe/brie/AboutUs/newsroom/partners/asticom-taps-woman-exec-steer-it-bso-unit/newsroom-partners-asticom-taps-exec-to-steer-thumbnail-listing.jpg",
      "articleUrl": "https://www.globe.com.ph/about-us/newsroom/partners/asticom-taps-woman-exec-steer-it-bso-unit.html",
      "columnType": "articles--type-3",
      "typeListing": "article",
      "imageMobile": "/sites/globe.com.ph/files/content/dam/globe/brie/AboutUs/newsroom/partners/asticom-taps-woman-exec-steer-it-bso-unit/newsroom-partners-asticom-taps-exec-to-steer-primary-thumbnail-m.jpg",
      "imageDesktop": "/sites/globe.com.ph/files/content/dam/globe/brie/AboutUs/newsroom/partners/asticom-taps-woman-exec-steer-it-bso-unit/newsroom-partners-asticom-taps-exec-to-steer-primary-thumbnail-d.jpg",
      "description": "Globe’s subsidiary, Asticom Technology Inc., has tapped Melissa Tecson as general manager of its information technology and business services outsourcing arm.",
      "datePosted": "Nov 24, 2021 | 09:38 AM",
      "titleFromTag": "Partners"
    },
    {
      "title": "Have the Best Mobile Experience with Budget-Friendly 5G Phones from Globe!",
      "nonclickable": false,
      "openNewTab": false,
      "borderArticle": "border-color:#0074D9;",
      "borderTopArticle": "border-top-color:#0074D9;",
      "imageListing": "/sites/globe.com.ph/files/content/dam/globe/brie/AboutUs/newsroom/consumer/best-mobile-experience-budget-friendly-5g-phones/newsroom-consumer-budget-friendly-5g-phones-thumbnail-listing.jpg",
      "articleUrl": "https://www.globe.com.ph/about-us/newsroom/consumer/best-mobile-experience-budget-friendly-5g-phones.html",
      "columnType": "articles--type-3",
      "typeListing": "article",
      "imageMobile": "/sites/globe.com.ph/files/content/dam/globe/brie/AboutUs/newsroom/consumer/best-mobile-experience-budget-friendly-5g-phones/newsroom-consumer-budget-friendly-5g-phones-primary-thumbnail-m.jpg",
      "imageDesktop": "/sites/globe.com.ph/files/content/dam/globe/brie/AboutUs/newsroom/consumer/best-mobile-experience-budget-friendly-5g-phones/newsroom-consumer-budget-friendly-5g-phones-primary-thumbnail-d.jpg",
      "description": "Globe is at the forefront of creating and enabling new opportunities for consumers and businesses through 5G technology, minus the hefty price.",
      "datePosted": "Nov 23, 2021 | 02:31 PM",
      "titleFromTag": "Consumer"
    },
    {
      "title": "Globe Studios’ Critically-Acclaimed ‘Midnight in a Perfect World’ Bags Numerous Local and International Awards",
      "nonclickable": false,
      "openNewTab": false,
      "borderArticle": "border-color:#0074D9;",
      "borderTopArticle": "border-top-color:#0074D9;",
      "imageListing": "/sites/globe.com.ph/files/content/dam/globe/brie/AboutUs/newsroom/citizenship/midnight-in-a-perfect-world-numberous-local-international-awards/newsroom-citizenship-midnight-in-a-perfect-world-awards-thumbnail-listing.jpg",
      "articleUrl": "https://www.globe.com.ph/about-us/newsroom/citizenship/midnight-in-a-perfect-world-numerous-local-international-awards.html",
      "columnType": "articles--type-3",
      "typeListing": "article",
      "imageMobile": "/sites/globe.com.ph/files/content/dam/globe/brie/AboutUs/newsroom/citizenship/midnight-in-a-perfect-world-numberous-local-international-awards/newsroom-citizenship-midnight-in-a-perfect-world-awards-thumbnail-m.jpg",
      "imageDesktop": "/sites/globe.com.ph/files/content/dam/globe/brie/AboutUs/newsroom/citizenship/midnight-in-a-perfect-world-numberous-local-international-awards/newsroom-citizenship-midnight-in-a-perfect-world-awards-primary-thumbnail-d.jpg",
      "description": "Globe Studios and Epicmedia Productions bagged numerous citations for their critically-acclaimed futuristic horror film Midnight in a Perfect World.",
      "datePosted": "Nov 23, 2021 | 10:48 AM",
      "titleFromTag": "Citizenship"
    },
    {
      "title": "National Teachers College Taps Globe to Train Educators for Google Certification",
      "nonclickable": false,
      "openNewTab": false,
      "borderArticle": "border-color:#0074D9;",
      "borderTopArticle": "border-top-color:#0074D9;",
      "imageListing": "/sites/globe.com.ph/files/content/dam/globe/brie/AboutUs/newsroom/business/national-teachers-college-globe-train-educators-google-certification/newsroom-business-national-teachers-taps-globe-thumbnail-listing.jpg",
      "articleUrl": "https://www.globe.com.ph/about-us/newsroom/business/national-teachers-college-globe-train-educators-google-certification.html",
      "columnType": "articles--type-3",
      "typeListing": "article",
      "imageMobile": "/sites/globe.com.ph/files/content/dam/globe/brie/AboutUs/newsroom/business/national-teachers-college-globe-train-educators-google-certification/newsroom-business-national-teachers-taps-globe-primary-thumbnail-m.jpg",
      "imageDesktop": "/sites/globe.com.ph/files/content/dam/globe/brie/AboutUs/newsroom/business/national-teachers-college-globe-train-educators-google-certification/newsroom-business-national-teachers-taps-globe-primary-thumbnail-d.jpg",
      "description": "The National Teachers College (NTC) partners with Globe Telecom to create a team of tech-savvy educators that will become Google-certified educators.",
      "datePosted": "Nov 23, 2021 | 10:06 AM",
      "titleFromTag": "Business"
    },
    {
      "title": "GCash Sustains Growth and Market Leadership with over 51 Million Users as of End-October",
      "nonclickable": false,
      "openNewTab": false,
      "borderArticle": "border-color:#0074D9;",
      "borderTopArticle": "border-top-color:#0074D9;",
      "imageListing": "/sites/globe.com.ph/files/content/dam/globe/brie/AboutUs/newsroom/partners/gcash-sustains-growth-market-leadership/newsroom-partners-gcash-sustains-growth-thumbnail-listing.jpg",
      "articleUrl": "https://www.globe.com.ph/about-us/newsroom/partners/gcash-sustains-growth-market-leadership.html",
      "columnType": "articles--type-3",
      "typeListing": "article",
      "imageMobile": "/sites/globe.com.ph/files/content/dam/globe/brie/AboutUs/newsroom/partners/gcash-sustains-growth-market-leadership/newsroom-partners-gcash-sustains-growth-primary-thumbnail-m.jpg",
      "imageDesktop": "/sites/globe.com.ph/files/content/dam/globe/brie/AboutUs/newsroom/partners/gcash-sustains-growth-market-leadership/newsroom-partners-gcash-sustains-growth-primary-thumbnail-d.jpg",
      "description": "GCash, the country’s largest mobile e-wallet service, continues to expand its digital ecosystem as it now has over 51M registered users across the Philippines.",
      "datePosted": "Nov 23, 2021 | 09:21 AM",
      "titleFromTag": "Partners"
    },
    {
      "title": "Globe Strengthens SMS Anti-spam Efforts",
      "nonclickable": false,
      "openNewTab": false,
      "borderArticle": "border-color:#0074D9;",
      "borderTopArticle": "border-top-color:#0074D9;",
      "imageListing": "/sites/globe.com.ph/files/content/dam/globe/brie/AboutUs/newsroom/common/default-3/corporate-default-7-thumbnail-listing.jpg",
      "articleUrl": "https://www.globe.com.ph/about-us/newsroom/corporate/sms-anti-spam-efforts.html",
      "columnType": "articles--type-3",
      "typeListing": "article",
      "imageMobile": "/sites/globe.com.ph/files/content/dam/globe/brie/AboutUs/newsroom/common/default-3/corporate-default-7-primary-thumbnail-m.jpg",
      "imageDesktop": "/sites/globe.com.ph/files/content/dam/globe/brie/AboutUs/newsroom/common/default-3/corporate-default-7-primary-thumbnail-d.jpg",
      "description": "Globe continues to heighten its anti-spam and anti-scam campaign through its dedicated cybersecurity team.",
      "datePosted": "Nov 22, 2021 | 12:03 PM",
      "titleFromTag": "Corporate"
    },
    {
      "title": "Globe Highlights the Importance of ‘Parental Engagement in School’ via Global Filipino Teachers Series with DepEd",
      "nonclickable": false,
      "openNewTab": false,
      "borderArticle": "border-color:#0074D9;",
      "borderTopArticle": "border-top-color:#0074D9;",
      "imageListing": "/sites/globe.com.ph/files/content/dam/globe/brie/AboutUs/newsroom/citizenship/parental-engagement-school/newsroom-consumer-filipino-teachers-series-deped-thumbnail-listing.jpg",
      "articleUrl": "https://www.globe.com.ph/about-us/newsroom/citizenship/parental-engagement-school.html",
      "columnType": "articles--type-3",
      "typeListing": "article",
      "imageMobile": "/sites/globe.com.ph/files/content/dam/globe/brie/AboutUs/newsroom/citizenship/parental-engagement-school/newsroom-consumer-filipino-teachers-series-deped-primary-thumbnail-m.jpg",
      "imageDesktop": "/sites/globe.com.ph/files/content/dam/globe/brie/AboutUs/newsroom/citizenship/parental-engagement-school/newsroom-consumer-filipino-teachers-series-deped-primary-thumbnail-d.jpg",
      "description": "Parental engagement in school has become vital for learners, especially with the shift in the educational landscape brought about by the global health crisis.",
      "datePosted": "Nov 22, 2021 | 11:22 AM",
      "titleFromTag": "Citizenship"
    },
    {
      "title": "DepEd NEAP, Globe to Hold Teacher-Parental Engagement Series",
      "nonclickable": false,
      "openNewTab": false,
      "borderArticle": "border-color:#0074D9;",
      "borderTopArticle": "border-top-color:#0074D9;",
      "imageListing": "/sites/globe.com.ph/files/content/dam/globe/brie/AboutUs/newsroom/partners/teacher-parental-engagement-series/default-default-3-thumbnail-listing.jpg",
      "articleUrl": "https://www.globe.com.ph/about-us/newsroom/partners/teacher-parental-engagement-series.html",
      "columnType": "articles--type-3",
      "typeListing": "article",
      "imageMobile": "/sites/globe.com.ph/files/content/dam/globe/brie/AboutUs/newsroom/partners/teacher-parental-engagement-series/default-default-3-primary-thumbnail-m.jpg",
      "imageDesktop": "/sites/globe.com.ph/files/content/dam/globe/brie/AboutUs/newsroom/partners/teacher-parental-engagement-series/default-default-3-primary-thumbnail-d.jpg",
      "description": "Globe, in partnership with DepEd NEAP, will launch the 4th Professional Development Series for Teachers on Parental Engagement.",
      "datePosted": "Nov 19, 2021 | 03:24 PM",
      "titleFromTag": "Partners"
    }
  ]
}
