{
  "status": 200,
  "page": 88,
  "totalPage": 298,
  "range": "1045-1056",
  "total": 3573,
  "result": [
    {
      "title": "Circularity Key to Addressing Waste Pollution in PH - Globe",
      "nonclickable": false,
      "openNewTab": false,
      "borderArticle": "border-color:#1C91C5;",
      "borderTopArticle": "border-top-color:#1C91C5;",
      "imageListing": "/sites/globe.com.ph/files/content/dam/globe/brie/AboutUs/newsroom/sustainability/circularity-key-addressing-waste-pollution-ph/default-sustainability-3-thumbnail-listing.jpg",
      "articleUrl": "https://www.globe.com.ph/about-us/newsroom/sustainability/circularity-key-addressing-waste-pollution-ph.html",
      "columnType": "articles--type-3",
      "typeListing": "article",
      "imageMobile": "/sites/globe.com.ph/files/content/dam/globe/brie/AboutUs/newsroom/sustainability/circularity-key-addressing-waste-pollution-ph/default-sustainability-3-primary-thumbnail-m.jpg",
      "imageDesktop": "/sites/globe.com.ph/files/content/dam/globe/brie/AboutUs/newsroom/sustainability/circularity-key-addressing-waste-pollution-ph/default-sustainability-3-primary-thumbnail-d.jpg",
      "description": "“Circular Economy: Take, Make, Use, Repeat!” was discussed in the latest Liveable Cities Lab webinar spearheaded by LCC Philippines in partnership with Globe.",
      "datePosted": "Nov 19, 2021 | 01:21 PM",
      "titleFromTag": "Sustainability"
    },
    {
      "title": "Globe Ambassadors BLACKPINK Calls for Fans’ Support in Climate Action Movement",
      "nonclickable": false,
      "openNewTab": false,
      "borderArticle": "border-color:#1C91C5;",
      "borderTopArticle": "border-top-color:#1C91C5;",
      "imageListing": "/sites/globe.com.ph/files/content/dam/globe/brie/AboutUs/newsroom/sustainability/blackpink-calls-support-climate-action-movement/Sustainability-BlackPink-Calls-Fans-thumbnail-listing.jpg",
      "articleUrl": "https://www.globe.com.ph/about-us/newsroom/sustainability/blackpink-calls-support-climate-action-movement.html",
      "columnType": "articles--type-3",
      "typeListing": "article",
      "imageMobile": "/sites/globe.com.ph/files/content/dam/globe/brie/AboutUs/newsroom/sustainability/blackpink-calls-support-climate-action-movement/Sustainability-BlackPink-Calls-Fans-primary-thumbnail-m.jpg",
      "imageDesktop": "/sites/globe.com.ph/files/content/dam/globe/brie/AboutUs/newsroom/sustainability/blackpink-calls-support-climate-action-movement/Sustainability-BlackPink-Calls-Fans-primary-thumbnail-d.jpg",
      "description": "BLACKPINK’s members Jisoo, Jennie, Rosé, and Lisa urged their fans and the younger generation to take a stand and act against climate change.",
      "datePosted": "Nov 19, 2021 | 10:45 AM",
      "titleFromTag": "Sustainability"
    },
    {
      "title": "Globe Reaps Two Golds and a Silver at the 2021 Stevie Awards for Great Employers",
      "nonclickable": false,
      "openNewTab": false,
      "borderArticle": "border-color:#0074D9;",
      "borderTopArticle": "border-top-color:#0074D9;",
      "imageListing": "/sites/globe.com.ph/files/content/dam/globe/brie/AboutUs/newsroom/common/default-12/default-corporate-1-thumbnail-listing.jpg",
      "articleUrl": "https://www.globe.com.ph/about-us/newsroom/business/two-golds-one-silver-2021-stevie-awards-great-employers.html",
      "columnType": "articles--type-3",
      "typeListing": "article",
      "imageMobile": "/sites/globe.com.ph/files/content/dam/globe/brie/AboutUs/newsroom/common/default-12/default-corporate-1-primary-thumbnail-m.jpg",
      "imageDesktop": "/sites/globe.com.ph/files/content/dam/globe/brie/AboutUs/newsroom/common/default-12/default-corporate-1-primary-thumbnail-d.jpg",
      "description": "Globe received a Gold Stevie for Employer of the Year, in the Telecommunications division, at the 2021 Stevie Awards for Great Employers.",
      "datePosted": "Nov 19, 2021 | 09:23 AM",
      "titleFromTag": "Business"
    },
    {
      "title": "Globe Business #GiftLocal Brings Local Treasures That Give Joy to Loved Ones and Uplift Communities",
      "nonclickable": false,
      "openNewTab": false,
      "borderArticle": "border-color:#0074D9;",
      "borderTopArticle": "border-top-color:#0074D9;",
      "imageListing": "/sites/globe.com.ph/files/content/dam/globe/brie/AboutUs/newsroom/business/gift-local-give-joy-loved-ones-uplift-communities/v4/newsroom-business-giftlocal-uplift-communities-thumbnail-listing.jpg",
      "articleUrl": "https://www.globe.com.ph/about-us/newsroom/business/gift-local-give-joy-loved-ones-uplift-communities.html",
      "columnType": "articles--type-3",
      "typeListing": "article",
      "imageMobile": "/sites/globe.com.ph/files/content/dam/globe/brie/AboutUs/newsroom/business/gift-local-give-joy-loved-ones-uplift-communities/v4/newsroom-business-giftlocal-uplift-communities-primary-thumbnail-m.jpg",
      "imageDesktop": "/sites/globe.com.ph/files/content/dam/globe/brie/AboutUs/newsroom/business/gift-local-give-joy-loved-ones-uplift-communities/v4/newsroom-business-giftlocal-uplift-communities-primary-thumbnail-d.jpg",
      "description": "Globe Business’ Gift Local campaign is putting the spotlight on micro, small, & medium local social enterprises that support indigenous communities’ livelihood.",
      "datePosted": "Nov 18, 2021 | 12:01 PM",
      "titleFromTag": "Business"
    },
    {
      "title": "Globe, ZSL Join Hands with Iloilo Fisherfolks for Mangrove Conservation Project",
      "nonclickable": false,
      "openNewTab": false,
      "borderArticle": "border-color:#1C91C5;",
      "borderTopArticle": "border-top-color:#1C91C5;",
      "imageListing": "/sites/globe.com.ph/files/content/dam/globe/brie/AboutUs/newsroom/common/default-sustainability-1/default-sustainability-2-thumbnail-listing.jpg",
      "articleUrl": "https://www.globe.com.ph/about-us/newsroom/sustainability/globe-zsl-iloilo-fisherfolks-mangrove-conservation-project.html",
      "columnType": "articles--type-3",
      "typeListing": "article",
      "imageMobile": "/sites/globe.com.ph/files/content/dam/globe/brie/AboutUs/newsroom/common/default-sustainability-1/default-sustainability-2-primary-thumbnail-m.jpg",
      "imageDesktop": "/sites/globe.com.ph/files/content/dam/globe/brie/AboutUs/newsroom/common/default-sustainability-1/default-sustainability-2-primary-thumbnail-d.jpg",
      "description": "Globe, together with ZSL Philippines, joined forces with a local fisherfolk association to further science-based mangrove conservation efforts in Ajuy, Iloilo. ",
      "datePosted": "Nov 18, 2021 | 11:49 AM",
      "titleFromTag": "Sustainability"
    },
    {
      "title": "Globe At Home Offers Visayas Customers Fiber Connectivity amid Aggressive Rollout",
      "nonclickable": false,
      "openNewTab": false,
      "borderArticle": "border-color:#0074D9;",
      "borderTopArticle": "border-top-color:#0074D9;",
      "imageListing": "/sites/globe.com.ph/files/content/dam/globe/brie/AboutUs/newsroom/consumer/globe-at-home-visayas-customers-fiber-connectivity/newsroom-consumer-gah-fiber-connectivity-visayas-thumbnail-listing.jpg",
      "articleUrl": "https://www.globe.com.ph/about-us/newsroom/consumer/globe-at-home-visayas-customers-fiber-connectivity.html",
      "columnType": "articles--type-3",
      "typeListing": "article",
      "imageMobile": "/sites/globe.com.ph/files/content/dam/globe/brie/AboutUs/newsroom/consumer/globe-at-home-visayas-customers-fiber-connectivity/newsroom-consumer-gah-fiber-connectivity-visayas-primary-thumbnail-m.jpg",
      "imageDesktop": "/sites/globe.com.ph/files/content/dam/globe/brie/AboutUs/newsroom/consumer/globe-at-home-visayas-customers-fiber-connectivity/newsroom-consumer-gah-fiber-connectivity-visayas-primary-thumbnail-d.jpg",
      "description": "Globe At Home is doubling its efforts to offer a complete ecosystem of services to households in the Visayas through the fast and reliable technology of fiber.",
      "datePosted": "Nov 18, 2021 | 10:40 AM",
      "titleFromTag": "Consumer"
    },
    {
      "title": "Filipinos’ Accelerated Digital Habits Sustain Globe Broadband Financial Performance",
      "nonclickable": false,
      "openNewTab": false,
      "borderArticle": "border-color:#0074D9;",
      "borderTopArticle": "border-top-color:#0074D9;",
      "imageListing": "/sites/globe.com.ph/files/content/dam/globe/brie/AboutUs/newsroom/corporate/accelerated-digital-habits-sustain-broadband-financial-performance/newsroom-corporate-filipinos-digital-habits-sustain-globe-performance-thumbnail-listing.jpg",
      "articleUrl": "https://www.globe.com.ph/about-us/newsroom/corporate/accelerated-digital-habits-sustain-broadband-financial-performance.html",
      "columnType": "articles--type-3",
      "typeListing": "article",
      "imageMobile": "/sites/globe.com.ph/files/content/dam/globe/brie/AboutUs/newsroom/corporate/accelerated-digital-habits-sustain-broadband-financial-performance/newsroom-corporate-filipinos-digital-habits-sustain-globe-performance-primary-thumbnail-m.jpg",
      "imageDesktop": "/sites/globe.com.ph/files/content/dam/globe/brie/AboutUs/newsroom/corporate/accelerated-digital-habits-sustain-broadband-financial-performance/newsroom-corporate-filipinos-digital-habits-sustain-globe-performance-primary-thumbnail-d.jpg",
      "description": "The accelerated digital habits of Filipinos during the pandemic drove the sustained exceptional performance of Globe’s broadband business.",
      "datePosted": "Nov 18, 2021 | 10:05 AM",
      "titleFromTag": "Corporate"
    },
    {
      "title": "E-Waste Zero Helps Globe’s Drive Towards Environmental Sustainability",
      "nonclickable": false,
      "openNewTab": false,
      "borderArticle": "border-color:#0074D9;",
      "borderTopArticle": "border-top-color:#0074D9;",
      "imageListing": "/sites/globe.com.ph/files/content/dam/globe/brie/AboutUs/newsroom/sustainability/e-waste-zero-globes-drive-environmental-sustainability/newsroom-sustainability-e-waste-zero-thumbnail-listing.jpg",
      "articleUrl": "https://www.globe.com.ph/about-us/newsroom/sustainability/e-waste-zero-globes-drive-environmental-sustainability.html",
      "columnType": "articles--type-3",
      "typeListing": "article",
      "imageMobile": "/sites/globe.com.ph/files/content/dam/globe/brie/AboutUs/newsroom/sustainability/e-waste-zero-globes-drive-environmental-sustainability/newsroom-sustainability-e-waste-zero-primary-thumbnail-m.jpg",
      "imageDesktop": "/sites/globe.com.ph/files/content/dam/globe/brie/AboutUs/newsroom/sustainability/e-waste-zero-globes-drive-environmental-sustainability/newsroom-sustainability-e-waste-zero-primary-thumbnail-d.jpg",
      "description": "As part of its environmental protection and sustainability advocacy, Globe encourages everyone to join its E-Waste Zero program.",
      "datePosted": "Nov 17, 2021 | 11:14 AM",
      "titleFromTag": "Sustainability"
    },
    {
      "title": "Globe’s 917Ventures Launches iNQUiRO; Empowers Businesses to Make Data-Driven Decisions via AI-Powered Products",
      "nonclickable": false,
      "openNewTab": false,
      "borderArticle": "border-color:#0074D9;",
      "borderTopArticle": "border-top-color:#0074D9;",
      "imageListing": "/sites/globe.com.ph/files/content/dam/globe/brie/AboutUs/newsroom/917ventures/inquiro-data-driven-decisions-ai-powered-products/newsroom-917ventures-launches-inquiro-thumbnail-listing.jpg",
      "articleUrl": "https://www.globe.com.ph/about-us/newsroom/917ventures/inquiro-data-driven-decisions-ai-powered-products.html",
      "columnType": "articles--type-3",
      "typeListing": "article",
      "imageMobile": "/sites/globe.com.ph/files/content/dam/globe/brie/AboutUs/newsroom/917ventures/inquiro-data-driven-decisions-ai-powered-products/newsroom-917ventures-launches-inquiro-primary-thumbnail-m.jpg",
      "imageDesktop": "/sites/globe.com.ph/files/content/dam/globe/brie/AboutUs/newsroom/917ventures/inquiro-data-driven-decisions-ai-powered-products/newsroom-917ventures-launches-inquiro-primary-thumbnail-d.jpg",
      "description": "Globe’s 917Ventures, recently introduced a new portfolio company, iNQUiRO, to help businesses make data-driven decisions in their operations.",
      "datePosted": "Nov 17, 2021 | 10:11 AM",
      "titleFromTag": "917Ventures"
    },
    {
      "title": "Rising Mobile Data Consumption Spurs Hike in Globe’s Mobile Data Revenues",
      "nonclickable": false,
      "openNewTab": false,
      "borderArticle": "border-color:#0074D9;",
      "borderTopArticle": "border-top-color:#0074D9;",
      "imageListing": "/sites/globe.com.ph/files/content/dam/globe/brie/AboutUs/newsroom/consumer/in-building-solutions-quality-5g-indoor-coverage/newsroom-consumer-quality-5g-indoor-coverage-thumbnail-listing.jpg",
      "articleUrl": "https://www.globe.com.ph/about-us/newsroom/consumer/rising-mobile-data-consumption-globe-mobile-data-revenues.html",
      "columnType": "articles--type-3",
      "typeListing": "article",
      "imageMobile": "/sites/globe.com.ph/files/content/dam/globe/brie/AboutUs/newsroom/consumer/in-building-solutions-quality-5g-indoor-coverage/newsroom-consumer-quality-5g-indoor-coverage-primary-thumbnail-m.jpg",
      "imageDesktop": "/sites/globe.com.ph/files/content/dam/globe/brie/AboutUs/newsroom/consumer/in-building-solutions-quality-5g-indoor-coverage/newsroom-consumer-quality-5g-indoor-coverage-primary-thumbnail-d.jpg",
      "description": "With higher smartphone and tablet usage, Globe’s mobile data revenues went up to ₱57.9 billion as of September from ₱53.7 billion reported a year ago.",
      "datePosted": "Nov 17, 2021 | 08:29 AM",
      "titleFromTag": "Consumer"
    },
    {
      "title": "Globe Hauls Three Wins at the 18th Annual International Business Awards",
      "nonclickable": false,
      "openNewTab": false,
      "borderArticle": "border-color:#0074D9;",
      "borderTopArticle": "border-top-color:#0074D9;",
      "imageListing": "/sites/globe.com.ph/files/content/dam/globe/brie/AboutUs/newsroom/common/default-12/default-corporate-1-thumbnail-listing.jpg",
      "articleUrl": "https://www.globe.com.ph/about-us/newsroom/business/three-wins-18th-annual-international-business-awards.html",
      "columnType": "articles--type-3",
      "typeListing": "article",
      "imageMobile": "/sites/globe.com.ph/files/content/dam/globe/brie/AboutUs/newsroom/common/default-12/default-corporate-1-primary-thumbnail-m.jpg",
      "imageDesktop": "/sites/globe.com.ph/files/content/dam/globe/brie/AboutUs/newsroom/common/default-12/default-corporate-1-primary-thumbnail-d.jpg",
      "description": "Globe took home three awards at the recently held 18th Annual International Business Awards and bagged a Gold Stevie for Most Valuable Corporate Response.",
      "datePosted": "Nov 16, 2021 | 10:50 AM",
      "titleFromTag": "Business"
    },
    {
      "title": "Globe in Advanced Discussions with ST Telemedia Global Data Centres to Form a Joint Venture on Globe’s Data Center in the Philippines",
      "nonclickable": false,
      "openNewTab": false,
      "borderArticle": "border-color:#0074D9;",
      "borderTopArticle": "border-top-color:#0074D9;",
      "imageListing": "/sites/globe.com.ph/files/content/dam/globe/brie/AboutUs/newsroom/corporate/largest-ph-publicly-listed-telco-digital-solutions-group/Corporate-globe-thumbnail-listing.jpg",
      "articleUrl": "https://www.globe.com.ph/about-us/newsroom/corporate/st-telemedia-global-data-centers-joint-venture.html",
      "columnType": "articles--type-3",
      "typeListing": "article",
      "imageMobile": "/sites/globe.com.ph/files/content/dam/globe/brie/AboutUs/newsroom/corporate/largest-ph-publicly-listed-telco-digital-solutions-group/Corporate-globe-primary-thumbnail-m.jpg",
      "imageDesktop": "/sites/globe.com.ph/files/content/dam/globe/brie/AboutUs/newsroom/corporate/largest-ph-publicly-listed-telco-digital-solutions-group/Corporate-globe-primary-thumbnail-d.jpg",
      "description": "Globe has signed an exclusivity agreement with ST Telemedia Global Data Centre on the carve-out of Globe’s data center business in the Philippines.",
      "datePosted": "Nov 16, 2021 | 08:21 AM",
      "titleFromTag": "Corporate"
    }
  ]
}
