{
  "status": 200,
  "page": 89,
  "totalPage": 298,
  "range": "1057-1068",
  "total": 3573,
  "result": [
    {
      "title": "GMovies and UPSTREAM Mark First Anniversary with an Original and Acclaimed International Film",
      "nonclickable": false,
      "openNewTab": false,
      "borderArticle": "border-color:#0074D9;",
      "borderTopArticle": "border-top-color:#0074D9;",
      "imageListing": "/sites/globe.com.ph/files/content/dam/globe/brie/AboutUs/newsroom/consumer/gmovies-upstream-first-anniversary/newsroom-consumer-gmovies-upstream-first-anniversary-thumbnail-listing.jpg",
      "articleUrl": "https://www.globe.com.ph/about-us/newsroom/consumer/gmovies-upstream-first-anniversary.html",
      "columnType": "articles--type-3",
      "typeListing": "article",
      "imageMobile": "/sites/globe.com.ph/files/content/dam/globe/brie/AboutUs/newsroom/consumer/gmovies-upstream-first-anniversary/newsroom-consumer-gmovies-upstream-first-anniversary-primary-thumbnail-m.jpg",
      "imageDesktop": "/sites/globe.com.ph/files/content/dam/globe/brie/AboutUs/newsroom/consumer/gmovies-upstream-first-anniversary/newsroom-consumer-gmovies-upstream-first-anniversary-primary-thumbnail-d.jpg",
      "description": "To celebrate its first anniversary, GMovies & UPSTREAM PH present an originally produced film by veteran and award-winning directors, and series to their users.",
      "datePosted": "Nov 15, 2021 | 01:23 PM",
      "titleFromTag": "Consumer"
    },
    {
      "title": "Globe, MAGELCO Seal 25-Year Partnership for Faster Fiber Rollout, Affordable Electricity in Maguindanao",
      "nonclickable": false,
      "openNewTab": false,
      "borderArticle": "border-color:#0074D9;",
      "borderTopArticle": "border-top-color:#0074D9;",
      "imageListing": "/sites/globe.com.ph/files/content/dam/globe/brie/AboutUs/newsroom/partners/globe-magelco-partnership-fiber-rollout-affordable-electricity-maguindanao/newsroom-partners-magelco-25-year-partnership-thumbnail-listing.jpg",
      "articleUrl": "https://www.globe.com.ph/about-us/newsroom/partners/globe-magelco-partnership-fiber-rollout-affordable-electricity-maguindanao.html",
      "columnType": "articles--type-3",
      "typeListing": "article",
      "imageMobile": "/sites/globe.com.ph/files/content/dam/globe/brie/AboutUs/newsroom/partners/globe-magelco-partnership-fiber-rollout-affordable-electricity-maguindanao/newsroom-partners-magelco-25-year-partnership-primary-thumbnail-m.jpg",
      "imageDesktop": "/sites/globe.com.ph/files/content/dam/globe/brie/AboutUs/newsroom/partners/globe-magelco-partnership-fiber-rollout-affordable-electricity-maguindanao/newsroom-partners-magelco-25-year-partnership-primary-thumbnail-d.jpg",
      "description": "Globe has partnered with the Maguindanao Electric Cooperative (MAGELCO) to accelerate the rollout of fiber-to-the-home (FTTH) technology.",
      "datePosted": "Nov 15, 2021 | 01:04 PM",
      "titleFromTag": "Partners"
    },
    {
      "title": "917ventures Key to Globe’s Transformation into a Digital Solutions Platform",
      "nonclickable": false,
      "openNewTab": false,
      "borderArticle": "border-color:#0074D9;",
      "borderTopArticle": "border-top-color:#0074D9;",
      "imageListing": "/sites/globe.com.ph/files/content/dam/globe/brie/AboutUs/newsroom/917ventures/key-globe-transformation-digital-solutions-platform/newsroom-917ventures-transformation-digital-solutions-platform-thumbnail-listing.jpg",
      "articleUrl": "https://www.globe.com.ph/about-us/newsroom/917ventures/key-globe-transformation-digital-solutions-platform.html",
      "columnType": "articles--type-3",
      "typeListing": "article",
      "imageMobile": "/sites/globe.com.ph/files/content/dam/globe/brie/AboutUs/newsroom/917ventures/key-globe-transformation-digital-solutions-platform/newsroom-917ventures-transformation-digital-solutions-platform-primary-thumbnail-m.jpg",
      "imageDesktop": "/sites/globe.com.ph/files/content/dam/globe/brie/AboutUs/newsroom/917ventures/key-globe-transformation-digital-solutions-platform/newsroom-917ventures-transformation-digital-solutions-platform-primary-thumbnail-d.jpg",
      "description": "917Ventures is on track with its goal to future-proof its parent company, Globe. It creates and customizes solutions specific to what Filipinos need.",
      "datePosted": "Nov 15, 2021 | 12:52 PM",
      "titleFromTag": "917Ventures"
    },
    {
      "title": "Globe Celebrates Creativity and Resilience of Filipino Educators with National Conference on Digital Learning",
      "nonclickable": false,
      "openNewTab": false,
      "borderArticle": "border-color:#0074D9;",
      "borderTopArticle": "border-top-color:#0074D9;",
      "imageListing": "/sites/globe.com.ph/files/content/dam/globe/brie/AboutUs/newsroom/consumer/creativity-resilience-filipino-educators-national-conference-digital-learning/newsroom-consumer-national-conference-digital-learning-thumbnail-listing.jpg",
      "articleUrl": "https://www.globe.com.ph/about-us/newsroom/consumer/creativity-resilience-filipino-educators-national-conference-digital-learning.html",
      "columnType": "articles--type-3",
      "typeListing": "article",
      "imageMobile": "/sites/globe.com.ph/files/content/dam/globe/brie/AboutUs/newsroom/consumer/creativity-resilience-filipino-educators-national-conference-digital-learning/newsroom-consumer-national-conference-digital-learning-primary-thumbnail-m.jpg",
      "imageDesktop": "/sites/globe.com.ph/files/content/dam/globe/brie/AboutUs/newsroom/consumer/creativity-resilience-filipino-educators-national-conference-digital-learning/newsroom-consumer-national-conference-digital-learning-primary-thumbnail-d.jpg",
      "description": "FOREFRONT: 2021 National Conference on Digital Learning was recently held, live-streamed on the official Facebook pages of Globe Business and DepEd.",
      "datePosted": "Nov 12, 2021 | 04:17 PM",
      "titleFromTag": "Consumer"
    },
    {
      "title": "Globe’s Climate Action Strategy Cited in GSMA COP26 Digital Hub",
      "nonclickable": false,
      "openNewTab": false,
      "borderArticle": "border-color:#0074D9;",
      "borderTopArticle": "border-top-color:#0074D9;",
      "imageListing": "/sites/globe.com.ph/files/content/dam/globe/brie/AboutUs/newsroom/sustainability/climate-action-strategy-gsma-cop26-digital-hub/newsroom-sustainability-gsma-cop26-digital-hub-thumbnail-listing.jpg",
      "articleUrl": "https://www.globe.com.ph/about-us/newsroom/sustainability/climate-action-strategy-gsma-cop26-digital-hub.html",
      "columnType": "articles--type-3",
      "typeListing": "article",
      "imageMobile": "/sites/globe.com.ph/files/content/dam/globe/brie/AboutUs/newsroom/sustainability/climate-action-strategy-gsma-cop26-digital-hub/newsroom-sustainability-gsma-cop26-digital-hub-primary-thumbnail-m.jpg",
      "imageDesktop": "/sites/globe.com.ph/files/content/dam/globe/brie/AboutUs/newsroom/sustainability/climate-action-strategy-gsma-cop26-digital-hub/newsroom-sustainability-gsma-cop26-digital-hub-primary-thumbnail-d.jpg",
      "description": "Globe was cited by GSMA in its COP26 Digital Hub as an example of how the telcos can actively reduce their company’s emissions to support the campaign.",
      "datePosted": "Nov 12, 2021 | 10:33 AM",
      "titleFromTag": "Sustainability"
    },
    {
      "title": "Tale as Bold as Pride! Globe and Pride@Tech Rewrite Classic Stories to Honor LGBTQ+ Representation",
      "nonclickable": false,
      "openNewTab": false,
      "borderArticle": "border-color:#0074D9;",
      "borderTopArticle": "border-top-color:#0074D9;",
      "imageListing": "/sites/globe.com.ph/files/content/dam/globe/brie/AboutUs/newsroom/citizenship/globe-prideattech-rewrite-classic-stories-honor-lgbtq/newsroom-citizenship-tale-as-bold-as-pride-thumbnail-listing.jpg",
      "articleUrl": "https://www.globe.com.ph/about-us/newsroom/citizenship/globe-prideattech-rewrite-classic-stories-honor-lgbtq.html",
      "columnType": "articles--type-3",
      "typeListing": "article",
      "imageMobile": "/sites/globe.com.ph/files/content/dam/globe/brie/AboutUs/newsroom/citizenship/globe-prideattech-rewrite-classic-stories-honor-lgbtq/newsroom-citizenship-tale-as-bold-as-pride-primary-thumbnail-m.jpg",
      "imageDesktop": "/sites/globe.com.ph/files/content/dam/globe/brie/AboutUs/newsroom/citizenship/globe-prideattech-rewrite-classic-stories-honor-lgbtq/newsroom-citizenship-tale-as-bold-as-pride-primary-thumbnail-d.jpg",
      "description": "Globe and Pride@Tech’s RETOLD WITH PRIDE flips the script on iconic stories we all grew up with by giving better representation to the LGBTQ+ community.",
      "datePosted": "Nov 12, 2021 | 09:31 AM",
      "titleFromTag": "Citizenship"
    },
    {
      "title": "Globe Offers Widest 5G Coverage in Europe",
      "nonclickable": false,
      "openNewTab": false,
      "borderArticle": "border-color:#1C91C5;",
      "borderTopArticle": "border-top-color:#1C91C5;",
      "imageListing": "/sites/globe.com.ph/files/content/dam/globe/brie/AboutUs/newsroom/corporate/wildest-5g-coverage-europe/newsroom-corporate-widest-5g-coverage-europe-thumbnail-listing.jpg",
      "articleUrl": "https://www.globe.com.ph/about-us/newsroom/corporate/wildest-5g-coverage-europe.html",
      "columnType": "articles--type-3",
      "typeListing": "article",
      "imageMobile": "/sites/globe.com.ph/files/content/dam/globe/brie/AboutUs/newsroom/corporate/wildest-5g-coverage-europe/newsroom-corporate-widest-5g-coverage-europe-primary-thumbnail-m.jpg",
      "imageDesktop": "/sites/globe.com.ph/files/content/dam/globe/brie/AboutUs/newsroom/corporate/wildest-5g-coverage-europe/newsroom-corporate-widest-5g-coverage-europe-primary-thumbnail-d.jpg",
      "description": "Globe adds 5G roaming services in more countries in Europe, making it the only Philippine telco with the widest 5G coverage in the continent.",
      "datePosted": "Nov 11, 2021 | 12:11 PM",
      "titleFromTag": "Corporate"
    },
    {
      "title": "Globe Installs 26 New Towers, Completes 377 Site Upgrades in Pampanga",
      "nonclickable": false,
      "openNewTab": false,
      "borderArticle": "border-color:#1C91C5;",
      "borderTopArticle": "border-top-color:#1C91C5;",
      "imageListing": "/sites/globe.com.ph/files/content/dam/globe/brie/AboutUs/newsroom/corporate/26-new-towers-377-site-upgrades-pampanga/newsroom-corporate-377-sites-pampanga-thumbnail-listing.jpg",
      "articleUrl": "https://www.globe.com.ph/about-us/newsroom/corporate/26-new-towers-377-site-upgrades-pampanga.html",
      "columnType": "articles--type-3",
      "typeListing": "article",
      "imageMobile": "/sites/globe.com.ph/files/content/dam/globe/brie/AboutUs/newsroom/corporate/26-new-towers-377-site-upgrades-pampanga/newsroom-corporate-377-sites-pampanga-primary-thumbnail-m.jpg",
      "imageDesktop": "/sites/globe.com.ph/files/content/dam/globe/brie/AboutUs/newsroom/corporate/26-new-towers-377-site-upgrades-pampanga/newsroom-corporate-377-sites-pampanga-primary-thumbnail-d.jpg",
      "description": "Globe has built 26 new cell sites located in strategic towns and cities all over the province, and upgraded 377 sites to 4G LTE.",
      "datePosted": "Nov 11, 2021 | 09:30 AM",
      "titleFromTag": "Corporate"
    },
    {
      "title": "Globe’s 917Ventures to Grow Digital Health Startup KonsultaMD in 2022",
      "nonclickable": false,
      "openNewTab": false,
      "borderArticle": "border-color:#0074D9;",
      "borderTopArticle": "border-top-color:#0074D9;",
      "imageListing": "/sites/globe.com.ph/files/content/dam/globe/brie/AboutUs/newsroom/partners/917ventures-grow-digital-health-startup-konsultamd-2022/v2/newsroom-partners-grow-digital-startup-konsultamd-thumbnail-listing.jpg",
      "articleUrl": "https://www.globe.com.ph/about-us/newsroom/partners/917ventures-grow-digital-health-startup-konsultamd-2022.html",
      "columnType": "articles--type-3",
      "typeListing": "article",
      "imageMobile": "/sites/globe.com.ph/files/content/dam/globe/brie/AboutUs/newsroom/partners/917ventures-grow-digital-health-startup-konsultamd-2022/v2/newsroom-partners-grow-digital-startup-konsultamd-primary-thumbnail-m.jpg",
      "imageDesktop": "/sites/globe.com.ph/files/content/dam/globe/brie/AboutUs/newsroom/partners/917ventures-grow-digital-health-startup-konsultamd-2022/v2/newsroom-partners-grow-digital-startup-konsultamd-primary-thumbnail-d.jpg",
      "description": "917Ventures expects its portfolio company, telemedicine provider KonsultaMD, to follow the footsteps of sister company Mynt in the coming years.",
      "datePosted": "Nov 10, 2021 | 02:28 PM",
      "titleFromTag": "Partners"
    },
    {
      "title": "Globe Bags Diamond for ‘Best PR Campaign’ in 3rd ASEAN PR Excellence Awards",
      "nonclickable": false,
      "openNewTab": false,
      "borderArticle": "border-color:#1C91C5;",
      "borderTopArticle": "border-top-color:#1C91C5;",
      "imageListing": "/sites/globe.com.ph/files/content/dam/globe/brie/AboutUs/newsroom/corporate/diamond-best-pr-campaign-third-asean-pr-excellence-awards/newsroom-corporate-best-pr-campaign-thumbnail-listing.jpg",
      "articleUrl": "https://www.globe.com.ph/about-us/newsroom/corporate/diamond-best-pr-campaign-third-asean-pr-excellence-awards.html",
      "columnType": "articles--type-3",
      "typeListing": "article",
      "imageMobile": "/sites/globe.com.ph/files/content/dam/globe/brie/AboutUs/newsroom/corporate/diamond-best-pr-campaign-third-asean-pr-excellence-awards/newsroom-corporate-best-pr-campaign-primary-thumbnail-m.jpg",
      "imageDesktop": "/sites/globe.com.ph/files/content/dam/globe/brie/AboutUs/newsroom/corporate/diamond-best-pr-campaign-third-asean-pr-excellence-awards/newsroom-corporate-best-pr-campaign-primary-thumbnail-d.jpg",
      "description": "Globe’s PR Campaign “Sa Rewards, Atin ang #GDayEveryday” won a Diamond Award for “Best PR Campaign” at the 3rd ASEAN PR Excellence Awards.",
      "datePosted": "Nov 10, 2021 | 09:57 AM",
      "titleFromTag": "Corporate"
    },
    {
      "title": "Globe Bags Two Inspire Tech Awards for Increased Productivity and Customer Experience Excellence",
      "nonclickable": false,
      "openNewTab": false,
      "borderArticle": "border-color:#1C91C5;",
      "borderTopArticle": "border-top-color:#1C91C5;",
      "imageListing": "/sites/globe.com.ph/files/content/dam/globe/brie/AboutUs/newsroom/corporate/globe-bags-two-inspire-tech-awards/newsroom-corporate-globe-bags-tech-awards-thumbnail-listing.jpg",
      "articleUrl": "https://www.globe.com.ph/about-us/newsroom/corporate/globe-bags-two-inspire-tech-awards.html",
      "columnType": "articles--type-3",
      "typeListing": "article",
      "imageMobile": "/sites/globe.com.ph/files/content/dam/globe/brie/AboutUs/newsroom/corporate/globe-bags-two-inspire-tech-awards/newsroom-corporate-globe-bags-tech-awards-primary-thumbnail-m.jpg",
      "imageDesktop": "/sites/globe.com.ph/files/content/dam/globe/brie/AboutUs/newsroom/corporate/globe-bags-two-inspire-tech-awards/newsroom-corporate-globe-bags-tech-awards-primary-thumbnail-d.jpg",
      "description": "Globe bagged two prestigious honors from the CIO Academy Asia’s inaugural INSPIRE Tech Awards 2021, besting nominees from other Southeast Asian countries.",
      "datePosted": "Nov 09, 2021 | 10:33 AM",
      "titleFromTag": "Corporate"
    },
    {
      "title": "“Madiskarteng” Mommy and Beloved Actress Marian Rivera Joins the Globe at Home Family",
      "nonclickable": false,
      "openNewTab": false,
      "borderArticle": "border-color:#0074D9;",
      "borderTopArticle": "border-top-color:#0074D9;",
      "imageListing": "/sites/globe.com.ph/files/content/dam/globe/brie/AboutUs/newsroom/consumer/marian-rivera-joins-globe-at-home-family/newsroom-consumer-marian-rivera-joins-gah-family-thumbnail-listing.jpg",
      "articleUrl": "https://www.globe.com.ph/about-us/newsroom/consumer/marian-rivera-joins-globe-at-home-family.html",
      "columnType": "articles--type-3",
      "typeListing": "article",
      "imageMobile": "/sites/globe.com.ph/files/content/dam/globe/brie/AboutUs/newsroom/consumer/marian-rivera-joins-globe-at-home-family/newsroom-consumer-marian-rivera-joins-gah-family-primary-thumbnail-m.jpg",
      "imageDesktop": "/sites/globe.com.ph/files/content/dam/globe/brie/AboutUs/newsroom/consumer/marian-rivera-joins-globe-at-home-family/newsroom-consumer-marian-rivera-joins-gah-family-primary-thumbnail-d.jpg",
      "description": "Globe welcomes Marian Rivera  as the new Globe At Home Prepaid WiFi ambassador, as she serves as an inspiration to many Filipinos.",
      "datePosted": "Nov 09, 2021 | 09:11 AM",
      "titleFromTag": "Consumer"
    }
  ]
}
