{
  "status": 200,
  "page": 9,
  "totalPage": 298,
  "range": "97-108",
  "total": 3573,
  "result": [
    {
      "title": "G Chance the Raffle Makes Dreams Come True on G Day 2023",
      "nonclickable": false,
      "openNewTab": false,
      "borderArticle": "border-color:#0074D9;",
      "borderTopArticle": "border-top-color:#0074D9;",
      "imageListing": "/sites/globe.com.ph/files/content/dam/globe/brie/AboutUs/newsroom/consumer/dreams-come-true-on-g-day/thumbnail-listing.jpg",
      "articleUrl": "https://www.globe.com.ph/about-us/newsroom/consumer/g-chance-the-raffle-makes-dreams-come-true-g-day-2023.html",
      "columnType": "articles--type-3",
      "typeListing": "article",
      "imageMobile": "/sites/globe.com.ph/files/content/dam/globe/brie/AboutUs/newsroom/consumer/dreams-come-true-on-g-day/primary-thumbnail-m.jpg",
      "imageDesktop": "/sites/globe.com.ph/files/content/dam/globe/brie/AboutUs/newsroom/consumer/dreams-come-true-on-g-day/primary-thumbnail-d.jpg",
      "description": "Globe brings Filipinos closer to their dreams with an even bigger G Chance the Raffle this year.",
      "datePosted": "Sep 26, 2023 | 10:28 AM",
      "titleFromTag": "Consumer"
    },
    {
      "title": "Globe Unites with IPOPHL, Major ISPs in Landmark MOU vs Online Content Piracy",
      "nonclickable": false,
      "openNewTab": false,
      "borderArticle": "border-color:#0074D9;",
      "borderTopArticle": "border-top-color:#0074D9;",
      "imageListing": "/sites/globe.com.ph/files/content/dam/globe/brie/AboutUs/newsroom/common/default-partners-4/default-partners-4-primary-thumbnail-listing.jpg",
      "articleUrl": "https://www.globe.com.ph/about-us/newsroom/corporate/globe-unites-with-ipophl-major-isps-landmark-mou-vs-online-content-piracy.html",
      "columnType": "articles--type-3",
      "typeListing": "article",
      "imageMobile": "/sites/globe.com.ph/files/content/dam/globe/brie/AboutUs/newsroom/common/default-partners-4/default-partners-4-primary-primary-thumbnail-m.jpg",
      "imageDesktop": "/sites/globe.com.ph/files/content/dam/globe/brie/AboutUs/newsroom/common/default-partners-4/default-partners-4-primary-primary-thumbnail-d.jpg",
      "description": "Globe has signed a Memorandum of Understanding with the Intellectual Property Office of the Philippines and 4 other leading Internet Service Providers.",
      "datePosted": "Sep 26, 2023 | 10:27 AM",
      "titleFromTag": "Corporate"
    },
    {
      "title": "Globe's 1st Developers’ Conference: A Commitment to Innovation and Collaboration",
      "nonclickable": false,
      "openNewTab": false,
      "borderArticle": "border-color:#0074D9;",
      "borderTopArticle": "border-top-color:#0074D9;",
      "imageListing": "/sites/globe.com.ph/files/content/dam/globe/brie/AboutUs/newsroom/common/default-corporate-10/default-corporate-10-thumbnail-listing.jpg",
      "articleUrl": "https://www.globe.com.ph/about-us/newsroom/corporate/first-developers-conference-commitment-to-innovation-collaboration.html",
      "columnType": "articles--type-3",
      "typeListing": "article",
      "imageMobile": "/sites/globe.com.ph/files/content/dam/globe/brie/AboutUs/newsroom/common/default-corporate-10/default-corporate-10-primary-thumbnail-m.jpg",
      "imageDesktop": "/sites/globe.com.ph/files/content/dam/globe/brie/AboutUs/newsroom/common/default-corporate-10/default-corporate-10-primary-thumbnail-d.jpg",
      "description": "Globe demonstrated its commitment to fostering innovation, collaboration, and knowledge exchange within the tech community.",
      "datePosted": "Sep 25, 2023 | 02:26 PM",
      "titleFromTag": "Corporate"
    },
    {
      "title": "NXT: Empowering Next-Gen Workforce for a Sustainable Future",
      "nonclickable": false,
      "openNewTab": false,
      "borderArticle": "border-color:#0074D9;",
      "borderTopArticle": "border-top-color:#0074D9;",
      "imageListing": "/sites/globe.com.ph/files/content/dam/globe/brie/AboutUs/newsroom/common/default-corporate-4/corp-listing-thumbnail.jpg",
      "articleUrl": "https://www.globe.com.ph/about-us/newsroom/corporate/nxt-empowering-next-gen-workforce-for-sustainable-future.html",
      "columnType": "articles--type-3",
      "typeListing": "article",
      "imageMobile": "/sites/globe.com.ph/files/content/dam/globe/brie/AboutUs/newsroom/common/default-corporate-4/corp-primary-banner-m.jpg",
      "imageDesktop": "/sites/globe.com.ph/files/content/dam/globe/brie/AboutUs/newsroom/common/default-corporate-4/corp-primary-thumbnail.jpg",
      "description": "NXT offers a diverse range of job opportunities to empower the next generation of talent.",
      "datePosted": "Sep 25, 2023 | 02:24 PM",
      "titleFromTag": "Corporate"
    },
    {
      "title": "Globe Group’s Sustainability Efforts Recognized in Four Categories at the Sustainable Company Awards 2023",
      "nonclickable": false,
      "openNewTab": false,
      "borderArticle": "border-color:#1C91C5;",
      "borderTopArticle": "border-top-color:#1C91C5;",
      "imageListing": "/sites/globe.com.ph/files/content/dam/globe/brie/AboutUs/newsroom/sustainability/sustainability-efforts-recognized-in-four-categories/corp-default-images-thumbnail-listing.jpg",
      "articleUrl": "https://www.globe.com.ph/about-us/newsroom/sustainability/efforts-recognized-at-sustainable-company-awards-2023.html",
      "columnType": "articles--type-3",
      "typeListing": "article",
      "imageMobile": "/sites/globe.com.ph/files/content/dam/globe/brie/AboutUs/newsroom/sustainability/sustainability-efforts-recognized-in-four-categories/corp-default-images-primary-thumbnail-m.jpg",
      "imageDesktop": "/sites/globe.com.ph/files/content/dam/globe/brie/AboutUs/newsroom/sustainability/sustainability-efforts-recognized-in-four-categories/corp-default-images-primary-thumbnail-d.jpg",
      "description": "The Globe Group has earned recognition in four categories at the Environmental Finance Sustainable Company Awards 2023.",
      "datePosted": "Sep 25, 2023 | 02:23 PM",
      "titleFromTag": "Sustainability"
    },
    {
      "title": "G Battle Zone Ignites Gaming World with G Legends Cup and REV Major 2023",
      "nonclickable": false,
      "openNewTab": false,
      "borderArticle": "border-color:#0074D9;",
      "borderTopArticle": "border-top-color:#0074D9;",
      "imageListing": "/sites/globe.com.ph/files/content/dam/globe/brie/About-us/Newsroom/image/Consumer/g-battle-zone-ignites-gaming-world/Newsroom-Prepaid-Default-Images-Gen-Z-Gamer-1-thumbnail-listing.jpg",
      "articleUrl": "https://www.globe.com.ph/about-us/newsroom/consumer/g-battle-zone-ignites-gaming-world-g-legends-cup-rev-major-2023.html",
      "columnType": "articles--type-3",
      "typeListing": "article",
      "imageMobile": "/sites/globe.com.ph/files/content/dam/globe/brie/About-us/Newsroom/image/Consumer/g-battle-zone-ignites-gaming-world/Newsroom-Prepaid-Default-Images-Gen-Z-Gamer-1-primary-thumbnail-m.jpg",
      "imageDesktop": "/sites/globe.com.ph/files/content/dam/globe/brie/About-us/Newsroom/image/Consumer/g-battle-zone-ignites-gaming-world/Newsroom-Prepaid-Default-Images-Gen-Z-Gamer-1-primary-thumbnail-d.jpg",
      "description": "Globe is set to host the G Battle Zone: G Legends Cup and REV Major as part of this year’s G Day celebration.",
      "datePosted": "Sep 25, 2023 | 10:20 AM",
      "titleFromTag": "Consumer"
    },
    {
      "title": "Globe Group's Multi-Awarded #MakeITSafePH Campaign Clinches Double Honors at PRCA Platinum Awards 2023",
      "nonclickable": false,
      "openNewTab": false,
      "borderArticle": "border-color:#1C91C5;",
      "borderTopArticle": "border-top-color:#1C91C5;",
      "imageListing": "/sites/globe.com.ph/files/content/dam/globe/brie/AboutUs/newsroom/sustainability/globe-group-multi-awarded/NEWSROOM-SUSTAINABILITY-Globe-Group-thumbnail-listing.jpg",
      "articleUrl": "https://www.globe.com.ph/about-us/newsroom/sustainability/multi-awarded-makeitsafeph-campaign-double-honors-prca-platinum-awards.html",
      "columnType": "articles--type-3",
      "typeListing": "article",
      "imageMobile": "/sites/globe.com.ph/files/content/dam/globe/brie/AboutUs/newsroom/sustainability/globe-group-multi-awarded/NEWSROOM-SUSTAINABILITY-Globe-Group-s-multi-awarded-MakeITSafePH-primary-thumbnail-m.jpg",
      "imageDesktop": "/sites/globe.com.ph/files/content/dam/globe/brie/AboutUs/newsroom/sustainability/globe-group-multi-awarded/NEWSROOM-SUSTAINABILITY-Globe-Group-s-multi-awarded-MakeITSafePH-primary-thumbnail-d.jpg",
      "description": "Globe Group's #MakeITSafePH anti-cyberbullying campaign has garnered two prestigious awards at the PRCA Platinum 2023 Awards Ceremony.",
      "datePosted": "Sep 21, 2023 | 02:06 PM",
      "titleFromTag": "Sustainability"
    },
    {
      "title": "PetPal Makes Waves at Paw Fest Pet Community Fair Event",
      "nonclickable": false,
      "openNewTab": false,
      "borderArticle": "border-color:#0074D9;",
      "borderTopArticle": "border-top-color:#0074D9;",
      "imageListing": "/sites/globe.com.ph/files/content/dam/globe/brie/AboutUs/newsroom/consumer/petpal-makes-waves-at-paw-fest-pet-community-fair-event/NEWSROOM-CONSUMER-Paw-Fest-thumbnail-listing.jpg",
      "articleUrl": "https://www.globe.com.ph/about-us/newsroom/consumer/petpal-makes-waves-paw-fest-pet-community-fair-event.html",
      "columnType": "articles--type-3",
      "typeListing": "article",
      "imageMobile": "/sites/globe.com.ph/files/content/dam/globe/brie/AboutUs/newsroom/consumer/petpal-makes-waves-at-paw-fest-pet-community-fair-event/NEWSROOM-CONSUMER-Paw-Fest-primary-thumbnail-m.jpg",
      "imageDesktop": "/sites/globe.com.ph/files/content/dam/globe/brie/AboutUs/newsroom/consumer/petpal-makes-waves-at-paw-fest-pet-community-fair-event/NEWSROOM-CONSUMER-Paw-Fest-primary-thumbnail-d.jpg",
      "description": "PetPal shared insights plus services with pet owners in the Paw Fest Community Fair Event.",
      "datePosted": "Sep 20, 2023 | 01:00 PM",
      "titleFromTag": "Consumer"
    },
    {
      "title": "Globe G Fair 2023: A Tribute to Filipino Entrepreneurs, Artists, and Loyal Customers",
      "nonclickable": false,
      "openNewTab": false,
      "borderArticle": "border-color:#0074D9;",
      "borderTopArticle": "border-top-color:#0074D9;",
      "imageListing": "/sites/globe.com.ph/files/content/dam/globe/brie/AboutUs/newsroom/business/globe-g-fair-2023-a-tribute/thumbnail-listing.jpg",
      "articleUrl": "https://www.globe.com.ph/about-us/newsroom/business/g-fair-2023-tribute-to-filipino-entrepreneurs-artists-customers.html",
      "columnType": "articles--type-3",
      "typeListing": "article",
      "imageMobile": "/sites/globe.com.ph/files/content/dam/globe/brie/AboutUs/newsroom/business/globe-g-fair-2023-a-tribute/primary-thumbnail-m.jpg",
      "imageDesktop": "/sites/globe.com.ph/files/content/dam/globe/brie/AboutUs/newsroom/business/globe-g-fair-2023-a-tribute/primary-thumbnail-d.jpg",
      "description": "G Fair 2023 to showcase Filipino local products, artists, and Globe Business digital solutions.",
      "datePosted": "Sep 20, 2023 | 11:41 AM",
      "titleFromTag": "Business"
    },
    {
      "title": "Back-to-School Boost: '4tifying the Future' with 917Ventures",
      "nonclickable": false,
      "openNewTab": false,
      "borderArticle": "border-color:#1C91C5;",
      "borderTopArticle": "border-top-color:#1C91C5;",
      "imageListing": "/sites/globe.com.ph/files/content/dam/globe/brie/AboutUs/newsroom/sustainability/globe-builds-teacher-skills-early-language-literacy/default-sustainability-1-thumbnail-listing.jpg",
      "articleUrl": "https://www.globe.com.ph/about-us/newsroom/sustainability/back-to-school-boost-4tifying-the-future.html",
      "columnType": "articles--type-3",
      "typeListing": "article",
      "imageMobile": "/sites/globe.com.ph/files/content/dam/globe/brie/AboutUs/newsroom/sustainability/globe-builds-teacher-skills-early-language-literacy/default-sustainability-1-primary-thumbnail-m.jpg",
      "imageDesktop": "/sites/globe.com.ph/files/content/dam/globe/brie/AboutUs/newsroom/sustainability/globe-builds-teacher-skills-early-language-literacy/default-sustainability-1-primary-thumbnail-d.jpg",
      "description": "917Ventures marked its 4th anniversary at San Joaquin Elementary School in Pasig City, as they helped gear up the school for the new academic year.",
      "datePosted": "Sep 19, 2023 | 02:06 PM",
      "titleFromTag": "Sustainability"
    },
    {
      "title": "Globe Transforms Prepaid Mobile Experience with Digital-Only eSIM",
      "nonclickable": false,
      "openNewTab": false,
      "borderArticle": "border-color:#0074D9;",
      "borderTopArticle": "border-top-color:#0074D9;",
      "imageListing": "/sites/globe.com.ph/files/content/dam/globe/brie/AboutUs/newsroom/common/default-prepaid-gen-z-mobile-2/Newsroom-Prepaid-Default-Images-Gen-Z-Mobile-2-thumbnail-listing.jpg",
      "articleUrl": "https://www.globe.com.ph/about-us/newsroom/consumer/transforming-prepaid-mobile-experience-digital-only-esim.html",
      "columnType": "articles--type-3",
      "typeListing": "article",
      "imageMobile": "/sites/globe.com.ph/files/content/dam/globe/brie/AboutUs/newsroom/common/default-prepaid-gen-z-mobile-2/Newsroom-Prepaid-Default-Images-Gen-Z-Mobile-2-primary-thumbnail-m.jpg",
      "imageDesktop": "/sites/globe.com.ph/files/content/dam/globe/brie/AboutUs/newsroom/common/default-prepaid-gen-z-mobile-2/Newsroom-Prepaid-Default-Images-Gen-Z-Mobile-2-primary-thumbnail-d.jpg",
      "description": "Globe is introducing the prepaid eSIM by the end of September 2023.",
      "datePosted": "Sep 19, 2023 | 01:00 PM",
      "titleFromTag": "Consumer"
    },
    {
      "title": "Globe Strengthens Enterprise Architecture and ICT Capabilities with NCS Collaboration",
      "nonclickable": false,
      "openNewTab": false,
      "borderArticle": "border-color:#0074D9;",
      "borderTopArticle": "border-top-color:#0074D9;",
      "imageListing": "/sites/globe.com.ph/files/content/dam/globe/brie/AboutUs/newsroom/corporate/globe-group-earns-spot-linkedin-2023-top-companies/eg-default-images-thumbnail-listing.jpg",
      "articleUrl": "https://www.globe.com.ph/about-us/newsroom/business/globe-strengthens-enteprise-architecture-ict-capabilities.html",
      "columnType": "articles--type-3",
      "typeListing": "article",
      "imageMobile": "/sites/globe.com.ph/files/content/dam/globe/brie/AboutUs/newsroom/corporate/globe-group-earns-spot-linkedin-2023-top-companies/eg-default-images-primary-thumbnail-m.jpg",
      "imageDesktop": "/sites/globe.com.ph/files/content/dam/globe/brie/AboutUs/newsroom/corporate/globe-group-earns-spot-linkedin-2023-top-companies/eg-default-images-primary-thumbnail-d.jpg",
      "description": "Globe signs a Memorandum of Understanding with NCS in their latest collaboration to fortify enterprise architecture and ICT capabilities. ",
      "datePosted": "Sep 19, 2023 | 10:21 AM",
      "titleFromTag": "Business"
    }
  ]
}
