{
  "status": 200,
  "page": 90,
  "totalPage": 298,
  "range": "1069-1080",
  "total": 3573,
  "result": [
    {
      "title": "Globe Accelerates Rollout of In-Building Solutions to Provide Quality 5G Indoor Coverage",
      "nonclickable": false,
      "openNewTab": false,
      "borderArticle": "border-color:#0074D9;",
      "borderTopArticle": "border-top-color:#0074D9;",
      "imageListing": "/sites/globe.com.ph/files/content/dam/globe/brie/AboutUs/newsroom/consumer/in-building-solutions-quality-5g-indoor-coverage/newsroom-consumer-quality-5g-indoor-coverage-thumbnail-listing.jpg",
      "articleUrl": "https://www.globe.com.ph/about-us/newsroom/consumer/in-building-solutions-quality-5g-indoor-coverage.html",
      "columnType": "articles--type-3",
      "typeListing": "article",
      "imageMobile": "/sites/globe.com.ph/files/content/dam/globe/brie/AboutUs/newsroom/consumer/in-building-solutions-quality-5g-indoor-coverage/newsroom-consumer-quality-5g-indoor-coverage-primary-thumbnail-m.jpg",
      "imageDesktop": "/sites/globe.com.ph/files/content/dam/globe/brie/AboutUs/newsroom/consumer/in-building-solutions-quality-5g-indoor-coverage/newsroom-consumer-quality-5g-indoor-coverage-primary-thumbnail-d.jpg",
      "description": "Globe is accelerating the rollout of its 5G-capable in-building solutions (IBS) to provide quality indoor coverage in key tourism-related destinations.",
      "datePosted": "Nov 09, 2021 | 08:58 AM",
      "titleFromTag": "Consumer"
    },
    {
      "title": "Globe Completes Online Safety, E-Waste Management Orientation for over 300 NHA Homeowners in Luzon",
      "nonclickable": false,
      "openNewTab": false,
      "borderArticle": "border-color:#0074D9;",
      "borderTopArticle": "border-top-color:#0074D9;",
      "imageListing": "/sites/globe.com.ph/files/content/dam/globe/brie/AboutUs/newsroom/sustainability/online-safety-e-waste-management-orientation-nha-homeowners-luzon/newsroom-sustainability-complete-online-safety-orientation-thumbnail-listing.jpg",
      "articleUrl": "https://www.globe.com.ph/about-us/newsroom/sustainability/online-safety-e-waste-management-orientation-nha-homeowners-luzon.html",
      "columnType": "articles--type-3",
      "typeListing": "article",
      "imageMobile": "/sites/globe.com.ph/files/content/dam/globe/brie/AboutUs/newsroom/sustainability/online-safety-e-waste-management-orientation-nha-homeowners-luzon/newsroom-sustainability-complete-online-safety-orientation-primary-thumbnail-m.jpg",
      "imageDesktop": "/sites/globe.com.ph/files/content/dam/globe/brie/AboutUs/newsroom/sustainability/online-safety-e-waste-management-orientation-nha-homeowners-luzon/newsroom-sustainability-complete-online-safety-orientation-primary-thumbnail-d.jpg",
      "description": "Globe, in partnership with NHA, has completed the online safety and e-waste management program orientation of 339 homeowners in Luzon. ",
      "datePosted": "Nov 08, 2021 | 12:23 PM",
      "titleFromTag": "Sustainability"
    },
    {
      "title": "Digitized Logistics of Mober, Ninja Van Philippines, and Rags2Riches Made Easier with Globe Business",
      "nonclickable": false,
      "openNewTab": false,
      "borderArticle": "border-color:#0074D9;",
      "borderTopArticle": "border-top-color:#0074D9;",
      "imageListing": "/sites/globe.com.ph/files/content/dam/globe/brie/AboutUs/newsroom/business/digitized-logistics-mober-ninja-van-rags2riches-made-easier/newsroom-business-digitized-logistics-easier-thumbnail-listing.jpg",
      "articleUrl": "https://www.globe.com.ph/about-us/newsroom/business/digitized-logistics-mober-ninja-van-rags2riches-made-easier.html",
      "columnType": "articles--type-3",
      "typeListing": "article",
      "imageMobile": "/sites/globe.com.ph/files/content/dam/globe/brie/AboutUs/newsroom/business/digitized-logistics-mober-ninja-van-rags2riches-made-easier/newsroom-business-digitized-logistics-easier-primary-thumbnail-m.jpg",
      "imageDesktop": "/sites/globe.com.ph/files/content/dam/globe/brie/AboutUs/newsroom/business/digitized-logistics-mober-ninja-van-rags2riches-made-easier/newsroom-business-digitized-logistics-easier-primary-thumbnail-d.jpg",
      "description": "'Rerouting your Biz with Digital Logistics' webinar featured business insights and tips from businesses in the logistics industry.",
      "datePosted": "Nov 08, 2021 | 11:41 AM",
      "titleFromTag": "Business"
    },
    {
      "title": "Globe:  Activate VoWiFi/VoLTE for Better Mobile Experience",
      "nonclickable": false,
      "openNewTab": false,
      "borderArticle": "border-color:#0074D9;",
      "borderTopArticle": "border-top-color:#0074D9;",
      "imageListing": "/sites/globe.com.ph/files/content/dam/globe/brie/AboutUs/newsroom/common/default-3/corporate-default-7-thumbnail-listing.jpg",
      "articleUrl": "https://www.globe.com.ph/about-us/newsroom/consumer/activate-vowifi-volte-better-mobile-experience.html",
      "columnType": "articles--type-3",
      "typeListing": "article",
      "imageMobile": "/sites/globe.com.ph/files/content/dam/globe/brie/AboutUs/newsroom/common/default-3/corporate-default-7-primary-thumbnail-m.jpg",
      "imageDesktop": "/sites/globe.com.ph/files/content/dam/globe/brie/AboutUs/newsroom/common/default-3/corporate-default-7-primary-thumbnail-d.jpg",
      "description": "Globe encourages its customers to activate Voice Over WiFi (VoWiFi) and Voice Over LTE (VoLTE) on their phones for clearer calls and seamless mobile coverage.",
      "datePosted": "Nov 08, 2021 | 09:45 AM",
      "titleFromTag": "Consumer"
    },
    {
      "title": "Globe Telecom Subsidiary,  Cascadeo, Strengthens Its Cloud Expertise with AWS to Support Enterprises",
      "nonclickable": false,
      "openNewTab": false,
      "borderArticle": "border-color:#0074D9;",
      "borderTopArticle": "border-top-color:#0074D9;",
      "imageListing": "/sites/globe.com.ph/files/content/dam/globe/brie/AboutUs/newsroom/business/cascadeo-strengthens-cloud-expertise-aws/newsroom-business-cascadeo-strengthens-cloud-thumbnail-listing.jpg",
      "articleUrl": "https://www.globe.com.ph/about-us/newsroom/business/cascadeo-strengthens-cloud-expertise-aws.html",
      "columnType": "articles--type-3",
      "typeListing": "article",
      "imageMobile": "/sites/globe.com.ph/files/content/dam/globe/brie/AboutUs/newsroom/business/cascadeo-strengthens-cloud-expertise-aws/newsroom-business-cascadeo-strengthens-cloud-primary-thumbnail-m.jpg",
      "imageDesktop": "/sites/globe.com.ph/files/content/dam/globe/brie/AboutUs/newsroom/business/cascadeo-strengthens-cloud-expertise-aws/newsroom-business-cascadeo-strengthens-cloud-primary-thumbnail-d.jpg",
      "description": "Globe Telecom’s Cascadeo, has officially renewed its Amazon Web Services Premier Consulting Partner status and its AWS Managed Service Provider Partner status. ",
      "datePosted": "Nov 08, 2021 | 09:07 AM",
      "titleFromTag": "Business"
    },
    {
      "title": "Globe Business and GDAP Highlight Telecommuting like a Boss in the Gaming Industry",
      "nonclickable": false,
      "openNewTab": false,
      "borderArticle": "border-color:#0074D9;",
      "borderTopArticle": "border-top-color:#0074D9;",
      "imageListing": "/sites/globe.com.ph/files/content/dam/globe/brie/AboutUs/newsroom/business/gdap-telecommuting-boss-gaming-industry/newsroom-business-globe-gdap-boss-gaming-thumbnail-listing.jpg",
      "articleUrl": "https://www.globe.com.ph/about-us/newsroom/business/gdap-telecommuting-boss-gaming-industry.html",
      "columnType": "articles--type-3",
      "typeListing": "article",
      "imageMobile": "/sites/globe.com.ph/files/content/dam/globe/brie/AboutUs/newsroom/business/gdap-telecommuting-boss-gaming-industry/newsroom-business-globe-gdap-boss-gaming-primary-thumbnail-m.jpg",
      "imageDesktop": "/sites/globe.com.ph/files/content/dam/globe/brie/AboutUs/newsroom/business/gdap-telecommuting-boss-gaming-industry/newsroom-business-globe-gdap-boss-gaming-primary-thumbnail-d.jpg",
      "description": "To give the game development industry a boost, Globe Business and GDAP have collaborated in a webinar, “How to Telecommute Like a Boss.”",
      "datePosted": "Nov 05, 2021 | 02:56 PM",
      "titleFromTag": "Business"
    },
    {
      "title": "Globe Reminds Netizens to Be More Careful Online",
      "nonclickable": false,
      "openNewTab": false,
      "borderArticle": "border-color:#0074D9;",
      "borderTopArticle": "border-top-color:#0074D9;",
      "imageListing": "/sites/globe.com.ph/files/content/dam/globe/brie/AboutUs/newsroom/consumer/globe-reminds-netizens-be-more-careful-online/newsroom-consumer-netizens-more-careful-online-thumbnail-listing.jpg",
      "articleUrl": "https://www.globe.com.ph/about-us/newsroom/consumer/globe-reminds-netizens-be-more-careful-online.html",
      "columnType": "articles--type-3",
      "typeListing": "article",
      "imageMobile": "/sites/globe.com.ph/files/content/dam/globe/brie/AboutUs/newsroom/consumer/globe-reminds-netizens-be-more-careful-online/newsroom-consumer-netizens-more-careful-online-primary-thumbnail-m.jpg",
      "imageDesktop": "/sites/globe.com.ph/files/content/dam/globe/brie/AboutUs/newsroom/consumer/globe-reminds-netizens-be-more-careful-online/newsroom-consumer-netizens-more-careful-online-primary-thumbnail-d.jpg",
      "description": "One of the most widespread types of manipulated content involves deepfake—videos that have been expertly edited to replace the person in the original material.",
      "datePosted": "Nov 05, 2021 | 01:44 PM",
      "titleFromTag": "Consumer"
    },
    {
      "title": "Pandemic Shouldn’t Be a Reason Not to #GoLearn, Says Globe",
      "nonclickable": false,
      "openNewTab": false,
      "borderArticle": "border-color:#0074D9;",
      "borderTopArticle": "border-top-color:#0074D9;",
      "imageListing": "/sites/globe.com.ph/files/content/dam/globe/brie/AboutUs/newsroom/business/pandemic-shouldnt-be-reason-not-to-golearn/newsroom-business-pandemic-shouldn_t-be-reason-golearn-thumbnail-listing.jpg",
      "articleUrl": "https://www.globe.com.ph/about-us/newsroom/business/pandemic-shouldnt-be-reason-not-to-golearn.html",
      "columnType": "articles--type-3",
      "typeListing": "article",
      "imageMobile": "/sites/globe.com.ph/files/content/dam/globe/brie/AboutUs/newsroom/business/pandemic-shouldnt-be-reason-not-to-golearn/newsroom-business-pandemic-shouldn_t-be-reason-golearn-primary-thumbnail-m.jpg",
      "imageDesktop": "/sites/globe.com.ph/files/content/dam/globe/brie/AboutUs/newsroom/business/pandemic-shouldnt-be-reason-not-to-golearn/newsroom-business-pandemic-shouldn_t-be-reason-golearn-primary-thumbnail-d.jpg",
      "description": "Globe developed a valuable platform that provides students, teachers, and parents with the necessary support to transition to new learning & digital processes.",
      "datePosted": "Nov 05, 2021 | 10:14 AM",
      "titleFromTag": "Business"
    },
    {
      "title": "Globe EasyHub Makes Digital Transactions as Easy as 1-2-3",
      "nonclickable": false,
      "openNewTab": false,
      "borderArticle": "border-color:#0074D9;",
      "borderTopArticle": "border-top-color:#0074D9;",
      "imageListing": "/sites/globe.com.ph/files/content/dam/globe/brie/AboutUs/newsroom/consumer/globe-shop-and-pay-best-retail-innovation/newsroom-consumer-shop-pay-best-innovation-thumbnail-listing.jpg",
      "articleUrl": "https://www.globe.com.ph/about-us/newsroom/consumer/easyhub-digital-transactions-easy.html",
      "columnType": "articles--type-3",
      "typeListing": "article",
      "imageMobile": "/sites/globe.com.ph/files/content/dam/globe/brie/AboutUs/newsroom/consumer/globe-shop-and-pay-best-retail-innovation/newsroom-consumer-shop-pay-best-innovation-primary-thumbnail-m.jpg",
      "imageDesktop": "/sites/globe.com.ph/files/content/dam/globe/brie/AboutUs/newsroom/consumer/globe-shop-and-pay-best-retail-innovation/newsroom-consumer-shop-pay-best-innovation-primary-thumbnail-d.jpg",
      "description": "Globe's latest innovation, EasyHub, combines the comfort of brick-and-mortar stores with the power of digital for a more convenient and secure experience.",
      "datePosted": "Nov 04, 2021 | 06:19 PM",
      "titleFromTag": "Consumer"
    },
    {
      "title": "Globe 0917 Lifestyle Launches Its First Ever Sustainability Line with Recycled Pet Bottles",
      "nonclickable": false,
      "openNewTab": false,
      "borderArticle": "border-color:#0074D9;",
      "borderTopArticle": "border-top-color:#0074D9;",
      "imageListing": "/sites/globe.com.ph/files/content/dam/globe/brie/AboutUs/newsroom/917ventures/917ventures-default-01/default-sustainability-3-thumbnail-listing.jpg",
      "articleUrl": "https://www.globe.com.ph/about-us/newsroom/917ventures/0917-lifestyle-first-ever-sustainability-line.html",
      "columnType": "articles--type-3",
      "typeListing": "article",
      "imageMobile": "/sites/globe.com.ph/files/content/dam/globe/brie/AboutUs/newsroom/917ventures/917ventures-default-01/default-sustainability-3-primary-thumbnail-m.jpg",
      "imageDesktop": "/sites/globe.com.ph/files/content/dam/globe/brie/AboutUs/newsroom/917ventures/917ventures-default-01/default-sustainability-3-primary-thumbnail-d.jpg",
      "description": "Globe’s progressive urban brand 0917 Lifestyle joins the battle against single-use plastics by collaborating with Revolve, a Philippine-based social enterprise.",
      "datePosted": "Nov 04, 2021 | 02:55 PM",
      "titleFromTag": "917Ventures"
    },
    {
      "title": "Globe DTP Ambassadorship Program Spreads to 250 NHA Homeowners in VisMin",
      "nonclickable": false,
      "openNewTab": false,
      "borderArticle": "border-color:#0074D9;",
      "borderTopArticle": "border-top-color:#0074D9;",
      "imageListing": "/sites/globe.com.ph/files/content/dam/globe/brie/AboutUs/newsroom/sustainability/dtp-ambassadorship-program-250-nha-homeowners-vismin/newsroom-sustainability-dtp-ambassadorship-program-thumbnail-listing.jpg",
      "articleUrl": "https://www.globe.com.ph/about-us/newsroom/sustainability/dtp-ambassadorship-program-250-nha-homeowners-vismin.html",
      "columnType": "articles--type-3",
      "typeListing": "article",
      "imageMobile": "/sites/globe.com.ph/files/content/dam/globe/brie/AboutUs/newsroom/sustainability/dtp-ambassadorship-program-250-nha-homeowners-vismin/newsroom-sustainability-dtp-ambassadorship-program-primary-thumbnail-m.jpg",
      "imageDesktop": "/sites/globe.com.ph/files/content/dam/globe/brie/AboutUs/newsroom/sustainability/dtp-ambassadorship-program-250-nha-homeowners-vismin/newsroom-sustainability-dtp-ambassadorship-programa-primary-thumbnail-d.jpg",
      "description": "Globe partnered with NHA to help its members adopt and spread the word about responsible digital citizenship and cyberwellness through DTP. ",
      "datePosted": "Nov 03, 2021 | 02:14 PM",
      "titleFromTag": "Sustainability"
    },
    {
      "title": "Globe’s Truth in Action Fights Fake News about COVID-19 Vaccines",
      "nonclickable": false,
      "openNewTab": false,
      "borderArticle": "border-color:#0074D9;",
      "borderTopArticle": "border-top-color:#0074D9;",
      "imageListing": "/sites/globe.com.ph/files/content/dam/globe/brie/AboutUs/newsroom/citizenship/truth-in-action-fake-news-covid-19-vaccines/newsroom-citizenship-fight-fake-news-vaccines-thumbnail-listing.jpg",
      "articleUrl": "https://www.globe.com.ph/about-us/newsroom/citizenship/truth-in-action-fake-news-covid-19-vaccines.html",
      "columnType": "articles--type-3",
      "typeListing": "article",
      "imageMobile": "/sites/globe.com.ph/files/content/dam/globe/brie/AboutUs/newsroom/citizenship/truth-in-action-fake-news-covid-19-vaccines/newsroom-citizenship-fight-fake-news-vaccines-primary-thumbnail-m.jpg",
      "imageDesktop": "/sites/globe.com.ph/files/content/dam/globe/brie/AboutUs/newsroom/citizenship/truth-in-action-fake-news-covid-19-vaccines/newsroom-citizenship-fight-fake-news-vaccines-primary-thumbnail-d.jpg",
      "description": "With its Truth In Action campaign, Globe is supporting the private sector’s INGAT ANGAT Bakuna Lahat program in an effort to educate the public on vaccines.",
      "datePosted": "Nov 03, 2021 | 02:09 PM",
      "titleFromTag": "Citizenship"
    }
  ]
}
