{
  "status": 200,
  "page": 91,
  "totalPage": 298,
  "range": "1081-1092",
  "total": 3573,
  "result": [
    {
      "title": "Online and Offline Well-Being, Key to a More Positive Life",
      "nonclickable": false,
      "openNewTab": false,
      "borderArticle": "border-color:#1C91C5;",
      "borderTopArticle": "border-top-color:#1C91C5;",
      "imageListing": "/sites/globe.com.ph/files/content/dam/globe/brie/AboutUs/newsroom/sustainability/online-offline-well-being-key-more-positive-life/newsroom-sustainability-online-offline-positive-life-thumbnail-listing.jpg",
      "articleUrl": "https://www.globe.com.ph/about-us/newsroom/sustainability/online-offline-well-being-key-more-positive-life.html",
      "columnType": "articles--type-3",
      "typeListing": "article",
      "imageMobile": "/sites/globe.com.ph/files/content/dam/globe/brie/AboutUs/newsroom/sustainability/online-offline-well-being-key-more-positive-life/newsroom-sustainability-online-offline-positive-life-primary-thumbnail-m.jpg",
      "imageDesktop": "/sites/globe.com.ph/files/content/dam/globe/brie/AboutUs/newsroom/sustainability/online-offline-well-being-key-more-positive-life/newsroom-sustainability-online-offline-positive-life-primary-thumbnail-d.jpg",
      "description": "Dr. Jason Ligot, MPH, Promotions and Communications Consultant of WHO, explained the mental and physical health risks of excessive usage of digital platforms.",
      "datePosted": "Nov 03, 2021 | 10:41 AM",
      "titleFromTag": "Sustainability"
    },
    {
      "title": "Telco Solutions Expert Marc Kerveillant to Head Globe’s New FINSI",
      "nonclickable": false,
      "openNewTab": false,
      "borderArticle": "border-color:#1C91C5;",
      "borderTopArticle": "border-top-color:#1C91C5;",
      "imageListing": "/sites/globe.com.ph/files/content/dam/globe/brie/AboutUs/newsroom/corporate/marc-kerveillant-head-globe-new-finsi/newsroom-corporate-telco-expert-finsi-thumbnail-listing.jpg",
      "articleUrl": "https://www.globe.com.ph/about-us/newsroom/corporate/marc-kerveillant-head-globe-new-finsi.html",
      "columnType": "articles--type-3",
      "typeListing": "article",
      "imageMobile": "/sites/globe.com.ph/files/content/dam/globe/brie/AboutUs/newsroom/corporate/marc-kerveillant-head-globe-new-finsi/newsroom-corporate-telco-expert-finsi-primary-thumbnail-m.jpg",
      "imageDesktop": "/sites/globe.com.ph/files/content/dam/globe/brie/AboutUs/newsroom/corporate/marc-kerveillant-head-globe-new-finsi/newsroom-corporate-telco-expert-finsi-primary-thumbnail-d.jpg",
      "description": "Asticom Technology Inc, shared services arm of Globe, has tapped telco solutions expert Marc Kerveillant as general manager of the newly established unit FINSI.",
      "datePosted": "Nov 03, 2021 | 09:32 AM",
      "titleFromTag": "Corporate"
    },
    {
      "title": "4G LTE Upgrades, 5G Expansion Help Drive PH Mobile Data Use - Globe",
      "nonclickable": false,
      "openNewTab": false,
      "borderArticle": "border-color:#0074D9;",
      "borderTopArticle": "border-top-color:#0074D9;",
      "imageListing": "/sites/globe.com.ph/files/content/dam/globe/brie/AboutUs/newsroom/corporate/799-permits-1q-2021-new-towers/default-corporate-9-thumbnail-listing.jpg",
      "articleUrl": "https://www.globe.com.ph/about-us/newsroom/consumer/4g-lte-5g-expansion-ph-mobile-data-use.html",
      "columnType": "articles--type-3",
      "typeListing": "article",
      "imageMobile": "/sites/globe.com.ph/files/content/dam/globe/brie/AboutUs/newsroom/corporate/799-permits-1q-2021-new-towers/default-corporate-9-primary-thumbnail-m.jpg",
      "imageDesktop": "/sites/globe.com.ph/files/content/dam/globe/brie/AboutUs/newsroom/corporate/799-permits-1q-2021-new-towers/default-corporate-9-primary-thumbnail-d.jpg",
      "description": "Upgrades to 4G LTE coupled with efforts to expand 5G in the country are helping drive the adoption of mobile data by giving internet access to more people.  ",
      "datePosted": "Nov 03, 2021 | 08:40 AM",
      "titleFromTag": "Consumer"
    },
    {
      "title": "Globe Business, HR Club Philippines Tackle Digitalization for Effective Human Resource Management",
      "nonclickable": false,
      "openNewTab": false,
      "borderArticle": "border-color:#0074D9;",
      "borderTopArticle": "border-top-color:#0074D9;",
      "imageListing": "/sites/globe.com.ph/files/content/dam/globe/brie/AboutUs/newsroom/business/hr-club-ph-digitalization-effective-human-resource-management/newsroom-business-digitalization-effective-resource-management-thumbnail-listing.jpg",
      "articleUrl": "https://www.globe.com.ph/about-us/newsroom/business/hr-club-ph-digitalization-effective-human-resource-management.html",
      "columnType": "articles--type-3",
      "typeListing": "article",
      "imageMobile": "/sites/globe.com.ph/files/content/dam/globe/brie/AboutUs/newsroom/business/hr-club-ph-digitalization-effective-human-resource-management/newsroom-business-digitalization-effective-resource-management-primary-thumbnail-m.jpg",
      "imageDesktop": "/sites/globe.com.ph/files/content/dam/globe/brie/AboutUs/newsroom/business/hr-club-ph-digitalization-effective-human-resource-management/newsroom-business-digitalization-effective-resource-management-primary-thumbnail-d.jpg",
      "description": "At HR Club Philippines’ ongoing HR Technology Fair, Globe Business underscores the importance of leveraging various digital tools and platforms.",
      "datePosted": "Nov 03, 2021 | 05:04 AM",
      "titleFromTag": "Business"
    },
    {
      "title": "Globe Embarks on Nature-Based Solutions, Digital Platforms in Efforts to Achieve Net Zero",
      "nonclickable": false,
      "openNewTab": false,
      "borderArticle": "border-color:#1C91C5;",
      "borderTopArticle": "border-top-color:#1C91C5;",
      "imageListing": "/sites/globe.com.ph/files/content/dam/globe/brie/AboutUs/newsroom/sustainability/globe-embarks-on-nature-based-solutions/newsroom-sustainability-digital-platforms-net zero-thumbnail-listing.jpg",
      "articleUrl": "https://www.globe.com.ph/about-us/newsroom/sustainability/nature-based-solutions-digital-platforms-net-zero.html",
      "columnType": "articles--type-3",
      "typeListing": "article",
      "imageMobile": "/sites/globe.com.ph/files/content/dam/globe/brie/AboutUs/newsroom/sustainability/globe-embarks-on-nature-based-solutions/newsroom-sustainability-digital-platforms-net zero-primary-thumbnail-m.jpg",
      "imageDesktop": "/sites/globe.com.ph/files/content/dam/globe/brie/AboutUs/newsroom/sustainability/globe-embarks-on-nature-based-solutions/newsroom-sustainability-digital-platforms-net zero-primary-thumbnail-d.jpg",
      "description": "Globe has adopted Nature-based Solutions (NbS) as a commitment to the UN Race to Zero campaign for Net Zero carbon emission and keeping global warming to 1.5°C.",
      "datePosted": "Nov 02, 2021 | 09:40 AM",
      "titleFromTag": "Sustainability"
    },
    {
      "title": "Globe Advises Customers to Protect Their Data to Avoid Being Victimized by Fraudsters",
      "nonclickable": false,
      "openNewTab": false,
      "borderArticle": "border-color:#0074D9;",
      "borderTopArticle": "border-top-color:#0074D9;",
      "imageListing": "/sites/globe.com.ph/files/content/dam/globe/brie/AboutUs/newsroom/common/default-3/corporate-default-7-thumbnail-listing.jpg",
      "articleUrl": "https://www.globe.com.ph/about-us/newsroom/consumer/globe-advise-customer-protect-data.html",
      "columnType": "articles--type-3",
      "typeListing": "article",
      "imageMobile": "/sites/globe.com.ph/files/content/dam/globe/brie/AboutUs/newsroom/common/default-3/corporate-default-7-primary-thumbnail-m.jpg",
      "imageDesktop": "/sites/globe.com.ph/files/content/dam/globe/brie/AboutUs/newsroom/common/default-3/corporate-default-7-primary-thumbnail-d.jpg",
      "description": "Globe issues a warning  on “SIM swap scam” for customers to stay vigilant and raise awareness on how to protect one's data to prevent being victims of fraud.",
      "datePosted": "Nov 01, 2021 | 08:36 AM",
      "titleFromTag": "Consumer"
    },
    {
      "title": "Globe Bullish on Northern and Central Luzon Fiber Broadband Builds",
      "nonclickable": false,
      "openNewTab": false,
      "borderArticle": "border-color:#0074D9;",
      "borderTopArticle": "border-top-color:#0074D9;",
      "imageListing": "/sites/globe.com.ph/files/content/dam/globe/brie/AboutUs/newsroom/consumer/globe-bullish-northern-central-luzon-fiber-broadband-builds/newsroom-consumer-fiber-broadband-builds-thumbnail-listing.jpg",
      "articleUrl": "https://www.globe.com.ph/about-us/newsroom/consumer/globe-bullish-northern-central-luzon-fiber-broadband-builds.html",
      "columnType": "articles--type-3",
      "typeListing": "article",
      "imageMobile": "/sites/globe.com.ph/files/content/dam/globe/brie/AboutUs/newsroom/consumer/globe-bullish-northern-central-luzon-fiber-broadband-builds/newsroom-consumer-fiber-broadband-builds-primary-thumbnail-m.jpg",
      "imageDesktop": "/sites/globe.com.ph/files/content/dam/globe/brie/AboutUs/newsroom/consumer/globe-bullish-northern-central-luzon-fiber-broadband-builds/newsroom-consumer-fiber-broadband-builds-primary-thumbnail-d.jpg",
      "description": "Globe continues to expand its fiber footprint in Northern and Central Luzon, with capacity expected to grow three times by the end of the year. ",
      "datePosted": "Oct 29, 2021 | 02:55 PM",
      "titleFromTag": "Consumer"
    },
    {
      "title": "Globe Celebrates National Teachers Month with GoLearn",
      "nonclickable": false,
      "openNewTab": false,
      "borderArticle": "border-color:#0074D9;",
      "borderTopArticle": "border-top-color:#0074D9;",
      "imageListing": "/sites/globe.com.ph/files/content/dam/globe/brie/AboutUs/newsroom/citizenship/globe-celebrates-national-teachers-month/newsroom-citizenship-national-teachers-month-golearn-thumbnail-listing.jpg",
      "articleUrl": "https://www.globe.com.ph/about-us/newsroom/citizenship/national-teachers-month-golearn.html",
      "columnType": "articles--type-3",
      "typeListing": "article",
      "imageMobile": "/sites/globe.com.ph/files/content/dam/globe/brie/AboutUs/newsroom/citizenship/globe-celebrates-national-teachers-month/newsroom-citizenship-national-teachers-month-golearn-primary-thumbnail-m.jpg",
      "imageDesktop": "/sites/globe.com.ph/files/content/dam/globe/brie/AboutUs/newsroom/citizenship/globe-celebrates-national-teachers-month/newsroom-citizenship-national-teachers-month-golearn-primary-thumbnail-d.jpg",
      "description": "Globe appreciates the work of educators and acknowledges the crucial role they play in developing globally-minded students and molding the nation’s future.",
      "datePosted": "Oct 29, 2021 | 10:38 AM",
      "titleFromTag": "Citizenship"
    },
    {
      "title": "Trick or Film: Spook Your Way around Halloween with Acclaimed Thrillers on UPSTREAM and GMovies",
      "nonclickable": false,
      "openNewTab": false,
      "borderArticle": "border-color:#0074D9;",
      "borderTopArticle": "border-top-color:#0074D9;",
      "imageListing": "/sites/globe.com.ph/files/content/dam/globe/brie/AboutUs/newsroom/consumer/halloween-thrillers-upstream-gmovies/newsroom-consumer-trick-film-upstream-gmovies-thumbnail-listing.jpg",
      "articleUrl": "https://www.globe.com.ph/about-us/newsroom/consumer/halloween-thrillers-upstream-gmovies.html",
      "columnType": "articles--type-3",
      "typeListing": "article",
      "imageMobile": "/sites/globe.com.ph/files/content/dam/globe/brie/AboutUs/newsroom/consumer/halloween-thrillers-upstream-gmovies/newsroom-consumer-trick-film-upstream-gmovies-primary-thumbnail-m.jpg",
      "imageDesktop": "/sites/globe.com.ph/files/content/dam/globe/brie/AboutUs/newsroom/consumer/halloween-thrillers-upstream-gmovies/newsroom-consumer-trick-film-upstream-gmovies-primary-thumbnail-d.jpg",
      "description": "Grab yourself something to hold on to because here’s our list of thrillers which includes the 2018 blockbuster Hereditary & the 2019 reboot of the Child’s Play.",
      "datePosted": "Oct 29, 2021 | 10:19 AM",
      "titleFromTag": "Consumer"
    },
    {
      "title": "Globe Completes Sites Upgrades, Expands 5G Coverage in Bacolod, Boracay, CDO, and Iloilo City",
      "nonclickable": false,
      "openNewTab": false,
      "borderArticle": "border-color:#1C91C5;",
      "borderTopArticle": "border-top-color:#1C91C5;",
      "imageListing": "/sites/globe.com.ph/files/content/dam/globe/brie/AboutUs/newsroom/corporate/globe-completes-sites-upgrades/corporate-default-6-thumbnail-listing.jpg",
      "articleUrl": "https://www.globe.com.ph/about-us/newsroom/corporate/sites-upgrades-5g-coverage-bacolod-boracay-cdo-iloilo.html",
      "columnType": "articles--type-3",
      "typeListing": "article",
      "imageMobile": "/sites/globe.com.ph/files/content/dam/globe/brie/AboutUs/newsroom/corporate/globe-completes-sites-upgrades/corporate-default-6-primary-thumbnail-m.jpg",
      "imageDesktop": "/sites/globe.com.ph/files/content/dam/globe/brie/AboutUs/newsroom/corporate/globe-completes-sites-upgrades/corporate-default-6-primary-thumbnail-d.jpg",
      "description": "Globe completed the site upgrades of its 3G legacy network to 4G LTE in Bacolod City, Boracay, Iloilo City, and Cagayan de Oro as of September 2021.",
      "datePosted": "Oct 29, 2021 | 09:31 AM",
      "titleFromTag": "Corporate"
    },
    {
      "title": "Virtual Learning Made Easier with Globe and ClassIn",
      "nonclickable": false,
      "openNewTab": false,
      "borderArticle": "border-color:#0074D9;",
      "borderTopArticle": "border-top-color:#0074D9;",
      "imageListing": "/sites/globe.com.ph/files/content/dam/globe/brie/AboutUs/newsroom/business/virtual-learning-made-easier-globe-classin/newsroom-business-virtual-learning-classin-thumbnail-listing.jpg",
      "articleUrl": "https://www.globe.com.ph/about-us/newsroom/business/virtual-learning-made-easier-globe-classin.html",
      "columnType": "articles--type-3",
      "typeListing": "article",
      "imageMobile": "/sites/globe.com.ph/files/content/dam/globe/brie/AboutUs/newsroom/business/virtual-learning-made-easier-globe-classin/newsroom-business-virtual-learning-classin-primary-thumbnail-m.jpg",
      "imageDesktop": "/sites/globe.com.ph/files/content/dam/globe/brie/AboutUs/newsroom/business/virtual-learning-made-easier-globe-classin/newsroom-business-virtual-learning-classin-primary-thumbnail-d.jpg",
      "description": "ClassIn, a one-stop learning solution for online classes, provides practical and convenient platforms, benefiting both educators and students.",
      "datePosted": "Oct 28, 2021 | 04:10 PM",
      "titleFromTag": "Business"
    },
    {
      "title": "Zamboanga del Norte Cooperative Revamps Payroll System with Globe Business’ Cloud Payroll",
      "nonclickable": false,
      "openNewTab": false,
      "borderArticle": "border-color:#0074D9;",
      "borderTopArticle": "border-top-color:#0074D9;",
      "imageListing": "/sites/globe.com.ph/files/content/dam/globe/brie/AboutUs/newsroom/business/zamboanga-del-norte-cooperative-globe-business-cloud-payroll/newsroom-business-zamboanga-revamp-payroll-thumbnail-listing.jpg",
      "articleUrl": "https://www.globe.com.ph/about-us/newsroom/business/zamboanga-del-norte-cooperative-globe-business-cloud-payroll.html",
      "columnType": "articles--type-3",
      "typeListing": "article",
      "imageMobile": "/sites/globe.com.ph/files/content/dam/globe/brie/AboutUs/newsroom/business/zamboanga-del-norte-cooperative-globe-business-cloud-payroll/newsroom-business-zamboanga-revamp-payroll-primary-thumbnail-m.jpg",
      "imageDesktop": "/sites/globe.com.ph/files/content/dam/globe/brie/AboutUs/newsroom/business/zamboanga-del-norte-cooperative-globe-business-cloud-payroll/newsroom-business-zamboanga-revamp-payroll-primary-thumbnail-d.jpg",
      "description": "Zamboanga del Norte Cooperative (Zaneco), an electric distribution company, found the perfect payroll system partner in Globe Business’ Cloud Payroll.",
      "datePosted": "Oct 28, 2021 | 01:39 PM",
      "titleFromTag": "Business"
    }
  ]
}
