{
  "status": 200,
  "page": 93,
  "totalPage": 298,
  "range": "1105-1116",
  "total": 3573,
  "result": [
    {
      "title": "Globe Joins “Light up Blue for Mental Health”",
      "nonclickable": false,
      "openNewTab": false,
      "borderArticle": "border-color:#0074D9;",
      "borderTopArticle": "border-top-color:#0074D9;",
      "imageListing": "/sites/globe.com.ph/files/content/dam/globe/brie/AboutUs/newsroom/corporate/largest-ph-publicly-listed-telco-digital-solutions-group/Corporate-globe-thumbnail-listing.jpg",
      "articleUrl": "https://www.globe.com.ph/about-us/newsroom/citizenship/globe-joins-light-up-blue-mental-health.html",
      "columnType": "articles--type-3",
      "typeListing": "article",
      "imageMobile": "/sites/globe.com.ph/files/content/dam/globe/brie/AboutUs/newsroom/corporate/largest-ph-publicly-listed-telco-digital-solutions-group/Corporate-globe-primary-thumbnail-m.jpg",
      "imageDesktop": "/sites/globe.com.ph/files/content/dam/globe/brie/AboutUs/newsroom/corporate/largest-ph-publicly-listed-telco-digital-solutions-group/Corporate-globe-primary-thumbnail-d.jpg",
      "description": "Globe took part in the 2021 National Mental Health Week celebration by lighting up its headquarters’ blue lobby glass sculpture last October 8.",
      "datePosted": "Oct 25, 2021 | 09:41 AM",
      "titleFromTag": "Citizenship"
    },
    {
      "title": "Globe, Curvalux Bag WBA Award for Bridging Connectivity Gap in Hard-To-Reach Areas",
      "nonclickable": false,
      "openNewTab": false,
      "borderArticle": "border-color:#0074D9;",
      "borderTopArticle": "border-top-color:#0074D9;",
      "imageListing": "/sites/globe.com.ph/files/content/dam/globe/brie/AboutUs/newsroom/corporate/globe-curvalux-wba-award-bridging-connectivity-gap/newsroom-partners-curvalux-bag-wba-award-thumbnail-listing.jpg",
      "articleUrl": "https://www.globe.com.ph/about-us/newsroom/partners/globe-curvalux-wba-award-bridging-connectivity-gap.html",
      "columnType": "articles--type-3",
      "typeListing": "article",
      "imageMobile": "/sites/globe.com.ph/files/content/dam/globe/brie/AboutUs/newsroom/corporate/globe-curvalux-wba-award-bridging-connectivity-gap/newsroom-partners-curvalux-bag-wba-award-primary-thumbnail-m.jpg",
      "imageDesktop": "/sites/globe.com.ph/files/content/dam/globe/brie/AboutUs/newsroom/corporate/globe-curvalux-wba-award-bridging-connectivity-gap/newsroom-partners-curvalux-bag-wba-award-primary-thumbnail-d.jpg",
      "description": "Globe and Curvalux won the Wireless Broadband Alliance (WBA) Best Wi-Fi for Social Impact award for bringing internet connectivity in hard-to-reach areas.",
      "datePosted": "Oct 25, 2021 | 09:41 AM",
      "titleFromTag": "Partners"
    },
    {
      "title": "\"TULOY TAYO, CO-OPS!\" Continuing the Mission Towards Financial Inclusivity  Through Globe Business",
      "nonclickable": false,
      "openNewTab": false,
      "borderArticle": "border-color:#0074D9;",
      "borderTopArticle": "border-top-color:#0074D9;",
      "imageListing": "/sites/globe.com.ph/files/content/dam/globe/brie/AboutUs/newsroom/business/continuing-mission-financial-inclusivity-globe-business/newsroom-business-tuloy-tayo-co-ops-thumbnail-listing.jpg",
      "articleUrl": "https://www.globe.com.ph/about-us/newsroom/business/continuing-mission-financial-inclusivity-globe-business.html",
      "columnType": "articles--type-3",
      "typeListing": "article",
      "imageMobile": "/sites/globe.com.ph/files/content/dam/globe/brie/AboutUs/newsroom/business/continuing-mission-financial-inclusivity-globe-business/newsroom-business-tuloy-tayo-co-ops-primary-thumbnail-m.jpg",
      "imageDesktop": "/sites/globe.com.ph/files/content/dam/globe/brie/AboutUs/newsroom/business/continuing-mission-financial-inclusivity-globe-business/newsroom-business-tuloy-tayo-co-ops-primary-thumbnail-d.jpg",
      "description": "Globe Business aims to help over 18,000 cooperatives around the country whom 11.6 million Filipinos depend on for financial support.",
      "datePosted": "Oct 22, 2021 | 02:47 PM",
      "titleFromTag": "Business"
    },
    {
      "title": "Globe Business: Changes in Cyber Threat Exposure Alter the Way Companies Protect Their Business",
      "nonclickable": false,
      "openNewTab": false,
      "borderArticle": "border-color:#0074D9;",
      "borderTopArticle": "border-top-color:#0074D9;",
      "imageListing": "/sites/globe.com.ph/files/content/dam/globe/brie/AboutUs/newsroom/business/cyber-threat-exposure-companies-protect-business/newsroom-business-cyber-threat-thumbnail-listing.jpg",
      "articleUrl": "https://www.globe.com.ph/about-us/newsroom/business/cyber-threat-exposure-companies-protect-business.html",
      "columnType": "articles--type-3",
      "typeListing": "article",
      "imageMobile": "/sites/globe.com.ph/files/content/dam/globe/brie/AboutUs/newsroom/business/cyber-threat-exposure-companies-protect-business/newsroom-business-cyber-threat-primary-thumbnail-m.jpg",
      "imageDesktop": "/sites/globe.com.ph/files/content/dam/globe/brie/AboutUs/newsroom/business/cyber-threat-exposure-companies-protect-business/newsroom-business-cyber-threat-primary-thumbnail-d.jpg",
      "description": "Globe Business assists companies in developing an action plan to keep their infrastructure safe in the event of a potential cybersecurity violation.",
      "datePosted": "Oct 22, 2021 | 01:48 PM",
      "titleFromTag": "Business"
    },
    {
      "title": "Globe’s Asticom Group Launches New Engineering Services Firm to Help Telcos Accelerate Fiber Rollout",
      "nonclickable": false,
      "openNewTab": false,
      "borderArticle": "border-color:#0074D9;",
      "borderTopArticle": "border-top-color:#0074D9;",
      "imageListing": "/sites/globe.com.ph/files/content/dam/globe/brie/AboutUs/newsroom/partners/smart-achievers-academy-subic-globe/newsroom-partners-smart-achievers-academy-thumbnail-listing.jpg",
      "articleUrl": "https://www.globe.com.ph/about-us/newsroom/partners/asticom-group-new-engineering-services-firm.html",
      "columnType": "articles--type-3",
      "typeListing": "article",
      "imageMobile": "/sites/globe.com.ph/files/content/dam/globe/brie/AboutUs/newsroom/partners/smart-achievers-academy-subic-globe/newsroom-partners-smart-achievers-academy-primary-thumbnail-m.jpg",
      "imageDesktop": "/sites/globe.com.ph/files/content/dam/globe/brie/AboutUs/newsroom/partners/smart-achievers-academy-subic-globe/newsroom-partners-smart-achievers-academy-primary-thumbnail-d.jpg",
      "description": "Asticom Technology Inc. has launched a second subsidiary that aims to help telecommunications providers accelerate their fiber rollouts nationwide.",
      "datePosted": "Oct 21, 2021 | 11:29 AM",
      "titleFromTag": "Partners"
    },
    {
      "title": "Globe Scores a Double Win at the 2021 International Business Awards",
      "nonclickable": false,
      "openNewTab": false,
      "borderArticle": "border-color:#0074D9;",
      "borderTopArticle": "border-top-color:#0074D9;",
      "imageListing": "/sites/globe.com.ph/files/content/dam/globe/brie/AboutUs/newsroom/business/business-real-estate/default-business-5-thumbnail-listing.jpg",
      "articleUrl": "https://www.globe.com.ph/about-us/newsroom/business/double-win-2021-international-business-awards.html",
      "columnType": "articles--type-3",
      "typeListing": "article",
      "imageMobile": "/sites/globe.com.ph/files/content/dam/globe/brie/AboutUs/newsroom/business/business-real-estate/default-business-5-primary-thumbnail-m.jpg",
      "imageDesktop": "/sites/globe.com.ph/files/content/dam/globe/brie/AboutUs/newsroom/business/business-real-estate/default-business-5-primary-banner-d.jpg",
      "description": "Globe Business won accolades at the 18th Annual International Business Awards, taking home two Stevie Awards for its  innovative campaigns for businesses.",
      "datePosted": "Oct 21, 2021 | 09:24 AM",
      "titleFromTag": "Business"
    },
    {
      "title": "Globe Hosts Telco 101—Estate and Commercial Run for Property Developers on October 20",
      "nonclickable": false,
      "openNewTab": false,
      "borderArticle": "border-color:#0074D9;",
      "borderTopArticle": "border-top-color:#0074D9;",
      "imageListing": "/sites/globe.com.ph/files/content/dam/globe/brie/AboutUs/newsroom/corporate/globe-hosts-telco101/newsroom-corporate-globe-hosts-telco101-thumbnail-listing.jpg",
      "articleUrl": "https://www.globe.com.ph/about-us/newsroom/corporate/telco-101-estate-commercial-run-property-developers.html",
      "columnType": "articles--type-3",
      "typeListing": "article",
      "imageMobile": "/sites/globe.com.ph/files/content/dam/globe/brie/AboutUs/newsroom/corporate/globe-hosts-telco101/newsroom-corporate-globe-hosts-telco101-primary-thumbnail-m.jpg",
      "imageDesktop": "/sites/globe.com.ph/files/content/dam/globe/brie/AboutUs/newsroom/corporate/globe-hosts-telco101/newsroom-corporate-globe-hosts-telco101-primary-thumbnail-d.jpg",
      "description": "To help build intelligent communities, Globe will be hosting its third & final Telco 101 webinar this year entitled “Owning the Digital Tomorrow of the Estates.",
      "datePosted": "Oct 20, 2021 | 12:55 PM",
      "titleFromTag": "Corporate"
    },
    {
      "title": "Globe Business Leverages ICT Services Expertise to Drive Enterprise Digitalization",
      "nonclickable": false,
      "openNewTab": false,
      "borderArticle": "border-color:#0074D9;",
      "borderTopArticle": "border-top-color:#0074D9;",
      "imageListing": "/sites/globe.com.ph/files/content/dam/globe/brie/AboutUs/newsroom/business/ict-services-expertise-enterprise-digitalization/newsroom-business-ict-drive-digitization-thumbnail-listing.jpg",
      "articleUrl": "https://www.globe.com.ph/about-us/newsroom/business/ict-services-expertise-enterprise-digitalization.html",
      "columnType": "articles--type-3",
      "typeListing": "article",
      "imageMobile": "/sites/globe.com.ph/files/content/dam/globe/brie/AboutUs/newsroom/business/ict-services-expertise-enterprise-digitalization/newsroom-business-ict-drive-digitization-primary-thumbnail-m.jpg",
      "imageDesktop": "/sites/globe.com.ph/files/content/dam/globe/brie/AboutUs/newsroom/business/ict-services-expertise-enterprise-digitalization/newsroom-business-ict-drive-digitization-primary-thumbnail-d.jpg",
      "description": "Globe Business offers a complete suite of services in four important ICT areas—cybersecurity, data analytics, cloud, and the internet of things (IoT). ",
      "datePosted": "Oct 20, 2021 | 12:20 PM",
      "titleFromTag": "Business"
    },
    {
      "title": "Digital Marketplace Alaga Health Wins Big in Globe 5G Hackathon",
      "nonclickable": false,
      "openNewTab": false,
      "borderArticle": "border-color:#0074D9;",
      "borderTopArticle": "border-top-color:#0074D9;",
      "imageListing": "/sites/globe.com.ph/files/content/dam/globe/brie/AboutUs/newsroom/consumer/alaga-health-wins-big-globe-5g-hackathon/newsroom-consumer-alaga-health-wins-hackathon-thumbnail-listing.jpg",
      "articleUrl": "https://www.globe.com.ph/about-us/newsroom/consumer/alaga-health-wins-big-globe-5g-hackathon.html",
      "columnType": "articles--type-3",
      "typeListing": "article",
      "imageMobile": "/sites/globe.com.ph/files/content/dam/globe/brie/AboutUs/newsroom/consumer/alaga-health-wins-big-globe-5g-hackathon/newsroom-consumer-alaga-health-wins-hackathon-primary-thumbnail-m.jpg",
      "imageDesktop": "/sites/globe.com.ph/files/content/dam/globe/brie/AboutUs/newsroom/consumer/alaga-health-wins-big-globe-5g-hackathon/newsroom-consumer-alaga-health-wins-hackathon-primary-thumbnail-d.jpg",
      "description": "Alaga Health, the winner of the first-ever Globe 5G Hackathon, has developed the first digital health marketplace and health service hub.",
      "datePosted": "Oct 20, 2021 | 10:54 AM",
      "titleFromTag": "Consumer"
    },
    {
      "title": "Smart Achievers Academy - Subic Links up with Globe to Empower Students in Virtual Learning Set-up",
      "nonclickable": false,
      "openNewTab": false,
      "borderArticle": "border-color:#0074D9;",
      "borderTopArticle": "border-top-color:#0074D9;",
      "imageListing": "/sites/globe.com.ph/files/content/dam/globe/brie/AboutUs/newsroom/partners/smart-achievers-academy-subic-globe/newsroom-partners-smart-achievers-academy-thumbnail-listing.jpg",
      "articleUrl": "https://www.globe.com.ph/about-us/newsroom/partners/smart-achievers-academy-subic-globe.html",
      "columnType": "articles--type-3",
      "typeListing": "article",
      "imageMobile": "/sites/globe.com.ph/files/content/dam/globe/brie/AboutUs/newsroom/partners/smart-achievers-academy-subic-globe/newsroom-partners-smart-achievers-academy-primary-thumbnail-m.jpg",
      "imageDesktop": "/sites/globe.com.ph/files/content/dam/globe/brie/AboutUs/newsroom/partners/smart-achievers-academy-subic-globe/newsroom-partners-smart-achievers-academy-primary-thumbnail-d.jpg",
      "description": "Private school Smart Achievers Academy - Subic partnered with Globe to tap into the D2L Brightspace Learning Platform for student-centered learning experience.",
      "datePosted": "Oct 19, 2021 | 12:09 PM",
      "titleFromTag": "Partners"
    },
    {
      "title": "Achieving Success with Zoom: The Philippine Computer Society Partners with Globe Business for Tech Solutions",
      "nonclickable": false,
      "openNewTab": false,
      "borderArticle": "border-color:#0074D9;",
      "borderTopArticle": "border-top-color:#0074D9;",
      "imageListing": "/sites/globe.com.ph/files/content/dam/globe/brie/AboutUs/newsroom/business/philippine-computer-society-globe-business-tech-solutions/newsroom-business-achieving-success-zoom-thumbnail-listing.jpg",
      "articleUrl": "https://www.globe.com.ph/about-us/newsroom/business/philippine-computer-society-globe-business-tech-solutions.html",
      "columnType": "articles--type-3",
      "typeListing": "article",
      "imageMobile": "/sites/globe.com.ph/files/content/dam/globe/brie/AboutUs/newsroom/business/philippine-computer-society-globe-business-tech-solutions/newsroom-business-achieving-success-zoom-primary-thumbnail-m.jpg",
      "imageDesktop": "/sites/globe.com.ph/files/content/dam/globe/brie/AboutUs/newsroom/business/philippine-computer-society-globe-business-tech-solutions/newsroom-business-achieving-success-zoom-primary-thumbnail-d.jpg",
      "description": "Partnering with Globe Business in 2020, PCS has been able to benefit from utilizing Zoom as a means to communicate with its members anytime anywhere online. ",
      "datePosted": "Oct 19, 2021 | 11:57 AM",
      "titleFromTag": "Business"
    },
    {
      "title": "Mynt Is Lone PH Startup in SEAsia Thirty-Five Unicorns List",
      "nonclickable": false,
      "openNewTab": false,
      "borderArticle": "border-color:#0074D9;",
      "borderTopArticle": "border-top-color:#0074D9;",
      "imageListing": "/sites/globe.com.ph/files/content/dam/globe/brie/AboutUs/newsroom/partners/mynt-is-lone-ph-startup-in-seasia-thirty-five-unicorns-list/newsroom-partners-mynt-lone-startup-thumbnail-listing.jpg",
      "articleUrl": "https://www.globe.com.ph/about-us/newsroom/partners/mynt-lone-ph-startup-seasia-thirty-five-unicorns-list.html",
      "columnType": "articles--type-3",
      "typeListing": "article",
      "imageMobile": "/sites/globe.com.ph/files/content/dam/globe/brie/AboutUs/newsroom/partners/mynt-is-lone-ph-startup-in-seasia-thirty-five-unicorns-list/newsroom-partners-mynt-lone-startup-primary-thumbnail-m.jpg",
      "imageDesktop": "/sites/globe.com.ph/files/content/dam/globe/brie/AboutUs/newsroom/partners/mynt-is-lone-ph-startup-in-seasia-thirty-five-unicorns-list/newsroom-partners-mynt-lone-startup-primary-thumbnail-d.jpg",
      "description": "Mynt—the holding company of Globe’s fintech arm managing GCash—is the lone Philippine startup that made it to Credit Suisse’s Southeast Asia 35 Unicorns list. ",
      "datePosted": "Oct 19, 2021 | 09:58 AM",
      "titleFromTag": "Partners"
    }
  ]
}
