{
  "status": 200,
  "page": 94,
  "totalPage": 298,
  "range": "1117-1128",
  "total": 3573,
  "result": [
    {
      "title": "Globe At Home Tops Netflix ISP Speed Index in September; Eighth Time in 2021",
      "nonclickable": false,
      "openNewTab": false,
      "borderArticle": "border-color:#0074D9;",
      "borderTopArticle": "border-top-color:#0074D9;",
      "imageListing": "/sites/globe.com.ph/files/content/dam/globe/brie/AboutUs/newsroom/consumer/globe-at-home-tops-netflix-isp-speed-index/default-corporate-5-thumbnail-listing.jpg",
      "articleUrl": "https://www.globe.com.ph/about-us/newsroom/corporate/globe-at-home-tops-netflix-isp-speed-eighth-time.html",
      "columnType": "articles--type-3",
      "typeListing": "article",
      "imageMobile": "/sites/globe.com.ph/files/content/dam/globe/brie/AboutUs/newsroom/consumer/globe-at-home-tops-netflix-isp-speed-index/default-corporate-5-primary-thumbnail-m.jpg",
      "imageDesktop": "/sites/globe.com.ph/files/content/dam/globe/brie/AboutUs/newsroom/consumer/globe-at-home-tops-netflix-isp-speed-index/default-corporate-5-primary-thumbnail-d.jpg",
      "description": "Globe again topped the Netflix ISP Speed Index, leading the Philippine Internet Service Providers (ISPs) performance rating of the popular streaming service.",
      "datePosted": "Oct 19, 2021 | 09:58 AM",
      "titleFromTag": "Corporate"
    },
    {
      "title": "Hearing It from Social: Online Personalities Share Why Now Is the #BestTimeWithGlobe",
      "nonclickable": false,
      "openNewTab": false,
      "borderArticle": "border-color:#0074D9;",
      "borderTopArticle": "border-top-color:#0074D9;",
      "imageListing": "/sites/globe.com.ph/files/content/dam/globe/brie/AboutUs/newsroom/corporate/online-personalities-best-timewith-globe/newsroom-consumer-best-time-globe-thumbnail-listing.jpg",
      "articleUrl": "https://www.globe.com.ph/about-us/newsroom/corporate/online-personalities-best-time-with-globe.html",
      "columnType": "articles--type-3",
      "typeListing": "article",
      "imageMobile": "/sites/globe.com.ph/files/content/dam/globe/brie/AboutUs/newsroom/corporate/online-personalities-best-timewith-globe/newsroom-consumer-best-time-globe-primary-thumbnail-m.jpg",
      "imageDesktop": "/sites/globe.com.ph/files/content/dam/globe/brie/AboutUs/newsroom/corporate/online-personalities-best-timewith-globe/newsroom-consumer-best-time-globe-primary-thumbnail-d.jpg",
      "description": "Social media sensations shared how Globe has helped them throughout the years and why now is the #BestTimeWithGlobe.",
      "datePosted": "Oct 18, 2021 | 03:24 PM",
      "titleFromTag": "Corporate"
    },
    {
      "title": "Hearing It from Social: Online Personalities Share Why Now Is the #BestTimeWithGlobe",
      "nonclickable": false,
      "openNewTab": false,
      "borderArticle": "border-color:#0074D9;",
      "borderTopArticle": "border-top-color:#0074D9;",
      "imageListing": "/sites/globe.com.ph/files/content/dam/globe/brie/AboutUs/newsroom/corporate/online-personalities-best-timewith-globe/newsroom-consumer-best-time-globe-thumbnail-listing.jpg",
      "articleUrl": "https://www.globe.com.ph/about-us/newsroom/corporate/online-personalities-best-timewith-globe.html",
      "columnType": "articles--type-3",
      "typeListing": "article",
      "imageMobile": "/sites/globe.com.ph/files/content/dam/globe/brie/AboutUs/newsroom/corporate/online-personalities-best-timewith-globe/newsroom-consumer-best-time-globe-primary-thumbnail-m.jpg",
      "imageDesktop": "/sites/globe.com.ph/files/content/dam/globe/brie/AboutUs/newsroom/corporate/online-personalities-best-timewith-globe/newsroom-consumer-best-time-globe-primary-thumbnail-d.jpg",
      "description": "Social media sensations shared how Globe has helped them throughout the years and why now is the #BestTimeWithGlobe.",
      "datePosted": "Oct 18, 2021 | 03:24 PM",
      "titleFromTag": "Corporate"
    },
    {
      "title": "Globe’s 917 Celebrations Raise over ₱13.4 Million Worth of Donations through Globe Rewards",
      "nonclickable": false,
      "openNewTab": false,
      "borderArticle": "border-color:#0074D9;",
      "borderTopArticle": "border-top-color:#0074D9;",
      "imageListing": "/sites/globe.com.ph/files/content/dam/globe/brie/AboutUs/newsroom/citizenship/917-celebrations-over-million-worth-donations-globe-rewards/newsroom-citizenship-donation-globe-rewards-thumbnail-listing.jpg",
      "articleUrl": "https://www.globe.com.ph/about-us/newsroom/citizenship/917-celebrations-over-million-worth-donations-globe-rewards.html",
      "columnType": "articles--type-3",
      "typeListing": "article",
      "imageMobile": "/sites/globe.com.ph/files/content/dam/globe/brie/AboutUs/newsroom/citizenship/917-celebrations-over-million-worth-donations-globe-rewards/newsroom-citizenship-donation-globe-rewards-primary-thumbnail-m.jpg",
      "imageDesktop": "/sites/globe.com.ph/files/content/dam/globe/brie/AboutUs/newsroom/citizenship/917-celebrations-over-million-worth-donations-globe-rewards/newsroom-citizenship-donation-globe-rewards-primary-thumbnail-d.jpg",
      "description": "Globe, together with its subscribers, raised more than ₱13.4 million worth of donations from the #GDayEveryday celebrations last September.",
      "datePosted": "Oct 18, 2021 | 10:38 AM",
      "titleFromTag": "Citizenship"
    },
    {
      "title": "Globe Sends Four Start-ups to Singtel Group Future Makers 2021 Regional Programme",
      "nonclickable": false,
      "openNewTab": false,
      "borderArticle": "border-color:#0074D9;",
      "borderTopArticle": "border-top-color:#0074D9;",
      "imageListing": "/sites/globe.com.ph/files/content/dam/globe/brie/AboutUs/newsroom/corporate/start-ups-singtel-group-future-makers-2021-regional-programme/newsroom-consumer-singtel-group-future-thumbnail-listing.jpg",
      "articleUrl": "https://www.globe.com.ph/about-us/newsroom/corporate/start-ups-singtel-group-future-makers-2021-regional-programme.html",
      "columnType": "articles--type-3",
      "typeListing": "article",
      "imageMobile": "/sites/globe.com.ph/files/content/dam/globe/brie/AboutUs/newsroom/corporate/start-ups-singtel-group-future-makers-2021-regional-programme/newsroom-consumer-singtel-group-future-primary-thumbnail-m.jpg",
      "imageDesktop": "/sites/globe.com.ph/files/content/dam/globe/brie/AboutUs/newsroom/corporate/start-ups-singtel-group-future-makers-2021-regional-programme/newsroom-consumer-singtel-group-future-primary-thumbnail-d.jpg",
      "description": "Four Philippine start-ups will join the 2021 Singtel Group Future Makers Regional Programme this month.",
      "datePosted": "Oct 18, 2021 | 10:28 AM",
      "titleFromTag": "Corporate"
    },
    {
      "title": "University of St. La Salle Gets Tech Upgrade with Globe’s School Management System",
      "nonclickable": false,
      "openNewTab": false,
      "borderArticle": "border-color:#0074D9;",
      "borderTopArticle": "border-top-color:#0074D9;",
      "imageListing": "/sites/globe.com.ph/files/content/dam/globe/brie/AboutUs/newsroom/business/university-saint-la-salle-tech-upgrade-school-management-system/newsroom-business-la-salle-upgrade-thumbnail-listing.jpg",
      "articleUrl": "https://www.globe.com.ph/about-us/newsroom/business/university-saint-la-salle-tech-upgrade-school-management-system.html",
      "columnType": "articles--type-3",
      "typeListing": "article",
      "imageMobile": "/sites/globe.com.ph/files/content/dam/globe/brie/AboutUs/newsroom/business/university-saint-la-salle-tech-upgrade-school-management-system/newsroom-business-la-salle-upgrade-primary-thumbnail-m.jpg",
      "imageDesktop": "/sites/globe.com.ph/files/content/dam/globe/brie/AboutUs/newsroom/business/university-saint-la-salle-tech-upgrade-school-management-system/newsroom-business-la-salle-upgrade-primary-thumbnail-d.jpg",
      "description": "The University of St. La Salle invests in Globe’s School Management System for seamless operations through automating and centralizing data and processes.",
      "datePosted": "Oct 18, 2021 | 09:33 AM",
      "titleFromTag": "Business"
    },
    {
      "title": "Globe Business and MCPI: Empowering Microfinance Institutions through Digitalization",
      "nonclickable": false,
      "openNewTab": false,
      "borderArticle": "border-color:#0074D9;",
      "borderTopArticle": "border-top-color:#0074D9;",
      "imageListing": "/sites/globe.com.ph/files/content/dam/globe/brie/AboutUs/newsroom/business/globe-business-mcpi-empowering-microfinance-institutions-digitalization/newsroom-business-globe-mcpi-thumbnail-listing.jpg",
      "articleUrl": "https://www.globe.com.ph/about-us/newsroom/business/globe-business-mcpi-empowering-microfinance-institutions-digitalization.html",
      "columnType": "articles--type-3",
      "typeListing": "article",
      "imageMobile": "/sites/globe.com.ph/files/content/dam/globe/brie/AboutUs/newsroom/business/globe-business-mcpi-empowering-microfinance-institutions-digitalization/newsroom-business-globe-mcpi-primary-thumbnail-m.jpg",
      "imageDesktop": "/sites/globe.com.ph/files/content/dam/globe/brie/AboutUs/newsroom/business/globe-business-mcpi-empowering-microfinance-institutions-digitalization/newsroom-business-globe-mcpi-primary-thumbnail-d.jpg",
      "description": "Globe Business is stepping up to make microfinance more accessible, through a partnership with the Microfinance Council of the Philippines (MCPI).",
      "datePosted": "Oct 15, 2021 | 06:36 PM",
      "titleFromTag": "Business"
    },
    {
      "title": "Globe’s Internet Speed Zooms More than 50 Percent In One Year amid Massive Network Investments",
      "nonclickable": false,
      "openNewTab": false,
      "borderArticle": "border-color:#0074D9;",
      "borderTopArticle": "border-top-color:#0074D9;",
      "imageListing": "/sites/globe.com.ph/files/content/dam/globe/brie/AboutUs/newsroom/corporate/internet-speed-zooms-more-than-50-percent/default-corporate-4-thumbnail-listing.jpg",
      "articleUrl": "https://www.globe.com.ph/about-us/newsroom/corporate/internet-speed-zooms-more-than-50-percent.html",
      "columnType": "articles--type-3",
      "typeListing": "article",
      "imageMobile": "/sites/globe.com.ph/files/content/dam/globe/brie/AboutUs/newsroom/corporate/internet-speed-zooms-more-than-50-percent/default-corporate-4-primary-thumbnail-m.jpg",
      "imageDesktop": "/sites/globe.com.ph/files/content/dam/globe/brie/AboutUs/newsroom/corporate/internet-speed-zooms-more-than-50-percent/default-corporate-4-primary-thumbnail-d.jpg",
      "description": "Globe’s steady investments in network upgrade and infrastructure development continue to bear fruit as it consistently delivers faster internet speed.",
      "datePosted": "Oct 15, 2021 | 02:42 PM",
      "titleFromTag": "Corporate"
    },
    {
      "title": "Globe, Makati YMCA: Brighter Future for Public High School Students",
      "nonclickable": false,
      "openNewTab": false,
      "borderArticle": "border-color:#0074D9;",
      "borderTopArticle": "border-top-color:#0074D9;",
      "imageListing": "/sites/globe.com.ph/files/content/dam/globe/brie/AboutUs/newsroom/citizenship/YMCA/v2/newsroom-citizenship-brighter-future-public-students-thumbnail-listing.jpg",
      "articleUrl": "https://www.globe.com.ph/about-us/newsroom/citizenship/globe-makati-ymca-brighter-future-public-high-school-students.html",
      "columnType": "articles--type-3",
      "typeListing": "article",
      "imageMobile": "/sites/globe.com.ph/files/content/dam/globe/brie/AboutUs/newsroom/citizenship/YMCA/v2/newsroom-citizenship-brighter-future-public-students-primary-thumbnail-m.jpg",
      "imageDesktop": "/sites/globe.com.ph/files/content/dam/globe/brie/AboutUs/newsroom/citizenship/YMCA/v2/newsroom-citizenship-brighter-future-public-students-primary-thumbnail-d.jpg",
      "description": "Globe Telecom has lent the Young Men’s Christian Association of Makati a helping hand to lower-income households in Makati City who still need quality learning.",
      "datePosted": "Oct 14, 2021 | 05:47 PM",
      "titleFromTag": "Citizenship"
    },
    {
      "title": "Globe Business and PSIA: Seizing Success for MSMEs Through Digital Transformation",
      "nonclickable": false,
      "openNewTab": false,
      "borderArticle": "border-color:#0074D9;",
      "borderTopArticle": "border-top-color:#0074D9;",
      "imageListing": "/sites/globe.com.ph/files/content/dam/globe/brie/AboutUs/newsroom/business/globe-business-psia-seizing-success-msmes-digital-transformation/newsroom-business-globe-psia-thumbnail-listing.jpg",
      "articleUrl": "https://www.globe.com.ph/about-us/newsroom/business/globe-business-psia-seizing-success-msmes-digital-transformation.html",
      "columnType": "articles--type-3",
      "typeListing": "article",
      "imageMobile": "/sites/globe.com.ph/files/content/dam/globe/brie/AboutUs/newsroom/business/globe-business-psia-seizing-success-msmes-digital-transformation/newsroom-business-globe-psia-primary-thumbnail-m.jpg",
      "imageDesktop": "/sites/globe.com.ph/files/content/dam/globe/brie/AboutUs/newsroom/business/globe-business-psia-seizing-success-msmes-digital-transformation/newsroom-business-globe-psia-primary-banner-d.jpg",
      "description": "Globe Business, in partnership with PSIA, MSMEs of affordable solutions that can boost and protect their business especially during challenging times. ",
      "datePosted": "Oct 14, 2021 | 02:51 PM",
      "titleFromTag": "Business"
    },
    {
      "title": "Canlaon Mart Serves Essential Needs to the Community Better through Digitized Services",
      "nonclickable": false,
      "openNewTab": false,
      "borderArticle": "border-color:#0074D9;",
      "borderTopArticle": "border-top-color:#0074D9;",
      "imageListing": "/sites/globe.com.ph/files/content/dam/globe/brie/AboutUs/newsroom/business/canlaon-mart-essential-needs-community-digitized-services/newsroom-business-canlaon-mart-digitized-services-thumbnail-listing.jpg",
      "articleUrl": "https://www.globe.com.ph/about-us/newsroom/business/canlaon-mart-essential-needs-community-digitized-services.html",
      "columnType": "articles--type-3",
      "typeListing": "article",
      "imageMobile": "/sites/globe.com.ph/files/content/dam/globe/brie/AboutUs/newsroom/business/canlaon-mart-essential-needs-community-digitized-services/newsroom-business-canlaon-mart-digitized-services-primary-thumbnail-m.jpg",
      "imageDesktop": "/sites/globe.com.ph/files/content/dam/globe/brie/AboutUs/newsroom/business/canlaon-mart-essential-needs-community-digitized-services/newsroom-business-canlaon-mart-digitized-services-primary-thumbnail-d.jpg",
      "description": "Canlaon Mart, a diversified retail business, found ways to adjust their offers & operations with Globe Business to help them pivot digitally in the new normal.",
      "datePosted": "Oct 14, 2021 | 01:53 PM",
      "titleFromTag": "Business"
    },
    {
      "title": "Real Estate Sector Gets Digital Boost from Globe Business",
      "nonclickable": false,
      "openNewTab": false,
      "borderArticle": "border-color:#0074D9;",
      "borderTopArticle": "border-top-color:#0074D9;",
      "imageListing": "/sites/globe.com.ph/files/content/dam/globe/brie/AboutUs/newsroom/business/business-real-estate/default-business-5-thumbnail-listing.jpg",
      "articleUrl": "https://www.globe.com.ph/about-us/newsroom/business/real-estate-sector-digital-boost-globe-business.html",
      "columnType": "articles--type-3",
      "typeListing": "article",
      "imageMobile": "/sites/globe.com.ph/files/content/dam/globe/brie/AboutUs/newsroom/business/business-real-estate/default-business-5-primary-thumbnail-m.jpg",
      "imageDesktop": "/sites/globe.com.ph/files/content/dam/globe/brie/AboutUs/newsroom/business/business-real-estate/default-business-5-primary-banner-d.jpg",
      "description": "Globe Business is all set to help real estate developers redesign their properties to seamlessly integrate digital solutions that meet people’s lifestyles.",
      "datePosted": "Oct 14, 2021 | 01:53 PM",
      "titleFromTag": "Business"
    }
  ]
}
