{
  "status": 200,
  "page": 95,
  "totalPage": 298,
  "range": "1129-1140",
  "total": 3573,
  "result": [
    {
      "title": "Keralty Clinics Serves More Patients Safely and Efficiently through Digital Tech",
      "nonclickable": false,
      "openNewTab": false,
      "borderArticle": "border-color:#0074D9;",
      "borderTopArticle": "border-top-color:#0074D9;",
      "imageListing": "/sites/globe.com.ph/files/content/dam/globe/brie/AboutUs/newsroom/business/keralty-clinics-patients-safely-effectively-digital-tech/newsroom-business-keralty-clinics-digital-tech-thumbnail-listing.jpg",
      "articleUrl": "https://www.globe.com.ph/about-us/newsroom/business/keralty-clinics-patients-safely-effectively-digital-tech.html",
      "columnType": "articles--type-3",
      "typeListing": "article",
      "imageMobile": "/sites/globe.com.ph/files/content/dam/globe/brie/AboutUs/newsroom/business/keralty-clinics-patients-safely-effectively-digital-tech/newsroom-business-keralty-clinics-digital-tech-primary-thumbnail-m.jpg",
      "imageDesktop": "/sites/globe.com.ph/files/content/dam/globe/brie/AboutUs/newsroom/business/keralty-clinics-patients-safely-effectively-digital-tech/newsroom-business-keralty-clinics-digital-tech-primary-thumbnail-d.jpg",
      "description": "Keralty’s facilities like Megaclinic, TopHealth, and MetroSanitas Festival provide world-class Multi-Specialty, Ambulatory Surgical clinics in the country.",
      "datePosted": "Oct 14, 2021 | 01:53 PM",
      "titleFromTag": "Business"
    },
    {
      "title": "Globe Supports NTC Action on Illegal Cell Broadcasters; Cautions Public against Illegal Sale and Use of Illegal Signal Repeaters, and Signal Jammers",
      "nonclickable": false,
      "openNewTab": false,
      "borderArticle": "border-color:#0074D9;",
      "borderTopArticle": "border-top-color:#0074D9;",
      "imageListing": "/sites/globe.com.ph/files/content/dam/globe/brie/AboutUs/newsroom/corporate/new-cell-towers-completes-sites-upgrade-bukidnon/corporate-default-6-thumbnail-listing.jpg",
      "articleUrl": "https://www.globe.com.ph/about-us/newsroom/corporate/globe-supports-ntc-action-illegal-cell-broadcasters.html",
      "columnType": "articles--type-3",
      "typeListing": "article",
      "imageMobile": "/sites/globe.com.ph/files/content/dam/globe/brie/AboutUs/newsroom/corporate/new-cell-towers-completes-sites-upgrade-bukidnon/corporate-default-6-primary-thumbnail-m.jpg",
      "imageDesktop": "/sites/globe.com.ph/files/content/dam/globe/brie/AboutUs/newsroom/corporate/new-cell-towers-completes-sites-upgrade-bukidnon/corporate-default-6-primary-thumbnail-d.jpg",
      "description": "Globe fully supports the recent NTC action to go after the sale of the illegal cell broadcaster, an equipment used during extreme periods of disaster.",
      "datePosted": "Oct 14, 2021 | 01:37 PM",
      "titleFromTag": "Corporate"
    },
    {
      "title": "917Ventures Partners with 10x1000, Secures Grants to Hone Employee Skills in Fintech",
      "nonclickable": false,
      "openNewTab": false,
      "borderArticle": "border-color:#0074D9;",
      "borderTopArticle": "border-top-color:#0074D9;",
      "imageListing": "/sites/globe.com.ph/files/content/dam/globe/brie/AboutUs/newsroom/917ventures/10x1000-grants-hone-employee-skills-fintech/newsroom-917ventures-10x1000-fintech-thumbnail-listing.jpg",
      "articleUrl": "https://www.globe.com.ph/about-us/newsroom/917ventures/10x1000-grants-hone-employee-skills-fintech.html",
      "columnType": "articles--type-3",
      "typeListing": "article",
      "imageMobile": "/sites/globe.com.ph/files/content/dam/globe/brie/AboutUs/newsroom/917ventures/10x1000-grants-hone-employee-skills-fintech/newsroom-917ventures-10x1000-fintech-primary-thumbnail-m.jpg",
      "imageDesktop": "/sites/globe.com.ph/files/content/dam/globe/brie/AboutUs/newsroom/917ventures/10x1000-grants-hone-employee-skills-fintech/newsroom-917ventures-10x1000-fintech-primary-thumbnail-d.jpg",
      "description": "917Ventures has partnered with global fintech training platform 10x1000 Tech for Inclusion (“10x1000”) in securing 100 Fintech Foundation Program Flex grants.",
      "datePosted": "Oct 13, 2021 | 12:34 PM",
      "titleFromTag": "917Ventures"
    },
    {
      "title": "Network Expansion, 5G Rollout Help Enhance PH Digital Quality of Life - Globe",
      "nonclickable": false,
      "openNewTab": false,
      "borderArticle": "border-color:#0074D9;",
      "borderTopArticle": "border-top-color:#0074D9;",
      "imageListing": "/sites/globe.com.ph/files/content/dam/globe/brie/AboutUs/newsroom/corporate/799-permits-1q-2021-new-towers/default-corporate-9-thumbnail-listing.jpg",
      "articleUrl": "https://www.globe.com.ph/about-us/newsroom/corporate/network-expansion-5g-rollout-enhance-dql.html",
      "columnType": "articles--type-3",
      "typeListing": "article",
      "imageMobile": "/sites/globe.com.ph/files/content/dam/globe/brie/AboutUs/newsroom/corporate/799-permits-1q-2021-new-towers/default-corporate-9-primary-thumbnail-m.jpg",
      "imageDesktop": "/sites/globe.com.ph/files/content/dam/globe/brie/AboutUs/newsroom/corporate/799-permits-1q-2021-new-towers/default-corporate-9-primary-thumbnail-d.jpg",
      "description": "Globe’s aggressive network expansion and accelerated rollout of 5G connectivity continues to help improve the Digital Quality of Life in the Philippines. ",
      "datePosted": "Oct 13, 2021 | 12:21 PM",
      "titleFromTag": "Corporate"
    },
    {
      "title": "Globe Sends Disaster Assistance as ‘Maring’ Batters Northern Luzon",
      "nonclickable": false,
      "openNewTab": false,
      "borderArticle": "border-color:#0074D9;",
      "borderTopArticle": "border-top-color:#0074D9;",
      "imageListing": "/sites/globe.com.ph/files/content/dam/globe/brie/AboutUs/newsroom/citizenship/globe-sends-disaster-assistance-cagayan-maring/newsroom-citizenship-globe-sends-assistance-thumbnail-listing.jpg",
      "articleUrl": "https://www.globe.com.ph/about-us/newsroom/citizenship/globe-sends-disaster-assistance-cagayan-maring.html",
      "columnType": "articles--type-3",
      "typeListing": "article",
      "imageMobile": "/sites/globe.com.ph/files/content/dam/globe/brie/AboutUs/newsroom/citizenship/globe-sends-disaster-assistance-cagayan-maring/newsroom-citizenship-globe-sends-assistance-primary-thumbnail-m.jpg",
      "imageDesktop": "/sites/globe.com.ph/files/content/dam/globe/brie/AboutUs/newsroom/citizenship/globe-sends-disaster-assistance-cagayan-maring/newsroom-citizenship-globe-sends-assistance-primary-thumbnail-d.jpg",
      "description": "Globe has deployed its Libreng Tawag, Libreng Charging, and Libreng WiFi services in three areas in Cagayan affected by Typhoon Maring.",
      "datePosted": "Oct 12, 2021 | 05:47 PM",
      "titleFromTag": "Citizenship"
    },
    {
      "title": "Globe #PlantHappinessPH Teams up with Philippine Native Tree Enthusiasts, The Mead Foundation",
      "nonclickable": false,
      "openNewTab": false,
      "borderArticle": "border-color:#1C91C5;",
      "borderTopArticle": "border-top-color:#1C91C5;",
      "imageListing": "/sites/globe.com.ph/files/content/dam/globe/brie/AboutUs/newsroom/sustainability/planthappinessph-philippine-native-tree-enthusiasts-mead-foundation/newsroom-sustainability-planthappiness-mead-foundation-thumbnail-listing.jpg",
      "articleUrl": "https://www.globe.com.ph/about-us/newsroom/sustainability/planthappinessph-philippine-native-tree-enthusiasts-mead-foundation.html",
      "columnType": "articles--type-3",
      "typeListing": "article",
      "imageMobile": "/sites/globe.com.ph/files/content/dam/globe/brie/AboutUs/newsroom/sustainability/planthappinessph-philippine-native-tree-enthusiasts-mead-foundation/newsroom-sustainability-planthappiness-mead-foundation-primary-thumbnail-m.jpg",
      "imageDesktop": "/sites/globe.com.ph/files/content/dam/globe/brie/AboutUs/newsroom/sustainability/planthappinessph-philippine-native-tree-enthusiasts-mead-foundation/newsroom-sustainability-planthappiness-mead-foundation-primary-thumbnail-d.jpg",
      "description": "Globe has partnered with Philippine Native Tree Enthusiasts and The Mead Foundation for its #PlantHappinessPH Mental Health and Well-being campaign. ",
      "datePosted": "Oct 12, 2021 | 05:09 PM",
      "titleFromTag": "Sustainability"
    },
    {
      "title": "Democratized Healthcare Services, Equal Opportunities for Service Providers, and Sustainable Food Waste Management Top This Year’s #Globe5GHackathon",
      "nonclickable": false,
      "openNewTab": false,
      "borderArticle": "border-color:#0074D9;",
      "borderTopArticle": "border-top-color:#0074D9;",
      "imageListing": "/sites/globe.com.ph/files/content/dam/globe/brie/AboutUs/newsroom/citizenship/globe-5g-hackathon-2021-winners/newsroom-citizenship-globe-5g-hackathon-thumbnail-listing.jpg",
      "articleUrl": "https://www.globe.com.ph/about-us/newsroom/citizenship/globe-5g-hackathon-2021-winners.html",
      "columnType": "articles--type-3",
      "typeListing": "article",
      "imageMobile": "/sites/globe.com.ph/files/content/dam/globe/brie/AboutUs/newsroom/citizenship/globe-5g-hackathon-2021-winners/newsroom-citizenship-globe-5g-hackathon-primary-thumbnail-m.jpg",
      "imageDesktop": "/sites/globe.com.ph/files/content/dam/globe/brie/AboutUs/newsroom/citizenship/globe-5g-hackathon-2021-winners/newsroom-citizenship-globe-5g-hackathon-primary-thumbnail-d.jpg",
      "description": "The successful run of the Globe 5G Hackathon has brought out three groups on top, namely Alaga Health, Tenth Maria, and Team CamvS.",
      "datePosted": "Oct 12, 2021 | 02:32 PM",
      "titleFromTag": "Citizenship"
    },
    {
      "title": "Power Up Your Business with Globe's UNLI Fiber Biz Plan 2499",
      "nonclickable": false,
      "openNewTab": false,
      "borderArticle": "border-color:#0074D9;",
      "borderTopArticle": "border-top-color:#0074D9;",
      "imageListing": "/sites/globe.com.ph/files/content/dam/globe/brie/AboutUs/newsroom/business/default-business-4/default-business-4-thumbnail-listing.jpg",
      "articleUrl": "https://www.globe.com.ph/about-us/newsroom/business/power-up-business-globe-unli-fiber-biz-plan-2499.html",
      "columnType": "articles--type-3",
      "typeListing": "article",
      "imageMobile": "/sites/globe.com.ph/files/content/dam/globe/brie/AboutUs/newsroom/business/default-business-4/default-business-4-primary-thumbnail-m.jpg",
      "imageDesktop": "/sites/globe.com.ph/files/content/dam/globe/brie/AboutUs/newsroom/business/default-business-4/default-business-4-primary-thumbnail-d.jpg",
      "description": "To help micro, small, and medium businesses gain a secure a strong foundation with top-notch connectivity, Globe Business launches the UNLI Fiber Biz Plan 2499.",
      "datePosted": "Oct 12, 2021 | 01:00 PM",
      "titleFromTag": "Business"
    },
    {
      "title": "Globe Says Customer Loyalty Remains High Despite MNP Implementation",
      "nonclickable": false,
      "openNewTab": false,
      "borderArticle": "border-color:#0074D9;",
      "borderTopArticle": "border-top-color:#0074D9;",
      "imageListing": "/sites/globe.com.ph/files/content/dam/globe/brie/AboutUs/newsroom/common/default-4/default-consumer-3-thumbnail-listing.jpg",
      "articleUrl": "https://www.globe.com.ph/about-us/newsroom/corporate/customer-loyalty-remains-high-mnp-implementation.html",
      "columnType": "articles--type-3",
      "typeListing": "article",
      "imageMobile": "/sites/globe.com.ph/files/content/dam/globe/brie/AboutUs/newsroom/common/default-4/default-consumer-3-primary-thumbnail-m.jpg",
      "imageDesktop": "/sites/globe.com.ph/files/content/dam/globe/brie/AboutUs/newsroom/common/default-4/default-consumer-3-primary-thumbnail-d.jpg",
      "description": "Customers remained loyal to their network despite the MNP commercial launch last September 30, with Globe as the network of choice if they do decide to move.",
      "datePosted": "Oct 12, 2021 | 08:05 AM",
      "titleFromTag": "Corporate"
    },
    {
      "title": "RUSH Offers eStore Promo to Help SMEs This Holiday Season",
      "nonclickable": false,
      "openNewTab": false,
      "borderArticle": "border-color:#0074D9;",
      "borderTopArticle": "border-top-color:#0074D9;",
      "imageListing": "/sites/globe.com.ph/files/content/dam/globe/brie/AboutUs/newsroom/business/rush-estore-promo-help-smes-holiday-season/newsroom-business-rush-offers-holiday-thumbnail-listing.jpg",
      "articleUrl": "https://www.globe.com.ph/about-us/newsroom/business/rush-estore-promo-help-smes-holiday-season.html",
      "columnType": "articles--type-3",
      "typeListing": "article",
      "imageMobile": "/sites/globe.com.ph/files/content/dam/globe/brie/AboutUs/newsroom/business/rush-estore-promo-help-smes-holiday-season/newsroom-business-rush-offers-holiday-primary-thumbnail-m.jpg",
      "imageDesktop": "/sites/globe.com.ph/files/content/dam/globe/brie/AboutUs/newsroom/business/rush-estore-promo-help-smes-holiday-season/newsroom-business-rush-offers-holiday-primary-thumbnail-d.jpg",
      "description": "Digital solutions provider RUSH is handing out huge savings to SMEs by offering its introductory eStore Starter subscription package.",
      "datePosted": "Oct 11, 2021 | 11:09 AM",
      "titleFromTag": "Business"
    },
    {
      "title": "640K Globe Customers Experience Significant Improvement Due to Network Builds in June & July 2021",
      "nonclickable": false,
      "openNewTab": false,
      "borderArticle": "border-color:#0074D9;",
      "borderTopArticle": "border-top-color:#0074D9;",
      "imageListing": "/sites/globe.com.ph/files/content/dam/globe/brie/AboutUs/newsroom/corporate/new-cell-towers-completes-sites-upgrade-bukidnon/corporate-default-6-thumbnail-listing.jpg",
      "articleUrl": "https://www.globe.com.ph/about-us/newsroom/consumer/customers-experience-improvement-network-builds.html",
      "columnType": "articles--type-3",
      "typeListing": "article",
      "imageMobile": "/sites/globe.com.ph/files/content/dam/globe/brie/AboutUs/newsroom/corporate/new-cell-towers-completes-sites-upgrade-bukidnon/corporate-default-6-primary-thumbnail-m.jpg",
      "imageDesktop": "/sites/globe.com.ph/files/content/dam/globe/brie/AboutUs/newsroom/corporate/new-cell-towers-completes-sites-upgrade-bukidnon/corporate-default-6-primary-thumbnail-d.jpg",
      "description": "With Globe’s builds, customers in strategic towns and cities have noted a 100 percent improvement in downloading videos, web browsing, and connectivity speed.",
      "datePosted": "Oct 11, 2021 | 10:34 AM",
      "titleFromTag": "Consumer"
    },
    {
      "title": "Globe Continues to Improve Mobile Data Consistency Score for Three Straight Quarters in 2021",
      "nonclickable": false,
      "openNewTab": false,
      "borderArticle": "border-color:#0074D9;",
      "borderTopArticle": "border-top-color:#0074D9;",
      "imageListing": "/sites/globe.com.ph/files/content/dam/globe/brie/AboutUs/newsroom/corporate/799-permits-1q-2021-new-towers/default-corporate-9-thumbnail-listing.jpg",
      "articleUrl": "https://www.globe.com.ph/about-us/newsroom/consumer/data-consistency-score-three-straight-quarters.html",
      "columnType": "articles--type-3",
      "typeListing": "article",
      "imageMobile": "/sites/globe.com.ph/files/content/dam/globe/brie/AboutUs/newsroom/corporate/799-permits-1q-2021-new-towers/default-corporate-9-primary-thumbnail-m.jpg",
      "imageDesktop": "/sites/globe.com.ph/files/content/dam/globe/brie/AboutUs/newsroom/corporate/799-permits-1q-2021-new-towers/default-corporate-9-primary-thumbnail-d.jpg",
      "description": "Based on the analysis by Ookla®, Globe received a nationwide consistency score of 76.64 compared to 75.98 in 2nd quarter & 70.43 in the 1st 3 months of 2021.",
      "datePosted": "Oct 08, 2021 | 01:11 PM",
      "titleFromTag": "Consumer"
    }
  ]
}
