{
  "status": 200,
  "page": 96,
  "totalPage": 298,
  "range": "1141-1152",
  "total": 3573,
  "result": [
    {
      "title": "Globe Keeps Bayanihan Spirit Alive, Allows Customers to Support Distance Learning",
      "nonclickable": false,
      "openNewTab": false,
      "borderArticle": "border-color:#0074D9;",
      "borderTopArticle": "border-top-color:#0074D9;",
      "imageListing": "/sites/globe.com.ph/files/content/dam/globe/brie/AboutUs/newsroom/citizenship/bayanihan-spirit-customer-support-distance-learning/newsroom-citizenship-support-distance-learning-thumbnail-listing.jpg",
      "articleUrl": "https://www.globe.com.ph/about-us/newsroom/citizenship/bayanihan-spirit-customer-support-distance-learning.html",
      "columnType": "articles--type-3",
      "typeListing": "article",
      "imageMobile": "/sites/globe.com.ph/files/content/dam/globe/brie/AboutUs/newsroom/citizenship/bayanihan-spirit-customer-support-distance-learning/newsroom-citizenship-support-distance-learning-primary-thumbnail-m.jpg",
      "imageDesktop": "/sites/globe.com.ph/files/content/dam/globe/brie/AboutUs/newsroom/citizenship/bayanihan-spirit-customer-support-distance-learning/newsroom-citizenship-support-distance-learning-primary-thumbnail-d.jpg",
      "description": "Globe aims to reignite the Bayanihan spirit among Filipinos by allowing customers to contribute to its nation-building efforts through Globe Rewards.",
      "datePosted": "Oct 08, 2021 | 12:20 PM",
      "titleFromTag": "Citizenship"
    },
    {
      "title": "917Ventures, Puregold Ink Joint Venture Expanding PureGo—Creating One of PH’s Largest e-Grocery Platforms",
      "nonclickable": false,
      "openNewTab": false,
      "borderArticle": "border-color:#0074D9;",
      "borderTopArticle": "border-top-color:#0074D9;",
      "imageListing": "/sites/globe.com.ph/files/content/dam/globe/brie/AboutUs/newsroom/partners/917ventures-puregold-ink-joint-venture-expanding-purego/newsroom-partners-creating-phs-largest-e-grocery-thumbnail-listing.jpg",
      "articleUrl": "https://www.globe.com.ph/about-us/newsroom/partners/917ventures-puregold-ink-joint-venture-expanding-purego.html",
      "columnType": "articles--type-3",
      "typeListing": "article",
      "imageMobile": "/sites/globe.com.ph/files/content/dam/globe/brie/AboutUs/newsroom/partners/917ventures-puregold-ink-joint-venture-expanding-purego/newsroom-partners-creating-phs-largest-e-grocery-primary-thumbnail-m.jpg",
      "imageDesktop": "/sites/globe.com.ph/files/content/dam/globe/brie/AboutUs/newsroom/partners/917ventures-puregold-ink-joint-venture-expanding-purego/newsroom-partners-creating-phs-largest-e-grocery-primary-thumbnail-d.jpg",
      "description": "917Ventures entered into a joint venture with Puregold to create an e-grocery platform, PureGo.",
      "datePosted": "Oct 08, 2021 | 12:12 PM",
      "titleFromTag": "Partners"
    },
    {
      "title": "Globe Honored as Industry Champion, Best Workplace in Asia at ACES Awards 2021",
      "nonclickable": false,
      "openNewTab": false,
      "borderArticle": "border-color:#0074D9;",
      "borderTopArticle": "border-top-color:#0074D9;",
      "imageListing": "/sites/globe.com.ph/files/content/dam/globe/brie/AboutUs/newsroom/corporate/industry-champion-best-workplace-asia-aces-awards-2021/newsroom-corporate-globe-best-workplace-thumbnail-listing.jpg",
      "articleUrl": "https://www.globe.com.ph/about-us/newsroom/corporate/industry-champion-best-workplace-asia-aces-awards-2021.html",
      "columnType": "articles--type-3",
      "typeListing": "article",
      "imageMobile": "/sites/globe.com.ph/files/content/dam/globe/brie/AboutUs/newsroom/corporate/industry-champion-best-workplace-asia-aces-awards-2021/newsroom-corporate-globe-best-workplace-primary-thumbnail-m.jpg",
      "imageDesktop": "/sites/globe.com.ph/files/content/dam/globe/brie/AboutUs/newsroom/corporate/industry-champion-best-workplace-asia-aces-awards-2021/newsroom-corporate-globe-best-workplace-primary-thumbnail-d.jpg",
      "description": "Globe was honored as Industry Champion of the Year and Asia’s Best Workplace of the Year by the Asia Corporate Excellence & Sustainability Awards (ACES) 2021. ",
      "datePosted": "Oct 08, 2021 | 11:12 AM",
      "titleFromTag": "Corporate"
    },
    {
      "title": "Nadine Lustre, Curtismith, Ben&Ben Top Bill KonsultaMD’s Free Mental Health Concert",
      "nonclickable": false,
      "openNewTab": false,
      "borderArticle": "border-color:#1C91C5;",
      "borderTopArticle": "border-top-color:#1C91C5;",
      "imageListing": "/sites/globe.com.ph/files/content/dam/globe/brie/AboutUs/newsroom/sustainability/nadine-lustre-curtismith-benandben-top-bill-konsultamd-concert/newsroom-sustainability-mental-health-concert-thumbnail-listing.jpg",
      "articleUrl": "https://www.globe.com.ph/about-us/newsroom/sustainability/nadine-lustre-curtismith-benandben-top-bill-konsultamd-concert.html",
      "columnType": "articles--type-3",
      "typeListing": "article",
      "imageMobile": "/sites/globe.com.ph/files/content/dam/globe/brie/AboutUs/newsroom/sustainability/nadine-lustre-curtismith-benandben-top-bill-konsultamd-concert/newsroom-sustainability-mental-health-concer-primary-thumbnail-m.jpg",
      "imageDesktop": "/sites/globe.com.ph/files/content/dam/globe/brie/AboutUs/newsroom/sustainability/nadine-lustre-curtismith-benandben-top-bill-konsultamd-concert/newsroom-sustainability-mental-health-concer-primary-thumbnail-d.jpg",
      "description": "Telehealth service provider KonsultaMD is bringing some of the country’s top artists together for a night of healing, music, and fun.",
      "datePosted": "Oct 07, 2021 | 12:09 PM",
      "titleFromTag": "Sustainability"
    },
    {
      "title": "Globe Says GOMO MNP Service Starts October 12, Delay Due to Complexity of Multiple Functions of Its Other Brands",
      "nonclickable": false,
      "openNewTab": false,
      "borderArticle": "border-color:#0074D9;",
      "borderTopArticle": "border-top-color:#0074D9;",
      "imageListing": "/sites/globe.com.ph/files/content/dam/globe/brie/AboutUs/newsroom/corporate/largest-ph-publicly-listed-telco-digital-solutions-group/Corporate-globe-thumbnail-listing.jpg",
      "articleUrl": "https://www.globe.com.ph/about-us/newsroom/corporate/gomo-mnp-service-starts.html",
      "columnType": "articles--type-3",
      "typeListing": "article",
      "imageMobile": "/sites/globe.com.ph/files/content/dam/globe/brie/AboutUs/newsroom/corporate/largest-ph-publicly-listed-telco-digital-solutions-group/Corporate-globe-primary-thumbnail-m.jpg",
      "imageDesktop": "/sites/globe.com.ph/files/content/dam/globe/brie/AboutUs/newsroom/corporate/largest-ph-publicly-listed-telco-digital-solutions-group/Corporate-globe-primary-thumbnail-d.jpg",
      "description": "In response to the recent news on the supposed non-compliance of GOMO in the MNP service, Globe strongly denies any malice or intent to violate the MNP law.",
      "datePosted": "Oct 07, 2021 | 10:13 AM",
      "titleFromTag": "Corporate"
    },
    {
      "title": "Globe’s #PlantHappinessPH Mental Health Campaign Amasses over 168.7 Million TikTok Views in Just a Week",
      "nonclickable": false,
      "openNewTab": false,
      "borderArticle": "border-color:#1C91C5;",
      "borderTopArticle": "border-top-color:#1C91C5;",
      "imageListing": "/sites/globe.com.ph/files/content/dam/globe/brie/AboutUs/newsroom/sustainability/planthappinessph-mental-health-campaign-million-tiktok-views/newsroom-sustainability-million-tiktok-views-thumbnail-listing.jpg",
      "articleUrl": "https://www.globe.com.ph/about-us/newsroom/sustainability/planthappinessph-mental-health-campaign-million-tiktok-views.html",
      "columnType": "articles--type-3",
      "typeListing": "article",
      "imageMobile": "/sites/globe.com.ph/files/content/dam/globe/brie/AboutUs/newsroom/sustainability/planthappinessph-mental-health-campaign-million-tiktok-views/newsroom-sustainability-million-tiktok-views-primary-thumbnail-m.jpg",
      "imageDesktop": "/sites/globe.com.ph/files/content/dam/globe/brie/AboutUs/newsroom/sustainability/planthappinessph-mental-health-campaign-million-tiktok-views/newsroom-sustainability-million-tiktok-views-primary-thumbnail-d.jpg",
      "description": "Globe’s #PlantHappinessPH mental health initiative has amassed 168.7 million views on TikTok in just a week, as it spreads hope and happiness.",
      "datePosted": "Oct 06, 2021 | 12:33 PM",
      "titleFromTag": "Sustainability"
    },
    {
      "title": "Seize the Moment, It’s the Best Time to Be with Globe",
      "nonclickable": false,
      "openNewTab": false,
      "borderArticle": "border-color:#0074D9;",
      "borderTopArticle": "border-top-color:#0074D9;",
      "imageListing": "/sites/globe.com.ph/files/content/dam/globe/brie/AboutUs/newsroom/common/default-3/corporate-default-7-thumbnail-listing.jpg",
      "articleUrl": "https://www.globe.com.ph/about-us/newsroom/consumer/seize-moment-best-time-be-with-globe.html",
      "columnType": "articles--type-3",
      "typeListing": "article",
      "imageMobile": "/sites/globe.com.ph/files/content/dam/globe/brie/AboutUs/newsroom/common/default-3/corporate-default-7-primary-thumbnail-m.jpg",
      "imageDesktop": "/sites/globe.com.ph/files/content/dam/globe/brie/AboutUs/newsroom/common/default-3/corporate-default-7-primary-thumbnail-d.jpg",
      "description": "As Globe continues to innovate with new offers, perks, and access to everyday essentials, there’s no better time than now to be part of their network.",
      "datePosted": "Oct 06, 2021 | 11:07 AM",
      "titleFromTag": "Consumer"
    },
    {
      "title": "Globe Shop & Pay: A Best-In-Class Retail Innovation",
      "nonclickable": false,
      "openNewTab": false,
      "borderArticle": "border-color:#0074D9;",
      "borderTopArticle": "border-top-color:#0074D9;",
      "imageListing": "/sites/globe.com.ph/files/content/dam/globe/brie/AboutUs/newsroom/consumer/globe-shop-and-pay-best-retail-innovation/newsroom-consumer-shop-pay-best-innovation-thumbnail-listing.jpg",
      "articleUrl": "https://www.globe.com.ph/about-us/newsroom/consumer/globe-shop-and-pay-best-retail-innovation.html",
      "columnType": "articles--type-3",
      "typeListing": "article",
      "imageMobile": "/sites/globe.com.ph/files/content/dam/globe/brie/AboutUs/newsroom/consumer/globe-shop-and-pay-best-retail-innovation/newsroom-consumer-shop-pay-best-innovation-primary-thumbnail-m.jpg",
      "imageDesktop": "/sites/globe.com.ph/files/content/dam/globe/brie/AboutUs/newsroom/consumer/globe-shop-and-pay-best-retail-innovation/newsroom-consumer-shop-pay-best-innovation-primary-thumbnail-d.jpg",
      "description": "Globe Shop & Pay offers a multi-channel retail experience where customers, including not so digital-savvy individuals and elderly clients.",
      "datePosted": "Oct 05, 2021 | 11:07 AM",
      "titleFromTag": "Consumer"
    },
    {
      "title": "Globe’s New Retail Platform: A Milestone in Innovation",
      "nonclickable": false,
      "openNewTab": false,
      "borderArticle": "border-color:#0074D9;",
      "borderTopArticle": "border-top-color:#0074D9;",
      "imageListing": "/sites/globe.com.ph/files/content/dam/globe/brie/AboutUs/newsroom/consumer/globe-shop-and-pay-best-retail-innovation/newsroom-consumer-shop-pay-best-innovation-thumbnail-listing.jpg",
      "articleUrl": "https://www.globe.com.ph/about-us/newsroom/consumer/globe-new-retail-platform-milestone-innovation.html",
      "columnType": "articles--type-3",
      "typeListing": "article",
      "imageMobile": "/sites/globe.com.ph/files/content/dam/globe/brie/AboutUs/newsroom/consumer/globe-shop-and-pay-best-retail-innovation/newsroom-consumer-shop-pay-best-innovation-primary-thumbnail-m.jpg",
      "imageDesktop": "/sites/globe.com.ph/files/content/dam/globe/brie/AboutUs/newsroom/consumer/globe-shop-and-pay-best-retail-innovation/newsroom-consumer-shop-pay-best-innovation-primary-thumbnail-d.jpg",
      "description": "Globe’s retail kiosks offer a multi-channel retail experience where customers, including not so digital-savvy individuals and elderly clients.",
      "datePosted": "Oct 05, 2021 | 11:07 AM",
      "titleFromTag": "Consumer"
    },
    {
      "title": "Globe EasyHub: A Best-In-Class Retail Innovation",
      "nonclickable": false,
      "openNewTab": false,
      "borderArticle": "border-color:#0074D9;",
      "borderTopArticle": "border-top-color:#0074D9;",
      "imageListing": "/sites/globe.com.ph/files/content/dam/globe/brie/AboutUs/newsroom/consumer/globe-shop-and-pay-best-retail-innovation/newsroom-consumer-shop-pay-best-innovation-thumbnail-listing.jpg",
      "articleUrl": "https://www.globe.com.ph/about-us/newsroom/consumer/globe-easyhub-best-in-class-retail-innovation.html",
      "columnType": "articles--type-3",
      "typeListing": "article",
      "imageMobile": "/sites/globe.com.ph/files/content/dam/globe/brie/AboutUs/newsroom/consumer/globe-shop-and-pay-best-retail-innovation/newsroom-consumer-shop-pay-best-innovation-primary-thumbnail-m.jpg",
      "imageDesktop": "/sites/globe.com.ph/files/content/dam/globe/brie/AboutUs/newsroom/consumer/globe-shop-and-pay-best-retail-innovation/newsroom-consumer-shop-pay-best-innovation-primary-thumbnail-d.jpg",
      "description": "Globe’s EasyHub offers a multi-channel retail experience where customers, including not so digital-savvy individuals and elderly clients.",
      "datePosted": "Oct 05, 2021 | 11:07 AM",
      "titleFromTag": "Consumer"
    },
    {
      "title": "More Globe MSME, Enterprise Accounts Now on VoLTE/VoWiFi",
      "nonclickable": false,
      "openNewTab": false,
      "borderArticle": "border-color:#0074D9;",
      "borderTopArticle": "border-top-color:#0074D9;",
      "imageListing": "/sites/globe.com.ph/files/content/dam/globe/brie/AboutUs/newsroom/business/cybersecurity-critical-component-customer-service/business-cybersecurity-must-be-a-critical-component-thumbnail-listing.jpg",
      "articleUrl": "https://www.globe.com.ph/about-us/newsroom/business/more-globe-msme-enterprise-accounts-volte-vowifi.html",
      "columnType": "articles--type-3",
      "typeListing": "article",
      "imageMobile": "/sites/globe.com.ph/files/content/dam/globe/brie/AboutUs/newsroom/business/cybersecurity-critical-component-customer-service/business-cybersecurity-must-be-a-critical-component-primary-thumbnail-m.jpg",
      "imageDesktop": "/sites/globe.com.ph/files/content/dam/globe/brie/AboutUs/newsroom/business/cybersecurity-critical-component-customer-service/business-cybersecurity-must-be-a-critical-component-primary-thumbnail-d.jpg",
      "description": "Globe  has made it possible for almost all of its business accounts to be provisioned with Voice Over LTE (VoLTE) and Voice Over WiFi (VoWiFi) services.",
      "datePosted": "Oct 05, 2021 | 09:50 AM",
      "titleFromTag": "Business"
    },
    {
      "title": "Globe Integrates Supply Chain onto Sustainability Practices",
      "nonclickable": false,
      "openNewTab": false,
      "borderArticle": "border-color:#1C91C5;",
      "borderTopArticle": "border-top-color:#1C91C5;",
      "imageListing": "/sites/globe.com.ph/files/content/dam/globe/brie/AboutUs/newsroom/common/default-sustainability-1/default-sustainability-2-thumbnail-listing.jpg",
      "articleUrl": "https://www.globe.com.ph/about-us/newsroom/sustainability/globe-integrates-supply-chain-sustainability-practices.html",
      "columnType": "articles--type-3",
      "typeListing": "article",
      "imageMobile": "/sites/globe.com.ph/files/content/dam/globe/brie/AboutUs/newsroom/common/default-sustainability-1/default-sustainability-2-primary-thumbnail-m.jpg",
      "imageDesktop": "/sites/globe.com.ph/files/content/dam/globe/brie/AboutUs/newsroom/common/default-sustainability-1/default-sustainability-2-primary-thumbnail-d.jpg",
      "description": "Globe’s partner vendors and suppliers are encouraged to support the sustainability aspects that the company espouses for sustainable development.",
      "datePosted": "Oct 04, 2021 | 02:51 PM",
      "titleFromTag": "Sustainability"
    }
  ]
}
