{
  "status": 200,
  "page": 97,
  "totalPage": 298,
  "range": "1153-1164",
  "total": 3573,
  "result": [
    {
      "title": "PPGL Champions to Share Prize Money with Charitable Beneficiaries",
      "nonclickable": false,
      "openNewTab": false,
      "borderArticle": "border-color:#0074D9;",
      "borderTopArticle": "border-top-color:#0074D9;",
      "imageListing": "/sites/globe.com.ph/files/content/dam/globe/brie/AboutUs/newsroom/citizenship/ppgl-championships-share-prize-money-charitable-beneficiaries/newsroom-citizenship-ppgl-share-prize-beneficiaries-thumbnail-listing.jpg",
      "articleUrl": "https://www.globe.com.ph/about-us/newsroom/citizenship/ppgl-championships-share-prize-money-charitable-beneficiaries.html",
      "columnType": "articles--type-3",
      "typeListing": "article",
      "imageMobile": "/sites/globe.com.ph/files/content/dam/globe/brie/AboutUs/newsroom/citizenship/ppgl-championships-share-prize-money-charitable-beneficiaries/newsroom-citizenship-ppgl-share-prize-beneficiaries-primary-thumbnail-m.jpg",
      "imageDesktop": "/sites/globe.com.ph/files/content/dam/globe/brie/AboutUs/newsroom/citizenship/ppgl-championships-share-prize-money-charitable-beneficiaries/newsroom-citizenship-ppgl-share-prize-beneficiaries-primary-thumbnail-d.jpg",
      "description": "Philippine Pro Gaming League (PPGL’s) Valorant and League of Legends: Wild Rift SEA Icon Fall Season champions pledged to share their prize money to charities.",
      "datePosted": "Oct 04, 2021 | 10:07 AM",
      "titleFromTag": "Citizenship"
    },
    {
      "title": "Globe to Accelerate 5G Adoption to Boost PH Competitiveness",
      "nonclickable": false,
      "openNewTab": false,
      "borderArticle": "border-color:#0074D9;",
      "borderTopArticle": "border-top-color:#0074D9;",
      "imageListing": "/sites/globe.com.ph/files/content/dam/globe/brie/AboutUs/newsroom/common/default-9/default-corporate-4-thumbnail-listing.jpg",
      "articleUrl": "https://www.globe.com.ph/about-us/newsroom/corporate/accelerate-5g-adoption-boost-ph-competitiveness.html",
      "columnType": "articles--type-3",
      "typeListing": "article",
      "imageMobile": "/sites/globe.com.ph/files/content/dam/globe/brie/AboutUs/newsroom/common/default-9/default-corporate-4-primary-thumbnail-m.jpg",
      "imageDesktop": "/sites/globe.com.ph/files/content/dam/globe/brie/AboutUs/newsroom/common/default-9/default-corporate-4-primary-thumbnail-d.jpg",
      "description": "5G-technology pioneer Globe said it is focused on expanding 5G adoption among consumers for the Philippines to increase its competitiveness in the region.",
      "datePosted": "Oct 04, 2021 | 09:50 AM",
      "titleFromTag": "Corporate"
    },
    {
      "title": "Globe Business Launches Support a School Program to Help in Online Learning",
      "nonclickable": false,
      "openNewTab": false,
      "borderArticle": "border-color:#0074D9;",
      "borderTopArticle": "border-top-color:#0074D9;",
      "imageListing": "/sites/globe.com.ph/files/content/dam/globe/brie/AboutUs/newsroom/business/globe-business-support-a-school-program/newsroom-business-globe-help-online-learning-thumbnail-listing.jpg",
      "articleUrl": "https://www.globe.com.ph/about-us/newsroom/business/globe-business-support-a-school-program.html",
      "columnType": "articles--type-3",
      "typeListing": "article",
      "imageMobile": "/sites/globe.com.ph/files/content/dam/globe/brie/AboutUs/newsroom/business/globe-business-support-a-school-program/newsroom-business-globe-help-online-learning-primary-thumbnail-m.jpg",
      "imageDesktop": "/sites/globe.com.ph/files/content/dam/globe/brie/AboutUs/newsroom/business/globe-business-support-a-school-program/newsroom-business-globe-help-online-learning-primary-thumbnail-d.jpg",
      "description": "Globe Business partners with Teach for the Philippines (TFP) in the distribution of connectivity resources to help in online learning.",
      "datePosted": "Oct 01, 2021 | 02:24 PM",
      "titleFromTag": "Business"
    },
    {
      "title": "Sparking Hope & Joy: Globe’s G Music Fest Rallies Filipinos to Relive the Joys of Live Music While Supporting Advocacies",
      "nonclickable": false,
      "openNewTab": false,
      "borderArticle": "border-color:#0074D9;",
      "borderTopArticle": "border-top-color:#0074D9;",
      "imageListing": "/sites/globe.com.ph/files/content/dam/globe/brie/AboutUs/newsroom/consumer/globe-g-music-fest-live-music-advocacies/default-consumer-thumbnail-listing.jpg",
      "articleUrl": "https://www.globe.com.ph/about-us/newsroom/consumer/globe-g-music-fest-live-music-advocacies.html",
      "columnType": "articles--type-3",
      "typeListing": "article",
      "imageMobile": "/sites/globe.com.ph/files/content/dam/globe/brie/AboutUs/newsroom/consumer/globe-g-music-fest-live-music-advocacies/default-consumer-primary-thumbnail-m.jpg",
      "imageDesktop": "/sites/globe.com.ph/files/content/dam/globe/brie/AboutUs/newsroom/consumer/globe-g-music-fest-live-music-advocacies/default-consumer-primary-thumbnail-d.jpg",
      "description": "In its second year, Globe’s G Music Fest brought in some of the country’s top acts for a night of reminiscing, intimate fun, and sharing of good vibes. ",
      "datePosted": "Oct 01, 2021 | 02:14 PM",
      "titleFromTag": "Consumer"
    },
    {
      "title": "With MNP in Full Swing: Now Is the Best Time to Be with Globe",
      "nonclickable": false,
      "openNewTab": false,
      "borderArticle": "border-color:#0074D9;",
      "borderTopArticle": "border-top-color:#0074D9;",
      "imageListing": "/sites/globe.com.ph/files/content/dam/globe/brie/AboutUs/newsroom/common/default-4/default-consumer-3-thumbnail-listing.jpg",
      "articleUrl": "https://www.globe.com.ph/about-us/newsroom/consumer/mnp-now-best-time-be-with-globe.html",
      "columnType": "articles--type-3",
      "typeListing": "article",
      "imageMobile": "/sites/globe.com.ph/files/content/dam/globe/brie/AboutUs/newsroom/common/default-4/default-consumer-3-primary-thumbnail-m.jpg",
      "imageDesktop": "/sites/globe.com.ph/files/content/dam/globe/brie/AboutUs/newsroom/common/default-4/default-consumer-3-primary-thumbnail-d.jpg",
      "description": "Customers can now port to Globe hassle-free and retain their number, even if they upgrade from prepaid to postpaid and vice versa.",
      "datePosted": "Oct 01, 2021 | 12:32 PM",
      "titleFromTag": "Consumer"
    },
    {
      "title": "Globe Is PH Favorite Telecom Company - The Method Research",
      "nonclickable": false,
      "openNewTab": false,
      "borderArticle": "border-color:#0074D9;",
      "borderTopArticle": "border-top-color:#0074D9;",
      "imageListing": "/sites/globe.com.ph/files/content/dam/globe/brie/AboutUs/newsroom/corporate/largest-ph-publicly-listed-telco-digital-solutions-group/Corporate-globe-thumbnail-listing.jpg",
      "articleUrl": "https://www.globe.com.ph/about-us/newsroom/corporate/globe-ph-favorite-telecom-the-method-research.html",
      "columnType": "articles--type-3",
      "typeListing": "article",
      "imageMobile": "/sites/globe.com.ph/files/content/dam/globe/brie/AboutUs/newsroom/corporate/largest-ph-publicly-listed-telco-digital-solutions-group/Corporate-globe-primary-thumbnail-m.jpg",
      "imageDesktop": "/sites/globe.com.ph/files/content/dam/globe/brie/AboutUs/newsroom/corporate/largest-ph-publicly-listed-telco-digital-solutions-group/Corporate-globe-primary-thumbnail-d.jpg",
      "description": "The results of The Method Research August 2021 pulse poll showed almost four out of 10 Filipinos chose Globe as their favorite telco nationwide.",
      "datePosted": "Sep 30, 2021 | 10:01 AM",
      "titleFromTag": "Corporate"
    },
    {
      "title": "Globe Launches Shop & Pay",
      "nonclickable": false,
      "openNewTab": false,
      "borderArticle": "border-color:#0074D9;",
      "borderTopArticle": "border-top-color:#0074D9;",
      "imageListing": "/sites/globe.com.ph/files/content/dam/globe/brie/AboutUs/newsroom/consumer/globe-launches-shop-and-pay/newsroom-consumer-globe-shop-pay-thumbnail-listing.jpg",
      "articleUrl": "https://www.globe.com.ph/about-us/newsroom/consumer/globe-launches-shop-and-pay.html",
      "columnType": "articles--type-3",
      "typeListing": "article",
      "imageMobile": "/sites/globe.com.ph/files/content/dam/globe/brie/AboutUs/newsroom/consumer/globe-launches-shop-and-pay/newsroom-consumer-globe-shop-pay-primary-thumbnail-m.jpg",
      "imageDesktop": "/sites/globe.com.ph/files/content/dam/globe/brie/AboutUs/newsroom/consumer/globe-launches-shop-and-pay/newsroom-consumer-globe-shop-pay-primary-thumbnail-d.jpg",
      "description": "The Globe Shop & Pay digital kiosks will help address customer hesitancy to visit and transact in physical stores.",
      "datePosted": "Sep 29, 2021 | 03:58 PM",
      "titleFromTag": "Consumer"
    },
    {
      "title": "Globe Launches New Retail Platform",
      "nonclickable": false,
      "openNewTab": false,
      "borderArticle": "border-color:#0074D9;",
      "borderTopArticle": "border-top-color:#0074D9;",
      "imageListing": "/sites/globe.com.ph/files/content/dam/globe/brie/AboutUs/newsroom/consumer/globe-launches-shop-and-pay/newsroom-consumer-globe-shop-pay-thumbnail-listing.jpg",
      "articleUrl": "https://www.globe.com.ph/about-us/newsroom/consumer/globe-launches-new-retail-platform.html",
      "columnType": "articles--type-3",
      "typeListing": "article",
      "imageMobile": "/sites/globe.com.ph/files/content/dam/globe/brie/AboutUs/newsroom/consumer/globe-launches-shop-and-pay/newsroom-consumer-globe-shop-pay-primary-thumbnail-m.jpg",
      "imageDesktop": "/sites/globe.com.ph/files/content/dam/globe/brie/AboutUs/newsroom/consumer/globe-launches-shop-and-pay/newsroom-consumer-globe-shop-pay-primary-thumbnail-d.jpg",
      "description": "Globe launches retail kiosks for all of Globe's essential products and services that will help address customer hesitancy to transact in physical stores.",
      "datePosted": "Sep 29, 2021 | 03:58 PM",
      "titleFromTag": "Consumer"
    },
    {
      "title": "Globe Launches EasyHub",
      "nonclickable": false,
      "openNewTab": false,
      "borderArticle": "border-color:#0074D9;",
      "borderTopArticle": "border-top-color:#0074D9;",
      "imageListing": "/sites/globe.com.ph/files/content/dam/globe/brie/AboutUs/newsroom/consumer/globe-launches-shop-and-pay/newsroom-consumer-globe-shop-pay-thumbnail-listing.jpg",
      "articleUrl": "https://www.globe.com.ph/about-us/newsroom/consumer/globe-launches-easyhub.html",
      "columnType": "articles--type-3",
      "typeListing": "article",
      "imageMobile": "/sites/globe.com.ph/files/content/dam/globe/brie/AboutUs/newsroom/consumer/globe-launches-shop-and-pay/newsroom-consumer-globe-shop-pay-primary-thumbnail-m.jpg",
      "imageDesktop": "/sites/globe.com.ph/files/content/dam/globe/brie/AboutUs/newsroom/consumer/globe-launches-shop-and-pay/newsroom-consumer-globe-shop-pay-primary-thumbnail-d.jpg",
      "description": "Globe launches EasyHub for all of Globe's essential products and services that will help address customer hesitancy to transact in physical stores.",
      "datePosted": "Sep 29, 2021 | 03:58 PM",
      "titleFromTag": "Consumer"
    },
    {
      "title": "Globe At Home Tops Netflix ISP Speed Index",
      "nonclickable": false,
      "openNewTab": false,
      "borderArticle": "border-color:#0074D9;",
      "borderTopArticle": "border-top-color:#0074D9;",
      "imageListing": "/sites/globe.com.ph/files/content/dam/globe/brie/AboutUs/newsroom/consumer/globe-at-home-tops-netflix-isp-speed-index/default-corporate-5-thumbnail-listing.jpg",
      "articleUrl": "https://www.globe.com.ph/about-us/newsroom/consumer/globe-at-home-tops-netflix-isp-speed-index.html",
      "columnType": "articles--type-3",
      "typeListing": "article",
      "imageMobile": "/sites/globe.com.ph/files/content/dam/globe/brie/AboutUs/newsroom/consumer/globe-at-home-tops-netflix-isp-speed-index/default-corporate-5-primary-thumbnail-m.jpg",
      "imageDesktop": "/sites/globe.com.ph/files/content/dam/globe/brie/AboutUs/newsroom/consumer/globe-at-home-tops-netflix-isp-speed-index/default-corporate-5-primary-thumbnail-d.jpg",
      "description": "Globe topped the Netflix ISP Speed Index for August, again leading the Internet Service Providers (ISPs) performance rating of the popular streaming service.",
      "datePosted": "Sep 29, 2021 | 10:28 AM",
      "titleFromTag": "Consumer"
    },
    {
      "title": "Help Frontliners and Marginalized Communities Fight COVID-19 by Donating Your Globe Rewards Points",
      "nonclickable": false,
      "openNewTab": false,
      "borderArticle": "border-color:#0074D9;",
      "borderTopArticle": "border-top-color:#0074D9;",
      "imageListing": "/sites/globe.com.ph/files/content/dam/globe/brie/AboutUs/newsroom/citizenship/frontliners-marginalized-communities-covid-19-globe-rewards/newsroom-citizenship-help-frontliners-communities-thumbnail-listing.jpg",
      "articleUrl": "https://www.globe.com.ph/about-us/newsroom/citizenship/frontliners-marginalized-communities-covid-19-globe-rewards.html",
      "columnType": "articles--type-3",
      "typeListing": "article",
      "imageMobile": "/sites/globe.com.ph/files/content/dam/globe/brie/AboutUs/newsroom/citizenship/frontliners-marginalized-communities-covid-19-globe-rewards/newsroom-citizenship-help-frontliners-communities-primary-thumbnail-d.jpg",
      "imageDesktop": "/sites/globe.com.ph/files/content/dam/globe/brie/AboutUs/newsroom/citizenship/frontliners-marginalized-communities-covid-19-globe-rewards/newsroom-citizenship-help-frontliners-communities-primary-thumbnail-d.jpg",
      "description": "Globe encourages customers to help fight COVID-19 through Globe Rewards points donation to support frontliners, COVID-19 patients, and indigent families.",
      "datePosted": "Sep 28, 2021 | 03:07 PM",
      "titleFromTag": "Citizenship"
    },
    {
      "title": "Globe Rewards and Virtualahan Help Marginalized Groups Gain Employment",
      "nonclickable": false,
      "openNewTab": false,
      "borderArticle": "border-color:#0074D9;",
      "borderTopArticle": "border-top-color:#0074D9;",
      "imageListing": "/sites/globe.com.ph/files/content/dam/globe/brie/AboutUs/newsroom/sustainability/globe-rewards-virtualahan-help-marginalized-groups-gain-employment/newsroom-citizenship-help-groups-gain-employment-thumbnail-listing.jpg",
      "articleUrl": "https://www.globe.com.ph/about-us/newsroom/citizenship/globe-rewards-virtualahan-help-marginalized-groups-gain-employment.html",
      "columnType": "articles--type-3",
      "typeListing": "article",
      "imageMobile": "/sites/globe.com.ph/files/content/dam/globe/brie/AboutUs/newsroom/sustainability/globe-rewards-virtualahan-help-marginalized-groups-gain-employment/newsroom-citizenship-help-groups-gain-employment-primary-thumbnail-m.jpg",
      "imageDesktop": "/sites/globe.com.ph/files/content/dam/globe/brie/AboutUs/newsroom/sustainability/globe-rewards-virtualahan-help-marginalized-groups-gain-employment/newsroom-citizenship-help-groups-gain-employment-primary-thumbnail-d.jpg",
      "description": "Through Virtualahan, Globe customers can help marginalized groups to access capacity-building courses to seek jobs and start businesses, even while at home.",
      "datePosted": "Sep 28, 2021 | 03:03 PM",
      "titleFromTag": "Citizenship"
    }
  ]
}
