{
  "status": 200,
  "page": 98,
  "totalPage": 298,
  "range": "1165-1176",
  "total": 3573,
  "result": [
    {
      "title": "Lend Your Furry Friends a Hand: Support Animal Welfare with Globe Rewards",
      "nonclickable": false,
      "openNewTab": false,
      "borderArticle": "border-color:#0074D9;",
      "borderTopArticle": "border-top-color:#0074D9;",
      "imageListing": "/sites/globe.com.ph/files/content/dam/globe/brie/AboutUs/newsroom/sustainability/support-animal-welfare-globe-rewards/newsroom-sustainability-support-animal-welfare-rewards-thumbnail-listing.jpg",
      "articleUrl": "https://www.globe.com.ph/about-us/newsroom/sustainability/support-animal-welfare-globe-rewards.html",
      "columnType": "articles--type-3",
      "typeListing": "article",
      "imageMobile": "/sites/globe.com.ph/files/content/dam/globe/brie/AboutUs/newsroom/sustainability/support-animal-welfare-globe-rewards/newsroom-sustainability-support-animal-welfare-rewards-primary-thumbnail-m.jpg",
      "imageDesktop": "/sites/globe.com.ph/files/content/dam/globe/brie/AboutUs/newsroom/sustainability/support-animal-welfare-globe-rewards/newsroom-sustainability-support-animal-welfare-rewards-primary-thumbnail-d.jpg",
      "description": "Globe is encouraging its members to extend support for the Philippine Animal Welfare Society (PAWS) by donating Globe Rewards points for their furry friends.",
      "datePosted": "Sep 28, 2021 | 02:43 PM",
      "titleFromTag": "Sustainability"
    },
    {
      "title": "Guardicore Collaborates with Amdocs to Elevate Globe Telecom’s Cloud Security",
      "nonclickable": false,
      "openNewTab": false,
      "borderArticle": "border-color:#0074D9;",
      "borderTopArticle": "border-top-color:#0074D9;",
      "imageListing": "/sites/globe.com.ph/files/content/dam/globe/brie/AboutUs/newsroom/partners/guardicore-amdocs-elevate-globe-telecom-cloud-security/default-business-2-thumbnail-listing.jpg",
      "articleUrl": "https://www.globe.com.ph/about-us/newsroom/partners/guardicore-amdocs-elevate-globe-telecom-cloud-security.html",
      "columnType": "articles--type-3",
      "typeListing": "article",
      "imageMobile": "/sites/globe.com.ph/files/content/dam/globe/brie/AboutUs/newsroom/partners/guardicore-amdocs-elevate-globe-telecom-cloud-security/default-business-2-primary-thumbnail-m.jpg",
      "imageDesktop": "/sites/globe.com.ph/files/content/dam/globe/brie/AboutUs/newsroom/partners/guardicore-amdocs-elevate-globe-telecom-cloud-security/default-business-2-primary-thumbnail-d.jpg",
      "description": "Guardicore will provide software-based segmentation to significantly improve Globe’s cloud security environment with superior transparency into network traffic.",
      "datePosted": "Sep 28, 2021 | 09:26 AM",
      "titleFromTag": "Partners"
    },
    {
      "title": "Globe Bridging Communities Goes to TikTok to Promote Mental Health",
      "nonclickable": false,
      "openNewTab": false,
      "borderArticle": "border-color:#0074D9;",
      "borderTopArticle": "border-top-color:#0074D9;",
      "imageListing": "/sites/globe.com.ph/files/content/dam/globe/brie/AboutUs/newsroom/consumer/globe-bridging-communities-tiktok-promote-mental-health/newsroom-consumer-tiktok-promote-mental-health-thumbnail-listing.jpg",
      "articleUrl": "https://www.globe.com.ph/about-us/newsroom/consumer/globe-bridging-communities-tiktok-promote-mental-health.html",
      "columnType": "articles--type-3",
      "typeListing": "article",
      "imageMobile": "/sites/globe.com.ph/files/content/dam/globe/brie/AboutUs/newsroom/consumer/globe-bridging-communities-tiktok-promote-mental-health/newsroom-consumer-tiktok-promote-mental-health-primary-thumbnail-m.jpg",
      "imageDesktop": "/sites/globe.com.ph/files/content/dam/globe/brie/AboutUs/newsroom/consumer/globe-bridging-communities-tiktok-promote-mental-health/newsroom-consumer-tiktok-promote-mental-health-primary-thumbnail-d.jpg",
      "description": "Turning to the highly-popular social media platform TikTok, Globe encourages everyone to dance their way to better days and do their share for Mother Earth.",
      "datePosted": "Sep 27, 2021 | 04:25 PM",
      "titleFromTag": "Consumer"
    },
    {
      "title": "HealthNow Supports USAID Campaign by Making Healthcare Accessible with Digital Technology",
      "nonclickable": false,
      "openNewTab": false,
      "borderArticle": "border-color:#0074D9;",
      "borderTopArticle": "border-top-color:#0074D9;",
      "imageListing": "/sites/globe.com.ph/files/content/dam/globe/brie/AboutUs/newsroom/917ventures/healthnow-support-usaid-heathlthcare-digital/newsroom-sustainability-healthnow-thumbnail-listing.jpg",
      "articleUrl": "https://www.globe.com.ph/about-us/newsroom/917ventures/healthnow-supports-usaid-campaign-healthcare-accessible.html",
      "columnType": "articles--type-3",
      "typeListing": "article",
      "imageMobile": "/sites/globe.com.ph/files/content/dam/globe/brie/AboutUs/newsroom/917ventures/healthnow-support-usaid-heathlthcare-digital/newsroom-sustainability-healthnow-free-consultation-primary-thumbnail-m.jpg",
      "imageDesktop": "/sites/globe.com.ph/files/content/dam/globe/brie/AboutUs/newsroom/917ventures/healthnow-support-usaid-heathlthcare-digital/newsroom-sustainability-healthnow-free-consultation-primary-thumbnail-d.jpg",
      "description": "HealthNow is featured as the healthcare support and companion of the United States Agency for International Development (USAID’s) “It’s OK to Delay” campaign.",
      "datePosted": "Sep 27, 2021 | 10:11 AM",
      "titleFromTag": "917Ventures"
    },
    {
      "title": "Moving Closer #DigitalPH: Globe Launches 5G SA Technology",
      "nonclickable": false,
      "openNewTab": false,
      "borderArticle": "border-color:#0074D9;",
      "borderTopArticle": "border-top-color:#0074D9;",
      "imageListing": "/sites/globe.com.ph/files/content/dam/globe/brie/AboutUs/newsroom/corporate/799-permits-1q-2021-new-towers/default-corporate-9-thumbnail-listing.jpg",
      "articleUrl": "https://www.globe.com.ph/about-us/newsroom/corporate/globe-launches-5g-sa-technology.html",
      "columnType": "articles--type-3",
      "typeListing": "article",
      "imageMobile": "/sites/globe.com.ph/files/content/dam/globe/brie/AboutUs/newsroom/corporate/799-permits-1q-2021-new-towers/default-corporate-9-primary-thumbnail-m.jpg",
      "imageDesktop": "/sites/globe.com.ph/files/content/dam/globe/brie/AboutUs/newsroom/corporate/799-permits-1q-2021-new-towers/default-corporate-9-primary-thumbnail-d.jpg",
      "description": "Through 5G Standalone (SA) technology, Globe opens up the network to a wide variety of use cases for its customers.",
      "datePosted": "Sep 27, 2021 | 09:25 AM",
      "titleFromTag": "Corporate"
    },
    {
      "title": "Globe At Home Improves Customer Experience, Introduces New Affordable Offers for Prepaid WiFi Users",
      "nonclickable": false,
      "openNewTab": false,
      "borderArticle": "border-color:#0074D9;",
      "borderTopArticle": "border-top-color:#0074D9;",
      "imageListing": "/sites/globe.com.ph/files/content/dam/globe/brie/AboutUs/newsroom/consumer/globe-at-home-improves-customer-experience/newsroom-consumer-gah-affordable-offers-thumbnail-listing.jpg",
      "articleUrl": "https://www.globe.com.ph/about-us/newsroom/consumer/globe-at-home-improves-customer-experience.html",
      "columnType": "articles--type-3",
      "typeListing": "article",
      "imageMobile": "/sites/globe.com.ph/files/content/dam/globe/brie/AboutUs/newsroom/consumer/globe-at-home-improves-customer-experience/newsroom-consumer-gah-affordable-offers-primary-thumbnail-m.jpg",
      "imageDesktop": "/sites/globe.com.ph/files/content/dam/globe/brie/AboutUs/newsroom/consumer/globe-at-home-improves-customer-experience/newsroom-consumer-gah-affordable-offers-primary-thumbnail-d.jpg",
      "description": "At a time when digital connections have become more significant, Globe At Home Prepaid WiFi is ensuring that its customers have access to internet services.",
      "datePosted": "Sep 24, 2021 | 06:04 PM",
      "titleFromTag": "Consumer"
    },
    {
      "title": "13 Globe Key Sites Using Clean Energy to Fight Climate Change",
      "nonclickable": false,
      "openNewTab": false,
      "borderArticle": "border-color:#0074D9;",
      "borderTopArticle": "border-top-color:#0074D9;",
      "imageListing": "/sites/globe.com.ph/files/content/dam/globe/brie/AboutUs/newsroom/corporate/globe-key-sites-clean-energy-fight-climate-change/default-citizenship-thumbnail-listing.jpg",
      "articleUrl": "https://www.globe.com.ph/about-us/newsroom/corporate/key-sites-clean-energy-fight-climate-change.html",
      "columnType": "articles--type-3",
      "typeListing": "article",
      "imageMobile": "/sites/globe.com.ph/files/content/dam/globe/brie/AboutUs/newsroom/corporate/globe-key-sites-clean-energy-fight-climate-change/default-citizenship-primary-thumbnail-m.jpg",
      "imageDesktop": "/sites/globe.com.ph/files/content/dam/globe/brie/AboutUs/newsroom/corporate/globe-key-sites-clean-energy-fight-climate-change/default-citizenship-primary-thumbnail-d.jpg",
      "description": "Globe has shifted to clean energy for 13 corporate offices and key facilities in Metro Manila, Luzon, and Visayas to help address climate change.",
      "datePosted": "Sep 24, 2021 | 02:28 PM",
      "titleFromTag": "Corporate"
    },
    {
      "title": "Globe Brings Rewarding Experiences to More Communities",
      "nonclickable": false,
      "openNewTab": false,
      "borderArticle": "border-color:#0074D9;",
      "borderTopArticle": "border-top-color:#0074D9;",
      "imageListing": "/sites/globe.com.ph/files/content/dam/globe/brie/AboutUs/newsroom/consumer/globe-brings-rewarding-experiences-more-communities/newsroom-consumer-rewarding-experiences-thumbnail-listing.jpg",
      "articleUrl": "https://www.globe.com.ph/about-us/newsroom/consumer/globe-brings-rewarding-experiences-more-communities.html",
      "columnType": "articles--type-3",
      "typeListing": "article",
      "imageMobile": "/sites/globe.com.ph/files/content/dam/globe/brie/AboutUs/newsroom/consumer/globe-brings-rewarding-experiences-more-communities/newsroom-consumer-rewarding-experiences-primary-thumbnail-m.jpg",
      "imageDesktop": "/sites/globe.com.ph/files/content/dam/globe/brie/AboutUs/newsroom/consumer/globe-brings-rewarding-experiences-more-communities/newsroom-consumer-rewarding-experiences-primary-thumbnail-d.jpg",
      "description": "Through 917 Month on-ground activities, Globe hopes to bring joy to customers and reward their loyalty in a way that will also enable them in their daily lives.",
      "datePosted": "Sep 24, 2021 | 01:47 PM",
      "titleFromTag": "Consumer"
    },
    {
      "title": "Globe, DLSU Conduct Special Teacher Training for De La Salle Schools’ Technopreneurship Faculty",
      "nonclickable": false,
      "openNewTab": false,
      "borderArticle": "border-color:#0074D9;",
      "borderTopArticle": "border-top-color:#0074D9;",
      "imageListing": "/sites/globe.com.ph/files/content/dam/globe/brie/AboutUs/newsroom/partners/globe-dlsu-teacher-training-technopreneurship/newsroom-partners-globe-teacher-training-de-lasalle-thumbnail-listing.jpg",
      "articleUrl": "https://www.globe.com.ph/about-us/newsroom/partners/globe-dlsu-teacher-training-technopreneurship.html",
      "columnType": "articles--type-3",
      "typeListing": "article",
      "imageMobile": "/sites/globe.com.ph/files/content/dam/globe/brie/AboutUs/newsroom/partners/globe-dlsu-teacher-training-technopreneurship/newsroom-partners-globe-teacher-training-de-lasalle-primary-thumbnail-m .jpg",
      "imageDesktop": "/sites/globe.com.ph/files/content/dam/globe/brie/AboutUs/newsroom/partners/globe-dlsu-teacher-training-technopreneurship/newsroom-partners-globe-teacher-training-de-lasalle-primary-thumbnail-d .jpg",
      "description": "Over 2,100 Technopreneurship 101 students of De La Salle University (DLSU) and other schools of the De La Salle System will annually benefit from TECHPRE101.",
      "datePosted": "Sep 24, 2021 | 12:58 PM",
      "titleFromTag": "Partners"
    },
    {
      "title": "G Day Everyday with Bigger, Better GlobeOne Super App",
      "nonclickable": false,
      "openNewTab": false,
      "borderArticle": "border-color:#0074D9;",
      "borderTopArticle": "border-top-color:#0074D9;",
      "imageListing": "/sites/globe.com.ph/files/content/dam/globe/brie/AboutUs/newsroom/consumer/g-day-everyday-new-globeone-super-app/newsroom-consumer-better-globeone-super-app-thumbnail-listing.jpg",
      "articleUrl": "https://www.globe.com.ph/about-us/newsroom/consumer/g-day-everyday-new-globeone-super-app.html",
      "columnType": "articles--type-3",
      "typeListing": "article",
      "imageMobile": "/sites/globe.com.ph/files/content/dam/globe/brie/AboutUs/newsroom/consumer/g-day-everyday-new-globeone-super-app/newsroom-consumer-better-globeone-super-app-primary-thumbnail-m.jpg",
      "imageDesktop": "/sites/globe.com.ph/files/content/dam/globe/brie/AboutUs/newsroom/consumer/g-day-everyday-new-globeone-super-app/newsroom-consumer-better-globeone-super-app-primary-thumbnail-d.jpg",
      "description": "Globe launches the New GlobeOne super app, a platform that aims to consolidate the customer experience for Globe, TM, Globe At Home WiFi, and MyFi subscribers.",
      "datePosted": "Sep 23, 2021 | 01:19 PM",
      "titleFromTag": "Consumer"
    },
    {
      "title": "Globe Scores Big Wins in Opensignal 5G Global Impact Awards",
      "nonclickable": false,
      "openNewTab": false,
      "borderArticle": "border-color:#0074D9;",
      "borderTopArticle": "border-top-color:#0074D9;",
      "imageListing": "/sites/globe.com.ph/files/content/dam/globe/brie/AboutUs/newsroom/corporate/largest-ph-publicly-listed-telco-digital-solutions-group/Corporate-globe-thumbnail-listing.jpg",
      "articleUrl": "https://www.globe.com.ph/about-us/newsroom/corporate/big-wins-opensignal-5g-global-impact.html",
      "columnType": "articles--type-3",
      "typeListing": "article",
      "imageMobile": "/sites/globe.com.ph/files/content/dam/globe/brie/AboutUs/newsroom/corporate/largest-ph-publicly-listed-telco-digital-solutions-group/Corporate-globe-primary-thumbnail-m.jpg",
      "imageDesktop": "/sites/globe.com.ph/files/content/dam/globe/brie/AboutUs/newsroom/corporate/largest-ph-publicly-listed-telco-digital-solutions-group/Corporate-globe-primary-thumbnail-d.jpg",
      "description": "Further strengthening its status as the pioneer in 5G supremacy in the country, Globe secured the coveted categories in Opensignal’s 5G Global Impact awards.",
      "datePosted": "Sep 23, 2021 | 01:04 PM",
      "titleFromTag": "Corporate"
    },
    {
      "title": "Globe Partners with foodpanda for G Music Fest & G Legends Cup",
      "nonclickable": false,
      "openNewTab": false,
      "borderArticle": "border-color:#0074D9;",
      "borderTopArticle": "border-top-color:#0074D9;",
      "imageListing": "/sites/globe.com.ph/files/content/dam/globe/brie/AboutUs/newsroom/partners/globe-foodpanda-g-music-fest-g-legends-cup/newsroom-partners-globe-foodpanda-gmusicfest-glegends-thumbnail-listing.jpg",
      "articleUrl": "https://www.globe.com.ph/about-us/newsroom/partners/globe-foodpanda-g-music-fest-g-legends-cup.html",
      "columnType": "articles--type-3",
      "typeListing": "article",
      "imageMobile": "/sites/globe.com.ph/files/content/dam/globe/brie/AboutUs/newsroom/partners/globe-foodpanda-g-music-fest-g-legends-cup/newsroom-partners-globe-foodpanda-gmusicfest-glegends-primary-thumbnail-m.jpg",
      "imageDesktop": "/sites/globe.com.ph/files/content/dam/globe/brie/AboutUs/newsroom/partners/globe-foodpanda-g-music-fest-g-legends-cup/newsroom-partners-globe-foodpanda-gmusicfest-glegends-primary-thumbnail-d.jpg",
      "description": "Globe is partnering with foodpanda to indulge their customers with exclusive treats, discounts, and prizes at Globe's G Legends Cup Finals and G Music Fest.",
      "datePosted": "Sep 22, 2021 | 04:04 PM",
      "titleFromTag": "Partners"
    }
  ]
}
