{
  "status": 200,
  "page": 99,
  "totalPage": 298,
  "range": "1177-1188",
  "total": 3573,
  "result": [
    {
      "title": "GCash Expects to Surpass Inclusive Growth Targets, Offers Full Array of Financial Services",
      "nonclickable": false,
      "openNewTab": false,
      "borderArticle": "border-color:#0074D9;",
      "borderTopArticle": "border-top-color:#0074D9;",
      "imageListing": "/sites/globe.com.ph/files/content/dam/globe/brie/AboutUs/newsroom/common/default-9/default-corporate-4-thumbnail-listing.jpg",
      "articleUrl": "https://www.globe.com.ph/about-us/newsroom/partners/gcash-expect-surpass-growth-targets-financial-services.html",
      "columnType": "articles--type-3",
      "typeListing": "article",
      "imageMobile": "/sites/globe.com.ph/files/content/dam/globe/brie/AboutUs/newsroom/common/default-9/default-corporate-4-primary-thumbnail-m.jpg",
      "imageDesktop": "/sites/globe.com.ph/files/content/dam/globe/brie/AboutUs/newsroom/common/default-9/default-corporate-4-primary-thumbnail-d.jpg",
      "description": "The Philippines’ leading mobile wallet GCash reported that it expects to exceed its inclusive growth targets on the full array of financial services it offers.",
      "datePosted": "Sep 22, 2021 | 02:31 PM",
      "titleFromTag": "Partners"
    },
    {
      "title": "Globe Increases Overall 4G Download Speeds Nationwide by up to 25 Percent",
      "nonclickable": false,
      "openNewTab": false,
      "borderArticle": "border-color:#0074D9;",
      "borderTopArticle": "border-top-color:#0074D9;",
      "imageListing": "/sites/globe.com.ph/files/content/dam/globe/brie/AboutUs/newsroom/corporate/799-permits-1q-2021-new-towers/default-corporate-9-thumbnail-listing.jpg",
      "articleUrl": "https://www.globe.com.ph/about-us/newsroom/consumer/globe-increases-4g-download-speeds-25-percent.html",
      "columnType": "articles--type-3",
      "typeListing": "article",
      "imageMobile": "/sites/globe.com.ph/files/content/dam/globe/brie/AboutUs/newsroom/corporate/799-permits-1q-2021-new-towers/default-corporate-9-primary-thumbnail-m.jpg",
      "imageDesktop": "/sites/globe.com.ph/files/content/dam/globe/brie/AboutUs/newsroom/corporate/799-permits-1q-2021-new-towers/default-corporate-9-primary-thumbnail-d.jpg",
      "description": "Globe announced significant improvements to its network quality, with increased overall 4G download speeds across its nationwide network by 25 percent.",
      "datePosted": "Sep 22, 2021 | 09:05 AM",
      "titleFromTag": "Consumer"
    },
    {
      "title": "Kids Unleash the Kraken: Propose Idea for 5G-Backed Wearables for Real-Time Play",
      "nonclickable": false,
      "openNewTab": false,
      "borderArticle": "border-color:#0074D9;",
      "borderTopArticle": "border-top-color:#0074D9;",
      "imageListing": "/sites/globe.com.ph/files/content/dam/globe/brie/AboutUs/newsroom/sustainability/kids-kraken-5g-backed-wearables/newsroom-consumer-kids-idea-5g-wearables-thumbnail-listing.jpg",
      "articleUrl": "https://www.globe.com.ph/about-us/newsroom/sustainability/kids-kraken-5g-backed-wearables.html",
      "columnType": "articles--type-3",
      "typeListing": "article",
      "imageMobile": "/sites/globe.com.ph/files/content/dam/globe/brie/AboutUs/newsroom/sustainability/kids-kraken-5g-backed-wearables/newsroom-consumer-kids-idea-5g-wearables-primary-thumbnail-m.jpg",
      "imageDesktop": "/sites/globe.com.ph/files/content/dam/globe/brie/AboutUs/newsroom/sustainability/kids-kraken-5g-backed-wearables/newsroom-consumer-kids-idea-5g-wearables-primary-thumbnail-d.jpg",
      "description": "Five 12-13-year-olds envision an innovative wearable device that young people deprived of physical interactions can use to play with one another in real-time.",
      "datePosted": "Sep 21, 2021 | 11:31 AM",
      "titleFromTag": "Sustainability"
    },
    {
      "title": "Globe, Quezon City Empower Students and Residents with Digital Tools",
      "nonclickable": false,
      "openNewTab": false,
      "borderArticle": "border-color:#0074D9;",
      "borderTopArticle": "border-top-color:#0074D9;",
      "imageListing": "/sites/globe.com.ph/files/content/dam/globe/brie/AboutUs/newsroom/partners/globe-quezon-city-empower-students-digital-tools/newsroom-partners-globe-quezon-city-digital-tools-thumbnail-listing.jpg",
      "articleUrl": "https://www.globe.com.ph/about-us/newsroom/partners/globe-quezon-city-empower-students-digital-tools.html",
      "columnType": "articles--type-3",
      "typeListing": "article",
      "imageMobile": "/sites/globe.com.ph/files/content/dam/globe/brie/AboutUs/newsroom/partners/globe-quezon-city-empower-students-digital-tools/newsroom-partners-globe-quezon-city-digital-tools-primary-thumbnail-m.jpg",
      "imageDesktop": "/sites/globe.com.ph/files/content/dam/globe/brie/AboutUs/newsroom/partners/globe-quezon-city-empower-students-digital-tools/newsroom-partners-globe-quezon-city-digital-tools-primary-thumbnail-d.jpg",
      "description": "Globe is working together with the Quezon City government in providing a suite of internet and digital solutions to support the local residents and learners.",
      "datePosted": "Sep 21, 2021 | 10:01 AM",
      "titleFromTag": "Partners"
    },
    {
      "title": "PH Electric Vehicles Adoption Key to Reducing CO2 Emissions",
      "nonclickable": false,
      "openNewTab": false,
      "borderArticle": "border-color:#1C91C5;",
      "borderTopArticle": "border-top-color:#1C91C5;",
      "imageListing": "/sites/globe.com.ph/files/content/dam/globe/brie/AboutUs/newsroom/common/default-sustainability-1/default-sustainability-2-thumbnail-listing.jpg",
      "articleUrl": "https://www.globe.com.ph/about-us/newsroom/sustainability/ph-electric-vehicles-adoption-reducing-co2.html",
      "columnType": "articles--type-3",
      "typeListing": "article",
      "imageMobile": "/sites/globe.com.ph/files/content/dam/globe/brie/AboutUs/newsroom/common/default-sustainability-1/default-sustainability-2-primary-thumbnail-m.jpg",
      "imageDesktop": "/sites/globe.com.ph/files/content/dam/globe/brie/AboutUs/newsroom/common/default-sustainability-1/default-sustainability-2-primary-thumbnail-d.jpg",
      "description": "A global effort is needed to reduce harmful greenhouse gas emissions and the production of electric vehicles is seen as a positive step towards this initiative.",
      "datePosted": "Sep 20, 2021 | 11:41 AM",
      "titleFromTag": "Sustainability"
    },
    {
      "title": "KonsultaMD, Aetrex PH Team Up to Bring Filipinos Closer to Wellness",
      "nonclickable": false,
      "openNewTab": false,
      "borderArticle": "border-color:#0074D9;",
      "borderTopArticle": "border-top-color:#0074D9;",
      "imageListing": "/sites/globe.com.ph/files/content/dam/globe/brie/AboutUs/newsroom/consumer/konsultamd-aetrex-ph-bring-filipinos-wellness/newsroom-consumer-konsultamd-aetrexph-wellness-thumbnail-listing.jpg",
      "articleUrl": "https://www.globe.com.ph/about-us/newsroom/consumer/konsultamd-aetrex-ph-bring-filipinos-wellness.html",
      "columnType": "articles--type-3",
      "typeListing": "article",
      "imageMobile": "/sites/globe.com.ph/files/content/dam/globe/brie/AboutUs/newsroom/consumer/konsultamd-aetrex-ph-bring-filipinos-wellness/newsroom-consumer-konsultamd-aetrexph-wellness-primary-thumbnail-m.jpg",
      "imageDesktop": "/sites/globe.com.ph/files/content/dam/globe/brie/AboutUs/newsroom/consumer/konsultamd-aetrex-ph-bring-filipinos-wellness/newsroom-consumer-konsultamd-aetrexph-wellness-primary-thumbnail-d.jpg",
      "description": "KonsultaMD and Aetrex Philippines joined hands to bring Filipinos in the country and abroad one step closer to wellness through accessible healthcare.",
      "datePosted": "Sep 20, 2021 | 10:45 AM",
      "titleFromTag": "Consumer"
    },
    {
      "title": "Watch & Share the Good Vibes: HONNE, Vance Joy, BEKA, SB19, Many More to Perform at G Music Fest 2021",
      "nonclickable": false,
      "openNewTab": false,
      "borderArticle": "border-color:#0074D9;",
      "borderTopArticle": "border-top-color:#0074D9;",
      "imageListing": "/sites/globe.com.ph/files/content/dam/globe/brie/AboutUs/newsroom/consumer/honne-vance-joy-beka-sb19-g-music-fest-2021/newsroom-consumer-goodvibes-gmusicfest-2021-thumbnail-listing.jpg",
      "articleUrl": "https://www.globe.com.ph/about-us/newsroom/consumer/honne-vance-joy-beka-sb19-g-music-fest-2021.html",
      "columnType": "articles--type-3",
      "typeListing": "article",
      "imageMobile": "/sites/globe.com.ph/files/content/dam/globe/brie/AboutUs/newsroom/consumer/honne-vance-joy-beka-sb19-g-music-fest-2021/newsroom-consumer-goodvibes-gmusicfest-2021-primary-thumbnail-m.jpg",
      "imageDesktop": "/sites/globe.com.ph/files/content/dam/globe/brie/AboutUs/newsroom/consumer/honne-vance-joy-beka-sb19-g-music-fest-2021/newsroom-consumer-goodvibes-gmusicfest-2021-primary-thumbnail-d.jpg",
      "description": "In this year’s G Music Fest, Globe is bringing back some of the feels with a wide roster of local and international artists, including HONNE, SB19, and more. ",
      "datePosted": "Sep 17, 2021 | 01:53 PM",
      "titleFromTag": "Consumer"
    },
    {
      "title": "Globe Hits 1M Fiber Lines Target, Continues Builds to Meet Surging Demand",
      "nonclickable": false,
      "openNewTab": false,
      "borderArticle": "border-color:#0074D9;",
      "borderTopArticle": "border-top-color:#0074D9;",
      "imageListing": "/sites/globe.com.ph/files/content/dam/globe/brie/AboutUs/newsroom/common/updated/Corporate-globe-thumbnail-listing.jpg",
      "articleUrl": "https://www.globe.com.ph/about-us/newsroom/consumer/globe-hits-1m-fiber-lines-target.html",
      "columnType": "articles--type-3",
      "typeListing": "article",
      "imageMobile": "/sites/globe.com.ph/files/content/dam/globe/brie/AboutUs/newsroom/common/updated/Corporate-globe-primary-thumbnail-m.jpg",
      "imageDesktop": "/sites/globe.com.ph/files/content/dam/globe/brie/AboutUs/newsroom/common/updated/Corporate-globe-primary-thumbnail-d.jpg",
      "description": "Globe’s bid to make connectivity more pervasive and accessible received a major boost after it completed its target to lay one million fiber lines this year.",
      "datePosted": "Sep 17, 2021 | 01:53 PM",
      "titleFromTag": "Consumer"
    },
    {
      "title": "Globe Boosts Digital Access among Citizens in Koronadal City",
      "nonclickable": false,
      "openNewTab": false,
      "borderArticle": "border-color:#0074D9;",
      "borderTopArticle": "border-top-color:#0074D9;",
      "imageListing": "/sites/globe.com.ph/files/content/dam/globe/brie/AboutUs/newsroom/corporate/globe-boosts-digital-access-koronadal/newsroom-corporate-boost-digital-access-koronadal-thumbnail-listing.jpg",
      "articleUrl": "https://www.globe.com.ph/about-us/newsroom/corporate/globe-boosts-digital-access-koronadal.html",
      "columnType": "articles--type-3",
      "typeListing": "article",
      "imageMobile": "/sites/globe.com.ph/files/content/dam/globe/brie/AboutUs/newsroom/corporate/globe-boosts-digital-access-koronadal/newsroom-corporate-boost-digital-access-koronadal-primary-thumbnail-m.jpg",
      "imageDesktop": "/sites/globe.com.ph/files/content/dam/globe/brie/AboutUs/newsroom/corporate/globe-boosts-digital-access-koronadal/newsroom-corporate-boost-digital-access-koronadal-primary-thumbnail-d.jpg",
      "description": "The local government of Koronadal City in Mindanao tapped Globe to provide digital solutions for communications, connectivity, telehealth, and fintech services.",
      "datePosted": "Sep 17, 2021 | 01:44 PM",
      "titleFromTag": "Corporate"
    },
    {
      "title": "Globe’s GB to Points Promo Is Back for 917 #GDayEveryday Celebration",
      "nonclickable": false,
      "openNewTab": false,
      "borderArticle": "border-color:#0074D9;",
      "borderTopArticle": "border-top-color:#0074D9;",
      "imageListing": "/sites/globe.com.ph/files/content/dam/globe/brie/AboutUs/newsroom/common/default-8/default-corporate-2-thumbnail-listing.jpg",
      "articleUrl": "https://www.globe.com.ph/about-us/newsroom/917ventures/gb-to-points-promo-917-gday.html",
      "columnType": "articles--type-3",
      "typeListing": "article",
      "imageMobile": "/sites/globe.com.ph/files/content/dam/globe/brie/AboutUs/newsroom/common/default-8/default-corporate-2-primary-thumbnail-m.jpg",
      "imageDesktop": "/sites/globe.com.ph/files/content/dam/globe/brie/AboutUs/newsroom/common/default-8/default-corporate-2-primary-thumbnail-d.jpg",
      "description": "In line with Globe’s celebration of its 917 Day, Globe and TM customers once again have the option to convert their unused data to Globe Rewards points.",
      "datePosted": "Sep 17, 2021 | 09:43 AM",
      "titleFromTag": "917Ventures"
    },
    {
      "title": "  KodeGo to Address Tech Skills Gap with Salesforce Bootcamp",
      "nonclickable": false,
      "openNewTab": false,
      "borderArticle": "border-color:#0074D9;",
      "borderTopArticle": "border-top-color:#0074D9;",
      "imageListing": "/sites/globe.com.ph/files/content/dam/globe/brie/AboutUs/newsroom/917ventures/kodego-address-tech-skils-gap-salesforce-bootcamp/newsroom-917ventures-kodego-salesforce-bootcamp-thumbnail-listing.jpg",
      "articleUrl": "https://www.globe.com.ph/about-us/newsroom/917ventures/kodego-address-tech-skils-gap-salesforce-bootcamp.html",
      "columnType": "articles--type-3",
      "typeListing": "article",
      "imageMobile": "/sites/globe.com.ph/files/content/dam/globe/brie/AboutUs/newsroom/917ventures/kodego-address-tech-skils-gap-salesforce-bootcamp/newsroom-917ventures-kodego-salesforce-bootcamp-primary-thumbnail-m.jpg",
      "imageDesktop": "/sites/globe.com.ph/files/content/dam/globe/brie/AboutUs/newsroom/917ventures/kodego-address-tech-skils-gap-salesforce-bootcamp/newsroom-917ventures-kodego-salesforce-bootcamp-primary-thumbnail-d.jpg",
      "description": "KodeGo is launching its latest program that will certify participants in the use of the Salesforce platform and allow them to secure jobs in top tech companies.",
      "datePosted": "Sep 16, 2021 | 03:43 PM",
      "titleFromTag": "917Ventures"
    },
    {
      "title": "Globe Ramps up Spending Efficiency With Cascadeo’s Cloud Technology Optimization",
      "nonclickable": false,
      "openNewTab": false,
      "borderArticle": "border-color:#0074D9;",
      "borderTopArticle": "border-top-color:#0074D9;",
      "imageListing": "/sites/globe.com.ph/files/content/dam/globe/brie/AboutUs/newsroom/business/globe-spending-efficiency-cascadeo-cloud-technology/newsroom-business-ramps-spending-cascadeos-cloud-thumbnail-listing.jpg",
      "articleUrl": "https://www.globe.com.ph/about-us/newsroom/business/globe-spending-efficiency-cascadeo-cloud-technology.html",
      "columnType": "articles--type-3",
      "typeListing": "article",
      "imageMobile": "/sites/globe.com.ph/files/content/dam/globe/brie/AboutUs/newsroom/business/globe-spending-efficiency-cascadeo-cloud-technology/newsroom-business-ramps-spending-cascadeos-cloud-primary-thumbnail-m.jpg",
      "imageDesktop": "/sites/globe.com.ph/files/content/dam/globe/brie/AboutUs/newsroom/business/globe-spending-efficiency-cascadeo-cloud-technology/newsroom-business-ramps-spending-cascadeos-cloud-primary-thumbnail-d.jpg",
      "description": "Globe Telecom found ways to effectively optimize its cloud services and cut its annual spending through its collaboration with Cascadeo.",
      "datePosted": "Sep 16, 2021 | 12:25 PM",
      "titleFromTag": "Business"
    }
  ]
}
